epoch,loss,val_loss
0,0.4577025899155031,0.3435480208389177
1,0.357451425529748,0.3421127429505431
2,0.3525724195427089,0.3388250592464562
3,0.3536119024165637,0.3341903311879482
4,0.3525638528305402,0.33896808477310464
5,0.3540243814834315,0.3323189387791348
6,0.3568372493676895,0.3457237614042277
7,0.35955128993531815,0.3406069695901213
8,0.35920925227234707,0.34900008981922054
9,0.3605462782520404,0.3512888893013743
10,0.3611862835667437,0.3465718999202911
11,0.3625508905459252,0.34784991071172006
12,0.36359801967207006,0.3445264297051828
13,0.36452041822877096,0.34795214244242323
14,0.364670044737305,0.35380913267653835
15,0.3633456517926591,0.35014609051060114
16,0.3649902711924407,0.3504114782578174
17,0.3667481581123473,0.3547004402553948
18,0.3664761469829932,0.3479805769276445
19,0.36724696422310427,0.3547730429909235
20,0.3672315147731474,0.3548535869697778
21,0.36828076928925574,0.35600285172849194
22,0.3676028102874947,0.35698055682004415
23,0.36741833299326837,0.35767207059643663
24,0.3683569641758481,0.362915872947433
25,0.37025133924211284,0.35671680885316487
26,0.3692713446312661,0.35087653653755096
27,0.368826642370014,0.35048689157229945
28,0.36790064679946394,0.35032305865875607
29,0.36937009445947105,0.35331514064412917
30,0.3694574083801839,0.3609699951084474
31,0.3698876818196119,0.3581392322240181
32,0.36914420156501787,0.35339226760423387
33,0.3689896649747395,0.35911357813701333
34,0.3687565145705393,0.3538678087843982
35,0.36929841711818934,0.37486881380243603
36,0.3695305188695749,0.3589037871418788
37,0.369153083981372,0.35436217144844695
38,0.36947255504665805,0.35704175914001
39,0.3695149081434795,0.3540534476197452
40,0.3695330699746183,0.367838744868714
41,0.3703519592793872,0.36138825221266674
42,0.36977956550802776,0.35313993897847984
43,0.369705847805266,0.3566044380484996
44,0.36974208334906755,0.35917099534450075
45,0.36917104604866524,0.35233060052408405
46,0.37011561495624035,0.35339006402099993
47,0.37084746558824666,0.35626557452448576
48,0.3699423762752687,0.3608345131466085
49,0.3720771088134393,0.3620543021645279
50,0.3726089354321134,0.35687370473837715
51,0.370542398803801,0.35648724806569787
52,0.3708425488373678,0.35822495936573956
53,0.3712791689187646,0.35488310473195345
54,0.37238106853347286,0.3563854413987753
55,0.3711137139052749,0.3593072828875261
56,0.3720288451573102,0.362496943200205
57,0.371036400751556,0.3563080554751004
58,0.37058979142800247,0.36017703164039544
59,0.3720157487665395,0.36666789779021114
60,0.3712727490475504,0.3610964703637221
61,0.37094763874578135,0.3729368923692711
62,0.37167057243464374,0.36377509858003015
63,0.3721654083821371,0.3634578167231994
64,0.3708466982321323,0.3600056106881794
65,0.3715619399869223,0.3562306615026231
66,0.3714959377093349,0.3602880294595612
67,0.371249680654157,0.355243319650056
68,0.37298515170597857,0.36154452413441396
69,0.3710844662067316,0.3556816821309095
70,0.37073035676590055,0.3595893545935817
71,0.37173665127007843,0.36436663888280024
72,0.37077015170676886,0.3603052979838239
73,0.3703565317287361,0.35967740970033024
74,0.3707359350853867,0.3590297887505116
75,0.37048043366715466,0.3531637533302725
76,0.3702986850869283,0.35691560167949177
77,0.36969340757859814,0.35681442617886644
78,0.36959276184308426,0.3621277198594272
79,0.37042095994739366,0.35599154335448924
80,0.3702799580138239,0.3602557982358136
81,0.3707598084397465,0.36223345492201325
82,0.37118327460163014,0.3590298417082475
83,0.371834453448856,0.36107001356351504
84,0.37070672533767907,0.35558469785681024
85,0.37067921500238443,0.36389691263606466
86,0.3707720055352983,0.357586853115518
87,0.370320959924888,0.35165940779839117
88,0.3698093835547793,0.3564417280516582
89,0.36967129686816014,0.35917774471246605
90,0.37017539074365574,0.35837702200553906
91,0.371233573369831,0.36629167440840604
92,0.37050273440617193,0.3539969995799146
93,0.3698247748556091,0.3591304142738104
94,0.3710563801783767,0.3606549667470937
95,0.3717521966291104,0.36098896823853666
96,0.37150807358962806,0.3575721896477859
97,0.37096085876011675,0.3613655397008322
98,0.3712090543859763,0.35803187057823066
99,0.3724507681482596,0.35910620729515247
100,0.3711278882262419,0.36198389793641184
101,0.37143345436064884,0.36215754538556955
102,0.37127422670825566,0.36392678821947355
103,0.3712435438453531,0.35628814672611636
104,0.3710722149587613,0.3556235432141405
105,0.3704066027680619,0.3539688850164607
106,0.3713521327826383,0.3553132817016224
107,0.3705055956915916,0.3577828854443286
108,0.3704847724462529,0.3637988121405135
109,0.371143153660578,0.35990924051594947
110,0.3724406625124051,0.3582450526812554
111,0.37116959096910096,0.36062073719665855
112,0.3707641705787115,0.3597118451115762
113,0.37076183314844546,0.35936375691072786
114,0.3708351164865341,0.36370822052499285
115,0.37109299667412227,0.3622992251427891
116,0.37012556427903326,0.3547285386245616
117,0.3694362030614367,0.3599736535104425
118,0.3714861301563567,0.3610122358518602
119,0.37136618567524765,0.3552243378185588
120,0.37113472519873425,0.3615361759794116
121,0.37116988598584555,0.35944928998688036
122,0.370516827922043,0.3652786912467551
123,0.3707445346421485,0.3565700868475466
124,0.37064621873718917,0.3655588536947023
125,0.37045915464194323,0.3585898900119058
126,0.3717794473573052,0.36584243441826914
127,0.37166638708143257,0.35903971604187124
128,0.3715452993985078,0.3631932690727546
129,0.3730241337879073,0.3609973768199834
130,0.37107374982608615,0.36800687386074976
131,0.371935122198253,0.36573678170484153
132,0.37051170306791775,0.3639413023613762
133,0.37208311258553506,0.3710366641227926
134,0.3718921516397841,0.3575894990928368
135,0.37092041808237924,0.35615753399968053
136,0.3708867034475931,0.3633954885135505
137,0.37146844410056395,0.3578528262499572
138,0.37111978148154207,0.36215301026006297
139,0.37077275674948224,0.35804881381485776
140,0.3712714925897513,0.3587458423744443
141,0.370200224882894,0.3533086307340778
142,0.37020586757921425,0.3623712711332295
143,0.37163485731001944,0.3556832539919229
144,0.3701388760148477,0.35895283195127436
145,0.37078460285050857,0.3634248750294889
146,0.36975214931609823,0.35948656976754745
147,0.370797217309809,0.3548767287994147
148,0.3701246463842064,0.35419917476438256
149,0.3694827024391692,0.3638591372860416
150,0.36955931862656644,0.3534201411145157
151,0.37064657487374864,0.3602563359344866
152,0.37033114617495083,0.3543559191967546
153,0.3701158561546197,0.35851419395000494
154,0.37031166075323946,0.362244710797521
155,0.36992483941004506,0.35630797653399343
156,0.3695377493210083,0.3576713205592379
157,0.37028093303175713,0.3641620529974174
158,0.36946193579199604,0.3594792927558695
159,0.3687130774828412,0.3557105340178382
160,0.36987479433142917,0.36218526761220515
161,0.3694691185334666,0.35483995541652236
162,0.3701996168940424,0.3516856088013738
163,0.36932400770908935,0.3632289369901021
164,0.3696629789540823,0.35713262320628325
165,0.3697485106648971,0.3592217078754212
166,0.3691150327865556,0.36225748939525765
167,0.36867582271870275,0.35534082799062244
168,0.37007216793045794,0.359202809674123
169,0.3695584714913769,0.3664512450580953
170,0.36947983625032504,0.3544708945261978
171,0.3695987157219405,0.36085107835539937
172,0.36923210513744475,0.36454667534077934
173,0.3694150149822235,0.36721693144904244
174,0.36993551732684443,0.3605403856156033
175,0.3693998913415629,0.35755168659263575
176,0.36914066042157534,0.3615166726918696
177,0.3694024753627823,0.36686067944218836
178,0.3681433945178413,0.3658239370618327
179,0.36907159562727465,0.35172314759395223
180,0.36873579565718995,0.35939071781250487
181,0.36947043798416496,0.35641071976246336
182,0.36961601915552295,0.3585536946200396
183,0.3702201273939531,0.3556797023672257
184,0.36939813497307017,0.35483533044897825
185,0.3698033954354646,0.36490590627466096
186,0.36968987700555495,0.35785179281273416
187,0.3699727145741709,0.3555377151360864
188,0.37150283469210826,0.35912610316121857
189,0.37028461542007346,0.35718879971384326
190,0.37003778794510445,0.3639089314316891
191,0.37014855846488254,0.35865683095878637
192,0.3709380171411604,0.3563422439597239
193,0.37067922949790955,0.36275942460463867
194,0.37044814551134314,0.36171433457686275
195,0.3707654142589737,0.35890160859936343
196,0.37141240876707865,0.3647441349663777
197,0.37060954779076327,0.35664212529676675
198,0.37000041907791903,0.3651822033879821
199,0.37094349599629045,0.36246787116765394
200,0.3701971862390578,0.36721848762335085
201,0.3715760395276823,0.35957339855586234
202,0.37053910388146716,0.36371419010177825
203,0.3706400689360998,0.35573386188841216
204,0.3718256442140254,0.36412159616349676
205,0.37085073931012946,0.36325646901846126
206,0.37123655422245433,0.361099857145079
207,0.37096379035181576,0.35977215089647147
208,0.37128940314126074,0.3579639061765756
209,0.3698643446445847,0.3648941350099234
210,0.37084878725801307,0.3603460836101139
211,0.37203695525447306,0.3581039369686387
212,0.37156257484319977,0.3574573365489545
213,0.3712545338514044,0.3576770178302941
214,0.3704939942368514,0.3671536361987477
215,0.37107466435651953,0.3655058974815594
216,0.370681975892871,0.36297901522214104
217,0.3712863798400132,0.35840723020026866
218,0.37135561595591093,0.3556946726079308
219,0.37120572325465584,0.35702638578240886
220,0.3718551237932485,0.3600540189170683
221,0.37029637753056754,0.3636539817001408
222,0.3714238287951108,0.35899155708415087
223,0.37121068141620767,0.3634688745208224
224,0.37133070070138446,0.36900261271705687
225,0.3718830558707754,0.3577084225894761
226,0.37154022399619446,0.367837078984153
227,0.3711153950998552,0.36339235726354185
228,0.37188156562342084,0.35935147255296546
229,0.3728828190611877,0.3600633944666492
230,0.3713998328074157,0.35525096734171463
231,0.37152959204750885,0.3583019202498044
232,0.37268801552472447,0.3579213873506656
233,0.37252137952560993,0.36122870075441627
234,0.3730999871647005,0.35722820686791257
235,0.3700340117713372,0.36694862479034324
236,0.37145809665787594,0.3628952737900656
237,0.37163524446580964,0.3637701052287102
238,0.3711530123714259,0.3579321116668271
239,0.37162179494495867,0.3581296220506388
240,0.3708916531027175,0.3590184627319871
241,0.3705111780793692,0.36760246330707513
242,0.37072004868184405,0.3574587624438488
243,0.3705739630304211,0.3607109109754013
244,0.3710698970586801,0.3555283649414415
245,0.3706905495366447,0.3615054104353293
246,0.3704120908573783,0.35223319747055437
247,0.3701474179474233,0.3619039151983733
248,0.37002820661776153,0.3595624150344248
249,0.3709733138640849,0.36542914780000313
250,0.3712295492211755,0.36001360904658025
251,0.37176879320600875,0.35899402025939003
252,0.3716690526235762,0.3571730269616151
253,0.37059579515237634,0.3627258800000363
254,0.3718624841198146,0.3578902028821294
255,0.370566573164003,0.35678351578051154
256,0.3697009587092243,0.35781283764846905
257,0.37153287712720223,0.3612068102839316
258,0.3724957836375798,0.35584046791359747
259,0.3712152884997207,0.35625808979086243
260,0.37249339141064974,0.35943662880981053
261,0.37238348883280664,0.3652569175926728
262,0.37164383171032295,0.36204147399293635
263,0.3718738314077509,0.35488238529470617
264,0.37181639362326424,0.36148332043672515
265,0.3715889352717526,0.3563946268225915
266,0.37126383450243167,0.3605945798457394
267,0.3718985281795192,0.3562255819590229
268,0.37174322743049326,0.35916128099593125
269,0.37298373273127167,0.35812149430713514
270,0.37227164175483685,0.36421068216955765
271,0.3726245134329204,0.3614206705650274
272,0.3724633930467242,0.3621802305121395
273,0.3726820211538417,0.3665259689068466
274,0.37198048223964303,0.3620602571422843
275,0.3722631200086221,0.3615008567709896
276,0.3721570598544647,0.35793437644996395
277,0.37220620708144886,0.3670345353867499
278,0.3724406866119612,0.3597514673596171
279,0.3728709964631938,0.36007931905844687
280,0.37360421751288053,0.36466475922405867
281,0.3730845593804832,0.35948925826091255
282,0.37346631313582435,0.3648122618426565
283,0.37381360810503567,0.35945302380939276
284,0.3738978025290945,0.3628590880664306
285,0.3736580354247311,0.36904515527847426
286,0.37372264029790725,0.36421048061110967
287,0.3736370822923292,0.36240549514860226
288,0.37351049225124194,0.3633400582967497
289,0.37254393360822846,0.36297921090713864
290,0.3731746657716455,0.35738472105136077
291,0.37179648398971255,0.3594830033262861
292,0.37173565364389827,0.3604868389152456
293,0.3732208079510063,0.35785477398762544
294,0.37295033001871086,0.36009936325934877
295,0.3736968544767416,0.36260746824286955
296,0.37299303180747645,0.35950042859674564
297,0.37399461855880733,0.35955096772794115
298,0.3728566983754965,0.36052078165760487
299,0.3735261309065754,0.3613899321645039
300,0.37441405778030473,0.36329971743326117
301,0.3737854860585818,0.36564604496917197
302,0.37359712953515967,0.3669686230188062
303,0.37503368880531135,0.3639897492148484
304,0.37514435300071114,0.3574176342479601
305,0.37471406828698584,0.3614855110887
306,0.3736878958485239,0.36261082785649695
307,0.37464406420651963,0.3611707966548103
308,0.3750674813341579,0.36254539278495246
309,0.375427910024591,0.36658918608617513
310,0.3753591192494019,0.36364793673532336
311,0.37577235561499506,0.36598358921471014
312,0.3752551734137287,0.3635618904694637
313,0.3755821209964607,0.36485149027947383
314,0.37581419542706235,0.36824022797869166
315,0.3756326111055929,0.3628421442738801
316,0.3756573816792692,0.36218150843475666
317,0.37529337336961704,0.3657765246607478
318,0.37587206882892177,0.36784167811334956
319,0.3769690064285353,0.3631797136809897
320,0.3759930970503675,0.3675108744135158
321,0.37613421340910697,0.3598388825019781
322,0.37660059740869783,0.36643539827138744
323,0.37610900977117906,0.3700624459029598
324,0.3756276098750323,0.3624624013900757
325,0.3753146509035193,0.3769669102297889
326,0.3768223833808716,0.3695994675981254
327,0.3761431687087226,0.35953572203933176
328,0.3773478941501284,0.36297775465399873
329,0.37678585673352066,0.3665968419716596
330,0.3758441092516538,0.3701754793923557
331,0.3766877885409791,0.36844958554702567
332,0.37661859901357975,0.36613081776312667
333,0.377250697454803,0.363118721959268
334,0.3774178194775402,0.36211294143642725
335,0.37709614397097435,0.3639088015148336
336,0.3753366031056886,0.36462386780314976
337,0.37673343517619956,0.3660223002077986
338,0.37531220897423734,0.3617817752746093
339,0.3765995203017043,0.369741163839679
340,0.37698011968830664,0.3636783355633998
341,0.3760569242117785,0.36438441305554986
342,0.37673761550668144,0.370535700159738
343,0.3766484674427202,0.36548256813658025
344,0.37666555820368497,0.3688205179410163
345,0.3777379659746436,0.36684841913415084
346,0.3773535247489488,0.37037894016151396
347,0.3774113155322804,0.37208157642431017
348,0.3787098759956795,0.3703610969334237
349,0.37885761982779964,0.3761084421756107
350,0.3786264536760634,0.36723549481532675
351,0.37836761018626686,0.3656262853526528
352,0.37821130010726645,0.3692119650645461
353,0.3786096503321317,0.36568158028672987
354,0.3776256393035762,0.3656556093876476
355,0.3767289742887068,0.3705713984595018
356,0.3780781887501502,0.36688563742486807
357,0.3772960263815186,0.36781298159489473
358,0.37893478060551317,0.3707484753510861
359,0.37725013933532997,0.37239568451508603
360,0.3783703330901263,0.3665261041895703
361,0.37865422050460423,0.37119365369316437
362,0.37777107917040803,0.3684916334817396
363,0.37851831769112876,0.36658967515364566
364,0.3773837656832581,0.3669213158564169
365,0.3795687532883057,0.3676213795396243
366,0.3774104868773941,0.37220948888630956
367,0.37776594149102394,0.3640715867788542
368,0.3777484808495944,0.36454990946076693
369,0.377541462942254,0.3691711909192805
370,0.3787413703455173,0.36578175311927763
371,0.3770182289129453,0.3652600659554506
372,0.3771663617858704,0.3673388330509096
373,0.3787307730071348,0.36746438897825895
374,0.3785534818903554,0.36687323963458424
375,0.3790102442137426,0.367336257530825
376,0.3797986983918876,0.37077353736393254
377,0.37672684552241936,0.3647255526503604
378,0.37462284460699585,0.3604633891766185
379,0.37484798270812314,0.36901798281163
380,0.3751717315758582,0.3679280870103875
381,0.3750651034476568,0.3655188053435459
382,0.3752046389470967,0.36602932275163386
383,0.37466470610866365,0.3697479544668205
384,0.37553040247807223,0.3604299239965348
385,0.37424798602099607,0.3606738822545255
386,0.37571901789276574,0.3675811399025155
387,0.37802820995724423,0.3710064170859446
388,0.37828034052761006,0.366597235734542
389,0.37638766617418,0.3611697484493642
390,0.37671943673427055,0.36465644135479025
391,0.3743727315035317,0.36425614516520444
392,0.371706449956871,0.36599765274453144
393,0.3719713241577721,0.3607430357519244
394,0.37289138625057533,0.36767820236843385
395,0.37371118293942407,0.3574329711321593
396,0.3748640325114286,0.35988656259221175
397,0.37297186999916554,0.362936823665854
398,0.37337472626836515,0.3607396224312732
399,0.37184194090654604,0.35667383571707517
400,0.371612685718376,0.35715311400695055
401,0.3716792184248077,0.36097829610665255
402,0.3711358121602988,0.3657004054687126
403,0.37215919783107754,0.36797306985750683
404,0.3718727782452173,0.36701444008924666
405,0.37190070089767036,0.35738140852201883
406,0.37076926187241527,0.35341203277998595
407,0.3707711938932669,0.35732065079566044
408,0.37124125481701736,0.3602272754071306
409,0.37073525100397625,0.3561992184330754
410,0.37169145721736385,0.3599428090010826
411,0.3712284734742559,0.363733368995996
412,0.3707005248678695,0.35753057042660985
413,0.3709366108843381,0.3568423905463501
414,0.36980310813773626,0.3576879389674704
415,0.3688955933833905,0.35723727363836255
416,0.36980387636477513,0.35471967735236387
417,0.36872486425362366,0.35696734448128953
418,0.3672365863696397,0.35332567860513614
419,0.3663102240444089,0.35629948511997667
420,0.3677256180702733,0.35892681885036337
421,0.3691717434802754,0.36796044544388584
422,0.36867005333268615,0.35804987809373806
423,0.368599348599382,0.3509636477107259
424,0.3690801547158709,0.3599604380053422
425,0.36771040455735715,0.35443992387059253
426,0.36847566769684287,0.3552107858831865
427,0.3685096459831592,0.3541388650880243
428,0.3679999171064986,0.3537347634343335
429,0.3675583935051178,0.35464364979098895
430,0.3671032851271099,0.355828510656264
431,0.36720748849398044,0.35129803607643667
432,0.3671462908088922,0.35395362661412744
433,0.3675682879715943,0.3555375532415565
434,0.3668787091779556,0.35142428011596444
435,0.3669428408408375,0.34956806702335386
436,0.3670621725012533,0.3566431072990003
437,0.3676333544347838,0.3500839908821063
438,0.3664630667460833,0.3543412925408124
439,0.3656560975112755,0.35742592449025806
440,0.36591679145327755,0.3515194122470305
441,0.3671930389847156,0.35140669889693715
442,0.3668244050038729,0.3557548493219408
443,0.3659877197755824,0.35206168048863284
444,0.3661239466684355,0.35005334672266547
445,0.3666757766345294,0.3486704178583496
446,0.3666829502253269,0.3557738835310801
447,0.3656124751671874,0.35127132633113317
448,0.3665229570660427,0.3551920257925697
449,0.3664911595270861,0.35192965890756006
450,0.367792963945837,0.3543121832855717
451,0.3670620245753144,0.35165329957917174
452,0.3670956194042873,0.3548919404075094
453,0.36717129172421725,0.3561165673841042
454,0.3678194477354841,0.3536609153581265
455,0.36685131045223907,0.3535612659152697
456,0.3685094664295355,0.3589248556193547
457,0.3665288077224437,0.3531789887947274
458,0.366895086747155,0.35808759400831036
459,0.36769490876944183,0.35108396862931884
460,0.36701888904226027,0.3511556322895601
461,0.3670058271544184,0.3533284278875043
462,0.36736039610936033,0.3505888704062475
463,0.3663105006524331,0.3520393480833043
464,0.3671805932223081,0.3611249655654347
465,0.3673829876655956,0.35393047207076667
466,0.36633441791093474,0.35206755838641673
467,0.3678504660475054,0.35246938128637667
468,0.3673289823140785,0.3603190360568156
469,0.3680681533890786,0.34841042515328524
470,0.36702643703517196,0.3518088172822103
471,0.3676261333607024,0.352764939014639
472,0.3670558554587887,0.3518660080597252
473,0.36707797290994415,0.35407863338594986
474,0.36849388416954953,0.3635552563468132
475,0.36772294739802613,0.3594830120035235
476,0.3665869669426528,0.3601886095646814
477,0.36754713297558367,0.3582913459845896
478,0.36853600514708185,0.3577769323035362
479,0.3675636887621937,0.35547670763097733
480,0.36839726247531684,0.3604414573744459
481,0.36864003712077253,0.3572949067616211
482,0.36834845140134936,0.361792537876966
483,0.36909167327768233,0.35092685267099594
484,0.3693355686360116,0.3588271618179451
485,0.36962124366489196,0.3617450792375659
486,0.3694655847153347,0.36525018420145944
487,0.3703493083282124,0.36021928388900326
488,0.37033877330269216,0.35843724517539954
489,0.36956326803080647,0.35421233455630113
490,0.3703587737510069,0.35561834076315235
491,0.3706914081012277,0.3551786493597626
492,0.37169736002186377,0.35819269249038976
493,0.3711414640072921,0.3619699001989032
494,0.3709668862857849,0.35722728855515146
495,0.3715030028998518,0.35848647225512204
496,0.3717012374018363,0.35340883312724225
497,0.3713842434607285,0.35625046303092417
498,0.3707132482643219,0.3581078788756551
499,0.37159782824657556,0.3630782018951159
500,0.37172045202566395,0.35955132455818073
