epoch,loss,val_loss
0,0.23296172700987922,0.23124628925323487
1,0.229523289008273,0.22933567251761755
2,0.22928418800897069,0.22910851553082467
3,0.22909084207481809,0.22862216717004777
4,0.2289192991885874,0.22910011290510496
5,0.2287599435183737,0.22889188063144683
6,0.22873065258396996,0.22863687606652577
7,0.22869366493490006,0.2283574162820975
8,0.22866410340865453,0.22836181717117626
9,0.2286358363595274,0.22990407526493073
10,0.2286627306010988,0.22840382389227548
11,0.22861648075448143,0.22873414636651676
12,0.22859878059890534,0.22872794070839883
13,0.22856471271316212,0.22865641035636267
14,0.22853760594791836,0.22879555069406826
15,0.22854787622888884,0.229053425381581
16,0.2285279786652989,0.2282813016474247
17,0.22851415283150142,0.22931210481127104
18,0.22851026131047142,0.2285179877281189
19,0.22847827663355402,0.22876239215334257
20,0.22850307149688404,0.22831301898757617
21,0.2284776628712813,0.22829289590319
22,0.22846389932764902,0.2287221541206042
23,0.22849718548854192,0.22830875682830812
24,0.22848004232843716,0.22841945547858875
25,0.22847668976916208,0.22878569427132606
26,0.22849902721246085,0.22835777205228805
27,0.2284608611530728,0.22829152780771256
28,0.22847596913576126,0.22836157831549644
29,0.228458891255988,0.228314551482598
30,0.22847535649273132,0.22825635180870693
31,0.2284440429210663,0.22872668785850206
32,0.2284529633919398,0.22826518516739208
33,0.22845699954032897,0.22876422375440597
34,0.22847460026211208,0.2287146344681581
35,0.22846256606115234,0.22868577711780866
36,0.22845305203729205,0.22827774220705033
37,0.22846476611163882,0.22830775703986486
38,0.22847477218508722,0.22822543353835742
39,0.22844753085242378,0.22840345470110576
40,0.2284858168827163,0.22876549883683522
41,0.22844812806447348,0.22825658486286798
42,0.228458929648002,0.22836931839585303
43,0.22845187181896634,0.2285355464220047
44,0.22845203057924907,0.2282437873184681
45,0.2284661294851038,0.22886713007092477
46,0.22844260134299596,0.2282769527733326
47,0.2284614515569475,0.2283064518471559
48,0.2284455927444829,0.22822936168313027
49,0.22847015376554594,0.2282172496020794
50,0.22843963976369963,0.22835042305787404
51,0.22845906015899448,0.22821606403589248
52,0.22842423666848077,0.2282601742843787
53,0.22845148922668562,0.22826801759998003
54,0.22844138641821013,0.22820648689071338
55,0.2284748739666409,0.22832934160033863
56,0.22842534495724573,0.22890037443240482
57,0.22846027907066874,0.22839259009559948
58,0.22843390718433593,0.2282383727033933
59,0.22844071666399637,0.22826504005988438
60,0.22844727401269807,0.22832992059985796
61,0.22841724384493298,0.22829457250237464
62,0.2284289623664485,0.22869891772667567
63,0.22843317295445337,0.22824309598406156
64,0.2284495013654232,0.22835739861925444
65,0.2284318173494604,0.22879908755421638
66,0.2284259338610702,0.22837201198935508
67,0.22843565490841866,0.22840725047389665
68,0.22843381269110574,0.2282904820938905
69,0.22844722792837355,0.22826714758078256
70,0.22846684827407202,0.22881619798143704
71,0.22843272725078795,0.228328097820282
72,0.22844795109166038,0.22828335160017013
73,0.22843162986305024,0.22853244958321253
74,0.22845161509513856,0.22893755394220353
