epoch,loss,val_loss
0,0.5611524364418453,0.560200613061587
1,0.5597522767517302,0.5594196629126866
2,0.5595512878232533,0.559190967520078
3,0.559386774831348,0.5591434253056844
4,0.5593000814649793,0.5591434565782547
5,0.5592729398409526,0.5592117038965225
6,0.5592492777109146,0.5591532657146454
7,0.5592417071792815,0.559157409509023
8,0.5592238955497741,0.559033095240593
9,0.5592251472473144,0.5590345008770625
10,0.5592249513334698,0.5591614436705907
11,0.5591988704337014,0.5590099815924963
12,0.5591834965282017,0.5590487890243531
13,0.5591697833538055,0.5590440413951874
14,0.5591598635911942,0.5591371190547944
15,0.5591610323058235,0.55914333319664
16,0.5591564735439088,0.5590596036911011
17,0.5591698468128841,0.5590649696985881
18,0.5591526628600226,0.5591493816375732
19,0.5591698437664244,0.5594798887570699
20,0.5591621245808072,0.5590563227732976
21,0.5591447039445241,0.5592611943880716
22,0.5591503890752793,0.5591906458934148
23,0.5591357826391856,0.5593350443045298
24,0.5591384354829788,0.559020573536555
25,0.5591357474856906,0.5592467832565308
26,0.5591516669458814,0.5589944411118826
27,0.5591357008483675,0.5590759819746017
28,0.5591425967084037,0.5591295338869094
29,0.5591346812778049,0.5590033599535624
30,0.5591368239720662,0.5590365535418192
31,0.5591412170065774,0.5591337880690892
32,0.559131916920344,0.5590313877662023
33,0.5591326348914041,0.559033815185229
34,0.5591294950379265,0.5590527538061142
35,0.5591161909898122,0.5590196239948273
36,0.5591233088307911,0.5590879703760148
37,0.5591240133974287,0.5595212525129318
38,0.5591136673291525,0.5591954738696416
39,0.5591101189321942,0.5590395480791728
40,0.559118301431338,0.5589962292512258
41,0.5591191370619668,0.5590463254054387
42,0.5591084226634767,0.559274474422137
43,0.5591066213713752,0.5589555419286092
44,0.5591069707870483,0.5590031469662984
45,0.5591091293361452,0.5590709966023762
46,0.5591071716414557,0.5594127696355183
47,0.5590842459599177,0.5591009401082992
48,0.5591018906964196,0.5590015545686086
49,0.5590872038470375,0.5593835974534352
50,0.5591052488750882,0.5591089737017949
51,0.5591010901265674,0.5590600475072861
52,0.5590839255518384,0.5589731086095174
53,0.5590835664404763,0.5599899525642396
54,0.559106529686186,0.5589741703271865
55,0.5591015261941485,0.5591050562063853
56,0.559090693950653,0.5591972457567851
57,0.5590862005021837,0.5590806578397751
58,0.5590851782957713,0.5594727439085643
59,0.5590966464678446,0.558962095896403
60,0.559081543829706,0.5589564977486928
61,0.5590795897112952,0.5593858837286632
62,0.5590856690009435,0.5591810798645019
63,0.5590838355355793,0.5589780873060226
