epoch,loss,val_loss
0,0.7806611299912135,0.7798830723762512
1,0.7383972171147665,0.6702071863015493
2,0.6696070926321878,0.6698368931611379
3,0.6695226637125016,0.6693388224045436
4,0.6694773703283734,0.6695978308121363
5,0.6694535787502924,0.6695909325281779
6,0.6694200041956372,0.6693982677857081
7,0.6693935979339811,0.6694268437226614
8,0.6694014906750785,0.6693445244630177
9,0.6693827956782447,0.6693020859559377
10,0.6693816452556186,0.6693274549643199
11,0.6693670787413915,0.6692715707619985
12,0.669358728951878,0.6692795499165853
13,0.669364821155866,0.669269092520078
14,0.6693648711310493,0.6693940985997517
15,0.6693585567341911,0.6692530309756597
16,0.6693499928447936,0.6693938484986623
17,0.6693551541699303,0.6692992084821066
18,0.6693455936643813,0.6692436893781026
19,0.6693371061351564,0.6693343766132991
20,0.6693453303178152,0.6692471895217895
21,0.6693394049273597,0.6694092514514923
22,0.6693359031544791,0.6692423990170161
23,0.6693273696634504,0.6692768702109655
24,0.6693267568084929,0.6695155174732208
25,0.6693390460544162,0.6692294679880142
26,0.6693321544196871,0.6692997263669968
27,0.6693146256738239,0.6693107599814733
28,0.6693202749755648,0.6693162353436152
29,0.6693262254397074,0.669217008193334
30,0.6693186348279317,0.6693751579920451
31,0.6693270002735986,0.6696796880563101
32,0.6693162145349715,0.6697409079869588
33,0.6693223121033774,0.6692099926074346
34,0.6693182006279628,0.6697589956124623
35,0.669320689201355,0.6692956054210663
36,0.6693173373010424,0.6694197836319605
37,0.6693294467661116,0.6694421759843826
38,0.6693162646426095,0.6692391556501388
39,0.6693153402143055,0.6692598299582799
40,0.6693116052680546,0.6695392537117004
41,0.6693129987186855,0.6692937690814336
42,0.6693230095174577,0.6696351453860601
43,0.669312375942866,0.6692182824611664
44,0.6693082742293676,0.669234250386556
45,0.6693187607394324,0.6694956134557724
46,0.6693099026812448,0.6692121366262436
47,0.6693146420054965,0.6692305183410645
48,0.6693170455694198,0.6694329382181168
49,0.6693012451860639,0.6696786678632101
50,0.6693125061723921,0.6692597700357437
51,0.6693008303907182,0.669228243748347
52,0.6693148483302858,0.6692293745279312
53,0.669308262427648,0.6693055195411046
