epoch,loss,val_loss
0,0.6707896040413115,0.6698560335238775
1,0.6697793480820126,0.6695626430908839
2,0.6695574935277303,0.6694028396209081
3,0.6695094552437464,0.6693479272127152
4,0.6694611664745542,0.6696642832358678
5,0.6694484178357654,0.6693094149827957
6,0.6694346201419831,0.6692813031276067
7,0.6694261558850606,0.6693419789473216
8,0.6694170902702543,0.6692922483682633
9,0.6694047348499298,0.6693470840851465
10,0.669397202067905,0.6692957717180252
11,0.6693968258566326,0.6696379714806875
12,0.6693665729496214,0.6692865873575211
13,0.669370925558938,0.6696153455575308
14,0.6693793148332172,0.6693009476264318
15,0.6693655831548903,0.6694459829330445
16,0.6693713488976161,0.6692876618703206
17,0.6693596019612418,0.669250068585078
18,0.6693614645931456,0.6694160391887028
19,0.669349934246805,0.6693616885741551
20,0.6693457961479823,0.6693158761262894
21,0.6693402465979258,0.6694180760383606
22,0.6693481565184063,0.6693861108223598
23,0.6693434991174274,0.6692499854564666
24,0.6693364622725381,0.6695546629031499
25,0.6693354301320182,0.6692331379254659
26,0.6693335026899974,0.6692496090730031
27,0.6693205064402686,0.6692405902147293
28,0.669332515835762,0.6693764049212138
29,0.669326759285397,0.6693003901640574
30,0.669329747305976,0.6693678752978642
31,0.6693266441689597,0.6693231632709503
32,0.6693254134125179,0.6693554954528809
33,0.6693276671568552,0.66943325873216
34,0.6693293863402473,0.6692307098309199
35,0.6693252688513862,0.669238132238388
36,0.669322551396158,0.6692731827497482
37,0.6693223982254665,0.6692946695884069
38,0.6693141632874807,0.6691960513591766
39,0.66930652279324,0.6692870671749115
40,0.6692953000598484,0.6693284410238266
41,0.6692936691708035,0.6691930681069692
42,0.6692907356156244,0.6699972555239996
43,0.6692882854938507,0.6692513462305069
44,0.6693043891853756,0.6693056939045589
45,0.6692850475178824,0.6692149592240652
46,0.6692874925666386,0.6692586492300033
47,0.6692884704669316,0.6693109812736511
48,0.6692916773425208,0.6692035378615061
49,0.6692828009658389,0.669207039753596
50,0.6692832092046738,0.6691891702413559
51,0.6692928060160743,0.6691826703548431
52,0.6692833741903305,0.6692674214839935
53,0.6692827817996343,0.6693087968031566
54,0.6692856987582313,0.6692590823173523
55,0.6692848200798035,0.6692243361870448
56,0.6692841541104847,0.6692314300537109
57,0.6692881700860129,0.6691887010335922
58,0.6692878200610479,0.6694374660650889
59,0.669292252500852,0.6693409280776977
60,0.6692870587242974,0.6691866449515025
61,0.6692915092839135,0.6691965874830882
62,0.6692920068369972,0.6696344772974651
63,0.6692923400269615,0.669178929567337
64,0.6692856558561325,0.6692220118443171
65,0.6692892425722546,0.6692004015048345
66,0.6692875618669721,0.6692281926870346
67,0.6692984972132577,0.6693396561940511
68,0.669281817065345,0.6692547257741293
69,0.6692848012712267,0.6694385059674581
70,0.6692871980004841,0.6694732752641042
71,0.6692870098352433,0.6691921521027883
72,0.669278378923734,0.669224117398262
73,0.6692869825363159,0.6694633485476176
74,0.6692898322211371,0.6691915245056153
75,0.6692874593072468,0.669265029946963
76,0.6692881223228243,0.6691784584124884
77,0.6692757229010264,0.6691758094628651
78,0.6692884855535295,0.6692031228542328
79,0.6692783413198259,0.6692277053197225
80,0.6692811670568254,0.6694559959173203
81,0.6692783187495338,0.6691926156282425
82,0.66928443827894,0.6692255294322967
83,0.6692940788931316,0.669258896390597
84,0.6692818651066886,0.6692055613994599
85,0.6692807947662142,0.6692743568817775
86,0.6692943221330643,0.6699500164190928
87,0.6692854091591305,0.6693969761133194
88,0.6692800203031963,0.6692333712577819
89,0.6692826904853185,0.6692326961755752
90,0.6692793314721849,0.6691799377202987
91,0.6692784103287591,0.6691941342751185
92,0.6692752090030246,0.6692252310117086
93,0.6692830321788787,0.6692610045274099
94,0.6692729981475406,0.6692918478647868
95,0.6692815379831526,0.6692029113769531
96,0.669278047574891,0.669367427388827
97,0.6692769554456075,0.6692118513584137
