epoch,loss,val_loss
0,0.7805439283582899,0.7787043023109436
1,0.7787036779324213,0.7793359928528468
2,0.77859538784292,0.7785852079788844
3,0.7784357974794176,0.7783354496161143
4,0.7786613090435663,0.7783504272699356
5,0.7783623947434956,0.7783015859524409
6,0.7783701319032246,0.7783864336411158
7,0.7783381692833371,0.7782865782578786
8,0.7783214159674114,0.7782758393287659
9,0.7783075083361731,0.7782954193751017
10,0.7782837793959512,0.7782550549109777
11,0.7782809813684888,0.7782451988458633
12,0.7782701961861717,0.7782312307755153
13,0.7782587277094523,0.7782492224772771
14,0.7782516752216551,0.7782327110767364
15,0.778288790596856,0.778274431347847
16,0.7782461671961678,0.7782113499244054
17,0.7782466668155458,0.7782189500331879
18,0.7782479389773475,0.7782718046108882
19,0.8523649006022347,0.8891232972542444
20,0.8891277908484141,0.8891221194267273
21,0.8891583799918492,0.8893761994838715
22,0.8891607525746028,0.8891774682998658
23,0.8891261090305116,0.8891148251692454
24,0.8891236374775568,0.8891048067410787
25,0.8891256500747469,0.8891064891815186
26,0.8891228013700909,0.8891330252488454
27,0.88914674296644,0.8891459478139877
28,0.8891326653162638,0.8891097802321116
29,0.8891421823898952,0.8914743171532948
30,0.8891201884614097,0.8891281678279241
31,0.8891213155719969,0.8891063953240712
32,0.8891202500793669,0.8891132691303889
33,0.8891218724250793,0.8891329740285874
34,0.7853277623785867,0.5571240158081054
35,0.5566205828587214,0.5565234779516856
36,0.5565887158446842,0.5567057462533315
37,0.5565713835424847,0.5564631965955098
38,0.5565214185184902,0.5565287051598231
39,0.5565082436137729,0.5565289600690206
40,0.556514022231102,0.5565293022791544
41,0.5565946883095635,0.5564649452765783
42,0.5564897032313877,0.5564401902357737
43,0.5565066282616721,0.556434113740921
44,0.5564850049946043,0.5564351090192795
45,0.5564848818911446,0.556428629318873
46,0.5564727322260539,0.5567865701119105
47,0.5564697232113944,0.5564271099964777
48,0.5564755304257075,0.556698477546374
49,0.5564783961110645,0.5564681745370229
50,0.5564630423784256,0.5564258595307668
51,0.5564672009415097,0.5566154514948527
52,0.6262944160699845,0.778238664150238
53,0.778249270664321,0.7782534015973409
54,0.7782439359161589,0.7782470933993657
55,0.7782319060299132,0.7782015182177225
56,0.7782281691365772,0.7781863485972087
57,0.7782282109393014,0.7782512645324071
58,0.778229218337271,0.7782209593454997
59,0.7782308517959383,0.7781928753852845
60,0.778230543255806,0.7782030686537424
61,0.7782280500862333,0.7782564169168472
62,0.7782293376392788,0.7781993445555369
63,0.7782282148599624,0.7781928812662761
64,0.7782287864817513,0.7781833167076111
65,0.7782275499105453,0.778211417555809
66,0.778228691789839,0.7781982059081396
67,0.7782318808767531,0.7783200239737829
68,0.7782245264583164,0.778260974407196
69,0.7782270139190886,0.7782337041695913
70,0.7782246427271101,0.7781864912509918
