epoch,loss,val_loss
0,0.6719811611440447,0.6681529444058736
1,0.668033608423339,0.6679046337207158
2,0.6678434030479855,0.6676919323603312
3,0.6676955963505639,0.667607287367185
4,0.7503067034747866,0.7785941371917725
5,0.7784967246717877,0.7784188123544057
6,0.7784430325693554,0.7783965047597885
7,0.7784857261843151,0.7785985318819681
8,0.7783657251463996,0.7783141241073609
9,0.7783914064566294,0.7783888961076737
10,0.7783772357967165,0.7783058954874674
11,0.7784326929913626,0.7792234342098237
12,0.7783271164099376,0.7782877816756566
13,0.7783278946346707,0.7783933433294297
14,0.7783081235753165,0.7782563875516255
15,0.7783287482129203,0.7783698571920394
16,0.7782970362636779,0.7783706040382385
17,0.7784181389543745,0.7782726362148921
18,0.7783052891890208,0.7782664102713267
19,0.778287184437116,0.778268567164739
20,0.7782912035385767,0.778277400135994
21,0.7782822664711211,0.7782457470099131
22,0.7782799648973677,0.7783273266156514
23,0.7782749609020021,0.7782258697748184
