epoch,loss,val_loss
0,0.6311588380204307,0.6681935067574183
1,0.6781998336315155,0.7801829360723496
2,0.7790250781642066,0.7786080843607585
3,0.7789908355077108,0.7785375538269679
4,0.7785385697947608,0.7789866256316503
5,0.7787929441663954,0.7794687983194987
6,0.7787649567127228,0.7784789632161458
7,0.7785160358879302,0.7804120983282725
8,0.7786915015909407,0.7783879010279974
9,0.7799750720659892,0.778958509683609
10,0.7785690758890575,0.7786360071897507
11,0.7785229051907857,0.7786526337067287
12,0.7784293880992466,0.7783897773822148
13,0.7818466768662135,0.778444793621699
14,0.7784411015245649,0.7783673521677653
15,0.778387462231848,0.7786971292098364
16,0.7783529643350178,0.7782968161900838
17,0.7783505476183361,0.7783261770407359
18,0.7783408258888457,0.7782983642419179
19,0.7783331930239995,0.7782914977868398
20,0.7784863464434941,0.7785887726942698
