epoch,loss,val_loss
0,0.5629293826818467,0.5580614277521769
1,0.5580628012418747,0.5582241534789403
2,0.5577660127215915,0.5577512757380804
3,0.5572439028289583,0.556854074716568
4,0.5571104322142071,0.5568561162551244
5,0.5570481157170402,0.5568407272100449
6,0.5568694869544771,0.5568450721899668
7,0.5568031912379795,0.5566714941660563
8,0.5567429972489675,0.5566122189760209
9,0.5566992282470067,0.5566123107274373
10,0.5566960478358799,0.5568997214635213
11,0.5566677451928457,0.5565895868937174
12,0.556671639084816,0.5565297807852427
13,0.5566328522761663,0.5565725188652675
14,0.5566115268998676,0.5565612623294195
15,0.5565912727249993,0.5566887089808782
16,0.5565942071808709,0.5565783315896988
17,0.5565837050146527,0.5565106337467829
18,0.5565777913067076,0.5566013391017914
19,0.5565877957079146,0.5567263964414596
20,0.5565696630080541,0.556512283205986
21,0.5568198758098815,0.5567060631513595
22,0.5565585532055961,0.5566121830542883
23,0.5565484152370029,0.5564658737182617
24,0.5566277532312605,0.5564793646732966
25,0.556528345849779,0.5565286774237951
26,0.556545315557056,0.5564898116588592
27,0.5566232898235322,0.5564693790276846
28,0.5565286135276158,0.5564900352954865
29,0.5565441113710403,0.5566480147043864
30,0.5565343908336428,0.556625887354215
31,0.5565165622896618,0.5564293601512909
32,0.5565112741920684,0.5564373202721278
33,0.5565086612966326,0.5564644967714946
34,0.5565083049403297,0.5564233608643214
35,0.5565072006914351,0.5566191511948904
36,0.5564998839696248,0.5568025277058284
37,0.5564949315124088,0.55645550151666
38,0.5565057607889176,0.5567110485633214
39,0.5564955881039302,0.5566999215284983
40,0.55650235191981,0.5566878773371379
41,0.5565085414250692,0.5564622142712276
42,0.5565104212363561,0.5565461928447087
43,0.5564953088363012,0.5564604626496633
44,0.5564856859842936,0.5564222795565923
45,0.556490049706565,0.5564433450301488
46,0.5564824823935827,0.5567497897942861
47,0.5564936103290982,0.5564393599033356
48,0.5564876769648658,0.5565539890527725
49,0.5564959212938945,0.5565288651784261
50,0.5564807998339335,0.5564694144725799
51,0.5564820246166653,0.5573451538880666
52,0.5564844871494505,0.5564231326182684
53,0.5564731987714767,0.5564219100872676
54,0.556480512963401,0.5564726311365763
55,0.5564876074261136,0.5565873972972234
56,0.5564861581457986,0.5564508575598399
57,0.5564769163396623,0.5568479884465536
58,0.5564769968721601,0.5568150430123011
59,0.5564796157413059,0.5564380331039429
60,0.5564766514831119,0.5564878355662028
61,0.5564906899531682,0.5563958590428034
62,0.5564826932350795,0.5565714262326559
63,0.5564769155051973,0.5563981251716614
64,0.5564698262612024,0.5570229676564534
65,0.5564763715532091,0.5564485544761022
66,0.5564808423784044,0.556397165298462
67,0.5564689152373208,0.5566183013916015
68,0.5564733073711395,0.5564981538057328
69,0.5564693762461345,0.5564274326960246
70,0.5564793053335614,0.5564030236005784
71,0.5564725873205397,0.5564584256013234
72,0.5564717412524753,0.5564065424601237
73,0.5564737620486153,0.5570624465147654
74,0.5564692904022005,0.5565485977331798
75,0.5564749440749486,0.5564875447352727
76,0.5564814346896277,0.5564461706082026
77,0.5564783261352115,0.5566244823932648
78,0.5564762452046077,0.5563791360060374
79,0.556466846426328,0.5563979816834131
80,0.5564678735070758,0.5564382769266765
81,0.5565635226435132,0.556408033490181
82,0.5564999696678585,0.5564143847227097
83,0.5564818841086494,0.5564186341762543
84,0.5564838087293836,0.5564503487348557
85,0.5564912318521076,0.5564952414035798
86,0.5564874643087387,0.5570896393855412
87,0.5564756960206562,0.5565832503239314
88,0.5564779462549422,0.556404494047165
89,0.5564907237423791,0.5566157099008561
90,0.5565237753523721,0.5564256860415141
91,0.5564801900121901,0.5563982412815094
92,0.5564749205244912,0.556554522673289
93,0.5564787093798319,0.5564583838780721
94,0.5564727040529251,0.5564474561214448
95,0.5564724944432576,0.5566568046013515
96,0.5564769304460949,0.5564441943566004
97,0.5564768427080579,0.5564407045443853
98,0.5564816345903608,0.5564101502895356
