epoch,loss,val_loss
0,0.7802906013462279,0.7846629178524017
1,0.882803589741389,0.8895012837251027
2,0.8893806601232953,0.8892987834215165
3,0.8898048621945911,0.8894131701787312
4,0.8893177127573225,0.8892584886948267
5,0.8892720982763502,0.8893043789068857
6,0.8892350685993831,0.8892226417462031
7,0.8892760845157835,0.8891802660624186
8,0.889208607700136,0.8892815903425216
9,0.8893613708019257,0.8892111270427704
10,0.8892250453763538,0.8892141052881877
11,0.8891899489296807,0.8891579929192861
12,0.8891882558663686,0.889163273135821
13,0.8891699699693256,0.8891663970549901
14,0.8891687928305732,0.8891690403620403
15,0.8891604092121125,0.8892366594870885
16,0.8891729592482249,0.889160938223203
17,0.8891549620230993,0.8891648193995157
18,0.8891545296112696,0.8891594241460165
19,0.8891518210305108,0.889144594669342
20,0.8891503752337562,0.88913287850221
