epoch,loss,val_loss
0,0.3581145904262861,0.6842690930366516
1,0.6682876141203774,0.6677259216705959
2,0.6681277338266373,0.6676578385829925
3,0.6160139701763789,0.4466624468763669
4,0.4462297941512532,0.44600331465403237
5,0.4459998610748185,0.4457504833340645
6,0.4480454244481193,0.4459382455746333
7,0.4458871330552631,0.4457652830282847
8,0.4458487606512176,0.44597186066706973
9,0.44576057618194154,0.44568313330411913
10,0.4460187002287971,0.4456908737421036
11,0.44609140666325886,0.4461445489923159
12,0.4459791871176826,0.44589714048306145
13,0.44571900600857206,0.44561002268393834
14,0.4456960050264994,0.4455701672236125
15,0.44566155035628213,0.44561027562618255
16,0.44571580796109306,0.4456111915310224
17,0.44711300001541776,0.4456825640598933
18,0.4460315538313654,0.4458838769396146
19,0.44570173505279753,0.44579988753795624
20,0.44569287486871084,0.44558442119757335
21,0.44651443276140423,0.44563386964797974
22,0.5423658551706209,0.5565718243519465
23,0.5565954522689184,0.5580080538988114
24,0.5565760546922683,0.5565012095371882
25,0.5565632804234822,0.5575841032663981
26,0.5567252523766624,0.5564940965175629
27,0.5593752438492245,0.5567046724955241
28,0.5565582725869285,0.5566270432472229
29,0.5565890700817108,0.5564541004101435
30,0.5565308759874767,0.5564509466091792
31,0.5565613524251514,0.6110957661469777
32,0.5582760152154499,0.5565130903720855
33,0.5568535610304939,0.5564323840141296
34,0.556562067243788,0.5564403252601624
