epoch,loss,val_loss
0,0.00990199264860712,0.0032405800426689286
1,0.005968324324711122,0.003243764189770445
2,0.0035661362541399688,0.003254153060649211
3,0.00891183355200984,0.005336882844567299
4,0.003916044352175151,0.00338860896974802
5,0.0030943142457270168,0.0026603826926633093
6,0.0028809727173453818,0.0023299541117157785
7,0.0026795058806245733,0.002982795766942824
8,0.0031692750541131116,0.0024469347124298413
9,0.0024640402112983996,0.0022904845875067015
10,0.08507870431418996,0.22424163615703582
11,0.22422536952959166,0.223978964616855
12,0.2242371849252118,0.22467209625244142
13,0.2246368574698766,0.22399756363034248
14,0.22404063941703903,0.2246409273246924
15,0.22409574311971664,0.2242870373527209
16,0.22406192266941072,0.224301377226909
17,0.22415767229596772,0.22389357979098956
18,0.22401441217131085,0.22429458010196685
19,0.22407826022307079,0.22421774025758107
20,0.22397444768415556,0.22452656438946725
21,0.22396186214354302,0.244603492051363
22,0.22401785430312157,0.22407487375537555
23,0.22406646583808792,0.2241325479845206
24,0.22392562962902918,0.22384474463264148
25,0.2239315114153756,0.22394658076763152
26,0.2239763415687614,0.22452107914288838
27,0.22392731887433265,0.2238869276046753
28,0.2239229679207007,0.22407180136442184
29,0.2239351376394431,0.22384988433122635
