epoch,loss,val_loss
0,0.6699810015095605,0.668428844889005
1,0.6685296554168065,0.6682859009106954
2,0.6684155402315988,0.6687459585666656
3,0.6683684277137121,0.668254087527593
4,0.6683329013850954,0.6685056996742884
5,0.6683071577151617,0.6682337662776311
6,0.6682835728989707,0.6681737544933954
7,0.6682665115727319,0.6682045699755351
8,0.6682674210204018,0.6681775200366974
9,0.6682472394307455,0.6681607663234075
10,0.6682473938862483,0.6681847047011058
11,0.6682508260409037,0.6682310713926951
12,0.668242382367452,0.6681687806049983
13,0.6682447640498479,0.6682028837601344
14,0.6682382983896468,0.6682120817899704
15,0.66823076444202,0.668137827038765
16,0.6682338225311704,0.6682864609162013
17,0.6682372429503335,0.6682997467120488
18,0.6682281565003925,0.6683424359957377
19,0.6682343685626984,0.6681748063166936
20,0.6682296470668581,0.6685018703540166
21,0.6682295184930166,0.6681456124385198
22,0.6682259001599418,0.6683894080320995
23,0.6682335073153178,0.668352705279986
24,0.6682256277932062,0.6683530362049739
25,0.6682292460203171,0.6681759681304296
26,0.6682257748047511,0.6685127274195353
27,0.6682204969724019,0.6682053091923396
28,0.6682180858718024,0.6681561711629231
29,0.6682291659779018,0.6681564820607503
30,0.6682361851798163,0.6682488048871358
31,0.6682226424349679,0.6683588713010152
32,0.6682118786838319,0.6682666993538539
33,0.6682214545143975,0.6681338282028834
34,0.6682173403898874,0.6681451830069224
35,0.6682171597480774,0.668244638244311
36,0.6682205771737628,0.6681575407187144
37,0.668214426279068,0.6682168771823247
38,0.6682105600304074,0.6681570221583049
39,0.6682171119981342,0.6687930668592453
40,0.6682140218946668,0.6682797124783199
41,0.6682138656907611,0.6681391354799271
42,0.6682137304411994,0.6681820462942123
43,0.668219765358501,0.6682810906966528
44,0.6682152339882321,0.6681413575808207
45,0.668207330107689,0.6682247387170792
46,0.6682178404993481,0.6682398155530294
47,0.6682031273974313,0.668191880106926
48,0.6682162124845716,0.6681892734766006
49,0.6682161309719086,0.668144722700119
50,0.6682070333427853,0.6681571369568506
51,0.6682141678995557,0.6681343446572622
52,0.668210804131296,0.6683017317056655
53,0.6682171980672412,0.6681780697107315
