epoch,loss,val_loss
0,0.3399432247877121,0.3372555024226507
1,0.33712177230914436,0.3379140641291936
2,0.33689687567949295,0.3373781650265058
3,0.3367251573204994,0.33671994213263196
4,0.33665353004799947,0.3365052995880445
5,0.3366308951576551,0.33673787597815197
6,0.3365870480934779,0.33653783981005353
7,0.3365798298782772,0.33657708976666134
8,0.3365527240898874,0.3365963981548945
9,0.33653610046042337,0.3362908432086309
10,0.336508031129837,0.3363755577206612
11,0.3364974982539813,0.3365545199116071
12,0.33651367661688064,0.33636631766955055
13,0.33649160070551765,0.3366162069241206
14,0.3364792225692007,0.3363391460975011
15,0.33647749698162077,0.3362973639965057
16,0.3364784453842375,0.3363032632271449
17,0.3364811065395673,0.33653628726800283
18,0.3364646206630601,0.3363289786577225
19,0.3364689187142584,0.3364570576548576
20,0.33646593625677956,0.33632890798648196
21,0.33648804500367907,0.3365854442715645
22,0.33649186658859254,0.33652894995609917
23,0.3364636466635598,0.3364318457643191
24,0.33647539087136585,0.3363018596967061
25,0.3364686059157054,0.336326090157032
26,0.3364846977790197,0.3364463203946749
27,0.3364798631005817,0.3362666327555974
28,0.3364702195326487,0.33635964423418047
29,0.33647354900836945,0.33632564439376195
30,0.33646420582135517,0.33632302327950797
31,0.3364661755098237,0.3363504927754402
32,0.33648122582832973,0.3365344186027845
33,0.33648466878467137,0.3363542484641075
34,0.33644693377282886,0.33679470362265906
35,0.3364597505463494,0.3363341770966848
36,0.336475292801857,0.3365262640317281
37,0.3364761269622379,0.3365038534005483
38,0.33647971028089524,0.33637495028972625
39,0.3364648086892234,0.33627837618192036
40,0.3364624667896165,0.33653569837411246
41,0.3364592772457335,0.3363240733742714
42,0.3364454854329427,0.3364759549895922
43,0.33645598388380477,0.3364952951669693
44,0.33645209511121116,0.3362903399864833
45,0.3364306127627691,0.3363625287810961
46,0.33644167712661954,0.33637355573972066
47,0.3364565682808558,0.3365086757739385
