epoch,loss,val_loss
0,0.47864962261915206,0.44791215866804124
1,0.4475717488858435,0.44719085009892784
2,0.44742490000194973,0.4471445263028145
3,0.44730103680822586,0.4470365625222524
4,0.44724410221311783,0.4470844280123711
5,0.44721022599935534,0.44707041823863986
6,0.447171565439966,0.44699530345201494
7,0.44714505390988457,0.4469793165723483
8,0.4471205724080404,0.4471278034051259
9,0.4470969132383664,0.4472631945014
10,0.4471001580953598,0.44698713966210685
11,0.44709899869892333,0.4469564076860746
12,0.4470849365128411,0.4469309484759966
13,0.44708929781781304,0.4471485185225805
14,0.4470853112604883,0.4471681473056475
15,0.447080228222741,0.44694001456101734
16,0.4470855213734839,0.44692462317148846
17,0.44706649057070413,0.4472231754859289
18,0.44706651850541435,0.44706111192703246
19,0.44707489504416786,0.44701971497138343
20,0.4470532890227106,0.44700618290901184
21,0.447064121193356,0.44694793804486593
22,0.44706585394011605,0.44702441745996474
23,0.44705333405070835,0.4473007425467173
24,0.44707255095243453,0.4471428601940473
25,0.44704701962735915,0.4469455609917641
26,0.44706518365277187,0.44692283515135445
27,0.4470496589144071,0.44768499716122945
28,0.4470582657853762,0.4470266932050387
29,0.4470494131843249,0.44692386068900425
30,0.44704961122406855,0.4472155233224233
31,0.4470519120759434,0.4469411795735359
32,0.4470416363676389,0.4470119869907697
33,0.4470579174558322,0.44696713248888653
34,0.44703795578744676,0.44695456194877625
35,0.4470539485414823,0.44697753844658533
36,0.44704951510826746,0.4471059319972992
37,0.4470477496849166,0.4469484943350156
38,0.44705189836687514,0.4470017076134682
39,0.44704369011190204,0.4469577784339587
40,0.4470537843969133,0.44762005496025087
41,0.44704315653774473,0.4468921842376391
42,0.44704098916716045,0.44695919088522595
43,0.4470483602285385,0.4469160244266192
44,0.4470315030879445,0.4469043583671252
45,0.4470510553187794,0.4469620637694995
46,0.4470437335371971,0.44692440688610074
47,0.4470450487203068,0.44719463564952217
48,0.44702973626719583,0.44749282276630403
49,0.4470451541741689,0.4469334609905879
50,0.44703344539139006,0.4469572299917539
51,0.44703635027011235,0.4469075149099032
52,0.44703605510791145,0.4470783382058144
53,0.4470294170247184,0.44690044142802554
54,0.44704653137922284,0.44701767335335413
55,0.44702563676569196,0.44699217347304027
56,0.4470472889343898,0.4469107347130775
57,0.4470324972073237,0.4469131654103597
58,0.4470189688404401,0.4470979153116544
59,0.4470307081606653,0.446906258781751
60,0.44702314038409124,0.44699517033497493
61,0.44703225385480455,0.44691902577877046
