epoch,loss,val_loss
0,0.449246724082364,0.44804061992963157
1,0.4475160454644097,0.44717260175943374
2,0.44744523564974464,0.4472246762315432
3,0.44731371357705857,0.44795693063735964
4,0.4472356000410186,0.44728288755814233
5,0.4472096145749092,0.4471707088152568
6,0.4471903698576821,0.44769607623418173
7,0.44716251140170626,0.447046067237854
8,0.4471367249687513,0.4470285454392433
9,0.44712515567408667,0.4471014144817988
10,0.4471152627931701,0.44699117324749627
11,0.4471114288965861,0.4469397457242012
12,0.4470937949286567,0.44703217047452926
13,0.44708981305360795,0.44698187679052354
14,0.44707365597618953,0.4469795905351639
15,0.4470880210002263,0.4469698154330254
16,0.44708242723676894,0.4469678437511126
17,0.44707361343834134,0.44698239441712695
18,0.44706698358721203,0.44695764742294947
19,0.44708360817035037,0.4469944881796837
20,0.44706041897005505,0.44697587100664776
21,0.4470715267393324,0.44692957935730615
22,0.4470657360619969,0.4470911671519279
23,0.4470584369301796,0.4473249379793803
24,0.44705494444237814,0.44699134582281114
25,0.44703848256667456,0.44714872250954313
26,0.44704092979431154,0.44695964354276657
27,0.4470400370359421,0.4469290397961934
28,0.4470337789654732,0.4474752008120219
29,0.44703834488656785,0.44698937606811523
30,0.44703507770432366,0.44724728232622146
31,0.4470303427312109,0.4470327895681063
32,0.4470314476887385,0.4469318518638611
33,0.44703572425577376,0.4469829645951589
34,0.4470271880494224,0.44690709149837493
35,0.4470256934099727,0.4470667041738828
36,0.4470296278927061,0.4470137904286385
37,0.4470284240908093,0.44700526907046634
38,0.44703248937924706,0.44730097778638206
39,0.4470400514735116,0.44686358187596004
40,0.44703196130196254,0.4475187592506409
41,0.44702352178759047,0.4473220604856809
42,0.4470228857398033,0.4471761129101117
43,0.44703829252057603,0.4468784770965576
44,0.44701748215489917,0.4468989614049594
45,0.44701344682110683,0.4468930177092552
46,0.44701843584246104,0.44689983077843987
47,0.44701295856634776,0.4469067052404086
48,0.4470189730061425,0.4468964737653732
49,0.4470135236316257,0.4472391722003619
50,0.4470270889136526,0.44691035368045173
51,0.44701170176267624,0.44689273051420847
52,0.44701375224192935,0.44694418676694236
53,0.4470171642171012,0.4469200754165649
54,0.44701535616318383,0.4468868261774381
55,0.4470206516120169,0.44688385132948555
56,0.4470133705602752,0.44700365674495696
57,0.44702032282617354,0.4469741502205531
58,0.44701754755443995,0.44730211031436923
59,0.4470033544699351,0.44731814493735633
