epoch,loss,val_loss
0,0.5947178550826179,0.5582307312488556
1,0.5579878124396006,0.5576146761973699
2,0.5578692961798773,0.5576976926326752
3,0.5578055554363462,0.5576667888959249
4,0.557761093073421,0.5579772843519847
5,0.5577276600996653,0.5576237988471985
6,0.5577264091836082,0.5575748690366745
7,0.5577030147711436,0.5575587502717971
8,0.557680792927742,0.5577111985683442
9,0.5576708576281866,0.5576869538227717
10,0.5576704449123806,0.5578409538269044
11,0.5576535978317261,0.5576373790899912
12,0.5576563334862391,0.5575144683519999
13,0.5576481408145693,0.5575922141472499
14,0.5576366678873698,0.5576086632013321
15,0.5576414104302724,0.5575686833063761
16,0.5576321645975113,0.5577137894233067
17,0.5576303273042043,0.5576237338383992
18,0.5576278603606754,0.5575479139089584
19,0.5576312838527892,0.5578122367858886
20,0.5576327870819304,0.5575233504374822
21,0.5576359861426883,0.5575519603888194
22,0.5576210666100184,0.5575328609148661
23,0.5576216352913115,0.5575618730386098
24,0.5576215525600645,0.5575934515794119
25,0.557625179251035,0.5575702780485153
26,0.5576176526678933,0.5575721338192622
27,0.5576157992548413,0.5577064292033513
28,0.5576174488597446,0.5578850845893224
29,0.5576183649566439,0.5575156856775284
30,0.557619156493081,0.5576306188503901
31,0.557620043012831,0.5575726586182912
32,0.9698330771658156,0.5579658105373383
