epoch,loss,val_loss
0,0.30092772273563023,0.2337964490019782
1,0.20126515084070812,0.18824378236076839
2,0.17364868184356236,0.1864605460796333
3,0.15778172490678374,0.13654248034528668
4,0.14994572429918498,0.1503974437375235
5,0.15471662952899456,0.12192282869215429
6,0.1453362939487084,0.1236598840812697
7,0.14430464658919004,0.13902212035844505
8,0.14027783121343992,0.14574511975823431
9,0.14128675390544942,0.12167688086326782
10,0.13901008528957756,0.1142181433429103
11,0.14086156482215498,0.11677457458080553
12,0.14071608077678038,0.11775848550445552
13,0.1400443496193,0.10827655240059479
14,0.13864442820342376,0.11050567738500341
15,0.13800446521505724,0.15056589393236727
16,0.13851080043278666,0.12250760954782813
17,0.13973223057100542,0.12325558767314858
18,0.1383073486423521,0.1157520796200268
19,0.13873384152356388,0.13666263151995456
20,0.14173302490762274,0.11642952945569812
21,0.13777874310234722,0.10457221364235356
22,0.1367121292255801,0.10940414075554626
23,0.13738604598314022,0.11204094069330844
24,0.13630547073838994,0.1136668913205368
25,0.13710177366176637,0.09870541086065411
26,0.13522352234984608,0.11836889437539541
27,0.1353351300786599,0.10893065741607452
28,0.13384047722379813,0.1197968652805756
29,0.13305885163997058,0.12001091926468163
30,0.13555067958380337,0.11777133484947323
31,0.1351527579224186,0.11581769426083623
32,0.13404208361458264,0.10320661441156367
33,0.13616768344699906,0.10292149995606988
34,0.1348624615560922,0.10902092575616017
35,0.13361551195645543,0.1180095770377409
36,0.1347717486823006,0.11268884100666494
37,0.13423166729157882,0.10727986603951126
38,0.1348020686291522,0.10653546897260908
39,0.13507351812849147,0.10863066036239061
40,0.13548637805185956,0.10481360398190638
41,0.13181357987946848,0.1187454819836369
42,0.1327795829620955,0.10991701887979415
43,0.1335429620949195,0.11684138264993488
44,0.1337170631910344,0.10750974210799466
45,0.13297239169955635,0.11149903377767317
46,0.13111806373664434,0.11941815570709866
47,0.13424842079595817,0.09898908045339275
48,0.1339645301572698,0.11635580972525905
49,0.1326904936229066,0.11401720668906036
50,0.13131575603142465,0.11893500701281856
51,0.13389517997709915,0.10879060384928455
52,0.13430523216795978,0.12837452324830895
53,0.13282527835417787,0.11379404579321736
54,0.13208663799733616,0.10371482516098873
55,0.13233262569225246,0.12599869092378013
56,0.132335575433184,0.1044614294367115
57,0.1339064040799156,0.10846423449573339
58,0.13415549698176146,0.10939045109622186
59,0.13461936322794713,0.10741747321148569
60,0.13372396422122076,0.10983761263420595
61,0.13261359686955057,0.10954824281555796
62,0.13255628527964564,0.11617383217047794
63,0.1332196347158942,0.10408518868834626
64,0.13067335902368002,0.11936249709646583
65,0.13196172304540943,0.10928496577613062
66,0.13175840314934023,0.09735342428172786
67,0.13178703558740854,0.11636183521463343
68,0.1329290951021296,0.1062079596258428
69,0.13164091321697133,0.11557339274438531
70,0.13049134870378182,0.10354137836388234
71,0.13207229960849992,0.10530408662166038
72,0.13246596270234132,0.10644466562886984
73,0.13151710994356722,0.11339520354243864
74,0.13138319057724876,0.10588974178151589
75,0.13148482809002826,0.10657759744973078
76,0.13048104776309621,0.11390200937098831
77,0.1317513182884555,0.1026871978197268
78,0.13167669635424145,0.1079343867768433
79,0.13199523792529794,0.11703409165119796
80,0.1331561716307727,0.10803908099996685
81,0.13277379259932415,0.11408941454381742
82,0.12990162451807455,0.10744358832432019
83,0.13149969076948037,0.11665445403630233
84,0.13162856510847068,0.10804634738263326
85,0.13264953612302952,0.10911655498537123
86,0.13035781542249353,0.10671377928877689
87,0.131338244526266,0.11541348762828359
88,0.1303900091486086,0.11052614403322085
89,0.13163064791260956,0.11238795303152715
90,0.13392969407886862,0.10601854046379176
91,0.12994773889644992,0.10259651944391726
92,0.13435840389853101,0.1048140813508173
93,0.13082530535011888,0.11092719219365163
94,0.1334666606841133,0.1194142198850252
95,0.1322371278307121,0.10325506071515521
96,0.13126145388552243,0.12197586341737637
97,0.13188678803171416,0.11480849804258501
98,0.13088695184768342,0.10533584450089825
99,0.13193511155794105,0.11479503926061946
100,0.13434003076379636,0.1099984407521609
101,0.13257333615405545,0.10981350847718586
102,0.13370743372124896,0.10883248575025714
103,0.13283984012919678,0.11639706794677086
104,0.13348460905820583,0.10383044099261485
105,0.13629581149014308,0.10678743578898452
106,0.13475562288784523,0.10679970149310353
107,0.13285182635959766,0.11482842709485439
108,0.1294478619869372,0.10449352977678047
109,0.13230023299268573,0.12282390463477891
110,0.13247883376226222,0.1195998117569396
111,0.13459108765121458,0.10447393516071038
112,0.13234790719395356,0.12547261130128173
113,0.1344757045449926,0.10351548944535724
114,0.13065174222887277,0.11139259656584563
115,0.13240651248561278,0.115217740318926
116,0.13421180906643668,0.11502905794859707
117,0.13263776057882248,0.10709413185123497
118,0.1322910904800825,0.1068106280384466
119,0.13448580783949174,0.10989948066022467
120,0.13427573759213174,0.11843957133222574
121,0.13221196721108844,0.11420496432933977
122,0.13259233521510833,0.13037522826026535
123,0.1335365885556985,0.12554165633925557
124,0.13249653018265367,0.10363119046014205
125,0.1340570080431821,0.11286993761639816
126,0.13079501049901793,0.11516082124287581
127,0.13320705931099822,0.11303940451638252
128,0.13198364310688357,0.10254202154672735
129,0.13347266824115173,0.11267902079700746
130,0.13542316247932046,0.12607131750962644
131,0.13109084632131365,0.11995894520483845
132,0.13370477804858938,0.11199945586658742
133,0.13386392111690928,0.10971351786058121
134,0.13404644404152471,0.10762197976298962
135,0.1337204900584381,0.10957008799642252
136,0.13232579849678291,0.11228795369538658
137,0.1327498673802142,0.1037205059174977
138,0.132831929947993,0.10742617948985352
139,0.1313152408079685,0.11101944687181822
140,0.13081295819307348,0.11629846513827255
141,0.13571180965754392,0.10873072153895441
142,0.1332207988914821,0.1108447655987082
143,0.13294685829141503,0.10264894053859626
144,0.13467042203888213,0.11206748512998792
145,0.132927988112283,0.12332526978712592
146,0.13338894396423817,0.13906372145773044
147,0.13479535760666678,0.11339437831057249
148,0.13365706365057428,0.11799166369080447
149,0.1338315370162312,0.1090895250826373
150,0.13053820985223982,0.1060671504867918
151,0.13286183793261777,0.10762911364254871
152,0.13176283628058683,0.10630068334615626
153,0.1314385188810581,0.12166378979434449
154,0.13539737550388153,0.1211361077048386
155,0.1340674719988727,0.11023482752228209
156,0.1335299314738656,0.1150330035839251
157,0.13391302548963324,0.11604164778243596
158,0.1339937881398812,0.11041282212236309
159,0.13354941343872237,0.10177114814374859
160,0.13265055458876399,0.1083514873974708
161,0.13064205066693887,0.11070860091472967
162,0.13381742291134582,0.12743290725246448
163,0.1331582606685839,0.10378543720773246
164,0.13345100228981174,0.10349646547245767
165,0.13373570523267272,0.11897487404838579
166,0.13403392213883641,0.11809162379205469
167,0.134568543876525,0.11836491307637988
168,0.13554676402035096,0.11853024347806886
169,0.13525601973335108,0.11714525148574646
170,0.13296352804088898,0.10225520512604269
171,0.13350481071693598,0.11166380603238034
172,0.1334113761830368,0.10125599422666569
173,0.1343864087251017,0.10890295859260088
174,0.13478408245633755,0.1122252633198431
175,0.13330704568504237,0.10504883449805624
176,0.13374929809219557,0.10666202372491408
177,0.13403041011767924,0.10630616364397852
178,0.13478459818982141,0.1263146641915732
179,0.1340833150142665,0.10681202037249361
180,0.13231141420545056,0.10442068466474057
181,0.13175223975645914,0.10909450113386616
182,0.13451674605329766,0.10651239515293544
183,0.13356594884808393,0.1087380886585463
184,0.1333423022052543,0.11489441105604946
185,0.1338445804893875,0.1142694662836443
186,0.1330658255593838,0.10215460169465196
187,0.13265421144288478,0.10642150675897567
188,0.13388751302245525,0.09973370308616929
189,0.1346504461434815,0.12291342202522652
190,0.1336401346847236,0.11776914454192915
191,0.13351380994455445,0.12129094842624974
192,0.13300529417035292,0.11057043879837498
193,0.13286982803904504,0.10954744736184362
194,0.1352346009873838,0.10735637265569489
195,0.13305451850696884,0.11721173158430609
196,0.13238060151676448,0.11189920417148702
197,0.13345626663204857,0.12097813379977258
198,0.13339832336235466,0.11271188257070257
199,0.13436247709634497,0.12137645880622971
200,0.1347946999661678,0.10212555931939986
201,0.13412641189855226,0.1159231676467047
202,0.1326315903050409,0.10976204796356587
203,0.13331579865277815,0.10831545948958068
204,0.13370755628300152,0.12453518490649197
205,0.13287866824240185,0.11425866608395387
206,0.13427898748885927,0.09996692006025291
207,0.13448336453820534,0.11550996503328174
208,0.13549016552378504,0.11322269374799264
209,0.13338254657600096,0.10636745813844267
210,0.1346618988222366,0.1089911004717236
211,0.133419320565925,0.10628389625750416
212,0.1338843499825562,0.10898506390618196
213,0.13338031305419243,0.12625208736336144
214,0.13474265554005666,0.11376550297546657
215,0.13281700114985767,0.13083218801268115
216,0.13417697069440201,0.10565490180147633
217,0.13372429372299854,0.11483779648093798
218,0.1345604104642347,0.11237170291643073
219,0.1323276697259077,0.11308582457022655
220,0.13386526333095075,0.1173014508715898
221,0.1331553436290798,0.11165110906472751
222,0.13342757966575192,0.11529295583348495
223,0.13429288286044658,0.11651966738947407
224,0.13429088865200264,0.11547963045060103
225,0.13352992537739375,0.12443171633711117
226,0.13443142913275952,0.11398547187459633
227,0.13398561260407213,0.11540547305746766
228,0.133117378649829,0.11379307481276728
229,0.13531018150828666,0.11709014442352773
230,0.1344186442287518,0.11890630404686213
231,0.1334794681307504,0.10253819419616426
232,0.13329254776788196,0.11045055307707743
233,0.13532915371384402,0.11291218010613518
234,0.13507088393963176,0.1152569376844656
235,0.13374672697974835,0.11790889206690607
236,0.1340577630602044,0.12692801977620313
237,0.13297274262548162,0.11091608351091979
238,0.13448473866626298,0.11511206114475842
239,0.1345594878151142,0.1149892942845483
240,0.13346507632620244,0.10823360882512167
241,0.13511336842973867,0.11117744498371789
242,0.13260162331826025,0.10771544381601483
243,0.1343540347832217,0.11717963252527774
244,0.1346773549055366,0.1040160616033462
245,0.1329920539875523,0.10842054743328813
246,0.13494609047571499,0.10974873315364678
247,0.13421691473636083,0.10891437045897494
248,0.1320130688110717,0.11270295703498116
249,0.1336230067484039,0.10713003701488853
250,0.1340006556663158,0.11383522666888032
251,0.13324681157358081,0.10757559360233826
252,0.13478529637901662,0.11355054617193977
253,0.13294387353156165,0.10728305895470645
254,0.13398649568577783,0.10441804120116184
255,0.1352792622132288,0.11025470807628716
256,0.13364369964139092,0.11316801087337108
257,0.13356573604423108,0.1103470922543668
258,0.1334508762980481,0.1117552260581981
259,0.13398399103501493,0.11485022334238425
260,0.13277972366413276,0.10825886796715777
261,0.13194648914927956,0.10977866137453143
262,0.1345923533312696,0.10389157071625035
263,0.1334991595827884,0.10423779048309613
264,0.13559262638239025,0.10729773711814981
265,0.1339644673552582,0.11174905011301976
266,0.1342248552925497,0.12369225620740038
267,0.13251670640859725,0.10240481401712838
268,0.13493020986739973,0.10624859124929656
269,0.1346629054827677,0.10559388825976548
270,0.13355215772497261,0.11863634756495096
271,0.1336659635003325,0.09985492443733841
272,0.13408687638284397,0.11059062175652117
273,0.13299219151011843,0.10636818530423217
274,0.1345162966502629,0.11409088913034059
275,0.13183049275111064,0.11691954282368476
276,0.13411388132837507,0.11681497782855525
277,0.13463565426840604,0.11032726464601232
278,0.13649321021474867,0.10709073003577876
279,0.13473678347740392,0.11077804476119403
280,0.13418463776536804,0.11482986914173723
281,0.13423280848310984,0.12905049646108593
282,0.13414106710110787,0.1055365906241263
283,0.13416717686743332,0.10312546442798358
284,0.13573735876917076,0.11005254103730389
285,0.13413485069815115,0.11969832398619772
286,0.13596385009318376,0.11567164156872957
287,0.135619315561101,0.11987025710691404
288,0.1340605530013935,0.10109355266826092
289,0.136244643828552,0.10425343494998278
290,0.13506787177846372,0.11447347520525052
291,0.13562502590022246,0.1457959738018449
292,0.13359689906692868,0.10386077179260014
293,0.13459361593922775,0.11078085526159306
294,0.13432979575090642,0.10944375505146706
295,0.13476968932452443,0.10938969540310796
296,0.13294364747295292,0.11301087976009597
297,0.1362869565496691,0.12405842301546802
298,0.13573714568196915,0.11493100453128877
299,0.13270477894499744,0.11153415640678623
300,0.1358850236185748,0.10986571891923697
301,0.13400602161144617,0.11470674360828098
302,0.13488353599456426,0.11053674210041206
303,0.13609302051669603,0.11595328457937527
304,0.13352880885211632,0.11503329562493098
305,0.13382308963862202,0.12052727186718513
306,0.13442069805078835,0.10755730387720748
307,0.13509551116270577,0.10255563795107318
308,0.13475960241653043,0.1150930517285893
309,0.1314584712197391,0.11052169677984976
310,0.13517707904235565,0.1096766489978641
311,0.1354455341927236,0.11655133503994512
312,0.1350944992050445,0.11758431319120156
313,0.13351045490754807,0.10114714037400382
314,0.13189714131138627,0.1035570767432427
315,0.13344628982741036,0.11364562460806732
316,0.1333077912531298,0.11617119904586386
317,0.13553713461916575,0.10999485676910271
318,0.13302397540657876,0.11924123240745077
319,0.13335812379948322,0.10846362421885797
320,0.13445424739184905,0.11629328304495351
321,0.13315045798989275,0.10518121219633657
322,0.13398957505130213,0.11192969293828331
323,0.13511210989603717,0.10184436009868991
324,0.1336987359230045,0.1053361675104569
325,0.13475506806118284,0.10876548928355939
326,0.13569576104728578,0.12179036846947883
327,0.13420700454850307,0.10824732841970663
328,0.1347073752424114,0.11789368011438063
329,0.13449813656693846,0.1112407965877147
330,0.13386451451777456,0.11030049460115997
331,0.1344729695227549,0.11278585771767956
332,0.13507243791659226,0.12230156736700687
333,0.13460254031803914,0.10787492045424184
334,0.13285206069795488,0.10585078441772824
335,0.13516004048914218,0.1141557998272431
336,0.1347456826829166,0.10140983168177747
337,0.1333200697055619,0.10437211268622994
338,0.13342614246128176,0.11614795218298131
339,0.13610478366514125,0.12426195552894378
340,0.13565166924205468,0.1108564870116291
341,0.1340697573943793,0.10746582372707753
342,0.13318406434072028,0.12698293491194912
343,0.1348319329691229,0.10788936975252696
344,0.1352060492410719,0.12023522750763804
345,0.13346933371262898,0.1306485675716439
346,0.13528227133212611,0.10587220134429591
347,0.13582181200695287,0.11022341782521737
348,0.1351992537090786,0.10568374635263468
349,0.13390834364082643,0.11272664789324936
350,0.1329951051046984,0.10945123186922615
351,0.13421348057347265,0.11317518652573119
352,0.13474601430235336,0.10886643159249307
353,0.13639402636188902,0.141048852653399
354,0.13396841114024527,0.11067224267963849
355,0.1353247215042265,0.11291271414296566
356,0.13508296692318875,0.11256740846507257
357,0.1328649157531458,0.1119676546736742
358,0.13583569192559458,0.1087875092297865
359,0.13707652943040297,0.10742158512830348
360,0.13546563509860643,0.10547854782165982
361,0.13476523511511407,0.11438627057049396
362,0.1347293732605809,0.10941949368900916
363,0.13325456255753104,0.12363733867272457
364,0.135210268846672,0.11220752423672974
365,0.1340304014054511,0.11873441475948858
366,0.13591400342132207,0.11253467368359307
367,0.13215943853302992,0.11639661886952123
368,0.1341246258887985,0.10920155942681739
369,0.13456286674587606,0.1187968507880422
370,0.1361065571598285,0.11211074246373103
371,0.13550514259261548,0.1107476875669378
372,0.134255741895128,0.1207738947440528
373,0.13551047080762393,0.11362938781700188
374,0.1336371739707392,0.10596360134478999
375,0.13441970947983745,0.11539678162587723
376,0.13490718190041517,0.11886791179118268
377,0.1352757803314299,0.10948745710571317
378,0.13549765913759926,0.11444063571682811
379,0.13483058764719313,0.10977097952984642
380,0.13316088726668,0.1072900827795823
381,0.13448299253709894,0.11796608999286931
382,0.13621691858069337,0.11008190026465994
383,0.1344919081052558,0.11401268372739705
384,0.13304332454052803,0.11060029228383317
385,0.13718911149413038,0.11033166658559275
386,0.1357030678955052,0.11222442295719527
387,0.13391758429648593,0.10811740051220803
388,0.1348206135716507,0.10439984649057225
389,0.13509500825746332,0.11510957613140224
390,0.13380754331918696,0.1252981746162908
391,0.13547836826611653,0.12035795229895754
392,0.1340863099239701,0.10582687253161165
393,0.13593854230222366,0.11097072334982763
394,0.13371181497581489,0.10738372427486155
395,0.13431022715590019,0.1217967663851581
396,0.1349468450363967,0.10490782898514617
397,0.1333983069370755,0.11567402874562958
398,0.13430279222808425,0.11760236515640149
399,0.1348393053872238,0.11932523738342093
400,0.1349834271932574,0.12395220817899859
401,0.13574291060300614,0.12094921918415191
402,0.1341914064776573,0.10865199109063531
403,0.13474783499399312,0.10865573829760516
404,0.1356429323476491,0.11019341421630068
405,0.13477544673234582,0.11897741425525629
406,0.13469549538411074,0.11515298981252764
407,0.13580877259612276,0.11283001017855708
408,0.13455109146413943,0.1129086200277784
409,0.1341111926619915,0.10810248625056104
410,0.1383707335083078,0.11698268540052505
411,0.1351857702818224,0.12315598980426208
412,0.13284725623967364,0.12045889333289325
413,0.13658994204514593,0.1290930491801886
414,0.13536991249975727,0.10398287915859586
415,0.13709846342070472,0.11048808382689615
416,0.13584551488677915,0.13307066586862612
417,0.1348328086479699,0.10417716499396872
418,0.1348375419081689,0.11008238322301696
419,0.13585828225000846,0.1072887506544445
420,0.1342310988582116,0.12175485376338116
421,0.13542819679606619,0.1055270952368208
422,0.1350390420938798,0.11443674667086527
423,0.13539154954057775,0.10610506450341953
424,0.13619085731770728,0.11948675714245871
425,0.13539434102974576,0.10818562849401364
426,0.1342473109964851,0.11988824892967384
427,0.13520367132772723,0.10810144226892344
428,0.1350434484650747,0.11164237320761514
429,0.13418370567924315,0.10954860741059566
430,0.13447634064203934,0.10918221745371141
431,0.13558925112621414,0.11282872865452384
432,0.13661865366278314,0.10847023808052167
433,0.1365879209722587,0.1027248311978187
434,0.13433106682651802,0.10656938227520468
435,0.13409340204156522,0.13037556553650753
436,0.13571711190289454,0.11979269951171055
437,0.13635406589763369,0.11975349085246849
438,0.1348545846131871,0.10865138095274073
439,0.1331330213943322,0.11777467796668133
440,0.13473435213939966,0.10883123235473377
441,0.13633803677878636,0.11888384482455466
442,0.13536499423370826,0.11922140172943292
443,0.13784509246424737,0.13479850282295874
444,0.1353399759983186,0.10845272840640453
445,0.13499462473884022,0.1282061837365834
446,0.13497274901697023,0.11082278835584937
447,0.13524035889628508,0.11210265541139504
448,0.13609969568512648,0.10975266937453478
449,0.136315248518872,0.11863028565655853
450,0.13629969804166697,0.11620325208411213
451,0.13281738500388934,0.108763501610054
452,0.1355200219657824,0.11098170977777712
453,0.13573624138489926,0.10560904776817981
454,0.13524468046567553,0.12324593132188044
455,0.13507982228604482,0.11260690288097029
456,0.13589300146942335,0.10557404607655262
457,0.13752657619175956,0.11200935502943718
458,0.13605634109963408,0.10624867879512923
459,0.13691615918166547,0.11803854903431318
460,0.13601448946148514,0.10881875596173102
461,0.13777406096422642,0.13269747356187012
462,0.13710186971400717,0.11783943307757475
463,0.134793104065524,0.11484404731865154
464,0.1359480732322646,0.10564096615818198
465,0.13428839724704777,0.11985419469448191
466,0.13449948204694698,0.11430956745355572
467,0.13529692862251455,0.11065924951364041
468,0.13491134455590081,0.1326498318605566
469,0.13373476562140177,0.1228456834009384
470,0.13716607528020613,0.11301520855346542
471,0.13591569861631284,0.11671224738027831
472,0.13472642064440526,0.11547938501046909
473,0.13593992686944545,0.11490100482592037
474,0.1342250920229668,0.10736220151137649
475,0.13429583405093062,0.10789062225373895
476,0.13509577870357026,0.11136213335339266
477,0.13446183902643222,0.11700144133380247
478,0.13579314774136433,0.1205979014315551
479,0.13615277314408003,0.10629504909383893
480,0.13581523497263082,0.11878584597836832
481,0.13687123402094153,0.10092910113295016
482,0.13526814588136057,0.12195565060856665
483,0.1365854389148297,0.12900001129674796
484,0.13454529821717615,0.10752631860444532
485,0.1358676089959635,0.12579287738453926
486,0.13686337983243174,0.10673655984078784
487,0.1360101335472446,0.10636224256283079
488,0.13599876538396263,0.11660008480514053
489,0.13596014031846587,0.11002415167250869
490,0.1355352174398229,0.13061349196034722
491,0.1359337545794139,0.11416247633300172
492,0.1372720486968398,0.11173245389337765
493,0.13394258654802393,0.11241537029798304
494,0.13672204587677175,0.11934040144798916
495,0.13763535266117252,0.12288013944781513
496,0.13473279999674942,0.11783152978205623
497,0.13729055295940681,0.10856893458022206
498,0.13468107769341828,0.12347491651120847
499,0.13574075795489374,0.10780088764835158
500,0.1370554227557919,0.11555026671626369
