epoch,loss,val_loss
0,0.7060989778384131,0.7018902619136208
1,0.7017438630720925,0.7011199781072566
2,0.7014018596637581,0.700905801983493
3,0.7011031136815008,0.7010573742020764
4,0.6723124251233059,0.6509155222653369
5,0.651050302258722,0.651299414689343
6,0.6510452485777476,0.650904156859295
7,0.6509531420158815,0.6508173205687746
8,0.6508958574695856,0.6511556387773563
9,0.6508610011513779,0.650711914302401
10,0.6508124491338081,0.6508344627862545
11,0.6508091946018892,0.6507583934304811
12,0.6507515184964071,0.6506631051716827
13,0.6507346878584426,0.6506503054845352
14,0.6016989819820023,0.6013580892538808
15,0.6008076155010911,0.6007018412995622
16,0.6007572565070942,0.6009723288823581
17,0.6007562943517133,0.6006591251951527
18,0.6007439414433297,0.6006998528826828
19,0.6007313082517881,0.6019650370830286
20,0.6007044093153163,0.6006466209475493
21,0.6006926288216079,0.6008730917761351
22,0.6007157473027414,0.6010609774230364
23,0.6006698534882701,0.6005850471893707
24,0.6006688550649375,0.6006433390706994
25,0.6006717607098352,0.601180473839883
26,0.6006671491652359,0.6006107182819566
27,0.6006324759742059,0.6006781939059088
28,0.6006435096160819,0.6005888696270867
29,0.6006264890217556,0.6005768748726593
30,0.6006087239898837,0.600578258411989
31,0.6006084369749602,0.6006176804729583
32,0.6006141528086589,0.6005589321062438
33,0.6005854605498927,0.6005346942570562
34,0.6006000989152709,0.6007501876868836
35,0.6005793220889498,0.6010270508489001
36,0.600582962621548,0.6006289361467326
37,0.6005674161553979,0.6008111144344724
38,0.600579058352833,0.6008072590018954
39,0.6005740814179392,0.6005035893788747
40,0.6005625249587436,0.6010646214491945
41,0.6005606914082202,0.6006122897628103
42,0.6005426147088748,0.6005759470986736
43,0.6005537585241135,0.6007599818556151
44,0.6005406418201227,0.6005241149461679
45,0.6005432659930733,0.6005473391457844
46,0.6005391673008603,0.6005114164460846
47,0.6005599089477764,0.6005024933162729
48,0.6005321609800813,0.6005215679567859
49,0.6005358673958815,0.6008400067086117
50,0.6005276929161184,0.6005267718478278
51,0.6005288701971531,0.600618648950489
52,0.6005327510261088,0.6005001914693907
53,0.6005239216971917,0.6006060467771874
54,0.6005140461872446,0.6005282976907319
55,0.6005226514407047,0.6009609267859459
56,0.6005208317998613,0.6004898782881057
57,0.6005260411359716,0.6006573146603886
58,0.6005155094596017,0.6005235327393489
59,0.6005031276616656,0.6007397687865057
60,0.600507356637826,0.6007143902003521
61,0.6005184721099034,0.6005549284615129
62,0.6005206078557076,0.600485876559957
63,0.60050738613448,0.6004593939589743
64,0.6005055341831385,0.6005667251832406
65,0.600511243652156,0.6004921753911825
66,0.6005038388328815,0.6004741310670927
67,0.6005040564942422,0.6004904416997133
68,0.600500506459276,0.6005767802930382
69,0.6004807608962344,0.6006714341949243
70,0.6005017886756594,0.6004789129924045
71,0.6004804952301,0.6005867367041515
72,0.6004812823624004,0.6006344999210685
73,0.6004928501786265,0.6005125573312946
74,0.6004681054254856,0.6004875334081312
75,0.6004886606471108,0.6005546487993575
76,0.6004883196580545,0.6005457865448527
77,0.6004913654205295,0.6004872376509216
78,0.6004796744869754,0.6004738592300984
79,0.6004834837316239,0.6005512906404218
80,0.6004827080890693,0.6004560635745959
81,0.6004726878532222,0.6004693727655084
82,0.6004670173671698,0.6006155630944571
83,0.6004779291200393,0.6005291814786288
84,0.6004645531625985,0.6004953063027773
85,0.6004799612604702,0.6004719983029904
86,0.6004677432641229,0.6004695671450543
87,0.6004684364496088,0.6011349602032775
88,0.6004682904911518,0.6005686071821631
89,0.6004644086738915,0.6004787196293884
90,0.6004673554054313,0.600468119934961
91,0.6004672697674339,0.600532432467799
92,0.600466381113671,0.6004407816594819
93,0.600470312476048,0.60053102080448
94,0.6004508167154416,0.6004610865127555
95,0.6004594364800356,0.6005533321180359
96,0.6004695500075926,0.6004459397113859
97,0.6004722121483785,0.6004598685936513
98,0.6004600062573495,0.6007062999684172
99,0.6004496443731058,0.6004779993651244
100,0.6004561301016623,0.6004803174553046
101,0.6004576853569317,0.6004851357533212
102,0.6004417228837657,0.6004748659016164
103,0.6004578928938187,0.6004705198875518
104,0.6004510384542644,0.6005017176299604
105,0.6004537701787469,0.6005486740928747
106,0.6004483001335552,0.6005150456690285
107,0.6004598274758881,0.6004795427643441
108,0.6004601497224554,0.60057058372894
109,0.6004409749320917,0.6005768739302515
110,0.6004444469474766,0.6004595601827643
111,0.6004540178365613,0.600516296350039
112,0.6004476845596223,0.6004487351787559
