epoch,loss,val_loss
0,0.564644785880602,0.5527602794602828
1,0.5524261422263121,0.5525963383302064
2,0.5519890082702205,0.5513673428744528
3,0.5517178813539253,0.5513865486049466
4,0.5514859278873483,0.5515520835477646
5,0.5513688719481287,0.5516262100610752
6,0.5512904587984057,0.5510509444248785
7,0.5512080875427857,0.550961658160033
8,0.5511278308126604,0.5517918623283672
9,0.55108308097195,0.5512168096551507
10,0.5510333786244095,0.5509727225144394
11,0.5510376499268282,0.5512414084359286
12,0.5509970833969626,0.5510689194025801
13,0.5510402898731187,0.5514188376026185
14,0.5509709822269477,0.5508585099874074
15,0.550932192062895,0.5511253773795497
16,0.5509276795096989,0.5508129981614955
17,0.5509017514892216,0.5509708305090523
18,0.55091351801254,0.5511115255947117
19,0.5508889000602789,0.5507898959560363
20,0.5508382740249925,0.550845004638022
21,0.5508417913654339,0.5513254374313321
22,0.5508195251981066,0.550787484705141
23,0.5507939456086186,0.5507205311327427
24,0.5508091868002134,0.5508335856206253
25,0.5508092749033247,0.5507937850188057
26,0.550753693836796,0.5507476330121133
27,0.5507557774622442,0.5510539041676896
28,0.5507801580308221,0.5508049293402182
29,0.5507395188281026,0.5506650635098708
30,0.5507525718118662,0.5507061941243759
31,0.5507137467281916,0.5506646277892228
32,0.5507577761118593,0.5507632649734783
33,0.5507061944792982,0.5506713884214373
34,0.55070351538909,0.5510228140186005
35,0.5507080520837415,0.5510084703816129
36,0.5507216010904776,0.5508150298867773
37,0.5507118883133386,0.5511297588662666
38,0.5507018986118651,0.5507259543718421
39,0.5507002152949215,0.550624943664769
40,0.550709757499174,0.5507112477066717
41,0.5506809755574212,0.5506893821943503
42,0.550678211549266,0.5510030529452039
43,0.5506828124286478,0.5506318116361707
44,0.5506789194661365,0.5506349179392747
45,0.5506855052605243,0.5506589120860463
46,0.5506749399493284,0.5506441702023559
47,0.5506544422540846,0.5506755580993588
48,0.550666501873223,0.550775895217825
49,0.550659734592243,0.5507574035782948
50,0.5506557856267509,0.5510058895396729
51,0.5506477905877896,0.5506546836611771
52,0.5506611335598615,0.5506871682772905
53,0.5506554821410268,0.5506677794549664
54,0.5506525923442979,0.5506361334547096
55,0.5506390404545363,0.5508351450937217
56,0.5506530504714399,0.5508683646926026
57,0.5506346612518553,0.5507006799588091
58,0.5506353010858401,0.5506757877715466
59,0.5506531927590516,0.550642271049494
