epoch,loss,val_loss
0,0.7543362433247303,0.7515824635682383
1,0.7514270556264744,0.7510456476505495
2,0.7511825200227548,0.7508947307865708
3,0.7509913221359885,0.7509568049315132
4,0.7509338172712046,0.7509089964049009
5,0.7508380402664104,0.7506719441688342
6,0.7507572278479577,0.7507403753095632
7,0.7507223934701102,0.7508414953677052
8,0.7507002135662357,0.7506503539348839
9,0.7506381898089881,0.7505657850668895
10,0.7506088305858665,0.7508858231800152
11,0.7506083317123415,0.7504866961307055
12,0.7505791169948692,0.7506897875059347
13,0.7505710054489253,0.7504730248751956
14,0.7505293448829136,0.7504409159938868
15,0.7505256961304457,0.7505081150793949
16,0.7505090445887882,0.7506485362844116
17,0.750543082628985,0.7510962552870966
18,0.7504881366666982,0.7505593430849815
19,0.7504933100398195,0.7504099766829866
20,0.7504743297096622,0.7504076370021382
21,0.7105963722689904,0.7008333663297475
22,0.7005385573430383,0.700517472682488
23,0.700578713030485,0.7005709401772107
24,0.7005583049462227,0.7008803807772123
25,0.7005327942669723,0.7009293409684852
26,0.7005329735002301,0.7004778474532259
27,0.7005121279472137,0.7005162955622284
28,0.700519433550599,0.7004797567184409
29,0.7005280388986539,0.7004893674776765
30,0.7005019170095409,0.700451406847628
31,0.7005410087024747,0.7004352887520932
32,0.7005097333955204,0.7006649945171504
33,0.7004909886206829,0.7004351829377007
34,0.7005049537699737,0.7006321207078021
35,0.7004944247634378,0.7005032048510879
36,0.7004967683397967,0.7007213307117395
37,0.7005114402425824,0.700486338473188
38,0.7004884669603232,0.7006299683860912
39,0.7004818083391882,0.7005944080368878
40,0.7004839516681116,0.7004446861142056
41,0.7004745560054159,0.7004499365538385
42,0.7004810854509164,0.7005399679243935
43,0.7004613176270217,0.700513661500721
44,0.7004636682076358,0.7005298348065273
45,0.7005067851292849,0.7005848701713056
46,0.7004542641132907,0.700510891054807
47,0.7004674020319437,0.7005088253710786
48,0.70046332344608,0.7004440007931514
49,0.7004616704517305,0.7004608796447181
50,0.7004626686534005,0.7004324101834171
51,0.7004509387637065,0.700430764379415
52,0.7004663129203778,0.700581084900458
53,0.70044886008684,0.7009721536749866
54,0.7004652839372579,0.7005180834262615
55,0.7004401020400914,0.7004266910070974
56,0.7004461436302503,0.700544976398182
57,0.7004454716297774,0.700448749024738
58,0.700430103011847,0.7004057085943975
59,0.700420829392051,0.7003940043662873
60,0.7004474865454727,0.7009673921438025
61,0.7004336052693497,0.7005690010937901
62,0.7004178675775726,0.7003981292851337
63,0.7004320426413287,0.7004324590509665
64,0.7004305734165548,0.7004061500859697
65,0.7004313006957223,0.7004116953933487
66,0.7004164839272622,0.700395586128916
67,0.7004128153310517,0.7004698399625763
68,0.7004209570174593,0.7005406368009615
69,0.7004081649573802,0.7004142555870284
70,0.7004173426890493,0.7004138814405515
71,0.7004043648248993,0.7004279962524594
72,0.7004069554378526,0.7004425734265657
73,0.700420062717654,0.7005613632705331
74,0.7004097644661017,0.7005377890140766
75,0.7004015098376669,0.7004197711609125
76,0.7004064391546377,0.7003975442299137
77,0.7004032809414642,0.7003850276568873
78,0.7004139704175909,0.7003804971003198
79,0.700408092182872,0.700399391243271
80,0.7003997324129564,0.700397570363199
81,0.7003940368352645,0.7004351892380672
82,0.7003955959759824,0.7003912783723717
83,0.7004020072456775,0.7003789261383196
84,0.7003998898357455,0.7004277580668351
85,0.7003911661269311,0.7004197913326745
86,0.7003854666708499,0.7004589983976042
87,0.7003888779393923,0.7005162906172347
88,0.7003973508772333,0.7003984820950749
89,0.7003908155089651,0.7004709827008352
90,0.7003896480813263,0.7003868946302295
91,0.7003986620537624,0.7003784703835646
92,0.7003769726877704,0.700446154491413
93,0.7003909538179451,0.7003861919116923
94,0.7003809404324601,0.7004526857902831
95,0.7003937359247796,0.7003694070361821
96,0.7003836626805142,0.700383655489984
97,0.7003876640995621,0.7004049068065663
98,0.7003797976361934,0.7003912601171918
99,0.7003816612763535,0.70044797237484
100,0.7003854149189904,0.7004251130670441
101,0.7003790634713671,0.700367693082332
102,0.7003870629901716,0.7003865502066586
103,0.7003931752229247,0.7005017800787707
104,0.700380361496387,0.7004264894800767
105,0.700385594019533,0.7004074399774971
106,0.700384018971348,0.7004048894832053
107,0.7003707693178114,0.7003931082000231
108,0.7003849853143164,0.7004662343845378
109,0.7003810173677303,0.7003922800035963
110,0.7003772855878009,0.700376346694108
111,0.7003778285580611,0.7003726679365172
112,0.7003786484484202,0.7004143825791237
113,0.7003767989960772,0.7003747102082951
114,0.7003841852860542,0.70036655562791
115,0.7003758546584147,0.7004348152821898
116,0.7003874997657007,0.7006630283898031
117,0.7003846172838369,0.7005606511914512
118,0.7003757133591075,0.7003759323311733
119,0.7003864237406983,0.7003963363490407
120,0.7003677050472167,0.7005070227673643
121,0.7003799920893405,0.7003760231517522
122,0.700373400579729,0.7004769378179427
123,0.7003801172256334,0.7003801591465371
124,0.7003753108311533,0.7007033521126507
125,0.7003772906676861,0.7003787837182677
126,0.7003754716579456,0.7004575981173005
127,0.7003765202236133,0.7003855228339362
128,0.7003734164010722,0.7003614810585107
129,0.700376659467247,0.7003716912632154
130,0.700371938796888,0.7004727894871459
131,0.7003715128065847,0.7003775617436334
132,0.7003727603546579,0.7004278508992957
133,0.7003755443435065,0.7003782541168627
134,0.7003683696721141,0.7004698363729556
135,0.7003673047443595,0.700362369590213
136,0.7003688350223503,0.7005766037408826
137,0.7003756523044788,0.7004953178721564
138,0.7003692312773946,0.7004278865307808
139,0.7003691660380023,0.7003848176587855
140,0.7003635673776859,0.700410905602686
141,0.7003637414322281,0.7003982814151624
142,0.7003622056776184,0.7003613933828208
143,0.7003730712752556,0.7004058448623268
144,0.7003659665913529,0.7003538455648011
145,0.7003613860004507,0.7004432190182494
146,0.700368163429906,0.7004302070563969
147,0.700360587240042,0.700359425233003
148,0.7003612239425134,0.7004095015951066
149,0.7003627240419201,0.7005117887988102
150,0.7003507358983756,0.700471794569253
151,0.7003657498759407,0.7003855467859181
152,0.7003524443831993,0.700345019534757
153,0.7003620045152955,0.7003796499286712
154,0.7003611888167594,0.7003540686295455
155,0.7003650317329424,0.7003698998836837
156,0.7003646440493219,0.7003735035769065
157,0.7003544324706629,0.7003475442028402
158,0.7003509787502064,0.7003702598516884
159,0.7003627879795743,0.7003530596496581
160,0.7003529074970436,0.7003952425524531
161,0.7003513534277396,0.7003649240129687
162,0.7003563251641517,0.7003749111211623
163,0.7003576383977662,0.7004832830389263
164,0.7003642316651479,0.7003421695771576
165,0.7003554021837496,0.7003506029302347
166,0.7003550744520922,0.7007003813468451
167,0.700352829467579,0.7004109905358635
168,0.7003566738803375,0.7003824307622484
169,0.7003567007424539,0.7004028286597597
170,0.7003522331006383,0.7004822543849528
171,0.7003665295917216,0.7003811168022617
172,0.7003604197803146,0.7003575396021045
173,0.7003543456114035,0.7003972972767204
174,0.7003492893340121,0.700380214748596
175,0.7003505719965444,0.7004094734922949
176,0.7003547932526348,0.7003494936209798
177,0.7003483501863601,0.7003559389701426
178,0.7003564463091063,0.7004301149545671
179,0.7003571168567714,0.7003518215587919
180,0.7003518127577893,0.7003598755450883
181,0.7003447539509818,0.7003614843410547
182,0.7003546465021224,0.7004876468104947
183,0.7003483188302818,0.7003878731459914
184,0.700348164092857,0.700352857932038
