epoch,loss,val_loss
0,0.6066308143177458,0.602916778817569
1,0.6023945274613262,0.6017420133279641
2,0.6017613795950787,0.6034863253727457
3,0.5652817686704728,0.55285744293055
4,0.5528527974255045,0.5528899942352496
5,0.5528084581476641,0.5527401376435549
6,0.5525737452883139,0.5533697963565678
7,0.5524171598146744,0.5523203554511769
8,0.5521156846619958,0.5517721776958892
9,0.551870396563225,0.5520158916325314
10,0.5236468416228063,0.4521984401054589
11,0.45212326394482943,0.4529651637228964
12,0.4520527005307155,0.45210584993365815
13,0.45193513632484256,0.4516152555225882
14,0.4518486818227972,0.45173954120811505
15,0.45175120679367653,0.45161387720356233
16,0.4517888686464769,0.4516398523550174
17,0.4516573874323316,0.4515727769367054
18,0.45163231339518917,0.4515005521811141
19,0.45156831179072454,0.45240425295845865
20,0.45151858188572475,0.4514968614369435
21,0.45148079160416565,0.45145927242793077
22,0.4515284104970934,0.4512719593731712
23,0.4514549604121164,0.4513131126637017
24,0.45147936915372616,0.45136584480504705
25,0.4514518832314412,0.45136815648897227
26,0.45139673973532085,0.451275801394968
27,0.4514177138392222,0.45135348223098154
28,0.4514248019287863,0.45202867531886554
29,0.4513804310894415,0.45121970680620216
30,0.4513985710649829,0.4512291015263962
31,0.4513888595366372,0.4516538384912026
32,0.451377213531406,0.4512867802285157
33,0.4513725780366589,0.45128521392031573
34,0.4513484102436878,0.45131401897408563
35,0.4513711991485643,0.4515718414116804
36,0.45133247060953313,0.4511999836885436
37,0.4512973111628029,0.45126832132971423
38,0.4513463846818352,0.45145205141363315
39,0.45132398198659374,0.4515030724760016
40,0.45129328030286975,0.45126922685122867
41,0.45130792664315933,0.4512435729655264
42,0.4512953531805065,0.4514982956121607
43,0.45129506831090965,0.45172844199520973
44,0.45128684138394426,0.45130667074003233
45,0.45127142526809927,0.4513224480122058
46,0.4512743414546764,0.45120838442795824
47,0.45127370761899394,0.4511716123170678
48,0.451272457035414,0.4513901214570808
49,0.4512836686772851,0.4514388759228535
50,0.4512184023917827,0.4511606778984575
51,0.45127496715378895,0.451280349232541
52,0.45124953486473424,0.45116888758322554
53,0.4512479268834194,0.4512688347884151
54,0.45123030136555314,0.45115877492831474
55,0.4512331966466662,0.4512895922886158
56,0.45122693672098174,0.451463080740119
57,0.4512179836655176,0.45154730810177096
58,0.45120591834950974,0.4511347123193241
59,0.45121411622808794,0.4515079831193916
60,0.4512064417576941,0.45145586651327513
61,0.4511816286703557,0.4518525842176828
62,0.4511900481663364,0.45112098645710735
63,0.4511859266322885,0.45139493503246964
64,0.4511872985726025,0.45109215493120886
65,0.45115999759950504,0.45121867026353435
66,0.45118347105490964,0.4513001908870971
67,0.45117310954975115,0.4511957842347719
68,0.4511730580597923,0.45119955092218506
69,0.45117917426694143,0.45122274348231356
70,0.4511766196903942,0.45110627604877784
71,0.4511473488358141,0.45121446734191384
72,0.4511598126093735,0.45117973021767155
73,0.45119118395058266,0.45173126350056536
74,0.451143353266823,0.45108824361067384
75,0.4511428512702558,0.45108538502845485
76,0.45115366710887883,0.45110399840271564
77,0.45114332383935035,0.45116568663167284
78,0.451148354800616,0.45128887515865185
79,0.4511490396744609,0.4511294397066363
80,0.45113143734292427,0.4515152495969229
81,0.4511448677545315,0.4511009100159482
82,0.4511460113675613,0.4510913502685044
83,0.45113500346537017,0.45110121705028466
84,0.4511309552013946,0.4510599108143839
85,0.4511437992738221,0.4512387773858906
86,0.45112445325264333,0.45107010330394015
87,0.45112716397777286,0.45161366254107144
88,0.45114434768046296,0.45105476565970093
89,0.45113720738724294,0.45106309961522956
90,0.4511056333821939,0.4511997563776696
91,0.4511231224843891,0.45107527918747
92,0.4511538112777987,0.45146132595565774
93,0.45111381981126436,0.4513998002443925
94,0.4511015056860674,0.4510702280088436
95,0.4511079232131418,0.4516530721442571
96,0.45108357937348903,0.4510215914340484
97,0.45108540131496416,0.45112108652704797
98,0.4510941558969996,0.45104309531591524
99,0.45108780479457694,0.451120465332078
100,0.45108597704610687,0.45109502252983485
101,0.45108358044509345,0.4510715262655637
102,0.4510794647378066,0.4510481934402145
103,0.4510573650383725,0.4510169440347997
104,0.45107580183705376,0.45105536500457594
105,0.45109475638869984,0.4511316470109584
106,0.4510630164014386,0.45110092328907353
107,0.45108845304750433,0.45134206572314267
108,0.45106327232853793,0.4511380904488336
109,0.45108170347341153,0.45114794323215224
110,0.4510794403506869,0.4511205379874822
111,0.4510720000491628,0.4511826187239847
112,0.4510860388567885,0.4512049488962851
113,0.4510722492882644,0.4510401322164381
114,0.4510754455109234,0.45106845586396044
115,0.4510615802065071,0.4510605715745972
116,0.4510460187160108,0.4510657057274635
117,0.4510781128890173,0.4510372017412123
118,0.45105682172432354,0.4509972138120218
119,0.4510637207547653,0.45103683594404476
120,0.4510464746314685,0.45133785511401603
121,0.4510436992747539,0.4510865255006996
122,0.4510494545375668,0.45102544579185716
123,0.4510488489709229,0.4510605156601672
124,0.451057261218396,0.45100756714623147
125,0.4510328700876666,0.4510252877161884
126,0.4510618141544202,0.45103757231924624
127,0.4510569345519897,0.45108236786230227
128,0.4510367325200399,0.45102263726313896
129,0.45103908009762017,0.4512625480761302
130,0.4510519217296414,0.45103917117228115
131,0.45101967872785936,0.4510654288925314
132,0.4510473923152645,0.4510671146376812
133,0.45103603954421584,0.45101857303429466
134,0.4510392256614612,0.4510863724441464
135,0.4510287042521633,0.45145317545727487
136,0.4510261952781038,0.4510431442893532
137,0.4510173810328313,0.45106446121975335
138,0.45105730749081296,0.4510842189047175
