epoch,loss,val_loss
0,0.5641906402328801,0.5590459427230116
1,0.5581900720707633,0.5577822760671894
2,0.5577487958556528,0.5575008037368357
3,0.5575988479827797,0.5573834971222037
4,0.5574853954026032,0.557262214300946
5,0.5574176141524115,0.557253893847501
6,0.5573679125723441,0.5571357814313165
7,0.5573078983135576,0.557338644730542
8,0.5572946872742861,0.5578546448617656
9,0.5572480670684267,0.5571526020395549
10,0.557256065625072,0.5573062353631107
11,0.557235233707458,0.5571532218391191
12,0.5572091055029027,0.557704215132569
13,0.5572221475325851,0.5570921096553282
14,0.557183327594847,0.5571166064839801
15,0.5571803877853185,0.5572019592704016
16,0.5571877505701298,0.5576770753481843
17,0.5571463734297646,0.557068341482366
18,0.5571341144272022,0.5569523956580434
19,0.5571232081907883,0.557732082419005
20,0.5571136201548619,0.5571387388865942
21,0.557099969016526,0.5571745579355112
22,0.5570996900001167,0.5571158680075747
23,0.5570999781819205,0.5574686506250064
24,0.5570846255002195,0.55699233878635
25,0.5570891199267685,0.5570360139345117
26,0.5570853143735989,0.5572134604525034
27,0.5570772836059444,0.5570757770065042
28,0.5570751357585927,0.5570009740943057
29,0.5570567996333334,0.5570468446457061
30,0.5570642482394934,0.5570352820841313
31,0.557043198199849,0.5569122640429892
32,0.5570496357554874,0.5569471421667719
33,0.5570464825568975,0.557128780828812
34,0.5570382739526668,0.5569425498285602
35,0.5570433800247404,0.5569659504641966
36,0.557031331976127,0.557001989207256
37,0.5570388153301675,0.5569409284047394
38,0.5570375523776271,0.5569396136416395
39,0.5570341057176065,0.5569522662730726
40,0.5570258669272885,0.557003505295027
41,0.5570294781273978,0.5570202218983369
42,0.557045476495714,0.5571731143790498
43,0.5570150629458805,0.556952646470839
44,0.5570250215448799,0.5573206360819322
45,0.5570259876669047,0.5571001444206048
46,0.5570190366480277,0.5570055733543472
47,0.5570266290709718,0.5569590564697019
48,0.5570187589536943,0.5572858162908341
49,0.5570170261190937,0.5570230365982718
50,0.5570111481510541,0.5573307029662594
51,0.5570019893046984,0.5570284184983587
