epoch,loss,val_loss
0,0.528180529697717,0.44963580534603054
1,0.44757939341495173,0.44968850373186836
2,0.44402626846476995,0.4364055544020345
3,0.4421820337180611,0.44233973527763804
4,0.44221470954654507,0.441458579279253
5,0.44077494518934107,0.4384171335642603
6,0.44049112233136006,0.43536055643161453
7,0.43955465759352436,0.4293549417884875
8,0.4348407336990896,0.42808864028696575
9,0.43331320875649637,0.4202638231070849
10,0.42891248500795004,0.4262729984338395
11,0.4295560329271068,0.42510171842650346
12,0.432543630329825,0.42945941031308466
13,0.4370643334160987,0.43804756712518345
14,0.43798449094728126,0.4372465017515557
15,0.43893214683833837,0.43967536096508897
16,0.44177684690550173,0.4382109727178301
17,0.4436533552803677,0.43799476270235327
18,0.4460779321279457,0.4418351351038715
19,0.44798657856732726,0.4505315538975039
20,0.45078029977284273,0.45064229427027536
21,0.4506236859124532,0.44748907841465657
22,0.4516099694487955,0.45097451028432445
23,0.4520471053991577,0.4472523572507014
24,0.4515228186317866,0.44870919885368166
25,0.4535069909813307,0.4525645555900417
26,0.45329723286209445,0.45491705546721567
27,0.4555993341356159,0.4584265525828409
28,0.4565260821966816,0.45451726239312795
29,0.45611730855193544,0.4581434746238314
30,0.45927417970342127,0.4607889107483621
31,0.45901733353364765,0.46617323614145323
32,0.46095855930726304,0.45407679027803505
33,0.4614969593324631,0.45438066778826547
34,0.4625089728860832,0.4620514694592477
35,0.46314024885924315,0.4614419840693756
36,0.46306985259341965,0.463233598546899
37,0.46560736636606626,0.46286366307180327
38,0.4693883451388227,0.4642844976829372
39,0.46882878420211904,0.4647188919354539
40,0.4696204616583223,0.47194377284117733
41,0.47052406566701444,0.4736958382255747
42,0.47073246766146803,0.4676401640546538
43,0.4712191549041193,0.46783728844647154
44,0.471893484048325,0.4736169153249631
45,0.47252793694666917,0.4694981782240668
46,0.4715809042719628,0.465928308048301
47,0.4719016501347986,0.4717475539507034
48,0.4722893252599535,0.4723016980038728
49,0.47208392811860206,0.4681051917309449
50,0.4716525382870774,0.4694586410095302
51,0.4718505426062097,0.4740855789551513
52,0.4732692138992435,0.4765802756857477
53,0.47396132475037656,0.47292060031604843
54,0.476031801040224,0.4725965441872778
55,0.4756510289524385,0.4717974811674764
56,0.4749743257471316,0.4693246316561665
57,0.47477661841493146,0.4726378113007865
58,0.4749201451369422,0.4708150082812501
59,0.47484626039136035,0.47379443148223077
60,0.4759845189172492,0.4751881475089193
61,0.47589602443478185,0.472827416028013
62,0.47657993699101614,0.47537426369436725
63,0.47596680480751585,0.4737463799535334
64,0.47562753076223635,0.47098731272504757
65,0.47577836435380505,0.47648658685168604
66,0.47662773549699666,0.47491212717265524
67,0.4773959508783621,0.48007005377839473
68,0.47745378591793236,0.4733605988164915
69,0.4779030372865861,0.47508416403064413
70,0.4780893908034888,0.4732286810357456
71,0.4778955652416467,0.4739408376608294
72,0.47831333778220875,0.4736312681657645
73,0.4779499665224295,0.4762953346464327
74,0.47846781626212703,0.4764554824477213
75,0.4786504467399858,0.47462222937438653
76,0.47885628233996513,0.4764838109311854
77,0.47936411443755306,0.4801490574298925
78,0.4783319618395097,0.47657606744258163
79,0.47868300686113174,0.47629661275913326
80,0.4794001658971933,0.47714306173027266
81,0.4791955969554724,0.4747304143685474
82,0.480035288359145,0.47452487770082824
83,0.4798436537206316,0.4749041628254241
84,0.4797396482490331,0.4815130921076298
85,0.48043535055397607,0.4769558632289131
86,0.4800532211860021,0.4779414208083992
87,0.4808280650827048,0.4809863909126363
88,0.48076242146541553,0.4799406633145619
89,0.48116754708911397,0.48094265533415653
90,0.48097967333216174,0.47933474364201667
91,0.48088090812607254,0.48021349626069193
92,0.48106739284704436,0.4763954372366489
93,0.4811831894014284,0.4766970596260787
94,0.4815557891849896,0.47660454893639076
95,0.48109486782484107,0.47866426938711043
96,0.4813061495669645,0.47830274823432656
97,0.4815528383381742,0.47936839603869674
98,0.4811148241483908,0.477494609854592
99,0.482008994852515,0.47820810704317823
100,0.48157138637692143,0.4833630732692125
101,0.48155900890783343,0.47699840591475073
102,0.48150393659834095,0.48076516601544433
103,0.4819355876825982,0.4773668366901124
104,0.482069385840262,0.47780323689531506
105,0.481922810145324,0.4792349683363417
106,0.48219584558698103,0.4794593061766666
107,0.48210087257752315,0.4809227920980461
108,0.48189904623561436,0.4781835470128078
109,0.48223757095855296,0.4788485534471513
110,0.48255326563744044,0.4802307798200079
111,0.4830362784157363,0.4786184699919248
112,0.4751237212158412,0.46550392671749175
113,0.46932705599579405,0.4734833000349829
114,0.4686261814513462,0.4695457238895082
115,0.4685210477557781,0.4654286391827283
116,0.4678215615683608,0.4696045384787158
117,0.46822794479765384,0.46158075509056296
118,0.46731945444687567,0.4649488619442709
119,0.4678044696386865,0.46516078402418365
120,0.46788354942219246,0.4637257971910388
121,0.4674508787221093,0.4613677336648401
122,0.46785687504531287,0.4637352964401998
123,0.4680943280267868,0.4667940182580474
124,0.46821319156413455,0.4645094647591944
125,0.467602562275436,0.46702023275084825
126,0.46828725325356096,0.4696411357306079
127,0.46780890182291957,0.46476127685951074
128,0.46837324004093234,0.4632092089801674
129,0.4687901687302845,0.4641061076613609
130,0.46797579378008747,0.4705021115815254
131,0.4684537161263726,0.46458030106895254
132,0.46851642785979497,0.46396371028323574
133,0.4680089256960711,0.46476214881854067
134,0.46837302525457053,0.4632218031546405
135,0.4686008102768998,0.4698324200198137
136,0.4685674158455752,0.4707495637926043
137,0.46823650604481704,0.462677988205355
138,0.4679353637732476,0.4647560127626372
139,0.4676236201175969,0.46060485767396114
140,0.46724034559955413,0.46062148254785185
141,0.4669508751419237,0.46593388435213984
142,0.4672217378489596,0.46033706021478255
143,0.4667515690854604,0.46384706594573294
144,0.4661513711098763,0.4595772894753559
145,0.4665063223916945,0.4666715972331347
146,0.465430365346795,0.46402845050089925
147,0.46526605505451596,0.46866744956635265
148,0.46373886858626046,0.4615765997718052
149,0.46381984889316713,0.4571235224357626
150,0.46313181270560105,0.4630751650260016
151,0.46328634492975534,0.460381033906056
152,0.4627740637099238,0.4597590003271412
153,0.4623450912850843,0.4546168544156963
154,0.4615524853829095,0.45279084763474226
155,0.4480797697623952,0.39292488816975607
156,0.3905041781570509,0.3811193657090745
157,0.39004269550791937,0.3918742787066462
158,0.3882930004101196,0.37652401269752395
159,0.3849162769188984,0.3813627828221295
160,0.3824253779926079,0.3709782937331377
161,0.3814713506937789,0.37214469283983853
162,0.3741546687867335,0.3647358406690885
163,0.36787346306798174,0.3583883442272797
164,0.367421461118878,0.3656813709304948
165,0.3653219551991502,0.3613675844979832
166,0.3732764364646779,0.35639530347385273
167,0.35640715935723866,0.3448122120223463
168,0.303888384821556,0.33634249359110535
169,0.3339897721862907,0.3289105261557669
170,0.32721549714450165,0.321714146713996
171,0.32547301731759504,0.3095033440471354
172,0.312659338033266,0.20883074212281272
173,0.2059562813511474,0.18004367361175985
174,0.278388827092213,0.2833931162165391
175,0.24966172086034746,0.17428330217371235
176,0.25174549544195857,0.2998338130956197
177,0.29733164534627865,0.27798645867544924
178,0.28749379705634714,0.2763481990573156
179,0.28323689153749976,0.2715121941389582
180,0.2751753263705545,0.2587286981312233
181,0.27052951380789136,0.2632845247718605
182,0.29744026861745393,0.3146279768014199
183,0.31918768707415657,0.3184359205244278
184,0.34110659000565774,0.3079013117039966
185,0.31808365824863877,0.3175812136402446
186,0.4023383222371459,0.4163995419041604
187,0.4206681302149328,0.41544262590893816
188,0.42104439167000596,0.42491344036130146
189,0.4294502988731642,0.42267347061925736
190,0.4113045859513142,0.4010366383931161
191,0.343859555999295,0.24958217596810167
192,0.23129614922020741,0.21067923434437402
193,0.19370687527836655,0.17940219614622438
194,0.19783789479880215,0.18268400280138783
195,0.2024001548294541,0.19902179356673239
196,0.20091446758293324,0.192721869958228
197,0.19332239307540594,0.1660772703746782
198,0.18197393263403555,0.15567175690569837
199,0.16529592981250832,0.16044968799426976
200,0.15380033253015374,0.146613530038423
201,0.14436395304928198,0.10898514933466628
202,0.13937206667878455,0.1415842135378763
203,0.14318059542351108,0.16111951178467546
204,0.14834968339231946,0.1469528462323224
205,0.14735000662440115,0.1353927038098379
206,0.1524862568352005,0.13894706475236046
207,0.15411088993545058,0.12308499502237143
208,0.1434606128125835,0.14907402466415134
209,0.15511351485225222,0.12426987715541798
210,0.14789466494672018,0.13124229362632878
211,0.19218866158422712,0.1135301219436157
212,0.16414109129699872,0.1475806571631424
213,0.1684512677077624,0.1455663589565135
214,0.19976179754074147,0.22769177556273124
215,0.22420998082327234,0.17188679520408282
216,0.19978648224930398,0.134319215272013
217,0.2102496878390642,0.13882458396402983
218,0.22955107858939042,0.23774906380165253
219,0.2844426843444173,0.38050938529956974
220,0.2829237015818139,0.2591594658974314
221,0.42227925037999425,0.46504549593933003
222,0.4102574306235706,0.3849139924395621
223,0.3933199415389868,0.40089634503072513
224,0.40178226783788273,0.3923650404178165
225,0.4063810234923633,0.3990350008104952
226,0.4046180603577555,0.4036251426025367
227,0.40772324534867116,0.4085812155618946
228,0.4080649087492892,0.40589144858866105
229,0.4074629367493706,0.4052524483853094
230,0.40631209556862036,0.4064485151276592
231,0.40631971419524615,0.4021909052731018
232,0.4032641216028604,0.3931105546859088
233,0.4024088474319612,0.4022577610322596
234,0.40093327958663877,0.3968394934519502
235,0.4012261056761852,0.39171460626063237
236,0.40085957980127357,0.4002387212455602
237,0.4011025036291348,0.39798974369865003
238,0.40034882546805267,0.39112288467791856
239,0.3989570677923642,0.3945657290759384
240,0.39750848944000394,0.406263788948872
241,0.3972442425031075,0.38967887559742465
242,0.39648760038075875,0.38874583559047543
243,0.3957968779343019,0.3879587989485725
244,0.39654148305110415,0.3921649021573582
245,0.39555807259204767,0.39054297118932124
246,0.394724430202199,0.3943098995425895
247,0.3941427902232924,0.3886554801708709
248,0.39436177153000346,0.3961246385288314
249,0.3946651753237684,0.38899229181123324
250,0.3945448032671885,0.38491498619529707
251,0.39445425874942974,0.39543296329694744
252,0.39305180884141333,0.3948872471147385
253,0.3942261800753603,0.38808785742347224
254,0.39291264891005057,0.39005589623948017
255,0.3925585749742987,0.3908872881223578
256,0.3940889759005593,0.39106579791775065
257,0.3924607655389322,0.38437253392015563
258,0.3937150442795597,0.39425621187018894
259,0.3927055061411419,0.3861520204990044
260,0.39241486268458986,0.3876695242705266
261,0.39277640656887486,0.3910990423730912
262,0.3919718736391083,0.3839496903609552
263,0.39181750912746366,0.3929317707891246
264,0.39219925721152893,0.38673990202778047
265,0.3922145901728782,0.3847634320947817
266,0.39296410276258975,0.3926347403095384
267,0.3925742283761263,0.3826428367899644
268,0.3921336974266717,0.38589214351860296
269,0.3920421163074309,0.3867370241160645
270,0.39200784842506775,0.39447039019995633
271,0.3916882443771088,0.39094195339090726
272,0.39231687783003805,0.38981616052474766
273,0.3923524588727646,0.3874644810699909
274,0.3937197868629611,0.3871010605189964
275,0.39348264204131234,0.38686298416088016
276,0.39232430315846734,0.40196048773548787
277,0.39359064427592294,0.3890257537270872
278,0.3928467847889276,0.38892787934855017
279,0.3938223408709327,0.3922835539529525
280,0.3937345135578816,0.39245685624530585
281,0.3933920094625746,0.3866209798707864
282,0.3924904312971208,0.3915361443794705
283,0.3929136456440774,0.38314864592187126
284,0.39388573194722193,0.38477557039016236
285,0.3941100674400703,0.3875855349045432
286,0.39390257161727055,0.3894742805372568
287,0.39409831335409273,0.38241492408227057
288,0.3936513085588277,0.3847087763761477
289,0.3935469517128454,0.38830555616727286
290,0.39456495560473387,0.3914607929590657
291,0.39500134623498556,0.3863567803069749
292,0.39471482013245757,0.3942558823040177
293,0.3943823883049398,0.3875433154574698
294,0.3936239028934666,0.39179066522157185
295,0.3939137700245344,0.38532862497674447
296,0.3950312481724101,0.39034957857986274
297,0.39445239413889954,0.3888707196703085
298,0.3948004713161386,0.3932303548000324
299,0.39403978253392385,0.3903649282342539
300,0.39503802212593936,0.39111580635584897
301,0.3943574460242673,0.3957600594978212
302,0.39413829370558884,0.38526240212294466
303,0.39463353454828454,0.39434531556873126
304,0.3941637467351749,0.39651893223940904
305,0.393761544049882,0.38862064400806895
306,0.3941390301874406,0.39046716927635267
307,0.39320622646598985,0.39035172430003073
308,0.39406929808936053,0.3944172559757353
309,0.3943029111571354,0.3883061651978421
310,0.3940500499223538,0.39075898681932675
311,0.39439109204817924,0.3847895765408062
312,0.3944096996320142,0.39003256417299315
313,0.3944121743920896,0.3896832510581991
314,0.3947625152593989,0.3889520472208157
315,0.39434258686266926,0.3860394024152688
316,0.394504578827287,0.38395833138791047
317,0.3940474435651331,0.3873007452525581
318,0.39422182725678434,0.3876298240488123
319,0.3944871944251011,0.38978847134461436
320,0.3934013094785783,0.389621275352886
321,0.39401095606487907,0.39049393815982975
322,0.39444231099600224,0.3892552358199031
323,0.39449994561435886,0.3886151519128443
324,0.3948152826653777,0.38901015624533325
325,0.3957593122379576,0.38661475459609146
326,0.3941624435327417,0.3968400612250029
327,0.3946492904715306,0.38859828678566166
328,0.39388069686748617,0.3874929341963171
329,0.3941444201673345,0.3884606656589749
330,0.39505913005553656,0.39873722807196244
331,0.3949703730339055,0.3890149778471091
332,0.3941772536193724,0.3886406549856055
333,0.39457829419276313,0.387688538716737
334,0.394360403612935,0.39446034472385727
335,0.39426980875760054,0.39214117376937957
336,0.39421674342368906,0.39624541600388435
337,0.3942856426052243,0.38921218710615585
338,0.39348383958962896,0.39232794751119876
339,0.3939468558314893,0.38891171919800865
340,0.39457887483777093,0.38652853349013505
341,0.39431751429510536,0.39113951352702037
342,0.3956468335801749,0.3944665842058156
343,0.394938617099008,0.39468244383818724
344,0.39549239064387376,0.38739194454597314
345,0.39455264898465214,0.39702130996437646
346,0.3943426144375599,0.3856022188347348
347,0.39407510680260416,0.39167405964825786
348,0.394821289179327,0.3923433743646602
349,0.3936295303271162,0.39048293670426226
350,0.3953173409977691,0.3913287737751534
351,0.39350934080082733,0.3925140078790374
352,0.3945579286173379,0.3879714458592783
353,0.39490949921756624,0.39391136693973283
354,0.39380443586910563,0.3904539683294183
355,0.39495800181830243,0.3842305780727278
356,0.39389174184400877,0.38564552833644444
357,0.3947696510812552,0.3880791166869316
358,0.3954973458934078,0.3851154678057947
359,0.39438155904519473,0.39212547580181567
360,0.3941259699450027,0.38855313191568186
361,0.39337423287754913,0.3845271653750795
362,0.3931523960509556,0.38813833503057005
363,0.39465357018984576,0.3885931721708393
364,0.3934387262228677,0.39001444911241717
365,0.3929351437434876,0.38805254251823335
366,0.39230409673125527,0.3892840834094863
367,0.3935154240718372,0.388999591216198
368,0.39271947160232173,0.3880048129816364
369,0.39218073747426774,0.3895846733260362
370,0.39268373369837073,0.3854174022375361
371,0.39218784905642534,0.39011518277327845
372,0.3920091867065735,0.3883312462631322
373,0.39139892858900516,0.384974509689313
374,0.3906864715661172,0.3835945475872991
375,0.39097607122670164,0.38534932848780573
376,0.391197388883022,0.3962332622780984
377,0.39018499757126746,0.3868268118802261
378,0.38968833086254306,0.39299254202899164
379,0.3907032750731559,0.3823869525210163
380,0.38834706365728644,0.3879952986784215
381,0.3891528995036126,0.3835693538283022
382,0.3883105226152902,0.3819360171327839
383,0.3888223217450362,0.389946150610366
384,0.38814669048233474,0.37835461868012904
385,0.38769997682550444,0.3767524036301716
386,0.3856091084573671,0.3852865212577106
387,0.41076583906615094,0.4288647043112233
388,0.43204054353143767,0.429265505019002
389,0.4344435460347352,0.43351897136282525
390,0.4300577662212195,0.3987329319037127
391,0.2497247775598205,0.23622630931725158
392,0.2897648083672916,0.27027404642330916
393,0.28294497291199405,0.27740855485600757
394,0.2902339654479572,0.2611049856599523
395,0.27433524108071217,0.27075652034854736
396,0.28427602908165334,0.27524285091362133
397,0.278257744489528,0.26347816159806103
398,0.27650882999340504,0.27130041484909917
399,0.2771152417472512,0.2668383607806986
400,0.2786329404103289,0.2810489912859172
401,0.2769198560659929,0.2724844648340319
402,0.27800690663828076,0.26158884258230747
403,0.277614079975634,0.25893275646732467
404,0.2772029091497596,0.27472801714688655
405,0.27625961661886733,0.2613659221870088
406,0.27444553393111243,0.2573933206210479
407,0.2732521736507507,0.2463988014088904
408,0.25135265739796925,0.22599121815309622
409,0.21138547559817442,0.22163359950213518
410,0.29850964484026105,0.339026052037279
411,0.349852504347154,0.3514635583360833
412,0.3642449052118474,0.37536400415432575
413,0.39573217634198,0.4384067827496081
414,0.4433813861472239,0.44368874269295794
415,0.4498185566503653,0.4481106591723336
416,0.4462485924232111,0.43690369100013676
417,0.44146442558649157,0.445688779512163
418,0.4389193553528149,0.44809193526936403
419,0.4361972927832775,0.4489343006401995
420,0.4362644728639429,0.4478347298895739
421,0.4407523342674013,0.3851813734894958
422,0.4407131295267055,0.3969536112958085
423,0.44224823565839483,0.4501216677859155
424,0.44263827664960775,0.45364793236554846
425,0.4514214501654406,0.4595584224883082
426,0.4499957565423682,0.40220020533831174
427,0.2732476389987006,0.17441181439815212
428,0.16640333040988894,0.14938793233180478
429,0.1472024377390778,0.13315907538807475
430,0.15952644643368577,0.13302459396074962
431,0.15762442057962708,0.14844225033611977
432,0.15746827633213178,0.16511228393054705
433,0.1522738846639792,0.12647170171835523
434,0.14314377669998402,0.13644604192019075
435,0.1467325450520483,0.14540278548176305
436,0.14931855331078994,0.1338828587647301
437,0.1448846299061291,0.1615599927087421
438,0.14237391111626327,0.14289227644335875
439,0.1431477850140761,0.12064512264521553
440,0.13853500588692064,0.12101331880079448
441,0.14149611973338466,0.1275935390848011
442,0.1365153807953155,0.11490194696489055
443,0.14379112174411376,0.13344612297761507
444,0.13958406244977106,0.12626952816744724
445,0.13968961488464468,0.13221388783573446
446,0.14528924357190692,0.13093840142663482
447,0.14965553351526828,0.115170363210371
448,0.1580646905860455,0.14461307046492455
449,0.1444942695941094,0.12537382978243253
450,0.14937823092182287,0.15848050477025824
451,0.15215412168789635,0.14239147872367805
452,0.1572450326113916,0.11103539660443634
453,0.21045631080639543,0.1462091603790481
454,0.22534294046467537,0.1444804337472547
455,0.2543891691546932,0.15372916088743105
456,0.15804401923009723,0.12693902120382275
457,0.14550194591224241,0.1412167479802326
458,0.1441113256948362,0.13434485009126806
459,0.14081782401560974,0.14442085233629456
460,0.14293764489922497,0.13435747369171225
461,0.1363483134666078,0.10969833289908912
462,0.13385744027191882,0.12575734488448478
463,0.1353536125102775,0.1329044728718504
464,0.13860189980811638,0.14588523901346262
465,0.13996230874308865,0.12699219956700034
466,0.14092907925053752,0.1391353454814243
467,0.13971703394139698,0.1272336646985048
468,0.14636494295833874,0.1284263505473227
469,0.14849157099255458,0.14135645604571115
470,0.15017574516941698,0.13992137357227993
471,0.15078744277965536,0.15445158450666524
472,0.15454974857796963,0.13379948660319682
473,0.15742292945428812,0.16184487502548575
474,0.16019131125901623,0.14643499295755738
475,0.16840010382634082,0.15912457954817713
476,0.16442522222546938,0.1561285484091165
477,0.1657369146309644,0.15218981298975995
478,0.16247054052760276,0.16700382701811492
479,0.16655164527342758,0.134411955483099
480,0.1615136363279286,0.15888305421221793
481,0.17758881568098717,0.17608247478599143
482,0.17348999130151732,0.17544871120586486
483,0.1614187023551058,0.1726753362046515
484,0.15959664100079798,0.16627785552296
485,0.15790567622422505,0.1383541373693294
486,0.1641874623884686,0.15212107291584798
487,0.174284164791556,0.15925382743953434
488,0.16872246768012894,0.18203552625926347
489,0.186583663360011,0.2261181064097074
490,0.17028797754673936,0.18344445726536537
491,0.24744385758714138,0.22758809046050932
492,0.1629040619249729,0.14247268598288557
493,0.13430566677479722,0.13372843283292526
494,0.13023080570782594,0.1245162807693139
495,0.1309055059397821,0.11413826019559777
496,0.13075266327920387,0.12418957714405979
497,0.1312875241505728,0.11747510340755722
498,0.13758060691370477,0.13898382788698976
499,0.13555957859368634,0.1336126661585275
500,0.13871873065019302,0.11334830156182715
