epoch,loss,val_loss
0,0.4800165005107097,0.4560773398957574
1,0.43519149012665376,0.4085251845762607
2,0.40605113525933767,0.40461261301636586
3,0.4061062610418474,0.4112976160557429
4,0.4053177897384088,0.4042768185183332
5,0.4048409654877999,0.40415627043779717
6,0.40458576056967016,0.40469608829861103
7,0.40440887592506386,0.4046940796253637
8,0.40414865374120285,0.403998792680125
9,0.40415427142701443,0.40385829753712965
10,0.4041780721975728,0.40488177045132395
11,0.40404831900241917,0.40342636807596255
12,0.40382136880983205,0.4035513001278926
13,0.36141311003869114,0.35377598698149254
14,0.35400405658336415,0.3539449047399105
15,0.3540184565616353,0.3539506734117584
16,0.35388149730640134,0.35461481781613174
17,0.3538841094424938,0.3545550538774236
18,0.35400924149832536,0.3533684290052663
19,0.35361835871361486,0.3542747001163149
20,0.35371026414253226,0.3533387636619875
21,0.3536292799421062,0.3533108537679288
22,0.35382253584996226,0.3532529601669679
23,0.3536251397164085,0.3536311112252654
24,0.3536104830210381,0.3534298522644337
25,0.3535570679705916,0.3541621566092253
26,0.35354412951848335,0.35327167447760993
27,0.35351820926261673,0.35324487116910447
28,0.3534958184388914,0.35339490166058735
29,0.353297858675547,0.3533740690113711
30,0.35344612720567326,0.35434286099745604
31,0.35327366222341744,0.3537089924491596
32,0.3532537671887722,0.35370981380969674
33,0.3533484929507243,0.35333194581056476
34,0.3533232450000283,0.3530440497975937
35,0.3532273944232809,0.3529922947749717
36,0.3532095616739766,0.3531272837515817
37,0.3531233983268984,0.35335632775284476
38,0.3531637722278229,0.35298395247651054
39,0.35305229813132133,0.3531532304279081
40,0.3532999510293839,0.3535070057406647
41,0.3529556569972446,0.3530953537763686
42,0.35301580320492926,0.3535682950999501
43,0.35305415995516104,0.3530966703509777
44,0.3530257354035993,0.3531074180561898
45,0.35306161578083545,0.35304667974725995
46,0.35303712767177003,0.35468277813732396
47,0.35308312867302816,0.35306555926963856
48,0.35315259147282513,0.3530318224171932
49,0.35302374257497077,0.35286545881461084
50,0.3530460189057832,0.35477797968997105
51,0.35292614935450345,0.35284163897071197
52,0.35302926599888246,0.35288770592284874
53,0.3528798240608795,0.3530647235576068
54,0.35291434003430683,0.3528497522304771
55,0.35283785357441444,0.3538030599329226
56,0.35277938249352264,0.3532454614399507
57,0.35280708628721164,0.3528376163791398
58,0.3527488857735594,0.35282715883773935
59,0.352842447904955,0.35279552761316957
60,0.35268560514987085,0.35285613801112237
61,0.3528109342087706,0.3529570074196495
62,0.3526469348763635,0.3529352185528833
63,0.3527078511022592,0.35276895556937315
64,0.3527196027320729,0.3539305042949242
65,0.35265049314822683,0.3527717392452049
66,0.35263720335796744,0.35275708454795923
67,0.352693044215727,0.3529745097126648
68,0.3475421336660941,0.30358233535414464
69,0.30289029539262236,0.30291170855906496
70,0.30282847894224735,0.3028740366296301
71,0.30277379046830005,0.3029142993265258
72,0.3028003153939083,0.3036274108936599
73,0.3028492531007369,0.3029241224323244
74,0.302827061493331,0.302949459695186
75,0.3027006063926852,0.3032888958521514
76,0.30283555442232263,0.3027625475034383
77,0.3027245492379352,0.3028124472015953
78,0.30271295117932284,0.3031030716010465
79,0.30272084409296385,0.3031901305127437
80,0.3027018336879446,0.3029365644233558
81,0.30273726014447166,0.3028333871588617
82,0.3026553065490816,0.30295043983007053
83,0.30273521373109613,0.30358545225374106
84,0.3027413145109675,0.3028347061290328
85,0.30265429004322186,0.30281189362988337
86,0.30267276309670793,0.30327492514801235
87,0.3026443540743675,0.30283505548182094
88,0.30258952739253764,0.3028677362578793
89,0.3026597631384548,0.3028492195537537
90,0.30261481470228035,0.3030289718045469
91,0.302556097476484,0.30314268127212307
92,0.30260173097957477,0.3034187682529484
93,0.3026555672879539,0.30303455033003024
94,0.30258272306674217,0.3027694582020302
95,0.3025594704459769,0.3033906895811568
96,0.30255990900701357,0.30278251419528557
