epoch,loss,val_loss
0,0.5421675511323006,0.5056660667452862
1,0.505168662210805,0.504488427730017
2,0.5048907301677814,0.5044789234417953
3,0.5047323483206442,0.5041401666946467
4,0.5043097476262948,0.5044905648119494
5,0.504077652317162,0.5032542719712365
6,0.5036230778091798,0.5032940231390799
7,0.5036568376108901,0.5031438894524752
8,0.5034449575012552,0.5030044410333303
9,0.5034736145225994,0.5033420903964051
10,0.5033614282477644,0.5032628728153727
11,0.5032223894223166,0.5029794724080776
12,0.5032052923438964,0.5044629276400423
13,0.503027018887731,0.5027298135021495
14,0.503199266232999,0.5029358732457511
15,0.5029757061142903,0.5040711261062671
16,0.5029930273181343,0.5026367141098292
17,0.5028820962156806,0.5028149947308033
18,0.5029914626588353,0.5029741034286354
19,0.5029037165417178,0.5031441749618959
20,0.502768520095585,0.5026015784023311
21,0.5028332015925054,0.5028101248486498
22,0.5030306205112446,0.5027024335414034
23,0.47656018845406545,0.4536051491921835
24,0.45292919524337144,0.45333930761972946
25,0.4528994252118465,0.4529009622255582
26,0.45292606249004064,0.45417011380851935
27,0.45290978323168485,0.4526855335703332
28,0.4528576422774654,0.4527221079003069
29,0.45292529092218897,0.4525947156718596
30,0.4528346589605269,0.4526200547177193
31,0.45273311743643213,0.4526616725151113
32,0.45287409874906803,0.4528464193977682
33,0.4527594822951105,0.45258610738944866
34,0.4526373194453694,0.45254032875796285
35,0.4526571051975401,0.4524871675787464
36,0.4527026717124047,0.4525983747068207
37,0.4527412059548186,0.4529248110295042
38,0.4526001024138288,0.45239680886246736
39,0.4526497402883651,0.45421004758053557
40,0.4526098964100855,0.4528881278710095
41,0.45269673335674,0.4541105428656912
42,0.4525862620508677,0.4525460782926615
43,0.45261905614940473,0.45311209492714916
44,0.45254023735104787,0.4524727869381662
45,0.4525455228668503,0.452778765812426
46,0.4524238532804572,0.45245217401339477
47,0.4525577064762861,0.45235293961420125
48,0.45246744713207454,0.452359976304039
49,0.4523868864228866,0.4524423167134101
50,0.4525098700971715,0.45228973482262874
51,0.45242281206603474,0.45234676836214716
52,0.4523416033226933,0.4526493868536414
53,0.4524757858882397,0.4523695581253351
54,0.4523817163808284,0.452865504156364
55,0.45239118196449857,0.45264754071216406
56,0.45245095767682864,0.452408579401542
57,0.45231620739590994,0.4527455369394445
58,0.4523275635191707,0.45226168384200216
59,0.45232348793900734,0.4523065966966065
60,0.45232809573501276,0.4522719449910752
61,0.4523497358709255,0.4523338385078093
62,0.45229253695923716,0.4523639333130001
63,0.45241617946228924,0.4522779767317255
64,0.4523038002973143,0.4528931528794741
65,0.4522940149990989,0.4523182545731671
66,0.4522831727056509,0.4522612374744233
67,0.4522829429723512,0.4523669618010455
68,0.45228666810221635,0.45236366954412477
69,0.45234823413432507,0.4525561968292265
70,0.4522560391122284,0.4522484951794618
71,0.45226785165203115,0.45230027112770044
72,0.4521373134691387,0.45228729623898517
73,0.45217541761337643,0.45279884237196494
74,0.45221445094578683,0.4531563273874592
75,0.45228088403058764,0.45241972760314964
76,0.4521312298811619,0.45225631670025124
77,0.4522171083350294,0.45237460266473994
78,0.4522108141618409,0.4528152531856877
79,0.4521907022066887,0.4524041762437749
80,0.4521700429294338,0.4524934927757387
81,0.4522014345212355,0.45229687315430156
82,0.45215020454235455,0.4524337868118181
83,0.45211308877891215,0.45229539953365
84,0.452112679132345,0.45219135975198893
85,0.4521294938316183,0.45217356526057506
86,0.4521112896043051,0.45217439876847104
87,0.4521500112493082,0.452162300212424
88,0.45214448038529875,0.4522878317674118
89,0.45216722921062963,0.45220974916864
90,0.4520735944357313,0.45228488683416157
91,0.4521047084066943,0.452205039756323
92,0.4521380744356259,0.4523950919227264
93,0.45206909343001384,0.4522454245393704
94,0.45206944479186534,0.45223620461201225
95,0.45210783184759695,0.4522896821312039
96,0.45211658666401805,0.4528529741585112
97,0.4520847844284099,0.4524561062572768
98,0.4520556028592096,0.45221817966534866
99,0.452100581312833,0.45309194364576605
100,0.4520826459135157,0.4522528465755884
101,0.4520181811420299,0.4522301446387343
102,0.45200692118946156,0.4524085362978344
103,0.45203564512975397,0.4521913945040455
104,0.4521478104479795,0.45227829869416114
105,0.4520740596651703,0.45227242291115866
106,0.45202170931805075,0.45258704615439993
107,0.45207039698217305,0.452228203549869
