epoch,loss,val_loss
0,0.49194312153616876,0.455098548565989
1,0.45553005757685966,0.45469694275728256
2,0.4550993714907515,0.4542175579079796
3,0.4546022773565645,0.45398685617236
4,0.45455532836178986,0.45405749409193075
5,0.454566099273325,0.45727928051994055
6,0.454265987372817,0.4537456817234475
7,0.45435180982085205,0.4535234164406256
8,0.4541018437925753,0.45355166636775185
9,0.45396799787641073,0.45367871071465804
10,0.4541038489381115,0.4535455336634621
11,0.4537819087443355,0.45335503803915794
12,0.45369359440137585,0.4532926617072993
13,0.45362710046127913,0.4541110100330924
14,0.45344439960185295,0.4532876875252215
15,0.4535507458575663,0.45308149349341637
16,0.4534489290881406,0.4530738302930208
17,0.45341220474384636,0.45296999503109603
18,0.4532176996051131,0.4530094371933219
19,0.4143235736949339,0.40308492782903954
20,0.4033584328589472,0.4033745851871573
21,0.4034018627585946,0.4033263693502965
22,0.4032766665986913,0.40353303283020914
23,0.4032618323673843,0.40340202267420666
24,0.4031978689666012,0.402975514222119
25,0.40311927405301823,0.4030667666416252
26,0.4031139621112867,0.4028899133052273
27,0.40308042454626203,0.4029742466635519
28,0.4031585158139053,0.40293429946435616
29,0.40294131152767093,0.4029356890653203
30,0.40299707352148834,0.40341363465223734
31,0.40287674625379166,0.4027339701620586
32,0.40282079532962184,0.40358673558145036
33,0.4028093922121442,0.40314285566794106
34,0.4027814592849576,0.40266229914271257
35,0.40300448367469804,0.40328447511708504
36,0.4028236825032111,0.40286730681346916
37,0.4027704755312049,0.4042840231053434
38,0.4027366479573326,0.4026734214853772
39,0.4028426481418495,0.4029508689867945
40,0.4028115841367671,0.4027346333772201
41,0.4026553324893351,0.4029391148830252
42,0.40268439584466204,0.4027098741448676
43,0.4027263997195,0.4027150998500142
44,0.4026607399326789,0.4026538008264411
45,0.40268486515603646,0.4028832803714995
46,0.40266058563041185,0.403186469810734
47,0.4027283406187622,0.40281615274874394
48,0.4026165071423866,0.4027051852534377
49,0.40258600066880346,0.40263498362695915
50,0.40253652384567457,0.4028537937929311
51,0.402646441169636,0.40297626410958787
52,0.402538667208209,0.4029685358242893
53,0.4026963844892628,0.40372263133843067
54,0.40261564088238194,0.4028963349317931
55,0.4025319134098109,0.4025799536031197
56,0.4025449684185888,0.40276856739863626
57,0.4026116514239478,0.40254163730579856
58,0.40244766419514494,0.40348060912310607
59,0.402506751030266,0.4025390969873415
60,0.40247195836578425,0.40317326253609914
61,0.4025246179245324,0.40251538780965507
62,0.40246653052370157,0.4025243930935663
63,0.4025052867183964,0.4025723218294344
64,0.40250044887187086,0.4030355896713931
65,0.4024455681021165,0.4028314323595061
66,0.4024550822296441,0.40246914216937835
67,0.4024295909762667,0.4024532991366597
68,0.4025408098506163,0.4025803109958076
69,0.40242522896419075,0.40332981694683195
70,0.4024151798515223,0.4027076890805945
71,0.4024209821104617,0.402502125732438
72,0.402447767446783,0.402418029485525
73,0.40241807613152863,0.4025837727852274
74,0.40241327467420934,0.402793115651986
75,0.4023873332466067,0.4024934709608106
76,0.4024806799834355,0.40304855499426845
77,0.4024066022191783,0.4027055674823058
78,0.40237271352019044,0.40255370899654785
79,0.4024220688569697,0.402571041155439
80,0.40239803792285855,0.40247142224667115
81,0.40243460953275734,0.40253259207944647
82,0.40232020007796104,0.40278898715797884
83,0.40241700954675574,0.40270991264887745
84,0.4024356285271575,0.40262739818388005
85,0.40248789376984123,0.4025367593454601
86,0.40237826042753727,0.4024468335312952
87,0.40238843645394345,0.4026403433687207
88,0.4023316581183459,0.40249105801186796
89,0.4023151953005095,0.402598493234633
90,0.4023843439991061,0.4025013882712632
91,0.40236330499793144,0.40271411756021774
92,0.40233336716585877,0.40279985204336294
