epoch,loss,val_loss
0,0.6203815692527189,0.6043926516592579
1,0.6044044049316906,0.6036252494491904
2,0.6042695606039986,0.6058235591454207
3,0.6041260108551337,0.6034330243713419
4,0.603867290508144,0.6032044605653993
5,0.6038790417897444,0.603514281045977
6,0.6036975684680508,0.6028914696405866
7,0.603268785768965,0.6030066552829865
8,0.603071508746253,0.6028711935821466
9,0.6029699334764566,0.6027896352964139
10,0.6027901713553646,0.6038312903345779
11,0.6026035641656926,0.6023299101733969
12,0.6026132315672552,0.6024107281539085
13,0.6026545228553838,0.6023195143423292
14,0.6024367579511307,0.6022284589878768
15,0.6024417431338334,0.6021447341733951
16,0.602503793031176,0.6033068771733343
17,0.6023772144606407,0.6026459208408131
18,0.6023856032483182,0.6020317859311873
19,0.6023600670790653,0.6020280015777068
20,0.6022767663775012,0.6022223611122142
21,0.602313490185802,0.6020159482037087
22,0.602218462803637,0.6023468696145666
23,0.6021902642498296,0.6025095385769176
24,0.6022884946988979,0.6023544494023694
25,0.6021574136750986,0.6022413592094411
26,0.5638402606060201,0.5521845982301824
27,0.5522592794044145,0.5521450874717504
28,0.5522676189354,0.5521193405841989
29,0.5522086311970573,0.5521520879601618
30,0.5522978424792583,0.5526624860009222
31,0.5523095868111765,0.5520302463964839
32,0.5522298766267608,0.5521640030697609
33,0.5522008987970073,0.5520040732192258
34,0.5521847907939861,0.5520100284440952
35,0.5521828066451677,0.5522058084046519
36,0.5522327777179453,0.5520881158668068
37,0.5520311616907617,0.552065096911782
38,0.5520684930638975,0.5522758232319895
39,0.5520584925114944,0.552390415792313
40,0.5520518033367534,0.5524205295486961
41,0.552075495470217,0.5520356457197113
42,0.5519532312047061,0.5520811920145013
43,0.5520584291913586,0.5520026063805306
44,0.5519809424020307,0.5519965463088048
45,0.5520261209725882,0.5519051284916052
46,0.5519546991992509,0.5520370952534793
47,0.5519880677477157,0.5518779435886727
48,0.5519635311658939,0.5519629768175387
49,0.5519019215961782,0.5524634099439822
50,0.551939945133584,0.5519295920908265
51,0.552064538392159,0.5524703443301974
52,0.5520685755084208,0.5531394847009483
53,0.5519433589661866,0.55186235877347
54,0.5518752826224951,0.5520767622703717
55,0.5519140581767581,0.5519594870744265
56,0.5518808832057442,0.5519774145961005
57,0.5519202860180388,0.5519933494149403
58,0.5519118870355496,0.5519923114255932
59,0.5518496997671302,0.5518911675173857
60,0.5518174976312823,0.5519121454098527
61,0.5518230368414734,0.5526880538338892
62,0.551896651742684,0.5520067318554733
63,0.5518772973593947,0.5518106929007572
64,0.5518640973607779,0.5518743687976411
65,0.5518129642180232,0.5522472003464919
66,0.5518339418260856,0.5520045889651235
67,0.551812489433683,0.551880492674449
68,0.5517546938684523,0.5520109174054223
69,0.551754411035352,0.5518407542501202
70,0.5517720263390947,0.5520746566917201
71,0.5518707712323627,0.5518737922000938
72,0.5518270262105753,0.551790058536253
73,0.5517902722335076,0.5518322533413913
74,0.5517365309800797,0.5518426585468726
75,0.5517470717080079,0.5517772439095401
76,0.5518222558955618,0.5521266079972831
77,0.551750670418197,0.5520885724674827
78,0.5517344965426909,0.5517986409487823
79,0.5517640932952329,0.5518457611387291
80,0.5517543818182469,0.5518930846998551
81,0.5517870383998585,0.551817971241542
82,0.5517225744396552,0.5518479955417341
83,0.5517189240371035,0.5518610611008294
84,0.5517437259830189,0.5521135786669608
85,0.5517338996065672,0.5520287066736359
86,0.5517092000900689,0.5520216366482954
87,0.5516967666566995,0.5518376974692846
88,0.5516612550902674,0.5518074209568894
89,0.5516618561210884,0.5518621815675157
90,0.551737951767104,0.5518104257135571
91,0.5516698984273707,0.5519035746579127
92,0.5516683164996066,0.5519559512030731
93,0.5517221911898474,0.5519234209590974
94,0.551769797314254,0.5517976394507356
95,0.5516181785979971,0.5517715639445865
96,0.5516280480325787,0.5518523957952925
97,0.5516200624066784,0.5517662801552659
98,0.5516786569337594,0.5517829789286646
99,0.5517039951829216,0.5518695978554788
100,0.5516467225612133,0.5517541858598188
101,0.5516487768048313,0.5518296384925163
102,0.5516440321773887,0.5518615856632703
103,0.5516503784877776,0.5517140062801728
104,0.5516370595132291,0.5517644580952026
105,0.5516161633032268,0.5518232734515308
106,0.5516827206892537,0.5518056849182844
107,0.5516343046825888,0.5518052748287023
108,0.5516046389509882,0.5517365155711833
109,0.551592823477807,0.5518620758018137
110,0.5516721493951215,0.5518117473418176
111,0.5516756968432015,0.5517495561573654
112,0.5515604961273568,0.5517837661606475
113,0.551586757273151,0.55177338881588
114,0.551631618076241,0.5519459165439932
115,0.551694409347145,0.5517842304840025
116,0.5516279061219667,0.5518977160212272
117,0.5515681025835617,0.5517639778123731
118,0.5515636361658213,0.5519963098591808
119,0.5515822184416193,0.551837096719222
120,0.5515663265459996,0.5518075773028589
121,0.5515724150873568,0.5518767590324996
122,0.5516460328289673,0.5517421536958421
123,0.5515964764801087,0.552139243317823
