epoch,loss,val_loss
0,0.6125980370954949,0.6037258399278883
1,0.604328914083034,0.6054246646151628
2,0.5423758715097639,0.5048527397416364
3,0.5047397461952314,0.504066269219217
4,0.5048945240488167,0.5044350052540577
5,0.5042317677741606,0.5036276673631813
6,0.5041472176357082,0.5035267719480396
7,0.5038674305234545,0.5038423167059981
8,0.5036328331829247,0.5034632528784254
9,0.5034204464246937,0.5032635685565778
10,0.5033833289055998,0.5057753281629201
11,0.5032387209892448,0.5039105536106815
12,0.5030710127015737,0.5034320458816287
13,0.5030644855645408,0.5028606017787952
14,0.5030434338143822,0.5031856885742192
15,0.5030843636607033,0.5028195530367588
16,0.5032220618538282,0.5026913699064152
17,0.5030018965490748,0.502917628153505
18,0.5028296607623022,0.5026298297350724
19,0.5029477930516725,0.5032470554775176
20,0.502763438773183,0.5025155400328515
21,0.5026827809562259,0.45427089676898125
22,0.45330056588409245,0.45286741260433006
23,0.4530368494759235,0.453205768406599
24,0.4530331391551527,0.4527260805187061
25,0.4528672735614646,0.4527584118982218
26,0.45284374166265673,0.4528033337553262
27,0.45288307549224655,0.4530757606948356
28,0.45273398760882344,0.4547672540272107
29,0.45276047984977785,0.45310120108718716
30,0.4526994216038837,0.452660919882044
31,0.4528852185904305,0.453901548039084
32,0.4527128525518121,0.45308009904663504
33,0.4526392816348696,0.45253413541532694
34,0.4526612036649828,0.4530630027302735
35,0.4525853217508608,0.45249199534166973
36,0.4527440759675061,0.4524335751108652
37,0.4525131602338194,0.45248514775902576
38,0.45254230777838256,0.45248503168365634
39,0.45257132780940595,0.4524323780354195
40,0.4525843385969119,0.45240072463822817
41,0.4524546177163214,0.45307361174994903
42,0.45260182192415,0.4528084738492134
43,0.45249623155574914,0.45264952856918106
44,0.4524873196695852,0.4524325447402803
45,0.4525375296021336,0.45239928732292
46,0.4525143116058075,0.45240788969846574
47,0.4525133749811833,0.45266765499906947
48,0.4524605369895301,0.45233075765102887
49,0.45241756349548606,0.4524081101995539
50,0.4523585231842204,0.45249616399142123
51,0.45245221589015167,0.4524199188926019
52,0.45242117898372464,0.45283918375596144
53,0.4524683241338229,0.45264790384763753
54,0.45237879072510667,0.452338919686186
55,0.4523540517511139,0.452341836600112
56,0.452462856053956,0.45248398648574606
57,0.45239166989708307,0.4523076663587832
58,0.452374782997322,0.45266557502230276
59,0.4523974632209774,0.45227038690772137
60,0.45237357431780334,0.4524150348285028
61,0.4523474569549515,0.45237979665877165
62,0.4524577043013025,0.45259906537796646
63,0.4523248842964043,0.45253971492528783
64,0.4523123307184917,0.4526392104516753
65,0.45230444337444115,0.4523211262120656
66,0.45237402496056695,0.45292687523822256
67,0.45233568375231825,0.45237453707665953
68,0.4523168383110931,0.4524292122018208
69,0.4523987645999936,0.45306641563491484
70,0.45226748841628683,0.45226165104249266
71,0.4523007527322822,0.45240686726933294
72,0.45222209483036874,0.45235995664730444
73,0.45222150397430527,0.45227359868907385
74,0.4522653328626391,0.4522610693311315
75,0.4522441877384335,0.4522854103027385
76,0.4523094078393612,0.45295837994649185
77,0.45231914104230764,0.45290038968077667
78,0.45225042047840147,0.4524164812228815
79,0.45219561326552615,0.45236373323435125
80,0.4522115924934178,0.4523348697644239
81,0.45226190831381635,0.45237933025707516
82,0.4522502226841051,0.45241439087081553
83,0.4522222773816714,0.4522558442987112
84,0.4522437149212252,0.452779689274221
85,0.45218128561171406,0.45225053547631494
86,0.45216253421179287,0.4526501315397874
87,0.45219985091803655,0.45224224748819725
88,0.4522532171001126,0.4523954452079553
89,0.45215042685925677,0.4522354438898213
90,0.45228352498634805,0.45220488280872834
91,0.4521599528132764,0.45228852126265384
92,0.4521210277679244,0.4523731544873631
93,0.4522116878145425,0.45234393164485415
94,0.4521799215944038,0.4522899965295706
95,0.45211589323268897,0.4526888891127508
96,0.4521690017168344,0.45317013302753334
97,0.45232015257473274,0.45229885796490754
98,0.45215729756618395,0.45259214772240003
99,0.4522133017815807,0.4521841576699271
100,0.45215672878976365,0.45226369470297734
101,0.4521160605646984,0.45250254222440556
102,0.452141667461369,0.4527032395572176
103,0.4521216800353312,0.4523444649746143
104,0.4521697232440582,0.4522488830854836
105,0.45213815682363295,0.4524655077386983
106,0.4521370270098795,0.452358848568627
107,0.45213949120816976,0.45234932626446667
108,0.4521335426066464,0.45231139941004617
109,0.4521579567778035,0.45271455783825615
110,0.4520778742566957,0.4524458853514572
111,0.4521208405531152,0.45222968407280184
112,0.4520989037139077,0.4523024507117153
113,0.45209916647278203,0.452350581112335
114,0.4520979599518215,0.4521789919522776
115,0.45221387297726334,0.4521713674965419
116,0.4521571907886578,0.4523950483650653
117,0.4521701693910411,0.4522489110118294
118,0.4521003431750123,0.4523828959362204
119,0.4520714769813638,0.4521507986927715
120,0.4520731442450981,0.45222231593125894
121,0.4520746947607367,0.4524439531939908
122,0.45209095564764806,0.4522629752468026
123,0.4520657523594158,0.45221146876100093
124,0.4520987514425813,0.452288215795686
125,0.45222099670038357,0.45260416601071296
126,0.452090097852327,0.4523534158333264
127,0.4520559601169876,0.45215248579737416
128,0.4520923590695828,0.4522125962667015
129,0.4521710724686821,0.453781658852947
130,0.45210079245226914,0.4530432236689037
131,0.4520570714280329,0.4524393796997347
132,0.4520719035427133,0.45227944447285845
133,0.4520671898862043,0.4522387733982777
134,0.4521257307665526,0.4521607494524891
135,0.45207031688945715,0.45292397109515775
136,0.45210096657899657,0.4521798525606521
137,0.45202521722659633,0.45217242868127333
138,0.4520066012670821,0.45233964335373683
139,0.4520513326150238,0.45215464390884036
