epoch,loss,val_loss
0,0.7621623095608767,0.7524236392856716
1,0.7528298934709117,0.7524697086333704
2,0.7526632286090913,0.7524159928378019
3,0.7524886718326923,0.7521817512874495
4,0.7525938259189396,0.7520330109975167
5,0.7523759123622267,0.7519840430854592
6,0.717106575275872,0.7025306226682567
7,0.7023678700800094,0.702609699469003
8,0.7023340825196792,0.7025271152045491
9,0.7023648237710978,0.7030093479996582
10,0.7022925954517869,0.702128252812013
11,0.7021527478051286,0.7019108264549957
12,0.7022357450433191,0.7019707775592892
13,0.702142939605049,0.7022834578923817
14,0.7021298161841988,0.7018539860590288
15,0.7020612579168818,0.7026819494759889
16,0.7021469468041327,0.7024448477230852
17,0.6603501930166518,0.6523263124746672
18,0.6522561924322057,0.6523096810723471
19,0.6522775928587798,0.6526284375460263
20,0.6523177342261132,0.6525593950105689
21,0.6523091499722463,0.652437302930177
22,0.6523037036274554,0.6523056369590025
23,0.6522677929246652,0.6521321216249142
24,0.6522196360288384,0.6520029854328179
25,0.6521832082310518,0.6519762391036837
26,0.6521283919354597,0.6525466847494121
27,0.6520455920193811,0.651968217821466
28,0.6520530171749344,0.6519758090292079
29,0.651978653173837,0.651824956477115
30,0.6520289790523142,0.6518949613831069
31,0.6519793666319912,0.6522324358045256
32,0.6519996439447284,0.6518650594097165
33,0.6519127176895545,0.6519220984404318
34,0.6519085977823791,0.651908801507241
35,0.65188606157867,0.6519304812774896
36,0.6519417269277873,0.651757349824004
37,0.651857341565349,0.6534740992982927
38,0.6519442226621742,0.6518056785257437
39,0.6518818401828005,0.6518838690451294
40,0.6518634829804417,0.6517801828221632
41,0.6518665586814768,0.6518567765955751
42,0.6518384969736915,0.6517511743715125
43,0.6518133476968132,0.6517887708352758
44,0.6517812395056446,0.651808724674222
45,0.6518122418368564,0.6518852708864308
46,0.6518205360417674,0.6519074757769909
47,0.6518095858331747,0.6516861017307332
48,0.651837500718899,0.6517560486509989
49,0.6517889394543984,0.6517206951114405
50,0.6517676228797858,0.6517834426241417
51,0.6518304831479794,0.6517756988005061
52,0.6517688539725761,0.6518128036490097
53,0.6517793783472388,0.6517679192731525
54,0.6517426801244148,0.6517279096690203
55,0.6517884189611314,0.652466184962975
56,0.6517939482900851,0.6517852634590774
57,0.6517517220071896,0.6518035235153817
58,0.6517434542628467,0.6517243947560994
59,0.6517050011978971,0.6520443446462494
60,0.6518099208508762,0.6522371726509496
61,0.6517608133690754,0.6519730691845034
62,0.6516985091957731,0.6517964727967392
63,0.651701362853372,0.651682288171086
64,0.6517217380231751,0.6517291171088265
65,0.6517088705300191,0.6516658171510933
66,0.6517478758066432,0.6519177770763389
67,0.6517520680437469,0.6516714900387474
68,0.6517660663807116,0.6516528120498566
69,0.6517072176505952,0.6516820927304201
70,0.6516860394570604,0.6516848792612366
71,0.6516475621776099,0.6517278699726987
72,0.6516692709388985,0.6516659541466101
73,0.6516558677988139,0.651640061009453
74,0.6517591074737138,0.6516727138865123
75,0.6517296025000006,0.6516853120047404
76,0.6516723288573526,0.6517778474992734
77,0.6516525489427689,0.6516190277565332
78,0.6516673869260292,0.6518334725358592
79,0.6516270810014546,0.6517263947768832
80,0.6516750226904947,0.6516776054162327
81,0.6516380556797831,0.6516538505970743
82,0.6516793458849864,0.6517305856758268
83,0.6516303479682417,0.6516059004706972
84,0.6516446057952507,0.6516179485394552
85,0.6516246819135909,0.6516420829075151
86,0.6516565895666877,0.6516495840027478
87,0.651665758067857,0.6516558501693738
88,0.6516163241442477,0.6516734003408127
89,0.6516434006671435,0.6520075887840896
90,0.6066380253244761,0.6018514592705746
91,0.6018701739111989,0.6019519446727047
92,0.6018943712530045,0.6019638838801259
93,0.6018921986350796,0.6020426125368037
94,0.6018149428442873,0.6019137710863395
95,0.6017948432151583,0.6019575398850822
96,0.6018686772902354,0.6018770865550455
97,0.6018685162078352,0.601892693444422
98,0.6018768682234541,0.6023241025217084
99,0.601810064459165,0.6022676968491391
100,0.6018973067680864,0.6025064564403163
101,0.6019107219005656,0.6019275570751483
102,0.6018304668588872,0.6019483567553062
103,0.601819083669787,0.6019851047088299
104,0.6018294743268783,0.6019342474203238
105,0.6018184495896909,0.6018262636794981
106,0.6018478440138706,0.6018584135760515
107,0.6018496677037911,0.6018927454904671
108,0.6018542211493447,0.6021098657843607
109,0.6018281459458313,0.6018267710682754
110,0.601810735810851,0.6018820978300486
111,0.6017980720097409,0.601863981715297
112,0.6018695289872652,0.6021119665062565
113,0.6018196556840445,0.6022101045639324
114,0.6018057696103335,0.6018694352066655
115,0.6017761960768763,0.6018180063086314
116,0.6018167973337695,0.6019077596587421
117,0.6018345795392683,0.6022182950231434
118,0.6018313178449054,0.6018785930025532
119,0.601820272400874,0.6019751925187541
120,0.601817391083103,0.6018707063749834
121,0.601817753801085,0.6020949909634099
122,0.6017896138091055,0.6019070669584787
123,0.6018081608953013,0.6018777204601234
124,0.6018022616325099,0.6020208021373262
125,0.6017862341488116,0.6019149307133539
126,0.6017866409130473,0.602277584514786
127,0.6018337553346851,0.6026463960371754
128,0.6018010207496375,0.6020976350403288
129,0.6017994157923918,0.6018827813527938
130,0.6017806681644781,0.6019079688383387
131,0.6018278751853424,0.6018334118067222
132,0.6017844585889034,0.6018352746460324
133,0.6017789627467703,0.6018547497882517
134,0.6017923324000342,0.6018024892364211
135,0.6018004239848858,0.6021037864387527
136,0.6017889774391876,0.6018028415590497
137,0.6017806665929601,0.6017891958801653
138,0.6017694125016793,0.6022923446987983
139,0.601765924348316,0.6019467891608057
140,0.6017893794815774,0.6021010497771921
141,0.6018596381275356,0.6019825916221151
142,0.601738575704894,0.6018312662801605
143,0.6018026849396143,0.601928998164287
144,0.6018089856614015,0.6018177746610699
145,0.6017639864188944,0.6018061471173557
146,0.6017848058943428,0.6018535694981479
147,0.6017656048926519,0.6019488164734941
148,0.6017590258116677,0.6018837054271526
149,0.6017365898204782,0.6018720536324754
150,0.6017598036108975,0.6019109838226341
151,0.6017863827866867,0.601808301482338
152,0.6017487927730742,0.6018055737685842
153,0.601770070705121,0.6017972149199621
154,0.6017458248796205,0.6017867476923966
155,0.6017464079309649,0.602118964445965
156,0.6018295850805998,0.6018345089741072
157,0.6017330315650228,0.6017840864855689
158,0.6017566261221788,0.6018375058002615
159,0.6017564985448304,0.6018009632634426
160,0.6017431560193915,0.6018066095811421
161,0.6017437047708099,0.601835507442151
162,0.6017342209050274,0.6017607467002575
163,0.6017765497996507,0.6019167405549573
164,0.6017207610663299,0.6018417503860461
165,0.6017353480260526,0.601787103143476
166,0.6018044862673101,0.601842949742198
167,0.6017221380222272,0.6017673497879082
168,0.6018065305312431,0.6017701407926282
169,0.6017420067220987,0.6017914889799081
170,0.6017756851330411,0.601940526407035
171,0.601781240751191,0.6017939943330051
172,0.6017720179980177,0.6020115288512863
173,0.6017310907550928,0.601940371865941
174,0.601747370720814,0.6020870449718455
175,0.6017329088480763,0.601783024453093
176,0.6017234267762307,0.6018134542048842
177,0.6017643188806006,0.6021739497799943
178,0.6017462060000398,0.6018356760831508
179,0.6017208095719021,0.601828088539853
180,0.6016999585129562,0.6017790256038371
181,0.6017314780886591,0.6020389637130622
182,0.6017817266309575,0.6017469199431404
183,0.6017244758172495,0.6018093675839877
184,0.6017444911349941,0.601944205465175
185,0.6017207520310139,0.6018500334955308
186,0.6016941851101469,0.6019786160284061
187,0.6017109743679686,0.6018709437434532
188,0.6017565548934068,0.6018474913886062
189,0.6017527728917337,0.6017917420015705
190,0.6017441032617882,0.6017498241627757
191,0.601709870221732,0.6021037459548493
192,0.6017589233749583,0.60178291322901
193,0.6017289118620353,0.6018610798255919
194,0.6016650941128788,0.6018027907818868
195,0.6017153870660522,0.6017915106384136
196,0.6017350435490315,0.6017514767833184
197,0.6017011213267609,0.6017445151051987
198,0.6016959678713258,0.6018140050091203
199,0.6017175076634554,0.6020075372324709
200,0.6017014345291697,0.6017849649239252
201,0.6017090583923957,0.6017968850324823
202,0.6017296148810816,0.6019102991513319
203,0.6017512218328093,0.6017235788451923
204,0.6017225914762211,0.6017758757461209
205,0.6016828878622883,0.6019394090469222
206,0.6017354539922963,0.6021303014484846
207,0.6017075730674003,0.6019211694349343
208,0.6017626104948753,0.6017736825270923
209,0.6016936941584979,0.6017475414109855
210,0.601676144978829,0.601991200724924
211,0.601717247812436,0.6017720553388857
212,0.6016721206534825,0.6024440295500676
213,0.6017347245819599,0.601840465249086
214,0.6016888966755509,0.6017628511522293
215,0.6016781063278771,0.6017940011696545
216,0.6016745051346168,0.6017424279909699
217,0.6016651767470053,0.6021151690663362
218,0.6017243701755187,0.6017763494110737
219,0.6016765492198853,0.6018729162098049
220,0.6016977901866241,0.6018361259456249
221,0.6016888749185976,0.6018207337379805
222,0.6016819695963468,0.601724969824425
223,0.6016617857980358,0.6024213950553932
