epoch,loss,val_loss
0,0.49596797255538194,0.40729784706889954
1,0.31426018181803517,0.27687701555112465
2,0.2846363616870154,0.26410825556598827
3,0.28163596185399975,0.2642401093428249
4,0.2825249052816052,0.27682188898929233
5,0.2816070365228111,0.2724633984032048
6,0.2815989436532518,0.2733265468964031
7,0.28347302158419085,0.2694776290476274
8,0.2831074189039781,0.26914765268250007
9,0.28210353743347577,0.27113506260772885
10,0.28316951627799086,0.28149755989161335
11,0.2832971394563122,0.2761711356534478
12,0.28438800068093456,0.2842152252829568
13,0.28386207168893496,0.2691597412102414
14,0.28335257916091633,0.27559933934091846
15,0.28463476104699104,0.292634077484977
16,0.28408562307290025,0.27339472934084025
17,0.28468637611028,0.2767992422697705
18,0.28480501122194063,0.2699395247522835
19,0.284888530536305,0.2770500309880149
20,0.2840705318175095,0.2719959340149662
21,0.2839800597454091,0.2801729363464091
22,0.2845397762375607,0.27542868627587275
23,0.28424571822580097,0.2779556476455922
24,0.2829679229659878,0.2763835860164013
25,0.2845574077770555,0.2738375502056159
26,0.28458909626552065,0.28939554416736935
27,0.2841379645170929,0.2729962478782332
28,0.28422180804803526,0.2952124702669408
29,0.2842493405620798,0.27509643246222587
30,0.2837790001968177,0.26687179589213533
31,0.28341064716669156,0.2741154428550313
32,0.2822631660332863,0.2874812729964871
33,0.2830013342505937,0.27187185086134674
34,0.2825630091434961,0.27259154154919846
35,0.2822044289844622,0.2762462506667444
36,0.2822802049026573,0.27097607334503193
37,0.28321500005031985,0.2719410877834948
38,0.283066562854881,0.2652162265482707
39,0.2840615624220396,0.2707256196430807
40,0.2834059981058081,0.2710131209552143
41,0.2828227451937594,0.26964693346694535
42,0.2842094119999101,0.2755945659418562
43,0.2825697863264214,0.2761165821276732
44,0.2837797343384943,0.2794423901082439
45,0.28409633096501385,0.2834357157385842
46,0.2835096279986865,0.273585699794743
47,0.2835320703822484,0.26769542904375826
48,0.2829972705703148,0.2877581979768216
49,0.284153619749819,0.2811006456250982
50,0.2835667108277305,0.2727567280271821
51,0.2829543272312209,0.2715289049025773
52,0.28366992477658654,0.2708329439574108
53,0.2826911441868453,0.2773716112920548
54,0.28267865575509993,0.28168030866306193
55,0.28341998662158335,0.27844381589814116
56,0.2837452317675273,0.27387758059803297
57,0.28350339129006413,0.2764407564181191
58,0.28242136158639664,0.26892155058385875
59,0.2814526899551467,0.2762205469250582
60,0.28220374184885055,0.27654645796819904
61,0.28331581471537093,0.2734695450136165
62,0.2816660447930507,0.2731591641588706
63,0.2833530468056448,0.27798683299635446
64,0.2818699817928531,0.2715920072716615
65,0.28308659381538126,0.2750998402236442
66,0.28277692838226726,0.27185537688440164
67,0.28159575453632063,0.26948909131569876
68,0.28132162367204744,0.2754790934840548
69,0.282135893056114,0.2728939537028423
70,0.28090035274111813,0.274832019804458
71,0.2820434010594344,0.27508548624807516
72,0.28017650532116406,0.2685421730020814
73,0.27954367571491734,0.2740333146156572
74,0.2802699742923745,0.2721887925656366
75,0.27905052645002204,0.2705684422552344
76,0.2811114582493364,0.27386184575735606
77,0.2827132548793876,0.26496364840964237
78,0.2797350109136515,0.27822961861876483
79,0.2779453868707053,0.2665255277357929
80,0.28089763719836075,0.26980558864391635
81,0.2797807357889161,0.2659047148571881
82,0.27886822497587,0.26486430118360466
83,0.27974604914267603,0.2688383050595273
84,0.27910255169491466,0.26829996852495763
85,0.27984525628978485,0.2820209351769329
86,0.2795708388972989,0.263409202273358
87,0.2803142356326143,0.2803366227499953
88,0.2827645101792532,0.27016667110448145
89,0.2811441089603021,0.2758282142640707
90,0.2808148376136613,0.26914870129884594
91,0.2811084882773047,0.2823696438727684
92,0.28267011376287193,0.26561347447752665
93,0.2817803977476396,0.2651457674166872
94,0.2820447621355542,0.26989349985113015
95,0.2814376319082285,0.26855505344254743
96,0.2816525401951696,0.27356155199774473
97,0.2814920307028952,0.2678081603646762
98,0.28266892680008,0.2673490472494444
99,0.2804914104451744,0.2753729740367705
100,0.28128123679477945,0.2744056677441237
101,0.2818495402212521,0.28024407226625536
102,0.2823827165164787,0.2766730956860122
103,0.28295748608054117,0.27341584989382595
104,0.2814318937203997,0.2701225526334789
105,0.2814135375120241,0.2665574339619518
106,0.28210561554893865,0.27552880692414317
107,0.2818876755199402,0.2800574306661485
108,0.28062819484904633,0.2729659142623756
109,0.2838844058750342,0.2664416764001003
110,0.2819425312278746,0.2710554960145277
111,0.2820219225686392,0.2687838299189364
112,0.28149199798953733,0.27797829396629953
113,0.28141363561630633,0.26623441935165665
114,0.28037824198973477,0.2675578635539452
115,0.2809524450650971,0.26777071149873233
116,0.2816760609026333,0.27125130250554497
117,0.28142159873600286,0.268151188962651
118,0.28178282259844895,0.26648051083232943
119,0.281347319280939,0.2773926328181834
120,0.28146045529145636,0.2748367311818176
121,0.2805355818057843,0.2806439744754236
122,0.28231692928567326,0.26613189688515876
123,0.28073211600057024,0.27020415633505956
124,0.2812193914102592,0.2669857042718494
125,0.28233221872412173,0.2687165114759722
126,0.2797307974701409,0.2673417432029752
127,0.2791472936721684,0.26275373115495076
128,0.2787875356831199,0.26528809440155293
129,0.28031485258721656,0.2679188660461537
130,0.2773093649024387,0.2651359086851714
131,0.2775326927033685,0.26961405931791443
132,0.2798953391880012,0.26327852759773135
133,0.28003185659384516,0.26375091404617074
134,0.27885549886523486,0.2611855341594391
135,0.2788394509409789,0.2668830447944315
136,0.2796627304213251,0.2867863854304234
137,0.27845056968822396,0.2698185177276701
138,0.27779458365362103,0.2657220062814103
139,0.27781038687790366,0.26649101804836145
140,0.27888087119409044,0.2632672954577309
141,0.2795166920265071,0.2658313083895222
142,0.27932242496167303,0.26788807509879414
143,0.27892697611458306,0.2639864522416903
144,0.2785554633582469,0.26846778473763183
145,0.27804365687913374,0.26129072899752676
146,0.2781641263189652,0.26770830444465876
147,0.2779526334581039,0.2665350042700477
148,0.27788049475348786,0.2758628090198506
149,0.27771429343520404,0.2755857250937967
150,0.2785746901630878,0.26845243568354665
151,0.2783950256098739,0.26939526369488537
152,0.2793445818430429,0.2710152198919318
153,0.2790838416406305,0.2660349752128559
154,0.27926884129870116,0.2712680893343634
155,0.2802658208949362,0.27210996648642655
156,0.27947634379800745,0.272245881875066
157,0.2796586203255398,0.2610391036751593
158,0.2782219744103255,0.2738819929370045
159,0.27949819823591304,0.26652981813419957
160,0.27961453674935266,0.25981181614638726
161,0.2780525144920338,0.2642560336324904
162,0.2783932357107858,0.27411317368493465
163,0.2781254072204602,0.2654209782559023
164,0.27870551709106584,0.27175502110475075
165,0.27942821293997705,0.2762576161437371
166,0.2788730056119786,0.2688236784156705
167,0.27883543798310745,0.2691398986161287
168,0.27774503220430463,0.27787219946305153
169,0.27830864048247533,0.26953563066342934
170,0.27863760173225327,0.28265132599745163
171,0.2781012261732279,0.26579638084114227
172,0.2793605658975098,0.2733931367535564
173,0.2782997738441722,0.2695760550483493
174,0.2764539933078188,0.27364977695114323
175,0.27787649482965854,0.26241297734673197
176,0.27791386281995417,0.27258464320587705
177,0.2781525716257153,0.2657368552341562
178,0.27769077337198583,0.2724990595407053
179,0.2770549305278459,0.2722412936226295
180,0.2787180732342126,0.2714066115198151
181,0.2786857114793111,0.2720876042666903
182,0.277725106214074,0.27477484729989987
183,0.2779431027040375,0.26370924196394113
184,0.27698695359586045,0.26651945225562107
185,0.27824696205299887,0.2691828000260289
186,0.2778188438953353,0.2665257608610155
187,0.2768623593857615,0.2645513895605989
188,0.27808992302804303,0.2752557002183198
189,0.2778205506927114,0.26965419285827213
190,0.27732492127329755,0.26854271696093407
191,0.278597951394687,0.2686019330636718
192,0.27715327499435843,0.2664894724849367
193,0.27773984143431424,0.26806050350486216
194,0.27583315159030874,0.26300127121460504
195,0.277564859949798,0.27398826371627616
196,0.276290733161404,0.26477153112225094
197,0.27582131469364257,0.2585448091192547
198,0.2757993271056894,0.2631403762131132
199,0.27621279769630025,0.26515073482089185
200,0.27801815610680225,0.26216689515964636
201,0.2779483685703923,0.2738591818575538
202,0.2768603153854871,0.2659289702011721
203,0.27709291806762176,0.26352853576342267
204,0.27697344652240613,0.26335443559934335
205,0.2770551620625419,0.2664588911085717
206,0.2774270812662436,0.2702983102224169
207,0.27797783570016643,0.27294116345780317
208,0.2781294751181614,0.26494827714279623
209,0.27784126469070575,0.26720081384551303
210,0.2781113090755655,0.2744377447474999
211,0.27891603187382746,0.2666741777438027
212,0.27788895347697723,0.26706248102445285
213,0.27708589823676455,0.26193306848273856
214,0.27888727585991635,0.26881036827067295
215,0.27790939005567517,0.26546205524642197
216,0.2773036716328419,0.265565061366181
217,0.27680540497633244,0.2801189979255828
218,0.2778824045180415,0.2715213619903733
219,0.27778703749203704,0.27204135480878416
220,0.27758784864166436,0.278436322511451
221,0.2775317745818626,0.2597976706541368
222,0.27765015712540275,0.26972676239551224
223,0.2783311371616214,0.27175379032684555
224,0.2780383017788036,0.26927905073517816
225,0.27837913356918254,0.2620174684542906
226,0.2776048062525815,0.2663582814290866
227,0.27720003836960483,0.26277067205911714
228,0.27722875886053155,0.275003985440644
229,0.2789409993599662,0.2809853787984871
230,0.2777673928879852,0.27349531529690324
231,0.2789334643653052,0.2692349216412067
232,0.27697768661262895,0.275238193360075
233,0.2788158768386818,0.2666126864041532
234,0.27708444139473526,0.2708980577536356
235,0.27780580808750815,0.2672577458890782
236,0.2770898976893402,0.262467614599388
237,0.2764230029488965,0.2715528173869157
238,0.27868420906883895,0.26758151935883295
239,0.27658176688168695,0.2663467530907409
240,0.2779818751377235,0.2651141460045314
241,0.2777498042445072,0.2822451953446101
242,0.2793269605637551,0.2742959866292672
243,0.2788356082190314,0.27335507677080956
244,0.2787279428674089,0.27498943950234633
245,0.2777300540498011,0.2633349982007963
246,0.277880038794658,0.26267301127471676
247,0.2792722642887011,0.2681121348802964
248,0.2786708515617636,0.28052171743312504
249,0.2783833580185548,0.2703512064441857
250,0.2782635144752154,0.2693071089570153
251,0.278125760869516,0.26987008770983684
252,0.279139921265998,0.26995143293125884
253,0.2781360442873189,0.2709455046340497
254,0.2797448190154315,0.26648401159004576
255,0.2782822488676652,0.26941185163610465
256,0.278855352931685,0.2776244067604331
257,0.27925511218124244,0.2704433649899219
258,0.27932129053472043,0.28160195962646
259,0.2804758290024258,0.2696258812683536
260,0.2783327847480583,0.2747133814964658
261,0.2779932756832927,0.28019024777344737
262,0.27884994616644015,0.2801252443521659
263,0.2793084186754578,0.27593674889591197
264,0.2809339136994773,0.26626058741014175
265,0.27987864877196483,0.26789989781060647
266,0.27825768725026406,0.2659933107201877
267,0.27929390582731,0.26829551983343713
268,0.27846304160819424,0.2648427754954797
269,0.279051333999901,0.2672890747768165
270,0.27978501879901674,0.2681870540635719
271,0.27873207100803515,0.27419366324373307
272,0.2796358364679701,0.27106589231177836
273,0.27827461245205043,0.2635104827951437
274,0.27894693049337504,0.2733395654354652
275,0.2800956371369316,0.270132853819506
276,0.2777297698480306,0.27260570150753977
277,0.27860149759068503,0.2698864546111224
278,0.27867545104556507,0.2829913090422012
279,0.27841343148480996,0.26648332392502294
280,0.27930801564020763,0.27161450959615174
281,0.27902865953284134,0.27037583364042345
282,0.27891947829527697,0.26852603939521247
283,0.277989800473611,0.26521643576879184
284,0.2798532162836974,0.27117746160799955
285,0.27977344717045993,0.27117952456681205
286,0.28044119153956204,0.27557136144999655
287,0.28044804331180667,0.2655785553405078
288,0.27992986218990373,0.26336184860677714
289,0.27993164880811167,0.275141351208973
290,0.27986424385284403,0.2666528778572152
291,0.2813684830040909,0.27590758619952377
292,0.2816549811461527,0.2652760512299008
293,0.28066003962074687,0.2686965404998357
294,0.27979834878845533,0.2738231129986623
295,0.2812514517059605,0.2667450595462796
296,0.2793487152032512,0.2706753447688119
297,0.27967242361475125,0.2737117400521296
298,0.2797933308492669,0.2825572682727379
299,0.2793857371442026,0.2772892804911537
300,0.2785982411739538,0.2706243103341368
301,0.2784599698751902,0.27698329673583005
302,0.27910311640000895,0.26224575985135434
303,0.2777807199962145,0.27466755601466425
304,0.27834079519594257,0.2660122417451305
305,0.2788429355220474,0.26630591785434005
306,0.27768854792114256,0.2709933861135373
307,0.27946112745160384,0.2671548892039162
308,0.2794557331000165,0.26473407479968386
309,0.2790366710246421,0.2682971969452314
310,0.2787291287982149,0.2676586366990477
311,0.2793706307907979,0.2619998338182864
312,0.2787904821879106,0.2695510084442462
313,0.2786711454033565,0.27003247067876107
314,0.28000433247288864,0.2681612929651047
315,0.2787441121484395,0.26809441135699247
316,0.27916080535078547,0.2715000154787413
317,0.27901559157835376,0.2711023284305138
318,0.27835682903627473,0.2692584466711835
319,0.27868968486976775,0.2712037004016805
320,0.2795659768118488,0.2628024651790574
321,0.2807745945403536,0.2655313398692053
322,0.2802029074825126,0.26838430054093027
323,0.27945828341764867,0.2689963485033456
324,0.27886757696028036,0.26276512775156236
325,0.2794334981754553,0.2700495810911893
326,0.27835078720000384,0.272408764461918
327,0.27823146111708436,0.26964149415638033
328,0.2778882524006075,0.2684562997250468
329,0.2796242529506966,0.2609148110593129
330,0.27919513228728926,0.2670457217621784
331,0.2781513671430232,0.27591017883237745
332,0.27853267314770014,0.2670772595683057
333,0.27849667976268105,0.2683317123852604
334,0.27932036158034473,0.26552111937665207
335,0.27911873846601926,0.2788178514800996
336,0.2812695620988635,0.27039986372670793
337,0.2810716513600991,0.2844115062907568
338,0.28117078195532574,0.2700894810229129
339,0.2807367299441054,0.2848695031482808
340,0.2788193119500426,0.26410648949438253
341,0.27913875476993305,0.27245081258999654
342,0.27813752416709214,0.2653097798330264
343,0.2778226644444981,0.2678564064452441
344,0.27760405587949594,0.27085410402929117
345,0.27869690356968496,0.2768200574154208
346,0.2783274995066148,0.2599672578571293
347,0.2793389468478431,0.26606729273765145
348,0.27825662857585187,0.2653734213631035
349,0.2781363436049991,0.26290218981658164
350,0.2792265003530668,0.27062043858222234
351,0.27834528269435616,0.2703678902338311
352,0.28024015307808225,0.26969836493961613
353,0.280717353030049,0.2649483155015031
354,0.2809692484269245,0.28201926001087013
355,0.2823994761411909,0.28830541023759465
356,0.28178540672704255,0.26585432686461535
357,0.2801235212957124,0.27777344297801976
358,0.2823327078675632,0.27466942013421874
359,0.28139457565913495,0.2659311481515083
360,0.28059870718096236,0.2706226361832383
361,0.28095892308543835,0.2745967790641537
362,0.2832129986955224,0.27018967703504476
363,0.28173671199308575,0.26722262981019174
364,0.2817264659534558,0.26698533331390717
365,0.280561704800022,0.26869727103137814
366,0.28126653197338525,0.284104323723117
367,0.2803395420038481,0.2797578547606116
368,0.27835211009264377,0.2657869707759763
369,0.2784842157406841,0.27339599589120056
370,0.2796201103443714,0.2719408791188969
371,0.2783749382301652,0.26556994042692394
372,0.2794583611387172,0.2701646555804278
373,0.28107706955473744,0.2678320837982863
374,0.2812590978985982,0.27175550162792206
375,0.2800257069418867,0.26629441035103235
376,0.27937462027546306,0.2710593709207026
377,0.2789250754052587,0.26456954185786713
378,0.2793399157633392,0.2660233169334842
379,0.2788330223008668,0.2729328832583803
380,0.27924629923603456,0.2721452886074032
381,0.2796937834152324,0.27133093416594145
382,0.27947897297010316,0.2678754716289788
383,0.2780204302995944,0.265097006635751
384,0.281623291583945,0.26488078208542026
385,0.281140711901186,0.2760653906809249
386,0.2810962784400074,0.2696704108929692
387,0.27934928870110437,0.2873120007361229
388,0.2797784700309686,0.2633523690028589
389,0.27963514532371936,0.27129272828958717
390,0.27974704485401525,0.267915974338656
391,0.2795970357650275,0.27602933213078484
392,0.27878458928570354,0.2627873908719297
393,0.2797519698667469,0.2689952986905561
394,0.27944059408097577,0.27918301462305334
395,0.2793133741526531,0.2673210728390857
396,0.2805541161003353,0.27687225706530894
397,0.28122792650667355,0.2680558292293394
398,0.28143545018257,0.28117734387166504
399,0.281562716699391,0.2715189242909231
400,0.28019149853789016,0.2695242913752577
401,0.28028640012630374,0.27189211905099275
402,0.2802492601452492,0.27709956074379755
403,0.282549895328269,0.2702362672497563
404,0.2808186427784787,0.2744229890569283
405,0.2805553114084934,0.2730971668565167
406,0.2793061288477804,0.26846707610463283
407,0.2794430138971254,0.26204859045396856
408,0.27780088710131123,0.26780433295368666
409,0.27891114172193887,0.27881915342827107
410,0.2790112293916669,0.26267070120800246
411,0.27937920301484526,0.2669732840150135
412,0.2792260648430682,0.26626563906089523
413,0.2788841385033438,0.2675105642228231
414,0.27936668420214955,0.2691918482939015
415,0.28081071750820874,0.26986888196056485
416,0.28023258697471204,0.2749145278361205
417,0.2797063790184197,0.27492442861235633
418,0.2798017403237623,0.27299694571906924
419,0.2785773385671065,0.2643823690609727
420,0.27992839431218663,0.2752944042623672
421,0.2789609762277004,0.26560395246632973
422,0.27943608399817615,0.27220339213844635
423,0.27864290928964713,0.26803186856095423
424,0.278718151354952,0.2655523140210015
425,0.2795735251089876,0.2661875336395466
426,0.27967986745463075,0.2810327685033995
427,0.2792921719656552,0.2704014892343187
428,0.2791542013148196,0.26991590011535577
429,0.2808547930134307,0.2703752861405811
430,0.280093251877398,0.2657823580387445
431,0.2797821088372659,0.2696940364967201
432,0.27915334557775884,0.27273028786841774
433,0.2797087063674358,0.2665770367476772
434,0.2799616782688159,0.267604638395615
435,0.2808635464792637,0.278464617049027
436,0.27874244822321936,0.26720642893660485
437,0.28008157687128976,0.26770676958879996
438,0.27934281172467956,0.2717075531234223
439,0.2798445429846799,0.2652655898896254
440,0.2800585546070714,0.2704787220857246
441,0.27931350042478287,0.273763448785498
442,0.27956343555541113,0.2641218885211372
443,0.2787507898133215,0.2685484229817394
444,0.279028158822806,0.2729139675575838
445,0.27855547193029195,0.26681357527881355
446,0.2789278268408451,0.26342998339892015
447,0.27892425443359714,0.2696757567721658
448,0.28096699385976104,0.2751428585103732
449,0.2824269192124768,0.28201469110698113
450,0.2817328202965452,0.2667263314937636
451,0.2799598427595283,0.2702884522522743
452,0.27919741826738903,0.2644097115194904
453,0.27961147450107493,0.2762134071418355
454,0.27949118812242635,0.27035857135216973
455,0.2777301804412356,0.2665194631202958
456,0.2803136472932523,0.2734210148441627
457,0.28037472073439124,0.26863711714647887
458,0.28004249308804113,0.26862892417867107
459,0.2791511444650811,0.2674202265313072
460,0.28059477817783174,0.27875639422096476
461,0.2803871496986923,0.2754155614104391
462,0.27906089259969225,0.2810311347536217
463,0.28007479235708854,0.2689126514363656
464,0.2794873394471727,0.2718452968591611
465,0.280241314879506,0.26826155971243243
466,0.27954930378447734,0.2707930885116356
467,0.2812323397259601,0.29198298636530823
468,0.2806322890951979,0.26586789193669663
469,0.2820503919708242,0.26952852372802183
470,0.28191373245514706,0.28264735866298735
471,0.2820942668472413,0.27512307695905464
472,0.28174261545972695,0.27098504558435227
473,0.2821498751175031,0.27091972127448033
474,0.28118306838029666,0.2651091877851463
475,0.28077640340292903,0.26810112588306995
476,0.2813493343140241,0.2742805083230174
477,0.28051554922870486,0.26864596797698703
478,0.27953203854630526,0.27823285994158464
479,0.28116893944285026,0.2681202557351854
480,0.2814233783211968,0.27568866516745194
481,0.2816252382912094,0.2697322869798756
482,0.28076416263587956,0.27775446011927296
483,0.28044214149157076,0.26838425149882794
484,0.2820647738104443,0.2702712214099423
485,0.28241385731270446,0.2761082897946202
486,0.2817126967675023,0.27276843563870307
487,0.2816817751460022,0.27456115506474604
488,0.2801673600526215,0.2801207821855483
489,0.280793240856084,0.2656070745556894
490,0.28179476332005926,0.27241360846323787
491,0.281186389603359,0.28055377383108365
492,0.28180937510762244,0.2658260156976819
493,0.2828683159094128,0.26786862792324845
494,0.2810398166159614,0.27903818035164407
495,0.2829451443697568,0.2684803939963006
496,0.2813902531532023,0.27359019623523984
497,0.28338909737938783,0.27492576223606996
498,0.2839566766261291,0.27791585846345596
499,0.28300635850696776,0.2704875640698013
500,0.2825485593359694,0.2700967000856307
