epoch,loss,val_loss
0,0.6673631983465619,0.669773016055425
1,0.6667251686652501,0.6669056912263235
2,0.6667239162392087,0.6666855271657308
3,0.6667125247187085,0.6666687711874644
4,0.6667184682952033,0.6666684604883194
5,0.6666899821228451,0.6666695797840754
6,0.666692309472296,0.666690534790357
7,0.6666891583469179,0.66667766837279
8,0.6666873488293754,0.666668909351031
9,0.6666859511269464,0.6666676323413849
10,0.6666842341423035,0.6666910845836004
11,0.6666834128830168,0.6666787163416544
12,0.6666829038858414,0.6666668074528376
13,0.6666820006370544,0.6666668099562327
14,0.666681624531746,0.666667680978775
15,0.6666807370185852,0.666666623155276
16,0.6666802316904068,0.6666672019958496
17,0.6666789406405554,0.6666755439043045
18,0.6666783339182536,0.6666891402403513
19,0.6666774938238992,0.6666670914491017
20,0.6666767901844448,0.6666672974427541
21,0.666678000913726,0.6666747053861618
22,0.6666758794519636,0.6666675458749135
23,0.6666757851044337,0.6666697404384613
24,0.6666757174597846,0.6666666266918182
25,0.666674829337332,0.6667038510243098
26,0.6666755262745752,0.6666666274865468
27,0.6666746923923492,0.6666678773959478
28,0.6666746240059535,0.6666719612677892
29,0.6666744765837987,0.6666673525969188
30,0.6666738898356755,0.6666668472687404
31,0.6666736702521642,0.6666670999129614
32,0.6666736209657457,0.6666680372953415
33,0.6666736885441674,0.666666567325592
34,0.6666730188131332,0.6666669786771139
35,0.6666735767390993,0.6666687858899435
36,0.6666730775170856,0.6666993428071339
37,0.6666729915009605,0.6666685323317846
38,0.666672919842932,0.6666666339635849
39,0.6666730008655124,0.6666668057044347
40,0.666672675119506,0.6666671367883682
41,0.6666727415323257,0.6667044422626496
42,0.6666725132332908,0.6666679767370224
43,0.6666724133491516,0.6666666737794876
44,0.6666721238692601,0.666666567325592
45,0.6666721295780605,0.6666812655925751
46,0.6666719261540307,0.6666665691137313
47,0.6666721340550317,0.6666710556348164
48,0.6666718552245035,0.6666668114264807
49,0.6666720304754046,0.666666567325592
50,0.6666719519959555,0.6666843872865041
51,0.6666719956398011,0.6666695003509522
52,0.6666719105111228,0.666666567325592
53,0.6666720277203454,0.6666669845581055
