epoch,loss,val_loss
0,0.6688805489142736,0.66669180337588
1,0.6667357278002632,0.6666699053843816
2,0.6667475017574098,0.6667533617814382
3,0.6667053776979447,0.6667191841204961
4,0.6666979865365559,0.6666689230600993
5,0.6666925788455539,0.666668514808019
6,0.6666890445020464,0.6666668124993642
7,0.6666860149966346,0.6667482846577962
8,0.6666845926708646,0.6666682823499044
9,0.6666828439368142,0.6666679431200028
10,0.6666818176375495,0.6666667762994766
11,0.6666806894143422,0.6666666993697484
12,0.5590321939653821,0.5
13,0.5000177546872033,0.5000306749343872
14,0.5000169172816806,0.5000098545153936
15,0.5000165639585918,0.5000072627067566
16,0.500015736050076,0.5000069748957952
17,0.5000156316359838,0.5000083464384079
18,0.5000147131548988,0.5000202519893646
19,0.500014092789756,0.5000143504540125
20,0.5000134517484242,0.500000928680102
21,0.5000132236613167,0.5000041182041168
22,0.5000129201279746,0.500001285036405
23,0.5000121669769287,0.5000298860867818
24,0.5000121274789174,0.500002904176712
25,0.500011911617385,0.5000091292858124
26,0.5000116553968853,0.5000019877751668
27,0.5000118617481656,0.5000002555847168
28,0.5000114384359784,0.5000000000397364
29,0.5000114210049311,0.5000062555472056
30,0.5000114741590288,0.5000035481850306
31,0.5000114425155852,0.5000015693505605
32,0.5000110352569156,0.5000009804566701
