epoch,loss,val_loss
0,0.5601721508370505,0.5578576493660609
1,0.557589801258511,0.5572835578521093
2,0.5573354380528132,0.5571517196098963
3,0.5572441366646025,0.5572560808261235
4,0.5571796204646429,0.5571476831436157
5,0.5571456094450421,0.557032419681549
6,0.5571104202270508,0.5570179504156113
7,0.5570917316145367,0.5571418308019638
8,0.5570706250402663,0.5570932051738103
9,0.5570646073420843,0.557076016108195
10,0.5570631338622835,0.557184422771136
11,0.5570478524896834,0.5570837535858154
12,0.557047930545277,0.5569564828077952
13,0.5570406166579989,0.5569747358163197
14,0.557037838684188,0.5570620735883712
15,0.5570355362627242,0.5571059512297313
16,0.5570361293686761,0.5569747192064921
17,0.5570260170963075,0.5569256097475688
18,0.5570261715783014,0.5572753004630406
19,0.557020682864719,0.55694593334198
20,0.5570226599640317,0.5569279924233754
21,0.5570108417537477,0.5569654941956202
22,0.5570170651276907,0.557066585501035
23,0.5569992694987191,0.5569242633581162
24,0.5569992037481731,0.557202228585879
25,0.5570024485720528,0.5571303048928579
26,0.5570007816553116,0.5569035090208053
27,0.5569987381034427,0.5569255183140437
28,0.5569992214971119,0.5569017680088679
29,0.5569956152968937,0.5569594233036042
30,0.5569926555554072,0.556925798535347
31,0.556990243713061,0.5569857860803604
32,0.5570020242002275,0.5577271356582642
33,0.5569906250105964,0.556920902967453
34,0.5569963073730468,0.5570007738272349
35,0.5569948047796885,0.5570138746102651
36,0.5569868366320928,0.5569573641220729
37,0.5569945182402929,0.5570465083519618
38,0.5569848771227731,0.5569040859937668
39,0.5569856405125724,0.5569182302157084
40,0.5569892968469196,0.5569248025814693
41,0.5569843245082431,0.5569036622842153
42,0.5569874728918076,0.5569967697858811
43,0.5569797850184971,0.5570343189636866
44,0.5569849716557397,0.5569093455870946
45,0.5569859842194451,0.5569537791411082
46,0.5569835360712475,0.5570900558233262
47,0.5569913005961312,0.5569851498206456
48,0.5569875730805927,0.557045346180598
