epoch,loss,val_loss
0,0.4495943929420577,0.4483513279557228
1,0.4470229453179571,0.44662489185730614
2,0.4467339683506224,0.44647831346591316
3,0.4466116995745235,0.4464036657412847
4,0.44653528889020283,0.446452441851298
5,0.4464858368635178,0.44651132984956104
6,0.4464520554476314,0.446292786081632
7,0.4464223415454229,0.44642219092448554
8,0.44638741143544514,0.44643648954232534
9,0.4463725322418743,0.44651935972770057
10,0.4463678249385622,0.4462459631760915
11,0.4463537001543575,0.44633879564205803
12,0.44634499730666477,0.4462482655644417
13,0.44634260698159534,0.44626349967718126
14,0.446334428621663,0.44623692498604456
15,0.4463261575831307,0.4462405060927073
16,0.44631484721104303,0.44622269926468533
17,0.4463100241356426,0.44623357727130253
18,0.44631766654385463,0.4462145600517591
19,0.44629985633823605,0.4462033213178317
20,0.4462980598145061,0.4462175998489062
21,0.44629292256964576,0.44641233871380487
22,0.4463022290468216,0.44620325821638107
23,0.4462948214146826,0.44631846876939135
24,0.4462897469467587,0.44624660183986026
25,0.44628870589203307,0.44616961882511774
26,0.44629167373312845,0.44631716467936833
27,0.4462824516693751,0.4462790624499321
28,0.44628337203794055,0.44620430529117583
29,0.44627891922659346,0.4463059879342715
30,0.4462853278120359,0.4462669087251027
31,0.44627242773771286,0.44619268910090126
32,0.44627593588166764,0.44618041928609214
33,0.4462741667429606,0.4465385029713313
34,0.44627074964841207,0.44654547826449076
35,0.446274246805244,0.44628781056404115
36,0.44626506677601074,0.44657732675472894
37,0.44627463057968353,0.44635385711987813
38,0.4462729099392891,0.4463283301393191
39,0.44626967340045504,0.4461668498714765
40,0.4462720419102245,0.44619318562746046
41,0.44627195544375314,0.4461522520184517
42,0.4462734647128317,0.446208874086539
43,0.4462659908996688,0.4462214185595512
44,0.4462747808098793,0.446214346965154
45,0.4462595058017307,0.44623638919989267
46,0.4462598381638527,0.44618814744551977
47,0.4462639541625977,0.446237449546655
48,0.4462652358346515,0.4461938387354215
49,0.44625930045048395,0.4461533126831055
50,0.4462637999918726,0.44630509851376216
51,0.44626008229785497,0.4461502418120702
52,0.4462629048162036,0.4462350315451622
53,0.4462598368525505,0.4464749590953191
54,0.4462587723533312,0.44642205770810445
55,0.44626252273056244,0.4461672905087471
56,0.44625874108076097,0.4461469374299049
57,0.446262313524882,0.44635641835133233
58,0.44626178520255616,0.4462011576096217
59,0.44625736946529815,0.44619644204775494
60,0.4462642768025398,0.4461747881571452
61,0.44625650273429024,0.44636257863044737
62,0.44625664395093917,0.4463108335534732
63,0.44625161783562767,0.44614428222179414
64,0.44625927230384616,0.446195962647597
65,0.446253897746404,0.44649169929822285
66,0.446258640507857,0.44651453459262846
67,0.44625903292497,0.44631091694037117
68,0.44625242512755925,0.4461971999605497
69,0.44625760053926045,0.446329004406929
70,0.44625992345147664,0.4461453985174497
71,0.44625154850880305,0.44612785961230594
72,0.4462563059396214,0.4462617546916008
73,0.4462569872604476,0.44619497420390447
74,0.44626095106866626,0.44618313894669215
75,0.4462504222393036,0.446250467201074
76,0.44624981466266844,0.4465778858264287
77,0.44625496381521224,0.4461783863902092
78,0.44624454350603954,0.44617778893311816
79,0.4462474226819144,0.4461596353451411
80,0.4462545889880922,0.44619470107555387
81,0.44624745473596783,0.44616104211409885
82,0.4462427368097835,0.4461345518231392
83,0.44624250754382877,0.4462359583775202
84,0.44625313413805434,0.44613731278975804
85,0.4462477442291048,0.4462943679690361
86,0.4462511971526676,0.44613269726435345
87,0.446249851014879,0.4464436201254527
88,0.44625813596778446,0.4461223045984904
89,0.4462451306978861,0.44615456614891685
90,0.4462470140986972,0.4461471175750097
91,0.4462537773648898,0.44633792104323705
92,0.44624707526630825,0.4461782686114311
93,0.44625572239028083,0.4463588090141614
94,0.446249641875426,0.4461765603820483
95,0.4462414205405447,0.4461683848500252
96,0.44626039500368964,0.4464620687564214
97,0.4462364667190446,0.4461450846791267
98,0.44625042095449236,0.44617475612958274
99,0.4462484342455864,0.44644946175813677
100,0.44624457679192225,0.4462183194160461
101,0.44624663303958045,0.44623982046047844
102,0.4462494575911098,0.4461456963419914
103,0.44625332966778014,0.44613964269558587
104,0.44625322030650244,0.4463463752667109
105,0.44624699321720335,0.4461981259584427
106,0.4462456388208601,0.44621015797058744
107,0.4462527702649434,0.4463284129699071
108,0.4462337447868453,0.4461448296904564
