epoch,loss,val_loss
0,0.6696960642735164,0.6684532339175542
1,0.6682104361322191,0.6679765856266022
2,0.668050702797042,0.667967937707901
3,0.6679882474740346,0.667910661538442
4,0.6679355095360014,0.6679821912050247
5,0.6679018756283654,0.6678190557559331
6,0.6678722639481227,0.6678409775892894
7,0.6678588552077611,0.6678845932483674
8,0.6678440810309516,0.6678047513564428
9,0.6678398824930191,0.6678081557353338
10,0.6678340130911933,0.6677702434460322
11,0.6678257664839427,0.6677911303043366
12,0.6678200757371054,0.6678189623355866
13,0.6678071270253924,0.6678010447422663
14,0.667805950972769,0.6678154617150625
15,0.6678009522755941,0.6677510270675023
16,0.6677990720272065,0.6679966698884964
17,0.6677939020792644,0.6677412907679876
18,0.6677962049245835,0.6677356708844503
19,0.6677896232075161,0.6677222927411397
20,0.6677903355624941,0.6677297172546387
21,0.6677890894412994,0.6678629949887593
22,0.6677856088346905,0.6679330037832261
23,0.6677829967472289,0.6678252386252085
24,0.6677819383144379,0.667711938738823
25,0.6677834757433997,0.6677284381389618
26,0.6677801179885864,0.6677189566691717
27,0.6677784012688531,0.667774630745252
28,0.6677765732871161,0.6677527882258097
29,0.6677818038066228,0.6677393450339635
30,0.6677777643998464,0.6679112121661505
31,0.6677770469983418,0.6678089818557104
32,0.6677729418940014,0.6676958900690079
33,0.6677739210261239,0.6677525922854741
34,0.6677747185892529,0.6677265223264695
35,0.6677724682887395,0.6677141215403875
36,0.667771320382754,0.6677511541843414
37,0.6677710129817327,0.667733185728391
38,0.6677663935157988,0.667729378859202
39,0.6677690202395121,0.66776200846831
40,0.6677672357029385,0.6677317839860916
41,0.6677710296048058,0.6677441098292669
42,0.6677645089891222,0.6678778757651647
43,0.6677667671309577,0.6677994943857193
44,0.667766138513883,0.6677431621551514
45,0.6677616196076075,0.6677213740746181
46,0.6677613956001069,0.667861304839452
47,0.6677600364420149,0.6677209289471309
48,0.6677614169253243,0.6677209145625432
49,0.667765525009897,0.6677461686929067
50,0.667761303279135,0.6677549796501795
51,0.6677573649220997,0.6676925470431646
52,0.6677579197751151,0.6676995040973027
53,0.66775436562962,0.6679192606608073
54,0.6677600405746036,0.667702478726705
55,0.667751085334354,0.6677125603357951
56,0.6677557280725903,0.6677401996056239
57,0.6677534792158338,0.6677183786233266
58,0.667753496368726,0.6677394998868307
59,0.6677509835428662,0.667697517156601
60,0.6677543621063232,0.6677374138434728
61,0.667752803352144,0.6677103796402614
62,0.6677537308136622,0.6676962920824687
63,0.6677504197359085,0.6677021167675654
64,0.6677548917002148,0.6677310792605082
65,0.667749653061231,0.6676905117829641
66,0.6677477529578739,0.6677128117481868
67,0.6677497786018584,0.6677972415685653
68,0.6677518853081598,0.6677096024751663
69,0.6677537172370487,0.6677620383501053
70,0.6677515774303012,0.6678950028419495
71,0.6677529139916102,0.6679165564775467
72,0.667745861755477,0.6677100495497386
73,0.6677506432665719,0.6677621951897939
74,0.6677490333716075,0.6676971176067988
75,0.6677508314715491,0.6676941018501917
76,0.6677528499629762,0.66792242928346
77,0.667753521958987,0.667857187628746
78,0.6677471904092365,0.6676914852062861
79,0.6677512036297056,0.6676837197144826
80,0.6677472728358375,0.6676916833321254
81,0.6677501516342164,0.6676866108179093
82,0.6677465265989304,0.6680479044516882
83,0.6677490978373422,0.6678882671594619
84,0.6677510177956687,0.6678266940116883
85,0.6677506620089213,0.6677156220674515
86,0.6677455798519982,0.6676878678798676
87,0.6677512347565757,0.6676995040178298
88,0.6677436762915717,0.6677452166080475
89,0.6677482892804676,0.6678794205586116
90,0.6677476374440723,0.6677283275524776
91,0.6677500499619378,0.6677987966140111
92,0.6677504981093937,0.6677247896989187
93,0.6677478502458997,0.6676775911251704
94,0.667743411090639,0.6679234621922175
95,0.6677493320306143,0.6676816581090291
96,0.6677480676041709,0.6677199553648631
97,0.6677427994675107,0.6677485531171163
98,0.6677453833685981,0.6677741475105285
99,0.6677503949138853,0.6682372892300288
100,0.6677444030178917,0.6677327953577041
101,0.6677443307373259,0.6676896144946416
102,0.6677470139132605,0.6677097521622976
103,0.6677445863220427,0.6677848292986552
104,0.6677490314775043,0.6677327777544657
105,0.6677509675290849,0.668063441435496
106,0.6677453141874737,0.6677156292994817
107,0.6677454380061891,0.6678418455123901
108,0.6677445364660687,0.6677437612613042
109,0.6677482621802224,0.667800800760587
110,0.6677475639714135,0.6677199061314265
111,0.6677447352409362,0.6678906237681707
112,0.6677435700893402,0.6676918635368347
113,0.6677469602425893,0.6679642605384191
