epoch,loss,val_loss
0,0.553369924044914,0.4687443104849712
1,0.4761378918644145,0.46462040473931215
2,0.4763365229256719,0.46354570514401205
3,0.45719047694755116,0.4535128658882915
4,0.44228795449510755,0.4376161803903783
5,0.42874163547627553,0.41516800741088045
6,0.4220702631248654,0.41561179075922283
7,0.39112585531674227,0.32206709982846415
8,0.30102714270258024,0.2898619535548911
9,0.29654262532337866,0.2969579797564479
10,0.29764101473833443,0.27522303773224027
11,0.29782344616479056,0.2815954463163886
12,0.2946968993468346,0.2741387074588318
13,0.2933229728103828,0.2758284997380241
14,0.2950606709428066,0.27197423624352574
15,0.2946789269979528,0.2631028349134239
16,0.2932057068418923,0.2673903687929862
17,0.29286765303614615,0.27662057646542154
18,0.2944931423933291,0.27244379547231296
19,0.2933010401175939,0.27864596606382913
20,0.2956835693425888,0.28551458993716416
21,0.2959417620663353,0.28411085610796166
22,0.29311979534647925,0.2717530452414771
23,0.2935760835949466,0.2822078628246485
24,0.2947659442107454,0.2872120446004356
25,0.29369066696134594,0.2766876774880485
26,0.2934452849600336,0.27352976484993075
27,0.29369798204381403,0.2656591532732806
28,0.29475605275204997,0.2690280804906008
29,0.2935857433888266,0.27565700142705357
30,0.2951128970292642,0.2783091358881629
31,0.29458951086496754,0.28139871270664113
32,0.29452064638134007,0.2926325581044594
33,0.29479559662816623,0.2778160493253438
34,0.2931111825765561,0.28543304520840707
35,0.29660317214796966,0.2798200820314668
36,0.2947656873890536,0.2808575549625278
37,0.29585915452523004,0.28072324223469447
38,0.29524741613631433,0.2743245031223019
39,0.2953820888468211,0.2817102358062717
40,0.29437829303345997,0.27163428758530517
41,0.29448063279703846,0.2675546844855198
42,0.29766724688662805,0.2732006172166627
43,0.29605866698242966,0.30201717394962024
44,0.2939544485258065,0.2748085086328737
45,0.2949248439461874,0.2739554441812571
46,0.29404086545169306,0.2829477189912886
47,0.293583407938528,0.27525062850825693
48,0.2932425038062697,0.2713077756934215
49,0.2946912483107462,0.2687208366586923
50,0.29580377336505126,0.2830652836372086
51,0.29431712233739127,0.26785641201810756
52,0.2957122672935851,0.2764667279389117
53,0.29528233601297027,0.2732096916710004
54,0.2959234991209875,0.28349684476381976
55,0.2944180380156953,0.2747120123118421
56,0.2971021755219554,0.2906129675275619
57,0.3008720636201038,0.279750318381856
58,0.30435064600573647,0.2806969559982995
59,0.3025420604051827,0.2768752028387931
60,0.30213144867063807,0.28971600009168147
61,0.3032482660216965,0.28331958627785486
62,0.30173377593834816,0.2939071144376482
63,0.30128845160932755,0.28001007728202193
64,0.29747955653545477,0.28251468889479947
65,0.29731854332460583,0.2893623148915141
66,0.2987168162799091,0.2809975061392163
67,0.295283458299107,0.2834693082176802
68,0.2935098731141392,0.26963028672791506
69,0.29290423399919896,0.26193320386599817
70,0.2914607778108187,0.2792950230220593
71,0.28916599147682853,0.2713116547820506
72,0.29084452613294837,0.28050394943123647
73,0.28978138003679965,0.27353723557708576
74,0.29074259651460044,0.26840313985626246
75,0.290375538283496,0.29953663214606
76,0.2878215453810067,0.2658773754041968
77,0.2884850949227667,0.26446625739688845
78,0.28726305032400584,0.2611098501540209
79,0.28451987220753105,0.25739632481040214
80,0.28323149301713224,0.26963760133982645
81,0.28406527500858697,0.264083678974537
82,0.28127614906032405,0.24776492358994653
83,0.2837458396736952,0.27721533309830015
84,0.28095924501105557,0.26053042649846425
85,0.28305578260398884,0.26417285769636834
86,0.2829721968749063,0.2661297433872155
87,0.2821807427693614,0.2680194078817458
88,0.2833865680854669,0.25624134803768583
89,0.2816077988270185,0.2706150030445281
90,0.2826983419884976,0.27186583067219183
91,0.28222816803758377,0.25916104659661593
92,0.28176046943635963,0.2659306553939994
93,0.2840744740278315,0.25958334551661055
94,0.28568644391046727,0.2651061889404562
95,0.2827953017062897,0.26546933109730175
96,0.2830428685680282,0.26332111562577964
97,0.28318629528192596,0.2781050071978814
98,0.2844053149449644,0.27344572546450097
99,0.2841220590696156,0.256580393840783
100,0.28471600600807884,0.2781380897280543
101,0.28636409686528425,0.2623024165936126
102,0.2870028382785124,0.26259618043758404
103,0.2835967441995462,0.25768046813775164
104,0.28482117449089017,0.2750345419007394
105,0.2862663962643781,0.2689822940912977
106,0.2883287489616709,0.26743346225726106
107,0.28671789788704316,0.26435165928166593
108,0.2867355390334968,0.2697781065527435
109,0.2885329829369613,0.2813278320932727
110,0.28821251938025727,0.2611308345760806
111,0.2876185952163905,0.25907026558244145
112,0.28576612902535714,0.2733834963924036
113,0.2884307145464906,0.2735552489757538
114,0.2863918776206261,0.25919243481654114
115,0.28536642403554,0.2658881902130175
116,0.28560136825584775,0.26192851037657344
117,0.2848855532842765,0.26824508449790413
118,0.28605888028153414,0.2508122582626606
119,0.2849167026847387,0.2744102209994618
120,0.2849840961581321,0.25907023156968834
121,0.2835729145805994,0.257478374931976
122,0.28281235574580116,0.26082707795695986
123,0.2841574108953194,0.2698617231544775
124,0.2829995830651286,0.25444445865494864
125,0.2851496493930725,0.2604973606806434
126,0.2835781631662215,0.2719416643750884
127,0.2862735811850245,0.2689813049929106
128,0.28478025843938,0.24965671812725895
129,0.28555371403860913,0.26256832234626126
130,0.2871796713053561,0.25606910697380764
131,0.28523258559352205,0.2640501246526661
132,0.28346118999780606,0.2753593819693684
133,0.28462517502115403,0.26759148703707236
134,0.28306681038045006,0.2781260799801811
135,0.2831402153824921,0.26272627363171086
136,0.2817777176376441,0.2528036440227948
137,0.2805635797665369,0.2582055777899374
138,0.2803343288975654,0.2681946939573386
139,0.28096978620683355,0.25012877150699675
140,0.27854343810432153,0.25994895972552595
141,0.275834813583002,0.25974749302713535
142,0.2779501144953674,0.2505063510778483
143,0.28016047630545426,0.26338360421565354
144,0.2781356080568475,0.2664483901710141
145,0.27677654060456963,0.2668267974678512
146,0.2762093955545212,0.2514209763897434
147,0.27867220952618516,0.251579370558403
148,0.2742468214673485,0.2618640384738993
149,0.2744055839179517,0.2532382673791947
150,0.2757463953096708,0.2569181972492748
151,0.27201602855722584,0.2575437298725229
152,0.2734857179301915,0.2625037143690528
153,0.27302589880929384,0.25226347028456436
154,0.27186590340807376,0.2628656030877331
155,0.2717938546201499,0.2458069538190408
156,0.27087760540387995,0.2504908679480993
157,0.2695288284898376,0.26306981068242696
158,0.2699784647039086,0.24963373680846748
159,0.2691980294293637,0.24796722485921283
160,0.2661287934898282,0.2532117391488829
161,0.2637148620270425,0.24156247563924768
162,0.26454092834969695,0.23172062016794223
163,0.2637754338893959,0.23635497305839195
164,0.26377863937811696,0.2477504738974778
165,0.2639474319420654,0.23698735799296408
166,0.26416866609947287,0.23409192972091022
167,0.26525822019786666,0.24392298533160006
168,0.26460064032214053,0.24563923328762086
169,0.26338508428572466,0.25511961352100687
170,0.2613405667775445,0.23467459273836982
171,0.2633579265085056,0.23173129679701324
172,0.2599553575308965,0.23008946402861363
173,0.2587264550449275,0.22870189232579724
174,0.26133006370420175,0.2419188519514915
175,0.2646460200635363,0.24536127456549875
176,0.26365855587519804,0.25195558351518227
177,0.2628708561118558,0.2419732304520746
178,0.26365457647305124,0.2383586052561145
179,0.26228517731674,0.2551591855480432
180,0.26117675392318973,0.23448190751655326
181,0.2632556734599179,0.25425615303377136
182,0.2663278928239473,0.24330847626280014
183,0.26819478579276473,0.2556779313223891
184,0.26790509741607427,0.23817858157566238
185,0.26927198209374736,0.26639251005207354
186,0.2717113652460867,0.26272067373534685
187,0.273900407288286,0.26501905066626413
188,0.2727369330674529,0.25201799037800876
189,0.2688309450527366,0.24846146074024447
190,0.2678325526672397,0.2519242453617474
191,0.26293096408474265,0.2355707655671834
192,0.26277331439711205,0.24322212104639296
193,0.2607683154354564,0.2356859555419449
194,0.2571090133570367,0.2299971439138396
195,0.25316518692852114,0.2425201412440287
196,0.25236596913336756,0.22521091199052926
197,0.24909908289936997,0.23560948767526563
198,0.24815615717407993,0.22734681570398216
199,0.24828820088975054,0.22162396001505305
200,0.24716695011567344,0.22703775089607525
201,0.2456227510476665,0.21189128087088172
202,0.24703178448761873,0.21864137186388755
203,0.24537888646935768,0.22331981801949058
204,0.24379882764973515,0.23874143935040215
205,0.2371430497327678,0.19191629894154225
206,0.23006322545160968,0.22516986304319273
207,0.23578701839506103,0.2320858218604971
208,0.24157587986150614,0.22043359069111032
209,0.24281301716272588,0.21706276352281353
210,0.2453902191538319,0.23421230217134661
211,0.24655797639243798,0.22214254050059118
212,0.24965487919051013,0.24381992650154358
213,0.24916565693992315,0.22326847180524206
214,0.24854233917548693,0.22264949613983648
215,0.24797943086742308,0.22449455240295926
216,0.24959371161522817,0.23047410816118863
217,0.25033338961126705,0.2404562207710677
218,0.25178553929908287,0.22532921775458079
219,0.2512567938624812,0.2464518202108573
220,0.25143102664860795,0.23939737628178043
221,0.24934313119315415,0.25037023054631374
222,0.24990339966105232,0.25575182164101123
223,0.24939757274637978,0.23424071356971712
224,0.25071527476576594,0.2442760032020221
225,0.24972802836546223,0.23528296092926468
226,0.2521283933215385,0.23443319988984618
227,0.25132419794297617,0.23270916522443058
228,0.2520474159805704,0.24446308185899926
229,0.2518900278494131,0.24369970485038803
230,0.25219621472388243,0.2327279194119227
231,0.25241025441365655,0.2418335480725756
232,0.25185712373895136,0.23584866718974937
233,0.25281560824190874,0.23159146245389636
234,0.25265860464051665,0.23388536401451715
235,0.2524592286045793,0.2283612881928988
236,0.2526180768113056,0.24462780869185877
237,0.2530052861233028,0.23770690571160982
238,0.25290086549177443,0.22657652356865468
239,0.25270164634684006,0.2405859211484748
240,0.2509976633244472,0.23571924174876316
241,0.252375412747252,0.2261134555303119
242,0.2527740783542752,0.23116920180412945
243,0.25331481050053756,0.22810553450610757
244,0.2514990049836447,0.2311458373714265
245,0.2540243577947624,0.23258137916991725
246,0.25480053112875645,0.22869401551553745
247,0.25350320194479375,0.2406983579131874
248,0.2557103757759174,0.22366598061482174
249,0.25316118948060357,0.2250376556130404
250,0.2523960254961352,0.2608395837476711
251,0.2537140719753375,0.232198259013322
252,0.25281298215345416,0.22282797629756068
253,0.25276941530924624,0.23413202275934422
254,0.2524157775510892,0.2180683462753386
255,0.25314760717937795,0.2367314630803294
256,0.2542721779524184,0.2340556619528625
257,0.25238810723824656,0.23870292717580638
258,0.2526860480411924,0.23577958697066498
259,0.2531929186922755,0.23787307476987968
260,0.2521195770632163,0.23419485849805394
261,0.25367661167701466,0.2326763124685167
262,0.25381029438939123,0.22964552899891688
263,0.25283382516160763,0.24960039090291666
264,0.25163972626725356,0.22120521204059485
265,0.2522944090642232,0.23681605753695392
266,0.25408257952006125,0.22559258239468724
267,0.2528215471288855,0.24102322984231017
268,0.2526769234086398,0.22732364126990512
269,0.25386065767585136,0.22906169549348135
270,0.25391363507980924,0.2278537020710574
271,0.2544542274398388,0.24960810273015416
272,0.2550254669918907,0.23448685731300709
273,0.25295309085163664,0.2299925657172982
274,0.2522771686113043,0.238554100281814
275,0.2534725784445457,0.22519937131756765
276,0.25408194313565796,0.24307377924576648
277,0.25283824679234046,0.23633193686286955
278,0.2524202260122501,0.24644114825089522
279,0.2510037419083212,0.23375023415734097
280,0.25405488744509114,0.23484619169980406
281,0.2537809896955101,0.23400803866495556
282,0.25328779438559673,0.23997605326802315
283,0.25372676925955534,0.23572603643128698
284,0.25228784516227426,0.22386284368943302
285,0.251402967482162,0.235548818967619
286,0.2526933743561105,0.2390664901875471
287,0.2533715639790471,0.21665923444417487
288,0.2529259650267476,0.22754747043609996
289,0.25181225803997115,0.22835218405384855
290,0.2537847625122939,0.24072539258304315
291,0.2533369702007845,0.24898776114457408
292,0.2530436770116492,0.23836307567503853
293,0.2537542632955918,0.23536038322296307
294,0.2529942227615346,0.22293503811816673
295,0.2542948393906049,0.23870124920155933
296,0.25325616142994684,0.23534627556330404
297,0.25217929297833325,0.22498019124309943
298,0.25157473759232857,0.22412229661595284
299,0.25132575576349225,0.24842546067561516
300,0.25311166042094224,0.24071118996523455
301,0.252104960673814,0.2390266136687481
302,0.2546161913531099,0.24854731353936274
303,0.2545752562969613,0.2340492953699973
304,0.2540972793905093,0.2299888234676671
305,0.2529612093282451,0.23878235947972878
306,0.2527055395104521,0.23773486233641994
307,0.2518580670384385,0.2513696353973699
308,0.25345230858912954,0.23557336929518122
309,0.25345613811013223,0.2347693455882588
310,0.2526331816812595,0.23453568182032974
311,0.25187745615899515,0.23392398611898957
312,0.2536977497186306,0.23476107703152846
313,0.2558481510308721,0.25595113529214353
314,0.25394117994774446,0.23755628558577002
315,0.25230614893394504,0.2376252317179256
316,0.2520678157834031,0.2498048081841164
317,0.25354323791657135,0.2503381726326863
318,0.2522734956775638,0.2406363036915742
319,0.25305913312496137,0.2351702925555802
320,0.25294683645550103,0.25450320436009854
321,0.2539152510934692,0.23450904678856188
322,0.25443888079229116,0.23758532874868343
323,0.2524620855419184,0.23847401926577702
324,0.2536560613974679,0.2368795857856663
325,0.2541459328669915,0.2354930201523306
326,0.25551224886465795,0.2359654881066004
327,0.25328360756428886,0.22464015749419122
328,0.25360071464932316,0.23610610908283997
329,0.25269615514387045,0.22819203430023735
330,0.25376286142640453,0.23311517389392702
331,0.2534105446782234,0.23085107430286453
332,0.2533727258527212,0.2460440804545298
333,0.2541943718965867,0.24517842969653544
334,0.25383395877339954,0.23498281744774063
335,0.25452280634169955,0.22500804197204893
336,0.25326628924654926,0.2406908330502431
337,0.2553183430676266,0.2628428710664269
338,0.2568629187860077,0.24979537866580365
339,0.2557051460996425,0.2344895027336777
340,0.2531624910392635,0.24711308271374963
341,0.25444853040192433,0.22750395001298157
342,0.25415035847017614,0.24038710739778174
343,0.2550214552264705,0.24099356826356574
344,0.2539560602520772,0.2256824246827504
345,0.2553045579986416,0.23910524754328527
346,0.2544232364550388,0.22936645379523735
347,0.25644304391910894,0.23426308183568428
348,0.2552586442751469,0.2404793050337139
349,0.2525542200588399,0.240388012640384
350,0.25306880467539306,0.23771851450416548
351,0.25286662272459787,0.2401818697647307
352,0.25461686653889815,0.23953789220894992
353,0.252860996666715,0.23555559145717425
354,0.25461860756865506,0.24183627604356223
355,0.25341348203537845,0.2451080687302911
356,0.2550237735481762,0.24894692635291565
357,0.25557346047638513,0.23533839181406627
358,0.2550161001767567,0.24204838119488395
359,0.25582650317538747,0.2384177228434404
360,0.2557746817727836,0.22889427571383253
361,0.25408180657145885,0.23760074702839074
362,0.2545946648926567,0.23783203724245433
363,0.25384297741236067,0.24593068197099072
364,0.2554203521290557,0.2404568605095548
365,0.2541907241673683,0.2272244798050401
366,0.2564796611285515,0.24842615700793624
367,0.25618790274115205,0.2264111225729207
368,0.2535215283779027,0.2387084369007395
369,0.2548148689402951,0.23696010825007377
370,0.2572282367139507,0.24080036420613268
371,0.2556619565907142,0.2371546281023861
372,0.2569879535779202,0.23353721983524975
373,0.25605413605936234,0.2265940889328036
374,0.2541762770687362,0.23854033447854991
375,0.2555942791912386,0.25580088229704395
376,0.2553825157759287,0.23315400332094838
377,0.25649315959734503,0.23538980585388433
378,0.25362054887506885,0.2387812232162036
379,0.25442389737097004,0.22802309213234104
380,0.2559421903176083,0.2287563269380142
381,0.2546702078242096,0.23701110278750934
382,0.25540520177542164,0.2497703642735071
383,0.25575038945551015,0.2299026111354015
384,0.2577858582127104,0.2449978904029753
385,0.2570513796439464,0.2268855219623096
386,0.2545910982860269,0.225233789777417
387,0.25688673352166047,0.2507087276879501
388,0.25569887496799015,0.23025943933976573
389,0.2534561918365012,0.24790287691726398
390,0.25401379239502,0.246187211717784
391,0.25485629609806076,0.2427549417224002
392,0.2545142437902381,0.2329857201089799
393,0.2562572382372632,0.23332368062063757
394,0.2547953323982984,0.24129934334905484
395,0.25513399491231026,0.24732766298675687
396,0.25521422963109996,0.23990993659234744
397,0.25823840676404114,0.24428929200347427
398,0.25443036096702093,0.2284188533191523
399,0.25636112333225497,0.2369966937057033
400,0.2564649457494608,0.23319654835898196
401,0.253629395025049,0.23809457091054487
402,0.2533173532330161,0.24320163922979782
403,0.2553593652258865,0.2319300336191385
404,0.2536451751284367,0.24290575865647318
405,0.2549212245787267,0.24161009429332866
406,0.25635642614915405,0.23680553401231577
407,0.25500884478231317,0.2320154865919932
408,0.25330182291763864,0.23368443491050553
409,0.2559007271755037,0.23790348424107988
410,0.2558486785927265,0.23669482510016485
411,0.2557725300617832,0.230113260724362
412,0.25401288304897807,0.22509920371265607
413,0.2543260027512277,0.2305035901380131
414,0.2544149575735644,0.24184476331923077
415,0.25528493711797834,0.2313674015964028
416,0.25642530012021153,0.23669097855416638
417,0.25572651004691205,0.24451867406915848
418,0.2549421776899045,0.23694777135879108
419,0.2540920013539511,0.23071112036234578
420,0.2570174033347842,0.23849394185955164
421,0.25388237395041663,0.22676434913016533
422,0.2549438836525003,0.2431109498101327
423,0.254794389420419,0.24735574180814537
424,0.25385689108872966,0.24146385871950057
425,0.2542688038042314,0.240835225584475
426,0.25521899958689814,0.2371749341746626
427,0.25342021467421744,0.23177660311312778
428,0.2551839997609266,0.22822451910214248
429,0.2535796358847885,0.23933352920467119
430,0.25393137098740426,0.25275577066117794
431,0.25534232238309085,0.22627400910891976
432,0.25252206141142536,0.2351119694577114
433,0.2574372814118052,0.24766393972600456
434,0.25514257662325834,0.22974233352818071
435,0.25512610497973043,0.22918108427910328
436,0.2545716537834167,0.23649077005713778
437,0.25622224177626207,0.235194680287599
438,0.2537732653611665,0.24759831988115244
439,0.25530920078237945,0.2351785047772181
440,0.25400073450508354,0.24579091980500586
441,0.2554694942707162,0.24101897120334637
442,0.2542508993562844,0.23266879476800903
443,0.2541060527797035,0.22853276159411448
444,0.2535275798097408,0.23410879964657252
445,0.2555550668689368,0.23881803776395538
446,0.2527755888210212,0.2268430488191445
447,0.25383475929689253,0.23883292915177515
448,0.25453736892730877,0.2369890108692806
449,0.2549491930160401,0.25468242444809536
450,0.2534542491467451,0.23893301400643405
451,0.25372844612855705,0.22964811223928816
452,0.2545712612372794,0.2344356461500877
453,0.25259849140279106,0.24949676457030998
454,0.2550593337995543,0.22702060850379782
455,0.25337897684815214,0.22750453823837785
456,0.2538332340123651,0.23482205831073077
457,0.2543655883708446,0.23452582786002307
458,0.252866113887464,0.24386302698712323
459,0.2538654594291314,0.24250500940298036
460,0.25372216802278014,0.22959919937172554
461,0.2527038996501697,0.24941092056840447
462,0.2538489668215398,0.23822785564643148
463,0.25417665307589477,0.23099577759746123
464,0.25213131350245505,0.22831101960193104
465,0.2549762069214162,0.22910563027943412
466,0.2541001530216752,0.23714860328182802
467,0.25348584334269986,0.23285770462127586
468,0.25387416006349545,0.22888497302592412
469,0.2524828906896875,0.23614129989798274
470,0.2528614529567085,0.22972659829007233
471,0.2524822945479485,0.24363732606101995
472,0.2536845743942032,0.22839202125569263
473,0.25235102103530266,0.23493703976332342
474,0.25272545717555367,0.22675784370893556
475,0.25244686009286404,0.24086066952303065
476,0.25344698106666075,0.2343784809559466
477,0.25242232079271504,0.2342220823432671
478,0.25402361860306716,0.23914033940154544
479,0.2530341292147061,0.2273759844388751
480,0.25229702568311485,0.2414348972365907
481,0.25369860041889547,0.22424583087639255
482,0.2540356010841809,0.23417028433098602
483,0.2533912893048198,0.24186371288011652
484,0.25428549093093805,0.23987558600511152
485,0.2534821282366483,0.23520070433193244
486,0.2548359402661606,0.2306540131380733
487,0.2545422960659392,0.23266929168115946
488,0.25462352727457205,0.23146623015497836
489,0.2527354558964046,0.22954546998313025
490,0.25278755950389337,0.23594740501236708
491,0.2511946776811835,0.2314113721710166
492,0.25276017585079924,0.238180288670095
493,0.2516970471988956,0.24174707504643544
494,0.2553129367512479,0.22986515354432735
495,0.2534081621242942,0.2522215465320408
496,0.25148257904415794,0.23391410138019916
497,0.25351118830015523,0.22963615349878358
498,0.2554330542850361,0.23530680652716635
499,0.2540901692317639,0.23123189088342316
500,0.252310883328259,0.22387889405122965
