epoch,loss,val_loss
0,0.6678188232713276,0.6669394553105037
1,0.6668931822246975,0.6668245271841685
2,0.6668572948906156,0.6668147173325221
3,0.6668504592047797,0.6668059504429499
4,0.6668391445610258,0.6668073652982712
5,0.6668342424763574,0.6668449367284774
6,0.6668289787107043,0.6668155106703441
7,0.666826254884402,0.6668051449855169
8,0.6668254308170742,0.6668055339654286
9,0.6668222105503082,0.6668751963774363
10,0.6668203624751833,0.6670217082500458
11,0.6668178927898407,0.6668602257966996
12,0.6668178001112408,0.6668351625601451
13,0.6668149025440216,0.666809888124466
14,0.6668146891593933,0.6668155645132064
15,0.666813962896665,0.6669314942757288
16,0.6668117183579338,0.6668641892274221
17,0.6668125976986355,0.6668141142129899
18,0.6668116515212589,0.6669137880007426
19,0.6668096999724706,0.6668155652681986
20,0.6668093286620246,0.6668024141788482
21,0.6668101628621419,0.6668599158128102
22,0.6668096402486166,0.6668056319554647
23,0.6668085088332494,0.6668114633162816
24,0.6668086994886399,0.6668368872006735
25,0.6668078048759036,0.6668145311673482
26,0.6668079535563787,0.666811394572258
27,0.6668088255193498,0.6668169290224711
28,0.6668087149328655,0.6668164699474971
29,0.6668087143103282,0.6668152769009272
30,0.6668080600765016,0.666804991165797
31,0.6668087788025538,0.6668536907831828
32,0.6668077248334885,0.6668088742494583
33,0.6668080862495634,0.6668025318384171
34,0.6668070693280962,0.6668414855400722
35,0.6668065652185016,0.6668034349679947
36,0.6668070947859023,0.6667974232037862
37,0.6668073369661967,0.6667986324628195
38,0.6668067570527395,0.6668231966495514
39,0.6668067965639962,0.6668046185175578
40,0.6668067790932125,0.6668149549166361
41,0.6668061454693477,0.6668180450598399
42,0.6668058494196998,0.6668023813565572
43,0.6668062520689434,0.6668075689474742
44,0.6668057225545247,0.666827554901441
45,0.6668057287666532,0.6668063979148865
46,0.6668052843676673,0.6668254808584849
47,0.6668057267930773,0.6667960266272227
48,0.6668032668034236,0.6668007505337398
49,0.6668043638070424,0.6668352294762929
50,0.6668048163784874,0.6668077034950256
51,0.6668044700490103,0.6667996097405752
52,0.6668045865694682,0.6668504957755407
53,0.6668034279876285,0.6668001819849014
54,0.6668056635194355,0.6668048121531804
55,0.6668040014770296,0.6667996328274409
56,0.6668035179111693,0.666801660656929
57,0.6668053270048565,0.6668152502775192
58,0.6668035505480236,0.6668084859848022
59,0.6668040806319978,0.6667972083091736
60,0.6668052052524355,0.6668041128317516
61,0.6668043578598234,0.6667976100842158
62,0.6668037407928042,0.6668048190275828
63,0.6668040606843101,0.6668014347553253
64,0.6668049844370948,0.6668013026714324
65,0.6668034910625882,0.6668487961292267
66,0.666803829934862,0.6668277693986893
67,0.6668038443724315,0.666808844447136
