epoch,loss,val_loss
0,0.5571288577450646,0.5557801745335261
1,0.5558714712725745,0.5558727151552836
2,0.5558089070585039,0.5557398447990417
3,0.5557969267235862,0.5557396154006322
4,0.5557900130351384,0.5557472203175227
5,0.5557789574066798,0.5558056255578995
6,0.5557745344903734,0.5557831246852875
7,0.5557715278069179,0.5558006001313528
8,0.555767059246699,0.5558009945551554
9,0.5557618400255839,0.5557312291065852
10,0.5557629081010819,0.5557283436854681
11,0.5557606268458897,0.5558580296039581
12,0.5557552122672399,0.5557309844891231
13,0.5557549018594954,0.5557757971286774
14,0.555750024623341,0.555729651649793
15,0.5557486735582352,0.5557418755292892
16,0.5557438700993855,0.5557430661122004
17,0.55574254696899,0.555748969912529
18,0.555743758559227,0.5557547147274018
19,0.555740334947904,0.5557352547645569
20,0.5557381061580446,0.5557501444419225
21,0.5557358425458272,0.5557472058534623
22,0.5557375906573402,0.55572063434124
23,0.5557352377971013,0.5557237915992737
24,0.5557337866094377,0.555872288107872
25,0.5557339786556031,0.5557730145851771
26,0.5557332166565789,0.5557851355870564
27,0.555731434252527,0.5557149167060852
28,0.5557328310410181,0.5557555892864863
29,0.5557322058147854,0.5557335370381673
30,0.5557333022356034,0.5557267222801844
31,0.5557281712823444,0.5557182552019755
32,0.5557311583889856,0.5557478832801183
33,0.5557307983239492,0.5558059183756511
34,0.5557312463124593,0.5557524143854777
35,0.5557296411593755,0.5557518037954966
36,0.5557278588877784,0.5557533313830694
37,0.555727829946412,0.5557481496334076
38,0.5557269320885341,0.5557730349699657
39,0.5557271840969722,0.555737552801768
40,0.5557252498070399,0.5557278963724772
41,0.5557258047262827,0.5557189620335897
42,0.555725912226571,0.5557168490091959
43,0.5557241238355637,0.5557161509593328
44,0.555723708179262,0.5557121094465256
45,0.5557249687247806,0.5557242881059646
46,0.5557241601149241,0.555711993376414
47,0.5557226732969284,0.5557141000827154
48,0.555723947736952,0.5557357693513234
49,0.5557230699062348,0.5557819530566533
50,0.5557229089604484,0.55573115948836
51,0.5557213667631149,0.5557196898460388
52,0.5557126707898246,0.5556947767337164
53,0.5557046959929997,0.555716480255127
54,0.5557056790325376,0.5556959615945816
55,0.5557052146461275,0.5557067904869716
56,0.5557045738299687,0.5557108124891917
57,0.5557039158741633,0.5557016444206238
58,0.5557037985722224,0.55570865102609
59,0.5557038176589542,0.5557036542097727
60,0.5557025695641835,0.5556988081534704
61,0.5557039886977937,0.5557328374385834
62,0.5557034046782388,0.5557057307958603
63,0.5557037080658807,0.5557330342531204
64,0.5557035472922855,0.5557133184671402
65,0.5557035587761138,0.5556948536634445
66,0.5557026124265458,0.5556998643875122
67,0.5557032171222899,0.5556934727430344
68,0.5557027090390523,0.5557987064917882
69,0.5557028517458173,0.5556983596881231
70,0.5557040378914939,0.555695321559906
71,0.5557024731768502,0.5558016271988551
72,0.5557044528457854,0.5557430982589722
73,0.5557023287216822,0.555712180574735
74,0.5557025801738104,0.555713772892952
75,0.5557026352352566,0.5556934273640315
76,0.5557031344970067,0.5557060936292012
77,0.5557020588318506,0.555705295364062
78,0.5557027760744094,0.55570823264122
79,0.5557024820248286,0.5557723910808563
80,0.5557035486300786,0.5557437397638957
81,0.5557029554976357,0.5557097117900849
82,0.5557017104625702,0.5556956931352616
83,0.5557020477321413,0.5557093828121821
84,0.5557023164431254,0.5557052193880081
85,0.5557015876902475,0.5558022962808609
86,0.5557010402414534,0.5556966871023178
87,0.5557017553912269,0.5556925889650981
88,0.5557021508084403,0.5557201404968898
89,0.5557022072474161,0.5557011299530665
90,0.5557024401823679,0.5556959973573685
91,0.5557010663085513,0.5557015444437663
92,0.5557014295392566,0.5557120467821757
93,0.5557027422057258,0.5556973973910014
94,0.5557003063758215,0.5557086585760117
95,0.5557009193897248,0.5556981586615245
96,0.5557007968160841,0.5557003627618153
97,0.5557011036740409,0.5557477077643077
98,0.5557013648880853,0.5557258256276448
99,0.5557024879190657,0.5556927021741868
100,0.5557022446261511,0.5556931831041971
101,0.5557013529539109,0.5556941031217575
102,0.5557007177273432,0.5557090686559677
103,0.5557017764515347,0.5557126840750376
104,0.5557019173701604,0.5557114377419153
105,0.5557006483078003,0.5558484167257944
106,0.5557026761240429,0.5557717975378037
107,0.555702099998792,0.555696730295817
