epoch,loss,val_loss
0,0.4890874171323246,0.4447235541741053
1,0.44481261008315615,0.4446981255809466
2,0.44477344796392654,0.4447750534216563
3,0.44474836440881094,0.44468380270401636
4,0.4447372124261326,0.44474309134483336
5,0.4447278346220652,0.44472241137425106
6,0.44471814896000755,0.44469706614812216
7,0.4447050649788645,0.4447220812439919
8,0.444696284254392,0.4446662941177686
9,0.44469677681393094,0.4448211398323377
10,0.44469527716769114,0.44469297939538954
11,0.44468890841139685,0.44468513240416846
12,0.4446906919810507,0.4446799362699191
13,0.4446901891297764,0.4447027413447698
14,0.4446894595358107,0.44469418746232986
15,0.4446870055331124,0.4447320176561673
16,0.4446809642447366,0.44467533119519553
17,0.44468219851785235,0.4446676515340805
18,0.44468122923374176,0.4446736328005791
19,0.44467907406224144,0.4446886276404063
20,0.44467993984619775,0.44468454706668853
21,0.4446783781780137,0.44465999195973077
22,0.4446795997288492,0.444686927874883
23,0.4446781065000428,0.4446685825387637
24,0.4446762570142746,0.4447062990069389
25,0.44467549459139505,0.44472811454534533
26,0.4446739324000147,0.4446963736017545
27,0.4446766326891051,0.4446753455400467
28,0.44467280118995245,0.44466859885056814
29,0.4446726236343384,0.44467060869932173
30,0.44467201673322254,0.44466825246810915
31,0.44467184423075784,0.44466573182741803
32,0.4446705545518133,0.44470205456018447
33,0.4446722159186999,0.4447233876983325
34,0.4446704123682446,0.4446700014074643
35,0.4446718409260114,0.4446793597737948
36,0.44467042422956893,0.4446637600660324
37,0.44467225093974005,0.4446851593653361
38,0.44467166686720316,0.44472956719001133
39,0.4446722087065379,0.4446862147251765
40,0.44466921211613547,0.44466414429744083
41,0.44467075397570927,0.4446702484091123
