epoch,loss,val_loss
0,0.44633090956343546,0.4447602647940318
1,0.44485785480340323,0.44468355558315914
2,0.4447736869520611,0.4446814421614011
3,0.4447370322479142,0.4447022118767103
4,0.44470631941159566,0.4446485209266345
5,0.44469126415252686,0.44468608886003497
6,0.44468096097310383,0.44466125828027725
7,0.44467361806498634,0.4449642993410428
8,0.44467364448308944,0.4448094957470894
9,0.44467054921388627,0.4446921738386154
10,0.4446669947769907,0.44467412640651066
11,0.44466310854090585,0.4446333404978116
12,0.4446555418107245,0.4447014983693759
13,0.44465313934617573,0.4446326185464859
14,0.44465179629458323,0.4446245676279068
15,0.44465212506055835,0.4446520289580027
16,0.44464854384130903,0.444654286245505
17,0.4446511090927654,0.4446696613033613
18,0.4446474939783414,0.44463921610514323
19,0.44464556998676724,0.4446660531361898
20,0.4446435282429059,0.44467356288433074
21,0.4446434325642056,0.4446289176742236
22,0.4446431876487202,0.44465644095341367
23,0.4446416175100538,0.44464708272616066
24,0.44464045231872135,0.4446578126947085
25,0.44464029950565764,0.44463215178251264
26,0.4446384455561638,0.4446197807987531
27,0.4446377530429098,0.4446284225980441
28,0.44463842039638096,0.4446392082174619
29,0.44463643193244934,0.44462104378143946
30,0.44463789733250936,0.4446410046219826
31,0.444635891172621,0.4446239550113678
32,0.44463614580366345,0.4446214429338773
33,0.4446373193330235,0.44463393559058506
34,0.4446341968311204,0.4446371725797653
35,0.44463459318213994,0.4446321052114169
36,0.44463527272144954,0.44465253460407256
37,0.44463374197483063,0.44467835772037506
38,0.44463204977909726,0.4446462758183479
39,0.4446339266233974,0.44466742451985675
40,0.4446327695051829,0.4446742983063062
41,0.44463279722134275,0.44462028390169145
42,0.4446321625974443,0.4446367636124293
43,0.4446326950258679,0.4446197850505511
44,0.44463015936480627,0.44463472416003547
45,0.44463187056117587,0.4446288006703059
46,0.44463115433189604,0.4446579908132553
