epoch,loss,val_loss
0,0.44649846473667354,0.4451445702910423
1,0.4448481795920266,0.4453974031805992
2,0.4447702363530795,0.44478224104642866
3,0.4447350746393204,0.4452011371453603
4,0.4447228380507893,0.4447893633246422
5,0.444710161195861,0.44471638357639315
6,0.4447081578705046,0.44466983848810193
7,0.4446996369759242,0.4447321779727936
8,0.44469552607006496,0.44466244405508043
9,0.4446915593677097,0.44468808321158093
10,0.4446876771847407,0.44466301943858466
11,0.4446813078655137,0.44470996018250786
12,0.44467617964082296,0.44466018746296565
13,0.44467486664321687,0.4447221794128418
14,0.44467192310094833,0.44466875978310905
15,0.4446732657551765,0.444688229183356
16,0.44467405807971955,0.44465550074974697
17,0.4446727578971121,0.44466395658254626
18,0.4446713350746367,0.44483179078499474
19,0.44467062351438735,0.4449024919867516
20,0.44466877932680976,0.4447047131061554
21,0.44466427663299773,0.44465625103314715
22,0.4446650771167543,0.4446563650170962
23,0.4446614684661229,0.44465746253728866
24,0.44466275419129264,0.4449122697909673
25,0.4446640498373243,0.444668429116408
26,0.44466234964132306,0.44465107212464017
27,0.4446608877844281,0.44466577951113384
28,0.44465952661302355,0.4446525805989901
29,0.4446604709691471,0.4446594449877739
30,0.4446570956375864,0.44472114272912344
31,0.44465628276930913,0.4446455060839653
32,0.44465561550855637,0.44464371126890184
33,0.44465447198020086,0.4446553276181221
34,0.44465308636426926,0.44465182598431907
35,0.444651643190119,0.44466833444436393
36,0.4446572101579772,0.44473854051033657
37,0.4446518694228596,0.4446958388487498
38,0.4446519866453277,0.44466333178679146
39,0.44465113861031,0.44467580914497373
40,0.44465193957090376,0.44464377558231355
41,0.44465003121561475,0.44478122899929684
42,0.4446513301399019,0.44464538218577704
43,0.4446511127750079,0.4446851188540459
44,0.4446502067181799,0.4446546188791593
45,0.44465106714434094,0.4448228168288867
46,0.44464789317713843,0.4446737136244774
47,0.4446499740613831,0.44464923415581387
48,0.4446487496561474,0.4446809044480324
49,0.44464879563119675,0.44465691524744033
50,0.44464954537815515,0.44465789580345155
51,0.44464880501561693,0.44465453539292016
52,0.4446478567653232,0.4446372600197792
53,0.44464703669812944,0.4446992507179578
54,0.4446484986742337,0.4446382171114286
55,0.4446479987104734,0.4446584393580755
56,0.444647275560432,0.4446410797635714
57,0.44464801108837126,0.4446454283595085
58,0.4446466625332832,0.44463615824778874
59,0.4446473244097498,0.44464893758296964
60,0.44464518178833856,0.44466173235575357
61,0.44464427981111737,0.44464679463704426
62,0.444645845135053,0.44463097681601843
63,0.44464560558398564,0.44463489097356795
64,0.4446457608739535,0.4446376014550527
65,0.44464564218123753,0.4446696337064107
66,0.4446451836625735,0.44463180790344875
67,0.4446447096996837,0.4446414937178294
68,0.44464456016487547,0.4446377956867218
69,0.44464456666840446,0.44463521788517635
70,0.4446442024972704,0.4446585034132004
71,0.4446434843805101,0.4447428758343061
72,0.44464375838306214,0.444642545680205
73,0.4446430576377445,0.44465129299958545
74,0.44464193234841026,0.44466975921392443
75,0.44464283782906,0.4446315027276675
76,0.44464388337400224,0.44465592662493386
77,0.4446432376636399,0.4446357276240985
78,0.44464288451274236,0.4446741573413213
79,0.4446439223620627,0.44466400718688964
80,0.44464088683658176,0.4446381544073423
81,0.44464231070544985,0.44470998988548915
82,0.444641162123945,0.4446385407646497
