epoch,loss,val_loss
0,0.8698816442357169,0.7778959595362346
1,0.7779175606568655,0.7782936593294144
2,0.777908224635654,0.7779425744613012
3,0.7778953598207897,0.7778697248299916
4,0.777885701417923,0.7778649665514628
5,0.7778791114224328,0.7778635628620784
6,0.7778770671288172,0.7779180811246236
7,0.77787637646993,0.7779390182495117
8,0.7778731641504499,0.7778939845561981
9,0.7778729930056466,0.7778896889686584
10,0.7778708568149143,0.7778684269189835
11,0.7778687814739015,0.7778686349789301
12,0.7778679588105943,0.7778827743132909
13,0.777866440931956,0.7778548127015432
14,0.7778655748367309,0.7778595554033915
15,0.7778648546006944,0.7778992567459743
16,0.7778629740079244,0.7778658019304275
17,0.7778625227477816,0.7778827267885208
18,0.777862066467603,0.7778634517192841
19,0.7778615822924508,0.77785444688797
20,0.7778614174392489,0.7778556647300721
21,0.7778614262872272,0.7778631492455801
22,0.7778616912629869,0.7778831915458043
23,0.7778609215418498,0.777860874414444
24,0.7778619019852744,0.777875846306483
25,0.7778614699840546,0.7778552087148031
26,0.7778605445888307,0.7778857853015264
27,0.7778601440191268,0.7778555221160253
28,0.7778607158395979,0.7778668629725775
29,0.7778599937094582,0.7778648480176925
30,0.7778595324489805,0.7778574018081029
31,0.7778598387373818,0.7778575851122538
32,0.7778589064280192,0.7778658537864686
33,0.7778588279353248,0.7778666214545568
34,0.7778588593138589,0.7778532605568568
35,0.7778579262892406,0.7778746854464214
36,0.7778575944105784,0.7778559264739354
37,0.7778579568068187,0.777905370314916
38,0.7778581803772184,0.7778545019626617
39,0.7778579712311426,0.7778715636730195
40,0.7778579977618324,0.7778755739529928
41,0.7778581717411677,0.7778591829935709
42,0.7778578923410839,0.7778583965698878
43,0.7778580905993779,0.7778601092100144
44,0.7778576968378491,0.7778546429077784
45,0.7778570725917816,0.7779132852554321
46,0.7778575523561901,0.7778566892544428
47,0.7778579177591536,0.7778762261867523
48,0.7778575509786606,0.7778559014797211
49,0.7778578132126066,0.7778553427060445
50,0.7778571182489395,0.7778569080432256
51,0.7778569111294217,0.777855144182841
52,0.7778583556016286,0.777856582681338
53,0.7778576063050164,0.7778649420738221
54,0.777857150554657,0.7778920787970225
