epoch,loss,val_loss
0,0.4459769071274334,0.4446974348624547
1,0.44483706847164367,0.4446775262157122
2,0.44477806247605217,0.44469593771298727
3,0.4447540855407715,0.44470577595631283
4,0.4447353472775883,0.444768780430158
5,0.44472330357631046,0.4446948869029681
6,0.4447049885723326,0.44466053235530856
7,0.4446884112424321,0.44465740382671354
8,0.4446815371447139,0.44470207500457765
9,0.4446761437455813,0.4446454333662987
10,0.4446687539021174,0.4446357241074244
11,0.44466879109541574,0.44475528921683627
12,0.4446674751242002,0.444672353665034
13,0.4446588799688551,0.44465674883127215
14,0.44465887642569013,0.4446321558554967
15,0.4446552711791462,0.4446531291206678
16,0.44465299403005176,0.44467764256397885
17,0.44465357179111903,0.444634078959624
18,0.4446507710814476,0.4446530438264211
19,0.4446428467233976,0.4446207975546519
20,0.4446358582377434,0.44461878603696825
21,0.4446349683139059,0.4446278244058291
22,0.44463267356157304,0.44469547760486605
23,0.44462961114115185,0.44461498320102694
24,0.4446321496036318,0.4446335229078929
25,0.4446310182876057,0.4446269935766856
26,0.4446304466856851,0.44467928632100423
27,0.44463031802574793,0.444615688085556
28,0.44462931603193284,0.44461260255177815
29,0.44463105943467884,0.4446513223052025
30,0.4446308762364917,0.4446784341931343
31,0.44462975278827876,0.44461339952548345
32,0.44462873152891796,0.4446101369659106
33,0.44462847510973613,0.44463397133350374
34,0.4446277207136154,0.4446693199078242
35,0.4446286468108495,0.4446183609167735
36,0.4446280040012466,0.44462996820608774
37,0.44462713652186925,0.4446843625108401
38,0.4446274107562171,0.44461720617612205
39,0.44462602130572,0.4446184475223223
40,0.44462639199362863,0.4446137805581093
41,0.44462557197941677,0.44465916049480436
42,0.44462666034036213,0.4446073008378347
43,0.44462709596421984,0.4446161089936892
44,0.4446265149911245,0.4446287153363228
45,0.4446253336800469,0.44461915083726244
46,0.4446232913070255,0.44465836145480475
47,0.444623908592595,0.4446720895369848
48,0.4446229278643926,0.4446100247701009
49,0.44461941113736897,0.4446097182035446
50,0.4446213284863366,0.44469771172602973
51,0.44462059701813594,0.44461164142688114
52,0.4446216996245914,0.4446215319832166
53,0.4446220047208998,0.44461371111869813
54,0.4446209630767504,0.4446161403854688
55,0.44462332820892336,0.44463777456680936
56,0.44462233982483546,0.44460597046216327
57,0.44462042267454993,0.44461383575201036
58,0.4446208961539798,0.44467562448978426
59,0.44462162403265637,0.4446236233909925
60,0.44462107709381316,0.444683390100797
61,0.44462032767136894,0.44460759190718335
62,0.44462044697999953,0.44460550969839097
63,0.44462152436044483,0.4446108512878418
64,0.44462112596299913,0.44465944888194403
65,0.44461906672186324,0.44470711425940196
66,0.4446196900341246,0.4446312538981438
67,0.44462086991469063,0.4446137922207514
68,0.4446217805544535,0.4446098174850146
69,0.44461950634585484,0.4446089148521423
70,0.444619955321153,0.4446812867919604
71,0.4446187402009964,0.4446081116000811
72,0.44462017158004974,0.4446234357158343
73,0.4446211553282208,0.4446344000697136
74,0.4446202014684677,0.4446342953046163
75,0.44461888414621353,0.44466327158610025
76,0.44462040370702743,0.44460411512851716
77,0.4446202183432049,0.4447185293833415
78,0.4446189772884051,0.4446107438604037
79,0.44461984918514885,0.4446247565150261
80,0.44462043099270926,0.44462619775533674
81,0.4446173909637663,0.4446301912864049
82,0.44461920648813247,0.444618747929732
83,0.44461670496066413,0.4446661062637965
84,0.44461892751190396,0.44466017134984337
85,0.4446184769935078,0.4446368604699771
86,0.44461913073725173,0.4446096641023954
87,0.4446200841267904,0.4446099217534065
88,0.4446172109246254,0.4446108189026515
89,0.4446188188261456,0.44461027842760087
90,0.44461944016483096,0.44460903308788935
91,0.4446181954410341,0.44461505037546156
92,0.4446185467574332,0.44461763836940127
93,0.44461814261807336,0.44469495807091397
94,0.4446173757579592,0.4446282195448875
95,0.44461870215998756,0.4446127886573474
96,0.44461567229694793,0.44460764799515406
