epoch,loss,val_loss
0,0.31443027997489353,0.24974350068062567
1,0.22721403006246513,0.18886335450318995
2,0.19440827219246673,0.15730083757363386
3,0.15690206279389088,0.12435333759486918
4,0.15452985470000508,0.1489195499421133
5,0.14883737915677964,0.13298515644338396
6,0.14934181484331885,0.15064282999324877
7,0.1492800997067586,0.12267287430222791
8,0.14906850775735106,0.15069639315376993
9,0.14988152016762546,0.12700769310667567
10,0.14668929902873964,0.1386967273149564
11,0.15113527540436641,0.13124204907394094
12,0.15218721368939903,0.12182462247449599
13,0.150886789492195,0.14169880983458238
14,0.15005066364800768,0.12143217041689694
15,0.14767316244154857,0.12949980999624836
16,0.14762449122255472,0.11935518443318566
17,0.14771617652536678,0.12250081861251172
18,0.146917130144908,0.12378337117031349
19,0.15085028723967944,0.1325706216625247
20,0.1526667361078356,0.1306698724675836
21,0.14626219026666817,0.12451570839995016
22,0.1461082615101452,0.1203415538127695
23,0.1489107381817911,0.12833430707478852
24,0.15039013259953934,0.11979035538260954
25,0.14920981638759875,0.12459585109887235
26,0.14486990005278988,0.11390502075305917
27,0.14533491437438967,0.12696484976054592
28,0.14801826600352222,0.11762697670823273
29,0.14923851805820382,0.12450201438992176
30,0.1475569392629773,0.12812959611875105
31,0.15141523236914384,0.12692983692023974
32,0.1484352104198799,0.1401183407962177
33,0.14650385461753612,0.12036245648008194
34,0.14874249149421104,0.1290559492286201
35,0.1472580765155528,0.13311093339253902
36,0.14631999296854264,0.11551919350489696
37,0.14484397015326303,0.13605890177123836
38,0.14772214747076515,0.1268347977129599
39,0.14563601570512602,0.13233307273476858
40,0.14670673420457386,0.12190493170265637
41,0.14615458313277285,0.12112699469003074
42,0.14494372045008347,0.1261361022657335
43,0.14733777784580607,0.1264250622541075
44,0.1457624428177042,0.12408416356894415
45,0.14757238434041567,0.14857982155857102
46,0.14483823890896966,0.131007223511651
47,0.14517580051783374,0.1221211716979863
48,0.14784844034464004,0.12827000712004505
49,0.14401818060571905,0.11558561033696928
50,0.14325402021479663,0.11872408216983829
51,0.14491373392417012,0.1288466654893159
52,0.14592962240795787,0.1278870399415928
53,0.1471597336178975,0.12261944181993543
54,0.14479110394123557,0.11710520419205289
55,0.14599575022693345,0.1312127720023787
56,0.14413112934956177,0.12161022314721748
57,0.14707278254761802,0.12611358796472194
58,0.1459469748250812,0.12916034414747915
59,0.14591679987225464,0.12551965983244626
60,0.1469941580559226,0.12118469346057856
61,0.14542918924907383,0.1252488040660613
62,0.14609504070839852,0.11930403630011273
63,0.14426605121267616,0.11903872811035325
64,0.14614612037678354,0.12065419826629388
65,0.14539321615778988,0.12453696842925488
66,0.1451115271119808,0.12780994246355035
67,0.1473414872476967,0.1355136440884071
68,0.14692617417145387,0.11410218718954923
69,0.1470026242568361,0.12814515460484993
70,0.14608591942308996,0.12272813395330409
71,0.14704711604908144,0.11849593091982705
72,0.1458877539925808,0.12199738297221724
73,0.14736992494464876,0.11940967909756078
74,0.1451153548522364,0.12064350427816481
75,0.14540286365750316,0.12453932016604524
76,0.14541344551013125,0.1388750481574108
77,0.14686040143617352,0.12229087917377382
78,0.14440608468410776,0.12756362373714802
79,0.14722576471652576,0.1176463666659782
80,0.1469094488617656,0.11426534268035216
81,0.1470946833175168,0.1309840172130406
82,0.14603495391442167,0.13677927930231318
83,0.1460276572130698,0.12425687964718611
84,0.14686657436746803,0.12705915869007436
85,0.1451980514411596,0.1149789318079786
86,0.14672586565510667,0.12708776642999703
87,0.14494081610460297,0.12950222189360677
88,0.14542132051731702,0.11487187814369303
89,0.14511996379392064,0.12539691500371777
90,0.14663087579908612,0.12328772742938725
91,0.14524265393328437,0.11781350330473056
92,0.14717569418424506,0.13999143193890579
93,0.14630194195957066,0.12570777841196346
94,0.14617441409976603,0.1315802374532913
95,0.1477781662507187,0.12776790034186036
96,0.14849278966697146,0.1285585962532017
97,0.14449363265088122,0.11568482851629226
98,0.14789102491650513,0.13430208977484065
99,0.14568421363031225,0.13348842756059823
100,0.1451290406978684,0.1190596275448509
101,0.14608468878581773,0.1264405117913271
102,0.14511556236790696,0.11626300087617068
103,0.14439087310691087,0.12417740507137456
104,0.14751989552206857,0.1288271523583061
105,0.1464773242274602,0.13185064035368854
106,0.146277399586023,0.12013740003084808
107,0.14631998592956338,0.1166457246569048
108,0.14568273328823314,0.12279444427772547
109,0.1457226461558651,0.12282335906858281
110,0.14629622437566925,0.12818114470391379
111,0.14552401210232865,0.11972332504688968
112,0.14458967447042273,0.11964369370675339
113,0.14370152866654248,0.11514049848210782
114,0.14547963008535109,0.1283059291668472
115,0.1457142220695225,0.11545402436409166
116,0.1450695104485421,0.1132893349192825
117,0.14503624369565538,0.11771829552579874
118,0.14522412486726327,0.12123298277022485
119,0.1455371039863631,0.12561355264130783
120,0.14578666185156358,0.12456869810747113
121,0.14568773989645456,0.12617743122244113
122,0.14614676014543343,0.12721272543471515
123,0.14634459046385973,0.12169313286366931
124,0.14652117074514218,0.12979425031870048
125,0.14622825445880214,0.12026472330480113
126,0.14628954306602765,0.11704992522264242
127,0.14540120969422823,0.1205033350672455
128,0.14504860989970145,0.11989265172126713
129,0.14730602930828607,0.12872672669547222
130,0.14797533442787497,0.13487446277922763
131,0.1450429038913418,0.12286532158447491
132,0.14474761817720624,0.12807476797291445
133,0.1463136732894435,0.12319905624482463
134,0.14717322479697872,0.12846247812571412
135,0.14645408294659504,0.11955460621420194
136,0.1480113490342235,0.1259671525677722
137,0.1469443359727665,0.13556586976396487
138,0.14597002105762044,0.11449113038020316
139,0.14594520887641835,0.13020410077511926
140,0.1464630818908648,0.13376595571165828
141,0.14524076741525802,0.12768555328020312
142,0.14563716327946027,0.11832422098418319
143,0.14776461891191686,0.12387867038049837
144,0.14581970393872432,0.12723493722886065
145,0.14508095175159083,0.1158299939669155
146,0.14610563225751882,0.12251866315789853
147,0.14583757195809635,0.11693138540371201
148,0.1472756558443137,0.12423639511878376
149,0.14503920854056618,0.13110092586240243
150,0.14482037488034097,0.12959510203381427
151,0.145837053289716,0.12610569522570325
152,0.144647291996438,0.13128244853899523
153,0.14606520089449837,0.13111320551898745
154,0.1467104335729364,0.12175813097950895
155,0.14626576819474263,0.12352778304546516
156,0.1472745343768377,0.12576818768318745
157,0.14589246441785386,0.12345739052195136
158,0.14612855382257695,0.11764409122361658
159,0.14774628264234485,0.12719379714104767
160,0.14576940297233382,0.13525385784237537
161,0.1490908620134891,0.13584478399493496
162,0.14699114741290734,0.11931642058508626
163,0.14718212877468073,0.11877019731788643
164,0.1458436680124033,0.11912925439280218
165,0.14523464329451252,0.12478430328674657
166,0.14418556182395467,0.11836036559970806
167,0.14754079300179493,0.11754291407939195
168,0.14487763070721354,0.12433153063977335
169,0.14769118570023962,0.12924492990617722
170,0.1440702903034498,0.1278024318613662
171,0.14587115749919577,0.12806138683892998
172,0.14687011193773383,0.12180724933997268
173,0.14508739861550093,0.12517183133841334
174,0.14458469104907626,0.12055771416604567
175,0.14667555713374392,0.11800136242518074
176,0.14518745653659368,0.12487953071635811
177,0.14809844872837452,0.12266254006897832
178,0.14461984191898158,0.12599960487375197
179,0.14584807456553794,0.12832095726587284
180,0.14561952471589928,0.12842858901182425
181,0.1454689189332356,0.12639072257647743
182,0.14715932155724426,0.11797747454044787
183,0.1455483371563393,0.11754300984322107
184,0.14596283111312658,0.1325293233601523
185,0.14666303192631447,0.1363690512772991
186,0.14815533428107672,0.12759254575500814
187,0.14689848420498752,0.12953663764208773
188,0.14591589079404754,0.11889953786221734
189,0.14319414138090047,0.1266463264363719
190,0.14672671103651663,0.1146016369928022
191,0.14644491308636431,0.1225462372611909
192,0.14629154102958805,0.12084213633389368
193,0.14643804437583022,0.12765266018143923
194,0.14536926534483202,0.13544042283987864
195,0.14491291602758813,0.13114524841767836
196,0.14569832446028272,0.1183413834358654
197,0.1460248919977867,0.12459119159761523
198,0.14517703888605268,0.12679172842026917
199,0.14585924128576028,0.12259470853298926
200,0.14606274014489473,0.12869772366387808
201,0.14767415790234784,0.12535949873179802
202,0.1447534133688367,0.12349113614720633
203,0.14598142926553614,0.12268313290573965
204,0.14526621164311115,0.12412039522876221
205,0.14643702514952808,0.1334619897584652
206,0.14790813058459634,0.11787325934796244
207,0.14698906428664565,0.12295038315308161
208,0.14570673460288464,0.11957790699560084
209,0.14760175653344826,0.1266273250448346
210,0.1453243609312012,0.12847588292269424
211,0.14492948979342146,0.12314928136312758
212,0.14608720283182838,0.13026614400761358
213,0.14737110085087457,0.11952189883007233
214,0.14597192968877915,0.14286763024639523
215,0.14673842085872868,0.134810465301137
216,0.14606627879486836,0.12881426835267987
217,0.145570713030495,0.12636903405117003
218,0.1444175910977147,0.1328710282624783
219,0.14812899528561926,0.12076222868175499
220,0.14748689544210442,0.1190811296183214
221,0.14917104987441013,0.11530581835751019
222,0.1463569705281332,0.129419243278923
223,0.14795369590171056,0.12166965499048976
224,0.14726189049699004,0.12852088294905178
225,0.14722006308068458,0.12866438101049563
226,0.14585028273509063,0.12475753536890506
227,0.1452627390402379,0.11744553894287962
228,0.14379598230743904,0.1283903865797773
229,0.145472341583217,0.1180460729001019
230,0.14544988300702016,0.11888884598901382
231,0.14539831772064857,0.12747901399519418
232,0.14423615605331022,0.12854063405148497
233,0.14513566860372873,0.11877262555455542
234,0.14677438707507734,0.12781228575272377
235,0.14546485063586356,0.13229513684376795
236,0.14544257186681295,0.13606040466755073
237,0.1458215302943563,0.12703883064199248
238,0.14587309219545608,0.12001777119445105
239,0.14688020151815384,0.12592255015950424
240,0.1472673038001343,0.1373422517345286
241,0.1478915116738519,0.12639185785038726
242,0.14640732174567742,0.13335407614127853
243,0.14593813254880467,0.1430339697274075
244,0.1466758163441554,0.1225909489385983
245,0.14716208951355364,0.12978058843136994
246,0.14557288934866652,0.13826422253736903
247,0.14623501047408513,0.13674113800370008
248,0.14479289348539207,0.1273252620797571
249,0.14547519075025836,0.1190723822258008
250,0.14618137879692333,0.12227844573188776
251,0.14721327008391685,0.1320683686342166
252,0.14558475567184515,0.13088007129891946
253,0.14578929011396066,0.12120561546435321
254,0.14513141201664392,0.11963545520157709
255,0.14707271769058236,0.12578924586399726
256,0.14725807207741673,0.12443867472014772
257,0.1458038684514592,0.1337325554839596
258,0.14729602889920637,0.12702112095030169
259,0.14724964828933593,0.12338204958022173
260,0.145817602359003,0.12917618781013984
261,0.14567744926966314,0.12896535423526123
262,0.14478954362919372,0.11836692082355009
263,0.14600117305656068,0.13019070996081838
264,0.14596996397627077,0.12625628190125668
265,0.14677872830588784,0.11541817072002461
266,0.14682042229774478,0.11691316649233144
267,0.14498826955930533,0.12072427690464214
268,0.14455346021953347,0.12072304607235312
269,0.14708744438053417,0.12697246252571967
270,0.14675810475877707,0.1218867765049188
271,0.14904154058966376,0.11784203490733326
272,0.14583723450764072,0.1397478201601047
273,0.14591047366122134,0.12558396967899868
274,0.14631509490973288,0.146984359595414
275,0.14599204115611347,0.12592337887797622
276,0.14497083123680876,0.12721869619585882
277,0.14729649832455802,0.12728956123604004
278,0.1464053239282653,0.11971113143151887
279,0.14609442859160318,0.11557886209293583
280,0.1449965708423033,0.13291031066011047
281,0.14669385359132642,0.1259912251821883
282,0.1464585120870983,0.12037349688093157
283,0.14581497496454787,0.12202534914645159
284,0.14644282875214223,0.12361809324899149
285,0.14640774226801886,0.12572007478250302
286,0.14540309890555897,0.11408649299169882
287,0.1469190429368193,0.11912203807344499
288,0.14867971701513202,0.12489819837264288
289,0.1454223397048451,0.12401636613159768
290,0.14697984057822353,0.12579053871194618
291,0.1459751164017199,0.14478253601579674
292,0.14644807068596752,0.1295180497789228
293,0.1470204065020701,0.12089526365055656
294,0.14454684036674262,0.13365749295103
295,0.14403429425495257,0.1309203151175382
296,0.1473096766180282,0.12405831131114287
297,0.14451672359883452,0.12109250274380338
298,0.14623735695361517,0.11809064027916003
299,0.14670848943967166,0.11934214877531187
300,0.14377232451883673,0.12551633243215635
301,0.14453086615193358,0.13660431432100398
302,0.1452204984716409,0.11789227243805937
303,0.14699220632891163,0.12320259524643759
304,0.14903581024612114,0.11974044583453845
305,0.14457318228814867,0.12713449882208963
306,0.1464525752658363,0.12339129921922042
307,0.14689314498710002,0.12276436699084509
308,0.14629644174591078,0.1208801588099465
309,0.14651572243500652,0.12358421993057417
310,0.1461587859402665,0.12608176762871112
311,0.14505711675966806,0.14235912399957165
312,0.14635540948236725,0.12073330218025272
313,0.1456642550698894,0.121426682330106
314,0.14555852712274456,0.12180660543578095
315,0.1433815250905444,0.1233748463371471
316,0.14490088851774952,0.134357048308859
317,0.1454170073469798,0.11961180618257902
318,0.14669491948665764,0.11852144799818377
319,0.14782892064667874,0.12519264343252823
320,0.14628968393210892,0.13394306399478045
321,0.14569837042541386,0.12046793505658199
322,0.14638436456815637,0.11299800592424032
323,0.14587169228564556,0.11623243370002011
324,0.14429093484548305,0.11998994253871892
325,0.14522665985721983,0.11673805023946128
326,0.14529147669911577,0.12097767894575485
327,0.14615250268191982,0.13077732051714397
328,0.14706758902765352,0.1286862459205943
329,0.14508467541934492,0.1406417058452976
330,0.1474095415368712,0.13950164825787703
331,0.14541222415476726,0.11992935980130093
332,0.14548655669745492,0.1286098519332604
333,0.1461136768504178,0.13762558275789916
334,0.14724681226072833,0.13430955835647537
335,0.14551859907060266,0.12328668746610821
336,0.14507623281094242,0.12113201391595413
337,0.14498607865911278,0.13214071256328383
338,0.14724489150522613,0.1270086849644623
339,0.1463730346211631,0.12408339864266953
340,0.14587327903561634,0.11903993643379172
341,0.14492350169498505,0.12078709758981301
342,0.1446601848891251,0.12018911864998277
343,0.14596295167055962,0.12623980764030734
344,0.14502707225165432,0.11546024080103041
345,0.14465104284777558,0.12352298812250345
346,0.1459954253034748,0.13308068039160093
347,0.14793316580003218,0.12530423425264892
348,0.1457302073737065,0.13027409129962628
349,0.1449186083099382,0.12616730982321409
350,0.1471872551320456,0.12245625026058783
351,0.14490541305133492,0.1140221948799619
352,0.1450746445040449,0.13223188109423992
353,0.14680815198786074,0.12449142870410902
354,0.14557521462774545,0.11752101184387857
355,0.14618984992810494,0.11649236971299434
356,0.14475140009251378,0.15213169030005239
357,0.14746767769547536,0.1233040856836486
358,0.14820577072395716,0.13013828039435188
359,0.145310148984504,0.12455753110113515
360,0.14561844864387433,0.1188370505980815
361,0.14820163903103245,0.12646907422350173
362,0.14870130511118565,0.12753349609086886
363,0.14543587083609893,0.1273052736041223
364,0.14622654557359324,0.13148777085958413
365,0.14562842899484574,0.11608494464715902
366,0.14699463899418103,0.13834332935783986
367,0.14612198772551632,0.12311556265181095
368,0.14488003160163246,0.11950606481751483
369,0.1467388966549531,0.12360905377316649
370,0.1455634130214194,0.11971406830174113
371,0.14650770977401945,0.11531650728190322
372,0.14662390847125942,0.122947666609761
373,0.14788418945023496,0.1297631172186847
374,0.14610378126545942,0.12946905039208553
375,0.1461386114710851,0.11532112885952382
376,0.14629782572555675,0.12378709500433464
377,0.14744968603464295,0.13553101702352316
378,0.14559289705667428,0.12413558322220243
379,0.14571661218475876,0.120802683690797
380,0.14840395567570333,0.12866518316550266
381,0.14931341527615957,0.1149948226939056
382,0.1489102514095312,0.1293769275281648
383,0.1490233206034327,0.12437241786104436
384,0.14572093843387737,0.12968951787585084
385,0.14606543840039626,0.1227461907163637
386,0.1487263036105898,0.12259317921823538
387,0.1471146146227733,0.12129644053139922
388,0.14755042980882146,0.12874980360293717
389,0.1470233116588228,0.12595456644638903
390,0.14842415578645454,0.13433751515856818
391,0.15020991670336123,0.12353205474792993
392,0.1494448537661659,0.12691691576443545
393,0.14805775514548067,0.13706936665477543
394,0.14771484190507161,0.1316911968291531
395,0.14920172963837225,0.1240655070371678
396,0.14844104304933567,0.13124962416322658
397,0.14824947525707602,0.11917860217434743
398,0.14706699463655892,0.12220709230101215
399,0.14637045272655064,0.12023160633814596
400,0.1455844447368665,0.12886408034225644
401,0.14722047852959225,0.12934278730009982
402,0.1464676909220276,0.12244464231644427
403,0.1475824143609302,0.11597208688994877
404,0.14714706005801478,0.12664167543107285
405,0.1469151642922166,0.12020622272971966
406,0.14718961307377793,0.1184881344099211
407,0.14778383987977373,0.13279845020510953
408,0.1464638893751262,0.12538362199565983
409,0.14842090894094556,0.12504677627981917
410,0.14739576984850095,0.12746879913438555
411,0.14850689808996895,0.13215242285773895
412,0.14965158732260486,0.12258619214472302
413,0.14904275434829886,0.12424654878573213
414,0.14677630557870272,0.12705057890238264
415,0.14720914931334048,0.11984276034342788
416,0.14483290392938283,0.11566233499593495
417,0.14606728746866685,0.12379085397633323
418,0.1460365557564412,0.13637951943972007
419,0.14763321419409794,0.12227476808179807
420,0.14600851759016276,0.13004201752740197
421,0.14681627973019362,0.1299867440628406
422,0.15007946921215715,0.117870073115932
423,0.1470888126507294,0.11967293554969852
424,0.14545869024051392,0.12512211815815868
425,0.14763759574096044,0.12588981338395205
426,0.14749308361756125,0.13941738657828567
427,0.14515480171557996,0.1372360282268644
428,0.14691636301249003,0.12525252083018845
429,0.1461301667122148,0.13094417755065269
430,0.1465908081275974,0.13834290075306957
431,0.14516332591052433,0.11627687181482833
432,0.14494375208075091,0.12918253265931562
433,0.14451552502470938,0.1265881842263617
434,0.14491159385674185,0.12623167063947238
435,0.1443432665603747,0.12029668530456825
436,0.14798126063996359,0.11286651280867986
437,0.1468421944094191,0.1193844489300048
438,0.147761321848063,0.12922244529267782
439,0.14541016884440416,0.11911715047444547
440,0.14686218578759147,0.13036800681070304
441,0.14700078427063837,0.12581444340127323
442,0.14560948673775903,0.12278616961336485
443,0.1450833281050261,0.1312252740584924
444,0.1466370096938719,0.12722558229678255
445,0.14658278863939694,0.14177373232922705
446,0.14809876946721962,0.13686144186995036
447,0.14689131768597805,0.11976923205605002
448,0.14739887173279367,0.12902555490835643
449,0.1452164204568983,0.13227765161819025
450,0.14648121845624368,0.12397554254541529
451,0.1480742211582615,0.12200482971573495
452,0.14719509960915014,0.13135593985143176
453,0.14754727222711397,0.12985351930666242
454,0.1461810355363272,0.14336429050514007
455,0.1482271613527814,0.14009727201660957
456,0.1482215277952037,0.13987711899810368
457,0.1482845033266193,0.1230224962289606
458,0.14739867077291824,0.1270299195784045
459,0.14724919936053746,0.12091388323156213
460,0.14612937313590268,0.12501214827740956
461,0.14715492860186663,0.12035790981312448
462,0.14809447013324886,0.13893947837948314
463,0.1491919905305195,0.1285710437140229
464,0.14702461012381854,0.12651264602854692
465,0.1466788835346317,0.14420710265370568
466,0.14710986596928108,0.15173139423736207
467,0.14990059916284965,0.13047287786577352
468,0.14954154021005997,0.13037465238416476
469,0.15082456093964527,0.12424379003454009
470,0.15002390874730195,0.13041491772064037
471,0.15159401254023047,0.13162814049897692
472,0.15092082689698932,0.12719727520259144
473,0.15263139076524967,0.12811092297574514
474,0.14878365608026162,0.12944760650323836
475,0.15149484867986152,0.13059908533521716
476,0.1503419319899966,0.12934014334706687
477,0.15115844078356022,0.13581449507047563
478,0.15297832812747067,0.1355713571014679
479,0.15332441247874398,0.1425695595212903
480,0.15310244148282456,0.1247797814188019
481,0.14963532330168544,0.1394361376291064
482,0.14978973752706407,0.12102202915821439
483,0.15311067080120738,0.1402384553162044
484,0.1511614183135468,0.1279476202982089
485,0.15217985578471896,0.12948839704219828
486,0.14856790986249122,0.13947438496404418
487,0.15187216426929634,0.13666381137649508
488,0.15166810775895992,0.12694630838948734
489,0.15176017959717752,0.13251748218201856
490,0.1504813018885014,0.1440294204522997
491,0.15257875959249476,0.13187832152659779
492,0.1510080769747567,0.12571179082455522
493,0.1524484393278583,0.14012685363140903
494,0.15302723673007507,0.1448036715182848
495,0.15233227329028903,0.1238416401973026
496,0.15101383956338615,0.14085352710249555
497,0.1543941324154695,0.13148658501478297
498,0.1533466669245421,0.13774152930949823
499,0.1541455765042284,0.14443453455710933
500,0.15352799334795214,0.12819526528234126
501,0.15510714294804964,0.13589127975102855
502,0.15440961223742883,0.12505290834935623
503,0.15395793569288413,0.13473945130372764
504,0.15340886456523542,0.13298505291475674
505,0.15560327394842338,0.14017223735964598
506,0.15390971810926046,0.13765035729193628
507,0.15328718729919677,0.12916728092201918
508,0.15185098183617962,0.12967742588567424
509,0.1527342028659377,0.13576556509549503
510,0.15247278659641028,0.13500373122272508
511,0.15382303289466615,0.14065997804071684
512,0.1524429208963656,0.13454607702543941
513,0.15185510515092945,0.14301818612863257
514,0.15131036654484567,0.12978235030333782
515,0.1537561678648997,0.13547583430135338
516,0.15577965172185146,0.1359862477034451
517,0.15337881605156523,0.1394243684249106
518,0.15508173831743752,0.136373539270179
519,0.15272485857025636,0.1215384901959724
520,0.15314552321242655,0.14629099684233407
521,0.1543157160210552,0.13640861590872522
522,0.15608400075709083,0.14592419508527374
523,0.15439862254753506,0.1270053548812383
524,0.15383471969404727,0.14669963282994497
525,0.15522019398377074,0.1339419741978127
526,0.15455165989488195,0.15199618914073207
527,0.15495238247647392,0.12682103405541167
528,0.15577400148547202,0.14928200030631392
529,0.1557351069046174,0.14143799922737954
530,0.15605229130976672,0.13381919721013052
531,0.15602739536172872,0.13333636189947645
532,0.15573513200335068,0.14027107783139284
533,0.15570120426943246,0.13947969697421872
534,0.1581643843401471,0.12802851919782712
535,0.15488753149254594,0.13134626216962872
536,0.1551004190555661,0.12992409727893414
