epoch,loss,val_loss
0,0.3391614394320382,0.3357409078280131
1,0.27355905839469696,0.22491196342309316
2,0.22509703926576508,0.22490461907784143
3,0.22501255207922724,0.22513731280962626
4,0.22505540076560443,0.22534527231256168
5,0.22642099714279174,0.22474607898791632
6,0.22490212380223804,0.2248790590862433
7,0.22484172567394045,0.2251842630604903
8,0.2248248507645395,0.224784425030152
9,0.22500937035679816,0.22492221172650656
10,0.2248192186024454,0.22477037111918133
11,0.22482820344964663,0.22483666451772055
12,0.22481775570909182,0.22568097042044002
13,0.22476471458209885,0.2246639110147953
14,0.2248252806464831,0.22464656708637873
15,0.22475212398502561,0.2247031429509322
16,0.22474847564763492,0.22487407365441323
17,0.22481965912712945,0.2246537734170755
18,0.2247387347916762,0.22469942166407902
19,0.22745510092046525,0.22461401685078938
20,0.22474408387475545,0.22467918022473654
21,0.22472816803389126,0.22474615548054377
22,0.2251207800673114,0.22461757246653238
23,0.2247421421441767,0.22503762182593345
24,0.22473133037487666,0.22466724043091138
25,0.22471255204081536,0.22462951174378396
26,0.2247184316251013,0.22468663319945337
27,0.22472491389513016,0.22481494077046713
28,0.2247043590479427,0.22473374092578888
29,0.22471992879443697,0.22473004752397538
30,0.224711304065254,0.2247419377764066
31,0.22470838015940453,0.22460952719052632
32,0.2247109445962641,0.22491779518127442
33,0.22470324659016397,0.2246237657268842
34,0.22470675841967264,0.22514649295806885
35,0.22470513621634908,0.22463701496521632
36,0.22470658145679367,0.2246303965250651
37,0.22469268254439037,0.22462910181283952
38,0.22471285651458633,0.22523626601696015
39,0.22470907551381322,0.2249939888616403
40,0.22469322168827058,0.22481042317549388
41,0.2247224462562137,0.2246194200515747
42,0.22472326045566135,0.22461475891868274
43,0.22469752963715128,0.22477049671610197
44,0.22471052612860998,0.22477231433987618
45,0.22471240454581048,0.22462082369128863
46,0.22472737630539472,0.22481138851245244
47,0.22468491699960497,0.22461914841334024
48,0.2246937119960785,0.22477531632781028
49,0.22469405942824153,0.22463018040855726
50,0.22469233161542151,0.22485011717677117
51,0.22469596256481278,0.22465297395984332
