epoch,loss,val_loss
0,0.5585605122778151,0.5571291417678197
1,0.5586762726306915,0.5572092634439468
2,0.557263467974133,0.557119506239891
3,0.5855790040095648,0.6678304853439331
4,0.6678682123422622,0.6677971527179082
5,0.6780975405640073,0.6678186233838399
6,0.6679597596195009,0.6678008752266565
7,0.6699044850799772,0.6678019238710403
8,0.6678811444044113,0.6678129087289174
9,0.6678307449155384,0.6713591310977935
10,0.6687040789922079,0.6677779945929845
11,0.6678148415883383,0.6678020408153534
12,0.667807042254342,0.6677562267780304
13,0.6677939514584011,0.6677379665374756
14,0.6677890096108119,0.6678884109258652
15,0.6677844622135163,0.6677655841509501
16,0.6677726719644335,0.6677412966092428
17,0.6677677715619406,0.6677349732716878
18,0.6683206755320231,0.6677990960677465
19,0.6679415198961893,0.6678637305895487
20,0.6678476877212525,0.6678590136369069
21,0.6678091917037964,0.6677171047131221
22,0.668034128136105,0.6677569812138875
