epoch,loss,val_loss
0,0.5588261098066966,0.5573175771236419
1,0.5574606156746547,0.5571711357434591
2,0.5596291518211365,0.5572290758689245
3,0.5571759927140342,0.5570621718565623
4,0.557146858241823,0.5574508113861084
5,0.5571301064226363,0.5570625790754954
6,0.557087776237064,0.5570698234637579
7,0.5570842026604547,0.5572615556319555
8,0.5570582385063172,0.5570560032924017
9,0.5570559265878465,0.5570171736876169
10,0.557875968615214,0.5570107525587082
11,0.5570469836393992,0.5575615555445353
12,0.5570430745018853,0.5570690656503041
13,0.5570359636942546,0.5569682019154231
14,0.5619935675859451,0.6871887016296386
15,0.6682217639949587,0.6678466056585312
16,0.6678245816098319,0.6677690880298615
17,0.6681528456873363,0.6677354422807693
18,0.6677746214469273,0.6677913673321406
19,0.6677723474635018,0.6677570197979609
20,0.6677743899292417,0.7466855808099111
21,0.7188549325466156,1.0000000568230947
22,1.0000000112586551,1.0
23,1.0,1.0
24,1.0,1.0
25,1.0,1.0
26,1.0,1.0
27,1.0,1.0
28,1.0,1.0
29,1.0,1.0
30,1.0,1.0
31,1.0,1.0
32,1.0,1.0
33,1.0,1.0
