epoch,loss,val_loss
0,0.8505875434213215,0.7790824942588807
1,0.7793186328013738,0.7785640605688096
2,0.7786657381720014,0.7785969448884328
3,0.778566650695271,0.778524043003718
4,0.7785740798711777,0.7785239298741022
5,0.7785514548884498,0.7785336093902588
6,0.7786100149552028,0.7785434825817744
7,0.7786868996222814,0.7785612967809041
8,0.7785349170631832,0.7785606974363327
9,0.778569734427664,0.7785733651320139
10,0.7785322890811497,0.7785302762190501
11,0.7785325005451839,0.7786438969373704
12,0.7787001615232891,0.7786165416638057
13,0.7785126966105567,0.7784850873152415
14,0.778505329436726,0.778493153532346
15,0.7785087319347593,0.778499905069669
16,0.7785063858429591,0.7784773851235708
17,0.7785093807379405,0.778510235508283
18,0.778497311923239,0.7785046912034352
19,0.7784971944755978,0.7784788430531819
20,0.7785028861893548,0.7784801276127498
21,0.7784971044460932,0.7786274071534475
22,0.778493979493777,0.7786210013230642
23,0.7784925925334295,0.7785565911928812
24,0.7784941219356325,0.7784833051760991
25,0.778503754734993,0.7784928607940674
26,0.7784881613254547,0.7784742693503698
27,0.7805350567102433,0.7789039124647776
28,0.7785240891377131,0.7787142115036646
29,0.7785120859675937,0.7785100218057632
30,0.7785071019199159,0.7784794251521429
31,0.7784958353837331,0.7784618077278137
32,0.7784976380401187,0.7784677282969157
33,0.7785136478609509,0.7784652444124222
34,0.7784947589900758,0.7784793404340744
35,0.7784966944323646,0.7785838412443796
36,0.7784896873103248,0.7784901207288106
37,0.7786674647463693,0.778471221446991
38,0.7784794159730275,0.7784642644325892
39,0.7784893030590482,0.7784981780052185
40,0.7785007964107725,0.7784616204897563
41,0.7784869269927343,0.7784879482189814
42,0.7784827623764674,0.7784542512496312
43,0.7785921940538618,0.7784872981707255
44,0.7784832642343309,0.7785007317066193
45,0.7784865071111255,0.7785678317944209
46,0.7784853431383769,0.7784505466222763
47,0.7784817991786533,0.7784826035499572
48,0.7784840227365494,0.7784545672734579
49,0.7784842964675691,0.7784568376143773
50,0.7784811875952614,0.7784711791276931
51,0.7784834951957067,0.7784602723121643
52,0.7784853690862655,0.7784853331645329
53,0.7784785401026408,0.7784770150581996
54,0.7784812339014477,0.7784587086836497
55,0.7784799039363861,0.7784944830735524
56,0.778482457809978,0.7784944483041764
57,0.778484709819158,0.7784695016940435
58,0.7784803357654148,0.7784744669993718
59,0.7784841369258033,0.7785463108619054
60,0.7784811486535602,0.7784801454941431
61,0.778479465312428,0.7786090021928151
62,0.7784819139109718,0.7784536834160487
63,0.7784815928936004,0.7784577428897221
64,0.7784790107541614,0.7784698619842529
65,0.7784836345778571,0.7784593974351883
66,0.7784814304510752,0.7784552487929662
