epoch,loss,val_loss
0,0.77926107609272,0.7786097402969996
1,0.7786912455161412,0.7785708365837732
2,0.7787085403203964,0.778802049001058
3,0.7786030659278234,0.7785259219408035
4,0.77856875705719,0.7785196095307668
5,0.7785546538299984,0.7785138057867685
6,0.7785447813404931,0.7784957378307978
7,0.7785503191683028,0.7785516262451808
8,0.7785255959431331,0.778586515545845
9,0.7785227305094401,0.7784883068799973
10,0.778509045097563,0.7784887762864431
11,0.7785088644425074,0.7785181474685668
12,0.7785521964099672,0.778478695432345
13,0.7785180495050218,0.7784692507982254
14,0.7786032918161816,0.7784732852379481
15,0.7785001690917545,0.7784878726402918
16,0.7797126250399483,0.7784841842651368
17,0.7784892214404212,0.7785333208243053
18,0.7785076708528731,0.7784830873012543
19,0.7785000176429748,0.7784768759012223
20,0.7785495042668449,0.7784923654794693
21,0.7784944081703822,0.778480571826299
22,0.7784994415177239,0.7784886015256246
23,0.7784969447321362,0.778584536155065
24,0.7785399125284619,0.7784853172302246
25,0.778747415277693,0.7784801118373871
26,0.7784918589724434,0.7784920143286387
27,0.7784905475775401,0.778493422627449
28,0.7784928146335813,0.7784963676929474
29,0.7784943852689531,0.7784739172856013
30,0.7784920329385333,0.7784627254009246
31,0.7784862083329095,0.7785102993249893
32,0.7784915807776981,0.7784646970033645
33,0.7784885227282842,0.7785180446306864
34,0.7784874356720183,0.77848422173659
35,0.7784879929886924,0.7784939461946487
36,0.7784891382720736,0.7784546760718027
37,0.7784828117688497,0.7784783587455749
38,0.7784821930858824,0.7784564620653788
39,0.7784863351583481,0.7784804702202479
40,0.7784849490854475,0.7784683807690939
41,0.7784841999345355,0.778490370074908
42,0.7784852052794562,0.7784655661980311
43,0.7784844464858373,0.7784542209307352
44,0.778481907274988,0.7784724123080572
45,0.7784914527071847,0.7786676225264867
46,0.7784797316392262,0.7784653060038884
47,0.7784835422039031,0.778461522102356
48,0.778484557694859,0.7786002517938614
49,0.7784837443033854,0.7784639048178991
50,0.7784854051669439,0.7784716863234837
51,0.77848242410024,0.7786583105723063
52,0.7784829261965222,0.7784602831204732
53,0.7784810888502333,0.7784611446460088
54,0.7784808801677492,0.778491019487381
55,0.7784845387803183,0.778500858147939
56,0.7784782005813387,0.7785002415577571
57,0.7784830803208881,0.7785070236921311
58,0.7784838154845768,0.7784752440055211
59,0.7784810383717219,0.7785072797934214
60,0.7784921919107437,0.7784720642169317
61,0.7784788550668292,0.7784622779289881
62,0.7784819319380655,0.7784638897577921
63,0.7784804399278429,0.778451990365982
64,0.7784857287671831,0.7786020808617274
65,0.7784829172558254,0.7785080714623134
66,0.7784832585122851,0.7784605708916982
67,0.7784786070452796,0.7785029875834782
68,0.7784855137666067,0.7785758414665858
69,0.7784774299462637,0.7784593297243119
70,0.7784793501032723,0.7784598776102066
71,0.7784822660154767,0.7784651611248652
72,0.7784817634291119,0.7784492593606313
73,0.7784995220899582,0.778486877044042
74,0.7784806530210707,0.778517968138059
75,0.7784791166120105,0.7784726399978001
76,0.7784768343236711,0.7784644944667816
77,0.778814296192593,0.7786054312388102
78,0.7784852073325051,0.7785364518165588
79,0.7784827676746581,0.7784528905550638
80,0.77848042345047,0.7784626938501994
81,0.7784801199966007,0.7785147535403569
82,0.7784797145525615,0.7784506050348282
83,0.7784800055027008,0.7785543664296468
84,0.7784827797810236,0.7784713604847591
85,0.7784774792326821,0.7784873673518499
86,0.7785649685064951,0.778452838977178
87,0.7784772735701667,0.7785145524740219
88,0.7784799337387085,0.7784527247746785
89,0.7784819162819121,0.7784551792939504
90,0.7784801197714276,0.7786260076761246
91,0.7784771359761556,0.7784648890892665
92,0.7784792914655474,0.7784508277177811
