epoch,loss,val_loss
0,0.4691157627238168,0.7787074877023696
1,0.7786659379270342,0.7785718936522802
2,0.7786212891605165,0.7785399624903997
3,0.7787064457204607,0.7785528271595638
4,0.7786020515362422,0.778591397245725
5,0.7785838436550564,0.778583594918251
6,0.778590837849511,0.7785100445350012
7,0.778549927353859,0.7787459709246953
8,0.7785425137678782,0.7785348464647929
9,0.7786379463142818,0.7785050882101059
10,0.7785225629806518,0.7785211544036865
11,0.7787406943639119,0.7785254171689351
12,0.7785176918771531,0.7785162393252055
13,0.7785270813173718,0.7785214624404907
14,0.7785125091340807,0.7784913482268652
15,0.7785090195602841,0.7784987599054972
16,0.7785037140978707,0.778505115032196
17,0.675589732421769,0.6677669907013575
18,0.6677746077246136,0.6677398830652237
19,0.6677657902505663,0.6677995587189992
20,0.6677614578141107,0.6677354139089584
21,0.667763892531395,0.6678495071729025
22,0.6677593960629569,0.6677504808505376
23,0.667768982052803,0.6677176958719889
24,0.6677501750919554,0.6678112362623214
25,0.667751194940673,0.6677296874523163
26,0.6677499700917138,0.6677580320437749
27,0.6677468572192722,0.6677227515379588
28,0.6677451742755042,0.6677641054391861
29,0.6677432041962942,0.6677459878921509
30,0.6677461436854468,0.6677251902421315
31,0.6677427646319072,0.6677036284605662
32,0.6677408427529865,0.667722150405248
33,0.6677533177932103,0.6678951692183812
34,0.6677367221646838,0.6677294286489487
35,0.6677350983222325,0.6678603020906448
36,0.6677381241056655,0.667732330083847
37,0.6677333508067661,0.6677299373149872
38,0.6677309650182724,0.6677123124202092
39,0.6677529615826077,0.6678068449099859
40,0.6677290745311313,0.6677770992120107
41,0.6677285951375961,0.6677816707293193
42,0.6677270111110475,0.6677246930201849
43,0.6678018622133467,0.6677393953402837
44,0.6677378794882033,0.6680814299583435
45,0.6677303776343664,0.6676830458243688
46,0.6677231347428427,0.6677631887992224
47,0.6677254045671887,0.6679291199445725
48,0.66772223452727,0.6679081477324168
49,0.6677241534656948,0.6677815969785055
50,0.6979901872608397,0.6677466086943944
51,0.66773435804579,0.667701648314794
52,0.6677328915993372,0.6677178060213724
53,0.6677438443634245,0.6677308286428452
54,0.6677364909119076,0.6677297708590826
55,0.6677266023159028,0.6677446732918422
56,0.6677617132928636,0.667760436574618
57,0.6677317100365957,0.6676920582850774
58,0.667722137371699,0.6679343611001969
59,0.6677274685833189,0.6676965947945913
60,0.6677432731654909,0.6677876270612081
61,0.6677404457198249,0.6677067464192709
62,0.667722552312745,0.6677190968592962
63,0.6678517350355784,0.6677693497339885
64,0.6677258151239819,0.6678242692550024
65,0.6677238999207814,0.6678003053665161
