epoch,loss,val_loss
0,0.5821118653378273,0.5593021513302218
1,0.5593277508255758,0.5587414449094392
2,0.5541022202714293,0.546517807121365
3,0.5234586608263895,0.5247606566160266
4,0.5219934849255992,0.5255639003720456
5,0.5220484825225608,0.5216050333315154
6,0.5218842040146392,0.5225863088445821
7,0.5218893695025023,0.522502823819655
8,0.5217421089882542,0.521398101771655
9,0.5191705193451145,0.5102591103210524
10,0.5093571628151222,0.5092159780415745
11,0.509375773157957,0.5091406777646703
12,0.5093743792589287,0.5093202633721343
13,0.5092304299869239,0.5093990273364676
14,0.49775889618519253,0.4968087358115981
15,0.49701702611699444,0.4968902719160616
16,0.49688613619343436,0.49766705634539327
17,0.4969453693218391,0.498446328519483
18,0.49691753719719145,0.49702600492827953
19,0.49686132879943595,0.49668501267468745
20,0.496867408286837,0.4974782014267973
21,0.49690022863211003,0.4969084647593818
22,0.4968293526434002,0.4968269785284085
23,0.4968582204561077,0.49703310905224607
24,0.4968148250598979,0.49938596683150815
25,0.4968470697989781,0.4965853684906596
26,0.49676350203909486,0.4967515117047544
27,0.4967863071585186,0.49657382169759257
28,0.4967842239806311,0.4974410155777144
29,0.4967988369162284,0.4966373768469478
30,0.49679327929666844,0.49672279193359403
31,0.496805715921503,0.496988926185429
32,0.4967393547174398,0.4968906407416407
33,0.49675911898555597,0.49667336768061215
34,0.49677620852824017,0.49657665611075813
35,0.496674092327269,0.49655944265678015
36,0.4967504476208778,0.49675067367657905
37,0.4967005175213875,0.4965978474150248
38,0.4967017525688206,0.49707844584444355
39,0.4967034640962104,0.4965637862936475
40,0.49668965621087413,0.49655888806039133
41,0.49668361171580594,0.49657378000399005
42,0.49667163651763857,0.4971542260875116
43,0.48646699078517835,0.4842839362111348
44,0.48438112924217963,0.4843290381796683
45,0.4844018535958847,0.48496381915956177
46,0.48439835751528515,0.484266769967551
47,0.4844329296945354,0.48511872778758
48,0.4844286266936615,0.48429919524374093
49,0.48438078124745615,0.4842807958913455
50,0.4843607919127547,0.48426289863581345
51,0.4844073524727426,0.4842532793631412
52,0.4843536941201581,0.48452089152214983
53,0.4843831026886178,0.48447046625739115
54,0.4843777697113781,0.48426223708143623
55,0.4844128196010241,0.4845614968713847
56,0.48433359383698094,0.4843176402023195
57,0.48441896250439576,0.4843229230544266
58,0.48433240543046124,0.48428772688229654
59,0.4843388452522735,0.4844564076193401
60,0.48435381627318325,0.4845255725886517
61,0.4843692964304543,0.4845124872248811
62,0.48433702818808105,0.48436568867230545
63,0.48435129243502395,0.48438046395323336
64,0.47666177131491677,0.4719861557564572
65,0.472083111573935,0.4720831064596378
66,0.47205269358301954,0.47232174416972555
67,0.47205534619302036,0.47235020903017066
68,0.4720664160379024,0.4720081397739095
69,0.4720670550381818,0.471973575263829
70,0.4720357362903028,0.4721858383527465
71,0.47204259950458927,0.4719897117786709
72,0.4720841980862601,0.4723393345391651
73,0.4720265752750985,0.4719976929030806
74,0.4720503334045568,0.4721022742555713
75,0.4720380737815296,0.4720241871835665
76,0.47205939336068387,0.47197081643388505
77,0.47206803606453135,0.47262043911327706
78,0.4720132984396582,0.4719684403167988
79,0.4720688873526187,0.47208075658172544
80,0.4720118678145286,0.4722213656382612
81,0.4720356944200765,0.47225149571207325
82,0.47204934195441844,0.47194770674210795
83,0.47202516092381447,0.4721175987219849
84,0.4720195173754133,0.4719672055720097
85,0.4720268779920629,0.472070252086367
86,0.4720322638005318,0.4720627576361585
87,0.47204434228569725,0.4719639596601938
88,0.47202097164855195,0.47211233231436406
89,0.472005259476209,0.4720936585042336
90,0.47202601109935327,0.47199904712717494
91,0.47203881508262036,0.471976999788391
92,0.4720331730110285,0.471924736066067
93,0.4719960886605537,0.4723350503586986
94,0.47202290151076143,0.47199053302881117
95,0.47202389118830507,0.47236034368871477
96,0.47201117710262774,0.47256144852129134
97,0.47199106848663175,0.47217301086456953
98,0.47201603824000044,0.4720056031774852
99,0.4720492198501026,0.47196789732579125
100,0.47200381467738095,0.47199884118989766
101,0.47199779957166504,0.47215862016543164
102,0.4720343469438287,0.47197947190400447
103,0.47202776889845416,0.47218408890506647
104,0.4719997491999646,0.47238308776862925
105,0.4720090956888638,0.47203497768909686
106,0.47201434599866715,0.4719421707635071
107,0.47199178800196145,0.47198258648759034
108,0.4720156000674323,0.47209946670632186
109,0.47199103702748746,0.4719650401307118
110,0.4720151354259517,0.47216703758228734
111,0.47197443015719365,0.4719466863474386
112,0.4719937785164185,0.4719449321030088
