epoch,loss,val_loss
0,0.5569302304433105,0.5465204925705683
1,0.547116859198876,0.5486206164430356
2,0.5466305606839647,0.5463722479620842
3,0.5464930791350202,0.5459506470074046
4,0.5441303924020808,0.5337017784005987
5,0.5327757473728033,0.521326594707237
6,0.5215710298031315,0.5213260743393104
7,0.5213988593222899,0.5228106591286001
8,0.5212654908510365,0.5209975680146087
9,0.5211801387730187,0.5214824881090282
10,0.5211156123986274,0.5217837026009532
11,0.5210858529248874,0.5214967878446377
12,0.521053530908866,0.5211197822295999
13,0.5211408283104113,0.5210917306679098
14,0.5210218743436822,0.521874683770305
15,0.5209357420839686,0.5209806852769335
16,0.5209807992577313,0.5208955277958651
17,0.52092912508316,0.5207432524140128
18,0.511102285716242,0.5086126108007758
19,0.508605608908047,0.5092344518600677
20,0.5085867370273669,0.5084891680884179
21,0.5085940349502143,0.5085667245107215
22,0.5085691256655509,0.5084815252989896
23,0.5085322163099194,0.5084435995592066
24,0.508511676375953,0.5083906737054129
25,0.5085247737938873,0.5088479287100423
26,0.5085149803654531,0.5084328481159491
27,0.5042968405093022,0.496099924089261
28,0.49618272391471824,0.49606340422598966
29,0.4961852802440941,0.49621873232606334
30,0.4961817377731869,0.4963647290272746
31,0.4961554371647345,0.49689571959423035
32,0.49619801326568574,0.4965358104793063
33,0.4961718500449724,0.49658564826929247
34,0.49615414879333175,0.49613939181994665
35,0.4961423541118062,0.4960355226100709
36,0.4961365482301543,0.49729133384501795
37,0.49618276945720174,0.4960991536285467
38,0.4961345670721172,0.496160041965077
39,0.49608153355246704,0.4959835339278687
40,0.4960797844504458,0.4959487320898608
41,0.4960522732515672,0.495990930738278
42,0.4960498114379869,0.49608889218438984
43,0.4960766012211674,0.49613258081656575
44,0.49605011721092995,0.49593724056530386
45,0.49608506314506057,0.4959157096871603
46,0.49604671121710986,0.4960386536646152
47,0.49601450319989543,0.4963678412813131
48,0.4960681158857524,0.49599494331470495
49,0.4959986831534097,0.49607370543657814
50,0.4959907854850321,0.4960907570664339
51,0.4959974937762338,0.49588770836957036
52,0.495975365178776,0.4959529451979564
53,0.4960164482255197,0.4963518045134518
54,0.49602014242869996,0.4959431696497202
55,0.4959648278189493,0.4961665708920443
56,0.49594937533067474,0.49606365104152794
57,0.4959895395182461,0.49634638744765264
58,0.4959549768634276,0.4969524358438755
59,0.49599847034533,0.49591512295890183
60,0.495971501532906,0.49611230100063136
61,0.49594504227193115,0.49610772109472173
62,0.49600269608055764,0.4959130191764859
63,0.4959538609003341,0.4967026355836675
64,0.4959506547360378,0.4961217302351867
65,0.4959487416813583,0.49647137243151773
66,0.49595534990178725,0.49650333892983556
67,0.4959606186321747,0.4959042813198078
68,0.4959871532259546,0.4961127372348387
69,0.4959339818738283,0.4958993988586459
70,0.4871791163263304,0.4713449412551479
71,0.4713780604590374,0.4714564150763481
72,0.4713359986265716,0.4716430505610927
73,0.47132758990169815,0.47140580229891366
74,0.47136446819562494,0.4713113642507642
75,0.46398038703903344,0.45897595901263927
76,0.45903035283447297,0.4590509203086422
77,0.4590503521348135,0.45908970275004013
78,0.4589969857683242,0.4590270377577759
79,0.4590367247992978,0.4590562954531785
80,0.45903682095850257,0.4589650037234027
81,0.45902573157060483,0.4590043887551586
82,0.4590169892604877,0.4593661514326446
83,0.45902144586153015,0.45910894561034155
84,0.4590456864734832,0.45900073219709486
85,0.4590217056881967,0.4591039395296334
86,0.4590296026584078,0.459230058764793
87,0.4590389429216945,0.45913445248572476
88,0.45903058427915194,0.45914319992001895
89,0.459027876455402,0.4591160272012322
90,0.4589799334473055,0.4590661683553149
91,0.4590330429230985,0.46027984410963807
92,0.4590404727245932,0.45910432008236546
93,0.4590199888380812,0.4590458112460594
94,0.45899475850340493,0.45902817133138396
95,0.4589941106422697,0.4600830171942224
96,0.459015116311911,0.4593535660956168
97,0.4590105461243257,0.4589495248238853
98,0.4589904094941325,0.4590007084092401
99,0.4590253658047545,0.4592855948445894
100,0.4589890655171886,0.4589772757627884
101,0.4589850216476385,0.4590106121196398
102,0.45897036426445786,0.4592237177846444
103,0.4590208758314926,0.45932383090125284
104,0.4589993296298795,0.4590843439017462
105,0.4589967821655951,0.4594146108400718
106,0.4590037009465965,0.45912713305864183
107,0.4589905588777705,0.459032943980862
108,0.4590030539452862,0.45899213053422405
109,0.4589881776145371,0.45899778334491736
110,0.4589856165363581,0.45900026966547497
111,0.4589851900307247,0.45919217985420546
112,0.458993389791317,0.4590748912075905
113,0.4589859729832029,0.45914446991509456
114,0.4589740564846757,0.45917847192950306
115,0.459039306160309,0.45908686681737443
116,0.4589786888055535,0.4589749463478315
117,0.45897642071024536,0.45948626189698627
