epoch,loss,val_loss
0,0.5337272075962715,0.5101133798447441
1,0.5030823489275396,0.48657153281824145
2,0.4857732625034681,0.48543975713897247
3,0.47481866396100064,0.47459371931431327
4,0.4733059128941095,0.47292303676862746
5,0.4732367155257791,0.4741580872208298
6,0.47307492948511387,0.4730548047483613
7,0.4730626076850265,0.47809282358193783
8,0.4730420984343853,0.47298123453624463
9,0.47298103362758825,0.47286570565085106
10,0.47294327117739,0.4727066536529129
11,0.4729169017582363,0.47266828195835686
12,0.4729121079279302,0.47330411923971494
13,0.47292487979483044,0.4731905210513716
14,0.47283833694189187,0.4726114894001538
15,0.46210122729255887,0.460368265805352
16,0.4605120262454279,0.46106083389602603
17,0.46053511781079415,0.46126097271827426
18,0.4490099700871192,0.4481417946894695
19,0.43788631288808805,0.42358497165303644
20,0.42375401563544113,0.4238850692064391
21,0.42368582147524897,0.4240711205889603
22,0.42367201796810167,0.4238765040274559
23,0.4238062154616479,0.42355460348889973
24,0.4236870499250435,0.4235187155682826
25,0.423658450297235,0.42368748769240855
26,0.42364844790663747,0.4236466305773473
27,0.4236308785936485,0.42384659653130125
28,0.42362507094999086,0.4235417745659334
29,0.4236096760149233,0.42393456330877954
30,0.42360933546778023,0.42346721863763587
31,0.4236220574478927,0.4236478299394893
32,0.42358601151178643,0.4236792265511169
33,0.4236298384539827,0.4239194188210739
34,0.42364021407918884,0.42459531857184224
35,0.42355661807426875,0.4235917694732973
36,0.4235462960398745,0.424180770041062
37,0.4235902953508478,0.42396663189421413
38,0.42356039563599257,0.4234460580833938
39,0.4235571384342396,0.4235361542100698
40,0.4236053323043749,0.4236639481832681
41,0.42352849378421925,0.42343752888003344
42,0.4235543187450086,0.4241991450338047
43,0.42358345729597036,0.424134446293788
44,0.4235594017277997,0.42428220112024306
45,0.4235288862971192,0.42346981109554593
46,0.42359231854359336,0.42348979332239933
47,0.42352625828248786,0.42341543618390437
48,0.4235503065244984,0.42363150674319644
49,0.42354249265728355,0.4234362364789482
50,0.4235971589533968,0.4237969198136288
51,0.42351637411993476,0.4236866071658779
52,0.42350056350258,0.4237125335186111
53,0.42356931387348895,0.4234926966478101
54,0.423540942754389,0.4235759611652003
55,0.4235180362469238,0.4234878344748875
56,0.4235198712975523,0.4234577884606727
57,0.4235062475940557,0.42356377144884017
58,0.42353886428859616,0.42344146911872177
59,0.42349314920687703,0.4234321430195795
60,0.42352700051893816,0.42344116428157197
61,0.4234774431330789,0.423806921677387
62,0.4234966254804424,0.4234380982584588
63,0.4235399324290464,0.423614455801616
64,0.4235068511876202,0.42468772871728516
65,0.4235216736310661,0.42346921904638957
66,0.4235229121947454,0.4235864987295418
67,0.4234889912629852,0.42368057776268303
