epoch,loss,val_loss
0,0.5107959408321772,0.4990902804241953
1,0.4982515377047829,0.4984310790486098
2,0.49810759126215276,0.49735199376943373
3,0.48838823531113745,0.47308124701111454
4,0.47315395440026786,0.4727220294646671
5,0.4731480956316181,0.4726351025282839
6,0.47304640708200757,0.4727159707568259
7,0.47300499133031704,0.47290289129874574
8,0.4729589890275423,0.4726326024898692
9,0.46441057346999304,0.4603975882568756
10,0.4605936348914061,0.4604390633637792
11,0.46060598490052784,0.46070720709371915
12,0.4606378042592299,0.46038462402427105
13,0.4606146968548721,0.46038166010415793
14,0.46050734924895087,0.461393489626293
15,0.4604201361067182,0.46035393522971263
16,0.4604112280438167,0.46031432161642066
17,0.45413847150407743,0.44802142468179007
18,0.4436030777764546,0.4376861331866931
19,0.4358082139785985,0.4358134533323812
20,0.4358724720706723,0.4359716284357648
21,0.4357681177411975,0.4364896649460023
22,0.435801244879485,0.43558684408632936
23,0.4358456112128673,0.4355972141138634
24,0.43571353469350255,0.435859101982137
25,0.4357785747871645,0.4356039160414855
26,0.4357393076906528,0.4355653898714702
27,0.4356544540738959,0.4354992718282782
28,0.43571535737902983,0.4354771112840835
29,0.4357107560690297,0.43552271831435874
30,0.4356952146672343,0.43552535724673774
31,0.435662874828553,0.43737722918203276
32,0.4356473655741854,0.43564590524771557
33,0.43560130419409687,0.4359020702494548
34,0.43563573807636785,0.4363128812651076
35,0.43567684141582685,0.43770474192833136
36,0.4355922764326951,0.43610429832092035
37,0.4356245856473494,0.43558282801028697
38,0.43557761378608706,0.4356864315935299
39,0.4355726488026184,0.4357736234841539
40,0.4355790287917699,0.4355042732975415
41,0.4356019526969241,0.43568719241309495
42,0.43559439877920797,0.4355101699747779
43,0.4355278553134395,0.4355016005126044
44,0.43559595235294785,0.43581347886210203
45,0.43549978791443306,0.4355167061445196
46,0.43555483048913274,0.4358419538349003
47,0.4356043742738042,0.43541578574976036
48,0.4355578085661618,0.43570272682466604
49,0.43552073201058583,0.4357860460970071
50,0.4355515947335876,0.436231743756779
51,0.4356073733141837,0.4357623016194692
52,0.4355426773114424,0.43567662009614294
53,0.435546996336968,0.43541666387262173
54,0.4355085735631147,0.435737845952313
55,0.4355244305347745,0.4368117630248765
56,0.4355411221952416,0.43547972255308814
57,0.4355056028835449,0.43583412498346885
58,0.4355171478452293,0.43542697827691906
59,0.43552557187893953,0.43542913607836065
60,0.4355364874840788,0.435679305217092
61,0.4355179645948979,0.43580557183318036
62,0.43552832727896246,0.43541633217155584
63,0.4355478474040987,0.43540208267475194
64,0.4354857278236698,0.4358888360805549
65,0.4354942145017671,0.43545690786141783
66,0.4355344122147451,0.4358855711352785
67,0.4355167789902215,0.4355858219021441
68,0.43550907707531744,0.43545483700503546
69,0.43548187161832086,0.4354177255214563
70,0.4354827790364567,0.4355196492734229
71,0.4354737477891637,0.43559118990450013
72,0.4354877427908981,0.43537684248488673
73,0.43548925871306,0.43595528776257264
74,0.4354719280671381,0.4355411438159228
75,0.43546648935331705,0.43549595834900123
76,0.4354955998526673,0.43554138838662454
77,0.43548080275640827,0.4358060719764006
78,0.4354943356827241,0.43544886008018835
79,0.4354919333191895,0.4355254888502779
80,0.43552769369953326,0.43546952872933664
81,0.43543849652894484,0.43546625194042987
82,0.4354691424045253,0.435770176601232
83,0.4354780819964583,0.43560115213948175
84,0.43545096436655356,0.4359521909153129
85,0.43545660847899426,0.43540598979151296
86,0.43544167656388194,0.4356220303578833
87,0.4354735453455746,0.4356915936850807
88,0.43546249476133553,0.4356958308351635
89,0.43544290916173173,0.43580674946170483
90,0.4354637106342493,0.4354006521315108
91,0.43542360217858095,0.4361682228782415
92,0.4354669488951464,0.43548260557967067
