epoch,loss,val_loss
0,0.5241112200054471,0.5097517083055025
1,0.5101708001278576,0.509607117666108
2,0.5103146682812404,0.5094334764704227
3,0.5099121006621075,0.5145771256940025
4,0.5098730582305059,0.5099461463654438
5,0.5096467937722194,0.5110001156566876
6,0.5094503648504115,0.5093355241730786
7,0.5093784049789726,0.5093728778289847
8,0.5092304576354485,0.5090577471614159
9,0.5091158556506706,0.5098294363942657
10,0.5030440443993789,0.4965213795848883
11,0.4968087327916017,0.49739824718026204
12,0.49267285570417924,0.4846071850228509
13,0.47940820392582034,0.47224575353676823
14,0.47218066215116994,0.47201327555745887
15,0.47212179600705384,0.4719295480160672
16,0.47208040317343886,0.47319457964694694
17,0.4720880892359386,0.47339236636762405
18,0.47210187343302773,0.47187563006630967
19,0.4664588668500468,0.46034346125142406
20,0.43755313012570973,0.4350871692851204
21,0.43514893183837067,0.4350673723366951
22,0.43524733386040976,0.4351238291647744
23,0.4352037836928905,0.4350069998519462
24,0.43520767936053245,0.43552918188164047
25,0.4351671952171424,0.4351622521993766
26,0.4351705309601604,0.43552040179132845
27,0.4351452709361108,0.435040239807894
28,0.43514422511934153,0.43509681153560026
29,0.43513268493116786,0.4349628423136618
30,0.4351001097778895,0.436165165035016
31,0.43508440505665663,0.4355372388486986
32,0.43513629003587306,0.4350986216468103
33,0.4351394083342514,0.4350250136695549
34,0.4351030591157294,0.4350425061291796
35,0.43506992075453826,0.43523343572673334
36,0.43513679910234715,0.4350176631430153
37,0.4350755759366953,0.4350616863511303
38,0.43513219870017533,0.4349776917218442
39,0.43504104619171097,0.43513524309952234
40,0.43505934770844773,0.4350635896865884
41,0.4350696198638195,0.4355114652030865
42,0.43502567455592217,0.43495710695757706
43,0.43504858460928275,0.43515455585153767
44,0.4350894903287845,0.43500574114458623
45,0.4350513495097357,0.4356522026017962
46,0.43503783980645794,0.4351526826148898
47,0.43502056096251673,0.4349927797339106
48,0.4350641352969049,0.43494622448257747
49,0.4351031409445188,0.4354797941707849
50,0.43502687630384673,0.43550440751123354
51,0.435040156068904,0.43507622329289547
52,0.43503210384170243,0.4350335458854435
53,0.43502574854533904,0.43494735452480354
54,0.4350225826791589,0.4349252595414826
55,0.43501411554972474,0.435104269401327
56,0.4350265408810626,0.4352945776609613
57,0.4350077778134146,0.4349233281455681
58,0.43502876950490055,0.4349582064933221
59,0.4350074752771688,0.4349217645163476
60,0.43502145504913076,0.4352463485028143
61,0.43498290951232726,0.4349469484635284
62,0.4350042526336007,0.43497456767182513
63,0.4350800620590994,0.435147582891674
64,0.4350072183321158,0.43523228095953914
65,0.43500513958747994,0.4351159018740855
66,0.4350202421728974,0.43502619796376135
67,0.43497784330600514,0.4352385786418742
68,0.4349971777647271,0.434901980274544
69,0.43496870511639935,0.4350927689821349
70,0.4349729256284376,0.43516635947719645
71,0.4349846669845817,0.43494676855364794
72,0.43499986176398503,0.4356969840510909
73,0.43495678259133247,0.4352732643678316
74,0.4349574571479843,0.4349154693541592
75,0.4350184636575222,0.4349385990535711
76,0.43490084317900257,0.43494652925619415
77,0.4349838002196458,0.43584823119722943
78,0.4349487475599234,0.4349220850514696
79,0.4349908709404642,0.4349282052064158
80,0.43494510685225424,0.43494326727050175
81,0.4349612444656854,0.43495331704351825
82,0.4349711756058814,0.4348907813993689
83,0.43493596530382495,0.4351539390721188
84,0.43498351531263457,0.4349862213064032
85,0.43494745946454,0.43497047210527495
86,0.4349295091926367,0.43496725723467705
87,0.4349269957712069,0.4352902571977953
88,0.4349492992858556,0.4348889560031518
89,0.43500068498916594,0.43491613436050197
90,0.43492001825950427,0.43520016345890533
91,0.43497139590672107,0.43572909979397545
92,0.4349606377158999,0.4350600670086679
93,0.4349478561706748,0.43492446199448626
94,0.4349367925379925,0.4351390928829472
95,0.4349360000526114,0.4349075853718727
96,0.43495269588937097,0.4353449463918421
97,0.4349336115811085,0.43500919682154926
98,0.43493178019144224,0.4349803637337952
99,0.4349571969549391,0.4349512026193066
100,0.4349360147303452,0.43484982871992334
101,0.43493807069738594,0.4349975270336783
102,0.4349383847064352,0.43500908789932885
103,0.43493582499070454,0.43516400324067883
104,0.43491590522558105,0.43508041797109515
105,0.434918681965922,0.4348996473123219
106,0.4349191864163081,0.4353361717494942
107,0.43494447211580284,0.434945551508124
108,0.4349414926791492,0.4348917467055386
109,0.4349155246874021,0.43484891658567115
110,0.43489027812264797,0.43503039450030445
111,0.4349044529216797,0.4350202201229786
112,0.43488323961279124,0.4349475818621496
113,0.43493049115434584,0.434934176175034
114,0.4349024706009729,0.43496904710529755
115,0.43490122256227715,0.4351898157420813
116,0.43490634495865194,0.43486099257247235
117,0.43491576777077845,0.4348567966553771
118,0.43489501837979055,0.4351542288307441
119,0.4348978016697666,0.4348407886362474
120,0.43490522889813993,0.4348261982578434
121,0.43489998949074715,0.43483698938811605
122,0.4348827482235551,0.43482093353385
123,0.4348877252713981,0.4348390437417734
124,0.4349030353033433,0.4349656659579654
125,0.43487815646551803,0.43492513356591694
126,0.43489695331270806,0.4349268382809941
127,0.4348537461306202,0.4350421787483651
128,0.4348928237070361,0.4348717461811499
129,0.4349222569915796,0.43485893668872594
130,0.434865089171811,0.43482857534380953
131,0.4348710718385493,0.43492048121638016
132,0.4348789640684284,0.43488160029866385
133,0.4348804909106492,0.434848494805246
134,0.4348570171651066,0.4349241212293635
135,0.4348747815842297,0.43507646615879214
136,0.43487092528146215,0.4348285729877901
137,0.43486155386117,0.43483215888644816
138,0.4348598751589025,0.43484378529179474
139,0.4348581947045123,0.4348167999692064
140,0.4348520805480951,0.4348512125345631
141,0.43490088657757126,0.43484903057465696
142,0.43484789558960546,0.43490639651916574
143,0.43485954663801346,0.434824210264518
144,0.4348491366176927,0.43586421570381445
145,0.4348575869184189,0.43493049945050266
146,0.43490016638031137,0.43482960658146275
147,0.43485361688156876,0.4348782696177977
148,0.43486020776713663,0.434988949640455
149,0.43488161337255066,0.4352038093698789
150,0.4348337363189554,0.43497231055754587
151,0.4348714213277303,0.4351097924774124
152,0.43485457048388015,0.43487247468354034
153,0.4348713782009454,0.4348287829435365
154,0.4348269436773759,0.43491018783624735
155,0.434835561433594,0.43493396224846825
156,0.4348698356199754,0.43482258825366504
157,0.4348764945517204,0.43534203640604385
158,0.4348566799301955,0.43488782385903874
159,0.43485762126835387,0.43483570148199824
