epoch,loss,val_loss
0,0.4015955810612724,0.3916421802276022
1,0.39247339070485693,0.39183557373440947
2,0.39109833973209757,0.3903268619347347
3,0.39058855313699276,0.3902726756158318
4,0.390409104644816,0.39156008037268786
5,0.3901420944071698,0.39207584904213955
6,0.3899443339631726,0.3896350679261622
7,0.38994692139943277,0.3894690618747546
8,0.38971159747775974,0.3894011150204409
9,0.37174271247282287,0.36164790496751625
10,0.36192311441867003,0.3617864659654669
11,0.36186971594287326,0.3616998860469231
12,0.36185764446478685,0.3617048368961821
13,0.3618531856817092,0.3616678759384206
14,0.3618157351644148,0.3617002131524275
15,0.36180567138528297,0.3622009540127276
16,0.3618399666874961,0.3616295877899025
17,0.36175681429293666,0.36173384742661424
18,0.3618120387474325,0.36245228922225203
19,0.3617456035461871,0.36165402805027985
20,0.36177853524796444,0.3616066496745798
21,0.3617411855539661,0.3616284177429957
22,0.36179019737597184,0.36203219166740597
23,0.3617587719483867,0.36164540516205634
24,0.3617228529698772,0.3616190377360107
25,0.36172742871738134,0.36158103117152457
26,0.361755792222301,0.3616148922112594
27,0.36170372346927343,0.36190337907846537
28,0.3617070112463441,0.361624492212222
29,0.3617167933269247,0.36168924231875704
30,0.3617055319359226,0.3616220006660662
31,0.3617164000777379,0.36161765002996804
32,0.3616849958965818,0.3621709105239539
33,0.36169125886342046,0.3616079659958804
34,0.36168981101567294,0.36187305902477523
35,0.361670642551164,0.36176796318117055
36,0.3616789720267228,0.3617527448997592
37,0.36165229835096746,0.3615790749023981
38,0.36168185347016085,0.36160674267116755
39,0.3616631380882054,0.36158283690424453
40,0.36165991973599665,0.36159794779881893
41,0.36163807455532804,0.3616959469835973
42,0.36167627307653544,0.36166449085733016
43,0.36166517711288315,0.3618081163229157
44,0.36166537855899067,0.36172115115548437
45,0.36162193190860314,0.3615808557830837
46,0.36162675927066934,0.36173947953080854
47,0.36163893704090544,0.36159493187156194
48,0.3616565432564788,0.3622483726843019
49,0.36164238303282076,0.3616384712432879
50,0.361638311743468,0.3615746191454772
51,0.3616247277253389,0.36157552050027864
52,0.3616162516602201,0.36172203140670484
53,0.36163626158553996,0.36157498766927404
54,0.36162991202981387,0.36167402214194133
55,0.36166203840531086,0.3616237428339109
56,0.36160017708790965,0.3615954442290223
57,0.361622640794012,0.36157563621524724
58,0.3616310659692139,0.36171055806320584
59,0.3616269101304107,0.3615833381910607
60,0.36163012191251226,0.36160742544030866
61,0.3615984504973473,0.3615797088834061
62,0.3615974147471654,0.36164122849019853
63,0.36162708917589065,0.36161959173942376
64,0.36161223828974703,0.36208415980723635
65,0.36162229545076835,0.3616528078386893
66,0.3616061412719418,0.3615824095752612
67,0.36159284129323366,0.3618400932459578
68,0.361615289299413,0.3617782423457703
69,0.36160970269994125,0.36158765256034264
70,0.36160612490703103,0.36156096877118243
71,0.36160698824396215,0.36155164585399
72,0.36161643429395135,0.3615818830605065
73,0.3616070049456024,0.3616288192192982
74,0.3616143523062648,0.36163040385679995
75,0.3616229767766001,0.36156586459547485
76,0.36159070080145,0.3615923616978897
77,0.3616039433236638,0.3615892032605756
78,0.36159360562323123,0.36157017253732404
79,0.3615880548229724,0.3620104668650371
80,0.3615998642881215,0.3615694966615252
81,0.36159078744610607,0.3615812113196542
82,0.36161054052802716,0.3615787318977333
83,0.3616023023838056,0.3618997836657243
84,0.36159072492172745,0.36164381838560655
85,0.3616051712814239,0.3617787614695067
86,0.3615894245897224,0.3616669634070865
87,0.36158414448395004,0.36163603493387564
88,0.3616009788344099,0.36157189167971127
89,0.3615863398711075,0.3615712351497441
90,0.3615894538611841,0.3615878930649255
91,0.361591008407698,0.362009131647931
