epoch,loss,val_loss
0,0.6791546700998499,0.6689724471730435
1,0.6686254618030475,0.6680955009978032
2,0.6682431237097898,0.669159770647233
3,0.6678228593590976,0.6674618408743072
4,0.6676389655734937,0.6674301430945668
5,0.6675188010283393,0.6673032972947767
6,0.667337551070239,0.667394086615318
7,0.6672573984114019,0.6674620572363087
8,0.6672312636545642,0.6670651592990606
9,0.667134900801213,0.6675163431221818
10,0.6671530822834258,0.6670835084020615
11,0.6671239099162135,0.66697867463253
12,0.6670592780671415,0.6672839091924945
13,0.6371002728479297,0.6114581281093917
14,0.6115997823153221,0.6117453198277054
15,0.6115676560090064,0.6114683262851611
16,0.6115579019927441,0.6116440859923546
17,0.6115387643936908,0.6116239692817934
18,0.6115493025194535,0.6114469932650012
19,0.6115346991414667,0.6114330271946895
20,0.6115227445155635,0.6114851769703831
21,0.611511648068348,0.6114320771523492
22,0.6115090296388584,0.6114743973290143
23,0.6115265138750658,0.6115074170421465
24,0.6115034532775154,0.6119164700278551
25,0.6115062688497522,0.6115334245001873
26,0.6115065859514887,0.6114271060254396
27,0.6114910217368016,0.6114962721489361
28,0.6114979541507577,0.6119442718303062
29,0.6114980830101349,0.6115979046968991
30,0.6114948288184751,0.6114583438784176
31,0.6114801396584808,0.6114264445610677
32,0.611500279714561,0.6115536593505642
33,0.6114847737321872,0.611460104423214
34,0.611480891283824,0.6114317671319566
35,0.6114821822890582,0.6114339337803835
36,0.6114821428585321,0.611611177070375
37,0.6114696697243172,0.6114753204015501
38,0.6114787989895333,0.611422796797045
39,0.6114676867548592,0.6114614338746903
40,0.6114581484346435,0.6114757156939633
41,0.6114700425508973,0.6114438168531118
42,0.611460493339566,0.6117054190447623
43,0.6114702513528141,0.6114060411891202
44,0.6114603642373483,0.6119491520413372
45,0.6114691077489613,0.6117106591179096
46,0.6114549316545449,0.6114039566042919
47,0.6114529724001594,0.6114703929430639
48,0.6114532811563702,0.6113971285634491
49,0.6114617463854359,0.6114019318782409
50,0.611441606689381,0.6114537536219056
51,0.6114539168437116,0.6113996591507002
52,0.6114482867779018,0.6114410688026186
53,0.611447966368169,0.611412037983947
54,0.6114413321892163,0.611433681702186
55,0.6114570299817286,0.6114140872867223
56,0.6114443206639146,0.6114469765134382
57,0.6114657957753727,0.6114632806233263
58,0.6114509989791347,0.6114242875484955
59,0.6114427492668089,0.6114653003196729
60,0.6114363225485026,0.6114022910944372
61,0.611462345367148,0.6116000964197262
62,0.611434077919779,0.6114534273476261
63,0.6114398467633076,0.6114165424601734
64,0.611446670672724,0.6113973822299742
65,0.6114527651301146,0.6114291230216291
66,0.6114355059520211,0.611403212949255
67,0.6114375221892208,0.6113978284124075
68,0.6114540820261032,0.6113887204965492
69,0.6114219022482781,0.611474212098236
70,0.6114451812060618,0.6114442419107864
71,0.6114289950457014,0.6114479134679582
72,0.6114460360414564,0.6114202077699229
73,0.6114255584017348,0.611793878754453
74,0.6114300988420605,0.6115935926518701
75,0.6114337555630863,0.6114228503766334
76,0.6114339232713017,0.6115671084837372
77,0.6114320189002892,0.611523019460616
78,0.6114350268445863,0.6114059157641748
79,0.6114309458176105,0.6114371073650496
80,0.6114278264716294,0.6114836106462999
81,0.6114288196597718,0.6114212776039396
82,0.6114201500422748,0.6114596733934271
83,0.6114213300764435,0.6115001892827505
84,0.6114315783113166,0.6114308667513294
85,0.611428209963427,0.6114022203397319
86,0.6114273573587768,0.6114241405540598
87,0.6114218737822846,0.6114166446108232
88,0.6114188047988893,0.6114029787450388
