epoch,loss,val_loss
0,0.536602387698345,0.534156990784018
1,0.5300938178334827,0.5298043389497419
2,0.5294252053024243,0.5286355595284572
3,0.5290314861556668,0.5284184220841436
4,0.5287617703094847,0.5313531778743539
5,0.5286429468751911,0.5285414383410983
6,0.5285182861219851,0.528430377977486
7,0.5284760676100764,0.5284874959893328
8,0.5284770492294086,0.5284288253765543
9,0.5284012829666974,0.528396084859668
10,0.5283676841360826,0.528216559629835
11,0.5283900284684133,0.5282363616714979
12,0.5283659539127953,0.5282310032149915
13,0.5283392461228863,0.5287716797855613
14,0.5282855071938354,0.5282567619409119
15,0.52832169992281,0.5281968265004174
16,0.5283081439047593,0.5284421019643931
17,0.5283171430370974,0.528283984109635
18,0.5282620636579378,0.5284345961947026
19,0.5282644915465542,0.5281831187980809
20,0.5282610357690124,0.5281871795908429
21,0.5282618061029598,0.5281789041493075
22,0.5282543917761959,0.5282275855361219
23,0.5282507654427099,0.5288332448079375
24,0.528236700286886,0.5281743175459492
25,0.5282266961053396,0.5281657953841751
26,0.5282341009923837,0.528529845168862
27,0.5282450825689664,0.5282106166793178
28,0.5282450544079355,0.5282243647781226
29,0.5282147763185822,0.5282389539705752
30,0.5282519481904803,0.5281635675004203
31,0.5282202717759065,0.5283784698817378
32,0.5282455145356882,0.5282993200914244
33,0.5281998377415916,0.5281359406681505
34,0.5282145364387243,0.5283340371339099
35,0.5282166907759481,0.5281438566393571
36,0.5282000880734755,0.5282256000311766
37,0.5282196711663156,0.5282437815973698
38,0.5281973861590806,0.5281480034665372
39,0.5282217716112947,0.528380237775197
40,0.5229746503267696,0.5005346369967831
41,0.5004605624782318,0.5004334550468044
42,0.5004323847110255,0.5005482050851133
43,0.5004521856515922,0.5004058995939822
44,0.5004341274829563,0.5004184447569076
45,0.5004668830498105,0.5003961697842897
46,0.500438861705794,0.5003735676161624
47,0.5004426870555703,0.5003859474341724
48,0.500430493432224,0.5003846152084169
49,0.5004395203613322,0.5007741777717718
50,0.500440281138375,0.5003831159752964
51,0.5004222290845203,0.5004074508077744
52,0.5004345760701362,0.5003676422537273
53,0.5004155152778735,0.5003981723372859
54,0.5004108118294264,0.5016343518522456
55,0.5004440388725927,0.5003964466192219
56,0.5004205046188126,0.5003708814045615
57,0.5004265578144901,0.5004679063726518
58,0.5004250119622322,0.5003933255446701
59,0.5004157686226743,0.5004267367488179
60,0.5004154040597318,0.5003738457323454
61,0.5004076126580903,0.5005069265231757
62,0.5004134699816977,0.5003975522647341
63,0.5004058806445599,0.5004542148077249
64,0.5004072826406258,0.5003742946572913
65,0.5004157100049222,0.5004013727646904
66,0.5003961212759228,0.5004485655495913
67,0.5003974662581135,0.5003710786430974
68,0.5004089023107592,0.5003683516220632
69,0.5004072723537878,0.5003993123224434
70,0.5003969287432942,0.5004364380744999
71,0.5003986676184816,0.50036752588225
72,0.500399930461273,0.5004708352913164
73,0.5004099231431905,0.5004220926797629
74,0.5004067405541922,0.5003905821956269
75,0.5004085834738424,0.5005881374334226
76,0.5003901817225568,0.500418507379375
77,0.5004020900068615,0.5005395222481074
78,0.5004062465106526,0.5003654854423434
79,0.5003899664952488,0.500364878743511
80,0.500391438532455,0.5003776677147409
81,0.5003969734612495,0.5003795209331652
82,0.5003966485166108,0.5004825330496385
83,0.5003903801853965,0.5004046966898693
84,0.5003877066381647,0.500432706647962
85,0.5003920060691415,0.5003941376989869
86,0.50039749382475,0.5004082449292773
87,0.5003919080505125,0.50044812414273
88,0.5003969380262973,0.5003642774555819
89,0.5003827121523946,0.5003510451926751
90,0.5003897403302338,0.5004490510801964
91,0.5003975249605775,0.5005212228385862
92,0.5003793960603999,0.5003688028765564
93,0.500378030867382,0.5004139884175999
94,0.5003774723976834,0.5003848549400136
95,0.5003921579447187,0.5003797852308972
96,0.5003885863887159,0.5003998191578177
97,0.5003881956187616,0.5004119333756671
98,0.5003806380612611,0.5004266121921583
99,0.5003835912817258,0.5007082721885895
100,0.5003819835136024,0.5004007924956313
101,0.5003886959055619,0.5003697097375606
102,0.5003764344718197,0.5003753389509984
103,0.5003787810187396,0.5003629815601757
104,0.5003783788691647,0.5003537229014282
105,0.5003939396021962,0.5003554012343819
106,0.5003839596524645,0.500356772840076
107,0.5003685243973968,0.5003559271296889
108,0.5003826745671742,0.5003732247809192
109,0.5003748894243241,0.500359840864482
