epoch,loss,val_loss
0,0.5635903591295544,0.5603955569773844
1,0.557967408435818,0.557149953159394
2,0.5572146546070638,0.5566236074238904
3,0.5567839994331598,0.5565879417791484
4,0.5564259347183852,0.5572657367543146
5,0.556428225150787,0.5562038842325927
6,0.5562574319047479,0.5560183187301088
7,0.556158041302889,0.5564000558992922
8,0.5318190465037379,0.5281703070396427
9,0.5283815640257555,0.5283089034784791
10,0.5284059889734414,0.5282770773618592
11,0.5284061845956116,0.5283433531842322
12,0.5283360014175379,0.5281720480374194
13,0.5283273847632793,0.5281658107380097
14,0.5283233456460621,0.5281735678658559
15,0.5283148324277531,0.5282661465540472
16,0.5283168727273437,0.5286091793957899
17,0.5282677984529645,0.5282273632867189
18,0.5282735337153178,0.5281953889685342
19,0.5283052240381598,0.5281923933718721
20,0.5282704044975867,0.5285544140679012
21,0.5282567997603594,0.5281803653260958
22,0.5282589424271189,0.5288368000253985
23,0.5282626309164872,0.5283577489289578
24,0.5282387513632313,0.5281355330079588
25,0.5282477903496545,0.5281856276040645
26,0.5282566709348671,0.5281692615917509
27,0.5282155609151755,0.5281584544617237
28,0.5282422016881559,0.528285800701222
29,0.5282072984297199,0.5281602877942849
30,0.5282278942099502,0.5285989654426317
31,0.5282178416763118,0.52817810407687
32,0.5282132436488944,0.5281305182973367
33,0.516862324979402,0.5004807651985346
34,0.5004511189632437,0.500385731061582
35,0.5004580432745147,0.5003796617860671
36,0.5004400907358645,0.5003832085112692
37,0.5004612522215942,0.5003964771574695
38,0.5004277419148259,0.500559974646437
39,0.5004494750697669,0.5005537629191036
40,0.5004288786923182,0.5005679246078568
41,0.5004364145155906,0.500369406695221
42,0.5004324181256009,0.500433709465138
43,0.5004488524252211,0.5004055500030518
44,0.5004438423553009,0.5003894088344096
45,0.500425760858443,0.5004969736381499
46,0.5004210247422963,0.5007028522743894
47,0.5004259496599003,0.5004737453194701
48,0.5004151132836037,0.5004794954787691
49,0.5004261302626658,0.500369195786478
50,0.5004302419115508,0.5003874967419714
51,0.5004204857139593,0.5004254077844286
52,0.5004287675320629,0.5004262011223565
53,0.5003980621704343,0.500415043257803
54,0.5004151174669554,0.5003654825092315
55,0.5004020334645489,0.5004193625350175
56,0.5004301478108432,0.5003724460026621
57,0.5004026052820058,0.5003962464475742
58,0.5004074842985129,0.5003663172283908
59,0.5004318804117088,0.5003872330054484
60,0.5004039140075398,0.5003820757477083
61,0.5004244715940366,0.5004085268680357
62,0.5003879907517086,0.5005007092790507
63,0.5003991750973151,0.5006091087066507
64,0.5004060117685663,0.5003952443504401
65,0.5004070542420426,0.500427621299112
66,0.5004188977458107,0.500433652020619
67,0.5003979383076423,0.5003618207149807
68,0.500390727993754,0.5003698804827901
69,0.5003909130947168,0.5003596184033021
70,0.500403833237648,0.5003946135196153
71,0.5003972516492019,0.5005099253706153
72,0.5003911881299778,0.5008165836334229
73,0.5004041161722859,0.5003566114130358
74,0.5003953009436504,0.5005083240397893
75,0.500389572315644,0.5005121994429402
76,0.5004008453135765,0.5013055216039893
77,0.5003943000312023,0.5005240249981103
78,0.5003972282037953,0.5004161192862978
79,0.5003994262621986,0.500359794464135
80,0.5003881281345062,0.5004632844766518
81,0.5003982512359101,0.5005410589022288
82,0.500385105224455,0.5006219229217024
83,0.5003879770763979,0.5003719840640178
84,0.5003826401346453,0.5006257707091287
85,0.5003928471233356,0.5003856718910802
86,0.5003962115758936,0.5003819917357609
87,0.5003887229596918,0.5004576034413749
88,0.500387723255799,0.500356291777966
89,0.5003856067183988,0.5004010998370445
90,0.5003986738095034,0.5004106011499115
91,0.5004073110741465,0.5003821402020471
92,0.5003820995137261,0.5003684712654957
93,0.5003900638672444,0.5004335159856445
94,0.5003885745460042,0.5003601056069459
95,0.5003902566120366,0.5003538876110124
96,0.5003690401370441,0.5003883557519558
97,0.5003867509208817,0.5005891697405498
98,0.500392046178774,0.5003887859346347
99,0.5003740250051995,0.5003983881169006
100,0.5003788968805005,0.5005718686797094
101,0.5003857436437525,0.5003525689813421
102,0.5003864685693435,0.5003533198262091
103,0.5003936400428648,0.5007943317233234
104,0.5003739844960096,0.5004184362434709
105,0.5003872152418692,0.5003604036513475
106,0.5003784132607497,0.5004846450384143
107,0.5003894603463908,0.5003729853458103
108,0.5003782505702975,0.5003593200624127
109,0.5003804855249318,0.5003472838949874
110,0.5003825327906573,0.5006132634542916
111,0.5003806317629377,0.5004080924921719
112,0.5003757869657682,0.5004461977976977
113,0.5003943187680439,0.5010011897012552
114,0.500378330172578,0.500384811070402
115,0.5003750743106836,0.500347662192294
116,0.5003877701932038,0.5003489084577535
117,0.500370690839939,0.5008777401273216
118,0.5003815371246942,0.5004299539913185
119,0.500370109647708,0.5005262668485603
120,0.5003740019678214,0.5003982243920796
121,0.5003840899166458,0.5005005890214649
122,0.5003819942677673,0.5003647491042028
123,0.5003739904357196,0.500670820416386
124,0.5003695513079008,0.500342388954864
125,0.5003777330982936,0.5004881126119519
126,0.5003871827619476,0.500356024917732
127,0.5003668326078599,0.5005007951546359
128,0.500380991742971,0.5003500350903693
129,0.5003797323253607,0.5004434835256406
130,0.5003735870719422,0.5003838336452918
131,0.5003682482425279,0.5003801341653188
132,0.5003629157975608,0.5004398924013843
133,0.500382817340467,0.5003773436217648
134,0.5003780731018691,0.5005235076268288
135,0.500352468344501,0.5009589243748405
136,0.5003652626296771,0.5004030653502383
137,0.5003728890437643,0.5005886837863905
138,0.5003641221192174,0.5003558489945541
139,0.5003666013163681,0.5003981613566469
140,0.5003649372120641,0.5003826479586515
141,0.5003667274480248,0.5006281150067163
142,0.5003666148391975,0.5004533157083488
143,0.5003659270272645,0.5004199307539637
144,0.5003643599250478,0.5003363703893586
145,0.5003764757448278,0.5005070509315913
146,0.5003683893639402,0.5003431246364958
147,0.5003606420858594,0.5007527602419884
148,0.5003644382128833,0.5003422695020309
149,0.5003645742346444,0.5003528372181268
150,0.5003603912541756,0.5003428199211177
151,0.5003610202139872,0.5004669945137097
152,0.5003629458674314,0.5003501006565375
153,0.5003667235766949,0.5006296711019691
154,0.5003687582005939,0.5005451871989188
155,0.5003654140068664,0.5003463632261209
156,0.5003613048033291,0.500366132315278
157,0.5003654797559415,0.5003428006599969
158,0.5003593351392734,0.5003511477668791
159,0.5003653745142184,0.5003503657590223
160,0.5003579912879854,0.5005280593293326
161,0.5003596656381833,0.5003789371168408
162,0.5003605289631137,0.5003441238852288
163,0.5003548648276237,0.5003677196688202
164,0.500369542654589,0.5005122336343415
