epoch,loss,val_loss
0,0.30342237847604403,0.2435002697621142
1,0.2286223772886374,0.18834083653617853
2,0.19511967603925517,0.1736280188532448
3,0.17861397077946115,0.16377189545155732
4,0.1647933007473703,0.13509559830754922
5,0.15991133762250623,0.1362784873914738
6,0.16441032235876762,0.1578973367000535
7,0.16910586382051387,0.13966321059943018
8,0.15744290580813458,0.13324853088419705
9,0.16174881989427142,0.14757983118827422
10,0.16170717706028417,0.13637656278587992
11,0.15844796717560605,0.1291312646583049
12,0.1541331564161995,0.15527418258223027
13,0.15766279440555123,0.13203373759235681
14,0.15487749202011394,0.1391217885576702
15,0.1568131692844739,0.13023143700971318
16,0.15507099018681994,0.12753871402915473
17,0.15773331974032787,0.13904462483411675
18,0.15542219576535463,0.13826806434798028
19,0.15720852193317478,0.15038771501350287
20,0.1546714125190667,0.1302741441546372
21,0.1496719869556095,0.1386363374466637
22,0.15443578401835467,0.12355418205986347
23,0.1522431576742326,0.16827739741342007
24,0.1527089566541157,0.1336794787019322
25,0.1535136796492305,0.14198772856378014
26,0.15451409759296714,0.13754886085437937
27,0.1526540472620339,0.13642156596649785
28,0.15311399080736146,0.13141717670511058
29,0.158138088744769,0.15501101942248008
30,0.1554243064032878,0.1351092851630866
31,0.1535073285363167,0.1239190119147204
32,0.15366830709901116,0.13350391341411091
33,0.15591188615935148,0.14949566570608383
34,0.15447836061768097,0.1377405246171348
35,0.15536292599107,0.1413059038474902
36,0.15312131738261855,0.1269469325523597
37,0.15125723913001765,0.13934044092168482
38,0.153878144711089,0.13169673574062643
39,0.15156567831925624,0.13342492568207676
40,0.15570929848117004,0.13703355593161184
41,0.1541662712971433,0.16296604564541833
42,0.15388597219621686,0.13324472496085116
43,0.1525189119955604,0.13303530510493825
44,0.15136428357506868,0.12825474311013774
45,0.15125399050985078,0.13019777140719854
46,0.1513136159017193,0.12968272854787782
47,0.1531104596676208,0.12366193426593183
48,0.1513754584080129,0.12249245500646755
49,0.1498661392403422,0.12701551072353864
50,0.15318629519046068,0.12789806507267995
51,0.15295868575739993,0.1254500622067235
52,0.14993988723755838,0.13317818487696018
53,0.15058989491197375,0.1346016686110601
54,0.15326502284495902,0.1426974874041183
55,0.15307304431334604,0.13504544510192631
56,0.15671749358431541,0.1505434317310361
57,0.15115022525382193,0.12567182746319294
58,0.15053937622935798,0.12167748304299968
59,0.15360820294619562,0.13215586252431993
60,0.15203245220671566,0.1380265394206078
61,0.15125389754760254,0.1266839753984438
62,0.15084407686757698,0.12715651513064477
63,0.15233645887912703,0.13600446826446763
64,0.15238634478435029,0.1393085649570893
65,0.15441929256383946,0.13073179583214012
66,0.15399955570984117,0.14072954176720429
67,0.1558849176375555,0.13226706866969545
68,0.15476725773633815,0.13930926304567373
69,0.15681888874145963,0.13693977402944635
70,0.1499708126618969,0.1526073177993926
71,0.1559813657195402,0.13406042504484636
72,0.1585838770459565,0.1243764652545048
73,0.15327741973716513,0.13501982117753056
74,0.15398750443449968,0.139118604531205
75,0.1562134454532372,0.13837926745994827
76,0.1557354776202153,0.12860302904444018
77,0.15567872690572274,0.13572239067891895
78,0.1534601281150233,0.12640365661519964
79,0.15440519572234898,0.13799281531320967
80,0.15294060441221688,0.13180074060678676
81,0.15252013945037884,0.1304346335279874
82,0.1540666710349729,0.14713911820332984
83,0.15413891630257676,0.1270399006372144
84,0.15344020541462067,0.13784469126301477
85,0.1523830234926877,0.14057111051855103
86,0.15364935539000696,0.13240332344950262
87,0.15223367249159167,0.127968792491634
88,0.15482765809298038,0.12603158080785717
89,0.15325666983441127,0.12918044241796348
90,0.15452078308423964,0.1264912539130773
91,0.1527141719352636,0.13226796944065974
92,0.15136435562021452,0.13627284678833715
93,0.15330817450503048,0.12937291664436207
94,0.15300367183213812,0.12243117625309216
95,0.15244150114319532,0.1511251919473078
96,0.15464829494826215,0.1350001819425739
97,0.15530244518426345,0.13182256561126152
98,0.15777294502986536,0.1330313128143525
99,0.16168239298727724,0.13427086157568663
100,0.15782114610469655,0.1335306513906492
101,0.15610668119535243,0.1376014669385753
102,0.156900681072087,0.14631656093246456
103,0.15842195693328917,0.12809529093253544
104,0.16001496761977624,0.15146200901497117
105,0.1586198583811975,0.13810789090220946
106,0.1591729491716437,0.1469759405481071
107,0.15796560712391325,0.14139252118554815
108,0.15850553236860004,0.1299284658993731
109,0.1594969226454524,0.1398030986823595
110,0.15889365271067887,0.1439695856673681
111,0.16232451357490257,0.14910189156622203
112,0.16116595068712344,0.16004911680242828
113,0.16155905028681358,0.1510418997979319
114,0.16002099318288154,0.13378423648159
115,0.16097480898575367,0.13441657294297935
116,0.15903882322917948,0.1464869357216484
117,0.15748030556928072,0.13012727610434544
118,0.15782227392813222,0.13112692644899682
119,0.15757831741717931,0.13755977134441613
120,0.15905452591238067,0.15092444754019077
121,0.15670676483176918,0.13803055763413824
122,0.15946273741911085,0.1482444313767956
123,0.1585541531216917,0.13687788015903735
124,0.15799748979276232,0.1280800582839528
125,0.1579819265827596,0.13872042850010394
126,0.15898868295433427,0.12664174319328764
127,0.15862026765011997,0.14648338716661458
128,0.15751825565333555,0.1379920418124226
129,0.15654755532264328,0.13405035908688206
130,0.15782766260677952,0.14238100774459306
131,0.15725723572904535,0.13198792473968218
132,0.15750873538615515,0.15427178334193992
133,0.1577059272960055,0.13872396927825437
134,0.15718364903481127,0.12632817959915982
135,0.15801231473612729,0.13005664789957044
136,0.1570928678978339,0.14320400504686923
137,0.15586724071454008,0.14089101861138123
138,0.15531169440302017,0.13452383912706994
139,0.15730486258721238,0.14156460517296826
140,0.15413008316206017,0.1361471620680642
141,0.15514671486363207,0.13271860205489064
142,0.15562353734138779,0.13313321431453695
143,0.15778753071355286,0.15089417426618057
144,0.15562019501928331,0.12923379151176265
145,0.1563658684617381,0.15080856498623899
146,0.15589965517529017,0.13527237499451503
147,0.15526651913185327,0.14323127798476262
148,0.15660174548614014,0.13187907097161736
149,0.1573229025694444,0.1439670841213367
150,0.15563323098518927,0.13710556692909828
151,0.15433016165888147,0.13031379245856092
152,0.15707679393830254,0.13730548174155988
153,0.1575081943779635,0.13139776084859103
154,0.15696964921762316,0.1506114475193395
155,0.157290090451105,0.14279562682034228
156,0.15598838549372765,0.13996608173421796
157,0.15758277410812813,0.13829551598499776
158,0.15395893532040122,0.12670344056898467
159,0.1575941759481537,0.1337457867482766
160,0.15742375027295874,0.1299940332202339
161,0.1587428049422246,0.1475405708523369
162,0.1574105315769406,0.1389699272587835
163,0.15850087341437158,0.13508000586783123
164,0.1569716307708175,0.14375919394273634
165,0.15756513120187485,0.1359157771754342
166,0.15768344823220332,0.14504212233489447
167,0.15730592110056318,0.13551236113830978
168,0.1576389841126909,0.142669700575571
169,0.15897141757597916,0.13565383334882067
170,0.15852991806818925,0.14093800773730825
171,0.1598337521974901,0.13150600353006608
172,0.15853803581576809,0.13412925740590642
173,0.1584164960633477,0.1328040485943321
174,0.1573502320447285,0.1418523393565334
175,0.157473765746105,0.14291802619713068
176,0.1571785540784522,0.15185465537984488
177,0.15587128162849323,0.1356014600514592
178,0.15838785000067887,0.1374238435139718
179,0.1577663148900239,0.14842179033902247
180,0.15696125516922976,0.1510133426107726
181,0.1596174056830408,0.14171043373734993
182,0.15758028221402387,0.1318532798895484
183,0.15927631805559175,0.1523242241250531
184,0.1589782878225617,0.1482342027750135
185,0.16077134940173743,0.15166331430638794
186,0.159193327824911,0.13336475841272002
187,0.1604932824893891,0.1387404271273814
188,0.16013574648836407,0.1399833576667628
189,0.1584949486876269,0.13720624388134392
190,0.1587804516611861,0.14603297066151952
191,0.16222005732673658,0.16110394321025528
192,0.16043693110275212,0.143448456596139
193,0.16003291859471197,0.13958365613381649
194,0.15971437487915288,0.13699596769811656
195,0.15697628118879228,0.14258964461880974
196,0.16175422168749157,0.14047514532435162
197,0.16049955252877132,0.14080386746611329
198,0.160342013685583,0.14402400770519966
199,0.1598701474754165,0.13579346424471722
200,0.16142409871383798,0.1358553000392705
201,0.1604987997188866,0.15156030021033826
202,0.159486376891454,0.14685890757133588
203,0.15937396143678667,0.1502445833296768
204,0.15894251517814287,0.13817581089042785
205,0.1602861424647063,0.14296983100250302
206,0.16061485648823318,0.15105593391216005
207,0.16131559486170594,0.13784433378016958
208,0.15935700404061806,0.15831146982029407
209,0.16330616426370065,0.1447702846267024
210,0.1643424581190507,0.15382396208012095
211,0.16219018141122413,0.1453200270575135
212,0.1608103092780726,0.13751856292033718
213,0.16009571545535894,0.1406748745128186
214,0.16116186008871414,0.15107939338548726
215,0.16062700029930846,0.14552677173804965
216,0.16063926046232493,0.1450733650303525
217,0.16350463059267775,0.15125280552198514
218,0.1645596905129017,0.13762031363841487
219,0.16460854076952625,0.14794101567889073
220,0.16267635169222033,0.14127431824404538
221,0.16345743027279336,0.13439899962773094
222,0.16250977636851055,0.13442332880678742
223,0.16094013700504795,0.1651053593251537
224,0.16168074727988987,0.14706921728519726
225,0.16119832794567507,0.13676448318040768
226,0.16348330920235551,0.13273802649800795
227,0.15949160735711182,0.14109840494824538
228,0.16400052920234404,0.13728841374849557
229,0.16093498879702117,0.1474952832323598
230,0.1637585221158208,0.1483181553129152
231,0.16445863171755742,0.13097742849482044
232,0.16224272595382958,0.14210864011461138
233,0.16555128190472568,0.14091414152149834
234,0.16458950591108817,0.1479980878272099
235,0.1619331832733557,0.14188039941533445
236,0.16356917674704682,0.1325945316089524
237,0.16134378518924128,0.1444571337331047
238,0.1614272111387039,0.14358295873109636
239,0.1603709210464962,0.14895351796689696
240,0.1647698442705924,0.1572792289441713
241,0.16522695371706644,0.1484393891421451
242,0.1636992399696353,0.14672744085608896
243,0.16385679110419377,0.14125882197301368
244,0.16431912962344286,0.1495201060395848
245,0.1656772412443228,0.15149988870937844
246,0.16457235753488503,0.1462802256956781
247,0.16370805218708429,0.15174724733863337
248,0.16708622709381954,0.1509079628375518
249,0.16434033312279286,0.1492582503086846
250,0.16654948505749695,0.14983861605181312
251,0.1637387314917232,0.15857279623971174
252,0.16698695808124123,0.1416879211947479
253,0.16417973938348104,0.14231071905788134
254,0.16531803310991192,0.16394848778348384
255,0.16856164821058964,0.15791389434345351
256,0.16630523783670034,0.14078000743192864
257,0.16508773009511257,0.14573637671037507
258,0.16461808227891442,0.16122854386803007
259,0.16530230362191975,0.14444706897158402
260,0.1655833818334594,0.15289553800493552
261,0.16347200954385144,0.13771989414074126
262,0.16553236987051057,0.16040439446912194
263,0.16594539249869134,0.1539035768150703
264,0.16387418965645748,0.1517892021078553
265,0.16797718321315472,0.1334085583155076
266,0.1677895109948394,0.14780070157140035
