epoch,loss,val_loss
0,0.2985808963926913,0.22606337266246768
1,0.24124855040501747,0.22761102070290193
2,0.22866580543444576,0.20204656153603096
3,0.19798740375939133,0.17960705809349561
4,0.19288662013361413,0.18569244903611248
5,0.19419467288723366,0.18041411580008795
6,0.1887868831905009,0.1689892076952904
7,0.18872095261505836,0.16728675562438206
8,0.18951105903849016,0.18276723283920845
9,0.18875768019544115,0.18381493365194193
10,0.19017123420229906,0.1703092933716275
11,0.18678630169651048,0.17263180126238914
12,0.18828217292710053,0.1738178472836039
13,0.18657044361265684,0.17791146367474098
14,0.18677719845902546,0.17048719724744485
15,0.18551463772169202,0.18490075731509503
16,0.1859255037169823,0.16899686663835298
17,0.18473192710605404,0.17483101825064407
18,0.1844695648245567,0.17058025347635403
19,0.18558782355202208,0.17226292845541544
20,0.1844732761919928,0.16994639615991303
21,0.18450925102512583,0.16847412868282802
22,0.18402821257459917,0.17691297906497003
23,0.18517374265208256,0.17387151383377147
24,0.1842013127129492,0.17157160853914197
25,0.1849942021757913,0.17064109797508661
26,0.18503653936929185,0.1656555811491616
27,0.184493387378961,0.16099507532657303
28,0.18402972795946107,0.17731332671371594
29,0.18449363884947795,0.1799706458827875
30,0.18544805107162513,0.17575300686115766
31,0.1839695067836152,0.1684831252740054
32,0.18298872253649515,0.16162099897716456
33,0.18591305290201934,0.170548315284606
34,0.18620147381881602,0.16408760921798482
35,0.18414894321424852,0.1664461876474931
36,0.18512911012499117,0.17106917953694245
37,0.186604887157607,0.1666441922833643
38,0.18576991654711786,0.18152584096859456
39,0.18451862707674455,0.1648620483068944
40,0.18523765947696588,0.17089862855633198
41,0.18414334701694804,0.17595987681779837
42,0.1848735730286786,0.16220830483641552
43,0.18314749417040613,0.16858970560586656
44,0.18483265367649002,0.16669611324649078
45,0.1835777643886063,0.17042053631670767
46,0.185313749023444,0.174757238154187
47,0.18625855101071137,0.16470490363392518
48,0.18515864846179542,0.1660760441146918
49,0.18605168830093333,0.17287562792366923
50,0.18398772486097054,0.16580295654592336
51,0.18517095108834908,0.16728599167701586
52,0.18444672917083704,0.16222253574748785
53,0.1841821992416397,0.16949675299245365
54,0.1846187446919606,0.16704321798278565
55,0.18462068541609258,0.17315807079311704
56,0.18469660383782643,0.1709133514353442
57,0.18388857593457159,0.17410023064508925
58,0.18492647547951882,0.1702547314465771
59,0.18464016461606214,0.16702899659492093
60,0.18371890794882495,0.16490655076378066
61,0.18496552715189846,0.16999478091917092
62,0.18278129948817606,0.17525077936906497
63,0.18342361818727634,0.16491508228887122
64,0.18314897036962838,0.1726216358666679
65,0.1833522283644367,0.16325269818958574
66,0.18489123490140189,0.16186504065990448
67,0.18311839018037931,0.17034458020356064
68,0.18347999448772428,0.1655323289316646
69,0.18313284050688158,0.16799028922364853
70,0.18350761219131365,0.16980194104027188
71,0.18355415527633517,0.16674920379970484
72,0.1839080975891305,0.16639229906639816
73,0.18492298375209681,0.16987654412073133
74,0.1855280241243738,0.16773813131468526
75,0.18319196002281982,0.16633113290561666
76,0.18372951975290636,0.16705258522373045
77,0.18449273191875606,0.17264210233964866
78,0.18518008278597822,0.17118630946794372
79,0.18569894991009783,0.17325004262113997
80,0.18558603062259377,0.16877894823810285
81,0.18523912265407647,0.1717929952843636
82,0.18534115053492609,0.1742038928751818
83,0.18697636342459054,0.16801845975407526
84,0.18462322535421297,0.16988968527713444
85,0.18342836494680592,0.17147307971678222
86,0.18139303202410523,0.18504704383941364
87,0.18205811716824938,0.16306989145104903
88,0.18108808761052458,0.17213809938568075
89,0.18330133405086801,0.17046638008355128
90,0.18183035061682007,0.1653956475774157
91,0.18318905013861705,0.16499981342150927
92,0.1826141166438858,0.16462169233513188
93,0.18194698174897914,0.1630239307348649
94,0.18199314478280737,0.16405787918979525
95,0.18102357289593538,0.15990884993633214
96,0.17993926408412075,0.16459850691385802
97,0.1821465022187886,0.1734133361319846
98,0.18091512899144924,0.16570129090223676
99,0.1825079481908567,0.1648539185572328
100,0.1812101610309129,0.1689701100625551
101,0.1818522588372994,0.1646193489734467
102,0.17996373572189203,0.16388051516383234
103,0.180367862341927,0.1627632826687549
104,0.1795871923919961,0.17307774683903218
105,0.1813811800652165,0.16835665620639859
106,0.18030404038220238,0.16133454199109926
107,0.18064814982555502,0.15955988910511462
108,0.18070082123084866,0.16377406860403385
109,0.18079925230066712,0.16842326848176273
110,0.18071604270139058,0.16063854002846226
111,0.18074121093563886,0.16414096375016402
112,0.18048296141638767,0.16982438964565305
113,0.1800020777458568,0.16375623631312997
114,0.1810268160579107,0.16355202486625264
115,0.18116109235416517,0.16286129734666968
116,0.18192203299368354,0.16525483833563975
117,0.18075070142435778,0.15883325996286773
118,0.179853359891998,0.1672055202703213
119,0.18189042645563977,0.1647600864286067
120,0.18088108900669006,0.1742978045733499
121,0.1817634106815768,0.1671296772754782
122,0.17995499519465732,0.1648501590655668
123,0.1815662865547107,0.16508534817751694
124,0.18074205663320633,0.1620718336695109
125,0.18022747764929092,0.16327566738691354
126,0.17936820955611496,0.1609203188112859
127,0.18016736251745727,0.16235407129449758
128,0.18089363794383095,0.16048693492561458
129,0.18116216653222747,0.16541722292399272
130,0.17850163459085863,0.16539194748494457
131,0.17973055334998858,0.16085139223935638
132,0.17982372776974287,0.1712425598045335
133,0.18112375685651366,0.15913859594670718
134,0.18108044175790539,0.15960915912386855
135,0.18029766763635785,0.15798371760756236
136,0.18109399623113026,0.16454810498694725
137,0.1811113846693352,0.16734505632691332
138,0.18098239468230162,0.15800797863163218
139,0.18036010112759587,0.16793761352214598
140,0.1800599279847023,0.17014666816517288
141,0.1797355709252976,0.16269922467962283
142,0.17934294455379748,0.17023430133823061
143,0.1810592832304746,0.16260840872488463
144,0.18109161842814248,0.16287050741238993
145,0.18026298914459632,0.17061325644247916
146,0.18015199013835817,0.1628991828903568
147,0.18082523159831881,0.1592453334114944
148,0.18080073331383537,0.1602538616335305
149,0.18149239507267434,0.1645096439176329
150,0.18058737718744025,0.1646535847357203
151,0.18067214961310593,0.164335968515202
152,0.17990211282280372,0.16448548331022841
153,0.18049804307967782,0.1616441312594232
154,0.18058955201132,0.1621089694781315
155,0.18089809584274016,0.1625875606226515
156,0.18092856415994077,0.1721868686142339
157,0.17959055516889708,0.16536847112242614
158,0.1814923067931369,0.16653159727241967
159,0.1795666268866381,0.16159908477117255
160,0.1793104739452573,0.16210809963946407
161,0.18052428806897064,0.16282202622461203
162,0.18085002049123697,0.16654714412642802
163,0.1812817062779939,0.1629581170433049
164,0.18100704927388145,0.17604313456035686
165,0.18014264452734216,0.1613535558606973
166,0.18160721808194732,0.1623617266240588
167,0.17949329322581295,0.16231997248271762
168,0.1793862851358968,0.1586685018116927
169,0.17850377435704248,0.16560407601665503
170,0.17934742658805428,0.15915835979307752
171,0.18024537253012363,0.1684597927264247
172,0.18140197084773724,0.17523117143500655
173,0.1803777228721721,0.16221651069922652
174,0.1787204097768514,0.16288016166686045
175,0.1801417260658178,0.1629300792214354
176,0.1807349093312068,0.1633512962304376
177,0.18041742119410212,0.16419122685336138
178,0.18061659736238164,0.1617612546281126
179,0.18065203661270576,0.1635695603666321
180,0.18160006289987016,0.17235043358483743
181,0.18184736657968228,0.1727764506530491
182,0.1813270500104269,0.16529243091983903
183,0.17970726185674377,0.17224123491471316
184,0.18048105169359066,0.16989394509976025
185,0.18068494108483923,0.15906796771776163
186,0.17944877977081067,0.1658078087410691
187,0.17940553651154756,0.16699101459854324
188,0.18044248300256302,0.16774899824934092
189,0.1799820861857447,0.1666651065404688
190,0.18035195494671646,0.16185642707570239
191,0.1800355984985208,0.166311655903578
192,0.17912011829803617,0.16369839238617737
193,0.18061776889310635,0.16406122097762155
194,0.18125309748612375,0.16914447166768884
195,0.18014838253024867,0.1593986731883673
196,0.17982690880974356,0.1622717567241395
197,0.17969607052395495,0.16310349836740085
198,0.1798975946690389,0.16550868213031703
199,0.18087943152989075,0.16791462668633905
200,0.1793269652715199,0.16159554150949526
201,0.18049722405268345,0.15957204270609393
202,0.17994790260580848,0.1671714098687493
203,0.1795828617673764,0.16596034094268292
204,0.17927833826089498,0.1620398814104866
205,0.18126070254248938,0.15776158753247738
206,0.17997847024419958,0.1679772875798203
207,0.1805753200721321,0.16529581280665387
208,0.18194802914909405,0.15950525689202408
209,0.181707273909242,0.16233616747076882
210,0.18098830262287033,0.1746947436630484
211,0.17993241588505293,0.16230257440415805
212,0.17978465699071022,0.1639315212705903
213,0.18022379665683994,0.16805964479916288
214,0.1803675281991951,0.16826227084950326
215,0.1799254865170098,0.16906865197328272
216,0.18004118802668667,0.16361095964763575
217,0.17944539937856582,0.1624943076573246
218,0.18042757770746015,0.1709502914501996
219,0.18075145031806467,0.16023766330993958
220,0.18114532869729735,0.16085290940235228
221,0.1801191688633805,0.1643739783077441
222,0.1797172017306018,0.17130325570255397
223,0.17965793776049244,0.16710565573349292
224,0.18071984996597132,0.16327306541213155
225,0.1807311770735119,0.1627214442083532
226,0.18070389866661893,0.1668921035910078
227,0.1820800821479556,0.1640441713179405
228,0.1807544035218161,0.1647094161720268
229,0.1806640993651626,0.1628753811918616
230,0.1815690381513585,0.1630900969663869
231,0.18117649476226566,0.17433026845099378
232,0.18167166146423647,0.16169348766382208
233,0.18084569612415052,0.1630800336309303
234,0.1807167130269653,0.16228856220055865
235,0.1807599721955146,0.16110833460542118
236,0.1807247209694502,0.1682499993867441
237,0.1804252597775528,0.1659235168257479
238,0.18060118760510957,0.1696268048527177
239,0.17907821445511857,0.16022132184818713
240,0.17950164391290102,0.15984640479547071
241,0.1791943932970683,0.16437155013150156
242,0.18035438554204875,0.1683421410372464
243,0.1806561994769747,0.166859766306765
244,0.18018791279356608,0.16524517137348796
245,0.18064789253893235,0.16895123081098992
246,0.18022951897117404,0.16277589855016197
247,0.18134959960718744,0.16710482354050038
248,0.1801492756395172,0.1712496075220255
249,0.18125772973100504,0.17520916710901532
250,0.18105961159885742,0.17406532820993967
251,0.18149630283359722,0.16273836837439448
252,0.18012875048302002,0.17367325153954127
253,0.18137883232105628,0.16469772079081818
254,0.18115173554043468,0.16018001640945165
255,0.18080736203991574,0.17308853865153212
256,0.181410400067166,0.16166516980163856
257,0.18117702211304795,0.16576859580967743
258,0.18057483245579123,0.16710773588967148
259,0.18184893203674077,0.1658479189205634
260,0.1799790078969456,0.16336416989105654
261,0.18023068622482405,0.16106740263836808
262,0.18051425390261663,0.16677133386104162
263,0.1801272574200737,0.16101153864429332
264,0.18045065282964057,0.16456207193113978
265,0.18029927098459964,0.164075059612302
266,0.1796225261172836,0.1634259942891824
267,0.18160207293408695,0.15990649299078227
268,0.18038675262987183,0.166137520945952
269,0.1815032349754754,0.16234547443633532
270,0.17994599257281915,0.16017791347250354
271,0.18046483654585527,0.17038726325646128
272,0.18053290954201195,0.1673860712594746
273,0.18134955144386658,0.16481128239525303
274,0.18066675002404076,0.1694479973598505
275,0.18047889894108662,0.1677814077431848
276,0.18064792688079984,0.16779547908010273
277,0.1819305094518215,0.16627259516222923
278,0.18102765429296716,0.16613229420353318
279,0.1819120716926954,0.16235771932354423
280,0.18129902140940543,0.16901864262489605
281,0.18085235010704295,0.17635496347441676
282,0.1811142654730092,0.16049905997509892
283,0.18060847454136902,0.16279996345416375
284,0.18027502182629512,0.1663396932662065
285,0.17956895739126436,0.1632014243513805
286,0.1802565858627053,0.17123550594771478
287,0.1813448580791704,0.16680625287720757
288,0.1802832628484723,0.16302286905432173
289,0.18343787563978145,0.17928579134227585
290,0.1817103733627008,0.16463164630476673
291,0.18063294879787917,0.16843062338312756
292,0.1823869174341854,0.16625942217317521
293,0.18159119022474754,0.16273922987421258
294,0.18181206185737545,0.16821136566699277
295,0.1810096589456185,0.1664916328535946
296,0.18105352236281594,0.16377196847087275
297,0.18194351779569903,0.16030622923267826
298,0.18228095453724658,0.17075163765303603
299,0.18021905363751373,0.16380703716334152
300,0.1809816722145932,0.16436090636379044
301,0.18092119663333397,0.1697107875494578
302,0.18117434623314915,0.16961355414317086
303,0.18140080289018928,0.16567223767439523
304,0.1798432592371161,0.16265760938616564
305,0.18011172603759124,0.15938908514315195
306,0.18097141344514822,0.16999952979718197
307,0.1809175225426618,0.1708060584823387
308,0.18080460121504682,0.16331307386974928
309,0.18087176198335148,0.165535752718176
310,0.18034877575593916,0.17285802852836743
311,0.18125078620745527,0.1691133777179664
312,0.1814456677692141,0.1630215529421917
313,0.1815418746349237,0.166601556266408
314,0.17993782142145906,0.1638782388392446
315,0.1806711343059643,0.16712895335458877
316,0.18081873275333638,0.16407785562848232
317,0.18010507326564185,0.16830728549301768
318,0.17976788940837232,0.16254192416685342
319,0.18073491894120308,0.16482666556610873
320,0.1809263522800109,0.1630430670888658
321,0.1805550476686777,0.16318125974474548
322,0.1790352908311318,0.161471214680196
323,0.18014263367657665,0.16476203274021087
324,0.18078651876331234,0.16326342825230214
325,0.17930937516655895,0.16034845321379534
326,0.18001079868921954,0.17152841831500804
327,0.17971420752777875,0.17516279939655743
328,0.1813298518940198,0.16624391089825735
329,0.18016409423587035,0.17122638081740482
330,0.18125186275371655,0.1600946637545769
331,0.18004395210857482,0.16299612254556947
332,0.18038806390819595,0.16226304472943
333,0.18172473192596741,0.16344999644636432
334,0.1802173093128338,0.17282094539952103
335,0.18153679122726282,0.1664820463673815
336,0.1807295176759064,0.16267432834400167
337,0.1805485541983735,0.1759328052872869
338,0.18191837012958678,0.16641032536244452
339,0.18221696051623557,0.1703773796896768
340,0.18381056199081428,0.18426534597552702
341,0.18236993555072023,0.16954779899275021
342,0.18157717163224904,0.17102599792961948
343,0.182089187234664,0.1669234861495141
344,0.1827992571710204,0.16600904677181058
345,0.18294552561519048,0.16277993815465372
346,0.18208276208421534,0.16784578727351296
347,0.18141130075825035,0.17362164796027146
348,0.18163647208574585,0.16306444806774167
349,0.18201552533669124,0.16230815037516974
350,0.18185031445647737,0.1661320497423096
351,0.18107345724124924,0.16808286791445276
352,0.18310360865200684,0.15886228250011813
353,0.18246699307707426,0.16402737699624298
354,0.18112839736324773,0.16349976713446612
355,0.18375817085023496,0.16528762677580192
356,0.1812911841204111,0.16250802791660043
357,0.1803176215737223,0.16607480714307601
358,0.1705108478044967,0.14600540823865885
359,0.15396806836915647,0.13178695285721514
360,0.1548086172156185,0.13660515394040654
361,0.15313008428216457,0.13269275933238228
362,0.15121986342667101,0.13925600897850104
363,0.15114169678776812,0.12289929279977485
364,0.1495882927375235,0.12707884093657415
365,0.15203464587477802,0.13094144413022615
366,0.15166786470539192,0.13608358171976204
367,0.15337607921291294,0.1313184286858237
368,0.1491248001597279,0.13414797218877517
369,0.15463322469646976,0.13322250648958356
370,0.15704753834178584,0.14880312812444357
371,0.15514644645482564,0.13406119432786762
372,0.15445237339222975,0.1419796003610355
373,0.15377265388210168,0.12685986401004126
374,0.15022693583972938,0.13230382943554614
375,0.1525426186245379,0.12031641120917412
376,0.15171332873278756,0.13535265866833204
377,0.15259483209352573,0.12838631400661746
378,0.15358278775114934,0.13102598505250246
379,0.1535776892395092,0.13062874804834768
380,0.15088978033360717,0.138713407684465
381,0.15381182963736922,0.12659011772151701
382,0.15142753529395936,0.1390161275053933
383,0.15230867781156632,0.12936790326167583
384,0.15086166446713853,0.12845948004954633
385,0.15283175486268952,0.13007287586233235
386,0.1527235284119582,0.12790216949057598
387,0.15154629816607632,0.12377584449469511
388,0.15174325611039674,0.13522168705111487
389,0.1515866173796648,0.12734882930552002
390,0.15067489661747593,0.1252459931064213
391,0.149421089357906,0.13469096409143322
392,0.14970183680900295,0.14014269891954106
393,0.1517269460915374,0.13476099643708242
394,0.1508260056275048,0.1296268082363569
395,0.15024241274767058,0.12910031185267132
396,0.15113561121438196,0.15546246175106618
397,0.15236768600425785,0.12909718521320038
398,0.15193006140086726,0.13377120673342247
399,0.15174443969984738,0.15895698866704955
400,0.15268092164046485,0.13138067885471957
401,0.1509047913714778,0.12710029989577654
402,0.15233736503735076,0.13534216081235628
403,0.1501233502804899,0.13466139563751336
404,0.15039907690522383,0.1264808574164194
405,0.15241579208567774,0.13886159213693375
406,0.1528715144476001,0.1287287503166694
407,0.15332020005827146,0.12508740892447984
408,0.15017261655570222,0.13873980979873993
409,0.15215652580078456,0.12069722984684064
410,0.1501402076336744,0.12908801863034952
411,0.15202352685258808,0.13947559700975162
412,0.14934341633040682,0.1225756325933475
413,0.1516752412723149,0.14103111126199547
414,0.1525092959236965,0.14252145153931844
415,0.15320007146908055,0.13566704136708455
416,0.1522052907068029,0.15543414538141584
417,0.15434043155349284,0.13187253957392236
418,0.15200639124795665,0.13510837428882078
419,0.15260415795066054,0.1287149065940823
420,0.15282256854437082,0.12482105069231039
421,0.15139919671836236,0.14047192751950396
422,0.15366121482035464,0.15422575402965608
423,0.15496645670673484,0.13316256096110726
424,0.15312969138483412,0.12732769046144957
425,0.15255844414090997,0.14771827229956544
426,0.15292651640524188,0.12703037357436672
427,0.15422101840496158,0.1234502272086712
428,0.15382225674877556,0.13992811701376073
429,0.15432213615772244,0.13059857718507545
430,0.1539157771104999,0.14708861485063207
431,0.15418792440532875,0.13289781763775022
432,0.15232750006300436,0.13188668821439062
433,0.15307010794945772,0.1338582219373184
434,0.15267159980389955,0.1417786986155425
435,0.1544679526517017,0.1454324780601558
436,0.15157021861896217,0.12729317662876405
437,0.15256761487803047,0.12275803967742348
438,0.1530995374087623,0.13224108385440303
439,0.15267592014445125,0.1292818001526599
440,0.15325512324539636,0.14022423736056175
441,0.15307657897854157,0.13016534704844931
442,0.15272960123465099,0.14166579499466092
443,0.1512993839476183,0.15403219171635812
444,0.15361520476800333,0.13520481157065986
445,0.15282410599762578,0.1374793830965944
446,0.15429857764557134,0.12135272702113072
447,0.15401988982366885,0.13207812329326715
448,0.154588841313453,0.14042964037462452
449,0.15140282298871477,0.12829845151520317
450,0.15383005786755735,0.12764253356741004
451,0.1521715951935829,0.14271011228906558
452,0.15558833146603515,0.1426164363084145
453,0.15268753322842027,0.12594675423165017
454,0.15483048462791382,0.130843588428244
455,0.15471962295931946,0.13795518631603498
456,0.15388010171435182,0.13018328584700412
457,0.15308415146471502,0.13875939121767455
458,0.1552351556712384,0.13335531464168335
459,0.1540719528106139,0.12872105181845628
460,0.1540368304038353,0.1308660365320857
461,0.1540750902864912,0.12864868536241056
462,0.15319984883451768,0.13126608751720273
463,0.15335973004718798,0.1332027735332116
464,0.1550204502948052,0.13126068489757478
465,0.15389496784767598,0.13697403331573477
466,0.15419505938314934,0.12597790264976963
467,0.1548177740089983,0.1402573595178485
468,0.15442473840138451,0.13233058434961678
469,0.1513851796648949,0.1477663443459308
470,0.1543655852892334,0.1335630883060136
471,0.1542730736579773,0.14705687245264928
472,0.15377374241252342,0.1381965244410972
473,0.15520598312572922,0.1290218778383606
474,0.15388435260761824,0.1276779814056043
475,0.15662559761022263,0.13821965925522384
476,0.15402962104547874,0.13250666183615156
477,0.15647312450566417,0.13735799232780305
478,0.15381317510246467,0.13500141870269713
479,0.15575841246389024,0.1354538086085714
480,0.15545111113161542,0.14228600560289423
481,0.15354654362933745,0.13270180694160671
482,0.15405418380820532,0.13420673797552118
483,0.15425401891442278,0.1474479312395914
484,0.15406045728356385,0.14025019329201371
485,0.1558156776889932,0.14333848158518472
486,0.15545834736336317,0.14479435101719476
487,0.1587324031711436,0.13245232672780294
488,0.1586006291276269,0.12737967586333637
489,0.15416166230773715,0.14226920483973773
490,0.1551614994372579,0.12722067975432333
491,0.15561953656154695,0.14723583866161538
492,0.154865221498464,0.14086608464821315
493,0.15560106079491545,0.12672519437297997
494,0.1554768140866959,0.13168949635045274
495,0.15581352378519847,0.12877721439167822
496,0.15736780485050308,0.12692325999121887
497,0.15646196905973914,0.13124075169400867
498,0.15472594939106651,0.14288373551326172
499,0.15658522394595384,0.13113254202954283
500,0.15550759194002714,0.13285330707767778
