epoch,loss,val_loss
0,0.5152759203521335,0.5104761421532548
1,0.5104627513071112,0.5093803426172242
2,0.5097017685138451,0.5092985535082095
3,0.5091706596522861,0.5092515209472505
4,0.5087895404817478,0.508599652013471
5,0.5086137887515277,0.507948426040763
6,0.5081958886204843,0.5125133895104931
7,0.5081267338721622,0.5086340108817032
8,0.5079913331028505,0.5076170366987697
9,0.5078421090168912,0.5075648240061019
10,0.5077485610757804,0.5076331672242498
11,0.5076636736680203,0.5074929473417864
12,0.5076832429880664,0.5078839951058476
13,0.5075483583774192,0.5085046637442804
14,0.5074925001110798,0.507219123396625
15,0.5074803006082481,0.507388594014473
16,0.5074238328577734,0.5074487699172633
17,0.5073595058419302,0.5072747857044115
18,0.5072756440780128,0.5070725995612795
19,0.5072891601169045,0.5072045456091169
20,0.5072442058372412,0.50727694386584
21,0.507275027718451,0.507078481667095
22,0.5072356671573318,0.5070072125264492
23,0.5072037227349944,0.5070347480975073
24,0.5071769610335854,0.5073589950282283
25,0.5071517730341056,0.5069016209902893
26,0.5071579617034152,0.5084014408345849
27,0.5071276532325925,0.5069852392075967
28,0.5071060729734216,0.5069301006515919
29,0.5070880773426832,0.5070348188835693
30,0.5070586943495142,0.5071116202226643
31,0.5070267633956288,0.5071375087236353
32,0.5070574433003907,0.5078072786626981
33,0.5070437100221673,0.5068516159767549
34,0.5070026772305374,0.5070869889507814
35,0.5070376154813558,0.506816353632262
36,0.506957340848034,0.5067566785859706
37,0.5070071630186291,0.5073713358815195
38,0.5069509361683868,0.5067541811661448
39,0.5069564614079695,0.5067721680731099
40,0.5069319769840483,0.5080879518471049
41,0.5069552074109951,0.5072140626221082
42,0.5069487250333516,0.5071306847165299
43,0.5069114080538554,0.5069577752804342
44,0.5069089258806189,0.5068855122360343
45,0.5068998449988833,0.506861296569739
46,0.5068818666071957,0.5070627203058664
47,0.506894528081719,0.5068465658216263
48,0.5068653729178999,0.5075088551263359
49,0.5068948526040473,0.50667337622891
50,0.5068701283597995,0.506729804907484
51,0.5068939570505899,0.5072184082000486
52,0.5068718408047699,0.5066867877176914
53,0.506847094682373,0.5069619625437053
54,0.506880310434606,0.5067154029758634
55,0.5068798013951158,0.5069283800444591
56,0.5068412124309966,0.5069491277853253
57,0.5067951745617515,0.5070341881983925
58,0.5068381926847775,0.5068386888385706
59,0.506826801423958,0.5066590348189285
60,0.5068472046323975,0.5066587195207108
61,0.5068659224503062,0.506695548565157
62,0.5067914474859404,0.5067734384655065
63,0.5068146029402921,0.5068876066219717
64,0.5068094993364618,0.5069117056820588
65,0.506827162515571,0.5073610863673775
66,0.5067784510599918,0.5066759825640221
67,0.5068609580170621,0.5066655696177896
68,0.5068268738368056,0.5067603811140984
69,0.5067826402786699,0.507117285059936
70,0.506771922737052,0.5067220879251845
71,0.5067841324796621,0.507222387542204
72,0.50682323370879,0.5068423781146483
73,0.5067525995897658,0.5069185742965111
74,0.506779224647994,0.5067408596315691
75,0.5067534373402619,0.5065987348556519
76,0.5067643482386502,0.506802067389855
77,0.506794943282856,0.5127471297017989
78,0.5067695455947077,0.5068672700496228
79,0.5068118768479778,0.5068975065837131
80,0.50676227247836,0.5071111189520389
81,0.5067765083103286,0.5077850736991939
82,0.5067746916106729,0.5069002642229237
83,0.5067562046748791,0.5066763280047376
84,0.5067465186601843,0.5075502393263446
85,0.5067641628096029,0.5068368320133787
86,0.5067056017521443,0.5070904529715886
87,0.5066993002244007,0.5069204115098522
88,0.5067144552005217,0.5073606401460047
89,0.5067763155081045,0.5075301752788554
90,0.5067282384289221,0.5067081246719171
91,0.5067536544849343,0.506671706086057
92,0.5067075605497275,0.5070208566656184
93,0.5067329998335738,0.5066824981947394
94,0.5066925097699185,0.5069596353298973
95,0.5067113694988024,0.5074712293319608
