epoch,loss,val_loss
0,0.6701056539085176,0.668314073284467
1,0.6682503009637197,0.6680452304681143
2,0.668047538306978,0.6678843203783035
3,0.6679605619510015,0.6680546055634816
4,0.6679129869805442,0.6678307844400406
5,0.6678742061720954,0.6677951228618622
6,0.6678569543891483,0.6677580634355545
7,0.6678239172961977,0.6680392419894536
8,0.6678107279804018,0.667784194389979
9,0.6678037170569102,0.6677500067154566
10,0.66779692571693,0.6677426056067148
11,0.6677855765952004,0.6679481683174769
12,0.6677770329448912,0.667697737733523
13,0.6677738865481483,0.6676983543634415
14,0.6677654973400964,0.6677079312006633
15,0.6677631528377533,0.6677109766801198
16,0.6677650625838174,0.6677396479447683
17,0.6677565884192784,0.6676865711609522
18,0.6677550888591343,0.6677001659075419
19,0.6677546025249693,0.6678124635219574
20,0.6677532070345349,0.6677622518539429
21,0.6677478562725915,0.6680842951536179
22,0.6677487993505266,0.667674707810084
23,0.6677485178311666,0.667687824289004
24,0.6677475762632158,0.6679480805794398
25,0.6677417387432523,0.6676993463436762
26,0.6677405963871215,0.6677009119590124
27,0.6677458576891158,0.6677220920324326
28,0.6677423454523087,0.667676244854927
29,0.667740346842342,0.6677324592272441
30,0.6677374328772226,0.667674654006958
31,0.6677367970943451,0.6677051210800806
32,0.6677395771476957,0.667875246922175
33,0.6677380858924654,0.6677041135231654
34,0.6677375779284371,0.6677138597567877
35,0.667734600464503,0.6678304638067881
36,0.6677335926559236,0.6676597806612651
37,0.6677298991415236,0.6677104168732961
38,0.6677289337449603,0.6676736596822739
39,0.6677333617210388,0.6677299658457438
40,0.6677291306787067,0.667790123184522
41,0.6677366990380817,0.6676785386403402
42,0.6677278171777725,0.6678423813978831
43,0.6677317755222321,0.6676924189329148
44,0.6677238847944471,0.6676951005458832
45,0.6677313049766752,0.6677822272777557
46,0.6677271143330468,0.6677853591442108
47,0.6677309559848573,0.667693326195081
48,0.6677216684288448,0.6676722155014674
49,0.6677262619601355,0.6676523541212082
50,0.6677314068741269,0.6677114091714224
51,0.6677286365562015,0.66773532696565
52,0.667722329629792,0.6676634415785472
53,0.6677260941531923,0.6676856945753098
54,0.6677257483932707,0.6679745698372523
55,0.6677239877382914,0.6676739241679509
56,0.6677240389850404,0.6676776178677877
57,0.6677245468431049,0.667664249420166
58,0.6677211547162798,0.6676569248835246
59,0.6677220762835608,0.6676710173686345
60,0.6677241958247291,0.6676628180742263
61,0.6677203693787257,0.6679523988167445
62,0.667722418639395,0.6676923000017801
63,0.6677246446874406,0.6676881330808003
64,0.6677221247222689,0.6677090239524841
65,0.6677220344543457,0.6677449966669082
66,0.6677239700158437,0.6677171525557836
67,0.6677201087872188,0.6677082620859146
68,0.667725082092815,0.6677493830919266
69,0.6677182573874791,0.6678816214402516
