epoch,loss,val_loss
0,0.3438394340251523,0.33789109038951676
1,0.3377017576002276,0.33689698365426834
2,0.3371583003003469,0.3374000795425907
3,0.3364963453640745,0.336516770727877
4,0.2667458012383169,0.22561063020312164
5,0.22552469203486525,0.22500588942698155
6,0.22530003646137087,0.22505570767683072
7,0.22526694920963986,0.22526618830915124
8,0.22520993233497735,0.2255186317872173
9,0.22515290360383317,0.22492216106679835
10,0.22509876456047034,0.22505456667680007
11,0.22512864917301753,0.22488257703798875
12,0.22503605712204136,0.22493978969512446
13,0.2250598528749175,0.2247842798162039
14,0.22503063760535047,0.22492950029911535
15,0.2249934630590337,0.22605974868716436
16,0.22497361702181515,0.22472332875722692
17,0.22496578049974314,0.22495100470837529
18,0.22495310278403682,0.2246630504690388
19,0.22491761700739368,0.22477910957916203
20,0.2249284141187,0.22470199913895753
21,0.2248754480322475,0.22463616402657985
22,0.2248724852469156,0.22479941240019596
23,0.2248435291064139,0.22527565670664199
24,0.22485384460913763,0.22519782678808822
25,0.22484893922441443,0.22482221041512548
26,0.22486512710376644,0.22480741310356273
27,0.22484707408992072,0.22473479922001177
28,0.22480933243827544,0.22465042207140484
29,0.22485789805017675,0.22470183631326662
30,0.22484616896994977,0.22467817987313046
31,0.2248204539547691,0.22474686998883192
32,0.22481531905595628,0.22465209383378845
33,0.22480210840656306,0.22461328947218712
34,0.22481283329690416,0.22467265170502013
35,0.224794740760401,0.2246828565896297
36,0.22479024569233752,0.22480257693354605
37,0.22479890475491826,0.22461152421333655
38,0.22480635296765025,0.22463492206840893
39,0.22479388568467473,0.22467525821761516
40,0.22479198669840925,0.22480095550972534
41,0.22476910815429565,0.22465415673131683
42,0.22477652963758535,0.2247444466237099
43,0.22479420624393037,0.22462179971392043
44,0.2247721978910683,0.2254108045740104
45,0.22478499827882256,0.22459770087568695
46,0.2247601163152859,0.2246060267127773
47,0.22477126700777236,0.22511914717796128
48,0.22478463268063417,0.22501551131752526
49,0.22473302541281157,0.22476087481005316
50,0.22475433830893157,0.2247452491566206
51,0.22476441790154977,0.22464801350391236
52,0.22474916705283157,0.22469044832822407
53,0.22474369549103337,0.22474327653868323
54,0.224736392711986,0.22531631165935148
55,0.22476902780327299,0.22465327683068978
56,0.2247423601836241,0.22528472436273067
57,0.2247622277726141,0.22632532216627013
58,0.22475772012293863,0.22502315065848916
59,0.22475258227055597,0.22469258783916682
60,0.22472705441846408,0.22458479603378115
61,0.22474884344317742,0.22461459318698193
62,0.22474855272489674,0.22455306604837366
63,0.22472202693379054,0.224712039356492
64,0.2247267377767263,0.22458870443457704
65,0.22472225567857546,0.22536547604772647
66,0.22475061785533298,0.22514840938317274
67,0.2247288449199533,0.22476498134082956
68,0.22471564521712845,0.22504705257214624
69,0.22472566786207235,0.2246141603729565
70,0.22471817479085204,0.2245785376496114
71,0.2247102971631417,0.22460109438405143
72,0.2247362043705851,0.22457974414819523
73,0.2247001185558265,0.22454256942638984
74,0.22470144064740596,0.22514579753130304
75,0.22469891206385895,0.22492042831688305
76,0.22470066631553876,0.22474745224338608
77,0.2246932532565394,0.22474602837272672
78,0.22468652221403068,0.22465279618504622
79,0.2246789068632044,0.2248613647358589
80,0.2247190751804177,0.2246860128552387
81,0.22469187736668209,0.22471599862829922
82,0.22471983277650662,0.2245830203995811
83,0.22467123921405702,0.22475193524478979
84,0.2246793003058437,0.22463245035401053
85,0.2246595630665662,0.22455411420270763
86,0.2246863928140673,0.22454355166804407
87,0.22465249666500503,0.22509779779993866
88,0.22466008221962233,0.2246642268399151
89,0.22468780903946947,0.2247678673222994
90,0.22467220090089549,0.22462690213773742
91,0.22468118192171863,0.2245877831286887
92,0.22467572284174567,0.2245792998495528
93,0.22466117886095768,0.2245680638489593
