epoch,loss,val_loss
0,0.5625266539648363,0.5587824369778408
1,0.5581680137343963,0.5578186336877032
2,0.5577872984415106,0.5576711039093529
3,0.5576826308133959,0.5575170845902587
4,0.5575892442057871,0.5574958863388516
5,0.5575301076058913,0.5575948880268977
6,0.5574566447971955,0.5576873838753618
7,0.5573924068479401,0.5574531366748194
8,0.5573884401292887,0.5572097554396163
9,0.5573319965027568,0.557190993790591
10,0.5573509009700299,0.5578489355650492
11,0.557319940702329,0.5572194345831575
12,0.5572998983796184,0.5572374029431686
13,0.5572853997077396,0.557119429318544
14,0.5572840905992856,0.5571141094782808
15,0.557243135005535,0.5573312694026578
16,0.5572279485346608,0.5572440142371222
17,0.5572235422012857,0.5570977597911068
18,0.557204406286308,0.5572349126522358
19,0.5572021857728947,0.5580823844478976
20,0.5571917621376065,0.5572640089775729
21,0.5572016873297331,0.557871524956327
22,0.5571676709058717,0.55728214931843
23,0.5571770936893976,0.5570351551839199
24,0.557157132063808,0.5570463561834236
25,0.5571413209017689,0.5570340422483591
26,0.5571458429278376,0.5571379942574513
27,0.55714033555048,0.5575133583681755
28,0.5571197510827388,0.5570563420172661
29,0.5571214909686745,0.5570172995846562
30,0.5571350275383968,0.5570363826550562
31,0.5571135861263926,0.5570247501948336
32,0.5570974935309747,0.5570766261138632
33,0.5571114541297539,0.5571865185318751
34,0.5571010259090076,0.5570154119661961
35,0.5570955801604277,0.5572659920522061
36,0.5570941682992173,0.5570589332959196
37,0.5570709226021351,0.5577012337171114
38,0.557081952948039,0.5570109241949417
39,0.5570844951787076,0.5570400038664749
40,0.5570738360734799,0.5569693461541206
41,0.5570834715558427,0.5569916287663557
42,0.5570668362892459,0.5570459776421635
43,0.5570707830189917,0.5570101431522416
44,0.5570672490846009,0.5572936587534827
45,0.5570724232412221,0.5569770772758844
46,0.5570629713846454,0.5574056492254101
47,0.5570609915931894,0.556983027150554
48,0.5570697903749864,0.5573972864423141
49,0.5570566944730735,0.5572176811121238
50,0.5570601892405683,0.5575027584733797
51,0.5570616620860839,0.5570207691074305
52,0.5570494295061096,0.5570145973200834
53,0.557066483624684,0.5570446146628992
54,0.5570401787754719,0.5570445762970312
55,0.5570634822952361,0.5571780305938153
56,0.557044147010251,0.5569931242957009
57,0.557040433586689,0.5571274554167432
58,0.5570530206273868,0.5570969735718246
59,0.557034504638263,0.5569591702657657
60,0.5570480480881446,0.5569810575646147
61,0.5570361584559468,0.5571018370741946
62,0.5570439060548005,0.5569972928641156
63,0.5570314666070071,0.5569434406443802
64,0.5570365615360942,0.5570136799410023
65,0.5570381339120031,0.5569610442476296
66,0.5570330410188816,0.5569877747270665
67,0.5570386471054625,0.5569597198412969
68,0.5570319124195537,0.5569489003411002
69,0.5570200411268219,0.5569767451463798
70,0.557030862129564,0.557148983786183
71,0.55704013089518,0.557101008998549
72,0.5570270560920539,0.5570033027279762
73,0.557032368157925,0.5569980275838015
74,0.5570222831720887,0.5570156842544121
75,0.5570373426802814,0.5569520735563179
76,0.5570162663821251,0.5570508283066099
77,0.557028551011348,0.557040243349951
78,0.55701427542244,0.5569305563682954
79,0.5570293894165715,0.5571522457132269
80,0.5570364184544979,0.5574079594896094
81,0.5570278198875434,0.5569666984655129
82,0.5570176225512783,0.557568389340015
83,0.5570309853042927,0.5570018472210053
84,0.5570203245401594,0.5569601932471206
85,0.5570327747112828,0.5570034911259824
86,0.5570150053992885,0.5569211403134443
87,0.5570277060604284,0.5571362708401739
88,0.5570106294137104,0.5573306048182637
89,0.5570279664502382,0.5570152627327306
90,0.5570114186118331,0.5569727055783898
91,0.5570287957452853,0.5569762890155499
92,0.5570196224720513,0.5572299336677153
93,0.5570166924542469,0.5569367477083325
94,0.557023622204739,0.5571434876167449
95,0.5570176011677245,0.5569747348281349
96,0.5570320400866589,0.5569779918448209
97,0.557013036058228,0.5569870748827535
98,0.5570152181470327,0.5569516537503036
99,0.5570135162368623,0.5571145943021656
100,0.5570203547507003,0.5581418682860382
101,0.5570353691142573,0.5570238815347847
102,0.5570257200182981,0.5569489136818917
103,0.5570284816291782,0.5569410830514306
104,0.5570111372431382,0.5569431593341212
105,0.5570141538435106,0.5569557071323726
106,0.5570103418258943,0.5569440797304102
