epoch,loss,val_loss
0,0.40887578175465267,0.4037001728216807
1,0.4037433639764786,0.40292326410611473
2,0.40325129873222776,0.4030766724149386
3,0.40304002466466693,0.4029120072523753
4,0.40287946623563764,0.4025409244696299
5,0.40276357005039853,0.40261690616607665
6,0.4026946937706735,0.4026993045210838
7,0.4025290885567665,0.40209240005413693
8,0.4024022285474671,0.4022002417246501
9,0.4023466372092565,0.4021738622983297
10,0.4022981190946367,0.40210849104324975
11,0.4022641625271903,0.4021412727634112
12,0.4022425739169121,0.40206506101290385
13,0.40224327962266077,0.4030936473210653
14,0.4022017555369271,0.40244238313039143
15,0.4022132395307223,0.40258332626024884
16,0.4021849066813787,0.40229667198657987
17,0.40218639048602844,0.4019266767501831
18,0.4021621192097664,0.4020045783321063
19,0.4021601709591018,0.4025136383771896
20,0.40213407449589833,0.4019581229289373
21,0.40213071740998163,0.40215798004468284
