epoch,loss,val_loss
0,0.8598995736789694,0.8591314236816047
1,0.8584732094187275,0.8582507764139483
2,0.8582987235794328,0.8586442480607896
3,0.8582444363614047,0.8581483437464787
4,0.8581560758039857,0.8583418757980574
5,0.8581140396174114,0.858243442646623
6,0.8580939626406908,0.8580888647891156
7,0.8580741281284489,0.8582415676294426
8,0.8580480267787595,0.8580268463484998
9,0.8580366214428791,0.8579679214037381
10,0.8580280992281799,0.8580621297247061
11,0.8580162869508383,0.8579404608191686
12,0.8580026384755864,0.857953285638511
13,0.8579935086770389,0.8579815147236618
14,0.8579950056433421,0.8580731481831364
15,0.8579928664060497,0.8579398210823684
16,0.8579802632748349,0.8579817025004782
17,0.857976566165817,0.8579823370015355
18,0.8579781935664345,0.8579441826929229
19,0.8579668314922569,0.8580782740938456
20,0.8579720895541633,0.8579370603076282
21,0.8579691549532672,0.8578957682803606
22,0.8579651303843248,0.8579591373947655
23,0.8579596607981468,0.8579194219473278
24,0.8579546179593275,0.8579314992978022
25,0.8579513232844066,0.8579047197147871
26,0.8579523444871466,0.8579648581687037
27,0.8579467598062067,0.857902539486329
28,0.8579496623309832,0.8578979625891219
29,0.8579496692419067,0.857886328975261
30,0.8579454085104339,0.8578992491028741
31,0.8579395163008907,0.8579271153835741
32,0.8579420508049875,0.8579776768353086
33,0.8579480169293071,0.8579759750413539
34,0.857933816469971,0.8579007645694553
35,0.857940059030443,0.8578975276674882
36,0.857930830744333,0.8578994803038188
37,0.8579431527300911,0.8580107330092721
38,0.8579318227541204,0.8579522046202761
39,0.8579357774936273,0.857888317906827
40,0.8579344697127712,0.8580078513095751
41,0.8579331595843624,0.8579048574118697
42,0.8579356221197219,0.8579513032146482
43,0.8579320725436574,0.8579071976706645
44,0.8579305108516371,0.8579025476505384
45,0.8579310958182045,0.8578789348341986
46,0.8579258201764737,0.8580167542024523
47,0.8579259019038044,0.858145414303905
48,0.8579329992921133,0.8581854136351025
49,0.8579268396508913,0.8578811641366547
50,0.8579237334467391,0.8579212543982134
51,0.857927201419319,0.8578874123895138
52,0.8579275374403954,0.8579360030720903
53,0.8579292942088315,0.8579112240161848
54,0.8579246327510744,0.8578855507427054
55,0.8579248550633601,0.8578923497543146
56,0.8579250118200814,0.8579322608469734
57,0.8579197747859674,0.8578774648032177
58,0.8579578687233398,0.8578999342161135
59,0.8579239571986362,0.8578853861273962
60,0.8579260857394188,0.8579194954252125
61,0.8579209695269591,0.8578979271517202
62,0.8579215842181492,0.8579358105328183
63,0.8579128415614761,0.857872590533557
64,0.8579170201049428,0.8579276627405702
65,0.8579194495418613,0.8578860394712121
66,0.8579156905808272,0.8579436885511905
67,0.8579152009946281,0.8580277562141418
68,0.8579252051153231,0.8581285008425749
69,0.8579092388239153,0.8580441450954371
70,0.8579167695873173,0.8579017887044486
71,0.8579124529184617,0.858064362428916
72,0.8579229052000447,0.857883785114099
73,0.857919300520389,0.8581613224138397
74,0.8579131730389022,0.8578979780301267
75,0.8579154730409518,0.8578778339378887
76,0.8579157511139226,0.8578617894619925
77,0.8579108296039741,0.8578786903812039
78,0.8579143247209199,0.8578666056651927
79,0.8579233675661503,0.8579282592307249
80,0.8579105761661069,0.8578753569581669
81,0.8579125433686541,0.8582389522427069
82,0.8579113034988033,0.8578964558783595
83,0.8579121612421492,0.8579410332012413
84,0.8579141404206857,0.8579440145279574
85,0.8579052516840804,0.8579267590572461
86,0.8579176619846732,0.8580240422679531
87,0.8579115444140235,0.8578678258595337
88,0.8579084917247628,0.857914787279465
89,0.8579186047936705,0.8579684122324581
90,0.8579095181108927,0.8578746594211304
91,0.8579124955159713,0.8581711475961558
92,0.8579216578292269,0.857991573029653
93,0.8579061139836979,0.8581856959806778
94,0.8579104507944917,0.8579046584240556
95,0.8579146437577372,0.8579079394600824
96,0.8579109677924693,0.8579118941617071
