epoch,loss,val_loss
0,0.8905726222099558,0.889626183847044
1,0.8415967715945949,0.7793994470506389
2,0.7792393979131272,0.7795763653206175
3,0.7790070003268658,0.7788363910194662
4,0.7788672019864821,0.7790553100055856
5,0.7787788805194427,0.7786867203251008
6,0.7787467786935448,0.7786755282293183
7,0.7787166361156511,0.7787177494086935
8,0.7786841888043164,0.7785870032629955
9,0.778663477005511,0.7786157068188669
10,0.7786390331817865,0.7785647956668296
11,0.7786231125296097,0.7786649707824953
12,0.7786066600731507,0.7786790792167039
13,0.7785994539567119,0.7786963796793084
14,0.7785903579286868,0.7785462450744496
15,0.7785817232736326,0.7786925580897934
16,0.7785751876958403,0.7789372829882146
17,0.7785686992315988,0.7785008796687162
18,0.7785634908303695,0.7785918372736379
19,0.7785573636652028,0.7785607886373553
20,0.7785659439455429,0.7785371976809821
21,0.77854855244753,0.7785049312167961
22,0.778554466453184,0.7784769776145518
23,0.7785521064710075,0.7784906093299241
24,0.7785467744572498,0.7787007320015957
25,0.7785457725476689,0.7784979108841189
26,0.7785408230974269,0.778876485570193
27,0.7785436903213543,0.7784910283964266
28,0.7785421219006298,0.7785618992360591
29,0.7785398728876438,0.778591606309337
30,0.7785349410897984,0.7785126263095486
31,0.7785374721348837,0.7784870233192633
32,0.7785329305088017,0.7786963015868705
33,0.7785341715350745,0.7784837441763865
34,0.7785377046995691,0.7785036962913816
35,0.7785383005772075,0.7785014456614076
36,0.7785281764576061,0.7785269306847831
37,0.7785325112979071,0.7785703146723897
38,0.7785328887932019,0.7784814017582177
39,0.7785334072970524,0.7784740833135751
40,0.7785210934796098,0.7785046923249295
41,0.7785272562343367,0.7786072651446605
42,0.7785193273343735,0.7785155466117575
43,0.7785324795665055,0.7785067547047996
44,0.7785232865473249,0.7785128032007526
45,0.778520556614995,0.7785369382011091
46,0.7785191054101912,0.7785595444532541
47,0.7785253191153291,0.7786464368439194
48,0.7785205168328131,0.7785073346298919
49,0.7785149765605323,0.7785394102704732
50,0.7785198490668978,0.7784763063745522
51,0.7785149887195296,0.7785992962846685
52,0.7785118080925957,0.7784710757194027
53,0.7785133336192113,0.7786268096407944
54,0.7785174037461353,0.7784766001381886
55,0.778520632616222,0.7787059620947163
56,0.7785098992996184,0.7786189531274232
57,0.7785104089551835,0.7784810150231676
58,0.7785156049804879,0.7784595373546516
59,0.7785167670781925,0.7784759138121499
60,0.7785160359693756,0.7784646831730163
61,0.7785141826026204,0.7785002156759314
62,0.7785123868786944,0.7784724939254022
63,0.7785134319379645,0.7785078796500308
64,0.7785073764591348,0.778483351791467
65,0.7785129512592132,0.7784566038595535
66,0.7785055816139634,0.7784720409301019
67,0.7785020113453587,0.7784994133944547
68,0.7785065094683564,0.778467998966094
69,0.7785123818885674,0.7784958788538098
70,0.7785060067947094,0.7784713990635079
71,0.7785121433556083,0.7785446293596594
72,0.7785008457507787,0.7785099031907453
73,0.7785109595753839,0.7785955498295446
74,0.7785023837811096,0.7784600437722786
75,0.7785056635968743,0.7785163276544576
76,0.7785040266892999,0.7786129035665734
77,0.7785079889021648,0.7785062437317803
78,0.7785067824991376,0.7785989163235458
79,0.7785052802035114,0.7786839034362112
80,0.7785059553291935,0.7785792311131214
81,0.778502681792501,0.7785039791102445
82,0.7784993537256952,0.778480369399854
83,0.7785072304691292,0.7784524510871093
84,0.778500250673012,0.7784758392102074
85,0.7784977789659475,0.7785261649056049
86,0.7785021417883501,0.7784612120233162
87,0.778506295826081,0.7784675002985497
88,0.7785000753228222,0.7784802413755848
89,0.7785046530196496,0.7784545992207587
90,0.7784997575536516,0.7784851067711047
91,0.7785037464778158,0.7784762103267698
92,0.7785072890979935,0.7786478395201728
93,0.778497091291587,0.7784619501447559
94,0.7785021902287098,0.7785014531452662
95,0.7784982367489615,0.7784916165448892
96,0.7785018903296526,0.7784805732092845
97,0.778503206643263,0.7784502522229557
98,0.7785011727886801,0.7784548066685868
99,0.7784967532148243,0.7784562425341263
100,0.7785057764213887,0.7786898863522645
101,0.7784969472468315,0.7785136805870397
102,0.7784999975893285,0.7784708256461188
103,0.7785018635891667,0.7785593605218987
104,0.778499996962999,0.7784580379206845
105,0.778502706810975,0.7784574027984373
106,0.7785060554259656,0.7787503502504998
107,0.7784969082897639,0.7784844644016427
108,0.7785044302727195,0.7785078696222518
109,0.778504760532984,0.7785248508524363
110,0.7785012240980079,0.77849036996477
111,0.7784991367198566,0.778471075364437
112,0.7785025163918008,0.7785205289388709
113,0.7784986398212206,0.7788028240499663
114,0.7785035958053262,0.7784650994589548
115,0.7784927795126771,0.778490060641807
116,0.7784988315451166,0.7784748334742657
117,0.7784979549913743,0.7787214823159627
