epoch,loss,val_loss
0,0.8373345537887789,0.8366673321936917
1,0.8358050094165639,0.8355404510687362
2,0.8356190451951121,0.8355015422511042
3,0.8354223405370939,0.8355062783208141
4,0.8353009328292066,0.8351268752928703
5,0.7887531068247075,0.6706993318077352
6,0.6703579598454699,0.6701414691307409
7,0.6702977758411177,0.6701348133773425
8,0.6702338585189572,0.6703923576522998
9,0.670124942675706,0.6702032641500753
10,0.6700917539929001,0.6701884170619785
11,0.6700873928585899,0.6699036309204386
12,0.6700354334756242,0.6700401466478485
13,0.6700188391689298,0.6699865057805632
14,0.6699825857049162,0.6699561900299773
15,0.6699981381802254,0.66990696209536
16,0.6699656451665535,0.6697996310501477
17,0.6699572558725552,0.6700452611404968
18,0.6699244044319317,0.6702063846528974
19,0.6699196426644191,0.6699666201920427
20,0.669920661797274,0.669698599195362
21,0.6699024962750368,0.6698968047539591
22,0.6699117019683195,0.6697781227362659
23,0.6698630312722801,0.6697309368005757
24,0.6698893959754069,0.6705808123938795
25,0.6698472224025757,0.6698833461434907
26,0.6698642726669357,0.6699331178558672
27,0.6698684850377206,0.6698172765393411
28,0.6698393038039194,0.6696541834410011
29,0.6698191712581989,0.669744840242135
30,0.669833497622398,0.670034347751892
31,0.6698298283527035,0.6699566035353516
32,0.6698264906408958,0.669745144388516
33,0.6698370025003034,0.6697258825337621
34,0.6698104992434541,0.6696795910818701
35,0.6697915189808382,0.6699082163959815
36,0.6698006827565812,0.669734891531781
37,0.6697926807480239,0.6697144735835622
38,0.6697687851551393,0.6699677957198756
39,0.6697796575800116,0.6697713408517483
40,0.6697476785928017,0.6698117914921593
41,0.6697715234096063,0.6703294168039232
42,0.6697671275108501,0.6697486626303225
43,0.6697278807815789,0.6700205494688994
44,0.6697494771083906,0.6706366537226637
45,0.6697739692344299,0.6697036086181849
46,0.6697561167917797,0.6697262516092721
47,0.6697355347512627,0.6710081525535205
48,0.6697388226659262,0.6696204814366608
49,0.6697170043652361,0.6698210051278618
50,0.6697417269040374,0.670705149576031
51,0.6697472977197447,0.6697917373541271
52,0.6697252154187782,0.6697879026308841
53,0.669730333875454,0.6698717687029401
54,0.6697235084246104,0.6697444596598225
55,0.6697131283973206,0.6698323301582715
56,0.6697279357045285,0.6697541465534466
57,0.6697142815394591,0.6702743797385071
58,0.6697098252014779,0.6701270513735693
59,0.6697181513971117,0.6697561843815276
60,0.6696939523609649,0.6698862844897855
61,0.6697253819940436,0.6706352062615804
62,0.6697016819335174,0.6699556910074674
63,0.6696837086621135,0.6697014629692949
64,0.6697127150986932,0.670730669652262
65,0.6696800530580781,0.6697621645465974
66,0.6696812435685843,0.6696327151199133
67,0.669687419424958,0.6696085773685729
68,0.669677805188893,0.6696225371905059
69,0.6696939388152077,0.6695896229140516
70,0.6696795292596128,0.6697331170290339
71,0.6696647723214496,0.6696489236490898
72,0.669693706160596,0.6699803019279877
73,0.6696756402752438,0.6695922128024231
74,0.6696694357725754,0.6696089704042629
75,0.6696634688949249,0.6696610643905091
76,0.6696714674255388,0.6696032686505661
77,0.6696806933909165,0.6695945839432274
78,0.6696949563593627,0.6711373726724099
79,0.6696772444235736,0.6696838923482682
80,0.669653256716858,0.6698770580161594
81,0.6696765426654749,0.6696604212223743
82,0.6696495530779205,0.669528994075122
83,0.6696794023773918,0.6697002164483367
84,0.6696669876972251,0.6695789556645282
85,0.6696654175182025,0.6696247743613667
86,0.6696757021162165,0.6701107937408144
87,0.6696436522622622,0.6697129553068365
88,0.6696705758209552,0.6697562368868598
89,0.6696594128296517,0.6699473341700457
90,0.6697046857682837,0.669786976673467
91,0.6696369807551785,0.6696812617867519
92,0.6696684213805777,0.6696755636122919
93,0.6696634094748659,0.6695686334120132
94,0.6696692239659032,0.6695617566629319
95,0.6696385866610174,0.6697859749604691
96,0.669676076812749,0.6705929758530988
97,0.6696401550170581,0.669576447684475
98,0.6696490732258611,0.6697563871556417
99,0.6696521133080702,0.6696883125281511
100,0.6696612828919549,0.6702164186733236
101,0.6696483800857101,0.6695641708433184
102,0.6696611141418903,0.6695662023115986
