epoch,loss,val_loss
0,0.8033131530549791,0.8019046256144842
1,0.8015459421608183,0.8011764032840729
2,0.8012167349523969,0.8010880036354064
3,0.8010820317400826,0.8008964502811432
4,0.8010047356817458,0.8009166293144226
5,0.800946439464887,0.8008579107125601
6,0.800925474829144,0.8008240660429001
7,0.8008972895410326,0.8007317088445027
8,0.8008689939710829,0.8008970551490784
9,0.8008011153406567,0.8007163186868032
10,0.8007896410756641,0.800712198694547
11,0.8007725526359346,0.80071693166097
12,0.8007535936964882,0.800722979982694
13,0.8007415734132131,0.8006856333812078
14,0.8007408491902881,0.800918403784434
15,0.8007347304026285,0.8006989113489786
16,0.8007213099665111,0.8006949132680893
17,0.8007212211026086,0.8006726229985555
18,0.8007152722544141,0.8006814070940018
19,0.8007088668743769,0.8007046188513438
20,0.8006963984039095,0.8006280194123586
21,0.8006981457339393,0.8006411036252975
22,0.8007007540729311,0.8006856958071391
23,0.8006904016335805,0.8006210237344106
24,0.8006965236796273,0.8006809550126394
25,0.8006870376533932,0.8008840280771256
26,0.8006840914090474,0.8006669115622839
27,0.8006797737545437,0.8006476673682531
28,0.8006752360926734,0.8008566201527914
29,0.8006814477443696,0.8006368566751481
30,0.8006736161046558,0.8006666848659515
31,0.8006723016632927,0.8006888689597448
32,0.8006802925533718,0.800739790002505
33,0.8006713983747694,0.8007029558817546
34,0.8006707975467046,0.800714385231336
35,0.8006686171028349,0.8008499882221222
36,0.8006673926909764,0.8007378014326095
37,0.8006763155460358,0.8006075729529063
38,0.8006664726469251,0.8008782558838526
39,0.8006685647037294,0.8006270600159963
40,0.800661519991027,0.8008443206151327
41,0.8006617898411221,0.8006218189001083
42,0.800659348739518,0.8005909639199574
43,0.8006592549350526,0.8006904823382696
44,0.800656606886122,0.8006060177882512
45,0.8006629786623849,0.8006664139429728
46,0.8006636700762643,0.8007365639209747
47,0.8006600185500251,0.8010120216608048
48,0.800656331565645,0.8006630113124847
49,0.8006632735994127,0.8006732960542043
50,0.8006593052148819,0.800601263364156
51,0.8006592581669489,0.8006140895287196
52,0.8006616338094076,0.8006247072219849
53,0.800653942796919,0.8005689051151276
54,0.8006528794897927,0.8008393613100052
55,0.800662026921908,0.8005754871765772
56,0.8006563141345978,0.8005955613056819
57,0.8006560523907343,0.8005840391318003
58,0.8006577869256337,0.800777154246966
59,0.8006525661945343,0.8007122550408046
60,0.800656517929501,0.8006008141040802
61,0.800648140417205,0.8007142464319865
62,0.8006506778928969,0.8005991311470667
63,0.8006470523013008,0.8006043201684951
64,0.8006499572330051,0.800631459236145
65,0.8006481757693821,0.8006342109839122
66,0.800651148557663,0.8005957226753235
67,0.8006504772636626,0.8006495741605759
68,0.8006479442516963,0.8005803395112355
69,0.8006488545603222,0.8006865373849869
70,0.8006461053556866,0.8005563228925069
71,0.8006483917368783,0.800839013059934
72,0.8006489693323772,0.8005932347774506
73,0.8006442437039482,0.8007383695046107
74,0.8006482499705421,0.8006320106188456
75,0.800640858968099,0.8007401536305745
76,0.8006424396302965,0.800628155430158
77,0.8006488851176368,0.800663743853569
78,0.8006456821494632,0.8005900937318802
79,0.8006435851520962,0.8006578468084335
80,0.8006425068775813,0.8010294199784597
81,0.8006430994272232,0.8006443181435268
82,0.8006466294791963,0.8007383686304093
83,0.8006398680475023,0.8005621412595113
84,0.8006433456208971,0.8005762995084127
85,0.8006381847725974,0.8006266947984696
86,0.8006405342949762,0.8006530671517055
87,0.8006393662028842,0.8007956671317419
88,0.8006429102155898,0.8006304605007172
89,0.8006389577786128,0.8005829710563024
90,0.8006350484159258,0.8005657474199931
