epoch,loss,val_loss
0,0.5177830074032913,0.5114308164965722
1,0.5109760115691907,0.5096931048421647
2,0.5100152224132299,0.5093748994855668
3,0.5095987849896825,0.5093235214058283
4,0.5090321885121304,0.5092231219518865
5,0.5087691190821421,0.5083033446638519
6,0.5085074541330877,0.5135523996341317
7,0.5083138164058338,0.5078361000967381
8,0.508110690139916,0.5080469548850143
9,0.5079531507402076,0.5075845790855937
10,0.5077725664680233,0.5075303644459538
11,0.5077177527497936,0.5073505678780321
12,0.5075955532745703,0.507803113348135
13,0.5075850126694756,0.5074155645394148
14,0.5074730527202028,0.5074619693436635
15,0.5074413991033115,0.5076712552430316
16,0.5074148870754819,0.5072401394915048
17,0.5073420232429415,0.5072037147529072
18,0.5073254916386201,0.5072267686167071
19,0.5072781061913492,0.5070436916339486
20,0.5072224157860652,0.5069860127072772
21,0.5072388877573442,0.5072836645483675
22,0.5071599716817472,0.5070788415134988
23,0.5071846477309608,0.5075857802005322
24,0.5071503129825939,0.5070418031576549
25,0.5071571169142054,0.5070122817018192
26,0.5070693178604487,0.5074395945291069
27,0.5070471503999603,0.5069213716327109
28,0.5070992665238707,0.5070429558789464
29,0.5070494053954191,0.5093254720602675
30,0.5070560981771982,0.5068674435390728
31,0.5070374443900492,0.5073770482841852
32,0.5070635564654351,0.5076862810563213
33,0.5070136641064877,0.507390034257922
34,0.5070012760390167,0.508122448885707
35,0.5070484649820929,0.506924297880594
36,0.5069644377827668,0.5068858897123976
37,0.5069479515652513,0.506854140669773
38,0.5069834475420342,0.5089999835781069
39,0.5069557863816796,0.5069433892039448
40,0.506934717571869,0.5076839856415174
41,0.506940757914664,0.5069680380762067
42,0.5068686167394355,0.5081531535011368
43,0.5069334099866423,0.5068852009903408
44,0.5068859640630715,0.5069190696510428
45,0.5068789179612142,0.5073156776262572
46,0.5068811279524487,0.5066754298233809
47,0.5068323683420654,0.5076147492115314
48,0.5069107003653467,0.5068229012394662
49,0.5068522635112488,0.5069340300619158
50,0.5068946577019626,0.5078303622548692
51,0.50681411560462,0.5075334457250742
52,0.5068257226659487,0.5076701641082764
53,0.5068810801092318,0.5072758288004854
54,0.5068749666507434,0.5068357087542342
55,0.5068543134571373,0.5075028381335824
56,0.5067635023474474,0.5067116984658443
57,0.5068584822664645,0.5072718864043356
58,0.5068843164566207,0.5066941040029597
59,0.506821254605981,0.5070014115006989
60,0.5068184486266721,0.5072056599349597
61,0.5068515219686017,0.5066978662244735
62,0.5067498158435787,0.5066508888015084
63,0.506833693853412,0.5072605647756799
64,0.5067797020325989,0.5073319392819559
65,0.5067815471994853,0.5069299602035258
66,0.5067857335949475,0.5069440134405794
67,0.5067867456938218,0.5068332545218929
68,0.50671357653272,0.5069509304782593
69,0.5067693889578883,0.5069613278355847
70,0.5068171319856981,0.5069067187108118
71,0.5066883026156543,0.5067182438249328
72,0.5067163878295196,0.507188230886057
73,0.5067577084400922,0.5069430540572325
74,0.5067120451948073,0.5072577197261838
75,0.506773506956427,0.5066201758443866
76,0.50672243433464,0.5067256673689812
77,0.5067077188841052,0.5066895149777604
78,0.5067895300079652,0.5074056303826514
79,0.5067098471685185,0.5072733745385636
80,0.5067010132136626,0.5069103427619556
81,0.5067471177996272,0.5072038360032491
82,0.5066720369260952,0.5067726369827025
83,0.5067325895530029,0.5073492537952831
84,0.5066848660400131,0.5071300404834984
85,0.5066514976668848,0.5075760790195418
86,0.5067192605752441,0.506806469022784
87,0.5067251071842088,0.5071394226687126
88,0.5066634677193248,0.5068353552084702
89,0.5067018114178365,0.5067781036308326
90,0.5066910955248695,0.507419059412651
91,0.5066715655105529,0.5070018816822516
92,0.5066936140914821,0.5066811365761769
93,0.5066646265528586,0.5068704481456179
94,0.5066560172665181,0.5073167453924421
95,0.5067293672641097,0.5072311868442791
