epoch,loss,val_loss
0,0.5284782038551139,0.5253385830457985
1,0.5225374614344739,0.5211515006297279
2,0.5213103876180658,0.5261110414346454
3,0.5205997860805103,0.522863525817767
4,0.52024350746851,0.5201153898357458
5,0.5201071144385635,0.5219432814245484
6,0.5199994184123623,0.5203529999214721
7,0.5198417982279728,0.5194029413440979
8,0.5195936711391637,0.5188854119026336
9,0.5193568094149882,0.5191500712565098
10,0.519262550023447,0.5186138003398999
11,0.5190541165831816,0.5186624871885807
12,0.5190137191437291,0.518797279676196
13,0.5189554525700225,0.5215127597079975
14,0.5188713360800814,0.5185304537008772
15,0.5187835655345746,0.5188273391415996
16,0.5186990395394807,0.5192634016645161
17,0.5187673863952414,0.5188694997105942
18,0.5186838134402462,0.5188615330691373
19,0.518619197949944,0.5181875214979016
20,0.518569205878384,0.5183337681938341
21,0.5186368860938869,0.518250841124182
22,0.5186527416953494,0.5185069843793921
23,0.5185154383774241,0.5181954028292862
24,0.5185360017014153,0.5181909899853595
25,0.5185395497455754,0.5183210164678304
26,0.5184883364307639,0.5180940809971641
27,0.518494821110208,0.5183374372664515
28,0.5184414492649448,0.518867499035582
29,0.5184504361238852,0.5180971108062687
30,0.5184336037725161,0.5183075001162868
31,0.5184436493153668,0.5183897572474799
32,0.5183798241559446,0.5181625175416913
33,0.5184042743494565,0.5180444321620553
34,0.5184073532009921,0.5182482737761277
35,0.5183753584151318,0.5179984607116757
36,0.518419191069497,0.5207995833297521
37,0.5183183377158359,0.5184000818072714
38,0.518326626024053,0.518134752248712
39,0.5182992433539593,0.5190549694574796
40,0.5183147942610781,0.5178967167071018
41,0.5182456895844124,0.5190915117488606
42,0.5183262618504882,0.5185927450804794
43,0.5182966397153848,0.5177611728459967
44,0.5182517763245023,0.5179849691485648
45,0.5183039982886424,0.5177890789124273
46,0.5182073002790117,0.5180782414843368
47,0.518297957209082,0.5178730212133517
48,0.5181633620194874,0.5184172004091533
49,0.5181991366001225,0.5181935194112527
50,0.5182882151978424,0.5184208050850899
51,0.5181356346370086,0.5181505749598331
52,0.5182293774557506,0.5179277917883236
53,0.5181808742247748,0.5180666194956001
54,0.5182063341412104,0.5182375275763329
55,0.5181907541176554,0.5188172982289241
56,0.5181952666549101,0.5180415299630934
57,0.5180952197116023,0.5178726895867152
58,0.5182121002202856,0.5180683169412258
59,0.5181152793743335,0.5176867457240746
60,0.5180677117953171,0.5178988405256059
61,0.5181609104125534,0.5179074238606777
62,0.518123113707999,0.5181085754564915
63,0.5181266862208199,0.5179790228235515
64,0.518151630158444,0.5184635027466578
65,0.5180740886198641,0.5177378980752552
66,0.5181024687095288,0.5197151114272125
67,0.518143717209375,0.5185636909368908
68,0.518110979130458,0.5177412762831222
69,0.5181375826789199,0.5177104284094818
70,0.5180404637379605,0.5178338463785631
71,0.5180954018764786,0.5178217599173042
72,0.518097262013746,0.5178301190915829
73,0.5182393942260939,0.5199729079348278
74,0.5180601360182249,0.5178238170614313
75,0.518070184946726,0.5187330138594578
76,0.5180315186632479,0.517712600059604
77,0.5180870559885387,0.5182920455341008
78,0.5181399803323741,0.517928585402723
79,0.5180449262658763,0.5178460888767953
