epoch,loss,val_loss
0,0.7813848499416496,0.7791165920700093
1,0.7792053096451632,0.7790055058138542
2,0.7789928174860066,0.7788510969495654
3,0.7788521756027617,0.7786799662166435
4,0.7787753597198296,0.7787496815248399
5,0.7787276306306133,0.7792771874527186
6,0.7786952280411026,0.7785900832997362
7,0.7786761147560273,0.7787093526080584
8,0.7786592285205952,0.7787406799219382
9,0.7786563159327379,0.7785757177816727
10,0.7786349991611051,0.7787428749110503
11,0.7786203812578496,0.7786376520066935
12,0.7786277140735013,0.7788718877004335
13,0.7786097858149987,0.778575238075209
14,0.7786079517824218,0.7785821188768145
15,0.7785939303310717,0.7787488992693407
16,0.7785943681717209,0.7785973519900301
17,0.7785936056344124,0.7785801143563414
18,0.7785865830309573,0.7785220171026793
19,0.7785796975834213,0.7785175051641819
20,0.7785793535257635,0.7785403627615709
21,0.7785791408103613,0.7785317122788347
22,0.7785710624787351,0.7787098427564275
23,0.7785762223181251,0.7786021624250389
24,0.7785640859420558,0.7786149709455429
25,0.7785673510043675,0.7785193927530615
26,0.7785592670547071,0.7785693452021029
27,0.7785627735741639,0.7785603929690037
28,0.7785645312955044,0.7785001987263227
29,0.778556454594386,0.7786224573185071
30,0.7785548887665397,0.7785546477024372
31,0.7785483018139467,0.7786486768545051
32,0.7785586268961997,0.7786000354414246
33,0.7785454042690424,0.7784963302517647
34,0.7785416011320535,0.778547398860638
35,0.7785387101328453,0.7784900874121313
36,0.7785413486581342,0.7786521616408014
37,0.7785411500146375,0.7785190459812249
38,0.7785417611781882,0.7785115662934466
39,0.7785393398756657,0.7785329603675577
40,0.7785415746495145,0.7785623620816555
41,0.778545227989613,0.7785167018178083
42,0.7785261467270168,0.7785234272627913
43,0.7785346383691029,0.7785118262466071
44,0.7785276097090251,0.7784817136546814
45,0.77853564556541,0.7785031164550308
46,0.7785253150757401,0.7785877367698821
47,0.7785313900196934,0.7785459646220243
48,0.778524333484795,0.7784962084098135
49,0.7785252395549094,0.7784788365695376
50,0.7785217810766654,0.778488473205945
51,0.7785248661260239,0.778509518585489
52,0.7785199926304679,0.7785480975808932
53,0.7785248714214273,0.7784954939527488
54,0.7785309820030595,0.7785822776056105
55,0.7785196867694474,0.7785341354221031
56,0.7785242374607427,0.7784901085325862
57,0.7785184873380835,0.778519804749832
58,0.7785198243789427,0.7786972860840355
59,0.7785166697864934,0.7784912301352243
60,0.7785190725326222,0.7786033927063196
61,0.7785215331818935,0.778484768193058
62,0.7785211517306255,0.7784796637577691
63,0.7785175225870421,0.7793984532060457
64,0.7785176406004681,0.7786512437884329
65,0.7785187282122847,0.7784921145320826
66,0.7785168098942075,0.7785193356923371
67,0.7785129518098153,0.7786548883388416
68,0.778516355428216,0.7786379553544018
69,0.7785156558717368,0.7786331565740978
