epoch,loss,val_loss
0,0.705072379483117,0.7020456591447194
1,0.7021964879300859,0.7018043557008108
2,0.7017606339454651,0.7017158120075861
3,0.7015128185219235,0.7014203605651855
4,0.7014273071421517,0.7016401413281759
5,0.7013577299250496,0.7014922470649083
6,0.7013132586479187,0.70112486855189
7,0.7012974855899811,0.7011952498753865
8,0.7012646836704678,0.7014355608224869
9,0.7012488490872913,0.7011648342212041
10,0.7012361029254066,0.7011813798745473
11,0.70122273156378,0.7012362444798151
12,0.7012133381499185,0.7011996221939722
13,0.7012109736733967,0.7011078766981761
14,0.7012090528938505,0.7011599083344142
15,0.7011887613667382,0.7011537760098775
16,0.7011813518603642,0.7011314382155737
17,0.7011943957673179,0.7013629268010457
18,0.7011789097388585,0.7010432820717494
19,0.7011780508094364,0.7011441751718521
20,0.7011712225145764,0.7011168698867162
21,0.7011656044854058,0.7011518847147624
22,0.7011641833649741,0.701127690911293
23,0.7011579094860289,0.7010601018667221
24,0.701160123984019,0.7011600035429001
25,0.70115256524086,0.701318910797437
26,0.7011535674201118,0.7012327629327774
27,0.7011501327488158,0.7010489894151688
28,0.7011400170458688,0.7012215218941371
29,0.7011150348318947,0.7009671647548675
30,0.7011086929639181,0.701195891181628
31,0.7010946086777581,0.7010367363293966
32,0.7010789430406359,0.701104618469874
33,0.7010781872404946,0.7010777832667033
34,0.7010719940397474,0.7009867033958435
35,0.7010683589378993,0.7010709783236185
36,0.701065792520841,0.7010886275370916
37,0.7010703719986809,0.7009802175362905
38,0.7010577994055218,0.701027283390363
39,0.7010560053586959,0.7010628021955491
40,0.7010565808084276,0.7009609089692433
41,0.7010466893249088,0.7015002698898315
42,0.7010479080279668,0.7009336238702139
43,0.7010486974053912,0.7014510348240535
44,0.7010516140063604,0.7009124547640483
45,0.7010482308334774,0.7010593742529552
46,0.7010591809484694,0.7010008012453715
47,0.7010497818258073,0.7011014222304026
48,0.701048435330391,0.7009956808487574
49,0.7010558552212185,0.7010093007485072
50,0.7010454268720415,0.7010971048672994
51,0.7010371897088157,0.7009595727920532
52,0.7010445177555085,0.7009726136128108
53,0.7010406568712658,0.7009863832394282
54,0.7010301275120842,0.7011614375114441
55,0.7010345130231646,0.7016594271262486
56,0.7010380325979657,0.7011025961240133
57,0.701033542421129,0.7011379715204239
58,0.7010317124393252,0.7010307619571686
59,0.701026995923784,0.7010596199830373
60,0.7010378210544587,0.7009466142654419
61,0.7010284689267476,0.7009690995613734
62,0.7010344827969869,0.7011576916376749
63,0.7010245940022999,0.7012634042898814
64,0.7010311986207962,0.7009910181760788
