epoch,loss,val_loss
0,0.7874951351748573,0.7020096709330876
1,0.6746445737547344,0.5032554226716359
2,0.5030665198829439,0.5027135903040568
3,0.502899931550026,0.502829928278923
4,0.5027574444082048,0.5026921039024989
5,0.5026665237877104,0.502366009314855
6,0.5026126104328368,0.5024141401847203
7,0.5025554423729579,0.5026027998526891
8,0.5025193097061581,0.5027219803730647
9,0.5024775868786706,0.5029035112460454
10,0.5024223042461607,0.5021931074062983
11,0.5023661557568444,0.5021287429730098
12,0.5023359771966934,0.502199850320816
13,0.5022589546706941,0.5020653904676438
14,0.5021789044804044,0.5020892457962036
15,0.5021326970126894,0.5023510077397029
16,0.5020898420678245,0.5018452717463175
17,0.5020498075485229,0.5018257233301798
18,0.5020051583051681,0.5022179612318675
19,0.5019903088940515,0.5018457405964534
20,0.5019666392935647,0.5017090797424316
21,0.5019493247800403,0.50208964463075
22,0.5019213233258989,0.5016557120084763
23,0.5018872869147195,0.5017771145900091
24,0.5018776184187995,0.5019117952982585
25,0.5018647397359213,0.5020897479852041
26,0.5018350281582938,0.5018717815876007
27,0.5018373977873061,0.5018470198313395
28,0.5018114010625415,0.5017719418605169
29,0.5018219267527262,0.5016143160263697
30,0.5017940264807808,0.5018837110201517
31,0.5017989599837197,0.5016991819540659
32,0.5017804305553436,0.5022441438436508
33,0.5017919552988476,0.5016290628512701
34,0.5017659696737925,0.5016152507861456
35,0.5017558212942548,0.5016762719551722
36,0.5017697376410166,0.5016901091734568
37,0.5017559141450458,0.5017488294442495
38,0.5017552049027549,0.5016097064415613
39,0.5017393636571037,0.5018529476324717
40,0.5017506674130757,0.5016751074790955
41,0.5017261754141914,0.5020800518592199
42,0.5017535648345948,0.5016235309441884
43,0.5017314025296106,0.5016207937002182
44,0.5017253102726407,0.5015978673299154
45,0.5017344325118595,0.5016013850768407
46,0.5017253756788042,0.5017142003377278
47,0.5017220351563559,0.5016253417332968
48,0.501709141002761,0.5020267724990845
49,0.5017176071140501,0.5018041956822078
50,0.5017262344890171,0.5016297295093536
51,0.5017157839271758,0.5017383939425151
52,0.5017093406915665,0.5015753475030263
53,0.5017173868815105,0.5015341072877249
54,0.5017002429829703,0.5016633226871491
55,0.5017048763434092,0.5018873377641042
56,0.5017040311230554,0.501569322347641
57,0.5017023590538237,0.5017123489777248
58,0.5017045181194941,0.5015189907948177
59,0.5016904315551122,0.5016756587425868
60,0.5016979121102227,0.5015708744923274
61,0.5017094416485892,0.5016072720289231
62,0.501707742439376,0.5017314575910569
63,0.501677724228965,0.5018079020182291
64,0.5016867946253882,0.5017200090885162
65,0.5016598494715161,0.5015713537931442
66,0.5017161471446355,0.5015340212186178
67,0.5017148312860065,0.5015398287375769
68,0.5017250002887514,0.5016173227628072
69,0.5017109535402722,0.5018963698148727
70,0.5017259951565001,0.5016084424654643
71,0.501735860268275,0.5019889841477077
72,0.5017250842120913,0.5016563797791799
73,0.5017223449548086,0.5015557891130448
74,0.501723293516371,0.5016255176067352
75,0.50172654124101,0.5020652855237325
76,0.5017100100782182,0.5016293403307597
77,0.5017169703112708,0.5017048165798187
78,0.5017174779044258,0.502332281947136
