epoch,loss,val_loss
0,0.29813348121775524,0.2257597116927306
1,0.225723456584745,0.2255866121550401
2,0.2253823388516903,0.2251578480998675
3,0.22523756518297725,0.22504118118683497
4,0.2251369244158268,0.22510855836669605
5,0.22506318026118807,0.22484766202171644
6,0.22501932305428718,0.22508359642823536
7,0.2249711563752757,0.22477394254008928
8,0.2249493801958031,0.22481210351983708
9,0.22493328386876318,0.2249652063449224
10,0.2249213598701689,0.22482480478286743
11,0.2248967757721742,0.22577069154381751
12,0.22488858351111413,0.2247949867248535
13,0.22489133442110484,0.22471186298131943
14,0.22486441986428365,0.22475097000598906
15,0.22486740562650892,0.22479833256204923
16,0.2248363349835078,0.22467962368329367
17,0.224834556284878,0.22474987576405206
18,0.2248402680721548,0.22482952955365182
19,0.2248250348435508,0.22470473060011864
20,0.22482445623146163,0.22485351410508156
21,0.22481236239274344,0.2247563824057579
22,0.22481198962860638,0.22479939365386964
23,0.22480600087841351,0.224725751688083
24,0.22480521688196395,0.22482253524661064
25,0.22479925196038353,0.22468713091810544
26,0.22478632037507162,0.22466666301091512
27,0.2247861737542682,0.2246435842613379
28,0.22478855116168658,0.22461421984434127
29,0.2247759811381499,0.22465003512303033
30,0.22478157968653573,0.22464684268832208
31,0.22477564994825258,0.22473945824305216
32,0.2247659837934706,0.22464820791284243
33,0.22477680165900124,0.22466973162690798
34,0.22477527071038883,0.22467974384625752
35,0.2247745267086559,0.2249191230237484
36,0.22477109414339067,0.22504316185911497
37,0.22477417318688497,0.2247332981924216
38,0.22476266627510388,0.22482440718015034
39,0.22476641554633775,0.22466301828622817
40,0.22474916771054268,0.22465313451488814
41,0.22476378674970732,0.22469140583276748
42,0.22476948963602383,0.2246247036854426
43,0.22475569619072808,0.2247399641474088
44,0.2247639825542768,0.22464754142363866
45,0.22475952513681519,0.22461164780457815
46,0.22475686049130228,0.2246466133693854
47,0.22474512230356533,0.2247074125011762
48,0.22475180511342155,0.22475147307912507
49,0.22474807672699293,0.2246366840004921
50,0.22474898143940503,0.2246878023147583
51,0.22475300466352038,0.22466302521030107
52,0.22475974840256904,0.2247568712333838
53,0.2247514024939802,0.2247579066455364
54,0.22474242297146055,0.2246467021306356
55,0.22473857089877128,0.22464946163694063
56,0.22473466906613773,0.22492168920238811
57,0.22474271409379112,0.2250390688578288
58,0.22473699671030045,0.22464882853627205
59,0.224739237199227,0.22482158293326696
60,0.22473379407988653,0.22477089959383012
61,0.22473590084248118,0.2246441469589869
62,0.22473268423477807,0.22558433415492377
63,0.22474617839521832,0.2246142438153426
64,0.22473416986399228,0.22473807951807975
65,0.22473356919156182,0.22465298679471016
