epoch,loss,val_loss
0,0.5393841417503354,0.5314717475297137
1,0.5315946175727381,0.5312397302232369
2,0.5311290356372048,0.5303072574416697
3,0.5307556939502752,0.5301976350045974
4,0.5304419266115977,0.5300744667538342
5,0.5301857617661165,0.5298392118354589
6,0.5300454016191604,0.529690049481451
7,0.5298945793720771,0.5301315539528063
8,0.5299184912929158,0.5338011657629652
9,0.5297678283993761,0.5291135647160835
10,0.5296669239122959,0.5301580217280991
11,0.5296407080831306,0.529126361345239
12,0.5294892657114088,0.5289607156890793
13,0.5295468715934109,0.5290193033277545
14,0.529481401769867,0.5294413743776364
15,0.5293705220245255,0.5290399960193681
16,0.529450803558516,0.5295685052871704
17,0.529240597487269,0.5290450769381843
18,0.5293168758003738,0.5290848091281674
19,0.5292612383404472,0.5290345115342152
20,0.5291666683138976,0.5290227266754169
21,0.5292181119357683,0.5289308062853944
22,0.5291748317411507,0.529007754284454
23,0.5291265936195436,0.5288138358823715
24,0.5291071000112245,0.5288782907774667
25,0.5290549896528592,0.5293737285486226
26,0.5291201429567365,0.5295808833231109
27,0.5290228552933215,0.5288116335277226
28,0.5290308068823492,0.5298743218109566
29,0.5289741265773931,0.5291153790933026
30,0.5290151849444097,0.5289325563546742
31,0.5290156970469198,0.5296598920455345
32,0.5289911569759047,0.5289840131480404
33,0.5289488801659766,0.5298938527296554
34,0.528966437440961,0.5294958100129594
35,0.529060326711173,0.5292021680114879
36,0.5290145651581784,0.5291242134186529
37,0.5289460755686948,0.5285177819486292
38,0.5289539389351807,0.5316215195667655
39,0.5289406350729217,0.5289084727947528
40,0.5289466056541203,0.5288292608545081
41,0.5289104230844602,0.5287793403819536
42,0.528981548379961,0.5286872461179349
43,0.5288681413293684,0.5288324354600078
44,0.5288666746414455,0.5286534843610475
45,0.5288980308716973,0.5285985894593648
46,0.528957733123703,0.5290044050358661
47,0.528871606631765,0.5299418836018583
48,0.528884469568268,0.5286386509687078
49,0.5288774866965097,0.5296045712738415
50,0.5288772547053024,0.528771718974149
51,0.5288817966342946,0.5293494002694823
52,0.5289477321740972,0.5284296079841501
53,0.5288538754170156,0.5290279157108467
54,0.5289016774957128,0.5299275194740769
55,0.5289026897444644,0.5288359877193536
56,0.5288191219200075,0.5292761449186737
57,0.528882478543899,0.5284728106434824
58,0.5288100404182531,0.5284901336168237
59,0.5288604209987267,0.5291968430242231
60,0.528853712124853,0.529003757933529
61,0.5287768538637055,0.5292294106471628
62,0.5289157451668715,0.5294278834948765
63,0.5288103719130335,0.528700271285793
64,0.5289118026802323,0.5284887586870501
65,0.5288663751257587,0.5286705305499415
66,0.5288597256183037,0.5302681405846001
67,0.5288235542184504,0.5321715913398686
68,0.528821860424533,0.5284620662480962
69,0.5288369766321164,0.5287129675484177
70,0.5288015786072816,0.5296763431049754
71,0.5288865642714776,0.5296128738606833
72,0.5288671678767636,0.5286137452196542
