epoch,loss,val_loss
0,0.1996030882725659,0.19348421550861955
1,0.18789669758370067,0.18846859477885602
2,0.18653695078351493,0.18540735663314611
3,0.18578269174201326,0.18525327262896166
4,0.18522241692763522,0.18420439499335609
5,0.1847143919173125,0.18386051007742918
6,0.184129402353614,0.1849844432054619
7,0.18380025593253732,0.18347596145297398
8,0.18350173193313113,0.18299525457043803
9,0.1832256008304558,0.18500996613620824
10,0.1830352365716609,0.1829073112522698
11,0.18272595176617296,0.18430798660141068
12,0.18261653204788938,0.1822974287102891
13,0.18240707081343574,0.18275014579887722
14,0.18233143508842908,0.18397270706540006
15,0.18227635259159639,0.18215131746332344
16,0.18216025613531242,0.18323607187413105
17,0.18205205431880417,0.18198189605998047
18,0.18210885396360085,0.18241961423871536
19,0.1820439687106326,0.18294795922398863
20,0.1818735364370119,0.18273034132000235
21,0.18183983704673864,0.1820140252855812
22,0.18191449199881501,0.18380973154202881
23,0.1818247586358567,0.18189794469264245
24,0.18174748002100002,0.181587003899863
25,0.18175133339273558,0.18379423659729308
26,0.18175662141177182,0.1819752538396466
27,0.18160896108495705,0.18179162538820698
28,0.18152814555117824,0.1816865187129075
29,0.18170024835814588,0.18337418877753076
30,0.1814452813150985,0.18156706113969126
31,0.18152533081489072,0.18330862315061963
32,0.1814903154251579,0.18315815586901776
33,0.18144021435391397,0.18217261367784837
34,0.1814240437447713,0.18147638326247337
35,0.18138237709875143,0.18132309909937697
36,0.1815066011767865,0.1824131936426494
37,0.1813471841761412,0.18153514252702888
38,0.18140625600417346,0.18148363728824976
39,0.181297825273085,0.18123530763254567
40,0.18129376453183563,0.1818349672088552
41,0.18131956370630414,0.18198255693202575
42,0.18133749313187797,0.18147552858659116
43,0.18130222837029258,0.18164922774725456
44,0.18123080100606276,0.1811913654762817
45,0.18131024608737673,0.18202115025916704
46,0.18128567381777658,0.18204094750561725
47,0.1811847491473446,0.18139938858543378
48,0.18120801380548945,0.18177309355723947
49,0.1811864328947465,0.18273491493377733
50,0.18118952263053312,0.18355988976973162
51,0.1811292102027868,0.18154320911349492
52,0.18125044168172957,0.18185929587254157
53,0.18115447785714844,0.18135228503134943
54,0.18111496783458805,0.18199350108431822
55,0.18114127207738864,0.18166655520943198
56,0.18114221795118057,0.1834291906126084
57,0.18112933491198352,0.1820898304949919
58,0.18109444607434716,0.1835478734733449
59,0.18107639616473747,0.1823907503567026
60,0.18106639459077425,0.181807030260415
61,0.18104886507485018,0.1812687681345431
62,0.18112962647569078,0.18114670915875777
63,0.18105000171352031,0.18286874542017434
64,0.18104310758788847,0.1814864667932094
65,0.18103966555888085,0.18146004585119394
66,0.18107173263591209,0.18118527250609387
67,0.18099227318964284,0.18199437992004838
68,0.1810129353214608,0.1812531127453442
69,0.18096084522099154,0.18109959385383217
70,0.18104051936104407,0.18223497596922938
71,0.18095881367392824,0.18123006753383145
72,0.18099865026227632,0.18117934727195475
73,0.18098531889377642,0.18164015512904222
74,0.18098983673530897,0.1816168042107788
75,0.18099726560972135,0.18114978140104498
76,0.18102978255801727,0.18148941098904195
77,0.18096297304847617,0.1814261785955642
78,0.1809133335730471,0.18232357319324247
79,0.1809510304898529,0.1817335827696708
80,0.18098130436799703,0.18211065053791917
81,0.18099664384234812,0.18376804471903344
82,0.1809117007318818,0.18111696763902385
83,0.18104634409264853,0.18347698762162448
84,0.1810171096078191,0.1874623969751907
85,0.18090265247055728,0.18349384760146698
86,0.1809634707144448,0.18254752205707891
87,0.18094856254924568,0.1813131431196227
88,0.1809844704388821,0.18114063458762156
89,0.18094014695828006,0.18107270326271246
90,0.1809685671020751,0.18136843791226892
91,0.18090647223959358,0.18105146835370928
92,0.18093870479423582,0.18255482880264595
93,0.1809551663608713,0.1811840976068459
94,0.18082159420330934,0.18179111201916973
95,0.18093847571715704,0.18117849363138894
96,0.18095360617018813,0.18184595521419278
97,0.18090225272182847,0.1812273199741657
98,0.18099183990210982,0.18161193443734946
99,0.1809596596956821,0.18109661130692173
100,0.18083393265703868,0.18143381585110505
101,0.18090666466456065,0.18157121572393933
102,0.18093604295197527,0.1817304165872096
103,0.18087128447118658,0.1813088842420365
104,0.1808566101012447,0.18106916900308198
105,0.18088546973591746,0.18162232800837486
106,0.18094496483178737,0.18126496713303455
107,0.18078176471362592,0.1814593995179491
108,0.18091030755505252,0.18236570194844276
109,0.1808793972982683,0.18164698254529654
110,0.18096957713954415,0.18100277423562838
111,0.18082024756596116,0.18100082031254733
112,0.18087498842151398,0.18173379401858925
113,0.18088141567387334,0.18114380835007793
114,0.18081912520784169,0.18167611858980828
115,0.18079997584630192,0.1817209907781989
116,0.18083554319152398,0.1811973504112021
117,0.1808787403937278,0.18187247265509282
118,0.18083951453251124,0.18124870240096713
119,0.18087688070530375,0.18234510376642715
120,0.18084544977618033,0.18167139574996294
121,0.18090219847924313,0.1811396469992976
122,0.18083415445185308,0.18140359338252776
123,0.18086969718484766,0.18133607181366856
124,0.1808105428327684,0.18167661863284432
125,0.18089387215858016,0.18130370577422916
126,0.18075993008793975,0.18156836136399074
127,0.1808133735199502,0.18115156528080073
128,0.18079762932725285,0.18104842811009428
129,0.1808702170571179,0.18380670394406426
130,0.18076532936724415,0.1817850292024778
131,0.18084534281206757,0.18123990734368933
