epoch,loss,val_loss
0,0.6703584055900573,0.6683376016616821
1,0.6108151292800903,0.557302669008573
2,0.5573303959634569,0.5572504561344782
3,0.5572614183160994,0.557275534192721
4,0.5572043616639243,0.5571596335967381
5,0.5571732152170605,0.5570927368799845
6,0.5571469781266318,0.5571885986328124
7,0.5571308521827062,0.5572633906205495
8,0.5571131111913257,0.5570854382117589
9,0.5571039189100265,0.5573068111340205
10,0.5570919594102436,0.5571719726721446
11,0.5570860233704249,0.5569801102081935
12,0.5570786556270387,0.5570059335231781
13,0.5570676105817159,0.557007326722145
14,0.5570620588726467,0.5569716738859812
15,0.5570571411185794,0.557017962137858
16,0.557054916355345,0.5569795200427373
17,0.5570521479050319,0.557050277908643
18,0.5570495760838191,0.5569831133286158
19,0.5570435685051812,0.5569823274612427
20,0.5570424324936337,0.5573358460664749
21,0.5570304572847155,0.5570437053442001
22,0.5570367876821094,0.5569679020643235
23,0.5570371489657296,0.5569480531613032
24,0.5570293331278695,0.5570510096947352
25,0.5570300475491418,0.5569842125574748
26,0.5570322668817308,0.5570485579967499
27,0.5570255657699373,0.5569699974457423
28,0.5570303017960654,0.5569561259746552
29,0.5570320808357663,0.5569336023330689
30,0.5570216326846017,0.5569640674591064
31,0.5570223379267587,0.556930002729098
32,0.557021215306388,0.5569418129126231
33,0.5570192937850952,0.5569584447145463
34,0.5570218456983567,0.5571076695521673
35,0.5570162689156003,0.5569686975081761
36,0.5570232538779577,0.5569737076361974
37,0.5570153898795446,0.5569469172159831
38,0.5570171998341878,0.5569730311632156
39,0.5570182157754898,0.5569377996524175
40,0.5570129819578594,0.5569860925277074
41,0.5570128421650993,0.5570655572017034
42,0.5570186274581486,0.5569342578252157
43,0.5570070694022708,0.5569989604155222
44,0.5570066877338621,0.5569906130631764
45,0.5570136742856767,0.5571324633757273
46,0.5570191948943668,0.556939016977946
47,0.5570104156732559,0.5569366272687912
48,0.5570055433114369,0.556994196454684
49,0.5570077000856399,0.5569435016711552
50,0.5570103853146235,0.5570847781896591
51,0.5570081328550974,0.5569921315113704
