epoch,loss,val_loss
0,0.5631166479368293,0.5597603140634579
1,0.5586757043529672,0.5580259538761735
2,0.5581335388933031,0.5576471175212718
3,0.5578238318906145,0.55744861388029
4,0.557582755850404,0.5580140104069011
5,0.5574659363567901,0.5572184891026309
6,0.5573917121309216,0.5584674144205325
7,0.5573227503804532,0.5572882369789237
8,0.5572700200212953,0.5571698236997903
9,0.5572554194178302,0.5579170106066663
10,0.5572123946994119,0.5574958357858303
11,0.5572147796953294,0.5571267953877413
12,0.557195693191759,0.5570894236008523
13,0.5571786644040345,0.5572906388538351
14,0.5571704401273658,0.5570352834744134
15,0.557154681475251,0.5576385411080297
16,0.5571197621231777,0.5570007089054022
17,0.5571532069660969,0.5572483048249711
18,0.5571126654700566,0.557063775500352
19,0.5571151194750282,0.5570165310544944
20,0.5570992346719361,0.5571167909773644
21,0.5571103500905908,0.5573024376450342
22,0.5570935347952644,0.5572501683649295
23,0.5570800830403461,0.5572779899791216
24,0.5570771728607811,0.5571645117279318
25,0.5570782305334135,0.5569649881228028
26,0.5570613127803523,0.5570907377723429
27,0.5570750123669362,0.5570535254537615
28,0.5570689467997831,0.5569697034861846
29,0.5570504671961471,0.5572239781431761
30,0.5570551326911267,0.556973133075326
31,0.5570559119200391,0.5570773686132123
32,0.5570581727977895,0.5570320736681558
33,0.5570481695613709,0.5571746307922061
34,0.5570689243031928,0.557600392597189
35,0.5570568458689185,0.5569858032479771
36,0.5570446189282767,0.5570567326865185
37,0.5570384236919727,0.556950150677939
38,0.5570337669750729,0.5571026229089306
39,0.5570359310565083,0.5569498848974261
40,0.5570291639276748,0.5574541624367385
41,0.5570401849141325,0.5569328241253609
42,0.5570219690118071,0.5569397821319902
43,0.5570476554126406,0.5569361441780261
44,0.5570162444022171,0.5571489518392766
45,0.5570326604053492,0.5572145367970242
46,0.5570230154239176,0.5569882646683724
47,0.5570270677209587,0.5571392325846196
48,0.5570236624965038,0.5569033015454673
49,0.5570126929802949,0.5570293707823931
50,0.5570174231615502,0.5570048330143723
51,0.5570139147402287,0.5570773160487191
52,0.5570201557451315,0.5572565506173127
53,0.5570143504163334,0.5569322385799796
54,0.5570101562659016,0.5570220847579445
55,0.557016383652475,0.5574116192147986
56,0.5570161969597249,0.5569606832180071
57,0.5570120440160986,0.5570342374794537
58,0.5570066848201113,0.5569874010370032
59,0.5570119894000032,0.5569941145314768
60,0.5570314315372846,0.5569257366745999
61,0.5569994673177268,0.5572311372082523
62,0.5570093979937869,0.5571435576337147
63,0.557004240535869,0.5569414521269408
64,0.5570135489803305,0.5573950116746774
65,0.5570050287550561,0.5569084845464816
66,0.5570035384022882,0.5569897000606243
67,0.5570001444825298,0.5569358856743086
68,0.5569988674225864,0.5569839754412251
