epoch,loss,val_loss
0,0.8110485641334512,0.8044204474678702
1,0.8038018587009147,0.8033332471516232
2,0.8035357732219448,0.8035051855792479
3,0.8033051821689218,0.803227738233713
4,0.8032026576480903,0.8031610835278892
5,0.8031610646685632,0.8028899647461866
6,0.8030337484618313,0.8035069513853371
7,0.8029981366385333,0.8027841621533812
8,0.8029496085137183,0.8027775318687667
9,0.802921004578286,0.8027246148355546
10,0.8028796896551643,0.8027075521999198
11,0.8028417672950168,0.8039231967393577
12,0.8028542726123281,0.8027258725675105
13,0.8027949801604969,0.8026679587127553
14,0.8028031019810085,0.8026351381472263
15,0.8027798027619354,0.8028192307162225
16,0.8027842152631579,0.8028423303410078
17,0.8027436736148738,0.8027621775052092
18,0.8027546668834875,0.8026427986604109
19,0.8027409393700202,0.8026262491867501
20,0.802732446021699,0.8027714680797113
21,0.8027218783597984,0.8025733126600091
22,0.8027156363467731,0.8026974875637083
23,0.8027205690470379,0.8027905832745006
24,0.8027025669826172,0.8025946298840619
25,0.8026874808633064,0.802684694927916
26,0.8027030249723041,0.8026716179054961
27,0.8026848884355576,0.8026530400695043
28,0.8026865191863284,0.8028679388036799
29,0.8026863327625687,0.8026225436414146
30,0.8026631492882519,0.8030288316475842
31,0.8026712817524219,0.8026400970761889
32,0.8026664776114268,0.8025826262481159
33,0.80268052054099,0.802853375924728
34,0.8026682673087057,0.8025320927203441
35,0.8026558833888932,0.8026082588484507
36,0.8026585204674712,0.8025609220523692
37,0.8026744939443147,0.8027264498895215
38,0.8026478040988407,0.8025648408728853
39,0.8026677031056731,0.8025411350851319
40,0.8026538384836165,0.8025605871423007
41,0.8026408686577423,0.8025369159341155
42,0.8026425758215082,0.802541717524564
43,0.8026356362990128,0.8025477505499317
44,0.8026377223653429,0.8025818656751004
45,0.8026613109960029,0.8025998373185435
46,0.8026259629694636,0.8025060215895584
47,0.802637687454175,0.802569639446126
48,0.8026304705623434,0.802573545073753
49,0.8026259821356214,0.802601459807261
50,0.8026405721041052,0.8028154130609101
51,0.8026082274366688,0.8025113941717976
52,0.8026366960375863,0.8031587025367888
53,0.8026287154338811,0.8026238858256092
54,0.8026183506909258,0.8025867155408741
55,0.8026292268603654,0.8029401718830648
56,0.8026300976761717,0.8025282484721901
57,0.8026193865067076,0.8031226255166027
58,0.802613428241483,0.8025243759746883
59,0.8026088512798434,0.802480290397521
60,0.8026181638380436,0.8027260583920159
61,0.8026105473597848,0.8025681219976534
62,0.8026041715985781,0.8025112937461057
63,0.8025966512248318,0.8026502706572672
64,0.8026177455461341,0.8026068988568138
65,0.8026030156624102,0.8025620683546989
66,0.8026074442147082,0.8026141395639841
67,0.8026027672343906,0.802609022438674
68,0.8026005041392443,0.8025067123822479
69,0.8026028731471926,0.8026064081168353
70,0.8025982742790061,0.8025330937234108
71,0.8026202316295917,0.8027010398230541
72,0.8026129599867752,0.8024732773120586
73,0.8025904604745936,0.8027608409413037
74,0.8026201782196145,0.8025185466404292
75,0.8025940208867904,0.8026864167774286
76,0.8025892469405598,0.8025623119794405
77,0.8026242572886946,0.802691504529333
78,0.8025982096795015,0.8025423355197197
79,0.8025907059097992,0.8024902279856188
80,0.8025913986476477,0.8024842837312381
81,0.8025975367704263,0.8025356230901429
82,0.8025967943995098,0.8024928073729238
83,0.8025875338432285,0.8025154672544588
84,0.8026086006344277,0.8025004598106403
85,0.8025851729878192,0.8025117221600364
86,0.8025892278588065,0.8025047334488805
87,0.802593575477335,0.802518476978425
88,0.8025920031921413,0.8027005947849
89,0.8026038664112168,0.8026835055860041
90,0.8025796465468513,0.8024989291396981
91,0.8025802805359337,0.8024948819399471
92,0.8025783982207626,0.8024722768118601
93,0.8025962658877963,0.8026920573882962
94,0.8026046935709061,0.8024965955956698
95,0.802609965066556,0.8029410608648958
96,0.8025960706686027,0.8025824798839559
97,0.8025857387566755,0.8025968608726047
98,0.8025827805713951,0.8025565175797152
99,0.8025957031575061,0.8025378517418287
100,0.8025966455941764,0.8026544833597415
101,0.8025953773383442,0.8025791937305081
102,0.802597120602831,0.8024792473014472
103,0.8025874801934475,0.8024831450902499
104,0.8025848836598481,0.8025681233879355
105,0.8025918822655729,0.8025028594670166
106,0.8025749987626416,0.8028234083066803
107,0.8025796193654104,0.8024843348758688
108,0.8025965477400429,0.8024634908505764
109,0.802581014722758,0.8024789450186358
110,0.8025925884174443,0.8024658191884422
111,0.8025774891057714,0.802851126241329
112,0.8025846936358768,0.8026091471499308
113,0.8025897055620981,0.8024973996519746
114,0.8025839348470797,0.8026761806040781
115,0.8025836533466505,0.8025116713407909
116,0.8025941559893898,0.8025499253060031
117,0.8025782022277286,0.8025434147631264
118,0.8025765155719172,0.8025051968269253
119,0.8025814187589652,0.8026334079264411
120,0.8025837034743137,0.8030364047800637
121,0.8025942706928929,0.8025064574577673
122,0.802579638950436,0.8026749221326104
123,0.8025853746903915,0.8024804929645718
124,0.802579848853666,0.8025016553052897
125,0.802571667243135,0.8025553006983869
126,0.8025938887785827,0.8034055942637157
127,0.8025904459901309,0.8031736990062533
128,0.8025843925559437,0.802553191019347
