epoch,loss,val_loss
0,0.3548907546943998,0.34703203827216667
1,0.3474576791062839,0.34944154917454306
2,0.34661132606196193,0.3460450305832231
3,0.3453654610232406,0.3465827066016848
4,0.3446129914236347,0.34739542730688755
5,0.34420316344374874,0.34909495249871286
6,0.34381121228209205,0.34354284504802884
7,0.3436267712566631,0.3465477327259244
8,0.34341504075290513,0.3427892433946245
9,0.3431848384422887,0.3438654700076905
10,0.3431275386788594,0.3436002689466879
11,0.3430119704899494,0.34260702118388475
12,0.3429202931463617,0.34442610987658534
13,0.3428118454225342,0.34296885773206764
14,0.3427863804887569,0.344402046564495
15,0.34264520499086915,0.34312407733784717
16,0.3426400916481663,0.34309001939172484
17,0.34266200443351047,0.3426517317519886
18,0.34258734782213407,0.3430915639950679
19,0.3424674036827488,0.34411212371537464
20,0.3424975425188362,0.34223906532410653
21,0.3424415139622453,0.3425328706393467
22,0.34239468560632663,0.3426013927305898
23,0.34241796802454316,0.3427723276555982
24,0.34238451923432783,0.34234406897802805
25,0.34230557940790385,0.3421803016076904
26,0.34230879251247087,0.3429486830388346
27,0.342280544695879,0.34216785191306404
28,0.34224591879892563,0.34258681165964966
29,0.342259163432811,0.34228574886511337
30,0.3422078103163507,0.34232307206608226
31,0.34224554440333116,0.34209380398317246
32,0.3422083539282073,0.3454185119929444
33,0.3421981480465668,0.34261421546450915
34,0.34213101378968414,0.34192809545372616
35,0.3421565256618923,0.3420308565531416
36,0.34210026005612804,0.341984476419004
37,0.3420942737800098,0.3419350942666122
38,0.3421155250015999,0.3419307228797127
39,0.34208189274060324,0.34220834571137915
40,0.3420969445451001,0.3423937766486894
41,0.34205932254744625,0.3421094840720629
42,0.3420290860650816,0.3436292152694674
43,0.3420506836232541,0.3423676134634846
44,0.3420144962433198,0.3422030608500204
45,0.3419891178459641,0.34356482774388997
46,0.3420078960108048,0.3418996827034442
47,0.34197633198033905,0.34190851146766627
48,0.34194373597095173,0.34193452255010015
49,0.34199355354938377,0.3422907491032006
50,0.3419306752038396,0.34181458072981824
51,0.34197122494550064,0.34356420290085576
52,0.3419555836757494,0.34185277648066764
53,0.34201874921903425,0.3420218314189769
54,0.34194504109109053,0.34471712563528906
55,0.341901580464652,0.341842777010229
56,0.34187166293667215,0.34366490759565577
57,0.3418992893246925,0.3422105203639189
58,0.3418606900801703,0.3428808299246852
59,0.3419183815019095,0.34180207907709825
60,0.3418839620696841,0.34251380910352797
61,0.3419139696262277,0.34172085295835736
62,0.3419461723822945,0.34191202559778766
63,0.3418319258962689,0.34292778741041424
64,0.3418538562050363,0.3463797183989295
65,0.3418738975720816,0.34212327192794006
66,0.3418463186273422,0.34187269312868046
67,0.34189111199710404,0.34172999111949365
68,0.3418549238827707,0.34249173562520785
69,0.3418165724636035,0.3420288576825381
70,0.34182369634746723,0.34179829360533587
71,0.341774544249321,0.3419600376716027
72,0.3418272207334875,0.34217768064503634
73,0.3417898746024521,0.3434509330144887
74,0.34179389940646526,0.342724164854504
75,0.34180808877093327,0.34161978503018986
76,0.34183147931461483,0.34184637550384767
77,0.341923638947741,0.34229371951472376
78,0.34179746554003276,0.34194644145279307
79,0.3418212065691384,0.3417470994421625
80,0.341812105899254,0.3419278151492031
81,0.34187785165410023,0.3418913433037088
82,0.34177223679205654,0.341939279237397
83,0.34177416598255234,0.3451331640739299
84,0.34177624965400016,0.3422851124856963
85,0.34176121829790135,0.3419414047419877
86,0.34174341127361024,0.3423866028969105
87,0.341731782138503,0.3417803949960704
88,0.3417375615617899,0.3422761462018744
89,0.34178068507738585,0.3420926484073658
90,0.3416951557678081,0.34528909223547055
91,0.3417607080100905,0.34255498431752396
92,0.3417368393671257,0.34214525917919336
93,0.3416794364774299,0.34201172130279445
94,0.34173143541145073,0.3418685136746532
95,0.3417230029476479,0.3422316576499797
