epoch,loss,val_loss
0,0.5624345291249482,0.5601677754972472
1,0.5586202292575413,0.558786347101699
2,0.5580815090529948,0.5602299832824442
3,0.5577629213810466,0.5574640816849455
4,0.5576161844687054,0.5575033286960782
5,0.5575208846775022,0.5575109726737806
6,0.557408357260237,0.5572626543991619
7,0.5573537410913993,0.5572011243320872
8,0.557316660199495,0.5571354451901268
9,0.5572715416021924,0.5571010338461428
10,0.5572246851336213,0.5577391363550949
11,0.557235352905704,0.557210759726115
12,0.5572131867404714,0.557239967333176
13,0.5571757154874849,0.557179045736346
14,0.55718471065673,0.5573649564984419
15,0.5571462960780638,0.5573061774445527
16,0.5571770048823342,0.5570364779337464
17,0.5571354457088269,0.5577289353529218
18,0.5571336043788007,0.5575646319105371
19,0.5571346913406229,0.5570969873859036
20,0.5571326769614184,0.5574102167456085
21,0.5571194235873171,0.5569953499301787
22,0.5571394984215804,0.5571074428984308
23,0.5571168099708551,0.5570059635503121
24,0.5570952584005756,0.5573622113717697
25,0.5570897757734904,0.5571265330681434
26,0.5570880899704023,0.557094033154897
27,0.5570866789003865,0.5571195492673453
28,0.5570823986288512,0.5569790296459908
29,0.5570738099632677,0.5570209407037304
30,0.5570708986328025,0.5570039987268283
31,0.5570644502828395,0.5569481131752431
32,0.557051477515425,0.5569468382866152
33,0.557057262733838,0.5571174681038774
34,0.5570455352113495,0.556902718839811
35,0.5570477126247696,0.5573099553141345
36,0.5570354850972397,0.5570253942799628
37,0.5570283906623033,0.5569706021112485
38,0.5570298029692016,0.5570141083253525
39,0.5570343323787019,0.5569201603125106
40,0.5570327946433928,0.556932896242544
41,0.5570183120044464,0.5569857439687175
42,0.5570212193118881,0.5569368764129525
43,0.5570062673209739,0.5574081149349733
44,0.5570239773004693,0.557035140423266
45,0.5570058344980607,0.5570683249468839
46,0.5570229812140178,0.5569742680187557
47,0.5570064266555856,0.5570789286575601
48,0.5570068977832056,0.5571988866879389
49,0.5570038333088521,0.5570278462346079
50,0.5570055415627785,0.5569646857216696
51,0.5569981769100221,0.5568841963488765
52,0.5569942939775427,0.5569757273120265
53,0.556999535467747,0.5569208574945814
54,0.5569995886473864,0.5568894335413097
55,0.5569824205123782,0.5569822249282382
56,0.5569757752811607,0.5570344000241301
57,0.5569834503180783,0.5569087978628078
58,0.5569650011363891,0.5568629553241115
59,0.5569752202774422,0.5569129268525552
60,0.5569708940976855,0.5569176552313433
61,0.5569570660575349,0.5569984008301576
62,0.5569719212939419,0.5568797255863919
63,0.5569651579451731,0.5570206973747935
64,0.5569571068194413,0.5572905903714467
65,0.5569724894797679,0.556861236255163
66,0.5569530721290449,0.5569814928707947
67,0.5569714787021808,0.5568693910579824
68,0.5569601831625034,0.5572879594549648
69,0.5569518342391527,0.5569081762292545
70,0.5569608329029065,0.5569046884849113
71,0.5569476440431164,0.5568944322855833
72,0.5569700374728979,0.5569320429347585
73,0.5569576791292609,0.5568649986837402
74,0.5569475037500278,0.5569250876495323
75,0.5569435346057298,0.5568753317035458
76,0.5569428534888976,0.5571697456960938
77,0.5569523631579015,0.5569093521120531
78,0.5569482982033237,0.5568912273305225
79,0.5569578950749144,0.5568874251162148
80,0.5569420378602985,0.5570385609903643
81,0.5569412592111748,0.5569138198573299
82,0.5569423280599246,0.5572861692449886
83,0.556950241948488,0.5568837706859295
84,0.5569489261507712,0.5569518678833179
85,0.5569490397656914,0.5571400595953684
