epoch,loss,val_loss
0,0.11884335127969582,0.11551893356442451
1,0.11509877619975142,0.11455875868101914
2,0.11467156729929977,0.11435247685511907
3,0.11449078064163526,0.11439421826601029
4,0.11435868201653163,0.11415389233827591
5,0.11429236043989659,0.1141850058734417
6,0.11425398056705793,0.11400737010935942
7,0.11419783023993174,0.11416350774963697
8,0.11416288795073827,0.1138689300964276
9,0.11413554612629943,0.11412049931287765
10,0.11410375203026665,0.11400145773092905
11,0.11408831451170974,0.11490540577471256
12,0.11408115267588033,0.11386983942985535
13,0.11406010307206048,0.11400735736389955
14,0.11404935875866148,0.11390636136631171
15,0.11405349490046501,0.11395669238269329
16,0.11404165975252788,0.11452326053877672
17,0.1140380755563577,0.11414843362073103
18,0.11401504776544041,0.11385872493684292
19,0.11401823821663856,0.1150121058622996
20,0.11401934932503435,0.11410530252257983
21,0.11400840395026737,0.1143246898551782
22,0.11400830485092268,0.11383774021764596
23,0.11400567459232278,0.11386682048936685
24,0.11399000579118729,0.11399546219408511
25,0.11399191108677122,0.11403756653765837
26,0.11398709115220441,0.1138566119670868
27,0.11399869570963912,0.11392126149932544
28,0.11397847282224231,0.11430765827993553
29,0.11398682662016815,0.11377383343875408
30,0.11399637957082855,0.11403956421216328
31,0.11398056300646729,0.11398226961990197
32,0.11398748995860418,0.11555470808347067
33,0.11398107737633917,0.11382609765231609
34,0.11398908218741417,0.11439172034958998
35,0.11397537184258302,0.114244435886542
36,0.11397025589148203,0.11381041402121385
37,0.11398022632300854,0.1139315184901158
38,0.1139622890866465,0.11439552119870981
39,0.11397436947127183,0.11380495466291904
40,0.11397015402548843,0.11414906162023544
41,0.11395939932929144,0.11389070412019889
42,0.1139795611931218,0.1137703912059466
43,0.11396378805074427,0.11405110025902589
44,0.11397221264574263,0.11383557596306006
45,0.11397265662915176,0.11385546469688415
46,0.11395498521294858,0.1138884532401959
47,0.11396738323900435,0.11405675156911214
48,0.11395780790348847,0.11394785011311372
49,0.11395119856463538,0.11382257005075613
50,0.11396490682330396,0.11417504586776098
51,0.11395037938157718,0.11378952443102995
52,0.11395546976062987,0.11395337845385074
53,0.1139501345290078,0.11388224903245767
54,0.11394854604701202,0.1137339226504167
55,0.11394498405688339,0.11387117227415244
56,0.1139486643821001,0.11385347513854503
57,0.1139468537569046,0.11383726798494657
58,0.11393529230356217,0.11447907580435276
59,0.11394242286682128,0.11381092679003875
60,0.11394614353444842,0.11394425583879153
61,0.11393733495970568,0.1139888731787602
62,0.11394215483632353,0.11390345647434394
63,0.11393422740035587,0.11382204687595368
64,0.11395097799930308,0.1137625484963258
65,0.1139436867783467,0.11404352448383967
66,0.11393620860079924,0.11379455148677031
67,0.11393817422125074,0.11378631888329983
68,0.11393897325131629,0.11399329355855783
69,0.11393746487796307,0.11379375051458676
70,0.11393390158646637,0.11388286718726158
71,0.11394013100034661,0.11387301438550154
72,0.113933288042744,0.11381058816115061
73,0.11393002175788085,0.11388106644153595
74,0.11394249219530159,0.11382120670378208
