epoch,loss,val_loss
0,0.32584571338577384,0.31427604687716765
1,0.3162927559949071,0.3154700735810377
2,0.31499204424600696,0.31426537906561536
3,0.3147523216325886,0.3143684950271256
4,0.31444796015746734,0.3143413696336391
5,0.3139475092921514,0.3135427724191036
6,0.3139454904718445,0.31264307336239305
7,0.31357749505910804,0.3154154665712683
8,0.3133810574198171,0.3160971435808366
9,0.31322525060938383,0.31224970515845135
10,0.3132378954076853,0.31236060363778995
11,0.3130158400729162,0.3123128739835015
12,0.3129641900300976,0.31237668538507696
13,0.31258296306697975,0.31247011482271897
14,0.3124913451544946,0.3114946823557908
15,0.3125768136769741,0.31155575664700114
16,0.3122369834920986,0.31327879551622473
17,0.31233962453783737,0.3132752990456432
18,0.3122618934276791,0.3126311502592735
19,0.3121515354389211,0.3126168991584636
20,0.31214733471518413,0.3117260616855053
21,0.3122263230241703,0.311238286764391
22,0.3120453045068156,0.31292073985483154
23,0.31208511549394286,0.32030364721643717
24,0.31217908941961564,0.3126466303694041
25,0.3120411609782478,0.31134923984927515
26,0.3118700145585738,0.31095276637645275
27,0.31182948343286293,0.3110647908954999
28,0.3118503109996952,0.3121722483457466
29,0.31178077358491535,0.3128880520020762
30,0.3118298434627133,0.3109045497093248
31,0.31175653176430673,0.31095262714118577
32,0.3117065101586258,0.31089681749308373
33,0.31172298308004825,0.3105990813920279
34,0.3116384696580865,0.31095883068316627
35,0.3114791072007673,0.3112465569162487
36,0.31165873213445455,0.31079506733577245
37,0.3116037895769211,0.3144236789151989
38,0.31144899790984437,0.3120803930771262
39,0.311532941570296,0.31715207406072404
40,0.311463976658993,0.3107512375557097
41,0.3115126083983592,0.31752402567981786
42,0.31138905430126906,0.3107987502668395
43,0.3113535523570011,0.3116732906023267
44,0.3115585262667257,0.3106987073019184
45,0.31143625004325515,0.3111501685295152
46,0.31151032529064243,0.31122137019711155
47,0.31127642453473314,0.31296415116000115
48,0.3113836814553992,0.31071562630958655
49,0.31130775196762955,0.31045477788146614
50,0.3112678981869689,0.31084600509544164
51,0.31132573328586965,0.3132359948850447
52,0.311223976442351,0.31132989064339667
53,0.3112240602533712,0.3103660708917282
54,0.31122492284485503,0.3114749294060927
55,0.31137273979350144,0.31278422233780323
56,0.3112310845125766,0.31436479045794563
57,0.3112117358096244,0.3105932457867095
58,0.31116053633756396,0.310589004746146
59,0.3111437502766035,0.3114994398121798
60,0.31120166940779076,0.3105487288671451
61,0.3111565429545486,0.31091123711382485
62,0.3111793648485733,0.31058181179664274
63,0.3113452002941143,0.31128507269819083
64,0.3112588642472141,0.31134556752280623
65,0.311131226822555,0.31076561040972955
66,0.31116567688813335,0.31180954850636994
67,0.3111577106900081,0.312352381731677
68,0.31126131243655014,0.31227241795944516
69,0.3111134430470019,0.3108074036632519
70,0.31119658822087914,0.3105878980372739
71,0.3113679790972174,0.3120947711964695
72,0.3111708879500801,0.31310559176925395
73,0.31112759524898637,0.31091320241059617
