epoch,loss,val_loss
0,0.08737806750246528,0.07442535872642811
1,0.06800216562963447,0.06455995738506318
2,0.06395451562114478,0.06201452659466131
3,0.061908347846624405,0.06070514576828509
4,0.06069806200945894,0.05932754652375915
5,0.06011510680327053,0.060033614807773764
6,0.05982339179679442,0.0580203861330934
7,0.05907839479422596,0.05969220283753227
8,0.058518656424682965,0.05698238808116309
9,0.05835564098943595,0.05831355531665291
10,0.0581058116207179,0.057857265654331996
11,0.05779598612107622,0.05696896789942131
12,0.05770459532412538,0.05946281902473559
13,0.05766754137523852,0.0566595862691219
14,0.05739525119225179,0.05735468289100799
15,0.0572904710609468,0.05594269108979341
16,0.0570863977985128,0.05592594529240954
17,0.05698784443349117,0.05610540085668599
18,0.05696102702178347,0.05849155870176131
19,0.05688806450038151,0.0570058877836386
20,0.05676110422386144,0.05677203626623816
21,0.05674944287675903,0.05589911889830239
22,0.05662433689963554,0.05602706051789797
23,0.05639192048831044,0.05585910532226042
24,0.05622234103168055,0.05551940479845031
25,0.05627705280560409,0.0558900980958276
26,0.05608775818012265,0.05570089408836649
27,0.05601912945375053,0.05660321421311156
28,0.055981692364418786,0.05492344013329771
29,0.05593141344308994,0.05534774775318709
30,0.05590487136655237,0.055544045351205336
31,0.055807403173279944,0.0555254704640166
32,0.05569432679999539,0.0552539975264528
33,0.05579300744372286,0.055108090552961266
34,0.05560848044948357,0.05534298240805678
35,0.05560295647892832,0.05524872349524321
36,0.05544100265301005,0.0554913821350552
37,0.05546119642163169,0.055122068350575405
38,0.055392505919439235,0.0554380758940508
39,0.05546995786513499,0.05482639260867393
40,0.05538437648917631,0.0545232190868399
41,0.055362486834886857,0.05516839210803692
42,0.05519724685972718,0.05449631485542648
43,0.05522802147087779,0.05474717080888914
44,0.05524300889388231,0.05509819547754363
45,0.05510063975117817,0.05482561191169559
46,0.05509901110108156,0.05477188019539523
47,0.05499658570772485,0.05521918386775566
48,0.055003429406530385,0.054352626426344176
49,0.05491629337615575,0.055127297916793945
50,0.05500513886332116,0.054612568401669156
51,0.05483686460287798,0.05507006095005916
52,0.05477858446532039,0.05420696887721495
53,0.05479629158055596,0.05474089399608725
54,0.05477899493343512,0.05467933109469213
55,0.05462809528229261,0.05407437549779196
56,0.05481081446677238,0.05470246578712321
57,0.05457719960555816,0.054210871894365506
58,0.05466497620615921,0.054166150673595315
59,0.054635599449662856,0.054834987698284626
60,0.05448612204189257,0.05414072321566104
61,0.05430944103640276,0.05426077249254246
62,0.05438350941861852,0.05454605644379301
63,0.05435799000516381,0.05482893335094523
64,0.05440861296817666,0.05354365273829429
65,0.054284762722709975,0.05361738829288826
66,0.05432734677238225,0.05360974137008042
67,0.05428597618589714,0.0539926135066721
68,0.054305213362105136,0.05478346460769253
69,0.05421953188062339,0.053528183872439426
70,0.054147291623894166,0.05444245181108823
71,0.054084346372114483,0.053834187012008636
72,0.05411986264529811,0.05361340843122591
73,0.05413191925082364,0.05433842328656696
74,0.05404958326392548,0.05377781321629697
75,0.0540709723698189,0.05395158785892184
76,0.05408064511026137,0.05406359790942213
77,0.054143885018546334,0.053725530865322564
78,0.05391068860311256,0.05380536963788806
79,0.05396597773572563,0.0532206100062756
80,0.05398262786594035,0.05340786600674944
81,0.05392694169454365,0.05401739930507563
82,0.05396878600576684,0.05341180978948366
83,0.053910473375194,0.05390383778486595
84,0.05380154133049691,0.053721163664059365
85,0.05383622124408564,0.053547483179764474
86,0.05390991638693178,0.053419868089720865
87,0.05388665458868343,0.05356248777831163
88,0.05383001277856634,0.053648108047971654
89,0.05382306449320076,0.0533261820544528
90,0.05386251300244802,0.0536950358497002
91,0.05364935934323527,0.053718163912408703
92,0.05370219794546752,0.053378427938255424
93,0.05359211253253404,0.053783583931310594
94,0.05374920359916815,0.053193678880669636
95,0.053755033788674675,0.05311432461215012
96,0.05369365666304155,0.05322401152170326
97,0.053614621240159484,0.05343474808978679
98,0.05369390461372156,0.05324761793202265
99,0.05362775216840936,0.05313970656792816
100,0.0536483926648894,0.053176925797246526
101,0.05358182798986127,0.0532515674293337
102,0.05337085773637713,0.053799674116426305
103,0.05363286686710778,0.05337170642747477
104,0.0534715448011421,0.05294885297234242
105,0.05351529139810175,0.053408926954636206
106,0.053421350893549865,0.053218279438781976
107,0.05351375027191623,0.05370438611019338
108,0.05345229530166334,0.0534060163511236
109,0.05344833612125105,0.053044922422460526
110,0.05355974390781935,0.05317036690509349
111,0.053441122474412114,0.053171797187319465
112,0.05339430457401632,0.053153520700505594
113,0.053340139957436104,0.052984156387467535
114,0.053417539253634294,0.053730911110751976
115,0.05339018981904038,0.05390084239910761
116,0.05333004421573056,0.05328644990329411
117,0.053354247628197356,0.05342058204391754
118,0.05336607345814916,0.052824472761701415
119,0.0534262506294253,0.052968983328150164
120,0.05332445849600257,0.053365632309289486
121,0.05331067883345061,0.053189586202796575
122,0.053280633340385755,0.05293356558266408
123,0.05330759557039348,0.05322714243685046
124,0.05323757313727209,0.053158951445341704
125,0.05332837290006327,0.05332503558388419
126,0.053255669224019635,0.05314501918501061
127,0.05331974137880154,0.05343993275100481
128,0.05314807664614877,0.052794938325586155
129,0.0532447973515982,0.05357171083539355
130,0.053283444119541445,0.0526522007976513
131,0.053195152145677646,0.05360305405432178
132,0.053233405574046926,0.05306296810581725
133,0.05311813064574913,0.05479118302834241
134,0.05317577047437963,0.053280584048248696
135,0.053160808411522625,0.053075071394665364
136,0.05324677266246087,0.05316901828714695
137,0.05320230858428246,0.05385381611567869
138,0.05330157245501401,0.05280223739317274
139,0.053113429522026766,0.052879235719702676
140,0.05321989549080785,0.052990052717791
141,0.0531063507901447,0.053432979196236095
142,0.053209248407198116,0.0528190307078823
143,0.05321731767528731,0.05289675188493492
144,0.05317788497674476,0.05322968455091599
145,0.05312594776675272,0.05367324201773769
146,0.053213413901696774,0.052956625131460336
147,0.053201911166146434,0.05294556658964595
148,0.05315854479027724,0.05279538605001665
149,0.05318166852885596,0.05317165353716751
150,0.05314186398832824,0.05352571188811925
