epoch,loss,val_loss
0,0.7445253153328854,0.6687509005182138
1,0.6686278088585884,0.6684625372105734
2,0.6682389511646645,0.6680215006430746
3,0.6681523883773917,0.6679481406069867
4,0.6680623364785219,0.6681754240031278
5,0.6680239464174238,0.6679992500664874
6,0.6679966879719892,0.6679889825378399
7,0.6679808168495439,0.6680622417932705
8,0.6679599675035605,0.6682244844827108
9,0.667941380483616,0.6678496980785437
10,0.6679448968200392,0.6678351139903956
11,0.6679164103056231,0.6680934137801082
12,0.6679110043912878,0.668038963177068
13,0.6678980447578622,0.6678235403065645
14,0.6679050809362611,0.6683148907964342
15,0.6678879469669783,0.667821987272788
16,0.667892058185539,0.6680188060102629
17,0.6678808902167297,0.6677877233578609
18,0.6678796144504645,0.6678441274550653
19,0.6678829879111757,0.6677939517918059
20,0.6678674671609577,0.6678028460176056
21,0.6678483302465347,0.6682547389425652
22,0.667859982338119,0.6678333151429227
23,0.6678461309029028,0.6677921932920925
24,0.6678415852979714,0.6678021648385685
25,0.667851728798292,0.6677849675822198
26,0.6678394907572603,0.6677731182675799
27,0.667836741124736,0.6689132762014423
28,0.6678315435998693,0.6678673851874567
29,0.6678240466188222,0.6678942530681714
30,0.6678174639203797,0.6677221399382977
31,0.6678181801984382,0.6677460164053565
32,0.6678134472980921,0.6679555876379273
33,0.6678056611081871,0.6677486792391643
34,0.6678161330386907,0.6677626457462832
35,0.6678034992354706,0.6677771891612865
36,0.667791338241652,0.6679591532380647
37,0.6678071711114533,0.6677405274535527
38,0.6678026331155584,0.6680206737506479
39,0.6678093128335544,0.6677206247971017
40,0.6677951288283849,0.6679440950341615
41,0.6677919986422789,0.6681622837376654
42,0.667786512997926,0.6677368732303307
43,0.6677935180507433,0.6677150224041998
44,0.6677840179959771,0.6678361389240615
45,0.6677869200111706,0.6677661087317739
46,0.6677805880102062,0.6677533569761896
47,0.6677824066046272,0.6677213416797647
48,0.6677947862624012,0.6678209450937087
49,0.6677860280610802,0.668152131484105
50,0.6677887702218243,0.668211053293337
51,0.6677812043027176,0.6677561194665971
52,0.6677820718606635,0.6676978878880258
53,0.6677744130743949,0.6679126461149741
54,0.66777405568633,0.6677432055804629
55,0.6677753463141177,0.6677434637292148
56,0.6677757959122507,0.6677263563383306
57,0.6677828856465601,0.6677325987046765
58,0.6677902126390823,0.6677166710124713
59,0.6677753194750283,0.6677614365262962
60,0.6677821868063368,0.667717333230428
61,0.6677693842893381,0.6679006900740024
62,0.6677703762896596,0.6677137414515758
63,0.6677763033015125,0.6677136133385652
64,0.6677824291446031,0.6677114534023086
65,0.6677678605304864,0.6680447360717925
66,0.6677710442519933,0.6677328123052422
67,0.66778212514995,0.6677285275743262
68,0.6677705896921312,0.6677264089324042
69,0.6677708046052088,0.6677425168879866
70,0.6677672873143033,0.6678759891992763
71,0.667768967615315,0.6678641762094522
72,0.6677788619114091,0.6677136662876044
