epoch,loss,val_loss
0,0.34273969270004473,0.33713409128615046
1,0.3375718650057788,0.33750063969242955
2,0.3370911085461739,0.33640430754526673
3,0.33668206019198094,0.3364394161748531
4,0.3364499359839795,0.33624400635511054
5,0.3363478733445187,0.3360736296727107
6,0.33622931653260474,0.33631218074273234
7,0.3361051959484302,0.33573139116131046
8,0.33605116270664465,0.33610666653062804
9,0.3359562362334965,0.3364459402507943
10,0.3359306116996669,0.3362022953352916
11,0.335910654188605,0.3364929454794001
12,0.3358137924734658,0.3358074270170321
13,0.3358035380777101,0.3362449180547416
14,0.3357484558857594,0.335827201471731
15,0.3357364090109223,0.33595161035693905
16,0.33569358270802935,0.3357291118826523
17,0.33572601396789403,0.3358046737409407
18,0.3356844119957259,0.3361662745475769
19,0.33568107853451873,0.33565186251777573
20,0.3356809421532289,0.33560348654503264
21,0.33564463198114763,0.3366493262516949
22,0.33566223039549264,0.33584714860241704
23,0.3356599844719522,0.3360847693814829
24,0.33563442931634835,0.3356711858703244
25,0.33561371681272484,0.33554297842399655
26,0.3356122324451907,0.3356746085820068
27,0.3356156131725869,0.33601930772991984
28,0.3356042128228893,0.33632290885407046
29,0.3356017188195969,0.3355059820280477
30,0.33558908188078473,0.3358897385910782
31,0.3356057686231521,0.3355242775332543
32,0.3355867139200058,0.33543404873192456
33,0.3355832495129292,0.33551468588874
34,0.3355523377786699,0.33539822422541105
35,0.33556181142701896,0.33545299329177913
36,0.3355727722160276,0.3359036009009955
37,0.3355304460645036,0.3354677239215699
38,0.33554742889233846,0.33539775182532316
39,0.3355221751633576,0.3355829409718809
40,0.3355268539800672,0.33586683258525196
41,0.3355403205878309,0.33549235300449815
42,0.3355413545624878,0.3355783953856002
43,0.33551449860834026,0.3357649546255249
44,0.3355442398643846,0.33534349303683336
45,0.335520632488801,0.3355715476253784
46,0.33551968553648376,0.3354615601653201
47,0.33549259566717715,0.3356775046578116
48,0.33553330460934916,0.33559608317486406
49,0.3355198310693635,0.33549683771417393
50,0.33550755787381037,0.33640207464878374
51,0.3355187812061298,0.33563765072940893
52,0.33551923718430493,0.33537074114489496
53,0.3355002101642941,0.33564684692742514
54,0.3355157837178806,0.3360733241212575
55,0.3355116842745523,0.33541356061883365
56,0.33550933834653274,0.3364793715938445
57,0.33551652720696107,0.335422624784427
58,0.3355038553218781,0.3356648828196466
59,0.33550089954922857,0.3353537208832819
60,0.3355042669615999,0.33542653200939926
61,0.33552425753284454,0.33556351272698964
62,0.33549305714782307,0.33548968849939387
63,0.3354798840535526,0.3356523943598158
64,0.33550821364638245,0.33542867110621544
