epoch,loss,val_loss
0,0.23590033132382687,0.22875383461527435
1,0.22680435453768205,0.2262122258137237
2,0.22607789477226073,0.2257761724829378
3,0.225804436600009,0.22638259058258967
4,0.22560656195304638,0.22530956340043184
5,0.2254948320272489,0.22512520379375286
6,0.225395244294734,0.2267885605987189
7,0.22533847688401973,0.22545391700551765
8,0.2252382179242114,0.22496068580422746
9,0.22518028118815445,0.22846986842214617
10,0.22516377787081643,0.2249152775363946
11,0.22511007150541967,0.2249451823107362
12,0.22507650664663417,0.2248795823335056
13,0.22505197271171623,0.22498357191718837
14,0.22502897244767023,0.22470457167098895
15,0.22500372911268365,0.2247470014444356
16,0.2249914028147963,0.22479992911182622
17,0.22498634307434756,0.22570756576936832
18,0.22498360044996973,0.22475764640507567
19,0.22494979517134808,0.22475326000608817
20,0.22491835047638442,0.2248201642601425
21,0.2249090189271461,0.22475158615828153
22,0.2249037428633923,0.22474395052227134
23,0.2249106377476796,0.22494239814524022
24,0.2248763390371245,0.2246691220821281
25,0.2248823292132092,0.22467657348358305
26,0.22489281684040724,0.22480852401286142
27,0.22486315209517288,0.22483481269320543
28,0.22487688935697855,0.2254923216832187
29,0.22486220803943266,0.22479484101235128
30,0.22484546213396706,0.2247380105866392
31,0.22484682258764052,0.2247201909128549
32,0.224841548341544,0.22460609258108635
33,0.2248195068437002,0.22488468877287124
34,0.2248257563537483,0.22484463250666634
35,0.22482612868044372,0.22469153444908985
36,0.2248243966719432,0.22496364084869697
37,0.22483554820650375,0.2246132980505231
38,0.2248123728610611,0.2246431212936974
39,0.22481071153373322,0.22466483563554493
40,0.2248411563805212,0.22493531709125555
41,0.22480264473359152,0.22515010756091502
42,0.2248104006384114,0.22467364831538708
43,0.22480266767764467,0.22469494351678096
44,0.2248055422358991,0.22464334688174814
45,0.22481265675597817,0.22463721418499058
46,0.22478558471280755,0.22464902699733194
47,0.22479076206832413,0.22467540969919625
48,0.22478483064021682,0.224753946021532
49,0.22477645236910596,0.22464474137160678
50,0.22479177556421304,0.22478465402392536
51,0.2247982493998335,0.22606221602365337
52,0.22477939102714248,0.22458710028575016
53,0.22477628266613692,0.22465173158397153
54,0.22477127722013895,0.2247249838879919
55,0.22478552354135284,0.22459592819953378
56,0.22478840717389206,0.22489227432175252
57,0.22477630659070344,0.22496791830281762
58,0.22480676367399108,0.22479178739096922
59,0.22477663016821284,0.22497422630822392
60,0.2248058895098065,0.2248484326059706
61,0.22477534595557014,0.22536838340108506
62,0.22478233685759905,0.2248332687923985
63,0.22476953422010684,0.22487414103583722
64,0.2247974523747605,0.2246145479510499
65,0.22475527549950028,0.2245773900679264
66,0.22477197190737913,0.22463207789893186
67,0.22480491325627,0.22474443238071412
68,0.22476415801027927,0.22486300359736602
69,0.22476251847610423,0.2247640048377863
70,0.22475387760745064,0.22467676723565416
71,0.22474907029260546,0.22480188449174535
72,0.22474791227077595,0.2246684995833461
73,0.22476741753659485,0.22464568940344876
74,0.22474040836519804,0.2254556611660988
75,0.22475286656047874,0.22462910583829762
76,0.2247520552260629,0.22599933651777415
77,0.224750768644372,0.22582450025430684
78,0.22476512280470629,0.22485146271087988
79,0.22475430021286988,0.22458825787302875
80,0.22475122053700883,0.22470095477092356
81,0.22474107704477372,0.22463611142511108
82,0.224739574280978,0.2248302176705661
83,0.2247724514182704,0.2247660019187714
84,0.22474616610438758,0.22549703255036924
85,0.22472603664870416,0.22579913015844805
