epoch,loss,val_loss
0,0.4524842142010424,0.44787237570244387
1,0.44812743621995726,0.4475237231840271
2,0.4475463818123177,0.4480606122732754
3,0.44719333845951786,0.4475511231138452
4,0.4469920994495964,0.44739845154007374
5,0.44695178703556504,0.44764931642683803
6,0.4468729940960443,0.4470515651087607
7,0.4468442152774084,0.4466562108277683
8,0.4467965445472773,0.4476824289811752
9,0.4467540019811414,0.4465277199561779
10,0.44670729483379723,0.446899911324972
11,0.44671905860293987,0.4465863778484666
12,0.446637270660373,0.4486692947873998
13,0.44660785670451536,0.4471772515004681
14,0.44656257116435355,0.446985925885643
15,0.44654261244441246,0.44648757434956193
16,0.4465515808999918,0.44645507082749836
17,0.44651689448216975,0.4464853349749563
18,0.4465050866447474,0.44674683488332306
19,0.4465180769766042,0.4464475117309514
20,0.44649813524959936,0.4463334496944181
21,0.4464851998257045,0.4463129005124492
22,0.44650403162612723,0.4463646609936991
23,0.4464836037952054,0.44634215855420967
24,0.4464618718822426,0.44665106054275266
25,0.446471354446322,0.4465536686090323
26,0.4464541995561331,0.44643763222410426
27,0.4464659633138377,0.44642664954325106
28,0.44646199381811674,0.44650976715549345
29,0.4464362167935486,0.4463249135549843
30,0.4464410746841114,0.44637175746650315
31,0.44647035951116537,0.44630495110161544
32,0.4464359879430607,0.44640344573605445
33,0.4464312070318718,0.4463756237964772
34,0.44642602784568225,0.44671350656904596
35,0.4464265306518524,0.44671901959935134
36,0.44643619942315804,0.4464066551873465
37,0.44641310531400047,0.44628280599419
38,0.4464252946776295,0.44631034424228055
39,0.44640650029250967,0.44670398862426985
40,0.4464112916122862,0.4465155916829263
41,0.44641115416410626,0.44640027058331605
42,0.4463943765234921,0.4462820181479821
43,0.4464163625306272,0.4465897576536789
44,0.44640527221169574,0.44629615676905915
45,0.44639070976542655,0.4464981914306101
46,0.4464115021442121,0.44626732890126725
47,0.44638037236996037,0.44626317130720644
48,0.4463926949650883,0.4462563177787932
49,0.4463754578604674,0.44630352663934675
50,0.44639268254025594,0.4462644631898137
51,0.44637743625254217,0.446479407522282
52,0.4463784536728512,0.4462726652178516
53,0.4463681213921469,0.44632808554261255
54,0.4463837835208812,0.4469697596269565
55,0.4463881328176416,0.44637209375206355
56,0.4463507980133898,0.44640432616912995
57,0.44636814355348525,0.4467122815974593
58,0.44636502509567644,0.4462990096573794
59,0.4463690012258366,0.44673244326049577
60,0.44636340754870596,0.44633464943386486
61,0.4463678873129115,0.4462662594785761
62,0.44635514207943067,0.44629694004508463
63,0.4463563807660393,0.4464233231307851
64,0.44636046581522565,0.44633967601335967
65,0.44635506187690493,0.44635000619344023
66,0.4463542187651382,0.44635781605841207
67,0.4463646090771695,0.446242411186914
68,0.4463514393496177,0.44646137668832064
69,0.44635893072919597,0.44665548764446533
70,0.446353975963041,0.44625720594716134
71,0.4463499532845253,0.446306016072446
72,0.44635866061905105,0.4467581713170035
73,0.4463478406662393,0.4463648022995989
74,0.44636976284021623,0.446351999843091
75,0.4463435575750377,0.4462809505001191
76,0.44634177385392093,0.44629168831385096
77,0.44636678989556644,0.44675831092202634
78,0.44636600504940865,0.4463162225026351
79,0.4463464215020578,0.44644771428321195
80,0.4463597215779417,0.4464110244444523
81,0.4463443555583397,0.44637325883799095
82,0.4463511010646044,0.44630790360216466
83,0.4463544959238572,0.4462609057390956
84,0.4463439261557854,0.44631213489596366
85,0.4463316121797883,0.4466456968494444
86,0.44634887475961477,0.44635195798672755
87,0.44635122464991817,0.4465162657626509
