epoch,loss,val_loss
0,0.08960813722982043,0.0788571188157013
1,0.07049061541722666,0.06688483522340619
2,0.06531437161442519,0.06608677042957867
3,0.06358841630302696,0.06584332508980192
4,0.062424733700773206,0.060249578082014255
5,0.06146645744855098,0.058792903742038875
6,0.06052161831823811,0.0605664984353127
7,0.05978919118939604,0.05848929602329252
8,0.059135017776912935,0.058623645282708685
9,0.05885900359424923,0.058617095723193575
10,0.058486212077764624,0.05883414552318251
11,0.05807327830083579,0.05835257499078959
12,0.057734477329176415,0.057508425100269746
13,0.0574073644444644,0.05649995741344267
14,0.05723007752798416,0.05643276889108251
15,0.05726568061037591,0.05593849029345785
16,0.05708644912514554,0.05723920230829982
17,0.056861293207117906,0.05668724031550417
18,0.05669509764066613,0.05571780565839547
19,0.056620016448053125,0.05647630466716757
20,0.056624018741523514,0.05603565423201686
21,0.05631093923048579,0.055786125944284885
22,0.056299629731803885,0.05560447176913765
23,0.05613909345149033,0.05494486298365865
24,0.055996598476150274,0.05531395268129652
25,0.05604525503209974,0.05612807741236154
26,0.05601277575513085,0.05602480361224256
27,0.05575824139147925,0.055268880989282364
28,0.0558332699206916,0.0554540353510575
29,0.0557015283738686,0.05595171439736416
30,0.0557171419798599,0.05619238372291288
31,0.05567694608684101,0.05508787182920032
32,0.055534508254213036,0.05528646800713267
33,0.05554333359126913,0.05576483847263729
34,0.055354271871370014,0.05521068189191463
35,0.05538825875710488,0.055612764235761565
36,0.055340512411496116,0.05467418088732523
37,0.05522041875983958,0.055276415106972156
38,0.055231173044284494,0.05457062620124213
39,0.0551392680419803,0.054420150522484674
40,0.05524435044417628,0.05513321351324654
41,0.055244000674761685,0.054236358836773906
42,0.05508545920810107,0.05442930356259677
43,0.05503028537265823,0.0547365667229107
44,0.0549660050804876,0.056752188265249685
45,0.0549176481412442,0.05420468770910433
46,0.054941601135773704,0.05496391723713567
47,0.054982861453695554,0.05493053917775379
48,0.05480336912404375,0.05457424269272731
49,0.05484773637859401,0.0553663794570614
50,0.054700215111140676,0.05467500439278837
51,0.05467741226386496,0.05461208600523158
52,0.05457545390884302,0.05477076955232076
53,0.054649977400167096,0.05437190474632656
54,0.05465170177483236,0.054228284232152014
55,0.05468220384676497,0.05427020876749278
56,0.05452493824186704,0.05409535602400676
57,0.0545832959437639,0.05377919262011649
58,0.05443246467490223,0.053913404738008236
59,0.054465555911300104,0.05449350696084813
60,0.05435250167356912,0.054012988343206295
61,0.05438505610061939,0.054072191725223887
62,0.0543644029060273,0.053980957537371824
63,0.0543698571971724,0.054092375414617005
64,0.05428984549225739,0.05515156520655374
65,0.05436988868968237,0.054249526369882284
66,0.05428289888219027,0.05440310508974137
67,0.05417165307759027,0.05409602891311752
68,0.05420351110675253,0.05402978798443863
69,0.05422243464333018,0.05408486273167447
70,0.05432490608771084,0.0542977892527953
71,0.05415968685303747,0.05401186148448854
72,0.05408991706772269,0.054126122231518956
73,0.054151350103770396,0.05389830746847406
74,0.05410514402894929,0.0539669057978294
75,0.05413047855730302,0.05372541739834154
76,0.05403028417146108,0.05403398097892553
77,0.05407562785777372,0.05417251563249687
78,0.054030880837878464,0.054545728657071114
79,0.0541048315718956,0.053864795259817064
80,0.05398847383881377,0.05313246628597711
81,0.05386451113415872,0.05335014453042234
82,0.053973601586840926,0.05382761629691195
83,0.053832255070637734,0.05347330065134441
84,0.05385802736936098,0.05349998925038366
85,0.053956265323463266,0.05527901102975935
86,0.053787667717771284,0.053958892051324654
87,0.05386983668305057,0.053737703585077456
88,0.053775151282222725,0.05372094936835263
89,0.05384190298653468,0.053703572784109095
90,0.05388492869646068,0.05357813852522569
91,0.053807976734310696,0.05418993858967171
92,0.05371505815195947,0.05398340223555825
93,0.053880966494688626,0.05343187442673347
94,0.053609001532882686,0.05373477630372674
95,0.053745093454030037,0.053870696720503104
96,0.05373053127046525,0.054512363350568874
97,0.05364738904734764,0.054073342477565366
98,0.05371355247605668,0.05435377859669938
99,0.05371154348484447,0.05575868453895188
100,0.0536217785808879,0.05352190636449653
