epoch,loss,val_loss
0,0.5083752098613316,0.503893474817276
1,0.5041888106134202,0.5031004497210185
2,0.5032145466539595,0.5026055663426717
3,0.5027995808521907,0.502536257425944
4,0.5027121647728814,0.5024626177946726
5,0.5025621140135659,0.5025721483230591
6,0.5025078701443142,0.5023788257439932
7,0.5024555631346173,0.5021636123259863
8,0.5024141589270698,0.5021279619137446
9,0.5023510269986259,0.5025903054475784
10,0.5023540390994814,0.5022518086830775
11,0.5022889303233888,0.502422243754069
12,0.5022853558858236,0.5023018222649892
13,0.5022587302923203,0.502095829129219
14,0.5022288780079948,0.5027725263834
15,0.502245165877872,0.502001459201177
16,0.5022171468337376,0.5025339386463166
17,0.5022198001411226,0.5020427647431691
18,0.5022218534549078,0.5020407766898473
19,0.5021919826136695,0.5019747063716252
20,0.5022027640872532,0.5020007963180542
21,0.5021798733207915,0.5023790524800619
22,0.5021719560623169,0.5019877224763234
23,0.5021608508163028,0.5021587662299474
24,0.5021673397488065,0.5018984283606212
25,0.5021618926392661,0.502237135052681
26,0.5021665635506312,0.5022405821879705
27,0.5021423010296292,0.5019779388109843
28,0.5021407159301969,0.5020314140319824
29,0.502163434293535,0.5023113283316294
30,0.5021327884727054,0.5020855858723322
31,0.5021346375544866,0.5019688980976741
32,0.5021412833134333,0.5019386368195216
33,0.5021243107583788,0.5019637976884842
34,0.502123818980323,0.5021918240388235
35,0.5021301087935766,0.5020952424208324
36,0.502135136683782,0.5019483933846156
37,0.5021205525133345,0.5022630860805511
38,0.5021184454361598,0.502233609954516
39,0.502115171538459,0.5020977481206258
40,0.5021167860031128,0.5021437326272329
41,0.5021111797359255,0.5023032085100809
42,0.5021113819811079,0.5020501339832941
43,0.5021163117620681,0.5020887059768041
44,0.5020986803505155,0.5021695922613144
