epoch,loss,val_loss
0,0.5628860772403057,0.5589335623805044
1,0.5582990861901712,0.5584629218868227
2,0.5578310457012832,0.5574944744630723
3,0.5576474139200727,0.558015316769148
4,0.55757663443895,0.5581037509234312
5,0.5574949531372736,0.5576001464285271
6,0.5574328581264923,0.5577079896595578
7,0.5573770508208189,0.5573694332361813
8,0.5573610779095651,0.55719467936911
9,0.5573079194888608,0.5574664882927319
10,0.5573043401187567,0.5571090849989992
11,0.5572820343333059,0.5573417296480601
12,0.5572526869194423,0.557173115088981
13,0.5572338433859895,0.5571153655537304
14,0.5572239531878577,0.5570553576088425
15,0.5572059820115813,0.557376425082867
16,0.557214082480881,0.5577346397392803
17,0.5572028378971365,0.557093892470187
18,0.5571724642541198,0.5570403793017858
19,0.5571769806290235,0.5573159470747482
20,0.5571663360058922,0.5570335199164398
21,0.5571505952996181,0.5574384253610748
22,0.5571657908388609,0.5570536772311473
23,0.5571394225244788,0.5570820474151347
24,0.5571358197790298,0.5571157257255195
25,0.5571521618334657,0.5571015725360615
26,0.557109720868397,0.5570463794040916
27,0.5571116467355598,0.5570749143808711
28,0.5571077831561906,0.557398507198684
29,0.5571092606100403,0.5570490645711534
30,0.5570925376825475,0.5569989371240582
31,0.5570907301482863,0.556983327510635
32,0.5570899063379613,0.5569461343897779
33,0.5570745607328378,0.5571601135263372
34,0.55707465737612,0.5569891043099813
35,0.5570581489807007,0.5569745614274264
36,0.5570573429024441,0.5570150598107142
37,0.5570670553263171,0.5570162419349917
38,0.5570691471581922,0.5569545354500006
39,0.5570395471583958,0.55701501286651
40,0.5570516778249268,0.5571815823502931
41,0.55705214990624,0.5569915331031193
42,0.5570518896931276,0.5570597255496175
43,0.557055240998811,0.5569797631824579
44,0.5570533027265366,0.5569785758520178
45,0.5570586455701162,0.5575124118227521
46,0.5570478839306374,0.5570291244362483
47,0.557051584567295,0.5569961547555757
48,0.5570522969580084,0.557034991101059
49,0.5570409715580298,0.5570581611865212
50,0.5570483874641071,0.5572910806381377
51,0.5570461573404004,0.5569661059687214
52,0.5570210051568745,0.5569525776370879
