epoch,loss,val_loss
0,0.520439940331052,0.5134768551987395
1,0.5136437586290001,0.5137052307353718
2,0.5125156386861812,0.5139949482960382
3,0.5117523317030277,0.5114317110691118
4,0.5114909709324233,0.5113664920513447
5,0.5112650225630471,0.5111060813993733
6,0.5110890977820712,0.5108807367959034
7,0.5107617152275036,0.5105664749299327
8,0.5106649903827277,0.5106086310026959
9,0.5105522063328413,0.5103371085954955
10,0.5104235779798781,0.5102693567500812
11,0.5103982423914379,0.5104715980903682
12,0.5103891090171324,0.5102087888469176
13,0.5102248934775524,0.5102586326468967
14,0.5101138921801017,0.5098349528040543
15,0.510110639195538,0.510796725335843
16,0.5100671550028583,0.5137521765959766
17,0.5100509461041938,0.5098123543019922
18,0.5100016346375164,0.509772051149799
19,0.5099444395354132,0.5108886304623436
20,0.5099588100195603,0.5097249047336152
21,0.5099194087817281,0.5101412029183532
22,0.5098011378616497,0.5104892102719536
23,0.5097936092801465,0.5126223412400144
24,0.5097588835830205,0.5097006958116669
25,0.5097720588402578,0.5098146444514726
26,0.5097258709721822,0.5101352171329944
27,0.5097902585053443,0.5098912938356991
28,0.5096489789641773,0.5095820092977424
29,0.5096778776207987,0.5096354589864575
30,0.5096307660917407,0.5096743073711916
31,0.5096668718476809,0.5103263283781615
32,0.5096182258285529,0.5095510109186764
33,0.5096528506747872,0.5097151826688137
34,0.5095613767822093,0.5093552986386396
35,0.5095468451806989,0.5095640995958011
36,0.5095627883515532,0.5100278432256826
37,0.5095479677352366,0.5102012625699007
38,0.509569731246289,0.510925924807565
39,0.5095730237961068,0.5095450054623057
40,0.5095096614800313,0.5110930836230294
41,0.5095305423633646,0.5094159712566632
42,0.50949844019196,0.5095230129161484
43,0.5094503757340283,0.5096838376362329
44,0.5094506038465674,0.5099021966049156
45,0.5094227099708614,0.5093095634770453
46,0.5093720108907623,0.5095739359595344
47,0.5094436138090942,0.509481609666318
48,0.5094250957918931,0.509434242047388
49,0.5094234563040617,0.5098520015664492
50,0.509437398755849,0.5102782883064327
51,0.5093841804985845,0.5092737005307124
52,0.5094940867424137,0.5093727427440009
53,0.5093899510511043,0.509488139288597
54,0.5093726195119199,0.5092754981949666
55,0.5093984435411806,0.5094129226935412
56,0.5094160610644934,0.5093330089566726
57,0.5092989451978841,0.5117711388147794
58,0.509364419217205,0.5093601744760651
59,0.5093550408683695,0.5096757998537484
60,0.5093107513665405,0.5096854623434857
61,0.5093371106693496,0.51002578321225
62,0.5093449928825181,0.510358213372621
63,0.509315453985351,0.5094201117827933
64,0.5093361539335911,0.5091171036878828
65,0.5093173654690211,0.5106237811426962
66,0.5092920667306885,0.5096818171718872
67,0.509315276721464,0.5095676238128625
68,0.5092964829409811,0.5096374009738194
69,0.5093089872998663,0.5097810584617312
70,0.5093507991484442,0.5106346293359477
71,0.5092840912370122,0.5094329946094353
72,0.5092666548570433,0.5094912635185582
73,0.5092995535942256,0.5093794913800715
74,0.5093336276853698,0.5093400307092122
75,0.509284645927566,0.5095438194925672
76,0.5092860685050069,0.5093061648290743
77,0.5093044029895035,0.509502383585899
78,0.5092896493707292,0.5093467610053921
79,0.5092723804353142,0.5092284029529941
80,0.5092320615197611,0.5092463255520199
81,0.5092126677502672,0.5181202893221645
82,0.5093009397964335,0.5097333684748515
83,0.509233611971769,0.509583345802487
84,0.5092475061985465,0.5094520359713741
