epoch,loss,val_loss
0,0.6704566665490468,0.6682931410868963
1,0.6682599934207069,0.6679982530275981
2,0.6680497924221886,0.6679274181922277
3,0.6679748819271724,0.6678920268217723
4,0.6679299172692829,0.6678933118184408
5,0.66789453069369,0.6679014560778935
6,0.667858351442549,0.6677652372916539
7,0.6678323498566945,0.6679496565262477
8,0.6678233444955614,0.6677451943159103
9,0.667805088824696,0.6679155308405559
10,0.6677961740891138,0.6677644078731537
11,0.6677816847165425,0.6677344758113225
12,0.6677805275917054,0.6679350977341334
13,0.6677729765309228,0.6679435024658839
14,0.6677692753473917,0.6677152615388234
15,0.66776356112957,0.6677111469507218
16,0.6677615472608143,0.6678355992635091
17,0.6677557548284531,0.6677663421233495
18,0.6677573818498188,0.6677809188763301
19,0.6677560150225957,0.6677487796147664
20,0.6677521348264482,0.667841733177503
21,0.6677502593464322,0.6676891238689423
22,0.6677461745076709,0.6677767711083095
23,0.667746727599038,0.6676856863498688
24,0.6677475087112851,0.6679427193403245
25,0.6677484582530128,0.6676932048002879
26,0.6677416224214766,0.6677834160725276
27,0.6677480362653733,0.6677084274291992
28,0.6677444297340182,0.6677485839525859
29,0.6677438283099069,0.6677127271493276
30,0.667735770450698,0.6676707721948624
31,0.6677444056140052,0.6677504016955693
32,0.6677403693993886,0.6676896439790726
33,0.6677376851903067,0.6677339818080267
34,0.6677323334349526,0.667666097521782
35,0.6677330855131149,0.6679494933287302
36,0.6677364401949777,0.6676921697854996
37,0.6677345853646596,0.6676884129842122
38,0.66773489051395,0.6676930584907532
39,0.66773460468981,0.6677117575804392
40,0.6677380355066723,0.6677547181049983
41,0.6677319003608492,0.6677008680899938
42,0.6677274915112389,0.6678053224484126
43,0.6677312664455838,0.6676826366186142
44,0.6677356401549446,0.6676794213453928
45,0.6677353721327252,0.667671910683314
46,0.6677312120331659,0.6679306728045146
47,0.6677338335381614,0.6676896875301996
48,0.6677294625573688,0.6676821000973383
49,0.6677280741400189,0.6676824247439702
50,0.667728855225775,0.6676672478914261
51,0.6677293330166075,0.6676807222366333
52,0.6677243103451199,0.667709521373113
53,0.6677295238044527,0.6677159962654113
54,0.6677256984313329,0.6676720124483109
