epoch,loss,val_loss
0,0.6722025520421866,0.6709658851694529
1,0.6690791127227714,0.668608111128322
2,0.6685740537761504,0.668423316466897
3,0.6683212148676391,0.6680319103058752
4,0.6682015050003577,0.6679957222701893
5,0.6681678769686632,0.6679696178317958
6,0.6680751100163405,0.668036269224607
7,0.6680619034789111,0.6683438047286003
8,0.6679852125723914,0.6678298254758489
9,0.6679746470442709,0.6678213423002447
10,0.6679350604065781,0.6678922276638873
11,0.6679140938178537,0.6679041014711555
12,0.66788822269003,0.667780522613904
13,0.667871376823668,0.6678478185059711
14,0.667858328002964,0.6677502178672525
15,0.667850781649951,0.6681327708897461
16,0.6678582715623089,0.6677451553179076
17,0.6678346505376317,0.667763588978694
18,0.6678198624391783,0.6680227601794392
19,0.6678406369553446,0.6681180258838474
20,0.6678225961255414,0.6677677431414204
21,0.667812156135479,0.6684061944041003
22,0.6678101671809951,0.6679846767456301
23,0.6678138552531976,0.6677380610044777
24,0.6677898459073478,0.668395996596618
25,0.6678015294881636,0.6677389715504706
26,0.667806330758613,0.6679398531653449
27,0.6677978291354842,0.667715015156985
28,0.6677875415099478,0.6682333036628609
29,0.6677945187975914,0.6677362759119227
30,0.6677776538100348,0.6677194242146116
31,0.6677763892545955,0.6677962794197404
32,0.6677793691271287,0.6677421044770896
33,0.6677768401819039,0.6680218792434958
34,0.6677738512891207,0.667782929635817
35,0.6677828714870946,0.6677865873495343
36,0.66777282977716,0.6677976846399142
37,0.6677740629885123,0.667850492077489
38,0.6677707002479758,0.667712604674157
39,0.667760411155219,0.6677509702464783
40,0.6677732284666898,0.6678516015817155
41,0.6677694679051234,0.667713818242473
42,0.6677528388686913,0.6676965298486999
43,0.6677612098808082,0.6677168459217838
44,0.6677591200691221,0.6677001783628913
45,0.6677580211289442,0.6677169033670544
46,0.6677524653001832,0.6679312560161941
47,0.6677567201115008,0.667692656345462
48,0.6677524083720324,0.667737386983914
49,0.667750323160792,0.6681114213342406
50,0.6677494525863672,0.6676941734389691
51,0.6677564512181232,0.667694588748752
52,0.6677482005788175,0.6680806059103745
53,0.6677528559618088,0.6677614329766399
54,0.66775045882977,0.6679806331842768
55,0.6677426231235435,0.6677006218628612
56,0.667747188122604,0.6677779599987248
57,0.6677413002153297,0.667674841981372
58,0.6677383054986282,0.6676800801203802
59,0.6677435806055334,0.6677831571096227
60,0.6677371546425137,0.6677604027776505
61,0.6677387948797319,0.6679505969395413
62,0.6677481046525799,0.667693891744164
63,0.667748179234705,0.6677359761730317
64,0.6677312074753124,0.6686174579057149
65,0.6677529083407876,0.6677302269426824
66,0.6677285598895433,0.6677263170258875
67,0.6677469720523156,0.6677400517404524
68,0.6677408555457951,0.6677087454287053
69,0.6677464773694979,0.6677283146541113
70,0.6677362897941925,0.6676985661977574
71,0.6677316691582929,0.6677477673620503
72,0.6677337416023494,0.6676894913536148
73,0.6677322706129465,0.6677161091314652
74,0.6677390941327388,0.6679175150601503
75,0.667726751900917,0.6676977779374229
76,0.6677507858866032,0.66771724440028
77,0.6677287795316457,0.6678352734587033
