epoch,loss,val_loss
0,0.09215582645486396,0.07776642207694112
1,0.07333288903618285,0.07218868718771426
2,0.06812669096637072,0.0650601300353152
3,0.06450453758601818,0.06281886489382453
4,0.06243774701373339,0.06024089909294995
5,0.0611578698407735,0.062465755896591965
6,0.06039990626831762,0.05945569536563185
7,0.05984582728748515,0.060634449779728504
8,0.0596325318010362,0.058608162528823685
9,0.058986864313482254,0.05810165486249971
10,0.058881307350538245,0.0581930656402046
11,0.05867473953857293,0.05813108501636952
12,0.0582548602737097,0.057199683933340885
13,0.058080545308448785,0.05780820054910319
14,0.057712342928500894,0.0578710860339347
15,0.05754641271146819,0.056809585206857686
16,0.05733300538991721,0.05650033867980351
17,0.05697545059860164,0.055900847671493406
18,0.05668357878536299,0.05539791891466891
19,0.056428322600507994,0.056419103426244066
20,0.056147251752444935,0.05534542530922973
21,0.055750996514538964,0.055711169812652665
22,0.05555233384172615,0.05571827111631706
23,0.05528306821446846,0.054420911714841355
24,0.055117966212231966,0.055888388145058684
25,0.05489900327470635,0.05457633669966504
26,0.05478847737485173,0.055402087327786176
27,0.05475525008647515,0.054076533171142596
28,0.05457617680356759,0.05466247467190101
29,0.05465917614244392,0.05538599333788266
30,0.054507046714753433,0.05431452324017697
31,0.05441325928102461,0.053637972405693374
32,0.054203465606774366,0.05447089283844969
33,0.054249550093397395,0.05457732308443368
34,0.05421296429686788,0.053467209890447835
35,0.05406389893758024,0.05446948656816932
36,0.05390809133915694,0.053807503534088065
37,0.05399129187338904,0.0537017697380583
38,0.05391400233163535,0.05371003469299738
39,0.05378493143345192,0.05352798472563031
40,0.05362723042193272,0.05382576927025028
41,0.05364461127406876,0.05312569407242403
42,0.053645051914121174,0.05328884916957791
43,0.05357868399137419,0.05381195970785529
44,0.05346854088054152,0.053836930824198735
45,0.05342153562665352,0.05375074189590757
46,0.053375039095639884,0.05293208120330688
47,0.05332524043123653,0.05346508622724128
48,0.05331412025550425,0.0557140581254332
49,0.05321710263138757,0.05297827697902104
50,0.053233565617174204,0.05328295033415849
51,0.05318442396390173,0.05367158947896129
52,0.053073008213915925,0.05266155048872046
53,0.05315435161118865,0.05319881876075534
54,0.05304871062512829,0.05288221205656345
55,0.05306953095253937,0.052856058793757155
56,0.053063573794237866,0.0524598249245814
57,0.05303872432775917,0.05271419351250303
58,0.05310976193583953,0.05325541282188212
59,0.05305674857087253,0.052681692917057064
60,0.05291138939572574,0.05303948224145485
61,0.0528993944709914,0.05337415933609009
62,0.052893426814447045,0.052545437841646135
63,0.05286745123988305,0.05289960312321967
64,0.0528833162822874,0.05285516543031922
65,0.05277347999731067,0.053784323498495754
66,0.052861370356398665,0.052783830445398465
67,0.05274755500687025,0.053127415714873276
68,0.05284775825914074,0.052760173896184336
69,0.05273262249094019,0.05250314199562108
70,0.052768564267697736,0.052930869737053035
71,0.05267525452409687,0.052740294321742896
72,0.052687874260637424,0.05295604990596511
73,0.052775546293634956,0.05312001640832158
74,0.052706699206291376,0.052996840212429425
75,0.0525580227344069,0.05325097879833974
76,0.052605245222844405,0.05270375708677337
