epoch,loss,val_loss
0,0.30984001602066885,0.30520702807108563
1,0.30532699966430665,0.3044357008934021
2,0.3045477787454923,0.3038449050585429
3,0.30413865959644315,0.30375728478034336
4,0.30397711186276544,0.3036508829593658
5,0.3038830763498942,0.303497678120931
6,0.3038107709288597,0.30339492694536846
7,0.30378458760844335,0.3039672964413961
8,0.30372540298435424,0.30344737714529035
9,0.3036765026979976,0.30363934365908307
10,0.3036710375746091,0.30353013596932094
11,0.3036479414635234,0.3034990346829097
12,0.3036154503160053,0.3033091256022453
13,0.30360546198156146,0.3034289739926656
14,0.3035745386944877,0.3033022520939509
15,0.3035566201938523,0.3034251426855723
16,0.3035455655124452,0.30338385252157846
17,0.30354038605425093,0.3038508392969767
18,0.30352045848634507,0.303194537738959
19,0.3035201656685935,0.30418614610036215
20,0.30352081116040547,0.3033115275700887
21,0.30350294907887776,0.30377080804109574
22,0.30352135251628026,0.30359406940142314
23,0.3035127124786377,0.3033227279782295
24,0.3034933161867989,0.3032082142631213
25,0.3034925745460722,0.30330062909921013
26,0.30348297044965955,0.30355895664294563
27,0.30348149253262413,0.30334738492965696
28,0.303488717854023,0.3034519492983818
29,0.303458509557777,0.30326879302660625
30,0.3034595349431038,0.30352908289432523
31,0.3034654360214869,0.30326677509148914
32,0.30344679879479936,0.3032191276748975
33,0.303466755244467,0.30341948980093003
34,0.30345976692438126,0.30337169297536215
35,0.30343953567743304,0.30347177918752033
36,0.3034600709411833,0.303280764400959
37,0.3034303381641706,0.3034540476600329
38,0.30343442536062665,0.304479362765948
