epoch,loss,val_loss
0,0.6716209738987936,0.6714513506842015
1,0.6685326811960007,0.6679946925149071
2,0.6682586648363201,0.6687358665702953
3,0.6681397954141719,0.66823565554678
4,0.6680862066230212,0.6680095600726883
5,0.6680428641393765,0.667953589536416
6,0.6680057989419973,0.6678373262545015
7,0.6679828289261588,0.6680326487527
8,0.667957876008515,0.6678668493076826
9,0.6679395952763469,0.6678756076703888
10,0.6679378247389153,0.667854602549863
11,0.6679046085110188,0.6680379319427623
12,0.6679080118312425,0.6678775091029279
13,0.6679088803878449,0.6679041805101683
14,0.6678828485299725,0.6678888021568506
15,0.6678833893797472,0.6683369863122036
16,0.66787027904149,0.6682044491874373
17,0.6678528635433801,0.6678186794368564
18,0.6678667828817134,0.6678749317270947
19,0.6678493450061262,0.6677370232033079
20,0.6678437213649634,0.6681322886985229
21,0.6678554309526549,0.6678084216106027
22,0.6678351643984397,0.6678030828388394
23,0.6678306303600957,0.6680928502721762
24,0.667826564835984,0.6680777246248042
25,0.667837755648468,0.6677839581783002
26,0.667812113401502,0.6679165460927314
27,0.6678286353860641,0.6677962520873872
28,0.6678193976513703,0.6677369007697472
29,0.667814688366173,0.6678433717924075
30,0.6678270722252457,0.6678288153324174
31,0.667816031306678,0.6678073985405063
32,0.6678165389294328,0.6678256137495301
33,0.6678088476142573,0.6679543730638755
34,0.6678147687091102,0.6678083899890814
35,0.6677975581043825,0.6678877504528604
36,0.6678072884906615,0.6677158471372524
37,0.6678003520154093,0.6679473231211489
38,0.6678073362218647,0.6678023988496576
39,0.667789665163151,0.6677598725773265
40,0.6678028163784836,0.667729114983277
41,0.6677974297644069,0.6677291296256092
42,0.6677995002561138,0.6677201802026546
43,0.6677965173655241,0.6677725279301627
44,0.6678050942397042,0.6677242814459221
45,0.6677869492964161,0.667701582192783
46,0.6677828341305593,0.6677146223875192
47,0.6677887972115798,0.6680128032457148
48,0.6677722904387801,0.6677186868918444
49,0.6677944407951074,0.6677132181139205
50,0.6677769249564777,0.6677129175467763
51,0.6677752043857883,0.6677097204305398
52,0.6677807296545575,0.6680962575576441
53,0.66777925147893,0.6678934563774033
54,0.6677777744376374,0.6677209484074311
55,0.667771099188353,0.6677853122834236
56,0.6677748009688114,0.6677284899775503
57,0.6677746926761147,0.6683745093144495
58,0.6677713922332823,0.6677667283834358
59,0.667775122395778,0.6677237803231989
60,0.6677650971597308,0.6678379194020634
61,0.6677859916006537,0.6677263007270491
62,0.667771931641868,0.6676978408550802
63,0.6677768266661221,0.6677262670644756
64,0.6677713913505836,0.6677287184570918
65,0.6677711984442342,0.6677396053120161
66,0.667762839928733,0.6677339886021674
67,0.6677647741022563,0.6677162662333354
68,0.6677660258187285,0.6677491527928904
69,0.6677770483536559,0.6676978070150238
70,0.6677609941576043,0.667769117568326
71,0.6677617766033579,0.6677331803454359
72,0.6677703474461578,0.6677162414153219
73,0.6677730658063786,0.66778613535997
74,0.6677615329974448,0.6679463820185318
75,0.6677625594514139,0.6677151684725551
76,0.6677600362417588,0.6677654099523578
77,0.6677697639641651,0.6677439923026129
78,0.6677702813762775,0.6677003527989163
79,0.6677703014835074,0.6679986304739864
80,0.6677629117491707,0.6677338936192818
81,0.6677547423236684,0.667730338963918
82,0.6677639754303073,0.6677269491013463
83,0.6677593677777304,0.6676951574036856
84,0.667761063021514,0.6677659719221054
85,0.6677669457540756,0.6678016615268906
86,0.6677648047442862,0.6677794502035855
87,0.6677660302527316,0.6677569203282112
88,0.6677641670161585,0.6677022950525023
89,0.6677636042779799,0.6677207884954164
90,0.6677655384735903,0.6677090524443917
91,0.6677637156660382,0.6676922160106025
92,0.6677577472028431,0.6677231998656583
93,0.6677698693776389,0.6677171734071548
94,0.6677545287113684,0.6676880662257855
95,0.6677587334526073,0.6677227616605924
96,0.6677592871460821,0.6676985097582228
97,0.6677623190804851,0.6677567884584811
98,0.667756006042161,0.6677179169122398
99,0.6677512580373333,0.6677477943098574
100,0.6677557263118622,0.6678136272702561
101,0.667751578789063,0.6677731935498732
102,0.6677548447648377,0.6677143922514714
103,0.6677600538846895,0.6678906754583638
104,0.6677550147573066,0.6677788846841817
105,0.6677643807467826,0.6677543440764359
106,0.6677684340196041,0.6682690829556278
107,0.667763039135453,0.6677139854608635
108,0.6677565009411176,0.6676834812531105
109,0.6677546591590928,0.6677633144719429
110,0.667750535652167,0.6677442913907338
111,0.6677545682403365,0.6676875060900269
112,0.6677527180801678,0.6677090166816049
113,0.6677549965077672,0.6677383222000179
114,0.6677541031898487,0.6677626104863642
115,0.6677489282814743,0.6678254349060153
116,0.6677540748409422,0.6681454474517784
117,0.6677572126660601,0.6676818241256638
118,0.6677517937904893,0.6676877761892882
119,0.6677524144310215,0.6676770487730911
120,0.6677526358298441,0.6677062743946577
121,0.6677591888557266,0.668273104804917
122,0.6677552047268488,0.6681458551298004
123,0.667745045339529,0.6678280066615595
124,0.6677578645552311,0.6677041459024396
125,0.6677525070481248,0.6679867803015129
126,0.6677578004085137,0.6677345954454862
127,0.6677500842720713,0.6677997333240272
128,0.6677520598511848,0.6683616166966725
129,0.6677583803210592,0.667728812907529
130,0.6677546466940302,0.66776641509669
131,0.6677568398848024,0.6677135947028697
132,0.6677566100928481,0.6677294985236364
133,0.667758095726057,0.6677998903075756
134,0.6677437808913703,0.6676902782532477
135,0.6677540432515296,0.6676906510558969
136,0.6677544191589133,0.667678950383113
137,0.6677481322402672,0.6676952333959102
138,0.6677571359864409,0.6677153415774589
139,0.6677473928921402,0.667679044005297
