epoch,loss,val_loss
0,0.6746328973935612,0.6719711399624754
1,0.585201615209076,0.5809290102011443
2,0.6730522675062086,0.6699259755327215
3,0.6733755713984044,0.6700408030708341
4,0.6697523853897266,0.6694901981390186
5,0.6696051848514434,0.6693832978386506
6,0.6694666360084609,0.6693451121107981
7,0.669480954949587,0.6696332634543627
8,0.669377214580991,0.6691064035030554
9,0.6694085402039397,0.670323154349843
10,0.6693210757521075,0.6690908876908018
11,0.6692495396755238,0.6696614265801916
12,0.6693119794426111,0.6700600385665894
13,0.6691642229251566,0.6689838702883257
14,0.6691884355935057,0.6691521851011355
15,0.6691282471332568,0.6692015427978917
16,0.6690981923908389,0.6688560530037709
17,0.6689519846594949,0.6690004788276929
18,0.6689345361660258,0.6686787134399421
19,0.6688785834066436,0.6689066083313919
20,0.6688702060378484,0.6690483534710936
21,0.668835882123514,0.6694949745157722
