epoch,loss,val_loss
0,0.569664671358816,0.5611418648498014
1,0.5604048755765455,0.5596717248951527
2,0.5655359534313467,0.5617136741260543
3,0.5616651283380791,0.5599855573907121
4,0.5600148325215822,0.5595694908474834
5,0.5597297359676818,0.5596560466393291
6,0.5597158797902577,0.559405136085103
7,0.5593626191770968,0.5589340193950594
8,0.5595859563932083,0.5595563446825278
9,0.5592341671833269,0.5591781079970323
10,0.5594825680615012,0.5593837875840422
11,0.559097183734206,0.5587604096588519
12,0.5590279381973259,0.5588845560215658
13,0.5590061250701961,0.5586680226712271
14,0.5592954514854954,0.5585791587109548
15,0.5589117399864094,0.5593036578167054
16,0.5588424249576037,0.5587744901946476
17,0.5586852045237325,0.5590946327667927
18,0.5588034542133754,0.5584460492031594
19,0.5683885192118288,0.5592389406838538
20,0.5590893904914944,0.5591737933895011
21,0.5586758249816951,0.5584824292777084
22,0.558598114083034,0.5588198375651078
23,0.5585889927976707,0.558315334787672
24,0.5584856247247941,0.5583091095807307
25,0.5584809306864178,0.5583096911628074
26,0.5584121355636689,0.5585127826333364
27,0.5583528903327696,0.5589792565038094
28,0.5583882170726273,0.5581587440253024
29,0.5586624699593674,0.5581864553671956
30,0.5588232185669093,0.5584035236133651
31,0.5583361298305402,0.5581204146702688
32,0.5583072634932301,0.5582488233421767
33,0.558372849332876,0.5582316525136203
34,0.558436097413041,0.5587263392669352
35,0.5582813791007494,0.5581276119549504
36,0.5582786487133016,0.5580891804598559
37,0.5582008113356653,0.5581315652179261
38,0.5582178151358743,0.5581894605467683
39,0.558254287433604,0.5582171581549211
40,0.5582463295012412,0.5580090911207539
41,0.5581689895598528,0.5580491706329206
42,0.5581820658690148,0.5583090686654087
43,0.5581689651868518,0.5580525991441853
44,0.5584577093016071,0.5580179203274535
45,0.5583196064098551,0.5583145027263144
46,0.5582641861249392,0.5581084414217988
47,0.5581374580095416,0.5580800972371992
48,0.5581440672098039,0.5580155966357707
49,0.5581517156616698,0.5580604404639893
50,0.5583265854167213,0.5580678062596527
51,0.558194673717605,0.5587116742477173
52,0.5581329559733172,0.5579511731000031
53,0.5581352783434851,0.5580796780457482
54,0.5580992387537056,0.5580167979939112
55,0.5581020178320927,0.5580309668089616
56,0.5580873025992137,0.5581306879527617
57,0.558068329311432,0.5579363394321483
58,0.5581052965111144,0.5579847171730588
59,0.5580914586088525,0.5587697857161953
60,0.5581293830393356,0.5584754373532117
61,0.5580510799344957,0.557944356622186
62,0.5580652217587474,0.5583363394263711
63,0.5580773209764236,0.5579337960641535
64,0.5580842395752946,0.5589923881832163
65,0.5580795774902148,0.5583385625663204
66,0.5580753639499588,0.5579701485865111
67,0.558059385672392,0.5580518176869487
68,0.5580912920371872,0.5581063667163689
69,0.5580689978316611,0.5582681335422789
70,0.5580587950404411,0.5579146619990063
71,0.5580930236412771,0.5580152701179476
72,0.5580362535837173,0.5581382945283181
73,0.5580476682438059,0.5578994184896564
74,0.5580325093539749,0.5579856021045516
75,0.5580265239235136,0.5581033746352054
76,0.5580196127355145,0.5579968301626014
77,0.5580722188374674,0.5580624641099775
78,0.5580134906394825,0.5583792056383386
79,0.5580619677449825,0.5580827750518407
80,0.55799390605995,0.5579178234594375
81,0.558026519987238,0.5580267971310401
82,0.5580002026270241,0.557994557763315
83,0.5580389546029907,0.5580463765526902
84,0.5579868776985687,0.557946959563059
85,0.5579952454850458,0.5579513424263265
86,0.5580194391723009,0.5583144082631707
87,0.5580112851123208,0.557872653388706
88,0.5579882250611615,0.5580003742088241
89,0.5580175482154042,0.5579639062785746
90,0.5581864336821922,0.5579638369427754
91,0.5579930044481032,0.5581347723586624
92,0.558006380943464,0.5581422431004325
93,0.5580027546015067,0.5579193945696816
94,0.5580260397093681,0.5582224611787903
95,0.5580107179921341,0.5578649545207204
96,0.5579654107533296,0.5579296020106961
97,0.5580409658605474,0.5583915879129622
98,0.55800754848264,0.5582342197594751
99,0.558000786086708,0.5581810023628346
100,0.5579986111955741,0.5578695838712718
101,0.5579808951313668,0.5579910087720986
102,0.5579686572630397,0.5580672899790229
103,0.5580006312942206,0.5581051925927544
104,0.557988602551127,0.5586229928710106
105,0.5579935327279228,0.5585629671393798
106,0.5580080775347489,0.5578681426544684
107,0.5579675521367051,0.5582932835363076
108,0.5580148935730257,0.5578466866130324
109,0.5579860716585914,0.5578877018831788
110,0.5579556991706272,0.5579417068891784
111,0.557988540848453,0.5578727266317914
112,0.557960988638467,0.5579009749025747
113,0.557986780576473,0.5579580037245256
114,0.5579850024147697,0.5582185622260337
115,0.5579510584653975,0.5580288429924387
116,0.55797900040903,0.5598973269084775
117,0.5579621257717489,0.5578845933670048
118,0.5579759873792003,0.5587500683641663
119,0.5589162851084746,0.5579478819684971
120,0.5579932154638221,0.5580853117488591
121,0.5579920764118176,0.5584202063064588
122,0.5580512854397109,0.5578872241459683
123,0.5579804309219165,0.5578854016034467
124,0.5579993103137108,0.5579738258722515
125,0.5579803006083199,0.557855248726543
126,0.5580023254161562,0.5578816832964957
127,0.5579651515605898,0.5579094998280391
128,0.5580124366127265,0.5579336670495876
