epoch,loss,val_loss
0,0.35924035703313906,0.34086046099323936
1,0.3431759443969981,0.33987561171104397
2,0.3406608686711275,0.33943444438547365
3,0.33983419714253094,0.33950888492705705
4,0.3393882214804202,0.3385971569690935
5,0.33920924896557664,0.3385306536187751
6,0.3389181680627026,0.3384163287387349
7,0.33884308135322844,0.3388362854247958
8,0.33865888201563815,0.3391080689824142
9,0.3400295236706663,0.33812704195262994
10,0.3385173699618442,0.33796860820066654
11,0.3382359053980613,0.3378444945310314
12,0.3381743912861518,0.33770750244084374
13,0.33805622671635227,0.33814932793765323
14,0.3380481113040199,0.3388787700198518
15,0.3382341421124586,0.3396098574030821
16,0.3383226735307765,0.33752598274260265
17,0.33779206564341313,0.337405651061271
18,0.33769219044479387,0.337630084171285
19,0.3377115174495821,0.33730010649390874
20,0.3376392102589964,0.3378026223369042
21,0.33755301529983306,0.3378150820901538
22,0.33754509428205554,0.33743702923770824
23,0.337540040540371,0.3383752629597671
24,0.33743760858175753,0.33787289978683177
25,0.3374409408410021,0.3379673008322398
26,0.3374875692149155,0.33714891134961966
27,0.3374625751337255,0.337184912269165
28,0.33734731084303615,0.33707227536852225
29,0.337375370910941,0.33721231359596
30,0.33733292670628545,0.3372838891014195
31,0.3373847469452034,0.33717236746626056
32,0.33738161797454824,0.3373103950455253
33,0.3372844234770736,0.33708042907532715
34,0.33733641287348487,0.33711114567091505
35,0.337295535129354,0.3370623019411247
36,0.4259292225629373,0.3398004430323855
37,0.3375730889474978,0.3373559221511498
38,0.33735716731753257,0.33760052367179216
39,0.33734428818641454,0.3372258328379185
40,0.33735433649505125,0.33722791634268395
41,0.33725117091447304,0.3373187308223363
42,0.33726385428647004,0.3369992668685025
43,0.33724130206852204,0.33727224411263856
44,0.3372265840429769,0.3376524644394416
45,0.33723275577519096,0.3373456669544153
46,0.33722330304002773,0.337233193709766
47,0.3378597565229482,0.3372696559961576
48,0.33732476836482905,0.3373600043280973
49,0.33730174430066057,0.3371269830454093
50,0.3372788213393372,0.33718631893454615
51,0.34461677694664045,0.3371011962907991
52,0.33731517791860993,0.3370729276047102
53,0.33722434623567227,0.33728271322005554
54,0.33724737523289205,0.338081905517385
55,0.3372606081360793,0.33702919654300656
56,0.337182630854763,0.33707840125733146
57,0.33714948684964724,0.3378597025836122
58,0.33722292504390916,0.33853722704009614
59,0.3372014847250053,0.33769546204846673
60,0.3371434608521098,0.336947222330109
61,0.33720197123625273,0.33728645423479836
62,0.3371527242436601,0.3369222825036038
63,0.3371645102295179,0.3369578531557596
64,0.33714168639654835,0.33693692172308504
65,0.337192142118731,0.33759563557206684
66,0.3371236349568542,0.3374700569560122
67,0.3371573309956884,0.337233467309804
68,0.3371837991514038,0.33690262886998834
69,0.33707530558452364,0.3368888786481189
70,0.33717537070209025,0.33775527859204274
71,0.3371581807519038,0.3377855236501926
72,0.33717750851345085,0.33702033640097756
73,0.3371792786134132,0.3373792337511462
74,0.337091177454168,0.33688328763396264
75,0.33704699268785404,0.3368793650204175
76,0.3370445866675928,0.33843382125130383
77,0.3370932578492724,0.3369528642501685
78,0.337127853548758,0.33702470511753957
79,0.3370669364567762,0.336995768391402
80,0.3370951429575242,0.3388058281978296
81,0.33709833787279747,0.3368480260333195
82,0.3371482270049482,0.33789084556048116
83,0.3370726676804939,0.337239993695447
84,0.33705296819997366,0.3368829728432925
85,0.33706289759863584,0.3370227341775594
86,0.3370747666408984,0.33744095220068543
87,0.33702863221663576,0.3370420118963598
88,0.3370408425924494,0.3372261433083373
89,0.3370284686960077,0.33772555859797504
90,0.3370540800926644,0.3369040413804155
91,0.33703732278618825,0.3368815156161457
92,0.33701146133578475,0.3370294027979494
93,0.3370150790957292,0.3368096118615859
94,0.33703464732164573,0.3375311786072952
95,0.33705410065433966,0.33706812746657383
96,0.3370661870311165,0.33683834220571446
97,0.33700135585585017,0.3368554909565157
98,0.3370209257011742,0.3368858588718144
99,0.33703405145026905,0.33685590576947655
100,0.337001398072689,0.33735128687084154
101,0.33701197547861433,0.3369199199031864
102,0.3369765300928006,0.33681209617026175
103,0.33702837467224667,0.33851984852180744
104,0.33703304791457844,0.33721119206717054
105,0.3370353832887158,0.3368037980209343
106,0.3369739669850677,0.33738431962414434
107,0.33705479991789816,0.33687940119193405
108,0.33695465887242604,0.33729763830146475
109,0.33697779324761384,0.3374464671180608
110,0.33702225679980446,0.337202928564565
111,0.33699614075510076,0.3375808250408525
112,0.3370092756707199,0.3373666714025149
113,0.33698132994470487,0.33685111408653806
114,0.33695168668216224,0.3369272345811695
115,0.33697842488643653,0.3374053873618091
116,0.33697120169282263,0.33678850541637473
117,0.3369938032123409,0.33680727632627283
118,0.3369922841713724,0.33675016388416207
119,0.33696167742276734,0.3369651277443511
120,0.33697885308912995,0.33686519429937395
121,0.3369527870519284,0.3375595657826317
122,0.33698830195296325,0.3368129648796342
123,0.3369615696008635,0.33689763529471384
124,0.33695309430168074,0.3367548267060729
125,0.33699840825742616,0.3370668635071436
126,0.3369512284907804,0.3368413519702599
127,0.33696478436764465,0.33832532127197057
128,0.3370209408674128,0.33685903142370666
129,0.3369466203607732,0.33704879617877403
130,0.33692625911226154,0.3367708059605876
131,0.33696716698909085,0.3368654836979783
132,0.3369101177630393,0.33772444682681213
133,0.3369312596429255,0.3371977410068265
134,0.3369873855433742,0.3367584696680514
135,0.3369367472269925,0.3369764923085792
136,0.3369705642582999,0.3367992278726513
137,0.3369440075356762,0.338928657132708
138,0.33699736131116603,0.3369351947449477
