epoch,loss,val_loss
0,0.4944760776776299,0.41031139851463244
1,0.3939537440272544,0.39239031553927045
2,0.3609344681723417,0.3384951627339165
3,0.29099871264063387,0.2389887571217229
4,0.249456856509955,0.25692508263247354
5,0.28096678055566754,0.28097210909168646
6,0.29573409063376777,0.29530016015906363
7,0.30227819711660786,0.29439992318260644
8,0.3060198866075082,0.3103780810086861
9,0.30732084967964274,0.3005820254147664
10,0.3072521171505026,0.2962932621247202
11,0.30831373338219076,0.3156624298775017
12,0.30826853239517227,0.30703645568243987
13,0.3072195562968056,0.2967650385569096
14,0.30565418636532043,0.3076499175300914
15,0.3057102732878509,0.30123594570272816
16,0.30431116866074404,0.30022245503215217
17,0.3051608342180054,0.2964790958114374
18,0.30525652334677705,0.3003122573093627
19,0.304192806420614,0.28524257052151725
20,0.299412242972927,0.3080521134899278
21,0.301857106530552,0.29347220507774563
22,0.3007954227493154,0.2954528092655876
23,0.3012705219151686,0.30284953356118494
24,0.30098379668976954,0.2885138578507123
25,0.3022055584702084,0.2925851554054864
26,0.29948124397310805,0.2883698724815953
27,0.29434916431264435,0.2758986893820781
28,0.2875305610499698,0.2955677523891476
29,0.28313976830596643,0.28144476490408393
30,0.2770891337097882,0.26447901122666007
31,0.2704070799713798,0.2674084210969749
32,0.2635619102788867,0.2509636689733123
33,0.25476341344993847,0.2503168505999453
34,0.24798138317563456,0.23571580328523595
35,0.23742066737082745,0.24445994527629725
36,0.22494003915195937,0.21213345050858812
37,0.21724046800705454,0.20255939513092072
38,0.21715738536189977,0.2078137861031101
39,0.21764413600893234,0.2104458350926379
40,0.21724163771842978,0.19886362584397468
41,0.21484626857020395,0.19649678578081334
42,0.2088150534865191,0.1961780755582906
43,0.2037434029838831,0.18944158473867267
44,0.2005990000901748,0.18317287912167426
45,0.18957913272100674,0.17727376907569928
46,0.1822655353066828,0.16251755222948688
47,0.16602246500819706,0.12922561054589152
48,0.13764383785313458,0.10540794894016908
49,0.12617391332102526,0.14461808618166921
50,0.12451254713127939,0.10861816176675677
51,0.12280475081121035,0.11339549432143323
52,0.12167547331701556,0.1179819360504775
53,0.1263940323212688,0.11591027813486537
54,0.12295730094269787,0.10763828374074967
55,0.12847196115411633,0.1192894641195307
56,0.13015015722571802,0.12124362263913784
57,0.12500132368110733,0.11868468603823443
58,0.127300080373514,0.10623621001498569
59,0.12815866107158333,0.11380158864026382
60,0.13121265356096146,0.1210197919204937
61,0.12407108509152247,0.1183115746399598
62,0.12159772626430297,0.10742698423417422
63,0.12560962522320515,0.11531517077193264
64,0.12336560532891398,0.114088704143581
65,0.12558842042712665,0.12712820514083945
66,0.12863769812537706,0.13213522782830056
67,0.12903085162194608,0.11043402743720594
68,0.13414191183664625,0.12693625687964807
69,0.13629301991477477,0.1393103258773955
70,0.13368954740577846,0.10774949768112697
71,0.13673152402341127,0.13364859238184618
72,0.13512148763790882,0.1143110143439734
73,0.13857509637419746,0.12088298236020645
74,0.1405077399127632,0.13952559463226993
75,0.14439487172592935,0.1240534726956649
76,0.14494753043226105,0.13977446485290212
77,0.1415255283720964,0.12775407144660167
78,0.138483399818603,0.13022207288805104
79,0.1364073938757872,0.12976488104088624
80,0.14232800459916548,0.12845153719680744
81,0.1440639447370212,0.14110657665658016
82,0.14818167895209686,0.15043612072081103
83,0.15029357974346783,0.1379094261208574
84,0.1397333426935543,0.11226690057797421
85,0.1511856237207528,0.15031857777977892
86,0.1674470397101032,0.13315284812577427
87,0.13308309545393565,0.1206283968621196
88,0.14075959138840222,0.1284287747086835
89,0.14474826873385077,0.13570670511841115
90,0.1487811086870593,0.14166542233777216
91,0.14997594311333104,0.14773097696648682
92,0.14928985094364217,0.13490652598752312
93,0.15252829597388906,0.13844350594865495
94,0.1556161232411766,0.1435424571984757
95,0.16089716049240266,0.14685476998833097
96,0.16413201808595923,0.16220742641656344
97,0.16158875309639603,0.14633939586338698
98,0.1579889384069317,0.14908132109358824
99,0.1571753460684602,0.14423327878905548
100,0.1527602540539037,0.13323093358583118
101,0.15115094183982133,0.136469812118452
102,0.14997539005512528,0.1438279422066206
103,0.1486905323003503,0.1303911320247703
104,0.1486818959786118,0.15891447396332953
105,0.14881963580012988,0.1281715009740797
106,0.14358978021404536,0.12555063330666136
107,0.14014559358263093,0.1221465847286636
108,0.14389403350502372,0.13772323421822258
109,0.14264708353306274,0.1375539672179493
110,0.14297113853762095,0.12284683152127661
111,0.1415888545133894,0.13480800157964182
112,0.14149120357408704,0.12860736509030885
113,0.13785244134082783,0.12369508644376294
114,0.1341699519418746,0.11576994646696379
115,0.1317387680939252,0.12302015427185403
116,0.13579213176128105,0.12609141167685473
117,0.1345236309462314,0.11306792385905581
118,0.13579272698286435,0.11370928357954371
119,0.13303388211486056,0.11705874726940725
120,0.13527505456817618,0.11423650633870097
121,0.13382355478122462,0.11339217740763052
122,0.13418466447414062,0.11567641303072601
123,0.13356272096661545,0.1267653231427438
124,0.13703419197556213,0.13701513772440785
125,0.1367146527285961,0.12050095541607045
126,0.13738107163724092,0.13106583516336184
127,0.13596047142402923,0.12756309969954915
128,0.13191084825485158,0.11946651592392007
129,0.1273321489439451,0.1091038920543941
130,0.1287305077268399,0.11766587695270048
131,0.13102072919253632,0.12579887967788994
132,0.129708456767382,0.09803858184753296
133,0.13072077214991829,0.14008754649403157
134,0.13104550704824552,0.1360497560878391
135,0.1292283574817516,0.11518750767258085
136,0.13160467948571003,0.12272462721005517
137,0.13440612887890696,0.1160541499282021
138,0.13379959951487663,0.11778075787243922
139,0.13615634057709544,0.12213573243760084
140,0.13177612394416074,0.12076553492420945
141,0.129791602679937,0.11931384771168467
142,0.12650206611811113,0.10783499672761938
143,0.1267183417533275,0.13471025142057166
144,0.1314009014132926,0.1261478772632419
145,0.137175257939348,0.10819794002982135
146,0.1331799072202304,0.13190631635469438
147,0.13042139909941133,0.10711193956205388
148,0.1274873059895113,0.12254389034967866
149,0.12690094019249856,0.10203530547674378
150,0.12272186560048569,0.10548915329441463
151,0.1223492101281524,0.10581238948296823
152,0.12733506251999038,0.1175561882761302
153,0.12890805512202158,0.10739818997475324
154,0.1256645340785134,0.11780360364005993
155,0.12628631785714464,0.10594754919539123
156,0.1298345786263998,0.12363750444638419
157,0.131202176639097,0.11970630981433834
158,0.12799300961523985,0.11741472356133134
159,0.1299495010865297,0.10182821135541634
160,0.1269226497490343,0.12931579833037288
161,0.13311901090027903,0.11314806309194196
162,0.13671651275323735,0.12775559507563253
163,0.1325769913937453,0.1273354670384218
164,0.1305845541615995,0.10322713507332008
165,0.1272378533447294,0.09512931992018327
166,0.12289916464298083,0.13074190173101125
167,0.13068929769628815,0.1277750821485704
168,0.13152220592105227,0.11650476829922848
169,0.13797823837597212,0.1238470250401049
170,0.13589701580582,0.11782677396955506
171,0.13367577229174588,0.11022905447324054
172,0.1321008709414924,0.10360779542102527
173,0.12645397736705083,0.11110497569487428
174,0.12312847450613786,0.1022561862476717
175,0.13048042300388776,0.14712523867176946
176,0.1333798984025451,0.11955233191705258
177,0.13084570538523577,0.11169706847174674
178,0.1312062575233926,0.11400917869269989
179,0.1254339538854089,0.1129753202164653
180,0.13059996737898302,0.09459168389263169
181,0.12592114137707472,0.11601044211739522
182,0.12518508345496168,0.10484039973417604
183,0.12552890429894129,0.12852859939283146
184,0.13073599680090883,0.1484123362079792
185,0.13930048112222235,0.13185641273632703
186,0.14032132242568773,0.1320251684280108
187,0.13118332571429694,0.13879633273256042
188,0.13025483232643678,0.1208155898769822
189,0.13056548771490867,0.11333801654397548
190,0.1347620056050239,0.11797292368235132
191,0.1327507527236887,0.11596047204361248
192,0.1412895958063652,0.12387022942939704
193,0.14563348332492948,0.12451398709014164
194,0.14084353633850313,0.12200410382406111
195,0.1383580902068735,0.11555319812204674
196,0.13451563326908436,0.11840089622241075
197,0.130059130573206,0.1371459236343545
198,0.1405800622668293,0.10456559642996484
199,0.13795425149676896,0.1300158850972165
200,0.14431726790184407,0.1546074376627509
201,0.13611795698745932,0.14284384182427187
202,0.15135358561643308,0.134646485135512
203,0.15659252673887805,0.13724079728126526
204,0.19655157603936896,0.11835652003513139
205,0.15727026861527268,0.20319513317959084
206,0.17896027648322682,0.10021656854541262
207,0.19443307385194025,0.48559610255139024
208,0.23409009000344527,0.14926269387601396
209,0.19290627804782084,0.14788219866643482
210,0.21560570179260702,0.519553214758517
211,0.2087474326781041,0.15812615600973956
212,0.22948873545721377,0.16676568492200305
213,0.23700458990584175,0.20186463359452272
214,0.24410771252773553,0.12921780850605977
215,0.3288492737479395,0.4686036833224564
216,0.4457683654950201,0.40844455566007315
217,0.4165621723273961,0.4366641672417792
218,0.41623287392463043,0.39449385951707566
219,0.4071384350911414,0.403915290086403
220,0.4007756202745971,0.37441100917562503
221,0.35931785060442706,0.2988419700252229
222,0.22479194758249987,0.16858421578921007
223,0.18326933452670427,0.20967380247345663
224,0.30269111680994026,0.34683303867820314
225,0.3451662061692809,0.3424982438665163
226,0.3353245093596639,0.3389912469940291
227,0.333559766179509,0.3166840741177102
228,0.3264192595398969,0.3230315818735814
229,0.32252510902073556,0.3110959472953568
230,0.320470217654078,0.29487962142256363
231,0.30388355156857905,0.33004499316780045
232,0.300367015502531,0.268719228144791
233,0.2907836589750817,0.3260157211568286
234,0.29728441653277377,0.4159500438252489
235,0.436100376280044,0.4146503069171213
236,0.39901670048848614,0.43075854602345537
237,0.43231601930922453,0.4304658576269835
238,0.4216810165644645,0.4079014982354857
239,0.41154536076015136,0.4020339648556126
240,0.4072436525357618,0.40115705278320585
241,0.4072628773445134,0.40784456349774056
242,0.41276738597906465,0.40886273549688834
243,0.41683594590658957,0.41501064399799775
244,0.4174906385364197,0.41086921432212103
245,0.4168203639255153,0.4063877739488561
246,0.41345279634618265,0.4053229693361597
247,0.41149597751389116,0.410287212107063
248,0.411383821238145,0.4076199012190315
249,0.4119144383427813,0.4061005934543655
250,0.4137054965745726,0.4094684682169013
251,0.4120279758048953,0.4044568282511635
252,0.4096526172187784,0.4064955318077587
253,0.4031227438045825,0.3988659233678112
254,0.39799212742385437,0.38776325139833795
255,0.39361890006980166,0.38264706232177054
256,0.3971412431040733,0.3920642825074335
257,0.3942962748874768,0.3849759894557703
258,0.3889014662193547,0.38183489383066743
259,0.3841682579472578,0.38916076102309466
260,0.3831255310873905,0.3786068624554418
261,0.2795253715914883,0.16424048951317594
262,0.23658505525830076,0.2799478235353893
263,0.28197329834425194,0.28084509526309576
264,0.2804058342695617,0.2829253411401231
265,0.26018032598957647,0.16253388666010504
266,0.13554055839002752,0.12438974043776317
267,0.13380559178576956,0.128155490493765
268,0.13366879075527383,0.12328730289542779
269,0.13744505459992148,0.1299737000921719
270,0.14597580300794422,0.14221201627129348
271,0.15854095510370153,0.14886090605745375
272,0.17969327370563953,0.20156155980611845
273,0.19394948858794547,0.18146596581990454
274,0.19009021284292452,0.1780950421292479
275,0.18829858046974973,0.18223465356943452
276,0.19359561351896953,0.18312807461127767
277,0.19638293034595838,0.20518742892200212
278,0.20124466104401673,0.19407435602434245
279,0.2052475974845181,0.2103518672058125
280,0.2066830297192033,0.20548768640270174
281,0.20822154215390354,0.20284375748299385
282,0.2085368096006574,0.2021134455630228
283,0.2094501125023996,0.1945493710304492
284,0.21320673941875057,0.20969011548145042
285,0.21769029502388385,0.21967400376403434
286,0.2691657143674023,0.4415022886072263
287,0.34761996054463534,0.27165667118758974
288,0.26269244031606914,0.25446146676036063
289,0.22235334814071275,0.19248077067551692
290,0.20870612587312237,0.14567933126331412
291,0.23543289066147174,0.41246398293134634
292,0.3654253733672684,0.3921062806128703
293,0.2088483896294086,0.1387269506502923
294,0.14181255324960326,0.11460251783350837
295,0.1252737660362995,0.13178127050846697
296,0.1339326587488516,0.12478790897949531
297,0.13438770759829896,0.14868909973818764
298,0.13394290268373527,0.10259968331105707
299,0.13522095921978677,0.13705570447745996
300,0.14278715742017917,0.12753013522608975
301,0.14488897010457696,0.14090838923097693
302,0.14065494760275363,0.11402893639754007
303,0.14073643713987036,0.13937722799245447
304,0.14013180544348264,0.14347994698016026
305,0.13828664778960315,0.13234339380414822
306,0.1311120734714585,0.12869040255200326
307,0.13206818368402032,0.13899768060389334
308,0.1369024451277096,0.1763015660768244
309,0.13686937658930665,0.1364093051419168
310,0.13386407827766394,0.11608410288521692
311,0.13957993587036785,0.1229519581726525
312,0.13750932126534549,0.11104443640504753
313,0.14550258846675082,0.12780744685911247
314,0.14932439222538785,0.13544419751853198
315,0.16723704137664427,0.1525272565946018
316,0.17801633546892687,0.13590192314363786
317,0.14581008772734258,0.20222810270660208
318,0.17397942496456212,0.11755952433092724
319,0.18069937240650996,0.15268213129598698
320,0.184116463506703,0.2158126451292655
321,0.20909668967056333,0.17035786288289828
322,0.18989790538303572,0.10990042437600073
323,0.20281253419488932,0.15046308239614672
324,0.21370896194085515,0.15103190707450037
325,0.24124764469113472,0.1255518798411316
326,0.2207220367860975,0.2133272606835369
327,0.25875410370284513,0.3569322594198168
328,0.2735874351146791,0.18738115405415398
329,0.2687196332654602,0.42574187311113776
330,0.3915595247638788,0.45985605515357353
331,0.43311497769195684,0.4178193332693571
332,0.4126582433589452,0.40323541429255455
333,0.4008903999646886,0.3948075724523088
334,0.4005160131376329,0.4059298562081479
335,0.40247811110233134,0.39772021737546553
336,0.4104567249115708,0.404917616776434
337,0.30270701186429205,0.22128220851626468
338,0.21887875213135155,0.20376737185275356
339,0.2065558986340781,0.17611338267574747
340,0.18948805395909826,0.18102610474650843
341,0.16394650820883916,0.1250279469984483
342,0.1389305842228883,0.11053095151682774
343,0.13511061920619888,0.14226003094696113
344,0.1311434588307957,0.10572312592331029
345,0.13046806808903538,0.13427585333397563
346,0.14087868004227333,0.13108260351532355
347,0.147067103195462,0.146323893104563
348,0.15018308367267502,0.1379330232504229
349,0.1457663431025142,0.13577179393151095
350,0.14580671751885105,0.138236173943873
351,0.15177672894166813,0.15917755302332853
352,0.1525033939597037,0.1348943380843304
353,0.15055569152025391,0.14196048327078475
354,0.14889971207347896,0.12352670158752797
355,0.1438926977546905,0.12785022470573787
356,0.14427552006537203,0.12636163343264536
357,0.14342896601290916,0.13716617655876404
358,0.14093812505940168,0.14258460461175998
359,0.13554377764237108,0.12726090471506496
360,0.1358731495771858,0.12202608557719363
361,0.13744669924263092,0.11500881825762653
362,0.13558668031287993,0.13138187272678517
363,0.13309632831340212,0.13422067192895448
364,0.13607750773477517,0.12351919261366717
365,0.13835265653298723,0.11918796894111874
366,0.1413873356076882,0.13474871568093644
367,0.14528759487634368,0.12642844353568017
368,0.14000575019003486,0.12093130153351726
369,0.13325629126337124,0.12506061913511748
370,0.14071495798554162,0.11495573989217829
371,0.13220858660569007,0.13121804703782652
372,0.13845445023630734,0.12753322510006113
373,0.15160530229076016,0.14514500517824455
374,0.15576940994980715,0.14195807541014174
375,0.15028238884038586,0.14601642497901193
376,0.14852797212027055,0.14771044338393982
377,0.1470286588219525,0.1254539741842692
378,0.14050715627501623,0.11554117539593246
379,0.1426626582332938,0.11618543139290603
380,0.14266495048987876,0.14491104089964443
381,0.1417450325565039,0.12671524901369377
382,0.13802531818084293,0.12961795834358414
383,0.14044370447738852,0.14379778185649095
384,0.1428766076465686,0.12802368103752196
385,0.14548010800441774,0.12380717788259157
386,0.14169825474135309,0.1306347750074391
387,0.1398705487682236,0.12063106424053918
388,0.13715410888564292,0.139205076858907
389,0.13637805064852765,0.127856317357746
390,0.13874868398232998,0.12755100569601782
391,0.1416913043174574,0.12819140864905168
392,0.14962374812347903,0.15007412638853362
393,0.1445330022770962,0.13357130048212895
394,0.14473121339897457,0.1121711654863493
395,0.13878652435555447,0.12180861062131346
396,0.1395078289786355,0.13094416573561357
397,0.13842792185149985,0.10499305373326756
398,0.13268037962851573,0.11263665563376192
399,0.14336217443743865,0.1506533481903968
400,0.14695190523656534,0.1208591598373468
401,0.13916144348817955,0.15316351835969497
402,0.14334614053189898,0.11396532993831311
403,0.14322012297207598,0.12467610864843452
404,0.14762027900841693,0.13090087994403884
405,0.14692444979644223,0.145670460032824
406,0.14778335806694057,0.1315954052082365
407,0.15234360493106142,0.15566516462375352
408,0.18861473778442894,0.3766565511992529
409,0.13728437702551924,0.13800492399352313
410,0.2105617296370528,0.11422264525386039
411,0.18531798627033985,0.18553966203823558
412,0.21475540641412366,0.17929627809264853
413,0.18034914537942667,0.1664319394219552
414,0.19110645480650507,0.12016829105583626
415,0.20375998582926205,0.21598554133851414
416,0.2074664684949066,0.14419997361765757
417,0.2153390978934239,0.1631368954607889
418,0.1996451430290723,0.17263134137889768
419,0.2628691600148769,0.1480101999762779
420,0.2456447144867562,0.22048238718377952
421,0.241952059494196,0.19967049036848328
422,0.26233265341090545,0.2144046765358879
423,0.26870188890077135,0.3883925288468717
424,0.2774336457633667,0.19926725665508713
425,0.27872377506596485,0.2874537121854434
426,0.3188336535478286,0.3965618518646439
427,0.45766088330178717,0.42398163593935045
428,0.41805625200081026,0.42564329700199
429,0.4055084382696785,0.37000626339720477
430,0.3606102053734134,0.347855276871405
431,0.347464153913857,0.335699222552654
432,0.34662178492279266,0.33909436799262394
433,0.349702591340033,0.3439401766871879
434,0.28513374399962566,0.24193857600816893
435,0.2564753940124973,0.24728021550197346
436,0.25600033519651105,0.2526887469199481
437,0.2561394480957116,0.24432341699159887
438,0.2553510417004855,0.2387122672048251
439,0.25386644037459777,0.23787289831990224
440,0.25148330674730807,0.238547898717254
441,0.2496137019696472,0.24218178766867074
442,0.24976714402675437,0.23795415346981882
443,0.2462447605294575,0.24024312262847466
444,0.24425123584904163,0.2292544498345752
445,0.24314098588997227,0.23181104569474636
446,0.23495206417297002,0.20071237666595612
447,0.2231475886383312,0.24393121198395998
448,0.25620603062909286,0.24117384414646506
449,0.25600544031527783,0.2568292888888432
450,0.31320644855546914,0.3700296621954902
451,0.19530611302998427,0.18095703244256334
452,0.18866443364239996,0.17634497618783432
453,0.20043976727625926,0.1942570717459884
454,0.2110958921430494,0.2152784066046893
455,0.2195057536153008,0.20488151752675907
456,0.22481142473425703,0.21576974468618842
457,0.23214892519535207,0.22941289042382138
458,0.231940509872042,0.21336640124727443
459,0.2280268750125937,0.2119886023892882
460,0.22907877138716806,0.2235579764457227
461,0.22404371106700835,0.20952765721219116
462,0.21636938603280736,0.18309962927071993
463,0.19980017010042136,0.17417352797717867
464,0.18936876893091165,0.17303223714479427
465,0.17965149740687758,0.15544434124052572
466,0.1701345123398266,0.14010542931642322
467,0.16398797061243695,0.1538927345856401
468,0.15258409109690207,0.14090258197090055
469,0.14239513209397844,0.12403106213721499
470,0.1351059614200529,0.11097122173706377
471,0.12792011218176758,0.11929377007291556
472,0.12281928065238144,0.10423644601522512
473,0.12666891689756982,0.11503957133760769
474,0.1266751318639941,0.11702973015706372
475,0.1315886191130399,0.12359121554158481
476,0.1304161832522717,0.10425891853051573
477,0.12425885543965702,0.09963896566591775
478,0.1254543362201737,0.11061650469910939
479,0.12149805744751085,0.11172309406131106
480,0.12235434085940666,0.10531608328140901
481,0.12143485188829622,0.10496728802607017
482,0.12084475304666374,0.09058725132938436
483,0.11939802423989077,0.09264869716286
484,0.11996989594184333,0.10575828705962098
485,0.12012529186159968,0.1262873428349619
486,0.12586381436466312,0.10841886648039416
487,0.12616268850916582,0.0997046644857481
488,0.12483840707918818,0.11182995084099819
489,0.12822301652160384,0.1108295199326765
490,0.1303295816401307,0.14062348509173556
491,0.12773554550288774,0.11535022851747138
492,0.1267017959434685,0.08371716578973967
493,0.12835751096610065,0.12208553636483348
494,0.12848587268047768,0.1198033311513812
495,0.12609307452154864,0.11103147056597655
496,0.12946954442204522,0.1547326908491687
497,0.13279814310193205,0.13325406892641192
498,0.13573777798018297,0.14688323028297431
499,0.1352291872782959,0.13622559086017563
500,0.13956329731834974,0.10863652799481374
501,0.14073840768741283,0.11318246543924923
502,0.14415839165270472,0.1369802329950946
503,0.14916111892468922,0.15535914682692775
504,0.15971686180046707,0.13230857602375742
505,0.16620910446123063,0.14628584765268293
506,0.22319482366958682,0.18185199995914028
507,0.2355230884205142,0.16856880112012354
508,0.32436687508516077,0.45826040682307173
509,0.43886905121241065,0.3950921652254949
510,0.4123911836879145,0.4256110208516245
511,0.4064409927212649,0.3953931423370163
512,0.39812363864039535,0.3954631715613081
513,0.3963302685964784,0.39269712701404574
514,0.3962193656620457,0.3916873510606475
515,0.39399866385759114,0.3898724771054034
516,0.3931082354889785,0.3859450264577331
517,0.39285168148202004,0.394501554679005
518,0.39264278018550813,0.3849868521082561
519,0.4051409584464882,0.4085118936899617
520,0.4114952718706535,0.4085610267113021
521,0.41020932429128415,0.4024091564536377
522,0.4105778808216397,0.4091581279542753
523,0.4092088692384563,0.4034739137166301
524,0.4097323999297228,0.40370771295928354
525,0.40901969351785644,0.39823914211663847
526,0.40789781753822485,0.40538287901370285
527,0.40832159935618095,0.40596061018196355
528,0.40828161234621235,0.40499021840923494
529,0.4078128805382551,0.40072467913755583
530,0.4082364688197867,0.4035786795823143
531,0.40809697697726754,0.4066461035136454
532,0.40817044144101755,0.4042989353589778
533,0.4086973323262662,0.3998661940269049
534,0.4083514826046191,0.39677247386234615
535,0.4074070297723575,0.40406770313830476
536,0.4068999120014177,0.4033132687552105
537,0.4063512226469892,0.4031876398760593
538,0.4072159821633622,0.4014600798099551
539,0.4075812561501511,0.4055083519422641
540,0.40734087182082335,0.40578313779906205
541,0.4069325196966946,0.4030974565195868
542,0.4053866149757882,0.4051946524851136
543,0.4060855640305413,0.40523057762054165
544,0.4047005994261788,0.40509836376889446
545,0.40582895816134795,0.4041108020949571
546,0.4044033429271979,0.3958474964068081
547,0.40411187199761067,0.4022186436376519
548,0.4023659695133412,0.40083294154248467
549,0.4021987070639928,0.39556718006694797
550,0.4015245625226618,0.3953774499441567
551,0.4003912954688739,0.39668285945502435
552,0.3997011573718701,0.39628810687806537
553,0.39967796113565385,0.40180709442945567
554,0.3985116689873161,0.4035271904604023
555,0.3984710387855792,0.3987358101447361
556,0.3967643174931681,0.39316306115608096
557,0.3959130074242227,0.3879498374584442
558,0.39544198400587394,0.3926154271814893
559,0.3957395008165869,0.3901025317227078
560,0.39401525954643696,0.3873772005114672
561,0.3935378263894317,0.38874071422485074
562,0.39368652574402346,0.38847893377693976
563,0.3931440229562642,0.39050762205963163
564,0.3920562237405853,0.3857777654748313
565,0.39174521399392404,0.38440194302595027
566,0.3924827776867137,0.3914233430831942
567,0.39126168672653505,0.3848159231815925
568,0.3897800641022712,0.38732269787374407
569,0.39015408559478254,0.39056333694856943
570,0.38837139452580544,0.38318851510181895
571,0.38839577374269635,0.3807836011252068
572,0.3872339414845077,0.3813487784121106
573,0.38620237618994463,0.3822044678438152
574,0.3858179886230557,0.3801522847226782
575,0.38555116438084275,0.3850468556619387
576,0.3848598738320821,0.38770954015693426
577,0.38442379208825095,0.37765382464325326
578,0.3840097648967847,0.3828135475034119
579,0.38456256600687927,0.3778243027245236
580,0.38335129150526703,0.3858758201491861
581,0.38376675952348016,0.38033287390631393
582,0.3843544970194308,0.3775294985278159
583,0.38274861248038844,0.3770183285532171
584,0.38284634039413445,0.37501070580806145
585,0.3825430186937372,0.37655322946425773
586,0.3839406154448275,0.37562813326986927
587,0.38288276945706085,0.3800094350172764
588,0.38336605697179393,0.38421737126882566
589,0.3830822136381166,0.3779315856515467
590,0.3830697653319338,0.37667225897547385
591,0.38338195717782614,0.3758314791023026
592,0.38265049743423646,0.383944060568181
