epoch,loss,val_loss
0,0.5354007515761492,0.4201105749785853
1,0.35781608636287765,0.3330118701320609
2,0.33542728497922947,0.3416172500285184
3,0.33573601185846674,0.32762631790414043
4,0.3406203291613421,0.3390319214952961
5,0.34148445246602704,0.3489329611445941
6,0.3415573064467127,0.3431400098759261
7,0.34255512846078423,0.3425325360134444
8,0.3328920087034849,0.30912118552703977
9,0.2969912896029574,0.30042855453331263
10,0.31414363822705454,0.3161602409552098
11,0.31107785684956635,0.31441081816884786
12,0.30622211430999013,0.30403304369363054
13,0.29932141178946414,0.3027809334252891
14,0.29719333459647723,0.29750267512090767
15,0.29779165882548747,0.28679934988458416
16,0.29519869977359675,0.283004391470949
17,0.2949235930943565,0.28766868375800403
18,0.29381891871265753,0.29269298605309196
19,0.2918772752777183,0.2801222689832019
20,0.2914898957220389,0.2763308670662855
21,0.28959494134743247,0.27997728056717597
22,0.28901971412076655,0.2963628785739099
23,0.2901959221044795,0.2929186108386131
24,0.28936621926718953,0.2853085414786553
25,0.2887423185409783,0.28625780421631863
26,0.2905640109694547,0.2859529600711723
27,0.2932956602743013,0.291233313711685
28,0.29395292422396957,0.2826401337499024
29,0.30075764064665894,0.30320047895882013
30,0.30462200598393696,0.30846595552462525
31,0.3178889122155073,0.3115041200321494
32,0.32893512643974937,0.3202014720712766
33,0.3349496186803952,0.32497637699510323
34,0.33823919622637005,0.32767981791834994
35,0.3449279898933941,0.34322399641927437
36,0.3549251536861789,0.3485359098606441
37,0.36333093199607946,0.3565216116907094
38,0.368631177942911,0.3633966818275467
39,0.372672422386283,0.3864652115760493
40,0.3733919716829495,0.37580733823324625
41,0.37375591025888016,0.36380304044499207
42,0.37440349346251606,0.37633289073335907
43,0.37383783942789767,0.3757603842862121
44,0.3734419310836197,0.3642690854930652
45,0.3725679286783167,0.36892837921088384
46,0.3727017083733107,0.3636264486772015
47,0.37341719685936814,0.36699084251907366
48,0.37336502854915543,0.3647281538574547
49,0.3718780496542593,0.3602244278391045
50,0.37303300517544946,0.3695019411353869
51,0.37350467927783704,0.3618174218341132
52,0.3727809435410275,0.3695703844150974
53,0.37280381290460946,0.36164341362424035
54,0.3723073393749676,0.3671100126916062
55,0.3713378824656911,0.36985535577421785
56,0.3708376463511579,0.36673130611312044
57,0.37202735863429465,0.3637432078724314
58,0.372292102657729,0.3749059161146325
59,0.37114779859614505,0.3590509884923861
60,0.3717558910782865,0.3741844756074467
61,0.37249047340725444,0.37062885437598825
62,0.3716021413139874,0.36682530129717955
63,0.37275027639145475,0.36767797690728754
64,0.37311240300524245,0.36659905488507993
65,0.3719065420919185,0.3664241533582382
66,0.372730568908959,0.36352829579866675
67,0.3746921045364712,0.3780825088460707
68,0.37261317354693213,0.36659147171119866
69,0.37180678972856795,0.365907757862779
70,0.37166164536699114,0.36108209090432314
71,0.3718171293715493,0.3653916511934577
72,0.3700429140258846,0.3581113435898414
73,0.3709067249183746,0.360581225876556
74,0.3712371390262287,0.3626205632793875
75,0.369864245279611,0.3643440856365303
76,0.3691540850843076,0.3633173742723352
77,0.36831554888392526,0.36019242176787536
78,0.3679907350874633,0.35306247840646504
79,0.36981750319568185,0.36383075698116396
80,0.3743861214124518,0.36699959130012433
81,0.3742735700593959,0.3628390711315429
82,0.3727488570052276,0.36166927488939726
83,0.3709134131336479,0.36166903383635873
84,0.370603991426724,0.3655425132073656
85,0.3705115538421009,0.36394596937235263
86,0.37186755083924194,0.37479702762571393
87,0.3713422319848093,0.36731488291165354
88,0.37364311522240645,0.3720287086461225
89,0.3764478587608734,0.3692445324082589
90,0.3732230193871293,0.369120778840832
91,0.3731768698476964,0.37289379964029123
92,0.3712920823114381,0.36245153516225204
93,0.37077543850568273,0.35913162750810174
94,0.36980996816326006,0.3555994558588388
95,0.3692658906765312,0.3695071155900737
96,0.37060807237951016,0.36278249150481673
97,0.36850393708232493,0.3607626782220089
98,0.37124151989615123,0.3649452138389295
99,0.36915673045136277,0.3572174504269929
100,0.3679458188424579,0.35690542067612074
101,0.3686900331700544,0.370654732482868
102,0.3682660875822619,0.36259311343518974
103,0.3697098416509293,0.3612911288627227
104,0.3694225691681762,0.35856119569776185
105,0.3675482219500507,0.3554848052190812
106,0.3675938631228501,0.3629576881616814
107,0.36692212036044763,0.35529691187904494
108,0.36597700010863043,0.36566339763676736
109,0.3648163811218062,0.36113398015828424
110,0.3648173642768372,0.37738144630602993
111,0.3649425486937987,0.3563724700023362
112,0.2995075213668539,0.22390914418467783
113,0.21993696699730403,0.2062218505021805
114,0.21263667210924636,0.20733355224461844
115,0.21083874925435017,0.20047297065852662
116,0.2095732880081776,0.19600755103291162
117,0.2107811963184179,0.2011654283248635
118,0.21033352207865932,0.19879688510719773
119,0.21072811355217277,0.20797603212196994
120,0.20906278277210574,0.20344260660747704
121,0.20909544854736822,0.20222492051482108
122,0.20926723524415902,0.20042962562689748
123,0.20991280608230548,0.19387524425042552
124,0.21024746929022142,0.21071476832138053
125,0.2110476947302441,0.2090420430113033
126,0.210349512459944,0.2056348560805761
127,0.20823463259174002,0.2037740240745311
128,0.209407212386886,0.19621860898660692
129,0.2093479638631872,0.20112489953037313
130,0.2088159417910732,0.20907015278759017
131,0.21219856371220164,0.20031888024394873
132,0.2117671354485454,0.20014716808308555
133,0.21270210740210818,0.20303760146708966
134,0.21283831032250616,0.20648556992399852
135,0.21250342652737667,0.20095931226424374
136,0.21244541849854656,0.20196754356586002
137,0.21127336254294257,0.20064675500991314
138,0.21320698384067518,0.20038267881877797
139,0.2126094529347168,0.20334436986139653
140,0.2120889719727514,0.2012139932085608
141,0.21375632515961795,0.20337165010050703
142,0.21134680782338316,0.21990160587601712
143,0.21098681445792616,0.20041679959647188
144,0.2111235543561401,0.20445044679771565
145,0.2113149518386828,0.1994464118930422
146,0.21148498359320167,0.20409164114928
147,0.21093256916287992,0.20813486684516555
148,0.21134499402092896,0.21152172683963835
149,0.21183003840162504,0.20694781832790976
150,0.21166284153644416,0.2020682930452389
151,0.21215933636366893,0.20334400115468507
152,0.2122242203195223,0.20052743733117406
153,0.2106148675024557,0.2078857415641681
154,0.2103836214204105,0.20242862463373787
155,0.20971805051409845,0.195911218154214
156,0.20918222899726635,0.19940055851496008
157,0.21111942385193064,0.19576876041874136
158,0.21013372311060377,0.2002418316083342
159,0.211135546181747,0.20524415425550496
160,0.211431708898571,0.204551577109376
161,0.21116077481247156,0.1998891320605869
162,0.21158841099861048,0.20032006118743553
163,0.2113044623919814,0.20370045226675934
164,0.2142658689194065,0.20947571959708183
165,0.2151960911725065,0.20859846618576322
166,0.21669163596596744,0.20499490180303473
167,0.21481695088694136,0.2050372366723623
168,0.214042478774806,0.20689955378434935
169,0.2143497157821076,0.2116446442131744
170,0.21472215262963046,0.20149621495649206
171,0.21392663782067914,0.2017553979332464
172,0.21229283560475382,0.20404874800977127
173,0.21102173968875626,0.19956605293991628
174,0.21143604425503482,0.20316518997242813
175,0.21254241772645194,0.20184356574007348
176,0.21372054275467717,0.2071020493802821
177,0.21108015821420317,0.2080505939807681
178,0.213952862500525,0.20166292763076246
179,0.21325731843852883,0.21057900000766402
180,0.213908563009936,0.20393040986774283
181,0.2126960397231207,0.2124189795263188
182,0.21313697169367357,0.20338567051721917
183,0.2125555388837886,0.20254522529096233
184,0.213054183611481,0.21180660237029678
185,0.2132305614263129,0.2044396201338275
186,0.2133821075459083,0.20429201195958852
187,0.21440068447142005,0.20551873079038738
188,0.21515174747871266,0.2133935803419601
189,0.21577232547824998,0.21114763748062437
190,0.21475843933941743,0.21691590408782085
191,0.21421190463214945,0.20651887899416116
192,0.2137629855915511,0.20276600329445024
193,0.21386736185311508,0.20166727495927367
194,0.2150688864391961,0.20273589194056174
195,0.21465602393845,0.2052462056643773
196,0.2161420698253085,0.2186332575524051
197,0.2162393684105145,0.21091019038196238
198,0.21615716523761086,0.21128766680902256
199,0.2143498533825985,0.21079978400925153
200,0.21610486836765977,0.20345783092510822
201,0.2145965520283587,0.2048365155847974
202,0.2139554587985686,0.20785019519108905
203,0.2132650049363109,0.20633817597600354
204,0.21347974536182593,0.20689968226129085
205,0.21337097806395958,0.21348606352271673
206,0.2121338580164025,0.21100169673103372
207,0.2131874378648498,0.20136442731098575
208,0.21290753640049845,0.20259520423252372
209,0.21257095476634782,0.19842993208716586
210,0.2127981384654792,0.20336144489854363
211,0.21141053464629952,0.1998172529400477
212,0.21067624006101743,0.20568568630536524
213,0.21186210892850357,0.20208398689645996
214,0.21095673504659979,0.20150167182758275
215,0.21105362976388298,0.20998119505823554
216,0.21077032303876825,0.20079937930077008
217,0.21116025112182213,0.19766875344086748
218,0.21025841009559676,0.2135401942782639
219,0.21155699266256284,0.21066397675493145
220,0.21269827932238483,0.1998197441389924
221,0.211247575976294,0.20306856452760116
222,0.2113583794684052,0.20690717467569233
223,0.212668119521021,0.20879401805227726
224,0.2119253963637028,0.20303294661248303
225,0.21352449873034998,0.20712216223142424
226,0.21478809309091498,0.20163633951354235
227,0.21371821452268688,0.20551858849429483
228,0.21466393141056614,0.2039249071758755
229,0.21522418424475204,0.2065062256384385
230,0.21546500663367582,0.20527296242228435
231,0.21496676266503087,0.2031888922157491
232,0.2145500965207982,0.21241701630127177
233,0.2150195349308608,0.21119109405338435
234,0.215378840716718,0.21007213940889513
235,0.2158826845679447,0.21068433010634607
236,0.2148620161912043,0.20986770280440586
237,0.2154655520209401,0.21021850856392987
238,0.21567983691283554,0.20925442972047742
239,0.21609357180450556,0.21100293544445248
240,0.21523593616881054,0.20447363583892936
241,0.2157585771499778,0.20467972775425794
242,0.21605495925691964,0.2101937277682108
243,0.21603432709245468,0.20610510010416336
244,0.21524767232217568,0.21348543066440273
245,0.2159744905505916,0.2083328904932469
246,0.21432355239236955,0.2083188137767253
247,0.2151716875312902,0.20539518281664543
248,0.21557584224487666,0.20737201157713275
249,0.21576099500929613,0.2055132995229494
250,0.21504424946556847,0.20901069494336255
251,0.21482563838303137,0.20101064055475928
252,0.21433187689450528,0.20512591615236925
253,0.2156068399238834,0.20408905485105402
254,0.215047398202425,0.21367139205183677
255,0.21615626219865516,0.2044809204485817
256,0.21459970174195003,0.2188193088054845
257,0.21599605655093654,0.21013899737911707
258,0.2163802337148588,0.20986662315823662
259,0.2164871891756519,0.20541389183021477
260,0.21622761866028647,0.2127039633991216
261,0.2169343637857887,0.21158586762369197
262,0.2177170563837607,0.2096579439332378
263,0.21780634610105953,0.21766709253462452
264,0.21968229352046165,0.2165244149474902
265,0.22036986187588778,0.21902275724070414
266,0.21917141848902622,0.2144467468066957
267,0.21778475446738213,0.21091710494415158
268,0.21658723194488613,0.21167926957217745
269,0.21704152365811438,0.20767811939249664
270,0.21637456856376167,0.2055340954165056
271,0.21498862729012538,0.20522756981586224
272,0.2144559410681351,0.20214793347145688
273,0.214202795478461,0.20776169461910426
274,0.21235897599888456,0.20252828335282175
275,0.21296180573274953,0.2020172459362244
276,0.21314465859644324,0.20804346729755024
277,0.212737514996986,0.21555473690157154
278,0.2133445418733868,0.2037622553091305
279,0.21331864978960283,0.20331637376673878
280,0.21309022959783305,0.20858471994100825
281,0.21477199021241458,0.22853484293467996
282,0.2166378981858897,0.21555456205108736
283,0.2137490046991528,0.20831836694182612
284,0.21377409160208644,0.20641682052951021
285,0.21355204011420076,0.20487161934516895
286,0.21264910952245397,0.20750759066844796
287,0.21449125949427378,0.20845380444270753
288,0.21378387278504224,0.21233825618437924
289,0.21534176971272026,0.20489401789565864
290,0.21406093569134446,0.20993378933669077
291,0.2132089773027731,0.21537747575762523
292,0.21353276139445346,0.21744577472569346
293,0.2137625960173081,0.20102600262874493
294,0.21320548211094095,0.20868577646428238
295,0.2129452768370783,0.20493592721746018
296,0.216802275575084,0.20325084793915782
297,0.21372536631773034,0.2062475566164941
298,0.21523681197235053,0.21149566597889613
299,0.21541161767894226,0.2083167582397491
300,0.21588189336512206,0.21338333113041089
301,0.21594978109609594,0.2103113772931208
302,0.21665643992350636,0.20620784486901977
303,0.21773225597316603,0.2086112519818775
304,0.21675729756351475,0.21535372438869235
305,0.21736075796431106,0.2098485487318453
306,0.21756694957220868,0.21665106469143444
307,0.21943672218149324,0.21826066294333646
308,0.21747835322940567,0.20857485926518218
309,0.21942825866141002,0.21411336689081922
310,0.22052835847000232,0.21399371604704914
311,0.21979081340068632,0.22625864917543242
312,0.21979255178611246,0.21356486750806328
313,0.22068807922250075,0.21573019025357765
314,0.22094725707857063,0.21192836846153662
315,0.22010187837455295,0.21418511987485186
316,0.22046694428705388,0.21278350823209713
317,0.22048986766287845,0.22201387283128363
318,0.21883067479736798,0.21458404661165792
319,0.21941775590371934,0.20824261442497197
320,0.21618695219429276,0.21169237643127473
321,0.21383765131997454,0.20364198238010375
322,0.21345753188160874,0.2054200954647072
323,0.21043480841590345,0.20250102033178544
324,0.20979586416344753,0.2010755040510113
325,0.20720042030421568,0.20410346643794872
326,0.2064072443879575,0.2000259563691426
327,0.20216456809037214,0.19227294370990713
328,0.2021659229704135,0.19979778930674225
329,0.20267452252544849,0.19600487996154445
330,0.2021261536055427,0.19330195612152826
331,0.19896643924460614,0.1906439156257551
332,0.19982554919594864,0.19347075989797724
333,0.20136068565406198,0.20266756369499306
334,0.19802499487460087,0.18725003789001876
335,0.19836732741001603,0.19366034650153408
336,0.198760189753261,0.18819075784018968
337,0.19724097466773743,0.18463911637134597
338,0.19402440987545239,0.18334494126576933
339,0.1956347695929255,0.18720532675003948
340,0.19730417705554185,0.19730513742239153
341,0.1979026848570906,0.18640475397328268
342,0.20080866887986804,0.19174085922051154
343,0.20024347933028622,0.19141040685944608
344,0.19880263938558854,0.19235088391010463
345,0.19940414495891232,0.19516132360334554
346,0.19960931823741523,0.19352567606350524
347,0.19749381661796264,0.18854671005150797
348,0.19701965311638933,0.19673464865362728
349,0.19744310941961077,0.1902169423161667
350,0.19756868704974795,0.18849176184907143
351,0.19655883116878384,0.1954985223916354
352,0.19744652217264466,0.1955557429564686
353,0.1980726999832953,0.19533587146576878
354,0.1981486033240287,0.19400088954790426
355,0.1964843329980219,0.18990553470935612
356,0.1966236354790622,0.19209892121044406
357,0.1955332285601744,0.1886035262150565
358,0.19500988854064072,0.1850004107959645
359,0.19634633255805328,0.18698260349228144
360,0.19686970282063115,0.19580516614308013
361,0.1961284082868307,0.1974576211577809
362,0.19569898194236626,0.19817302088475924
363,0.19694097278167685,0.18730674408840775
364,0.1954297133975273,0.1883409672961427
365,0.1961109580384265,0.18648334070981348
366,0.19589644472757212,0.18772512129798308
367,0.19572436918529104,0.1854715458784126
368,0.19563197915693173,0.18767842274062166
369,0.19630266006568448,0.19646281934245516
370,0.19636511831856268,0.19578468898383294
371,0.19589356035827923,0.1947454388158568
372,0.1974096411554743,0.18665109096122898
373,0.1977875452342746,0.19267654937604514
374,0.19664230922476755,0.191352842650549
375,0.19675098750874292,0.18586017040869526
376,0.19630594313335267,0.18848103796438428
377,0.1966367543732329,0.19691373191438705
378,0.1972186403285018,0.1874464925763733
379,0.1980728376909888,0.1925384442380026
380,0.19654286522373593,0.18776578098041577
381,0.19527701600540362,0.1912854426285368
382,0.1944087556869292,0.18863514357414787
383,0.19485633738702246,0.1884949970123047
384,0.19503801878240945,0.1927938749918151
385,0.19699437607773584,0.19011217021716328
386,0.1962589702779631,0.18725710295746434
387,0.19645577143255374,0.1868728305541726
388,0.19632519780993937,0.1912551763590246
389,0.1964452569123557,0.19409034795759228
390,0.19515236389103363,0.1846279139794415
391,0.19392474925370334,0.1844349444477033
392,0.19478931784820405,0.19466392881727257
393,0.19316733760727967,0.1972085006399802
394,0.19346200728969132,0.1857098711811847
395,0.19332019924569568,0.18362900288959327
396,0.19383606525490896,0.19635415580579402
397,0.1938532061225695,0.18552139635479348
398,0.19374004725238783,0.18748026891025674
399,0.19249454465844362,0.18247909268809756
400,0.19273094999656784,0.19054816451567594
401,0.19362896133503088,0.18238637231190372
402,0.19283675413123139,0.19477246644088578
403,0.192240055802343,0.1878331438377323
404,0.1904169815740616,0.19102011232886054
405,0.1895286016684356,0.17832063433685544
406,0.18454298019695053,0.1721297961783955
407,0.1807186007559252,0.17122799700277475
408,0.17659793512450514,0.16671811727529073
409,0.17574906644584845,0.171257886779807
410,0.17337812752508336,0.1693297992118626
411,0.17410417690241842,0.16401788395930203
412,0.17289874339394337,0.1701494844155511
413,0.17577459791200242,0.1729526368176363
414,0.17648730854050432,0.17834129019242717
415,0.1781921747872393,0.17385417734579298
416,0.17875310125277577,0.1770391720740364
417,0.17886291317445197,0.17029630759144357
418,0.17448673340723478,0.16712043571396898
419,0.17237359924401216,0.16760030137147128
420,0.16497651784480524,0.144323869228316
421,0.15253159870132268,0.15318634480990664
422,0.15224728828592363,0.15527720191319722
423,0.1502263057979939,0.14033903593775224
424,0.1507693694995271,0.1457954071926713
425,0.14993031162152187,0.14029596947668665
426,0.14996561276719725,0.13841771293834335
427,0.1490930531957119,0.13590857364831238
428,0.14893670978365567,0.14404608856154505
429,0.14933844328784257,0.147509246735283
430,0.1501208947335692,0.14599050056915538
431,0.15064241647196236,0.14007271422277592
432,0.15042418336494268,0.14418918766440042
433,0.14799536977538005,0.1495038086949791
434,0.14853618203473987,0.14062586050971626
435,0.14762847147566333,0.13859510425281224
436,0.149750629459306,0.1394797569139322
437,0.14859111803910618,0.14176357836236894
438,0.14967276192576193,0.1416795250813417
439,0.15023737391538852,0.1414739828506792
440,0.1486829960023423,0.1411218534987464
441,0.1497333876752882,0.14321794366756574
442,0.14928194021673608,0.14560388893641726
443,0.14793348886507401,0.1407103094242178
444,0.14859965017480817,0.14253809123690334
445,0.14845657348632812,0.14331410853478885
446,0.1495843664597836,0.14965776568712355
447,0.148851798285993,0.1515946189013634
448,0.14899570291503061,0.14594612781608207
449,0.1485742872758068,0.14129698617000136
450,0.15012776893046167,0.14114485295296844
451,0.1492170127544948,0.1381488620540996
452,0.14768403494279447,0.1391781505429566
453,0.1487323314392214,0.1413409925391567
454,0.14914217558529355,0.14487044946617655
455,0.1492628771826613,0.14137842013973276
456,0.14913098845812534,0.14563654323168035
457,0.14917746868184048,0.13737536622203986
458,0.14935845716429844,0.1380307418606652
459,0.15025818442030967,0.1462823446096166
460,0.15017660288251847,0.14083776744736776
461,0.14862275969007796,0.1447135664775509
462,0.14932256123180584,0.13926266100266455
463,0.14930784630237057,0.14077642665265955
464,0.1504364614572218,0.14094660706941595
465,0.1497794866538067,0.14214173319801723
466,0.14947567035039838,0.14466852734149113
467,0.1509443005021337,0.14066980020587805
468,0.15065823199985315,0.14555436432149904
469,0.15023068318680988,0.14258034391462474
470,0.149381301430561,0.1492991452447147
471,0.15132004367135507,0.146625471231546
472,0.15068169415509292,0.14711523118951514
473,0.15010655210982504,0.14837171028543855
474,0.15141926291916105,0.14322226168771568
475,0.15003318445002148,0.14005600964472628
476,0.1497158612505042,0.1515971913921993
477,0.14990840080104095,0.14395071078024235
478,0.14908622347003073,0.1426366673519316
479,0.15133203496392683,0.14303798353756705
480,0.14938917276051214,0.14402250051145585
481,0.1522159335686625,0.1448511067886661
482,0.15208974142642998,0.14589873865399666
483,0.15143747794494736,0.149045557154147
484,0.15138660773611087,0.14772202570253032
485,0.15090515248650174,0.15722270765074992
486,0.1503862666068889,0.14632575973080383
487,0.15138910036626385,0.14289722179416228
488,0.15105253819236272,0.1434016959901955
489,0.15281129670407562,0.14333893723885846
490,0.152709326095623,0.14808680935694463
491,0.15342766076898118,0.14406001008017946
492,0.15387578120679973,0.14512391352545304
493,0.1538554804234339,0.14723724681934033
494,0.1547527516857802,0.1533005527369884
495,0.15562969557851625,0.14446510434527046
496,0.15539382510393454,0.14823359743219336
497,0.15780516982459716,0.1534599414434881
498,0.15930890836578002,0.1568234555582033
499,0.15954409508134346,0.16077900218653132
500,0.16157095445145805,0.16304732461613564
501,0.16122220446773283,0.14942185861817853
502,0.15871434210003804,0.1761986817914666
503,0.16010117930450218,0.15752182329321998
504,0.15602643627652543,0.15092719223970677
505,0.1568051827140897,0.15352091520154393
506,0.16309148629458783,0.1437855497967002
507,0.14999493567063082,0.14830656678966395
508,0.1505634943060547,0.1483144306863681
509,0.14939064586715256,0.14072054438145967
510,0.1504933224688712,0.13746717043556184
511,0.15123218497176535,0.139048085528137
512,0.14990769149207,0.14389243162139345
513,0.15023560680562167,0.13806165195560494
514,0.15110097748996448,0.1489151485775904
515,0.14958987170331578,0.1385641422507889
516,0.1502556991156676,0.14520351759848296
517,0.15061715330413397,0.13918752127401265
518,0.15001055559546922,0.14557492591869953
519,0.15072110888781212,0.14737451334073023
520,0.14988414231214306,0.13959442389557092
521,0.1499718013439152,0.1395243277689464
522,0.15058452281341564,0.14488512333467804
523,0.149384454226227,0.1411060615550747
524,0.15196980834960175,0.14836350187435804
525,0.1500719103405325,0.14219895778510547
526,0.15040011094997732,0.1421906299353963
527,0.15010502121205047,0.14343753573503096
