epoch,loss,val_loss
0,0.4756946109201476,0.456990733734434
1,0.4578784245788247,0.4590174135763925
2,0.45702098059609336,0.4580467129541914
3,0.4570208710562512,0.45588920465397115
4,0.45606407586084824,0.45525434299141504
5,0.45640839778147463,0.4545576553319114
6,0.4552805179387521,0.45673034950789976
7,0.45537210470203765,0.4542783517476739
8,0.455055790527971,0.4548901484606111
9,0.45463474900118306,0.45531959149722234
10,0.45459994110122526,0.4537501847121335
11,0.4544689514503553,0.4536353301109926
12,0.4542174162033499,0.45371974645598906
13,0.4540404726630712,0.45782610149179526
14,0.4541418345200181,0.45400405716158587
15,0.4542455293468859,0.45516740745870155
16,0.4537677720519843,0.45332332204659576
17,0.453818880175446,0.4536275959253355
18,0.4535698616969833,0.45372565587177655
19,0.4536018893520583,0.4530932887557878
20,0.45340789854756525,0.4536353451970728
21,0.45333449474670695,0.4530218924487337
22,0.45330832357044937,0.45439612457522155
23,0.4533564282991598,0.45291813331459335
24,0.45327040730013485,0.4528665152561402
25,0.4533412627094015,0.4528995407778017
26,0.4532564417614756,0.45379110083886487
27,0.45321136252556177,0.4552149273859481
28,0.4530931504863221,0.45299619402592217
29,0.4529748444657583,0.4527873386109531
30,0.45297345336257183,0.4529232645580163
31,0.45283152815923416,0.4528355897135327
32,0.4530325856921047,0.45379598399271986
33,0.4529603315130954,0.4537431476159899
34,0.4528585274799569,0.45389980689356296
35,0.4529753276667193,0.4527685489946437
36,0.4528437951154812,0.4525548548726246
37,0.4530479726248053,0.4529590049779598
38,0.45285061491874185,0.45253261205641776
39,0.452824316883199,0.4527516275517343
40,0.45270824754841293,0.4526513669474917
41,0.4526647941744111,0.4528680104947925
42,0.45265089108326934,0.45284254054357265
43,0.452639336110236,0.45299347483862284
44,0.45297813749495885,0.45410845179892534
45,0.4525946699087682,0.45283509002921535
46,0.45265583925505093,0.4526925278021287
47,0.45261056956322493,0.45261462871554514
48,0.4525999424955688,0.45257871094997953
49,0.45272119296405594,0.4528100100528931
50,0.45248937870306266,0.45270216892794074
51,0.4525471408544243,0.45265900000176357
52,0.4524593291022692,0.4528326297285469
53,0.4524346804527201,0.45253740542794757
54,0.452539711171242,0.4534187005512978
55,0.4526994315102856,0.4526175241941522
56,0.4524926201502237,0.4541273147535669
57,0.4526183508913629,0.4527749380186148
58,0.4522899893439865,0.4524817023206186
59,0.4523427151466709,0.45304451050703604
60,0.45244821865240736,0.4530019111976864
61,0.45240220102744816,0.45358859590743067
62,0.4526029582443961,0.452542127398655
63,0.45233315206967317,0.45304346758031167
64,0.4523655188169027,0.4525408856812219
65,0.45235215253005323,0.45245026469031935
66,0.4523597289707898,0.45300171404640904
67,0.4523093628343492,0.45274343035644593
68,0.4523553632143873,0.4527811324580949
69,0.45233664759697395,0.4529897414615671
70,0.45232841939868446,0.4528105065466674
71,0.45242662656668975,0.4527917495313056
72,0.4522190691199818,0.4525009134363788
73,0.45233220720918227,0.4529877598858869
74,0.45233769766123616,0.45247288963202525
75,0.45229013790570693,0.45296042025431504
76,0.45228641680519566,0.4543174603710044
77,0.4522394553906529,0.45295498119523997
78,0.4522287718436719,0.4532651220798316
79,0.45220278102790823,0.4525171631485207
80,0.4522229012912544,0.45251669736786404
81,0.4522958437739115,0.45328448900228785
82,0.4521443079384797,0.45240717266837543
83,0.45207585089440677,0.4526345390736074
84,0.452249696708081,0.4525241240911471
85,0.4521481371895976,0.4525912602779313
86,0.45209080057028167,0.45256691190749987
87,0.45211040635738686,0.4525388292050578
88,0.4521193959616343,0.4525634017746235
89,0.45213408178763953,0.453264075592726
90,0.4522120996233717,0.4546189479947995
91,0.4521677834374978,0.4525226897377729
92,0.4521457329068125,0.4527199839492444
93,0.45202169435024186,0.4526625226484137
94,0.45210136625856767,0.45263734958330376
95,0.4521096446634616,0.45283860614574006
96,0.4522839309807246,0.4537726229960266
97,0.45220398711436166,0.4528010980379451
98,0.4519612608930642,0.4526695492897327
99,0.45201959270551867,0.45259581211761846
100,0.4519537031830868,0.4525824220925928
101,0.4519757734317165,0.4528833643763921
102,0.4519037069089878,0.453122152926017
