epoch,loss,val_loss
0,0.5849534464806886,0.5659443601609866
1,0.5664431669195896,0.5655217758261025
2,0.5661442235948951,0.5645915629422583
3,0.5654924164821405,0.5645729252134656
4,0.5651956047378951,0.564966570052599
5,0.5650178406737062,0.564585121765603
6,0.5647042586686924,0.5651393943328419
7,0.5645614608662725,0.5653520327162844
8,0.5642732525509955,0.5636417256127598
9,0.5640999080553857,0.5634862479732575
10,0.5642367076374023,0.5637750391011592
11,0.5638439497906329,0.5630825128151677
12,0.5637369866362765,0.5634099490710112
13,0.5637877040229825,0.5644788796271543
14,0.5633646741302892,0.5629421169171843
15,0.5634032110788416,0.5629003744232233
16,0.5632786447480098,0.5627560681227204
17,0.5632332028958597,0.562910677790973
18,0.5630410472439126,0.5626283640286551
19,0.5632869877992774,0.5634590149212819
20,0.5630601063024315,0.5629456476892315
21,0.5630514245923406,0.5626986930603936
22,0.5630243741229093,0.5636082940199658
23,0.5629926604111455,0.5630415459102249
24,0.5629065480427431,0.562585648695039
25,0.5628317321888424,0.5637384917608431
26,0.5628867848736518,0.563511667328425
27,0.5626840548962377,0.5623439290409156
28,0.5627307995605958,0.5625549825303399
29,0.5626356399622718,0.5628719443545382
30,0.5625724185540942,0.5627586524626528
31,0.5627638130337694,0.562723902524191
32,0.5625836701328063,0.5625699400725155
33,0.5625681890053361,0.5625868093351409
34,0.5626593914554703,0.5637123730364144
35,0.562511573487587,0.5636825635049448
36,0.5626802400112874,0.5625605982395206
37,0.5625245525503307,0.5627647060931976
38,0.562474364193718,0.5625418395792076
39,0.5623865193492363,0.562407661243862
40,0.562526056499924,0.5622851237651926
41,0.5625743486953901,0.5626479930669251
42,0.5622988857605589,0.5625343536707975
43,0.5624352370923886,0.5625315185254715
44,0.5622969345028828,0.5623509484897126
45,0.562439097284818,0.5627410622366403
46,0.5623642296538328,0.5625268702684542
47,0.5623754370511747,0.5623682079149145
48,0.5623122433099449,0.5623138242793273
49,0.56244082516998,0.562408846238075
50,0.5622788101477949,0.5623901381075747
51,0.5622262074065386,0.5621064913275066
52,0.5622949366699352,0.5621521590506287
53,0.5621811970104658,0.5623174358747871
54,0.5623540095319068,0.5622911763690228
55,0.5622787363269465,0.562842589514104
56,0.5621007334688088,0.5625648648126366
57,0.5623251260333441,0.5623709199428116
58,0.562141822294002,0.5627363183406089
59,0.5621974402927931,0.5623063603735209
60,0.5621412794856362,0.5621115679342584
61,0.5621929450191573,0.5622508825914002
62,0.5621746084900816,0.5621707737942628
63,0.5622295804189053,0.5623431671524648
64,0.5621070814232789,0.5629310598195008
65,0.5621682324748937,0.5629503578803212
66,0.5621514604605606,0.5621360184572697
67,0.562119776036826,0.5621928741234633
68,0.5620643523709262,0.5624905867827427
69,0.562118297198355,0.5626353367122594
70,0.5621317680909605,0.5624068892649047
71,0.5620670826511709,0.5623563524969729
