epoch,loss,val_loss
0,0.6868575689390988,0.6741482140974195
1,0.6746247391545739,0.6737459734051862
2,0.6737722406249547,0.6734596796555968
3,0.6738923564026548,0.6729280902050362
4,0.6733645874591409,0.6728746754126452
5,0.6733688186161001,0.6728151531479142
6,0.6730413504382575,0.6728880971885429
7,0.6730053328453539,0.672771572569914
8,0.6726582624804582,0.6723268051283473
9,0.6724976082264437,0.6737611888735178
10,0.6727226874303042,0.672091099703217
11,0.6725217466079394,0.67216901781162
12,0.6724030430185252,0.6719248179131734
13,0.6723889577323626,0.6726834323477316
14,0.6723182730491033,0.6719601633460859
15,0.6722794158937195,0.6728491546556141
16,0.672267609638338,0.6719807594059617
17,0.6721206094076136,0.6726240250087928
18,0.672387186271206,0.6719056370302933
19,0.6721723394991863,0.6722891018730244
20,0.6720539938854095,0.6717166075840728
21,0.6720841155774072,0.6718377236812992
22,0.6721199035857977,0.6719197585397704
23,0.6719815687181862,0.6721218144657392
24,0.6720173187590454,0.6729128039044392
25,0.6721105991412162,0.6726084636370105
26,0.6719183205354837,0.671806281309345
27,0.6719092201613226,0.6716689669902643
28,0.6719432991045526,0.6720684590571941
29,0.6719620862574759,0.6717504218874827
30,0.6718638094685295,0.6717533236257366
31,0.6720533581877876,0.6721328250300688
32,0.6718757101091256,0.6717422758016041
33,0.6717997052296879,0.6718928755974632
34,0.6718569373766512,0.6719133053295787
35,0.6718116169363271,0.6721891999620048
36,0.6718281165832125,0.6717815124385775
37,0.671749582069623,0.6718315471541243
38,0.6717272378076236,0.6718210606999829
39,0.6717223261552562,0.6721979889478434
40,0.6716810083785261,0.6719308571697142
41,0.6717213707494555,0.6719627683748689
42,0.6716697207827326,0.6723559784721415
43,0.6717080722987013,0.6717914083331221
44,0.6716522636121522,0.6717044395922643
45,0.6716864092607686,0.6716889987324847
46,0.6716926635439625,0.6715568228659088
47,0.6716025492424648,0.6718752001320616
48,0.671575432336294,0.671768636333874
49,0.671644904807583,0.6716000650255387
50,0.6715626956776714,0.6717459426519716
51,0.6716064934735241,0.6718058763974065
52,0.6715479884519187,0.6718406720081067
53,0.6715296381960918,0.6717783327918734
54,0.6715674919719676,0.6715860056819729
55,0.6715331337243127,0.6717818992560518
56,0.6716144691152328,0.6716091711116203
57,0.6715429363321979,0.6715706411302697
58,0.6714974689825155,0.6716828795246866
59,0.6715199755734675,0.67163571889234
60,0.6715727555627782,0.6717436411001435
61,0.6714182077147345,0.6718359095649733
62,0.67156757728391,0.6721148090818277
63,0.67151059466573,0.6716339226275997
64,0.671429072741878,0.6719031856774975
65,0.6714845706058359,0.6720716553300503
66,0.6715002535625493,0.6719540820494474
