epoch,loss,val_loss
0,0.5574325099123849,0.5556254146893819
1,0.5558830832772784,0.5556269560654958
2,0.5558460286855698,0.5556251668135325
3,0.555800780945354,0.5556250983079275
4,0.5557900009552638,0.5556251377264658
5,0.5557845114204618,0.5556253016789754
6,0.5557588801516427,0.5556252396504084
7,0.5557430764701632,0.555625186363856
8,0.5557546585400899,0.555625102798144
9,0.5557279416984982,0.5556251299778621
10,0.5557443887790045,0.5556279463370641
11,0.5557294776572121,0.555625105937322
12,0.5557425775925319,0.5556251364549001
13,0.5557277403142717,0.5556250953276952
14,0.5557268434100681,0.5556251218716304
15,0.5557301253875097,0.5556250788768132
16,0.5557236732376947,0.5556252081394195
17,0.5557115234666401,0.555724621017774
18,0.5557243271801207,0.5563343565066655
19,0.5557144394715627,0.5556250578165054
20,0.5557160182131662,0.5556909010807674
21,0.5557149670124054,0.5556293992598852
22,0.5557179604768753,0.5556707170406977
23,0.5557062496211793,0.5556250814994176
24,0.5557219868103663,0.5556280307769775
25,0.5557189762194952,0.55564333375295
26,0.5556958467562993,0.555625075340271
27,0.5557159357600742,0.5556607326666514
28,0.5557120231919819,0.5556250859498978
29,0.5557031986580955,0.5557644317150116
30,0.5557051179938847,0.5556251300573349
31,0.5557125538984935,0.5556250982681911
32,0.5556958875921038,0.5556251318454742
33,0.5557117209302055,0.5556250682671865
34,0.5557029307153489,0.5556296145915985
35,0.5557028594546848,0.5556251707474391
36,0.5557033566236496,0.5556250795523325
37,0.5557024036248525,0.5556250905990601
38,0.555694328241878,0.5556250695784887
39,0.5556997686889437,0.5556252659161885
