epoch,loss,val_loss
0,0.2260858946442604,0.22234419788916907
1,0.2228572627769576,0.2336605864961942
2,0.22277297159698276,0.22240878173708917
3,0.2226597933140066,0.2223451876938343
4,0.22262613851825397,0.22234392949938775
5,0.22263304082552593,0.2224518929620584
6,0.22255940556195047,0.22234398794174196
7,0.22257775272594557,0.22234424057602883
8,0.22260233131051063,0.22234395241737365
9,0.22255849629971716,0.22234421278039615
10,0.2225224251581563,0.22234426291783652
11,0.22257063817977904,0.22234400643905003
12,0.22253230981032054,0.22234413540363313
13,0.22254158015052478,0.22234396478533744
14,0.22252298082576857,0.22234397992491722
15,0.22254269046915903,0.22234389187892278
16,0.22252295935153962,0.2223439255654812
17,0.22252099105715753,0.22234394804636637
18,0.22251897435718113,0.2223439865509669
19,0.22252248545156586,0.2223443933626016
20,0.22250161880254746,0.22234407512346904
21,0.2225249870121479,0.22235965886712075
22,0.22249058351251813,0.2223439603249232
23,0.2225219316482544,0.22234410121043524
24,0.2225099889304903,0.2223441803654035
25,0.22249849097265137,0.22234407817324003
26,0.22249112227227952,0.22234393208225567
27,0.22250260824296209,0.22234391555190086
28,0.22248421964711612,0.222344002922376
29,0.22248451617691253,0.2223439460893472
30,0.2225145937634839,0.22234399636586508
31,0.22246523862746026,0.2223439620832602
32,0.22252016207906936,0.2223439702987671
33,0.22246969756152896,0.2223442989786466
34,0.22250202662414975,0.22234394900997478
35,0.22250917858878771,0.22236273632446926
