epoch,loss,val_loss
0,0.6678310161299176,0.6667191184361776
1,0.6669744198057387,0.6667188000281652
2,0.6668971843984391,0.6667188088099162
3,0.6668964017762078,0.6667307768265406
4,0.6668492679331037,0.6669925741354624
5,0.6668394773536258,0.6667188315788904
6,0.6668407582177056,0.6667188098827997
7,0.6668351937135061,0.6667188879648844
8,0.6668129132323795,0.6667189582983652
9,0.6668070662816366,0.6667188156048457
10,0.666828329205513,0.6667188234726588
11,0.6668120413753722,0.6667189838488897
12,0.6668081321848763,0.6667189019918441
13,0.6668023700581657,0.6667188467979431
14,0.6668027239773009,0.66707899081707
15,0.6667845883369445,0.6667188267707824
16,0.6667963622146182,0.666718848824501
17,0.6667926055192948,0.6667188492218653
18,0.6667921454641554,0.6667188278834025
19,0.6668028497695923,0.6667246549129486
20,0.6667833557393816,0.666718874613444
21,0.6667903434700436,0.6667188030481338
