epoch,loss,val_loss
0,0.557691178507275,0.5556251496871313
1,0.5559054336680306,0.5556251447200775
2,0.5558830557001961,0.5556256181399027
3,0.5558295142518149,0.5556251645882925
4,0.5557692469623354,0.5556251684824626
5,0.555789423359765,0.5556251042286555
6,0.5557764924367269,0.555625101049741
7,0.5557424286206564,0.5556250971953074
8,0.5557539186610115,0.555879108786583
9,0.5557439300749037,0.5556251825094223
10,0.5557400642103619,0.5556266026496888
11,0.5557400727272034,0.5556584210395813
12,0.5557164239486059,0.5556252092917761
13,0.5557293219433891,0.5561445194085439
14,0.5557018073797226,0.5556251474618912
15,0.5557311860985226,0.5556250588099162
16,0.5557006873024835,0.5556250803470612
17,0.555722151239713,0.5556251329183578
18,0.5557318562269211,0.5556251196861267
19,0.5557419674396515,0.5556251275539398
20,0.5557110562456978,0.5556252644459406
21,0.5557097355789609,0.5556251382430395
22,0.5557047333982256,0.5556252078612646
23,0.5557116277747685,0.5556251163482666
24,0.5556990454726749,0.5556250772078832
25,0.5557111937337451,0.5556250764926275
26,0.5557021916442447,0.5556250839233399
27,0.5557055037419001,0.5556250655253728
28,0.5557073094182544,0.5556252160867056
29,0.5556918383306927,0.5556267544428507
30,0.5557123214006424,0.5556251319646835
31,0.5556985175742043,0.5556250553925832
32,0.5557046415673362,0.5556251362959543
33,0.5557049078279072,0.5558894126415252
34,0.5557018387052748,0.5556250698566437
35,0.5556938503185908,0.5556250905593236
36,0.5556995826827156,0.555625137925148
37,0.5557017762793435,0.5556250744660696
38,0.5556986673937904,0.5556250517765681
39,0.5556987717284096,0.5556251126130421
40,0.5556961430576113,0.5557800889809926
41,0.555703155318896,0.555625050942103
42,0.5556923057370715,0.555625149011612
43,0.5556967610385682,0.5556252632935842
44,0.5556999161640803,0.5556251003742217
45,0.5557082775433858,0.555625076452891
46,0.5556868333154255,0.5556402633984884
47,0.555699449605412,0.5556378599007924
48,0.5556950681739383,0.5556250713268915
49,0.5557019762992859,0.5556250663201014
50,0.5557053434186512,0.5556499560674032
51,0.5557059714131886,0.5556253037452697
52,0.5557004301283095,0.5556251900990804
53,0.5557024876938926,0.5556250603993734
54,0.5556922422912386,0.5556250730752945
55,0.5557007074620989,0.5556251484950383
56,0.5556944919957055,0.5556250884532928
57,0.555707259496053,0.5556557247241338
58,0.5557087358766132,0.5556257696151733
59,0.555692593799697,0.555627365231514
60,0.5556981712182363,0.5556250748634338
61,0.5556989779339896,0.5556251410643259
