epoch,loss,val_loss
0,0.6691225235329734,0.6667190823157628
1,0.6668811953067779,0.6667187926769257
2,0.6668509635792839,0.666720210035642
3,0.6668420117563671,0.666718851407369
4,0.666824832479159,0.6667188017368316
5,0.6668338143030802,0.666723687807719
6,0.6668034235503938,0.6667188767592113
7,0.6667949861685435,0.6667190443277359
8,0.6668073241180844,0.6667188613414764
9,0.6667970066070557,0.6667188466787338
10,0.6667963301208284,0.6667289737065634
11,0.6667843420240614,0.666737859249115
12,0.6667924904558393,0.6667191816965738
13,0.6667948244942559,0.6667188887993495
14,0.6667924485736423,0.6667188091278076
15,0.666792918311225,0.6667188124259313
16,0.6667977696789635,0.6667199542919795
17,0.6667824054691527,0.6667188299099605
18,0.6667913743125068,0.6667358855803808
19,0.6667878573735555,0.666718845685323
20,0.6667939458423191,0.6667284823258718
21,0.6667888961103228,0.6667271174192428
