epoch,loss,val_loss
0,0.20054258927225685,0.11681375693641634
1,0.12096048754642161,0.11586602333108294
2,0.11430693407944911,0.11211480239567868
3,0.11345650286997577,0.11120497394845627
4,0.1129015047607229,0.11179717071203323
5,0.11302539840746251,0.112455711578414
6,0.11311308693907278,0.1335566665098035
7,0.11325347857226173,0.11271632087491724
8,0.11328375439425771,0.11337021646442591
9,0.11407517668924587,0.11377315124721907
10,0.11356268740528293,0.11174558947241993
11,0.11382091411346908,0.11366441127423435
12,0.11353765265513555,0.1139643566089245
13,0.1142648064297996,0.11128635087563367
14,0.11391599901360545,0.11059382470250613
15,0.11399616323131098,0.11386983462179567
16,0.11391957101223467,0.11107626609316901
17,0.11356246182687575,0.11358577960502396
18,0.11423077124407331,0.11318703697932414
19,0.11368405485184217,0.11476217169202833
20,0.11387469341532529,0.11147685678915965
21,0.11411469124907775,0.1134080990955584
22,0.11411996934715035,0.11255267647979517
23,0.11424931279831738,0.1138735455064298
24,0.11400781754997848,0.11233507534859148
25,0.11446883574462204,0.11448268682997302
26,0.11403564497637596,0.11477659484379096
27,0.11423731589909074,0.11042260225720263
28,0.11421968760170204,0.11112770106453095
29,0.11418341091566318,0.11378835458293352
30,0.11442007890360369,0.11323078530209875
31,0.11443022045018293,0.11359871528734546
32,0.11453998110311522,0.11412731973214162
33,0.11480124735588833,0.11343371822209447
34,0.11456187809403655,0.1124844372042871
35,0.1149749738619841,0.11469865075500632
36,0.11535485865200779,0.1172793487635262
37,0.11552438779687099,0.11532940643643907
38,0.11550520331836682,0.11515064004563937
39,0.11573451179697859,0.11366008712161584
40,0.11580191997943924,0.11356366214260084
41,0.11595975220787993,0.11703163567879098
42,0.1165229405870764,0.11424719828082021
43,0.11623925121249057,0.11590887627293207
44,0.11666054203450155,0.11763188108161321
45,0.11676367634744812,0.11431382836385752
46,0.11689705971637375,0.11474057209631919
47,0.11675756821055427,0.11604176231471872
48,0.1168217626128128,0.11492364733371904
49,0.1176580441287988,0.11811333098309076
50,0.11736266574769424,0.11585980241050202
51,0.11747925213163046,0.1175517703603654
52,0.1175861117676843,0.11404070486552524
53,0.11753475729874174,0.11641762198371222
54,0.11766413790140275,0.1178492563568956
55,0.11815143946268923,0.11611996860593098
56,0.11809593876652283,0.11812197271997331
57,0.11828370632125054,0.11923571961228671
58,0.1182329859927571,0.11658154477554902
59,0.11830726841254365,0.12013440341095757
60,0.11830861426836209,0.11614217412781154
61,0.11849700728113695,0.1161931188292167
62,0.11853425069939527,0.11840159296747735
63,0.11843934741983708,0.11937147476208085
64,0.11856798973498199,0.11885856269629913
65,0.1186557142250389,0.11952394031936911
66,0.11876306813463772,0.11761437550440902
67,0.11866541861819686,0.1176451538770255
68,0.11889193978032367,0.11851540378265427
69,0.11855314047134714,0.1180341231719034
70,0.1186902846565382,0.11881065529386686
71,0.11868882128257481,0.1174512443110794
72,0.11846451082224364,0.12084147342558518
73,0.11867379103067686,0.11580809622712959
74,0.11848603808779637,0.11700948432921783
75,0.11847471568086225,0.1190189457432777
76,0.11872637910757951,0.11993581438489978
77,0.11852953255510597,0.1183725438546767
78,0.11815620180639962,0.11850822075826795
79,0.1184111911060812,0.11618546617654699
80,0.1181547900198029,0.11738265572238142
81,0.1184304312939306,0.11680072149003509
82,0.11845800876498126,0.11683533802350556
83,0.11867997494397209,0.11732643318799871
84,0.11831020929211612,0.1153103037097545
85,0.11809581106273626,0.11524357821336144
86,0.1178487815392361,0.11941143123482846
87,0.11799562750481146,0.11647863762222067
88,0.11738490470475536,0.11674529714668465
89,0.1171383765683449,0.11563779829434041
90,0.11693448822399537,0.1149506435064117
91,0.11625845584156419,0.11521789792317834
92,0.11559343391998086,0.11181724188729988
93,0.09519054995979473,0.07387067991499967
94,0.06915193124472188,0.06199574584121735
95,0.06073985263866315,0.057043046254697895
96,0.059271594502025834,0.055732685160148655
97,0.058041511190006785,0.055123584340451115
98,0.05022264228428336,0.043820523653128045
99,0.04625254741804995,0.04238689174786488
100,0.04527048656703521,0.04468234182189657
101,0.044756728744177555,0.04240504516906499
102,0.04414634860819392,0.04232956913797621
103,0.04381256004134782,0.04091176984337705
104,0.04271146854619869,0.04171703794226352
105,0.04137571526242433,0.029874327544965884
106,0.033552129708194704,0.02954763496432088
107,0.0330244794434266,0.03187925375194348
108,0.03242086978469661,0.029374566640695807
109,0.03291892642162746,0.02927959302027875
110,0.032077485899045,0.02710241976512078
111,0.03182381339851406,0.029421876702043746
112,0.03168142293009451,0.028949784906543277
113,0.03217405300241432,0.030581189807434926
114,0.03151698316558539,0.02779813323378418
115,0.03125944609691898,0.028100846501464584
116,0.0312051165504478,0.029134631289859565
117,0.031581284542433065,0.026858797360329444
118,0.03147496748193681,0.031385838219537936
119,0.03163464002764588,0.027091373019494474
120,0.03153890371098936,0.028966720710717753
121,0.031729081412218064,0.026734052683677696
122,0.03181652274889479,0.03066689955087232
123,0.03105924887100967,0.028330833372408454
124,0.03154145278636101,0.02728550830238105
125,0.031651530871905975,0.02803453245326357
126,0.03129096189774782,0.028975686437578
127,0.03192323766756144,0.027112972655991472
128,0.03202375706831057,0.0294787481983116
129,0.03169527180788157,0.030892265703761763
130,0.03192492941315409,0.025926170240716053
131,0.03172581411862345,0.028583541652980802
132,0.030848865054273387,0.0299721960633969
133,0.031643341785316186,0.02933049601837328
134,0.03181776847672448,0.028658581855317874
135,0.031626234001057255,0.028477418797645062
136,0.031517290836833925,0.02848907659058395
137,0.031931902481029756,0.025273986783147535
138,0.03213258364422022,0.02726439127829968
139,0.032051656863467996,0.027850747679489373
140,0.0321243673926883,0.027919402953300743
141,0.031155658479454854,0.029239462268601465
142,0.03108489350397125,0.03091076034705086
143,0.03128713044264109,0.028674872868542544
144,0.03164176072021596,0.028140611117229843
145,0.031007664882129818,0.029289880775017943
146,0.030875957326395354,0.026414325441152995
147,0.03148963891291876,0.028543769728637088
148,0.031024951832272035,0.025668656328105385
149,0.030677884803701632,0.02552444418772922
150,0.03129319079798923,0.029818072907523904
151,0.031381641851635195,0.03138352639441411
152,0.03105348954536468,0.030623461035988918
153,0.031200307740526404,0.025355587649217293
154,0.031142018197046175,0.02874207629430178
155,0.03120241695873326,0.028127900653330658
156,0.03075055208793872,0.02946689643044348
157,0.03100149189640251,0.026363258274983606
158,0.031307835890959985,0.029605952827962356
159,0.03131939268695583,0.02915546660585705
160,0.030995951838689962,0.027228907998485093
161,0.031170098831335768,0.02832314054974916
162,0.03134764902058055,0.02949858452922333
163,0.03060919253246559,0.028075052999316535
164,0.03092792601413351,0.027966826617874852
165,0.03070973135975359,0.029348606276964135
166,0.030903994628460146,0.02672610174341842
167,0.03051853395724077,0.028055493386775036
168,0.030638784194011705,0.025540216146860292
169,0.03066203725845624,0.028620868522465374
170,0.030804592752911215,0.028002591977395956
171,0.03134475070073473,0.029301121666278185
172,0.031157579417642446,0.02835888406662127
173,0.030748139009523907,0.02710580398590702
174,0.03041234147996665,0.029594524022545258
175,0.03060934381385008,0.02798983237622283
176,0.03088641431394389,0.03072845093174766
177,0.03099927776832405,0.03251094452958231
178,0.0311921301780282,0.028029702760925743
179,0.030463131211751742,0.0256780169463119
180,0.031164624649968692,0.029843543353282816
181,0.03153270294888316,0.028160490654559996
182,0.030959836414622202,0.026291144804822073
183,0.032258303743526874,0.02856012416394716
184,0.031382285875735806,0.028693394480153785
185,0.04557610704698522,0.037872846033620525
186,0.031807121324887555,0.028679341786304626
187,0.03192833455665719,0.029769785413692275
188,0.06093527004048169,0.04790988665403434
189,0.04408289948918277,0.03681653482569057
190,0.04255184348973873,0.04323197220242903
191,0.04276501305335707,0.04796688467421284
192,0.04401220254498639,0.06945151092736873
193,0.047360565313536995,0.038531959519116546
194,0.05402604276664835,0.05011957776880032
195,0.05470164303330062,0.05286731262784224
196,0.05401612018750275,0.053109869578458965
197,0.051060118866835334,0.04858514093110355
198,0.049725207166852144,0.04752704672763141
199,0.05232629401115678,0.047835459982536715
200,0.04961646328105317,0.04405672060868069
201,0.042785007858557926,0.03744871458167094
202,0.04082997763653198,0.037407050859439885
203,0.04647575677025786,0.041488151157400226
204,0.0416820073251227,0.03913751617376145
205,0.048006277113073204,0.04722521996725312
206,0.050045133036694785,0.047410889360253054
207,0.05227483816301708,0.0524705969135595
208,0.050402431962810294,0.04296217708329505
209,0.04222032869960949,0.03938416472582535
210,0.04527111949206735,0.04279193012625438
211,0.04175280474030895,0.03907075121587887
212,0.033527250477732466,0.02854053675373057
213,0.03182754981919849,0.03017807161074437
214,0.031669618318780506,0.029925555102557354
215,0.03190963698313941,0.03046946025575116
216,0.03198308261965899,0.03355483790226613
217,0.03350030316384412,0.031788681655675055
218,0.03253093967176944,0.029791971079443202
219,0.034294890392693976,0.04678856839168294
220,0.06157299095214463,0.04923510582874388
221,0.04373187538358667,0.04154951059820685
222,0.039675217035343595,0.03720197631144369
223,0.03910002324900167,0.03724933702676932
224,0.038930140926336364,0.03505813003958045
225,0.03910148384018217,0.040123274300582795
226,0.03981604911625576,0.03851399868001613
227,0.039884547978114665,0.03849810895729819
228,0.04064390672336491,0.039187809254517904
229,0.04160245550606993,0.040160887076278476
230,0.043454152660920106,0.04120124470131337
231,0.04335580499853202,0.0454540693919444
232,0.04440030814994804,0.04294788030739828
233,0.04466264130021211,0.04253259257678568
234,0.044965625935203556,0.04113313771742007
235,0.04488515923227712,0.04384396560278639
236,0.044535602117069154,0.041149765192640575
237,0.04421092028482806,0.0425902148655828
238,0.0439441145686291,0.040841366122843094
239,0.0441725405217935,0.04060011342264536
240,0.04479485640438009,0.04301429715759853
241,0.04455903233487526,0.04034346552672951
242,0.04461945307025726,0.042116307864223955
243,0.04435277926333672,0.043602560646076656
244,0.04456268153708873,0.04174758866127197
245,0.04459093256836371,0.04191877677529108
246,0.04477021863178504,0.04374328426962351
247,0.04460012144875154,0.04459416928541728
248,0.04515729606557217,0.04480651235215469
249,0.04506675412414597,0.04189022450080173
250,0.04526817015528058,0.04347377513072303
251,0.04532039437959011,0.041888919283559624
252,0.04544230937522301,0.04535830969901851
253,0.044967408910143176,0.043826850779227676
254,0.044923000883242435,0.04773317948769285
255,0.04509213313257532,0.04045054921993664
256,0.04306272209716664,0.03942489881742223
257,0.041845278097115295,0.03910053024991489
258,0.042772523932057535,0.06028159373022151
259,0.06170190345671914,0.04672799053370034
260,0.047065585656307814,0.045089721444024365
261,0.04672674394493775,0.042961527997535706
262,0.046645398438871624,0.04779139394960264
263,0.04601943471712814,0.041780865425659404
264,0.04511558340103317,0.03982668085097783
265,0.04285866321415735,0.042903256414508005
266,0.042798524049876496,0.04137010396807927
267,0.04274336804745434,0.041119789394994916
268,0.04250488519591031,0.040695750386441326
269,0.04286093904589824,0.04129013649376059
270,0.042857794803951244,0.04113834557959633
271,0.04304564090145885,0.04354161081800882
272,0.04231421404583059,0.03854150012050909
273,0.04278284295934071,0.03955884386286055
274,0.04231797313665132,0.03886465152418913
275,0.04252181611537599,0.03901109486419499
276,0.04274365206728514,0.039558566831783465
277,0.04266396418864055,0.04010211151253375
278,0.04235985234910675,0.03968500608196127
279,0.04354554459637552,0.043047603811926696
280,0.04268357942284967,0.03922085643467242
281,0.04323794890054948,0.04282046601611332
282,0.042502961062592826,0.04024878089578289
283,0.04281279539392651,0.040840384667468865
284,0.04233584060573024,0.04098247533055311
285,0.04246110767961216,0.041626824608370236
286,0.04306473077130948,0.04000286731056247
287,0.04419352729216492,0.04148587341279106
288,0.048753430811856825,0.05945715024789368
289,0.05346114140114276,0.045024262099177106
290,0.04474786431748596,0.04135852192270978
291,0.04303242299583456,0.04038896937065268
292,0.04222282899127568,0.038723831559740615
293,0.04166334972614713,0.040548343093580866
294,0.04157665779022239,0.05183280936449113
295,0.055403670631617524,0.03872224182156364
296,0.040668506920934204,0.038594249137416665
297,0.03477494601455567,0.03572448664507243
298,0.031948139154321674,0.02716761914331886
299,0.032460632298538405,0.028673503998083886
300,0.03231088843142944,0.028691028556744935
301,0.03185256895086496,0.029309875660387848
302,0.03119068631337131,0.027989667570648982
303,0.03054823995522373,0.02682432170658216
304,0.03014705152443951,0.028399095747435567
305,0.030796837837124367,0.02737354392311192
306,0.030341387838214707,0.027200877908179166
307,0.03070957210210202,0.031036513933831854
308,0.03119401264043929,0.032601667708579064
309,0.032504101433724855,0.028303956822926496
310,0.050699199789954574,0.042694651236982725
311,0.0434667632413254,0.03918262280445223
312,0.044947238485392234,0.04752181915434898
313,0.06148231729232759,0.04541282946453864
314,0.04464467657540587,0.04339569534529348
315,0.04282540103809847,0.042497357158692795
316,0.04536088615405359,0.04580235750462017
317,0.04454777613013768,0.047582106965398364
318,0.04772813512598447,0.051068234922846255
319,0.04722977669878279,0.04088040569378705
320,0.04066909503361719,0.03849122828569049
321,0.036216710923795845,0.028065645523423697
322,0.03093902154969539,0.027198061531308406
323,0.031133700831770132,0.025602643697583763
324,0.030679573111826654,0.029074439531175566
325,0.030263257067534233,0.02860048683382879
326,0.03047885875656807,0.029378574417068624
327,0.03057517946881948,0.026363052903626956
328,0.031039777445234805,0.02993959805264235
329,0.030550602007749752,0.027552246308711035
330,0.030431939919797587,0.029279016573148246
331,0.030442304865235657,0.033237543331711444
332,0.030577559793611066,0.02700811327228871
333,0.03061119055940663,0.0266227776657515
334,0.030604001220384296,0.028521813974932548
335,0.030686618670003954,0.029401282285130902
336,0.031735148828169454,0.031067881518665214
337,0.03280818487724082,0.027804429058985603
338,0.0449386773261132,0.08587100326604023
339,0.0625380315035701,0.046483984454221486
340,0.053442673378879785,0.043158818190405256
341,0.03901843560950531,0.028791794686337264
342,0.03374524938659944,0.034642320621791935
343,0.036183492979221195,0.03027032944468203
344,0.031684901343853926,0.03088916161241854
345,0.03118178229242134,0.031986476089095356
346,0.03121682992197567,0.028068530094558303
347,0.031086877405977518,0.025651318635202383
348,0.030179670000757525,0.025591343633727823
349,0.02979136350974023,0.02811219523428952
350,0.03030506486939587,0.029585995239304608
351,0.030621925155647857,0.025131206560671474
352,0.03031065018983294,0.02817219517073637
353,0.030297989624472645,0.02729740878302734
354,0.03022791512215061,0.028595664755222957
355,0.030602148323177432,0.02553342955922655
356,0.030415424595387867,0.030051024964521885
357,0.030409500288446727,0.030580695804634524
358,0.030978945083170534,0.026535488844872585
359,0.030303977400040608,0.0324422709767715
360,0.030478484817505407,0.029882649417486213
361,0.03052783396551378,0.02503473621499268
362,0.030136230512797308,0.02785162744924293
363,0.030431513797590216,0.024644823246374906
364,0.03041421659693444,0.03125007794709198
365,0.03024375254438938,0.03207510301128743
366,0.030375618261663174,0.029835640865967995
367,0.030887861892706255,0.026722850778048732
368,0.031301958933830545,0.030226098890178396
369,0.030926032094739743,0.028443793279012336
370,0.030828595128629187,0.028076945356148485
371,0.030722506665695516,0.026925182893014207
372,0.030490908440682675,0.027589982274288292
373,0.030383802692385747,0.02540382944101835
374,0.030883056664909477,0.026304322937677184
375,0.031194713091950498,0.02618193372461676
376,0.030393454303638375,0.028437306885422484
377,0.03080482272173258,0.031310574159884204
378,0.03052819150986912,0.025698168138276245
379,0.030769229700283302,0.028239340425468225
380,0.030881860247963043,0.03102383985722684
381,0.030782055701789043,0.029900577762266144
382,0.030659575409012093,0.027343331941154944
383,0.030577798237542423,0.031178117896651505
384,0.03099950416918823,0.02684165336590469
385,0.03004662564741649,0.029260131842415216
386,0.030499471608755158,0.02528007617650821
387,0.030578089048049515,0.02849592592956956
388,0.03162604067519343,0.02739852747826294
389,0.031284798455653524,0.027131031191056566
390,0.03145316902404909,0.027603160598997364
391,0.030997520366354024,0.028512838782269782
392,0.030351091514052964,0.029320105482784114
393,0.03071415389897682,0.02458652243960803
394,0.030870516314726766,0.026723651035665402
395,0.03208259000831408,0.030334989066686652
396,0.030416237962118287,0.026112887765139654
397,0.032889004910828544,0.029691521723400453
398,0.03148178482283536,0.026174407346598618
399,0.031311129125131905,0.03271138644191857
400,0.03180571206829684,0.02976139432419052
401,0.03143009803503203,0.03068528859441781
402,0.03404874824288728,0.029538683220139868
403,0.03145676294716002,0.029029457468089298
404,0.030803392592033116,0.02611738801552383
405,0.0429912648403091,0.02999756739468035
406,0.030809917733270086,0.02609785094959941
407,0.030897464105834046,0.028488172237842137
408,0.030425471740605548,0.027412063133240423
409,0.030325454485276827,0.026014131387364834
410,0.03022692183940839,0.027372386647933688
411,0.02996031724936586,0.02766987450257705
412,0.030271409130136998,0.032551307986518375
413,0.03008510983415586,0.02833832774253899
414,0.029928103104245672,0.026778476877743793
415,0.03054624083291611,0.030200695174852715
416,0.03030160066035626,0.024953336859029767
417,0.030157497648546416,0.026740194660130306
418,0.030402303357169425,0.03165451860673188
419,0.030263640744845756,0.02832497397569119
420,0.029719452027699725,0.027331875821474307
421,0.03032238886067517,0.026352667785268534
422,0.029753058813989545,0.024579686797786708
423,0.030216418781591425,0.024261240975059634
424,0.03023004966651539,0.02961972745593157
425,0.03056045748096547,0.027410758893396055
426,0.030619839922911982,0.02763156665659782
427,0.030055975921010617,0.02638315243702397
428,0.030245064531085344,0.027642151503993646
429,0.030748061153491896,0.026178143486465175
430,0.030579983495366725,0.02477115550851155
431,0.030007778282155746,0.025213463828632335
432,0.029931027105181002,0.02659294867566322
433,0.03038105299342886,0.027903750152096743
434,0.03077961775131995,0.028608357269446827
435,0.02989515421719695,0.02817961774971895
436,0.029864844904871013,0.02503694928971037
437,0.03068788106694185,0.025776018374218074
438,0.029764366827553228,0.02792369244531075
439,0.029811255847088235,0.026491642203740926
440,0.029791647229072234,0.02550792547255537
441,0.029970122053115677,0.02561372146312531
442,0.030188394636601758,0.028830684228994357
443,0.03019422651816598,0.026802072626299134
444,0.03087611183273592,0.028079667346913063
445,0.03230252439563302,0.028340115643197796
446,0.03522485784225888,0.030102030006263766
447,0.03760820088327957,0.03040805134079317
448,0.030790332769654434,0.026435634782968356
449,0.030282994237891714,0.028640870459601342
450,0.030104360989092874,0.02707340399714282
451,0.030128494528434677,0.026445743358193233
452,0.030098971473075466,0.028215335115536574
453,0.02971050170681971,0.02618001752350984
454,0.03009030521080029,0.024380955372280643
455,0.029728923286732625,0.02762931890465434
456,0.02967456160627717,0.03183280889908666
457,0.030106731539098524,0.026550624247667562
458,0.0301608814126413,0.028735852631870944
459,0.03017816026795736,0.026549083358228254
460,0.03068081552894999,0.029705959306508666
461,0.03964166944060591,0.027685091030894986
462,0.03065861706167841,0.025050708891133516
463,0.03036668765439903,0.025758433701819457
464,0.02992153175479417,0.025226515162636475
465,0.029677924522615556,0.02647182509145984
466,0.02990250137177489,0.030771003067735146
467,0.030028110008397467,0.029851453185431955
468,0.030187445129003163,0.028198404955192012
469,0.03066897920196394,0.0283988065766858
470,0.030148591826840626,0.0289400694461272
471,0.03090265055326484,0.02948011439641075
472,0.03368621788847389,0.08737784085700112
473,0.041596078073040686,0.026603246852453414
474,0.030615168543841192,0.02778379963854417
475,0.03046610381519847,0.026973302775974303
476,0.030580975476196044,0.025425986704829737
477,0.029983617257986,0.027689326317363025
478,0.030579061114681873,0.025877335153381125
479,0.030783242385706202,0.026829114593172693
480,0.030469067369381174,0.03046979091680833
481,0.030094202534050297,0.02526141946798452
482,0.029782269755490212,0.027155055437125236
483,0.030128428040652442,0.031593195890096855
484,0.03048575318174614,0.02562269633703858
485,0.03142434809419563,0.0292869198671561
486,0.03868101944727861,0.02969856470194853
487,0.03097547129768911,0.030076257561220933
488,0.030023122632099067,0.02706086247047562
489,0.03016899783146367,0.028392778809234465
490,0.029969968963518823,0.028329862799836868
491,0.030209939172260277,0.02967655629264032
492,0.030483551095243547,0.026999816253164968
493,0.030455139115172402,0.02669608618215101
494,0.03104970683593503,0.030178239816816377
495,0.030477115119381653,0.0278570387733002
496,0.030457542136198192,0.02636919418970744
497,0.03095434093810588,0.03112816778884027
498,0.030735524519651627,0.02696175554227945
499,0.030738348085388504,0.02754257069802439
500,0.030431381338018718,0.025728596711269938
501,0.030212054486193355,0.02689488647416512
502,0.030415265861185814,0.02617155176807204
503,0.03154792317716454,0.0775600763072546
504,0.03831339044775292,0.02939121854783845
505,0.0310819300966825,0.03129949751223188
506,0.030537290263733117,0.03299483748429303
507,0.03154666809286114,0.026430484981541217
508,0.03003600090846503,0.030262022940117175
509,0.03055090514616407,0.03040805419443201
510,0.031419682863046874,0.030613120089361363
511,0.03035088509225769,0.026365177832779512
512,0.0301689923456829,0.029361765460086276
513,0.031209360066953424,0.02548850085722269
514,0.030504872428150392,0.0272930665719659
515,0.03134061180329542,0.029447678064161553
516,0.0307368111205373,0.02773775016799847
517,0.030448126280046492,0.026145121957336318
518,0.030304399746253166,0.02872841279962782
519,0.03424753009411003,0.04340368533161048
520,0.03145413136660003,0.03213414112037986
521,0.030948084286951703,0.02991268785620548
522,0.03968998951296075,0.031298751126301066
523,0.03338092594617028,0.030733364784526613
