epoch,loss,val_loss
0,0.4464685706032647,0.44452508821090064
1,0.4450373032093048,0.44453071294228236
2,0.44487002842293843,0.4445315761764844
3,0.44474255922105577,0.44453152640660604
4,0.44476203982697593,0.4445382259289424
5,0.44470567646953796,0.4445314807891846
6,0.4446928990284602,0.44453150552511217
7,0.44471287097533546,0.44466165655851364
8,0.4446832595798704,0.44453140517075856
9,0.4446913117236561,0.4445314987500509
10,0.44468329664733675,0.4445315680503845
11,0.44464245784282685,0.4445315400560697
12,0.4446752308872011,0.44453137934207915
13,0.4446820257173644,0.4447940748929977
14,0.4446432606511646,0.4445314603447914
15,0.44466566156016457,0.44453140211105346
16,0.44465435840023887,0.44453136722246805
17,0.4446472759379281,0.44453139714399975
18,0.4446541837586297,0.4445321068763733
19,0.44463710825310815,0.44453140548865
20,0.44463580716318557,0.4445313752690951
