epoch,loss,val_loss
0,0.5579313531981575,0.5556318370103837
1,0.5559283227390713,0.5556251318454742
2,0.555866333246231,0.55565176765124
3,0.5558045758671231,0.5556251541376114
4,0.5558110607332654,0.5556251349846522
5,0.555777293642362,0.5556252058347066
6,0.5557892085181342,0.5558087209860484
7,0.5557653265661664,0.5556250952482223
8,0.5557693031628926,0.555625143289566
9,0.5557503604888916,0.5556252131859462
10,0.5557597316900889,0.5559465958277384
11,0.5557382018831041,0.5556250706513722
12,0.5557422228919136,0.5556250791947047
13,0.5557505802181032,0.5556250741481781
14,0.5557247395515442,0.5556252270936965
15,0.5557438876363966,0.5556250994602839
16,0.555724290423923,0.5556250890096028
17,0.5557463219563167,0.5556250968376796
18,0.5557250855631298,0.5556256454388301
19,0.5557210855086645,0.5556294230222703
20,0.5557205747763316,0.5556251417398452
21,0.5557132980161243,0.5556250955263774
22,0.5557296030124028,0.5562548230091731
23,0.5557171477741665,0.5556251391967137
24,0.5557187512715658,0.5556250678698221
25,0.5557225274377399,0.555625136534373
26,0.5557129732370376,0.5556251026391983
27,0.5557163627809948,0.5556250592867533
28,0.5557005003293355,0.5556252968311309
29,0.5557241946723726,0.555671773870786
30,0.5557076179054048,0.5556252660751343
31,0.555712842795584,0.55562508837382
32,0.555711678173807,0.5556251369714736
33,0.5557188871304194,0.5556250797907512
34,0.5556917927397622,0.5556251215537389
35,0.5557152727709876,0.5556250943342844
36,0.5557090790404213,0.5556264567375183
37,0.5556962682803472,0.5556251156330109
38,0.5557034052477943,0.5556250811020533
39,0.5557070210377375,0.5556251173416773
40,0.555699948920144,0.5556253385941188
41,0.5557057779894935,0.5556250670353572
42,0.5556998975939221,0.5556250660816828
43,0.5557095121675067,0.5556250717639923
44,0.5557047955460018,0.5556251088380814
45,0.5557036765813828,0.5556257643699646
46,0.5557098132371903,0.555625265399615
47,0.5557062673833635,0.555625111579895
