epoch,loss,val_loss
0,0.5414330587327052,0.4860036671632091
1,0.48271124008938754,0.4782470421896455
2,0.4805433379350711,0.4810786236903756
3,0.479878101429398,0.4853075614762099
4,0.47785461620747044,0.47318442653932247
5,0.46928135651669245,0.4462546315735122
6,0.43184050435213733,0.4076916183085543
7,0.3616813577467399,0.2682910047489165
8,0.2733879628703653,0.23887886938469186
9,0.2499282828671374,0.23210439744575248
10,0.265462753822287,0.30075357801441893
11,0.28136018189571077,0.2724089658133327
12,0.2794140666770897,0.284406140987668
13,0.27960897042906635,0.27370428206324104
14,0.2779120739451129,0.2743998113563894
15,0.27701426197370466,0.2734329221092441
16,0.2772307793894927,0.26890141776253507
17,0.2768049785177961,0.2690953676424915
18,0.27742414057350084,0.27030622108818136
19,0.2768614907249463,0.2590682120448318
20,0.2760926167920625,0.2604489796328187
21,0.2750201860337044,0.28214334500710986
22,0.276960532090885,0.2650367410143436
23,0.27601981487014976,0.265570852379208
24,0.2745293659641207,0.27683273422360516
25,0.27410253647753563,0.2690707722938992
26,0.27273681201189637,0.26783306353329295
27,0.27199304839380256,0.2740676965102871
28,0.2694393213954475,0.262990093421729
29,0.2702388760449884,0.26790520787568384
30,0.2634943396591549,0.2703054592707257
31,0.24732177243601505,0.23000647857985163
32,0.2159264001498024,0.20554013209213115
33,0.20189315348649198,0.18473792611235412
34,0.2363981877347167,0.284421946850459
35,0.27425611509884196,0.27345535952977146
36,0.27122748550846515,0.26738053780187276
37,0.27047304853165655,0.27818000021419287
38,0.270481934626516,0.26241050484195505
39,0.27018079050867966,0.2603688030705832
40,0.2700931098428276,0.2623763242126358
41,0.2662129853840926,0.25019300881341017
42,0.26208366308328535,0.2557845519416052
43,0.25967496330980105,0.2435905927734857
44,0.250405036044016,0.25053506151088695
45,0.2420363139560659,0.2190623305496872
46,0.20863728419386987,0.22729209729932667
47,0.20424812878195425,0.135149784950685
48,0.1348803091011078,0.1096481594368051
49,0.13409800736380995,0.14915025652913286
50,0.1440512489863961,0.1325569530712307
51,0.16803062140203112,0.13262632008768388
52,0.18043539470893968,0.17707463753157557
53,0.2937415132074238,0.47624579119042515
54,0.4593130768083935,0.40878950829758076
55,0.40672725312810815,0.43648059766125097
56,0.353379981742679,0.3092355947374074
57,0.2636230924396778,0.2489026128751797
58,0.2549086226333531,0.23791308247064546
59,0.2570536641134537,0.25849791572097724
60,0.2555011865272701,0.2557164418622087
61,0.25808623453958046,0.24832390355800396
62,0.25711628598727576,0.24609099918919092
63,0.25394813256035986,0.2715214986145355
64,0.255277575062905,0.25359970800455106
65,0.2545936408517458,0.24615430961279955
66,0.2551576926541938,0.2501029784084778
67,0.25491390343335607,0.2857583925986535
68,0.2572174258262133,0.2132192202200547
69,0.22079765096866635,0.21460440543192807
70,0.24073231001671175,0.211530435798012
71,0.203767185386041,0.18858380716855638
72,0.1982290384104307,0.1850262675566662
73,0.19670408998104594,0.18597981971177702
74,0.20143358162243208,0.200644404954485
75,0.22068865162481982,0.20563734642096929
76,0.22183496012485665,0.21654358533252951
77,0.2263222914650667,0.21938867210730287
78,0.2347785870579602,0.23329863186275857
79,0.2367602787751088,0.23276016685373688
80,0.23591464239177848,0.24556278360341605
81,0.23793107370654645,0.22968114228020903
82,0.23600838958716794,0.23070434133368584
83,0.23805298815837964,0.21400639245429187
84,0.23720647234448808,0.22397845800033966
85,0.2282696837644211,0.20820090743906403
86,0.22139009315189984,0.19886066324144439
87,0.21766002994361255,0.20410671507926464
88,0.22547294153012246,0.20870797894748064
89,0.2253660458764679,0.2252141949739057
90,0.22474461306127713,0.2149718068510694
91,0.22017233572799047,0.2263524938307132
92,0.21325121826524263,0.19989676715919327
93,0.2058281113299058,0.18192009436115092
94,0.19885702242406247,0.18187263318658722
95,0.19705034397560345,0.18383198063864703
96,0.19493493163209263,0.18933267031679402
97,0.1923372240887462,0.1791538406331048
98,0.18943258527395346,0.17032434964212922
99,0.18373370153619517,0.17953490260650345
100,0.17963071134712674,0.16521149918425243
101,0.17286544850618718,0.15708746650530395
102,0.17009931267332212,0.1516912328263108
103,0.17099050586994033,0.16627067091691747
104,0.16852241578243143,0.14561087976855938
105,0.16570298489835336,0.15036794115166638
106,0.16344347901993708,0.15314239332924326
107,0.15944999053204756,0.1766061055302714
108,0.16110604421364413,0.14846717252821648
109,0.1624577866642357,0.1363540511716513
110,0.15807940469954987,0.13748674549826884
111,0.1440187580764389,0.12814981383936747
112,0.14125451083472973,0.14226597243509803
113,0.14453321715874923,0.13154891571404903
114,0.1461757114923877,0.1295577034342449
115,0.1485487932590939,0.1407208306613454
116,0.15133059325871423,0.15033965973564276
117,0.15412989814730763,0.15552374914629588
118,0.15272842061152753,0.15358826882061097
119,0.1504808574777951,0.12436579593590327
120,0.14393800090578535,0.13109351890404203
121,0.14497837267941135,0.12194335159581764
122,0.13371424426099093,0.14736427426714546
123,0.14298800204833634,0.1523003510678012
124,0.1496566786147136,0.1377700024241054
125,0.15117492237918193,0.15575820212888267
126,0.15416790446717676,0.14430797398207973
127,0.14034524317279898,0.13056480858089797
128,0.14903066432971557,0.13908480844609644
129,0.14716504673234565,0.13926438178687747
130,0.1519212465789869,0.13162098225755964
131,0.1493462474642993,0.13715433461654816
132,0.15064603210591393,0.14583518673043225
133,0.15009136124254227,0.13302608131303878
134,0.15234616591180447,0.15629538138644752
135,0.13351014360999888,0.11224613717412421
136,0.14217970073580455,0.11876275733219138
137,0.14666648189738976,0.1261529428524207
138,0.13249730062391832,0.10737478710716883
139,0.13513664577862056,0.12234231177496929
140,0.128946906874339,0.11982514686300327
141,0.12742205509405247,0.10236139365581423
142,0.1319781000540554,0.1145415650629207
143,0.14655904958752705,0.15141581671625587
144,0.1709913635473076,0.18102482915065754
145,0.1914058621558878,0.17372078083355594
146,0.18367636123661704,0.16938399882794555
147,0.15577827397879843,0.11932697107143636
148,0.15567116303850326,0.15364177743797708
149,0.20933496931211934,0.207856650851614
150,0.21959322857723343,0.10627316859945501
151,0.1429660997028164,0.12766062204256337
152,0.2790782219952912,0.3629270363907788
153,0.24766201716508987,0.2346072131216573
154,0.22026707284408603,0.20042213538827722
155,0.19792951171775516,0.18332279963387968
156,0.17596974610972652,0.15964732300887075
157,0.16149622875807002,0.15769207019479423
158,0.14481770603967417,0.13301386425437753
159,0.13761854251857095,0.1278475396623269
160,0.13611146601603377,0.1144661433765431
161,0.131939470467212,0.1300162851998631
162,0.1326097514090254,0.12884441253324147
163,0.13323747871114577,0.13800886313959473
164,0.13555818857799332,0.118226392822371
165,0.13305118088599302,0.11782784507137259
166,0.12962243976674492,0.10991680886722872
167,0.12914006307208947,0.11160695280559249
168,0.12961389612760857,0.12117533648023478
169,0.12985256243107035,0.11893447821382096
170,0.13218912864617594,0.12458952404000012
171,0.13135297436246293,0.1128796682749664
172,0.13259542785841022,0.12644698659594641
173,0.13679576791721662,0.1269503420346726
174,0.13981027330318802,0.13804354685657874
175,0.13424742467504897,0.11610532753704661
176,0.13875348220685785,0.1254342351499842
177,0.1481526384887983,0.15718009597500573
178,0.15303062132115272,0.12925189241308252
179,0.1493416369961892,0.12596319572913336
180,0.14928435256405415,0.14437903540286853
181,0.1477378475085961,0.13037112699240894
182,0.14297763826988108,0.1418802442695084
183,0.1414121930613268,0.12619943572788983
184,0.1477880370762232,0.13771853817666527
185,0.14902959567167873,0.1293568645545885
186,0.145884471649913,0.13587423726833986
187,0.14647198875221035,0.13801166042391486
188,0.1504829036359259,0.13821060115790498
189,0.16177102049394287,0.14554577125581872
190,0.16300945768027092,0.16053630143474573
191,0.1587541064025639,0.13224528962194967
192,0.15660951820185048,0.14312298614134822
193,0.16333972735942412,0.13645774615309608
194,0.16924358937118075,0.16298935325976516
195,0.16425252651020014,0.14593378586169764
196,0.16110806636434855,0.13375206679199847
197,0.16002825961160144,0.1644487334407966
198,0.16951341331183767,0.13862478076212031
199,0.1721266218893629,0.1774360558110706
200,0.17372372055308616,0.172293969545434
201,0.17387502743519373,0.16330069268817685
202,0.16917300391063797,0.1600961600442806
203,0.17070830328394468,0.16281299335968805
204,0.1730524780128976,0.1691789662416939
205,0.175969753959339,0.16932098227593498
206,0.17158021127803624,0.1769705811234657
207,0.1798296689385657,0.1382333251993865
208,0.17565923550431964,0.17448687217041745
209,0.1731681722662241,0.17367327911889544
210,0.17951895432065812,0.16477827591367283
211,0.18371186193992955,0.18281544619125933
212,0.18132241952905265,0.1698138040402976
213,0.18131695929274474,0.17516795369989777
214,0.18291122985662792,0.17526578779707955
215,0.1817403223743732,0.16447403740605315
216,0.17475816036621444,0.15065316430159978
217,0.16410197948904442,0.14687929246001294
218,0.15602419154047012,0.14263237622914204
219,0.1476741228654659,0.1416738040116046
220,0.1435567355669326,0.14429106408672815
221,0.14950511456548357,0.14451262428356892
222,0.15135649253996156,0.13474742954724778
223,0.15180972285515112,0.13743860450967993
224,0.15166259184479713,0.15109549141720513
225,0.1429995190557673,0.13328543735848888
226,0.1440032313106586,0.12193735704802112
227,0.14595134741515756,0.13402866295170576
228,0.1415225212141383,0.1453380087991822
229,0.13758107982307888,0.14727431964996582
230,0.13357695453851628,0.11678016769693136
231,0.13894796555193303,0.12798221835656343
232,0.1407367814984396,0.13859264765466964
233,0.1433493534056879,0.15804605110127246
234,0.14551321887295784,0.14215214731026185
235,0.14165626316190624,0.10773853821225682
236,0.13794868590710738,0.1282636597752571
237,0.14645684952084587,0.15861986515765691
238,0.14398802701625035,0.13612746866603675
239,0.1413604552827055,0.14604523220491297
240,0.14058276970270012,0.11847147711897424
241,0.14168976995644333,0.14314097566522757
242,0.1389168670697273,0.13382290850592676
243,0.1424186695977557,0.09826440297672856
244,0.14293361125851897,0.18349511580337383
245,0.1473397509984785,0.12058810248159478
246,0.15600071741725138,0.16885734533548544
247,0.17448573872792444,0.17390266959368006
248,0.18751483788188222,0.16396359430703952
249,0.2247630262212883,0.42063306023873204
250,0.17605296799616751,0.1274506160849742
251,0.14520049458749287,0.13681568792229482
252,0.14154578285882893,0.12259480655310939
253,0.13954256717964328,0.1317383701829997
254,0.13558292247765927,0.13188249468450577
255,0.13608322249983046,0.12777521724106292
256,0.13702833143879564,0.1279836079398289
257,0.13444037547559856,0.12090232319712356
258,0.13075083513244642,0.10870503108498612
259,0.12919954607169404,0.11813489483535619
260,0.12917989364964402,0.11011790030804222
261,0.134926098374297,0.12141626823955196
262,0.13725601758161704,0.11281417144408072
263,0.13934438567248275,0.13414934385147448
264,0.1382793207540453,0.11804436204841783
265,0.1374072613511726,0.12802610744522985
266,0.1435235273435438,0.13604743205945888
267,0.1431857699857389,0.13928894095869637
268,0.14546111234717612,0.132385891962917
269,0.14524997662094763,0.12932964786005097
270,0.13476477840619025,0.13224346364165443
271,0.13110842589411043,0.11154841498163806
272,0.12921055958127614,0.12409315892769393
273,0.13005719030146404,0.11659466581685203
274,0.13521317135896996,0.12418367433778489
275,0.13687233610464325,0.1320090072307421
276,0.1332348414646874,0.11681780545445249
277,0.1329268415500935,0.12476549325209485
278,0.1276865663181106,0.11332407772494002
279,0.12620328930463437,0.11033536039804415
280,0.12995250707419276,0.13178784229102433
281,0.13249669357729282,0.12485681915833617
282,0.13351682510128696,0.13600994023805354
283,0.13206767735125827,0.1294465174908796
284,0.12673519228359492,0.11847215757397281
285,0.13075905466239324,0.12466578377262287
286,0.1301523777012297,0.11585589063125233
287,0.12943805972461125,0.10496102299926408
288,0.13027643793218618,0.11294521259080734
289,0.13205681630461621,0.11892502561458566
290,0.127762223855197,0.12575095788455895
291,0.13402983918190478,0.12505588742250895
292,0.1426248712529191,0.13939014151280757
293,0.13769811807240515,0.13062661334037215
294,0.13174418458859508,0.11405180725721083
295,0.14868745735163788,0.11960911432658958
296,0.15504604020564677,0.13145119489862303
297,0.1552453112068603,0.14030752797929338
298,0.15446250151387222,0.14213493305251837
299,0.15330130196244215,0.12530351580718227
300,0.14481472126621422,0.1360181951520475
301,0.14034946520718264,0.12096512821615447
302,0.134161792820592,0.1468891188408224
303,0.152646591748408,0.14322777019538743
304,0.16164439803750205,0.14712590707176393
305,0.153493735051865,0.14237123875398755
306,0.15256911177012464,0.11866658776057641
307,0.1725406587082181,0.4245149048417219
308,0.22716455700562346,0.14557502824510282
309,0.14696855197469297,0.13489577527016094
310,0.1333137318628917,0.1188447493074819
311,0.1339191441609562,0.12992731925767523
312,0.13198161090937832,0.11440903983933773
313,0.13710848384087893,0.11970435520420887
314,0.13692371211916232,0.1393160129579015
315,0.136609165380589,0.13195094211584202
316,0.13512444331181897,0.136060521388816
317,0.135154883724918,0.1194887707964021
318,0.13251586865595014,0.09964949026668551
319,0.1323770849133948,0.11506665630329285
320,0.13326570801407123,0.1314890419486572
321,0.12894142439944759,0.1191888808404355
322,0.1323658716436818,0.13080798394113616
323,0.1338143479659689,0.1250441346873236
324,0.13313326928660357,0.11090034625736295
325,0.13570363926503964,0.12646292014769334
326,0.13220952766583405,0.11183696585959492
327,0.13180590361702166,0.12158936914277058
328,0.1323701924503707,0.10694425957661119
329,0.129143484267328,0.11499999651145822
330,0.1306971412965005,0.1349311959830531
331,0.13445685766667104,0.1253636104378911
332,0.13141610342964566,0.12596606213861125
333,0.12802451005656657,0.11388024054438275
334,0.13114437477277527,0.11706779998945456
335,0.13821454372980613,0.12592835953692894
336,0.13357001175280575,0.11504278572507044
337,0.13048912134232948,0.11699852295037604
338,0.1355608833922471,0.1329533088578892
339,0.1318068805989697,0.12573941645301415
340,0.12971014658705318,0.13520239275933818
341,0.13229646106108392,0.12617514942843988
342,0.1366021870661506,0.13711998932763358
343,0.1272509099154783,0.12396767695493932
344,0.12378964745264641,0.09863505473664734
345,0.12201125892422658,0.09577310208786917
346,0.1209818025757607,0.09781876291371087
347,0.12386296001031435,0.10420335428796608
348,0.12725611919348093,0.1241789846471566
349,0.12542959300281523,0.10603097638360798
350,0.13026500927458565,0.10355929604598454
351,0.1328792811440621,0.13655720671143415
352,0.13387956795730083,0.15020412220174906
353,0.12836700183846395,0.12449221526461506
354,0.1284458417353108,0.12464671742520939
355,0.12525574283169613,0.1447759552225882
356,0.1273963413477468,0.12204694676182828
357,0.1311029222645729,0.11013939431570793
358,0.13133142633046463,0.11299112688488347
359,0.13062359736584644,0.11925440800876813
360,0.12832750855899638,0.11874991681223887
361,0.12684317035593098,0.13882332042906353
362,0.12930729692216686,0.12078191125331757
363,0.1364793815701414,0.13020062284880768
364,0.13972875910351792,0.13797646440453856
365,0.14198219857448868,0.1364093752197139
366,0.13503402005806625,0.1190768101656164
367,0.1369504789225489,0.13327545032269764
368,0.13540088833212185,0.1162523387592424
369,0.12637117041422308,0.11172797566760499
370,0.12791295613435438,0.14309571212967645
371,0.13264961631523428,0.13156330914787165
372,0.1401778665526832,0.12224012717969228
373,0.13655015237206558,0.12799307019482847
374,0.13585889179238694,0.12452614324456984
375,0.14114669451622558,0.11808204390373207
376,0.14421573942073052,0.1205049667039911
377,0.1414920806938367,0.14420231453480453
378,0.15798369139659224,0.15643262501509056
379,0.14745828297307834,0.1515877818851934
380,0.1485463523005934,0.1346541303250389
381,0.16154507513371685,0.1376562246254512
382,0.1834638041647361,0.1219273731759334
383,0.20807391428630606,0.11306901889446691
384,0.1259314576081997,0.12267739714462172
385,0.12868665903211116,0.11685035886991278
386,0.13074222156743734,0.11791186999667792
387,0.1319587801953109,0.1296373725454922
388,0.13217912570868942,0.11704230055083603
389,0.12852595409424566,0.11894719293833532
390,0.13000900092587578,0.11624261442257272
391,0.1296877040178608,0.10549773861548989
392,0.12913485675406972,0.10950417436171256
393,0.13116368136817602,0.12542795362252368
394,0.13242385654950695,0.11899251323825465
395,0.13113486025330545,0.11727665267714198
396,0.13285860273656513,0.12303528880616672
397,0.13538413222947662,0.12714830500197957
398,0.13852646775382885,0.12095178328542702
399,0.13901999281595745,0.12080347826138385
400,0.13896578547360894,0.12344313693992152
401,0.13426447464383953,0.1292681088751945
402,0.13440806002651665,0.12592143173775713
403,0.13294714106191738,0.1131228758896912
404,0.1319893016059288,0.1274376567850079
405,0.1338689521366029,0.1376440829781914
406,0.13784504559436003,0.12081605820507164
407,0.1367611247483346,0.11844668130448416
408,0.13612391748767105,0.12756542164035548
409,0.1366333904967224,0.12217251901186256
410,0.13397469361134762,0.11374307167440677
411,0.1338562199192272,0.1375475185199243
412,0.13167723197397663,0.13017758838214927
413,0.13325843353160946,0.1266575403270424
414,0.13813465683878087,0.14485461974035782
415,0.138685973728899,0.1331275540044577
416,0.13972217473778412,0.1336075563186628
417,0.134103049780968,0.10850794059419218
418,0.1376260559556248,0.137885939815003
419,0.14326443736084835,0.11848165746410719
420,0.14253361212561647,0.12254169165805841
421,0.14141591065388312,0.12218059624097624
422,0.14351109605875137,0.1443305681294217
423,0.149513309811064,0.16042793121691662
424,0.14736117381486388,0.1402853607378706
425,0.14311651296490768,0.135807989887017
426,0.1390318947998311,0.1264460755434202
427,0.13784836432475933,0.12422148585201909
428,0.1384532506481635,0.14942245410597974
429,0.138419004584507,0.12481663238489449
430,0.13157172525803343,0.12217034448317496
431,0.13278966958073976,0.14497276940680717
432,0.12972670621711382,0.1253840230587626
433,0.1313931041037579,0.1256076251204407
434,0.12824860007333147,0.10384127890489754
435,0.12827414476113924,0.12877111667333482
436,0.13511906031796114,0.11744976572357206
437,0.1330324634790516,0.12292728276119141
438,0.1323311501126781,0.1324764172287089
439,0.13341292645410002,0.13392041608891153
440,0.1300305180061016,0.127193508309554
441,0.13290430539005477,0.12161311739504384
442,0.13401832584616283,0.12676075277901486
443,0.13135130454500993,0.10891787036841745
444,0.1272529082820951,0.1486349612321549
445,0.13239227726364688,0.11912809545210994
446,0.12676641934936186,0.1262101922375345
447,0.13605495067022974,0.13400723044220256
448,0.14291530118571769,0.13310018779846658
449,0.1514113772597959,0.1425534471128527
450,0.14174028176614803,0.12393876887863794
451,0.13847067106446678,0.14493695859398162
452,0.15084224957808984,0.13312541371198178
453,0.16367422236944085,0.13972340392473653
454,0.14646217105188053,0.13631167167528652
455,0.1553185491991653,0.13738070032026417
456,0.17724217794579472,0.11157849816798035
457,0.12399030380326209,0.12582372639389985
458,0.12521729947958918,0.10707141732430966
459,0.12487325191700296,0.1200213618664734
460,0.130793671063382,0.10108566915156245
461,0.13310227596121346,0.12733341494153216
462,0.1324688383697463,0.12675321126252342
463,0.13814792818398022,0.11800833515699397
464,0.13515567292364764,0.12839291480552897
465,0.13924755577108175,0.14493333481857884
466,0.13744102106046238,0.13057532820677137
467,0.14021092911751912,0.13215470216997796
468,0.1417993229957555,0.12747447072706922
469,0.14714934671525476,0.1395435174537533
470,0.1476541655890042,0.1476356386903147
471,0.14098248956538886,0.14787633501834163
472,0.1378440113126231,0.1128142719298907
473,0.14148665366353366,0.14800656336964635
474,0.1410979253383611,0.13054889331747438
475,0.14120317836233276,0.1306385476298001
476,0.13795649797188864,0.12452264617608115
477,0.13601708690599382,0.12994766466454813
478,0.1362771501572584,0.12086564837569032
479,0.13674079196797095,0.12142272504089192
480,0.13561735701539535,0.11828835905421504
481,0.13284553914106817,0.11910596614572695
482,0.13913557335710544,0.13448756087009794
483,0.14096784924300645,0.13820978886820523
484,0.140274359537162,0.12404082558502244
485,0.13400087332863697,0.12033468594843699
486,0.13300387150377965,0.12540303893981247
487,0.13091724830196438,0.11658317149979162
488,0.12965784646826778,0.10429358693470424
489,0.1278813859071139,0.13515289524759752
490,0.12607687612553295,0.11220793229040425
491,0.12766487276751837,0.11199754726468059
492,0.12933912528730887,0.11319170748754666
493,0.13173099240953687,0.11415169328662854
494,0.13790711399903305,0.1393764547550876
495,0.13955744328222972,0.14209638088471135
496,0.1410134338128338,0.13424764653548726
497,0.14096747495406728,0.11773716583083536
498,0.13422014244454655,0.11595795877518951
499,0.13480956680911907,0.12820723960977326
500,0.13188828332878227,0.11306402139547968
