epoch,loss,val_loss
0,0.28746519295619527,0.1988006021347069
1,0.21392132369301814,0.19639525936564486
2,0.2086762758411819,0.20973235510126517
3,0.20174811542439786,0.186844374564539
4,0.1994678254684417,0.1834901021997424
5,0.19683214955276446,0.1825668170069256
6,0.19681512944406276,0.18588688411271775
7,0.19418787223110207,0.18393158275763968
8,0.1929345732335571,0.18436894653439037
9,0.18566488690549035,0.15476909963850655
10,0.1697223538083969,0.1436648719610959
11,0.16710476821856654,0.14152175346986123
12,0.1651095630522009,0.1534826979101526
13,0.16423864269836413,0.14708796607002628
14,0.16158362435366364,0.13167448830092138
15,0.14076372483570734,0.12279712216020694
16,0.13704652166228184,0.12987176390532448
17,0.13700995761587964,0.11405807562528929
18,0.1379900680417963,0.11108363624012577
19,0.13687811122597265,0.11658594427994375
20,0.1392542512489377,0.13917474970765356
21,0.13692760318994904,0.11188828944555648
22,0.13290770674904315,0.11246144063378
23,0.13662994599597658,0.12032349081974347
24,0.13414073025314116,0.11652303830888923
25,0.13539453918297736,0.11406769011311674
26,0.1349162721128059,0.10677636707230302
27,0.13440633632594629,0.11594541625264014
28,0.13388684919302324,0.1064106396974245
29,0.13394741835989793,0.10978536785180648
30,0.13500749216294938,0.11006090824476414
31,0.13423213530018674,0.1044933799735821
32,0.13378483938982336,0.10942797389392048
33,0.13479920389582578,0.10658120523476543
34,0.1349470833565494,0.10248716385840209
35,0.13307023253903283,0.11075429933784652
36,0.13296074396352753,0.10866284152887164
37,0.13348447145510903,0.11491815284776764
38,0.1336808639516632,0.11490808087737214
39,0.135028550710031,0.10415793133526437
40,0.13381155881526663,0.1131342124777022
41,0.13360186209014838,0.1129288048228885
42,0.13449498955563033,0.1159396518659321
43,0.1335052480075577,0.10177147222285529
44,0.13228356508050468,0.11303110642468939
45,0.13330919798418844,0.1087084786070621
46,0.13579970304731181,0.11509647309200027
47,0.1347570564207122,0.11746105602477878
48,0.13351614342285117,0.1119528105973424
49,0.13501658601115188,0.11319111815116702
50,0.13436235606467561,0.1114565871553216
51,0.13535409502750687,0.10890412374738746
52,0.13280770346355306,0.11199264715381106
53,0.134649473386373,0.10683002434096874
54,0.13569629819895193,0.1144285336052221
55,0.13417776702068823,0.12108543188902583
56,0.13403299214650957,0.1196509943270432
57,0.13616863659637465,0.11489850563652033
58,0.13343135712502766,0.1045795725016505
59,0.13228314217206857,0.11694518532921218
60,0.13412282815437207,0.11348639793591295
61,0.13306664128163703,0.11944460614440118
62,0.13322715255155193,0.10373155359973389
63,0.13169303659597237,0.12372842296921714
64,0.13423745749627142,0.10566430624094032
65,0.13349398536334714,0.1071109774508132
66,0.13335863880222562,0.10051207522962119
67,0.1340237004582504,0.11637334468180052
68,0.13446489664866887,0.11417209727437344
69,0.13129641254058927,0.10029786078913465
70,0.1325884697626265,0.11553001006806854
71,0.13261599564034524,0.1073612575355044
72,0.130379057296211,0.11388363762300187
73,0.13317150668240338,0.10058512585199855
74,0.13431280211294241,0.11176361237250008
75,0.13111918240940695,0.11031508356912872
76,0.13442253008532562,0.11857139736728173
77,0.1322338023842622,0.103725524805033
78,0.13333219449946268,0.1059966424460442
79,0.1328578653683464,0.11211528700367765
80,0.13309674685279593,0.1261215666603578
81,0.13504734213909117,0.1157093261280199
82,0.13383033411134426,0.10563535801008864
83,0.13426820716087678,0.10635733670295977
84,0.1345458872992101,0.11366691281422309
85,0.1339788283732197,0.112770749299824
86,0.13291219812784316,0.11045555774627037
87,0.13279355527032272,0.10664224210712644
88,0.13241946396288917,0.11272973017366747
89,0.13311780097665454,0.11430218738457679
90,0.13327782073791167,0.11043566359631529
91,0.13292331909171765,0.12298441023867206
92,0.13340085303132013,0.11210286139305878
93,0.13480699052803033,0.1142983215967524
94,0.1352086176214407,0.11499608372733154
95,0.13397736367199115,0.11042654414609111
96,0.13535067904666007,0.11519729239686369
97,0.13556178709010394,0.10679201001040063
98,0.1368796643260434,0.10549735170936353
99,0.13420428852554414,0.11607480581490276
100,0.1348206834782592,0.11351294488028985
101,0.13532968217117772,0.11473898640973532
102,0.13756568708999142,0.13336001592782679
103,0.13436958334558577,0.11276212859134412
104,0.13552343766029784,0.11905757721516531
105,0.13240495658784604,0.11082896288100627
106,0.13371799477906204,0.11032823106426586
107,0.13287565169976748,0.10818545032059963
108,0.13237790965897928,0.1179439109921552
109,0.13236528983394846,0.1241260584616023
110,0.1382400808010319,0.11808651761852042
111,0.13418884136027293,0.1271662111277031
112,0.13634058301023141,0.12085302860535747
113,0.13854525885205443,0.13121577476159596
114,0.13721868584306837,0.1211897983107737
115,0.134970469956545,0.11919342276896293
116,0.13525774934179216,0.11577922901605457
117,0.13442777852722412,0.1072841789648964
118,0.13345262269266517,0.11272769093827706
119,0.13399921525851358,0.11922170870785585
120,0.13390646214552934,0.10532174730750476
121,0.13231704146672096,0.1213977459126242
122,0.1363861941493111,0.11517840432303762
123,0.13715050852685284,0.11541539782300193
124,0.13490861233732432,0.10315313607768517
125,0.1350164962790793,0.10832419480285506
126,0.13412398794551103,0.1124072682417609
127,0.1335987051586517,0.10655308358933224
128,0.13630232076534182,0.11740061517469494
129,0.13607190189073332,0.11500554841196063
130,0.13414589040357175,0.10889865977074785
131,0.13323827430283766,0.10160667459508411
132,0.13382528252523837,0.10609363169323982
133,0.13611364286777686,0.12450058077252792
134,0.1403894201308799,0.1219683133144255
135,0.1373504880484674,0.11252099604308848
136,0.13544077565781681,0.10850353727520527
137,0.13643706055750265,0.1134947492210051
138,0.13825544393401418,0.13341340478222638
139,0.13798710248702234,0.10260851771872119
140,0.14031055446466606,0.13180420628090941
141,0.13740027351700085,0.10772776635724746
142,0.1389391478315127,0.10174079339676337
143,0.13561464932033593,0.10108512326386143
144,0.1362874651099559,0.10033453679481175
145,0.13867436531629918,0.10627678646996847
146,0.13757881407646105,0.11462988730426349
147,0.13493071566876458,0.10973430030948247
148,0.1377588940547217,0.12613743302523364
149,0.13560367365769618,0.10489387678500606
150,0.13652837301512735,0.10583783983459148
151,0.13732172013987437,0.12225041055669653
152,0.1361542327539791,0.1305417198165103
153,0.13556946698036357,0.11616041387423015
154,0.1353134406600789,0.10810120823126157
155,0.13800714047158882,0.1155062641915227
156,0.13573691354180165,0.11027107833728303
157,0.13885920742053906,0.11285720292451608
158,0.13708237521320557,0.1102578943747867
159,0.13517542657635515,0.1339111177481874
160,0.13470331864585106,0.12590335154813764
161,0.13296023760143044,0.1281549263404137
162,0.1362025243661898,0.10443278935655577
163,0.13561289886041009,0.11539086689213283
164,0.13345067844307834,0.12144199034255013
165,0.13386366621339865,0.11392413612699857
166,0.13496166483176242,0.11828889665764131
167,0.1345846780342422,0.11083551661835776
168,0.134143626906449,0.11726753069850747
169,0.13524121579954965,0.11702010932847531
170,0.13405865533732242,0.1105043093484297
171,0.13390637669947933,0.11118224146568186
172,0.13634894653152618,0.10804112748048794
173,0.13309415852169307,0.11721224825457645
174,0.1378307889660804,0.1086297596337248
175,0.1349029452998558,0.12443002045082059
176,0.1362608985914241,0.10818999405083188
177,0.13514054802845152,0.12232765041152732
178,0.13380151876420665,0.11749202507908327
179,0.134940727551977,0.10991246849661036
180,0.136266901409082,0.11498668175326647
181,0.13395591475982205,0.11192091840220388
182,0.13339638685862765,0.11952252096865879
183,0.133491620582471,0.12516957968594286
184,0.13308291905242697,0.11265273974711394
185,0.1359119606111124,0.10757459502513102
186,0.13373713219483152,0.11333823137571439
187,0.13534496022795467,0.1001665016027456
188,0.13325059015133842,0.1097641236300596
189,0.13367564291406192,0.11150748372102112
190,0.1327672190994048,0.11000661433516531
191,0.13289906139417684,0.11861284830685273
192,0.13413858440539855,0.11488948329763497
193,0.13369614545932954,0.11466664476478768
194,0.1340880902578012,0.1062656675993381
195,0.132087773172926,0.11602544274546707
196,0.13509761889556868,0.11527386575405518
197,0.13446919617352723,0.11149881029046849
198,0.13312214609083411,0.11050421319182868
199,0.13435452454704777,0.11358814339084733
200,0.13594043699262426,0.1332744347220113
201,0.1362271850184501,0.11290030258753778
202,0.13325988878313305,0.10958999164541466
203,0.13403054276962964,0.11698815576423983
204,0.13541608915222084,0.12401650416976731
205,0.1349185776201079,0.12120002955319141
206,0.13449448835048033,0.10970629458009762
207,0.1345974724528024,0.11743189928039534
208,0.13394147219111005,0.11329404345659927
209,0.1346053459478007,0.09890239192089799
210,0.13526568251003543,0.11534463985243756
211,0.13581276460706568,0.10602780113061656
212,0.13559306037125346,0.12098419771432296
213,0.13652755867084376,0.11029129525509097
214,0.13548830408063098,0.11923776965192538
215,0.134685495389615,0.12353138015918971
216,0.1372022900530536,0.11216106720190172
