epoch,loss,val_loss
0,0.5613877399862527,0.4850457530371674
1,0.48207179293167485,0.4777475708850087
2,0.4800500131244187,0.47636577341155734
3,0.48041363800172326,0.47417118599683916
4,0.4784428069440962,0.4855238392349294
5,0.4788929459383543,0.4748177293161755
6,0.478895873438826,0.4808016527846938
7,0.4788200919457572,0.47545025900488497
8,0.47833390339768284,0.48155598576462166
9,0.47891566760057835,0.47576174314039
10,0.4785293086731939,0.4732788674174657
11,0.47886783767232505,0.4833519231078186
12,0.47983034908009187,0.4735928569474179
13,0.47913768372947363,0.474645987329468
14,0.47798242506315763,0.47574558545965423
15,0.4784148626690574,0.4737293732947219
16,0.4780946560472036,0.4778198007061995
17,0.47755972624158594,0.474163921498462
18,0.4785260191138128,0.47852671461587076
19,0.47868776945568486,0.4800456301283441
20,0.4790754866757267,0.4807759633474493
21,0.47895246013987075,0.4770887844093973
22,0.4790836338468974,0.47816099900378894
23,0.47899260058058063,0.4788574940262578
24,0.47875597288044425,0.4731123814595997
25,0.4785623999832155,0.4765889054456845
26,0.4785532698833304,0.4846774369078352
27,0.47849094415073107,0.47442914793692714
28,0.4786580497269436,0.4769519813999757
29,0.4784663078977431,0.47207838677946
30,0.4788231070426633,0.47508781600299554
31,0.478765072284652,0.4748200836055563
32,0.4789659656185231,0.4787718562413692
33,0.4787578516059833,0.4768637422275242
34,0.47891929696837393,0.474863816337879
35,0.47885985606961207,0.4809930391592027
36,0.478862913166114,0.4794252987865773
37,0.47807445193080306,0.4771583727616067
38,0.47814581660534455,0.47716550516066064
39,0.4787845322482592,0.47778915505100633
40,0.47871750128640833,0.4764768821852548
41,0.47883729867750313,0.4735318746214884
42,0.4793545047132422,0.47353079127061054
43,0.479291952008919,0.4740366747789526
44,0.4793256965281961,0.4790464401386249
45,0.4796238495386857,0.474040761578243
46,0.47936141762516193,0.47743375490007195
47,0.47949162668747297,0.4749726320498556
48,0.47917967134242434,0.4759853585978239
49,0.47890493372599663,0.48251533691772064
50,0.4781892404948874,0.4801520488350619
51,0.47829664150159135,0.48691749671546136
52,0.48007652237356235,0.47409369123198425
53,0.4797385876699031,0.476924599675372
54,0.4802870552817123,0.4783605115095649
55,0.4805146853367297,0.47673113692343094
56,0.4813104716898631,0.47422384528918066
57,0.480273819322304,0.4761502089092086
58,0.48139005064440193,0.4787345307496183
59,0.48226054277208497,0.47743655311939
60,0.48826387647292213,0.506614206857162
61,0.47630014152025624,0.38261207660635155
62,0.3518403403276353,0.3035560427402641
63,0.1937848786822707,0.181233835989505
64,0.17418929222497723,0.16216264205272496
65,0.16789946198272857,0.15295918403456507
66,0.16867539382500232,0.1660667489670164
67,0.1647188700616455,0.15308690755594972
68,0.1638384669971504,0.15682822712877179
69,0.1607431798285956,0.15938981345486433
70,0.16334346348909642,0.15604616616923883
71,0.16522592329959884,0.14691168944268312
72,0.162386082890008,0.1574485496262819
73,0.16214504781410657,0.14408190380237942
74,0.16475674397439408,0.15630574928980318
75,0.1660742314218236,0.15194914287107614
76,0.16798351896252278,0.16450661741896888
77,0.16972765625476074,0.1705812519943987
78,0.1747679532967883,0.16340386609957738
79,0.190748336277515,0.19509384143089062
80,0.22707872874111676,0.23277748805994863
81,0.2574562437171273,0.26902095691228156
82,0.28718671527245254,0.2943070956991711
83,0.30093502103805925,0.30034125826212016
84,0.27487123514012657,0.2689207837679486
85,0.26156357151093623,0.25547614392560586
86,0.25732984649334595,0.2582272243669114
87,0.26677630616011,0.260248734229836
88,0.28086648860590446,0.2752144186865559
89,0.2881493130021339,0.2863270381043629
90,0.2867173358833761,0.2843015697426747
91,0.28653104057748446,0.27686649496242954
92,0.27828044580112543,0.275974605482398
93,0.2749845913762478,0.26282467353786176
94,0.2691376598047124,0.25311305313338045
95,0.2649928258298684,0.2509733071784476
96,0.2557588858927468,0.24024286635672848
97,0.24497689922555363,0.23914474728734078
98,0.23058131128120765,0.2070396904787306
99,0.2194795226105016,0.19526193189216395
100,0.19436581801774977,0.1642133839657764
101,0.17794954272316132,0.17627846151472737
102,0.18159194056281178,0.1563809916094804
103,0.17253895718261875,0.1491454684402685
104,0.1640046650765659,0.14078677375084223
105,0.15845068333019838,0.13071145550674967
106,0.15075229475502488,0.13675991478710545
107,0.1494860911695696,0.1564114281132923
108,0.14932321647493293,0.1291137380671012
109,0.14558449642752094,0.16607812184608162
110,0.1476036773340927,0.14054621990120308
111,0.1481320375083781,0.12571806672904656
112,0.15170604792489803,0.14435865054378946
113,0.14979588562886206,0.13155576523802087
114,0.14702185275231144,0.1550665646850263
115,0.14337897550561826,0.13562637542822084
116,0.14480824358195518,0.14349634132708916
117,0.15629753407588204,0.14978138451488732
118,0.158354152211373,0.13685804717801364
119,0.1557933532809325,0.1505686474850823
120,0.16118400949809095,0.15233089065659958
121,0.16184076401207753,0.1552158953841032
122,0.15588122203076582,0.1487065712614801
123,0.1491862938022442,0.13424106562640975
124,0.15605995873753115,0.15000218553461234
125,0.15502714460416378,0.14473043797918447
126,0.15766587794172487,0.12983021766370736
127,0.15711108636822727,0.10066895704090172
128,0.1469714104098906,0.1312178963561555
129,0.1465817718512768,0.1494577198268018
130,0.14310149225792726,0.15790333351283536
131,0.15186940295268878,0.09937112801947176
132,0.15468752695073326,0.12097107631396194
133,0.15193398917714754,0.11811440396280673
134,0.14701939990325608,0.13744458169239002
135,0.1643980271060118,0.13434812179586506
136,0.17461616981277267,0.14064790475481406
137,0.17476097702515497,0.11417739475535518
138,0.18698984310686065,0.16584435956818716
139,0.2069905235154404,0.12745276217561308
140,0.1835098404208009,0.1434199889179469
141,0.21552901697173107,0.2596969570150127
142,0.269803998436478,0.15860249882456628
143,0.1561896414797512,0.14708348798206122
144,0.13925557586250545,0.11757622651561754
145,0.1317419449208404,0.12189164619537066
146,0.12413148406884081,0.11730089228550279
147,0.12415687928049209,0.12223234885587594
148,0.12477796599507142,0.10300987069189972
149,0.12764902092772518,0.1273960215528367
150,0.1301766111791658,0.12252726347054095
151,0.13532418152875753,0.13771346467234719
152,0.13478917713990982,0.13390496810685018
153,0.13344786686303137,0.11770929878352661
154,0.14099184482348717,0.13804322707554254
155,0.1447127370430316,0.12691032554845502
156,0.1481003453798717,0.15404576902302025
157,0.14750400872872793,0.14567476947333932
158,0.14728344327432932,0.13836643422035694
159,0.14533917336381502,0.14292088379729143
160,0.14677829257875896,0.13704409550260915
161,0.1493682593649192,0.15078998922172643
162,0.1476747802734899,0.12809681323163605
163,0.14565656390145337,0.1353925877995348
164,0.15228661197385818,0.12585409747726256
165,0.154797032088351,0.14771259514925136
166,0.15157393907471525,0.12206029549135217
167,0.14933922005404862,0.16360868653539795
168,0.1513460375648513,0.1336717304921376
169,0.1552024619172898,0.1474376524891925
170,0.1577572926348872,0.15090422874467996
171,0.15880425304448387,0.14895476320289494
172,0.15637828393889178,0.14702328095755055
173,0.15547934087286655,0.1459287603656984
174,0.15054171061594424,0.14687500254860428
175,0.15444482000266238,0.15694805803902054
176,0.15211143671906444,0.13701024472172466
177,0.1571732755366275,0.14072630839641392
178,0.16321353141447717,0.15556523443185727
179,0.15926601760964884,0.14712429216577014
180,0.15695615685124287,0.15045779429511377
181,0.15467211719063356,0.15459829044323223
182,0.15449365950840935,0.15009444739137376
183,0.1523609433880003,0.12617905441474614
184,0.15323887577207446,0.1428369134429316
185,0.15068910258720153,0.1510491271950922
186,0.154160064943641,0.13925936274177556
187,0.15136723338569003,0.1490791274180258
188,0.1509710072125081,0.14644815781004522
189,0.15747205277295898,0.1451034976350292
190,0.1542838319546456,0.14183943970356763
191,0.15324528226189665,0.14756476976736005
192,0.15609176565321992,0.1378430314567866
193,0.1584518254994393,0.14497974176833078
194,0.15783886508130246,0.13097188202480492
195,0.1532310906151454,0.12760540326114894
196,0.14689272653749236,0.14145776983453423
197,0.14085528512688564,0.1403513735934986
198,0.14509702959863974,0.14929283028078907
199,0.14606791825817644,0.12099154652835067
200,0.13617591550060026,0.13307668849084917
201,0.14456448001231698,0.1381780803732827
202,0.1487315980394443,0.15105535540415155
203,0.1576186553638378,0.14477379231962897
204,0.15871774367422317,0.1513931526969339
205,0.15877107320000514,0.16514206385414903
206,0.16427223468653496,0.16226113071898918
207,0.16012528674791662,0.1504080879965822
208,0.16654494428615585,0.15117189268145678
209,0.16047574560359704,0.17792623283689946
210,0.1672374452564785,0.1387687566342463
211,0.15901468368433266,0.14226607851325385
212,0.16828289102736138,0.1602588470116693
213,0.17585946132036612,0.13640332590691576
214,0.16222800412993255,0.1533968009777961
215,0.16413170215692358,0.1363424133706394
216,0.1634799408779251,0.19470595224409848
217,0.17908070268605253,0.17960625597597016
218,0.17615951747476435,0.16567912517849065
219,0.1627635882198096,0.1543220264429922
220,0.17232426213358137,0.16133163804695563
221,0.18783791671148975,0.13457897225513926
222,0.172384254184725,0.15371321035871002
223,0.18071848041505265,0.12963288065101936
224,0.20216628240285922,0.13184007796464045
225,0.13664597514972127,0.12723779770080368
226,0.1290845410893861,0.13216802000928884
227,0.128788808555745,0.10950062494510351
228,0.12940379507321534,0.125369823310633
229,0.13033752683267225,0.1381884453422739
230,0.1343752348201452,0.120339892028398
231,0.13704633029054203,0.12094048390072354
232,0.1366826886360308,0.1322080460395414
233,0.13549167888877775,0.13901890259774163
234,0.13586602149476154,0.12000419958637941
235,0.1387936360508704,0.1329861271894157
236,0.13914791350777772,0.1182534855679442
237,0.1364021724749574,0.12179828947961284
238,0.13443721114969748,0.11244818744644369
239,0.13220001205051546,0.11816893420942957
240,0.13641447976505539,0.1300831397182375
241,0.1340740755539861,0.11690819036471345
242,0.1304424375259905,0.11186676989320515
243,0.1287034475665203,0.10547893838376254
244,0.1272748935905149,0.11543773478095515
245,0.1279938996082349,0.11905827181562252
246,0.1293677416243713,0.1292240120699863
247,0.13587630891816602,0.13723369668390023
248,0.13245209175155317,0.11818189334474216
249,0.1344522767447882,0.12064635217330921
250,0.13155253288402355,0.13398856069854423
251,0.1322207998165743,0.1160590850822363
252,0.12819211290096588,0.11825530620875467
253,0.12755831095168915,0.11446541480149636
254,0.12520296687333227,0.1314541556664405
255,0.12158335678333002,0.08711320184165319
256,0.12256965076894782,0.10190066756958462
257,0.12112855789163035,0.10294935798776743
258,0.12006681259694717,0.11552965058265188
259,0.11984882903077619,0.1225893723219045
260,0.1226372180564655,0.10543543799547295
261,0.12355005839090648,0.1153813595424135
262,0.12152581125331058,0.09401134934332207
263,0.1224700337012323,0.09379052003844103
264,0.12181675444237239,0.12163874249384925
265,0.12453681586695899,0.12814723696756664
266,0.1252676895815882,0.10873970643991358
267,0.12456729430720198,0.10661505382058183
268,0.12428584947979612,0.10847167376114236
269,0.12735500598220612,0.0896505303827909
270,0.1285877190470743,0.11271806451144327
271,0.1292050679733189,0.11980013268240437
272,0.1263314930232261,0.10918294800696829
273,0.129797161533702,0.1192239431080709
274,0.12950514350160897,0.09748814454347765
275,0.12390878841245204,0.12247314993306795
276,0.12678220412797397,0.10403184069360252
277,0.12634122647124704,0.12538913580946973
278,0.1245707050352979,0.08859678665683227
279,0.12694758640752613,0.1189651986688446
280,0.13037916943788241,0.1070257541036267
281,0.12904571018797412,0.10814691971819893
282,0.12781990241470764,0.11420341790451623
283,0.1337320610857029,0.12320697474004531
284,0.13686145461803909,0.13368496822153572
285,0.1370904620328872,0.12042342740880663
286,0.1335391497505988,0.12308593961133106
287,0.13118190152777565,0.14120381357237968
288,0.1321183532107172,0.12200688441367062
289,0.1309858437904494,0.12997977961892676
290,0.13260628758884258,0.12724542998265542
291,0.13526211352013856,0.12016736766604241
292,0.13946411898322433,0.12756490278709753
293,0.14571985818868538,0.1233247480845489
294,0.15334232551135796,0.1351721350047752
295,0.15583226404828038,0.12432423854965625
296,0.2069969150088102,0.12289735894200364
297,0.15542162907161683,0.11860933541757626
298,0.15242863341058185,0.11523364263791783
299,0.17296718136012126,0.4487131360297892
300,0.24584151655554676,0.15654961578400942
301,0.14313288271832142,0.11840797915478438
302,0.12603016196490288,0.12085740875685036
303,0.12292660329994157,0.11863970520135071
304,0.1244694084185157,0.10754998033570792
305,0.12997138768517905,0.11585541539358735
306,0.13592460138394202,0.1205391685030737
307,0.13738585647931106,0.13808134265814415
308,0.13805669222137243,0.12457484206818367
309,0.14228171084245902,0.13690416612489636
310,0.14914260409492477,0.14350945914741944
311,0.1536326527142887,0.13095599832197014
312,0.15511155837207294,0.15214741476991558
313,0.15484787208094394,0.14841979919640963
314,0.15897839229932126,0.13801801051788662
315,0.15196784804884098,0.13362762637748055
316,0.15415672455831683,0.14899965454460415
317,0.1584716928478101,0.13855118228632723
318,0.15932659811074498,0.14917998356948994
319,0.16050185615138757,0.1516392131019222
320,0.1571008011811881,0.15039001622817227
321,0.16015249194739628,0.16589153100513715
322,0.16230895162986622,0.15903638819586882
323,0.15924963422066016,0.14976582104000596
324,0.16052858092242198,0.14382413216670292
325,0.16066942718341579,0.15632222057706086
326,0.158532177989217,0.16610992673399322
327,0.15761119956902558,0.1493741645585766
328,0.15545968737283486,0.15111609700046943
329,0.1544014063509677,0.16136240209405028
330,0.15255131813095246,0.11799319831752927
331,0.15346573346810374,0.14668227229987718
332,0.1517227551818704,0.1374762480830055
333,0.14918168436447016,0.14833325518099644
334,0.1472703833713663,0.14906042905990402
335,0.14098681059839438,0.13328437630642845
336,0.13740282747254287,0.1206128212969512
337,0.13832326775355686,0.13889180859455275
338,0.13999548583305615,0.11688782129474955
339,0.1361265846972557,0.1260041159760698
340,0.13498975080754355,0.12716089804739866
341,0.13853781023542944,0.1333181313058948
342,0.13527317210543546,0.12574903736362894
343,0.13026688604367723,0.11784729479731965
344,0.12675506516481094,0.12564400187160618
345,0.13231582705863565,0.10745007793500655
346,0.1300280246285083,0.1286620616783471
347,0.130626070098006,0.11467792445407106
348,0.1335980744033361,0.128251658312994
349,0.1317067871437513,0.1464910953766545
350,0.13051020130395985,0.11509947653421758
351,0.13044442418965696,0.12123820550251685
352,0.13372010741230966,0.1282451229365491
353,0.12940497715160143,0.11160781202160099
354,0.12857663727921548,0.10226496720088216
355,0.12970835317095977,0.12451000042971233
356,0.13202276720488956,0.10811054437835102
357,0.12960118127109813,0.11050754488572984
358,0.13096772257587036,0.10872240120511217
359,0.13418949600294244,0.1258897421780118
360,0.13597409881288103,0.14855277904066028
361,0.1323575548511996,0.09891296876704683
362,0.13085205685034645,0.10747145994874371
363,0.12964593579800582,0.13991863673351465
364,0.13316615159920364,0.1375621543181347
365,0.1386751381964754,0.12131591635773101
366,0.13859988322301353,0.11390896351462569
367,0.13247921165647647,0.12652417912714672
368,0.13615362462904051,0.15139472368742973
369,0.13769473152742873,0.11254866077214032
370,0.13537507163856527,0.1335558393924558
371,0.1359634218301228,0.1272212684495579
372,0.13968285252090742,0.13726947000272272
373,0.14201031844142817,0.14159036170758876
374,0.13629372181485502,0.13296237254505
375,0.13701453617067455,0.14820260435766183
376,0.14471061342506766,0.14307917479275717
377,0.13652517183793247,0.10158583101387934
378,0.1328982462396296,0.11216068448941352
379,0.13505174205314627,0.10142512832957172
380,0.13853105696009027,0.12098411870524935
381,0.14018619034013494,0.17219476444733453
382,0.14238130307192806,0.16027463836729197
383,0.14874892702384246,0.11198214509751539
384,0.13919769794189576,0.1256784186143525
385,0.1401646289673688,0.11007018817181463
386,0.18397527099024955,0.39673377631118945
387,0.15610809832942382,0.12663765471566824
388,0.12711114919097494,0.1203202793834806
389,0.12929941339494228,0.12296686330905747
390,0.1307289274297744,0.12814874847690796
391,0.13357037667640678,0.12581181703186825
392,0.1344718667689702,0.1359887809243462
393,0.13258557098148632,0.11902328604727913
394,0.13214103470472313,0.11040155739533027
395,0.1316177361606837,0.12542688094473486
396,0.1335158169025378,0.11410786943023564
397,0.13309023983711057,0.1172862228744126
398,0.13372101563272432,0.1242360591112203
399,0.1398651393876373,0.1278035241548904
400,0.13996122632142927,0.10568732915309441
401,0.13638744287067753,0.13452939971422903
402,0.1358543161621435,0.13366798249138748
403,0.13860260566575922,0.108531855105554
404,0.14071760032412342,0.1393847244879159
405,0.13972763075447864,0.12539062785438976
406,0.13962156100155448,0.14184749641565234
407,0.1443211425938528,0.14934513028108332
408,0.14507855374297554,0.14399461300592303
409,0.15183051849464527,0.14670826199493167
410,0.15074059857929545,0.13463306558724925
411,0.146392313431469,0.1403707279084984
412,0.1411195610769742,0.12274823186076712
413,0.14159482429555947,0.13089113651341872
414,0.13622213557338733,0.1241925116202073
415,0.1334294945263653,0.1268942807790042
416,0.13521906344307888,0.12631487488252682
417,0.13837096502752805,0.12974072758170122
418,0.13676197374526927,0.1164926529024752
419,0.1381740059099085,0.12232958916471807
420,0.1392304756545382,0.1204765451970586
421,0.1342921037908843,0.1199898619113612
422,0.13485074242194303,0.11329870075340241
423,0.13385077826470304,0.12110951053009507
424,0.13191040923638786,0.10906073391061179
425,0.12418423881002372,0.11192520917191125
426,0.12691639466799326,0.1268348855090687
427,0.13095022934517986,0.11040368926694474
428,0.12668505004293723,0.12632088646022183
429,0.13002605257715158,0.11830833680110366
430,0.130420599713457,0.12768246384003826
431,0.1323780550016202,0.11460001002217995
432,0.13740587129974538,0.14661295583799494
433,0.13887448669623415,0.11664960017661552
434,0.13525643209806926,0.1290510064953881
435,0.1367770764681933,0.12917481835023004
436,0.1334578322915198,0.12165842342889488
437,0.13082991393028404,0.11838011989912464
438,0.1347923521950043,0.11834620142204139
439,0.13675974279368142,0.12394448103943301
440,0.13608422705666912,0.1359020850864469
441,0.13123895335707256,0.13250324947446374
442,0.1307842748985588,0.11446408799834014
443,0.12859863640783692,0.12005962053315321
444,0.13657047135307254,0.13079494114409493
445,0.13950685957531564,0.12395537154191859
446,0.13854715150656652,0.12087733880708607
447,0.13339348467026682,0.13388428537743996
448,0.1321705869413156,0.12033575231646024
449,0.12735555360881354,0.1044873932425018
450,0.13295953883100853,0.12661349620514248
451,0.1278177113931099,0.12705814120989667
452,0.12798225594986734,0.1133299875231173
453,0.13184023210160928,0.11703690773004044
454,0.13305333368688654,0.12368464443447463
455,0.13203986398845935,0.1027559344998569
456,0.1331232021556055,0.12476486429842608
457,0.1330522278712379,0.11318564856602813
458,0.1383934263899315,0.11943009224056539
459,0.14301653200690503,0.13459883706722095
460,0.14159685872691713,0.12743210808418826
461,0.13946871672102587,0.13554494190540667
462,0.14434292523873796,0.11481812831540698
463,0.14200820554670193,0.1283117032476834
464,0.14333772418393695,0.1411053821115204
465,0.143819954436865,0.14351327446801698
466,0.14410120511440921,0.12752141594745647
467,0.14328948103433414,0.12438130142327454
468,0.137317459202475,0.14187823076039294
469,0.1476798866459315,0.12229583924011443
470,0.14667915760708464,0.12183505569561881
471,0.14670242801856556,0.16812746105649476
472,0.14123479377546852,0.1305457968573544
473,0.14971812711738283,0.11232187145557945
474,0.1424228988653369,0.1481790047759321
475,0.14946645406260192,0.17284862298427273
476,0.19337872825533176,0.12639753222347905
477,0.13153339212508702,0.11540399684078974
478,0.13001663671385089,0.12477542078320963
479,0.13086737745659624,0.1285319610336397
480,0.13158190335563238,0.12096258548647754
481,0.1347120450310808,0.12414918732318525
482,0.13650537336723123,0.1285062079224515
483,0.1367056168776622,0.1344142616053877
484,0.13741105598666303,0.11703862887884371
485,0.13425425122634208,0.11781604236378478
486,0.13526827084432116,0.12419095634238025
487,0.13651289563361022,0.11618268355762479
488,0.13584596157478962,0.12737582353456056
489,0.13442380390435957,0.13928218347615112
490,0.13220194455006903,0.1209062302239598
491,0.13641979103739693,0.13244294474561477
492,0.13771981280818166,0.1370371102686933
493,0.13673254244809718,0.1269454139372262
494,0.13490475870841603,0.13292414605052996
495,0.1378594931247804,0.14075426542109737
496,0.13807209013856286,0.12189684349576037
497,0.13923174599341923,0.125085305548975
498,0.13529323655471717,0.12982190081639466
499,0.13640729602661542,0.12075217051729971
500,0.1337934789016283,0.13921868227181136
