epoch,loss,val_loss
0,0.6516328646209505,0.6500689791043599
1,0.6501639439264933,0.6500473158359528
2,0.6501076425976223,0.6501237679719925
3,0.6500818588601218,0.6500287036101023
4,0.650069666173723,0.6500850378672282
5,0.6500611209604475,0.6500735934972763
6,0.6500515579779943,0.6500299420356751
7,0.6500493033859465,0.650018184463183
8,0.6500446738137139,0.6500327707131703
9,0.6500387096007665,0.6500380191405615
10,0.6500372812747955,0.650046634276708
11,0.6500354092386034,0.6500275594790776
12,0.6500351839065551,0.6500140625635783
13,0.650032428767946,0.650033031463623
14,0.6500311445792516,0.6500149265527725
15,0.650029767036438,0.6500210082928339
16,0.6500282349851396,0.650024552822113
17,0.6500328016546038,0.650026686946551
18,0.6500260955095292,0.6500177428722381
19,0.6500259307755364,0.6500420617262522
20,0.6500245779222912,0.6500127198696136
21,0.6500238376988305,0.6500111194849014
22,0.6500236714813444,0.6500091508229574
23,0.6500226617654165,0.6500102013349534
24,0.6500226607587603,0.6500102733771006
25,0.6500215873585807,0.6500159004529317
26,0.6500214193662007,0.650026584148407
27,0.6500209681987762,0.650007905681928
28,0.6500214053789775,0.650069339911143
29,0.6500203274091085,0.6500091669559479
30,0.6500203399923112,0.6500108830134074
31,0.6500201954974069,0.650006711324056
32,0.6500213476154539,0.6500180789629618
33,0.6500194280809827,0.6500231497287751
34,0.6500199136734008,0.650036874016126
35,0.6500190279748704,0.6500286402304968
36,0.6500192551612854,0.6500069276491801
37,0.6500189698669645,0.650006686091423
38,0.6500188248687321,0.6500083371400833
39,0.650018650955624,0.6500073473453521
40,0.6500191968149609,0.6500095502932867
41,0.6500179380840725,0.6500558026631673
42,0.6500171189573076,0.650011436700821
43,0.6500168571207259,0.6500104429721832
44,0.6500161499712203,0.6500382057825724
45,0.6500163668791453,0.6500088309844335
46,0.6500157197448942,0.6500049794912338
47,0.6500172677437465,0.6500124907890955
48,0.6500149300098419,0.6500338586171468
49,0.606636122279697,0.6000082121690115
50,0.600017562813229,0.6000076506535212
51,0.6000174811416202,0.6000135676860809
52,0.6000166864262687,0.6000143995285034
53,0.6000166052712335,0.60000945409139
54,0.6000168856514825,0.6000539317528407
55,0.600016566104359,0.6000265711545945
56,0.6000164183510674,0.6000068777799606
57,0.6000165660248863,0.6000096833705902
58,0.600015776541498,0.6000234973827998
59,0.6000162499745687,0.6000128719409307
60,0.6000158619350857,0.6000197350184123
61,0.6000153527259827,0.6000082139571508
62,0.600015826649136,0.6000089390277863
63,0.6000154926776886,0.6000134187539419
64,0.6000150189267265,0.6000262854496637
65,0.6000152446826299,0.6000484678745269
66,0.6000143149693807,0.6000118353764217
67,0.6000148806174597,0.6000492057402929
68,0.6000146609279845,0.6000101180076599
69,0.6000144001510408,0.6000069651603699
70,0.6000144988828235,0.6000065141916275
71,0.6000144282446968,0.6000073007742563
72,0.6000134722126855,0.6000131905476253
73,0.6000131164921655,0.6000125596920649
74,0.6000138197475009,0.6000065135955811
75,0.6000131684144338,0.6000105037689208
76,0.6000135196844737,0.6000086119572322
77,0.6000132809877395,0.6000206964810689
78,0.6000129042598936,0.6000098167657852
79,0.6000133407380845,0.6000127676725387
80,0.6000134595500098,0.6000194974342982
81,0.6000132206810845,0.6000334250529608
82,0.6000131448772219,0.600009154121081
83,0.600013386911816,0.6000078505674998
84,0.6000129511621264,0.600009671052297
85,0.6000128383901384,0.6000123702685038
86,0.600013173368242,0.6000126435359319
87,0.6000127951833937,0.6000249740680059
88,0.6000129026969274,0.6000082991917928
89,0.6000128440592024,0.6000109473864238
90,0.6000128345357048,0.6000069315036138
91,0.6000131877395842,0.6000100617806117
92,0.6000124144156774,0.6000252180496851
93,0.600012874007225,0.600005390048027
94,0.6000128842724695,0.6000128206809362
95,0.6000129573477639,0.6000065147082011
96,0.6000126360522376,0.6000123670895894
97,0.6000126576953464,0.6000264647006989
98,0.6000128724045224,0.6000109288692475
99,0.6000123915010028,0.6000067406495412
100,0.6000129197571012,0.6000082371632258
101,0.6000123676458995,0.6000119907855987
102,0.6000122991535398,0.6000056042273839
103,0.6000123975012037,0.6000159485340119
104,0.6000129001405504,0.6000113677978516
105,0.6000127148363326,0.6000093783537547
106,0.6000125238630507,0.6000073300202687
107,0.6000121526055866,0.6000058794021607
108,0.6000122975773281,0.6000053282976151
109,0.600012307577663,0.6000791159073512
110,0.6000123311546114,0.6000462112029393
111,0.6000124632782406,0.6000059385697047
112,0.6000123262935214,0.6000049152771632
113,0.6000122758017646,0.6000046228567759
114,0.6000127757125431,0.6000057039260864
115,0.6000119856728447,0.6000052542686463
116,0.6000123305320739,0.6000066511631011
117,0.6000123108095593,0.6000074007511139
118,0.6000122409131792,0.600030548453331
119,0.6000119670497046,0.60000428434213
120,0.6000126144886017,0.6000057504574458
121,0.6000120734771093,0.600007271250089
122,0.6000120375288858,0.6000076073408127
123,0.6000123352474637,0.6000053534110387
124,0.6000122529533174,0.6000152152776718
125,0.6000122608741124,0.6000135969320933
126,0.6000121753348244,0.6000068783362706
127,0.6000122267405192,0.6000127762158711
128,0.600012282927831,0.600007247487704
129,0.6000120822058783,0.6000062005519867
130,0.6000120499796338,0.6000205984512965
131,0.6000121386051178,0.6000083335240682
132,0.6000124343898561,0.6000116366942724
133,0.6000119553274579,0.6000084464152654
134,0.6000120188792547,0.6000084890127182
135,0.6000120225482517,0.6000051393111547
136,0.6000122042496999,0.6000107996066412
137,0.6000118028587765,0.6000054386456808
138,0.6000118420653873,0.600011737426122
139,0.6000120063225428,0.6000066577593486
