epoch,loss,val_loss
0,0.45352422930134667,0.45020753872394564
1,0.450236663877964,0.4500682612260183
2,0.45015088807874254,0.4501400680541992
3,0.45011754129330317,0.45004718949397404
4,0.45009803937541115,0.4501225925087929
5,0.40586654913425446,0.4000592869122823
6,0.4000855890115102,0.40004442413647967
7,0.40007361878289116,0.4002016557256381
8,0.40006831537352666,0.400046626329422
9,0.4000642649465137,0.400034639219443
10,0.40005995463662675,0.40002963044246037
11,0.40005716496043736,0.4002091577847799
12,0.40005431722932394,0.40002493339776996
13,0.400052172905869,0.40002734633286796
14,0.4000509674416648,0.400079099992911
15,0.40004928866359923,0.4000431878765424
16,0.40004907404051887,0.40002577437957126
17,0.40004653248522015,0.4000293667713801
18,0.40004553766383066,0.400024564464887
19,0.40004605983363256,0.4000244550704956
20,0.4000428520176146,0.4000515103538831
21,0.40004088819026945,0.40012048413356144
22,0.40004148547516927,0.4000264382958412
23,0.4000409177939097,0.4000462514559428
24,0.400039787431558,0.4000932003259659
25,0.4000402905080054,0.40005425610144935
26,0.40003816511895923,0.4000596078634262
27,0.4000400666594505,0.40001639248927434
28,0.400037918680244,0.4000163676738739
29,0.40003792045513786,0.4000183838804563
30,0.4000376285711924,0.4001708507736524
31,0.4000367895166079,0.40003292260567347
32,0.4000363958676656,0.40002380188306175
33,0.4000358353985681,0.4000358785589536
34,0.4000354608231121,0.400132281601429
35,0.4000347748067644,0.4000298307538033
36,0.4000351193745931,0.40001783790191014
37,0.4000338026814991,0.4000221511721611
38,0.4000337484545178,0.40003899031877516
39,0.40003475057416493,0.40002459432681403
40,0.4000337887737486,0.4000335458914439
41,0.4000334942738215,0.4000332092046738
42,0.40003268304136064,0.4001349396308263
43,0.40003132349914977,0.4000236055056254
44,0.4000325161351098,0.4000179050366084
45,0.4000305711362097,0.4000292474826177
46,0.40002950102090834,0.4000489565928777
47,0.400029350704617,0.40002207189798356
48,0.4000288714302911,0.40001798542340594
