epoch,loss,val_loss
0,0.1274247432662119,0.055799241988510245
1,0.04849850321315128,0.047037656750491784
2,0.04679427748258642,0.04680940808747449
3,0.046686982671967706,0.04622844057400206
4,0.046600628343465136,0.046750937503980856
5,0.04657844503482374,0.04547457052975446
6,0.04648378538898379,0.04784200011201985
7,0.046396850808549654,0.04647455951338597
8,0.04647702594949521,0.0483282749771178
9,0.04635955080491223,0.0462173456157063
10,0.046304726328471484,0.04624023456964421
11,0.04645359962374615,0.045854435279530245
12,0.04625717458947242,0.046749540731816565
13,0.046282917951984845,0.04571321170891752
14,0.046308730744557984,0.0461966065541439
15,0.046251119742040436,0.046639061361645376
16,0.046098968347640254,0.0459714157752334
17,0.04619536546023963,0.0474643312106475
18,0.04620065081337516,0.046174906649948014
19,0.0461573995066156,0.046289874721486074
20,0.04609464026010818,0.04599272495616395
21,0.04609338084844758,0.047412254092678276
22,0.04612606073127424,0.04590672623857139
23,0.04600306913453183,0.045178808768786306
24,0.04596395464204579,0.046058124162097945
25,0.04602530319020331,0.045642328969752025
26,0.04595701620846296,0.045888896075966044
27,0.04601849283692505,0.04549177531402884
28,0.045932006695382985,0.045722912047308266
29,0.045924617047551915,0.04571269062695394
30,0.04600471650197399,0.045432123325429945
31,0.04585894168787104,0.045292680634695805
32,0.045836931767521336,0.04562859535334895
33,0.04597756012583332,0.04685462112137908
34,0.04578918915578454,0.04579735717250309
35,0.045851371208612296,0.04536074418765688
36,0.04581718461113058,0.046172391529170756
37,0.045826595492488284,0.04550216434892464
38,0.045835624387164674,0.045755667339983944
39,0.04578846305918446,0.045411300957908574
40,0.045774417824382116,0.04604383251661377
41,0.04576639561421818,0.04703667724318361
42,0.045789258171924106,0.04582004687192408
43,0.04572831324452786,0.04569050332718039
44,0.04578558557914744,0.045260660800180194
45,0.04571177992228267,0.04511257474499607
46,0.04575432118305343,0.04593254974510318
47,0.045754696524662554,0.045510321635026676
48,0.04565794609165449,0.04610550227768325
49,0.04576144187892084,0.04511136606911928
50,0.04574724428093643,0.04519664393568848
51,0.04566791637254943,0.04616244466006521
52,0.04564230700137375,0.04614364771259141
53,0.045725703770987135,0.04498434856522243
54,0.04558620432303916,0.0454479408874555
55,0.0456522601640982,0.04518665161039666
56,0.04570931170007689,0.045338776841724396
57,0.045667632284174434,0.047097111916156294
58,0.04557488007928066,0.04597893456069145
59,0.045643055501828,0.044828920715562735
60,0.04565667139320113,0.04507364038063394
61,0.04556999626390035,0.04671148538895263
62,0.04562587312442793,0.0452066026010566
63,0.045576819530624944,0.04547163227539224
64,0.04561438928875658,0.04533996183392845
65,0.045600974801287567,0.04604714309712894
66,0.04560881259469248,0.04564452116931153
67,0.04550250971036182,0.044936507190529905
68,0.04553226196318031,0.04540885684698608
69,0.04560139202040067,0.04728985448156931
70,0.04549892872518344,0.04503824855858826
71,0.04553110696536174,0.04526950017017648
72,0.045526661083018845,0.04497426244611804
73,0.04552441053866721,0.04624895592703063
74,0.04546250633859663,0.04544641519437273
75,0.0455385333300828,0.04541594757982945
76,0.045518713792582016,0.04630434027951631
77,0.04553143879909405,0.045057983614721915
78,0.045469549236644945,0.04525015165922015
79,0.04548610600350286,0.04557628848464261
80,0.045527512947623014,0.045924607238011186
81,0.045437034630446696,0.04542081509058929
82,0.04546880874065139,0.04522635096767895
83,0.04539837516534576,0.04522507772696423
84,0.04552860197415359,0.04522018536819467
85,0.045491982650437614,0.04521567851375574
86,0.045518452548782985,0.045843624116613246
87,0.04544132097001127,0.045637599035991676
88,0.045393529010833884,0.045746896121924376
89,0.045505418803254004,0.04481123714768802
90,0.04541606731194672,0.045257224388943945
91,0.04546665919454788,0.045032767686278403
92,0.045460087176468926,0.04693346528517231
93,0.045386564635711134,0.045728216231480864
94,0.04540846943795729,0.04502626013631132
95,0.045386751422838725,0.04560708278979762
96,0.045454257421737476,0.045222610164648354
97,0.04551233343339319,0.04502425020547391
98,0.0453172970569129,0.04604625485208247
99,0.04546841798271302,0.04475447960380221
100,0.045430538400138124,0.04518901694333732
101,0.04538224088541752,0.04572782579635953
102,0.04537299184127153,0.045238229945219685
103,0.04539229604396984,0.04626051288894903
104,0.04537523343420619,0.04530367773870078
105,0.04539843143479858,0.04497370229123988
106,0.04541874806777083,0.04607983071712782
107,0.045371813811272456,0.04546612539955642
108,0.04538705413468736,0.04529619273665672
109,0.0453543110455064,0.04506325999887891
110,0.04540076701016687,0.04592426733981932
111,0.04534647021171667,0.044877310248934196
112,0.04545040380099504,0.04537829137521178
113,0.045340092869089854,0.046675058327256554
114,0.04532770858817011,0.046199226965091315
115,0.04546511271815125,0.04569876797632524
116,0.04535736420380174,0.045257030435688586
117,0.045442451559882656,0.04636987426627689
118,0.0453391367008241,0.04498123384030108
119,0.04533648732707178,0.04558563056301205
120,0.04534830729649078,0.045216154604091736
121,0.04535194168047463,0.04561715341969184
122,0.045306544478455606,0.045735631255696116
123,0.04540567656161545,0.0455649041209808
124,0.04535425231337166,0.044963156588334406
125,0.04523863387312725,0.04529651563141227
126,0.04533358774394345,0.045597009481340295
127,0.04536603694762305,0.04489568452444148
128,0.045319130264526365,0.0473364338237607
129,0.045302812745578756,0.04507514426592023
130,0.04533150766363485,0.046516785702441
131,0.04537223841098668,0.045032066396704415
132,0.04525509047255718,0.04712758524359543
133,0.04535806901175246,0.04571778593318803
134,0.04525937159790648,0.04501372312607969
135,0.04538875435301059,0.045138908469286504
136,0.045313163975374306,0.04511241390771911
137,0.045334560433320764,0.045566463203484744
138,0.04525075426889504,0.044996880738751195
139,0.04536447204726873,0.04494279419860693
140,0.045265406259982516,0.04465001911195414
141,0.04529931289341143,0.04521932580523728
142,0.04530867755704885,0.04498987948932136
143,0.045296464213650287,0.045487243970290074
144,0.04529609333434932,0.045047175912473175
145,0.045304549661435954,0.04515460129142184
146,0.04532832075669754,0.04531886341269315
147,0.04529179480197809,0.04546845148316781
148,0.0452586143157727,0.0448364342438629
149,0.04525306225299454,0.04613668399538783
150,0.04535974760641821,0.04694790825624116
151,0.045310664251982734,0.04509702809419609
152,0.04525055843803713,0.04523753516534792
153,0.04528308563607393,0.0466489329751825
154,0.04526077031934385,0.04471774088790686
155,0.04530961745434242,0.04519046910089494
156,0.04527654156958361,0.045073683434640126
157,0.045247195693526525,0.045404982151082865
158,0.04532259405046392,0.04578123321343616
159,0.04524484817549098,0.04507698330090285
160,0.04525015834156129,0.04540825578154027
161,0.04530802578311696,0.04497553243198165
162,0.045255501995043315,0.045422486893262275
163,0.045231596758063555,0.045041968618191035
164,0.04525162244169451,0.04503186374032413
165,0.045268964064087897,0.0449432068443383
166,0.04527307924279254,0.04561677231690784
167,0.045294865775260804,0.04498742210025287
168,0.04524027364109632,0.045212046108734166
169,0.04528665397283461,0.04616220309542405
170,0.0453095574179094,0.04520997504432463
171,0.04521771164374243,0.0448556097743308
172,0.045227354377520075,0.04685435476753311
173,0.04529543356786815,0.04591990201700929
174,0.04531738889231671,0.04495071701487878
175,0.0452194591622344,0.04498532328287164
176,0.045231689007388505,0.04531179604597607
177,0.045265326930059614,0.04542378189178932
178,0.04520386729172046,0.04531958534866689
179,0.04529536188208609,0.04595068329393911
180,0.04526344480530488,0.0453940106477903
181,0.045241134393093685,0.045605110229472993
182,0.04520693679692314,0.04476229073487122
183,0.04523421014598805,0.044859357916212685
184,0.045217411436265606,0.045292534595671466
185,0.045255765899551284,0.04501206314319123
186,0.04523569327458251,0.04491261368133745
187,0.04516484619056483,0.045401691696544094
188,0.045233631664388284,0.046036386099403644
189,0.0452602753470794,0.0456388631825289
190,0.0452207837530749,0.04512004805662637
191,0.045197586502900705,0.045507821009656814
192,0.045216997936487105,0.0456137155883173
193,0.045204776226819086,0.04742611309288521
194,0.04519648369785836,0.0462506643739759
195,0.045198622788730665,0.04540198154000664
196,0.04522488244640217,0.0450388774975558
197,0.045198773710633355,0.04488523072771134
198,0.04520251477906982,0.04493638889271628
199,0.045174773304546764,0.04541707676618515
200,0.04523767084836198,0.046185982264372524
201,0.04521039997835716,0.04474830545114549
202,0.045156815289545786,0.044849909448021495
203,0.045212116498919985,0.04542272943112449
204,0.04523327196542498,0.04517597968571752
205,0.04516053919961079,0.045238501941395635
206,0.04519420253078667,0.04471148802489395
207,0.04522738875679785,0.04555573369998958
208,0.04517850103221542,0.045271083530282634
209,0.045179393324110625,0.0460859008056965
210,0.04520942528488682,0.044711210371686794
211,0.04522752954656605,0.04556963327851649
212,0.04517695915064127,0.04640043139951664
213,0.04517492295639645,0.045472564768184336
214,0.04516019600835874,0.04493243186701539
215,0.04515783659530153,0.04524010347221532
216,0.04525291629218989,0.044745436072020243
217,0.045207476465226555,0.045060303726695894
218,0.045161095435182444,0.044882530806661124
219,0.04522082823173081,0.04468628911164772
220,0.045170265956402875,0.04558827042367953
221,0.04518964609427513,0.04467721332537911
222,0.04515712563957956,0.04488560458573189
223,0.04521360066529515,0.04523769730809361
224,0.04516764814041549,0.047012778735574814
225,0.04518767368557642,0.04542286231549311
226,0.04512281404089013,0.04492850864236996
227,0.0452037036811991,0.04512943993392382
228,0.04523766042886497,0.044709724439535914
229,0.04510346081980365,0.044671618844946255
230,0.04522884873707565,0.04563478563030875
231,0.045170368806873674,0.04490602000865677
232,0.04514004741099289,0.045191228495588806
233,0.045127754825518,0.04490322614678174
234,0.04520636638380784,0.04565304899095736
235,0.04518737743417327,0.04523100373177145
236,0.04523057871454244,0.04502536842177586
237,0.04517831053468678,0.04506319948569846
238,0.04510763285310863,0.04477488079006124
239,0.04520455010527139,0.04547191440365215
240,0.045192344720176844,0.047792471912943106
241,0.045097963713246474,0.04607971263983255
242,0.04515480409435136,0.04475979315853533
243,0.04524472413761772,0.04552867419682531
244,0.045167804855725274,0.044730097728751264
245,0.045139030842996426,0.04548636169394077
246,0.04526352882831931,0.0450143814410341
247,0.04510974078971467,0.04470150132723088
248,0.04509504602776824,0.04547970443258346
249,0.04519978116938679,0.04504646503770079
250,0.04518531178303664,0.04525019992334032
251,0.045122211959829434,0.04473935760669381
252,0.04517547660868326,0.04496827103850309
253,0.04516878904109235,0.04619956515206064
254,0.04514996047994549,0.045200881343143796
255,0.04517895666559299,0.04487316558268377
256,0.045208746953000076,0.04630872443459499
257,0.0451071757680292,0.044699742996090495
258,0.04515626356839467,0.045334789478576554
259,0.04512017156234939,0.04593589414725552
260,0.045196108855039094,0.045265262633350394
261,0.045139371060865296,0.045089209524307464
262,0.0451048663232943,0.04527463388482981
263,0.04519411663470461,0.04502920671450687
264,0.045119859337759055,0.045132044799796406
265,0.04516166858345294,0.044723055512889125
266,0.045102400111137246,0.04508701982395613
267,0.0451440925327994,0.04477489676147158
268,0.045140442576149194,0.04503477212179808
269,0.045119318397913714,0.04488118012871625
270,0.045129498244999504,0.04566277933160715
271,0.04515740988726953,0.04486525317781914
272,0.045188965957811314,0.045682213536001326
273,0.045181049208203664,0.04490308649396934
274,0.04513498932885514,0.04549130346058576
275,0.0450707690345107,0.04522684288535329
276,0.04514013763389094,0.045144209774959344
277,0.0451498096056884,0.04607954766269076
278,0.04508223303323455,0.04489786862362626
279,0.04514952102671567,0.045635738243196736
280,0.045172235518277024,0.044675007265505114
281,0.04514771977143227,0.04501096597316233
282,0.045130829948434634,0.04497107534412803
283,0.04507293909502258,0.0457777311582921
284,0.0451602780183466,0.04584025104413281
285,0.045166294914569784,0.0447225483471047
286,0.04511689026650193,0.0453930479645635
287,0.045146932118206765,0.04524087959102222
288,0.04508322505332488,0.04540262849385473
289,0.04512444591011218,0.04472749876689045
290,0.04517265996909875,0.04513818005889348
291,0.04508900691976221,0.04494685664090851
292,0.04511285454874559,0.04568090220735406
293,0.04514981409926399,0.045499866615154656
294,0.045122244460083887,0.044958921647744565
295,0.045125025291022636,0.04537612493807816
296,0.0451239527722033,0.04487112126862241
297,0.04509200077268669,0.046286410960091694
298,0.045125427662575844,0.04477592645876033
299,0.04511100031602249,0.04520865856142804
300,0.04504510621092826,0.0455322000855946
301,0.045159459708155776,0.04517099039001359
302,0.04506145976483822,0.044690928000724495
303,0.04513162893535708,0.04480828613560314
304,0.0451016427649797,0.044958555366735146
305,0.045091588075438754,0.0449285522167995
306,0.04517663448161597,0.04603323969334341
307,0.045136017196303266,0.044822528426136286
308,0.04508521599467281,0.04554843842606895
309,0.045106728517299265,0.045133587522777685
310,0.0451796861137632,0.04498617419562852
311,0.045070068142432675,0.04518371820449829
312,0.04509542773155381,0.04472278389894501
313,0.04510674488356264,0.045071118047435924
314,0.04509942163731888,0.04472817379125668
315,0.045090731668124474,0.045207604909964026
316,0.0451178647351446,0.04493275742857308
317,0.045083516916866115,0.04496544426646681
318,0.04513069696212225,0.04476232471234138
319,0.04511143826990486,0.04506570867600174
320,0.04516134647686752,0.044750066587279515
321,0.04507588157854635,0.04451846176113025
322,0.045116551498846,0.044762455612044685
323,0.04506578573511897,0.04557105000906322
324,0.045121456516518006,0.045891379471500744
325,0.04505355172246385,0.044796503068851315
326,0.045194031503929984,0.04516370260195649
327,0.04507198364292975,0.04553018439187718
328,0.04508453433652766,0.045215702382663904
329,0.04511850640820942,0.04486447997867544
330,0.045076534985828934,0.04455822103766353
331,0.045095371136026415,0.04493586719330127
332,0.045111257758596056,0.04508762966897324
333,0.04506824160520312,0.04485625811597448
334,0.04508237274502107,0.044826872408648785
335,0.0451262948392845,0.04486568600833181
336,0.04508424723456851,0.044905358826963566
337,0.04509347359047567,0.04556423085782127
338,0.04507065668172068,0.0453679546472729
339,0.04514118888341694,0.04477205763452619
340,0.04504013975127805,0.044753865901183784
341,0.04506134360635595,0.04462023704785386
342,0.045133431191198066,0.04528382146509031
343,0.04508822385093672,0.044712178764869215
344,0.04513422042119512,0.04486103028929318
345,0.04503207347191257,0.044810127102326666
346,0.045114879202332904,0.04524523293527451
347,0.045118961209277934,0.044863856299806035
348,0.04504760243683505,0.04506552553696715
349,0.045073479625413554,0.044889435536671365
350,0.045084465631573416,0.04521962683045121
351,0.045090178300222335,0.04543795811207914
352,0.04504444444333192,0.04506731754567271
353,0.045072145710924834,0.04542946496180126
354,0.04515386744291424,0.044674236765506234
355,0.04505846528805417,0.04537271710014193
356,0.04510930249486848,0.045182372724906425
357,0.045043226522054794,0.044810093551192025
358,0.0450309506616742,0.04552289304612373
359,0.045165493295227975,0.04479610814691625
360,0.04501318937237505,0.045638608154506315
361,0.04513457881139337,0.0449152836442323
362,0.045103286573891156,0.045020676217238174
363,0.04502749518542696,0.04487283819229375
364,0.04509808803252655,0.044533213125666764
365,0.04506010404206533,0.04536179031503417
366,0.04508514253111433,0.04496326294287322
367,0.045105940323593996,0.045068240609099385
368,0.045062033979178996,0.04470660271683168
369,0.04505757481860314,0.044772671884030175
370,0.045091510310376004,0.04512475842893735
371,0.04506131878746547,0.04488274011681564
372,0.04523348710466203,0.04500902232426589
373,0.04501564418978923,0.04497297151983019
374,0.04506595967282399,0.04544076411128514
375,0.04507294911399877,0.04484960941661035
376,0.045036556094968254,0.04490655927309486
377,0.04510161632911669,0.044727203642748056
378,0.045168106625084394,0.04481262715434878
379,0.04504629574436173,0.0446562505817451
380,0.045108779393833315,0.045195487031644034
381,0.04508234483214448,0.04587816678710876
382,0.04503818320111929,0.04494897569011494
383,0.045156085506367453,0.04477494594882865
384,0.045068647368527434,0.045277942333667415
385,0.04506103760398311,0.04463232738784005
386,0.04504702709835592,0.04485416265047246
387,0.045055038947090925,0.044736011287501785
388,0.04515941176328251,0.044976338717701306
389,0.04503738630911429,0.04508617552086981
390,0.04506887122095346,0.044836631890065856
391,0.045110224206432355,0.04495624116759368
392,0.044994591022852796,0.04478147230166192
393,0.04511191922542956,0.04497657097646733
394,0.04507402456897817,0.04516119132407933
395,0.04516899638431821,0.04521937711251092
396,0.04508176917056862,0.04581575101239999
397,0.045031769208604105,0.04476034902359617
398,0.04504129721624531,0.0451871723101284
399,0.045129022862521004,0.04506282047930908
400,0.04503002725273585,0.0450096144660684
401,0.04513018104515011,0.04482861826138978
402,0.04504328588698265,0.045212917197451595
403,0.04508087574113473,0.045038070767859165
404,0.045091697221084366,0.04490827732582024
405,0.045065968156718525,0.04526682691126709
406,0.04507211714292125,0.045591632143874385
407,0.04506770019634641,0.0459101743343409
408,0.045108971006566766,0.044848369779954676
409,0.045033548192547665,0.0453745546591216
410,0.04508545770228719,0.04463598323249403
411,0.04507927839412725,0.04453619029711059
412,0.04509182833284021,0.0456195728590193
413,0.04504992326589035,0.044834904116890804
414,0.04506971833439801,0.04492343586135212
415,0.04512883159372923,0.046072651309438266
416,0.04506763480127239,0.045085296178884925
417,0.045101127144303636,0.045472431272244776
418,0.045072164204862,0.04490581401509851
419,0.0450674245531539,0.046164509899849576
420,0.04505947497423938,0.044682652984276094
421,0.04506387884060828,0.04530835272810454
422,0.04507063237353147,0.04508300035921438
423,0.04503705893322337,0.04594142035226137
424,0.045102013420941924,0.045197483687275684
425,0.04503764128900594,0.04488130855273335
426,0.045034297062255306,0.04550643223495867
427,0.04519895891652262,0.045365015222693206
428,0.044991973290245214,0.04572857213048551
429,0.045020625120301326,0.0457582143653587
430,0.04512217878509197,0.04464467576077912
431,0.045011184704627734,0.044777126740237906
432,0.04511850803113765,0.04494904831122393
433,0.04507115012485918,0.04660890692434823
434,0.04510478084857801,0.045540658664472856
435,0.04501704447459784,0.04507476197821753
436,0.04511690833609548,0.04521408522444253
437,0.04510284954909798,0.04515206583003031
438,0.0450302211896812,0.04465272479588438
439,0.045118904296609516,0.04475828014966909
440,0.04504996006616014,0.0452500747776963
441,0.045051750027947576,0.04527884148702249
442,0.045127288279809254,0.04481048921700905
443,0.04499194108033114,0.044795315577439085
444,0.04505123616122513,0.04506220491551562
445,0.04506072644248521,0.045253613527096816
446,0.04507852549836647,0.04509271269674459
447,0.04508849063055883,0.04494342834180796
448,0.04513689403166826,0.04489944678831966
449,0.04499520236502687,0.044656781925163404
450,0.04513361359493052,0.04459249303509329
451,0.045065614339008894,0.04503014229161587
452,0.045028436311083636,0.04489403612611796
453,0.04503639736365405,0.04548408248665395
454,0.04506873257225938,0.04504970121531855
455,0.04511323261955421,0.04487354759400344
456,0.04508406358460585,0.04519974811689159
457,0.045005548201936134,0.04528090334258497
458,0.04506497438416349,0.045133804186484716
459,0.04516647283663805,0.044744883176606756
460,0.04499784397999112,0.045574639039591906
461,0.04509727133186363,0.04709042593154648
462,0.045062074147397095,0.044720058956410624
463,0.04506492462280176,0.044809168176732854
464,0.045105758774504484,0.04546750007872047
465,0.045006801002769825,0.04505609982333131
466,0.04506508247118345,0.04478560310465761
467,0.04506827698354955,0.04466666734903087
468,0.04508201178940509,0.04467730322336718
469,0.04505746299289256,0.04495962473968869
470,0.04505006176420301,0.0452557128854831
471,0.04510064127681543,0.045098779318764534
472,0.04509639950077549,0.045007312004384604
473,0.045011470457620856,0.04533846960965347
474,0.04502135639538248,0.04490635963340585
475,0.04515059315841451,0.044925012047260696
476,0.04503952138137808,0.04535819144350577
477,0.04501386789186634,0.04471522005423374
478,0.04508308410275278,0.04547251416950971
479,0.045037943647979355,0.045216852632934124
480,0.04506024919736157,0.04487172008478087
481,0.04507362308929102,0.04494522284090095
482,0.045098716951460005,0.04476755819244468
483,0.045102762856441055,0.044718492632083474
484,0.04507719569777747,0.04506985433605495
485,0.04499630708333781,0.04466446400006267
486,0.04504583046126137,0.044714972891366285
487,0.045065720450225395,0.04475776591847615
488,0.04503125340776811,0.044880401798845185
489,0.045067344096114785,0.04498088715896422
490,0.0450596269651902,0.045023725518770076
491,0.045054029530401135,0.04530733555037861
492,0.045058791953727875,0.04495873368082784
493,0.04498814800523406,0.045104415383081124
494,0.04508700228477125,0.04506709686853139
495,0.04502019609996884,0.045250178391926854
496,0.04514582783912869,0.04528127330184077
497,0.044994844166899944,0.045313471297556335
498,0.04508026572261497,0.04502659959346644
499,0.0450624404333645,0.04524353878379997
500,0.045042186714917255,0.045550031027364844
