epoch,loss,val_loss
0,0.4891665209780357,0.4659277141877783
1,0.46608305688219714,0.4652608926405511
2,0.4656771484740458,0.4684970053427383
3,0.4656278707155339,0.466863734696936
4,0.465780718365056,0.46528275572273103
5,0.4654460701285193,0.4651747665284137
6,0.4654183577736711,0.46506060699328877
7,0.4655398613344808,0.46563541630822697
8,0.4652340057973913,0.46493163354910594
9,0.4653398046913249,0.46535098453168655
10,0.4652746890904928,0.46531789906708126
11,0.4651647980568051,0.4669164323874531
12,0.46520260313045897,0.4658189609284129
13,0.46517157909216,0.4649515946882617
14,0.4651936875275,0.46498340333327665
15,0.4651440069643086,0.4649759228285855
16,0.4651136771449796,0.4652976994140467
17,0.4651001310071503,0.4649049332413374
18,0.4650879987991638,0.46484077329384876
19,0.46507939071350535,0.46492272198761436
20,0.4651336974700866,0.46491938278272277
21,0.4650251342305625,0.46486936199091156
22,0.46509177882953107,0.4650050929224201
23,0.4650256535859924,0.4655438186824163
24,0.465021547819637,0.4666137749050921
25,0.46500721923265886,0.46647202160138607
26,0.4650053705420163,0.46500942612926877
27,0.4650402043445295,0.46479577014047696
28,0.46495189269548465,0.464985245957555
29,0.45285470765320956,0.44972068805702203
30,0.4496788685523196,0.4494622041656442
31,0.44965900623310145,0.4494715224502141
32,0.4496227963281005,0.4501086836186072
33,0.4496822889224406,0.4497516422187865
34,0.44960699662515713,0.450013491035376
35,0.4496382257867622,0.4497244007518817
36,0.4496955559164858,0.4499651715278541
37,0.4496804353587509,0.45003141601252117
38,0.4496107844716012,0.4504185606857709
39,0.4496395929387409,0.44979253767078436
40,0.44964547557000295,0.44974394311784616
41,0.449608623793698,0.449567092473055
42,0.44967526241907174,0.4498762500436464
43,0.44958906586097286,0.4495279530232362
44,0.4496101221543947,0.45006544363606693
45,0.44961279295837564,0.4503828670017502
46,0.44962732049316867,0.45084812672804464
47,0.4496303126655377,0.44950161284230533
48,0.44960286412163514,0.4494667669387922
49,0.44960643071917306,0.4496049873039807
50,0.4496390249516699,0.4498443272190463
