epoch,loss,val_loss
0,0.13963822923384064,0.12181955287259302
1,0.12204761782759839,0.1207145825044303
2,0.12146997618849315,0.12250161096227326
3,0.12114126636911833,0.12019333204455336
4,0.1209351183410014,0.12179723363888897
5,0.12085424979691214,0.1202506815741351
6,0.1206963660620037,0.12000329124635581
7,0.12059861195127247,0.12018258184232686
8,0.12049974294019809,0.11956968538060865
9,0.12035760369174431,0.12037840502250552
10,0.12034792553268364,0.1202536692954721
11,0.12020186813905534,0.11950993756460608
12,0.12017268312055586,0.11897894877100375
13,0.12015563275014718,0.12000970305289337
14,0.12004960484216426,0.1191179881876309
15,0.12000842960918767,0.11964118946706004
16,0.11995818469634381,0.1189404565425803
17,0.11989675020653823,0.11947288516137936
18,0.11990829915430903,0.11914991525017757
19,0.11984687329482493,0.11948034821612961
20,0.119812091048681,0.11924834182437394
21,0.1198428675916455,0.11946901929125643
22,0.1197550826658251,0.11947022509166365
23,0.11974593593774603,0.11950511895809093
24,0.11975705894981674,0.12061959379323095
25,0.11972464576361842,0.11912221727306156
26,0.1197097820046317,0.11905271836526167
27,0.11970806932661437,0.11907428680098477
28,0.11971239235732714,0.11930296988594426
29,0.11962950020427067,0.11930013359369693
30,0.11969244886199262,0.11924957587726524
31,0.11964876111453707,0.1193572402124319
32,0.11966089457851904,0.11908160822481602
33,0.11965276384314935,0.11918965563371048
34,0.11963572731348515,0.11972423292601572
35,0.11960137316914247,0.12067866196562752
36,0.11967447161914604,0.11913447718179246
37,0.11957362105786652,0.1190027856875386
38,0.11964329460960879,0.11916369479541705
39,0.11956983205249318,0.11929370648176159
40,0.11959362855894247,0.11888417424324867
41,0.11959079761581219,0.11890577310909183
42,0.11961514363148502,0.11936113056309065
43,0.11952441128069242,0.11928916134725265
44,0.11957392933932989,0.11939661917192547
45,0.11958336941786354,0.11959114640654134
46,0.11956104464883038,0.11883945302209932
47,0.11954674660160977,0.12038780596798775
48,0.11955423583688753,0.12037983511306581
49,0.11955230062549624,0.11893742832809422
50,0.119521199534595,0.11913561002464365
51,0.11960177272354375,0.11919089535425284
52,0.1194938333968021,0.11925638306411238
53,0.11965342227973018,0.12022420401188925
54,0.11950142426755836,0.11945721619885429
55,0.11953786231538284,0.11875582719045503
56,0.11955524687072754,0.11863866979389794
57,0.1194898269110334,0.11879256137530636
58,0.11958177980940203,0.1189514967833654
59,0.11949873549121329,0.1190556645074112
60,0.11952360727086263,0.11921548529484947
61,0.11951235891274518,0.11881282957928817
62,0.11950769860955843,0.11913621970792128
63,0.11947812729937808,0.11926673238197891
64,0.11952194401085832,0.11919088726634443
65,0.11950942399252346,0.11954901847943297
66,0.11950437579865889,0.11932525297660904
67,0.11951829613514917,0.1187465184653154
68,0.11949139077273865,0.11921799857029813
69,0.11950709699014865,0.11916911194289295
70,0.11947116017740553,0.1188277154184065
71,0.11951484624353508,0.1196692391927452
72,0.11947126870178726,0.11948531879614342
73,0.11950466967955346,0.11932865006809759
74,0.11947143790526082,0.1189919075873185
75,0.11950149436452451,0.1190001998123111
76,0.1194551622018536,0.11943414207000516
77,0.11946556279853769,0.11974956289315754
78,0.11944876148416422,0.11864589822226887
79,0.11948521909274919,0.11936057964977677
80,0.11950953066099396,0.11918782233542256
81,0.11945041670073933,0.11885653324125418
82,0.11940570292774709,0.11894186152480707
83,0.11950220633497528,0.11847355417231789
84,0.11942855396002555,0.12021970537491192
85,0.1194809717415608,0.11918111881937597
86,0.1194017062679242,0.11876787347841675
87,0.1194864297052471,0.11956292333960222
88,0.11940416960482539,0.11972593039485467
89,0.11942555835495425,0.11965846719112769
90,0.11945647592579668,0.11951044594174806
91,0.1194218230101873,0.11967672140703892
92,0.11942426494729291,0.1191928979931232
93,0.11944410043187574,0.11942024658113592
94,0.11946624549485592,0.11951112707205522
95,0.11945794368613724,0.11867380978322478
96,0.1194167527233483,0.12019858744895033
97,0.11944672627877952,0.12021128011399136
98,0.11941635513855707,0.11947566806064489
99,0.11944838460354104,0.11892104682314086
100,0.11944722028584667,0.11935347524261967
101,0.11943375191420669,0.11891191844787577
102,0.11940637396762176,0.11888584040916596
103,0.11944258437045736,0.11876574376868915
104,0.11942642923960026,0.11867297536545152
105,0.1194187241867225,0.11919352273600052
106,0.11941683704451111,0.11884331041913751
107,0.11945266291025415,0.11915481698449179
108,0.1194229495421562,0.11892358505444087
109,0.11946397873802181,0.11898218835952953
110,0.11940582932898225,0.11857841834318712
111,0.11940451040745527,0.11935085255406669
112,0.11947284218685854,0.11911168362529764
113,0.11937866271915266,0.11891155361998966
114,0.11944021550640722,0.11917298204360191
115,0.11940792310189069,0.11878674782898764
116,0.11942859176481115,0.11979878858174177
117,0.11941464989153079,0.11865764869839526
118,0.11940128312128616,0.11878844434521012
119,0.11939513375379321,0.11941499160082998
120,0.11937246171605677,0.11876380194042281
121,0.11943916014737371,0.12012490540645984
122,0.11942531305455328,0.11878782377256131
123,0.11938876927524764,0.11929322281705541
124,0.11943460243406036,0.11886911923310488
125,0.11940817106838959,0.11926882195792295
126,0.11941573849449252,0.11890936918623798
127,0.11938529613289028,0.11932687157483991
128,0.11941551003858898,0.11897898802007305
129,0.11940591875110483,0.11886641570875044
130,0.11939281257143375,0.12027522381997684
131,0.11941455009382995,0.11854937002765645
132,0.11940384168563314,0.11918865371864182
133,0.11942045822151783,0.11877355318509941
134,0.11938872410975512,0.11939417431649703
135,0.11940325074464546,0.11870290889715783
136,0.11939156753347983,0.11894120492784858
137,0.119433797756399,0.11914029068085759
138,0.11938007782702062,0.11877158269892113
139,0.11941512067942298,0.11936035656518584
140,0.11942054493981936,0.11855285292491217
141,0.11939678409892394,0.12067269319484263
142,0.11944758431354162,0.11907483816420047
143,0.11937178635562762,0.12119507307863461
144,0.11938870507844192,0.11906232518668954
145,0.11937350584227072,0.11934760355770871
146,0.11938314378762688,0.11919139993244451
147,0.11941504558917339,0.11917972906868843
148,0.11938642830592135,0.11859965448770125
149,0.11938168290222537,0.11861074046003331
150,0.1193959902379366,0.11880913842553835
151,0.11954789697147895,0.11891540399252375
152,0.11936153495586202,0.11901980593156467
153,0.11938619158316187,0.12022057939357533
154,0.11940939989824172,0.11894564659407238
155,0.11940189059128686,0.1186304749128871
156,0.11937697012207776,0.1190685835536759
157,0.11938161048396383,0.12006552014937694
158,0.11936717906546705,0.11910829031925838
159,0.11937788761946042,0.11891840896856834
160,0.11940866797080535,0.11867777131605471
161,0.11935467929193855,0.1193387146104229
162,0.11943292796638523,0.11889284131627077
163,0.11936239214886914,0.11884412231600908
164,0.11943903932882917,0.11883330142360465
165,0.11937152169506052,0.12128624176363419
166,0.11938665095180286,0.11871823343383169
167,0.11935065372502243,0.11889485226025721
168,0.11942775342217862,0.11923610189557235
169,0.11934253911754326,0.11936117258662068
170,0.11936739945484429,0.11902907226110188
171,0.11939999319639519,0.11863457850747758
172,0.11936077204967142,0.1198979880558919
173,0.1193817157963213,0.11866581667384785
174,0.11940047807956362,0.11873824118357544
175,0.11938985310881595,0.12011517715323539
176,0.11943183136572533,0.12056248220175064
177,0.11932193726147124,0.11937313006285163
178,0.11940530233490117,0.11906071313804435
179,0.11943793485409702,0.11857416287953237
180,0.11931478712148827,0.12014759395039044
181,0.11939414769788582,0.11955078010435063
182,0.11941021432871896,0.1203002522703059
183,0.1193300153236537,0.12071172240272753
184,0.11943085494966303,0.11856896904219394
185,0.1193746642007713,0.11898373335771442
186,0.11934675272202705,0.11906286037369132
187,0.11936630498117262,0.1193324559889025
188,0.11941261231964913,0.11923987474680671
189,0.11936917386959056,0.11903305798260723
190,0.11934908237296185,0.11922821756832534
191,0.11939099853470647,0.1184421282674384
192,0.11934891544796464,0.11914022659903452
193,0.11934052221793046,0.118767710254593
194,0.11937026105303797,0.1189076141327459
195,0.11935153812592793,0.11896551785837617
196,0.11941919070813,0.12001427498614363
197,0.1193652666896,0.119536959235649
198,0.11938260088372137,0.11894204729653457
199,0.11933684877196951,0.11871503029688331
200,0.11936078736340441,0.11872001118890094
201,0.11939006623861068,0.11909478382193406
202,0.11939047363141268,0.11900135904847575
203,0.11939167677208594,0.11888212183562764
204,0.11932856690302938,0.11869097317227015
205,0.1193569889067354,0.11872399277075366
206,0.11938183026771955,0.11967541377673568
207,0.11933851870797305,0.11883341604135428
208,0.11936648012206648,0.11903702207467566
209,0.11940904553355516,0.11894141924828855
210,0.11935101160576833,0.11916772389690841
211,0.11933149544473506,0.11885270510411482
212,0.11935467069761947,0.11871102537175762
213,0.11937588924037655,0.11981771403726774
214,0.11933512356120721,0.11873561854982073
215,0.11935521054277572,0.11922849562512096
216,0.11936038664799144,0.11886806465172725
217,0.11935071249003,0.11863738522374324
218,0.11941039249441128,0.11934670008417576
219,0.1193336218231245,0.11941237622705317
220,0.11933788338348648,0.1187308221429623
221,0.1193825082496407,0.11910725723548414
222,0.11935877956254157,0.11915745038729972
223,0.1193389252193777,0.11995919702156377
224,0.11938109025244661,0.12009971148557756
225,0.11934571886523718,0.11866861147228185
226,0.11933217959795984,0.11901233233926406
227,0.11942466694588753,0.11974017894228962
228,0.11932378664383388,0.11953729492991055
229,0.11935136351388571,0.11948698140334925
230,0.11932043899173146,0.1185575115363341
231,0.11935347473122153,0.11896368741833477
232,0.11937532556936493,0.1193975361806335
233,0.11930433550640442,0.1185443481028458
234,0.11942322338889826,0.11972274676728514
235,0.11931974170305215,0.11885604659242428
236,0.11934826944796793,0.11903954520626998
237,0.11939478959347488,0.1196971369957591
238,0.11933376526918668,0.11841830403313151
239,0.11930315303753675,0.11988947866094879
240,0.11934636073600839,0.11891279509487115
241,0.11941494052049403,0.11876031035287468
242,0.11930792940933184,0.11932298246826094
243,0.11932941721143504,0.11966979939317625
244,0.11937337910788087,0.11915647783497596
245,0.11935696937310909,0.11871487885230717
246,0.11934868369413401,0.11887369834810649
247,0.11931540753263635,0.11929923274293673
248,0.1193839296316574,0.1187098818063126
249,0.11930004701550825,0.11893518815297648
250,0.11938793737492956,0.11898104734220454
251,0.1193350958084414,0.11909916452546876
252,0.11934143727277428,0.11930633771515144
253,0.11949119635102956,0.11875972384251886
254,0.11928163504496012,0.11859932442574983
255,0.11939591894395635,0.1196738578498678
256,0.11937312369980198,0.11930322340819993
257,0.1193665839342351,0.11900830935373723
258,0.11931651849912008,0.1190028203081387
259,0.11933020620885354,0.11881178059329142
260,0.11938239461913709,0.11903917007471894
261,0.11935236512442458,0.11851193625103695
262,0.11930704892428456,0.11869393551326768
263,0.11935698463343408,0.1184795852280982
264,0.11935774138175578,0.119533083686085
265,0.11932080831648022,0.11932162842659441
266,0.11936637823708593,0.12014166111179057
267,0.1192996664840152,0.11881500322929432
268,0.11941549244717382,0.1193809707404892
269,0.11930257039298788,0.11905103593378542
270,0.11934410789649008,0.11890337216892534
271,0.11936418339858278,0.11873647085764398
272,0.11930984340947694,0.11885158426566068
273,0.11936692433197017,0.11868631505720945
274,0.11932126128503019,0.11913531056792855
275,0.11935708748895767,0.11864609692043405
276,0.11932447826815532,0.11888635521120769
277,0.11935353250933939,0.11850495772823522
278,0.11934252439679123,0.11912201726172313
279,0.11932622334020562,0.11869189111651982
280,0.11933577320413205,0.11959593679869295
281,0.11934633886189423,0.11865153855360794
282,0.1193263821412315,0.11894489350885888
283,0.1193387007277768,0.11922346327791576
284,0.11933693487597985,0.11872274820731404
285,0.11934669485330754,0.11884878431182042
286,0.11930428606158813,0.11860174294901651
287,0.1193653242612996,0.1186950793848683
288,0.11932442110121816,0.11891087491271948
289,0.11932843017585167,0.1192564307505284
290,0.11933267822471919,0.11980528116292907
291,0.1193016727267809,0.11939671033482012
292,0.11935152736914764,0.11903840032685752
293,0.1193429478993502,0.11916822945789533
294,0.11931406362596303,0.11958559326204493
295,0.11932827566361344,0.11926379213342406
296,0.11931867523826642,0.1190886043859133
297,0.11933844742365521,0.11864584587085147
298,0.11933042217953,0.11907015563928579
299,0.11931936445638236,0.11931984663035057
300,0.119311171956951,0.11866912796155467
301,0.1193286784299728,0.11942581241619915
302,0.11933825426917817,0.11860673145362705
303,0.11941884840637015,0.11885915835760921
304,0.11928759681796659,0.11883557684950272
305,0.11928413077470304,0.11856573003024135
306,0.11931690541283531,0.11862991432489721
307,0.11932776478511324,0.11929292023405874
308,0.11928973828533865,0.11952827194126749
309,0.11933834451095132,0.11867846060455503
310,0.11931643031127145,0.11840078562429793
311,0.11933686804729174,0.11856162016045366
312,0.11930811700282559,0.11897835069701965
313,0.11929968917877265,0.119108906299176
314,0.1193054650509283,0.11944020384776594
315,0.11931547911278287,0.11877597387488359
316,0.11938664425257413,0.11865468029742275
317,0.11929586299739854,0.11868162565391938
318,0.11934731210074342,0.11873574958442022
319,0.11929004481929512,0.11865459318523283
320,0.11936153684962875,0.11935663422168473
321,0.11927741184225904,0.11994996471381648
322,0.11933708762734262,0.11863527482286455
323,0.11929050945997352,0.11907338583109787
324,0.11942094504444872,0.11858142782301496
325,0.11922184186559844,0.1186935238733555
326,0.11930788893798504,0.11846325557700976
327,0.11933302258940415,0.11856148709394984
328,0.11931540905883431,0.11910972645867514
329,0.11931391153958604,0.11856025344569222
330,0.1192746279587189,0.11932371063296401
331,0.11931187588920089,0.11878577046831337
332,0.11931102630759399,0.11874414621919595
333,0.11933876831278036,0.11888835560811364
334,0.1192894502942141,0.11922091551409762
335,0.11930989143795559,0.11932433369536076
336,0.11929438252105806,0.11929846185860664
337,0.11932576654189879,0.11936160758370397
338,0.11929077760933345,0.1197999157783847
339,0.11933713629909971,0.11892576147096597
340,0.11929960337204695,0.118670573416679
341,0.11927935285652483,0.11884998867714805
342,0.11934687631884618,0.11862838738195132
343,0.11933663215205835,0.11901744417494779
344,0.11931891774682572,0.11906881094271139
345,0.11928143040538189,0.11844921943525169
346,0.11930606490516085,0.11868308098822052
347,0.11934630078848033,0.11848202077020163
348,0.11931069109314774,0.11924388752794085
349,0.11929377059125823,0.11926445706488321
350,0.11929463849326302,0.11923019794162222
351,0.11937677674384307,0.1188333253700558
352,0.11929696995371625,0.12005301107564778
353,0.11926913334093449,0.11866094492888493
354,0.11930215754747456,0.1189496566904879
355,0.11930464024149758,0.11860906011287715
356,0.11935384955606712,0.11831258475138791
357,0.11933977932305996,0.1184838403188864
358,0.11929012702134521,0.11902500072112249
359,0.11931285194709211,0.11959448360787814
360,0.11930764601579506,0.11910636019916071
361,0.11931221090358227,0.11895007367561489
362,0.11931538640742535,0.11915785011652785
363,0.11925087960655817,0.1186339613144531
364,0.11932530265330023,0.11998850764454679
365,0.11935404131293571,0.11849680712304313
366,0.11930275451595475,0.11903207835614323
367,0.11930888285797134,0.12345954735386583
368,0.11926561483785095,0.12027235275623559
369,0.11936697159552988,0.11907766107891704
370,0.11926918955268258,0.11868214805068501
371,0.11929647347088745,0.11875285211719633
372,0.11931379796335077,0.11950462401605762
373,0.11931033054378902,0.11848162969671917
374,0.11932841982760613,0.1186208884871407
375,0.11927999656242648,0.1190579043160158
376,0.11930277398538558,0.11871697520338345
377,0.11929233759224178,0.11966643691633147
378,0.11926351696529988,0.11848820145228763
379,0.11931371978854137,0.11923262600574591
380,0.11928778045304782,0.12094815749575168
381,0.11934460116345612,0.12033947104291227
382,0.11932810488139428,0.11877910384937802
383,0.11928670623331547,0.11901520712174364
384,0.11928500737453385,0.11874499236618362
385,0.11932440837310712,0.11915066316688086
386,0.11927456275543392,0.1190691576760467
387,0.11933300289892909,0.11897282860051377
388,0.11928586250448346,0.11889472243042572
389,0.11931451526143094,0.11879324276411844
390,0.1192863053199554,0.1192482983264525
391,0.11931182146863911,0.11861779911459773
392,0.1192815321511178,0.11900378599241142
393,0.11931632758096215,0.11866849274664668
394,0.11927972529925478,0.12171166792431728
395,0.11931286864731515,0.11881751435252069
396,0.11929796342923155,0.1186980528864488
397,0.11932351768183856,0.11883698775629711
398,0.11929334089999007,0.11855186066625342
399,0.11932512902027222,0.11895862636239024
400,0.11927549374935413,0.11895055652986246
401,0.11930893793359176,0.11876562837343928
402,0.11929914021375473,0.11924636675300918
403,0.11926055361309768,0.11944067970570271
404,0.1193627663134278,0.11902061493961388
405,0.11927785448685188,0.11912773714825167
406,0.11931431219583327,0.11840663414899394
407,0.1192958217316823,0.11860580541948351
408,0.1193118700443677,0.11935954186288061
409,0.11930197557856392,0.11908185235154925
410,0.11929247738213962,0.1201529028132889
411,0.1193238783548232,0.11865011681065227
412,0.11937368968317456,0.11902638582110386
413,0.11926110480252214,0.11848786542050042
414,0.11929461432677452,0.11889158226940758
415,0.11927600249636579,0.1190392120533779
416,0.11934019958500452,0.1185098424040038
417,0.1192714180239268,0.1188394036270094
418,0.11934648468398341,0.11904022521440366
419,0.11928691317526137,0.11873005091594441
420,0.11926079771985976,0.11887466375481401
421,0.11937966859948526,0.11864426045258188
422,0.11930230439305152,0.11899277419828691
423,0.11933021603857165,0.11890040175709422
424,0.11924572218540443,0.11960940231444872
425,0.11931872312882405,0.11876701432438234
426,0.11930579030706694,0.11903566706530329
427,0.11927876513788563,0.1185878555548062
428,0.1193205978355102,0.11891435084225482
429,0.11925910892395158,0.11862668165167607
430,0.11928365261710333,0.11952645588537743
431,0.11931687831353979,0.11911976379564003
432,0.11930960212149215,0.12200049981327954
433,0.11929846895369618,0.11862244028904821
434,0.1192671932526058,0.11898917629492853
435,0.11930789734170309,0.11902775760550034
436,0.11930536633197629,0.1198160716482446
437,0.11927914295953516,0.11858159626816175
438,0.1193603743026046,0.11857395356638449
439,0.11928857928203748,0.1194498989722536
440,0.1192811220067783,0.11887411160297957
441,0.11929307698217131,0.1196000009325657
442,0.11930786540067845,0.11867216640584716
443,0.11927238583805921,0.11999067188314694
444,0.11929140115811845,0.11885579340888551
445,0.11932711626852129,0.1187174802652295
446,0.11933864888866758,0.11904767656297068
447,0.11926289080964887,0.11980271077099522
448,0.11929959078145985,0.11873172248227189
449,0.11927304996421281,0.11877591776104807
450,0.11933326141618711,0.11869855888661612
451,0.11928166779034755,0.1195079773554878
452,0.11930052518422635,0.11954663000428677
453,0.11928853125455155,0.11935781357199476
454,0.11930251913845462,0.11910231942285615
455,0.11929100309450834,0.11909839027541244
456,0.11929400223900086,0.11910564034314754
457,0.11930190918177241,0.11859222781424367
458,0.11930883583861919,0.11873112185024055
459,0.11930892820102723,0.11891210514879148
460,0.11925762493366952,0.11929512101516969
461,0.11930064808363104,0.11876785077088323
462,0.11930704977563579,0.11904898765549275
463,0.11927624064962562,0.1184802295117244
464,0.11927560799242824,0.1190278178379428
465,0.1192872901239847,0.11849735531828293
466,0.11927732254674053,0.11859940098768255
467,0.11929273644512542,0.11946702569132261
468,0.11928066271000978,0.11899796478584912
469,0.11930809316029264,0.11921412907753241
470,0.11926468496285136,0.11900522542726966
471,0.1193342140040777,0.11913541745991492
472,0.1192669108374876,0.11881885792652452
473,0.1193305934323616,0.11917967621137966
474,0.119300760484361,0.11907426717565593
475,0.11931917381737552,0.11909455798829612
476,0.119262445029934,0.11847446260112426
477,0.11928638598786585,0.1199521615137133
478,0.11928955418487329,0.11908686434119353
479,0.11926377895460695,0.11869912729646481
480,0.11930971178345753,0.11926293116588427
481,0.11930718062343387,0.11951036753891081
482,0.11926862540827893,0.11903217480985148
483,0.11930990840535095,0.1187277290731238
484,0.11930415931376355,0.11861147505837209
485,0.11931585051131041,0.12039259789885917
486,0.11924744688379414,0.11878802532063411
487,0.11930372171334727,0.1191013817321655
488,0.1192928665923324,0.11884026919641341
489,0.11927638572837083,0.1186908198248436
490,0.11926102068850557,0.1194875016947491
491,0.11930015587284613,0.1189233843013402
492,0.11934489399101535,0.11890453253044017
493,0.11924825050818633,0.11939154610880426
494,0.11929889235294674,0.11924774009756828
495,0.11929261390157547,0.11908531657410718
496,0.11927038716850734,0.11897334872354788
497,0.11928749802628176,0.11853352859548774
498,0.11931132757242499,0.1187633263183569
499,0.1193205462930238,0.11876507368142662
500,0.11928790863216691,0.11948274061967713
