epoch,loss,val_loss
0,0.5196351719243694,0.4977258249209308
1,0.4964080474979375,0.49578673118680083
2,0.49614928123480356,0.4963546789524758
3,0.4961462668975881,0.49555898698000145
4,0.4843885584033942,0.4802811907862109
5,0.48056163533946367,0.4802795490218556
6,0.48047964908633534,0.481979168542517
7,0.4802275905666001,0.4660945297780565
8,0.4650924092675638,0.4649016142505633
9,0.4513926578647565,0.4496517083926107
10,0.4497303703108163,0.4497159951468898
11,0.44975243741173215,0.44956209180325
12,0.4497113920843358,0.4500681847879234
13,0.449626885524119,0.44937088439129536
14,0.44954986297178123,0.4500020654634803
15,0.44958792381087603,0.44944922122253916
16,0.44961804883233336,0.44983623752714286
17,0.4495832544864657,0.4494222639762904
18,0.44954569647834947,0.44951270379061214
19,0.4495088675812938,0.44932450889100994
20,0.4495699210007052,0.44937924611079244
21,0.4495600136440572,0.4495227538336444
22,0.449540137136316,0.449924928497349
23,0.4495156808946739,0.4494993258092263
24,0.44951095399870233,0.449916025984031
25,0.4495422264092186,0.45108705770166757
26,0.4494670770850065,0.44959396092648996
27,0.4495889010336651,0.4504709906318849
28,0.44948502457906825,0.44986695763822937
29,0.4495203759863005,0.44941153934400485
30,0.44949829919929457,0.44946874119837726
31,0.449466920752176,0.4502202862955406
32,0.44949935948554776,0.44986467299293637
33,0.4494422692413295,0.44962781008023905
34,0.44945386708295254,0.4499553152766866
35,0.4494753674095882,0.44946794162891035
36,0.4494735203517659,0.4493887586478421
37,0.4494560698965124,0.44934051689955073
38,0.4494555141700648,0.4493131173252106
39,0.4494365241502878,0.44942948909376795
40,0.44946628949243866,0.4497033479444975
41,0.4494402775430249,0.44996113865789333
42,0.4494290426166997,0.4493402694804479
43,0.44942282553825114,0.44964010380029806
44,0.44945811307983435,0.4494697696617514
45,0.4494254750259157,0.449364855665787
46,0.44941720293343435,0.44935172969906556
47,0.44950506403916235,0.4494810298675541
48,0.449449377447126,0.44935836347683983
49,0.4494248160202353,0.4493517992254641
50,0.4494263431074144,0.4493513146531499
51,0.4493830376405612,0.449874562487803
52,0.44940765412589595,0.44940991616308384
53,0.4494140831624823,0.4492909716530578
54,0.44940080225522744,0.4493298605494737
55,0.44943609491552206,0.44947540027821203
56,0.44938838958618815,0.4493441406480583
57,0.4494143919878744,0.4497171743107977
58,0.4494333656632127,0.44936307570103706
59,0.44938073065617673,0.4502502014633181
60,0.4494111750990623,0.4493304803255376
61,0.44939886112422883,0.4493168616119086
62,0.4493778498050154,0.45059226328091123
63,0.44941623164753164,0.4493511923413269
64,0.4494143221119221,0.449313924883966
65,0.44939021286258035,0.4493312200997604
66,0.44940195352055784,0.44957761396881446
67,0.44938783392468623,0.45036416477114255
68,0.4493898285476663,0.44969738205852805
69,0.44936831886461065,0.4492988417374768
70,0.44936538726330694,0.4495299193305939
71,0.4493875688960083,0.4498240029352303
72,0.44936461004652456,0.44991760231987327
73,0.4493774021630782,0.44970668634463634
