epoch,loss,val_loss
0,0.6576985728764129,0.6491965814051016
1,0.6491134592648534,0.6491683215924702
2,0.648834970673011,0.6487900262447377
3,0.627875234762372,0.6187436768504183
4,0.618212466507675,0.6180731192493253
5,0.6181388825977967,0.6178866871975947
6,0.6180670155493289,0.6188855437619115
7,0.6181494737912758,0.6191516376172782
8,0.6179984696656815,0.6189365527688726
9,0.6179993583250919,0.617795515916004
10,0.6179892562251588,0.6178956434599225
11,0.617973481747276,0.6178777758319968
12,0.6180068337869606,0.6177401387007458
13,0.6179288166466178,0.6178877860027089
14,0.6179655805873597,0.6178142965782343
15,0.6178790053187393,0.6178897070744932
16,0.6179836895746134,0.6177370781732465
17,0.6178898579625282,0.617735384211148
18,0.617927424304875,0.6178516689446409
19,0.617851651748076,0.6183922409185361
20,0.617866897636941,0.6177315955836347
21,0.6178489864461275,0.6178054937695415
22,0.6031724914852288,0.6025174870057308
23,0.6025982249561613,0.6024475001615367
24,0.6025800060920364,0.6027719381224476
25,0.5906931045613527,0.5871982937872272
26,0.5872765612994167,0.5876967881750438
27,0.587275822699927,0.5872490836261411
28,0.5872402867642426,0.5871462488411628
29,0.587290403057478,0.5875332458740569
30,0.5872462480532484,0.5871887121579219
31,0.5872395713828493,0.5882520666658656
32,0.5872547629869715,0.5875914473477721
33,0.5872177192812255,0.5871556914812042
34,0.5872598250473563,0.5871934960315824
35,0.5872153765350424,0.5883294733512209
36,0.5872357765815653,0.5875796245562922
37,0.5872544221927524,0.5871865362866053
38,0.587258192801754,0.5874234321253362
39,0.5872307008472818,0.5872643829281492
40,0.5871882612573024,0.587190596528747
41,0.5872628779185644,0.5876968847559578
42,0.5720253892889365,0.571868325046418
43,0.5719249681226708,0.5730116978316816
44,0.5718968684343442,0.572417147207438
45,0.57191923221086,0.5720247489920219
46,0.5719281333711606,0.5720173867436238
47,0.5719167464654862,0.5719563408502785
48,0.5719317987412628,0.5718378543239606
49,0.5718639092259347,0.5718386340552144
50,0.5719222830136881,0.5718301052330527
51,0.5718928347118576,0.57183819885342
52,0.5719231712269496,0.5724278698172529
53,0.5719320300242833,0.5718454198571288
54,0.5719170634189769,0.5721315164658375
55,0.5719236387867521,0.5718460084278475
56,0.5718684883979138,0.5718524802914943
57,0.5719156803560016,0.5721834321855588
58,0.5718898369329782,0.571869953325871
59,0.5719120003505216,0.5721950616563779
60,0.5719283403080055,0.5722664921104559
61,0.5718785669776116,0.5720109706091021
62,0.5719022839081848,0.572024430595848
63,0.5718766757341067,0.5719072333998484
64,0.571898822282704,0.5720584567157768
65,0.5718686125557852,0.5724041819635982
66,0.57188617880856,0.571927634484604
67,0.5718792170998463,0.5719333800589304
68,0.5718730335242147,0.5718545072623819
69,0.5719097992509641,0.5718559991256618
70,0.5718652427960321,0.5718577081662848
