epoch,loss,val_loss
0,0.4088117896523636,0.37816293608297313
1,0.3782000690200942,0.3776135754788572
2,0.3779376361945393,0.37862217827617517
3,0.3778299677927406,0.37729907834756476
4,0.3780191090517139,0.37724276788917904
5,0.36886547582978607,0.3634056073985233
6,0.36240993912384284,0.3610348218625425
7,0.3542799190621076,0.34493713529056164
8,0.34527097222921754,0.34484242532600157
9,0.34515491932377107,0.34512015286655023
10,0.3453774648514985,0.3450142629226204
11,0.34507945649878063,0.3450787530728525
12,0.3451153922989387,0.3448549023284902
13,0.3453174357518215,0.34489834538931785
14,0.3452471485779942,0.34498509745611394
15,0.34508932687236804,0.34614763834968215
16,0.3451432717690196,0.3448891255810664
17,0.34278731099534276,0.3297265309765657
18,0.3298809127318039,0.3307453176811758
19,0.32984860178055736,0.32959417562794785
20,0.3297865434058266,0.3303156442785373
21,0.3297927604616853,0.329848624288051
22,0.3298902522171538,0.3301999014401059
23,0.329982782069134,0.3298940635909194
24,0.3297850481392289,0.33106797679975497
25,0.3299006335484066,0.33081103255384914
26,0.3298722977004826,0.33157117949389375
27,0.3298605055116022,0.32994733585369357
28,0.32977013285586954,0.33156305321750856
29,0.3298673463118484,0.3306960972265232
30,0.32981442437177694,0.32953240923208926
31,0.3298031812820565,0.3297436960236093
32,0.3297252819949082,0.3296346886371037
33,0.3297216050771738,0.3302784262869959
34,0.3298487947688961,0.32995893768761037
35,0.3297738081019575,0.3302931105302735
36,0.32973380509202654,0.3295441846543422
37,0.32975738193961296,0.3307710316903766
38,0.32981746374556925,0.32967449461805987
39,0.3296833953168263,0.3308697980639142
40,0.3298170849150393,0.33029996540326595
41,0.3296864763645959,0.3300904595930256
42,0.32970646580448115,0.33004832652665983
43,0.32975408766020464,0.3299194522682484
44,0.32973206945353645,0.3304115840852483
45,0.3297581769289341,0.3323458294066681
46,0.3296604350724213,0.32986943878274466
47,0.32977727468449125,0.3301705067567322
48,0.3297086228750729,0.3308743767944613
49,0.3298157310571681,0.3295433349572526
50,0.32974877287765086,0.32971908968768593
