epoch,loss,val_loss
0,0.49177624781667634,0.4660079539362206
1,0.46636827726076907,0.4661450533550064
2,0.4660369157367579,0.46581400742664664
3,0.4660726553634129,0.4657762021350488
4,0.4660883654942011,0.4655819549444493
5,0.46616558271499525,0.4657792340779436
6,0.46607888163874084,0.46560010625829407
7,0.46597287093562106,0.4655974942057144
8,0.466042014977864,0.4668800031435725
9,0.46598521510809876,0.4660285339725655
10,0.46593441485519993,0.4662851346314197
11,0.4658181155732053,0.46602113132240464
12,0.46586338862726284,0.4657159201955685
13,0.46582568185672857,0.46581319034321944
14,0.4658295721105796,0.46562852752443784
15,0.4658434539874506,0.4656172729360208
16,0.46582614168798997,0.46653441273418533
17,0.46578870322942245,0.46574910675193854
18,0.4657852312846308,0.46670284252603855
19,0.46573684201751747,0.4660096165500244
20,0.4657497435266732,0.4658581650337586
21,0.46575189631155306,0.46556502686531215
22,0.46577057703790514,0.4656090512805562
23,0.4551826473624188,0.45221762348818173
24,0.45053244893855326,0.4508660443141715
25,0.45043195365933253,0.45029364160162283
26,0.4504384601062812,0.45033124556209375
27,0.45051166747567223,0.4507882871060669
28,0.4504343359249891,0.45035406900015534
29,0.45048216709866545,0.4508962892876105
30,0.4504540139240049,0.4507763182096148
31,0.4504354136336388,0.45045402490938086
32,0.45045884212895365,0.4502760478013954
33,0.4504602638925215,0.4502742387914259
34,0.4504655453812142,0.45165761291377177
35,0.45042948792359516,0.45028815008031475
36,0.4504350505863318,0.45044585594933545
37,0.45042494782917614,0.45034558213102305
38,0.4504195825442621,0.4503344925063227
39,0.4504199974359057,0.4521766361143644
40,0.450422656303286,0.45030397068736266
41,0.45046914754077205,0.4502870373667441
42,0.45044134572459993,0.4503880879726095
43,0.45042538642389146,0.450356921011992
44,0.4504128941956335,0.45037947554087676
45,0.45036640582917203,0.4503096127768439
46,0.4503996856075609,0.45029729044041383
47,0.45040139073214935,0.450684331300564
48,0.4504778571768363,0.4503548683896118
49,0.4503656273057099,0.45035597239385217
50,0.450419423661606,0.45117804001990974
51,0.4504079128458422,0.4502655814788464
52,0.45037118031200557,0.4505843469602724
53,0.45041615105430355,0.45038385045191687
54,0.45043562663443787,0.4506607981606177
55,0.4504208803822102,0.45042454385274594
56,0.4503872942873108,0.45025752757196635
57,0.4504030253687426,0.4503061434773235
58,0.4503588657279529,0.45038821898846837
59,0.4503597879685386,0.45035564783496657
60,0.45035030740060267,0.4504395856497702
61,0.4504511469076948,0.45030701526275724
62,0.45038312349193066,0.45142530272540243
63,0.45037709455559916,0.4502804394798818
64,0.4503664519229883,0.45036076151958304
65,0.45037008044274507,0.45047814323690777
66,0.450399415559002,0.4504627269492689
67,0.4503966562798839,0.4502725195060892
68,0.4503724311017176,0.45030243173016604
69,0.4503700023843374,0.450282566547182
70,0.45036752173649686,0.4502634922296291
71,0.45033700989971515,0.4504487237862106
72,0.45040009606312914,0.4504540266936023
73,0.4503889547108864,0.4502707034704168
74,0.4503587680545245,0.450272635025164
75,0.45035112882283374,0.4503089408824532
76,0.4503764683178606,0.45041454455678426
