epoch,loss,val_loss
0,0.5133480216118138,0.4672080448742906
1,0.4686109601494967,0.4646462590898887
2,0.46795003798794527,0.46877748330537206
3,0.4689661162939443,0.4707185075081682
4,0.46894184031684905,0.46325977669090757
5,0.467339299601085,0.46385656018172355
6,0.46777138113492517,0.4665990079645979
7,0.46768899041320006,0.46530050743639656
8,0.46813045315797586,0.4701015030229328
9,0.46844934885244793,0.46933794435604254
10,0.4680151667071825,0.46709227539318804
11,0.4682504141165944,0.46625224034595014
12,0.46789536285333044,0.46784782163477273
13,0.46989898503645045,0.465880443065514
14,0.46947117623764834,0.469052745266344
15,0.4693699056298035,0.4656464941723741
16,0.4692615436748892,0.4662663272562502
17,0.4685133561726225,0.4677725397429879
18,0.46821131672233984,0.4658839979543137
19,0.4687062775069428,0.46946485386135006
20,0.46866881720557324,0.4658716523132847
21,0.46935239143057045,0.4666468705716321
22,0.4685408828343579,0.46592447852774843
23,0.4690889344452536,0.737701478976412
24,0.46935692457350037,0.46841275062709414
25,0.4690225422955065,0.46639072673699217
26,0.46890998061920847,0.4672357136562017
27,0.46883889318191485,0.4670256087130409
28,0.46966370041191374,0.46550140641512394
29,0.46941856459662573,0.46628759510761325
30,0.46853683328242685,0.4662499218312518
31,0.4684479919652885,0.46506576328658245
32,0.46948126595324063,0.46798808844823886
33,0.46927043420632936,0.4675897462629879
34,0.468186835775703,0.46475644321060994
35,0.46844335527496883,0.4665635303670244
36,0.4685089290217961,0.4649620228706631
37,0.468426938380948,0.4676247331185967
38,0.4686784317338269,0.4671535504308094
39,0.4687892083951575,0.4674361547202308
40,0.4684295179664996,0.4658866619639848
41,0.46870282213083614,0.46624171015156
42,0.46875260502147603,0.46741282359761954
43,0.468804148274323,0.4661484376261203
44,0.46865943637552443,0.4674197019559627
45,0.4685224617684846,0.4654007566970992
46,0.46810433752107694,0.46714860248353707
47,0.46847222646229275,0.4668897285430956
48,0.46877583761230224,0.4658519758695054
49,0.4679866499716005,0.46674017769624887
50,0.4683454181994742,0.46851470294782993
51,0.4685607193797873,0.46779461327824995
52,0.4679758574087625,0.4659419096958021
53,0.46865719415493945,0.4672520347470861
54,0.46837448379018093,0.4673415676689431
55,0.46799707889518244,0.4689693445904561
56,0.4687316976210769,0.467068397776907
57,0.46811139311377786,0.4660088356103383
58,0.4680791898169092,0.46756568861837894
59,0.4679907101000405,0.46701385215777647
60,0.4682355789426593,0.46762257547792757
61,0.4682861119836499,0.46607446167662886
62,0.46804469840949586,0.46716934807390215
63,0.46817190299607436,0.46677973050059024
64,0.4685118508990024,0.4670526634754793
65,0.4685750250782838,0.4665018730383048
66,0.4687607952552661,0.4664682081825845
67,0.46877235495586816,0.46785667516563
68,0.4684826443229071,0.4669405484634498
69,0.468582780870653,0.4675927607356056
70,0.4687401890114368,0.4657844853061154
71,0.4685264222674248,0.46767191586946644
72,0.4685608564479759,0.4657729911426633
73,0.4687984075152902,0.46782041151869364
74,0.4689153275509459,0.46689640529554494
75,0.46853852698668313,0.46530984139791304
76,0.4687638682286116,0.4666260222104506
77,0.4689837499708817,0.46603670527502705
78,0.46883417906807207,0.4667743678379112
79,0.4683149235504588,0.4656745938873662
80,0.4683289696407877,0.4675393913946542
81,0.4690211751223334,0.4682194858066328
82,0.46881543588857455,0.5750762889685068
83,0.4686295280244626,0.46686042616998386
84,0.4684917886091403,0.4658034108737858
85,0.4690694998195841,0.4669281554445114
86,0.46921937614737985,0.46746073276560757
87,0.4686522270397971,0.468895372731263
88,0.4690988166423989,0.46900668861159883
89,0.4686992059777173,0.468916527528104
90,0.46901903406307555,0.4686174857702536
91,0.4687317804632668,0.4677043606018795
92,0.46861830840057567,0.4695474416608169
93,0.46860200312639877,0.46774969876618444
94,0.46920381917087056,0.4661714562631841
95,0.46881213460809057,0.4693087906909444
96,0.46828319250354644,0.4671708210173923
97,0.46932441600827846,0.46616210579143497
98,0.4691562681527008,0.4678022062961736
99,0.46919015989179164,0.46629613554572635
100,0.468219500018746,0.4660756782616348
101,0.4687848410200988,0.46863082593890293
102,0.468718071591622,0.47090523909542115
103,0.4690601561729196,0.46962708685216603
104,0.46969962945448895,0.46805194450277027
105,0.4690224965387191,0.4687714063419106
106,0.4688818626969508,0.467907529348443
107,0.46948379463934303,0.46825533350168896
108,0.46952475522558157,0.46779814979106676
109,0.4690621716057732,0.470767505854716
110,0.46892476357439067,0.46640252177197306
111,0.4692689785307952,0.4662459746602068
112,0.46984318849380285,0.47092743222637073
113,0.46956991452302577,0.4671327685852761
114,0.47001703851878396,0.4679196297758088
115,0.4695313658700439,0.4690366750691727
116,0.4690641042412877,0.4672667469099995
117,0.46993405103368824,0.4667937470202226
118,0.46959035860360815,0.4695395078122958
119,0.4702268757005584,0.46888518327363093
120,0.4698826801507505,0.4698779311229132
121,0.4694515666614235,0.46715836974068203
122,0.469423053481475,0.4714135176982233
123,0.4706309081070598,0.4701865251626454
124,0.4700574145555601,0.46872139472192165
125,0.4699801517080492,0.4679011015687569
126,0.4698190057711835,0.4677009276271551
127,0.4697889096484474,0.4700679965958946
128,0.46978696512885054,0.46697699941955556
129,0.46983512026316226,0.46843954297012036
130,0.47031386502461275,0.46937898658650695
131,0.46998974111088393,0.4682821439612594
132,0.4696861342775916,0.46932885354372017
133,0.46959015039238866,0.46695869741538737
134,0.4691406438999896,0.46679443784456914
135,0.47030426669163844,0.46885191939411
136,0.46901728699188594,0.46975631596512607
137,0.46976278100274615,0.4682239636511113
138,0.46935380100431107,0.4700581149980743
139,0.47091892560502485,0.469387827117833
140,0.47040024994686014,0.46924131111781625
141,0.4700028850411467,0.4666028362851515
142,0.46996739850278635,0.468352933021845
143,0.4704105469331851,0.46960502193909837
144,0.470162369739526,0.47023273216483547
145,0.47103860127183694,0.46805382706673415
146,0.47103117895000485,0.468851345703544
147,0.4713583372709102,0.46829187851809734
148,0.4706027867816614,0.46874332001284774
149,0.4705399381481255,0.4709211554786059
150,0.47034546457242604,0.4694465155412939
151,0.47051009002064953,0.4725801169839164
152,0.46932475382106315,0.4675630895787642
153,0.46987458256629555,0.4673084373230359
154,0.4701241169686598,0.4702349347822267
155,0.4705737626248148,0.4682675684507433
156,0.4708996249673289,0.4687004426404886
157,0.47046701935187657,0.46796652973857406
158,0.4706039489521724,0.4691998446886353
159,0.47000553743334894,0.4674138108112786
160,0.46949128735071255,0.4696723822256573
161,0.4693234218723292,0.4688079271090872
162,0.47036813388755994,0.4693416178138151
163,0.4704230030212103,0.4686461381447229
164,0.4710902017846668,0.46851334852915294
165,0.47042123326655544,0.46895691297036185
166,0.4694970673383261,0.4677666028267058
167,0.470492538960268,0.46835429324201133
168,0.4709763301496377,0.46982581940795076
169,0.4705429856013651,0.4699735570768666
170,0.4708241984337518,0.46904279819614997
171,0.4713619364662861,0.46783967139787597
172,0.47080891918789386,0.4690625521899992
173,0.470407467205999,0.4680187039672059
174,0.4709954385416194,0.4715104940191952
175,0.47104524672535114,0.4689868918545358
176,0.47030934747872144,0.4697876716293788
177,0.47122197397615084,0.46864427348754434
178,0.47072791524328206,0.4680816646769524
179,0.4709950807212373,0.4686884668319838
180,0.4709500530305341,0.4689041299607096
181,0.4699127938018698,0.4681001006452921
182,0.4703222789997297,0.46962340046110185
183,0.47040102300631004,0.4717967633484337
184,0.47120376244563067,0.46919614154997963
185,0.4716892365274535,0.4691544358245442
186,0.47111057473256845,0.4695737834859058
187,0.4708587961893149,0.4684161195039175
188,0.46996724185273797,0.4681463361581314
189,0.47011243361577876,0.46926918618655644
190,0.4698988340017224,0.4676165379712175
191,0.4693986241436201,0.46832969961927695
192,0.46934115659122166,0.46944005858304216
193,0.47035719325290676,0.4679720704644714
194,0.47124995421541893,0.47028526240950447
195,0.4715611197970205,0.47151691847585886
196,0.47179396198630563,0.46910568818403053
197,0.4708675222349267,0.46932853797250906
198,0.4711888642963406,0.4681047875365851
199,0.4715944600472096,0.4704961378246706
200,0.4729519495845975,0.47025247088492544
201,0.4733154402388925,0.47050737071686444
202,0.473395492643396,0.4712785572823738
203,0.4745795370750463,0.473535737128672
204,0.47545857883504905,0.4739299169302561
205,0.4755592553678113,0.4728777559184657
206,0.4747931914643512,0.47159739981030596
207,0.47314376061456337,0.47107766470681256
208,0.47237563789441467,0.4698999708317942
209,0.47217153662295636,0.4702331758711289
210,0.4713324357041255,0.4692443952800654
211,0.4703526190231929,0.46812533035634246
212,0.4710743203622916,0.4690724518767638
213,0.47215221081292075,0.47364745831286426
214,0.473693827168404,0.4736604662675905
215,0.4743483600262672,0.4709414113978806
216,0.4732895603157244,0.4700873135515751
217,0.47336671526945795,0.471590604985681
218,0.472849778741821,0.4711893501823137
219,0.47183043420520415,0.4694864485446646
220,0.4729892368888367,0.46998906126175133
221,0.4731167012829964,0.47177182147626107
222,0.47457342272953984,0.47137470045207186
223,0.47386947426838794,0.4726142506728373
224,0.47420857311390846,0.4727477938858618
225,0.47405751159679055,0.4713409869654087
226,0.47467897055819275,0.4714967108232089
227,0.4745304275467353,0.4717288514015122
228,0.47423542060203105,0.47278508601927893
229,0.4738541757256453,0.47145528622436667
230,0.4738944911441486,0.47190970626776474
231,0.4744443145404054,0.4721621313367117
232,0.47406008815801814,0.4703628334773428
233,0.47389647910554145,0.47092932324140996
234,0.4737898935411305,0.4715942044924047
235,0.4735962522845195,0.4711854129913759
236,0.4740020192819577,0.47020860229140854
237,0.4738440351520044,0.4719508746240421
238,0.4734856310049947,0.4709428521047413
239,0.47382818793354026,0.4706447189230459
240,0.47390028023509473,0.4720038375957826
241,0.4735374885798467,0.4702179022940646
242,0.47319617701590827,0.4728563248084461
243,0.4736348508592032,0.4707187009389852
244,0.4728311744003937,0.46973832533699117
245,0.47278863608372057,0.47007242854181586
246,0.4725398518151467,0.46999411083720616
247,0.47347082447278127,0.4695173756604637
248,0.4731266191144482,0.4706627068960748
249,0.47232152385436327,0.47083078484045926
250,0.47281678208671984,0.46834817359261566
251,0.47285899980434576,0.47055911613208407
252,0.4722530503845555,0.47041663747735546
253,0.47248060283446486,0.46918759939515564
254,0.4722841628609477,0.46844269260474325
255,0.47269910478944654,0.47021836008180357
256,0.47245833440545243,0.46877451674058096
257,0.47268094115544196,0.46898052788019223
258,0.4725614505802963,0.4688470080056043
259,0.4725609122568297,0.4693515712871753
260,0.4720285736563107,0.4684117765564856
261,0.472158176132325,0.46958916350456714
262,0.4720358661371433,0.4701022092976776
263,0.47233923141989065,0.4682106741005943
264,0.4720664709921674,0.46902393556166677
265,0.47216666038864746,0.4699234591852539
266,0.47149294376599615,0.4690619744588146
267,0.4716189883797529,0.46849515025627614
268,0.47174433449886183,0.4691009368525984
269,0.47219973098132945,0.4700297027036953
270,0.47180270759859694,0.4709172905496059
271,0.47220252753849706,0.4719049019887726
272,0.4722259301504305,0.46920857235863817
273,0.4722416790655986,0.46898010895304776
274,0.47193500146424017,0.4692229244593758
275,0.4718489716637367,0.4683664676590658
276,0.4720768846623369,0.4689049038550968
277,0.4716647756546553,0.469747928308765
278,0.47181889542646577,0.47066946109371466
279,0.47224619439517035,0.4687232831315346
280,0.4718090653625118,0.4685180922540653
281,0.4714107036925922,0.4702919453167213
282,0.472138587369632,0.46831114122350476
283,0.47178843655182945,0.4701441664412234
284,0.47194228186226694,0.4690480759340782
285,0.47202465473613325,0.46907295152796136
286,0.47227420568499306,0.46961421327560915
287,0.4719248043413291,0.4695665042452027
288,0.47220514438264427,0.46971647880500855
289,0.471759897905596,0.4707522620192544
290,0.4714352289325003,0.4689395692993654
291,0.4715306983734932,0.4676288930348366
292,0.471982904757163,0.4684582458566484
293,0.4715990416096845,0.4702453887623799
294,0.4711966803709467,0.4674369524884917
295,0.47165989115537876,0.47046693990044647
296,0.4721497226629725,0.4678527692508468
297,0.4718139230106487,0.4687271491921286
298,0.4721770201281435,0.4680425687495548
299,0.47193245994045846,0.46949410420321697
300,0.471879467149047,0.46881452195620976
301,0.4717244342204439,0.4690625775211452
302,0.47204049895718386,0.4684784247833703
303,0.4703990388820757,0.4668893835449201
304,0.467600574887488,0.4662823524877393
305,0.467495310133632,0.4641739938143868
306,0.4669286626677705,0.4628925608979218
307,0.46656368411850585,0.46586293347523505
308,0.46678511671730044,0.46715663617177017
309,0.46589979736936504,0.46406777665380594
310,0.46500781585581696,0.4668406005655534
311,0.4650678863223938,0.46262405731320755
312,0.4649102332969254,0.4611085390499244
313,0.4647600712791861,0.46257643510642193
314,0.4645629712233173,0.464189946596259
315,0.4647536382162961,0.46329475219193644
316,0.46455485638303406,0.46269467300255
317,0.4641677219119567,0.46172565976918506
318,0.4644643069900627,0.4653977829508261
319,0.46469827147887655,0.46432838311436486
320,0.46427868035910475,0.46243284216278635
321,0.46450941070287394,0.4636177616906312
322,0.46445019468684096,0.46140727921312974
323,0.4646999322453944,0.46312078176151494
324,0.4639041548317232,0.4658432335219001
325,0.46432282112728396,0.4628412505612812
326,0.4640273031546207,0.46191285990260006
327,0.4642041013097071,0.4623923078469158
328,0.46440496730450054,0.4633057983655977
329,0.4642402734877857,0.46489401939158576
330,0.4646727902841613,0.46456782798851876
331,0.4648248719927839,0.4653827468484259
332,0.464997851776289,0.4645978215061353
333,0.46558476487864514,0.46286953907031486
334,0.46492646222054834,0.46333846415076174
335,0.4643602196766904,0.4635468400237869
336,0.463019627815972,0.4657189597308934
337,0.46599463782548184,0.4683554345180556
338,0.4705227658707005,0.4742948540848126
339,0.4753270664904769,0.4738816603794653
340,0.4701833194977118,0.46553904590926404
341,0.46702012216767996,0.4689200409784828
342,0.46677901180495246,0.465438202992261
343,0.4656223764403768,0.46462373707907845
344,0.46519593770589945,0.46243130482331674
345,0.46468580980106156,0.4625788599026382
346,0.4655603427251986,0.46504219194036167
347,0.46553527586632504,0.46346769073557514
348,0.4658803077538532,0.4647932957114721
349,0.4660133106306222,0.4650762423605229
350,0.4667643885710635,0.46908349647171343
351,0.47347893323336593,0.47463765110565925
352,0.46481112905316047,0.45808632988403364
353,0.4571999785720216,0.45358823691612926
354,0.45577622449645616,0.45223350165221043
355,0.4554623037108157,0.4529735589385099
356,0.4551000100353935,0.45106102273649235
357,0.45261835256908717,0.4491567907675171
358,0.44847761091430605,0.44480971754381093
359,0.4503714821180282,0.44829328711175503
360,0.4472089077649352,0.4496418576557165
361,0.4495413617317052,0.4457215930735939
362,0.44674492550946165,0.44647685380572855
363,0.44662151932412764,0.4473507479509395
364,0.4445690409383021,0.4376013885495574
365,0.41552218645573025,0.4026754894760455
366,0.4002229655758576,0.4042269649892455
367,0.3987090240291362,0.39482949496662423
368,0.39962088572518323,0.3940707008459763
369,0.39733071531149516,0.39583518195867673
370,0.4061327437703286,0.4032043348111186
371,0.3988704524501482,0.3944582248268403
372,0.3877963999854735,0.3828326009350544
373,0.38063945516766945,0.38061900707080776
374,0.3893622200972218,0.3958390984883638
375,0.392329610709789,0.3920934559581765
376,0.39392700227963884,0.3963176582417768
377,0.4040867944143074,0.40801492916873083
378,0.4076744463083514,0.39636994174375073
379,0.39124912851145094,0.39035777407324873
380,0.3880272193208224,0.39193783688598216
381,0.3902485623801509,0.38943488383915803
382,0.39586722537257957,0.3983868444146967
383,0.3996502593284223,0.3951007736504221
384,0.39897433139842825,0.40219724407393
385,0.4002022915838581,0.3962598785655899
386,0.4001098150568405,0.39699232321598943
387,0.3995072070293308,0.39847700663530555
388,0.39694874074776426,0.39253461464706846
389,0.39284405793998717,0.3937229668625992
390,0.38871253465668276,0.38597656046489714
391,0.3821266140798367,0.3758011027207351
392,0.37977577133425017,0.3756437717068745
393,0.38468915065303483,0.38238993247342695
394,0.38456789360148286,0.3783894646916263
395,0.37818608696748157,0.37682663934013094
396,0.37923669731433984,0.37365196339177476
397,0.37769293102673024,0.37062068796087183
398,0.37138616996015045,0.36985331811845734
399,0.37494293786020383,0.3705987913130742
400,0.3797436776272093,0.3755508195660604
401,0.38110115649907667,0.3748380831875919
402,0.3786686555033098,0.3742064182836494
403,0.3783216665062199,0.3715210880067839
404,0.3760576853882466,0.37573993065264916
405,0.3816386804552867,0.37601994263130023
406,0.3797918085676188,0.3746828609957786
407,0.37847896486397253,0.37478977734346175
408,0.37115962420717463,0.35291457363335504
409,0.3263595367960941,0.3171065685031016
410,0.31618494784803575,0.3087978122587181
411,0.3046532204532813,0.301235073119275
412,0.298679626793113,0.29130886766971936
413,0.2975645541153918,0.29121625275496177
414,0.2974241374080824,0.30312863214741503
415,0.30743582290267885,0.3160398716804252
416,0.3330054249338386,0.33004872771099025
417,0.33843755324391794,0.33646570716572816
418,0.34333887389555695,0.34272302507493074
419,0.3525433957580892,0.3567636449991895
420,0.35682165025712514,0.35332244112991057
421,0.3622041584490924,0.3665619401285705
422,0.3709579504529014,0.3700938604787271
423,0.37511965682050546,0.36878343936932884
424,0.38147472573975516,0.38599988558730014
425,0.38056575924710795,0.3754395236183392
426,0.38346915322503133,0.38187381959685707
427,0.38312018046320356,0.37891616924954113
428,0.38354868005818604,0.37949686643039104
429,0.3853819435082633,0.38055978099667026
430,0.37468567737947117,0.35972517765789347
431,0.36410628049107724,0.35715108185835426
432,0.36161020184926146,0.35759036014711093
433,0.3638067258234826,0.36155766611917084
434,0.36222629722133864,0.3592242994481136
435,0.359672212991393,0.3568888859222014
436,0.35856264663066645,0.3542239818777899
437,0.3583784118622127,0.3507372884755665
438,0.3603459491165527,0.35435133314084116
439,0.3602608426305133,0.35844730494596005
440,0.3713239952871841,0.36718548006052265
441,0.3666699213427521,0.36385192696000274
442,0.3663876970447566,0.3700563440523361
443,0.3689133030735487,0.36336838601253324
444,0.36654637334332474,0.36966481464265516
445,0.36782488584523954,0.36234374579223666
446,0.3670057957937921,0.3605901936807772
447,0.3665784159680631,0.3622209302836777
448,0.36636796516108694,0.3629554604011281
449,0.3667411174073062,0.3613491098866195
450,0.3660408450475441,0.36144337791119446
451,0.36568631078084574,0.3582397534474551
452,0.36671076655685964,0.3597586593830623
453,0.3672608717651908,0.3606200363651914
454,0.36556913889828113,0.36012473343080625
455,0.3674704665083743,0.3680105016814004
456,0.367321821568986,0.3620748504220744
457,0.3664617365065851,0.36420659450143106
458,0.36681965539552625,0.3644708053814877
459,0.36540877913937975,0.3566576524462208
460,0.36552205321683406,0.3599479746147314
461,0.3645831284369331,0.3647038249709823
462,0.36392835225864323,0.3554898448113182
463,0.3630193475448333,0.3603487577255533
464,0.3606451481228138,0.3551664067089701
465,0.35959801544843056,0.35152835703752816
466,0.3589164999731908,0.3552512422902294
467,0.35876984875196827,0.35319337262050116
468,0.3580886974410839,0.3524640146494574
469,0.3562288865802746,0.35004767701567974
470,0.35630188447056643,0.34747098293828177
471,0.35688583203035623,0.3493411733080092
472,0.3566709426411193,0.35191119736180215
473,0.35806523847791377,0.3525721628835056
474,0.3591886516264989,0.3586096607395666
475,0.35887821110708973,0.35542656398742456
476,0.35790265614928846,0.35431715608150965
477,0.35759963394411987,0.3539976026420572
478,0.35641009559982645,0.35018522899158355
479,0.35449256414322833,0.35100562947506064
480,0.35405970165619727,0.35017342352385783
481,0.35413422533762584,0.34873555254816985
482,0.35413803514615416,0.3488793054881593
483,0.35582532307578957,0.3546903623179344
484,0.3576059744349562,0.3486234248236476
485,0.35826209828046074,0.35583731320129985
486,0.35913997823289895,0.35272405768659604
487,0.3588470039492761,0.3555550221039821
488,0.35886925172000955,0.35171218306118746
489,0.3578801030246402,0.35373018406832474
490,0.35782432748251775,0.3523822462234172
491,0.3560938375657935,0.3505202199015535
492,0.3551447461939568,0.3575509974505641
493,0.35457756327508,0.348178394521071
494,0.35362038283837055,0.3541564794464627
495,0.35347481754957705,0.3500068969948686
496,0.35203045239250597,0.3530692650854952
497,0.35235703027849247,0.3462312379895062
498,0.3512940496666522,0.3511726660935122
499,0.35278517899530687,0.3460685293096859
500,0.3508808629480384,0.3513060696291954
501,0.3518169799911921,0.3474735947124692
502,0.35132135478889,0.3437318251373194
503,0.35058269550813514,0.3464368955142676
504,0.35169950341919454,0.34870083598897156
505,0.3503707357759936,0.3474331499139652
506,0.35002848770179534,0.3490204435958975
507,0.35110199504094475,0.3448120947070951
508,0.35107520803516257,0.3447158261678201
509,0.3498627066195476,0.34619654678353384
510,0.3493191995147048,0.34134449369709985
511,0.34810006018327033,0.3493837274087979
512,0.3473062715334763,0.34287498156369495
513,0.3471282914735265,0.3449562931418485
