epoch,loss,val_loss
0,0.7872120863815097,0.778278731862623
1,0.7783201433242323,0.778313934239972
2,0.7784200395956473,0.7784204851545478
3,0.7783869040684713,0.7784315305498932
4,0.778325368577662,0.7787134580908937
5,0.778278685247593,0.7782368510933932
6,0.77829851900273,0.7782220714929965
7,0.7782466620748727,0.7781260899425237
8,0.7782726804803022,0.7781342392851852
9,0.7782283503017903,0.7781242431700506
10,0.7781582352216624,0.7781392367134758
11,0.7782479813867826,0.7781085910830681
12,0.7782571612472972,0.778145471410103
13,0.7781544346577983,0.7781206644736168
14,0.7781206971923438,0.7781959403155136
15,0.7782024124278609,0.7782941876263237
16,0.7781684791482772,0.7780739551099236
17,0.7781024822462184,0.7781094148945512
18,0.778124919471076,0.7781140024650095
19,0.7781437851811288,0.7780779521870247
20,0.7781271911692693,0.7780525587977999
21,0.7781203755447555,0.7780723325365847
22,0.7781007531043044,0.7781167958462364
23,0.7781094075172971,0.7782552788424965
24,0.7781261498737515,0.7780251342028374
25,0.7781236851178194,0.7780667238598467
26,0.778080173752894,0.7781195722480332
27,0.7780567779757552,0.7780394082732677
28,0.7780808809970663,0.7780725397673287
29,0.7780697789700199,0.7780232876070032
30,0.7780754947468781,0.7780644580332697
31,0.7780626458711447,0.7780769044192859
32,0.7780606886112351,0.7783411887204742
33,0.7780599297427021,0.7780037984889533
34,0.7780472892357392,0.7780043037208413
35,0.7780735182290358,0.7780207154882862
36,0.7780283294275191,0.7780259762964639
37,0.7780376911730065,0.7780409313215328
38,0.7780488706807549,0.7780145503212113
39,0.7780476248768854,0.7780245339832917
40,0.7780285285040518,0.7780181834997568
41,0.7780532465960573,0.7780040410585504
42,0.7780563060828035,0.7780314709526849
43,0.7780446510369701,0.7779788616785939
44,0.778035576931321,0.7780373140515432
45,0.7780400877515145,0.7780522082465339
46,0.778022794718653,0.7780007477556473
47,0.778010669187504,0.7779981830778508
48,0.7780115235747204,0.7780238469125254
49,0.7780261579438094,0.7779867009313752
50,0.7780202672796773,0.7780332555702868
51,0.7780203727088544,0.7781533042597183
52,0.7780178955638853,0.7779962945302387
53,0.7780080557539284,0.7779862504134378
54,0.7780237998002045,0.7779853726056002
55,0.7780124745184069,0.7781706169526386
56,0.7780310547396366,0.7780178394841362
57,0.7780034968643452,0.7779959782248714
58,0.7563061151577971,0.6671436065257667
59,0.6670291285849278,0.6670176286259323
60,0.6670121464721802,0.6669746181946768
61,0.6669887564985499,0.6669697065136128
62,0.6670014983939465,0.6670826324976734
63,0.6669973198936142,0.6670134405357614
64,0.6670086292130034,0.6670378017566848
65,0.6670196414825537,0.6669557121180234
66,0.6670120238496033,0.6670909017782605
67,0.6670133097370582,0.6670718853242708
68,0.6670267959554157,0.6670015484983335
69,0.6670025943075816,0.6670664990029969
70,0.6670163110488763,0.6669931592798206
71,0.6669954790534828,0.6669851801840988
72,0.6669950414590086,0.6669803299955095
73,0.6669864936105019,0.6669834836652311
74,0.6670084746950506,0.6670344356895266
75,0.6669883319132084,0.6669680484247817
76,0.6670062675861895,0.667118955274537
77,0.66699929928377,0.6670267801744935
78,0.6669863251137115,0.6672323728340779
79,0.6669860214599436,0.6670118544715095
80,0.6669910258028421,0.6671008125546465
81,0.6670057044949849,0.6669564223064275
82,0.66698353866787,0.6669691572654775
83,0.6669733589073766,0.6669751345989858
84,0.6669862341417843,0.667031075352098
85,0.666974954767321,0.6669700215935465
