epoch,loss,val_loss
0,0.5813287178220229,0.5566495059706322
1,0.5565940665134447,0.5564560767433603
2,0.5566491289854646,0.5564141748436824
3,0.5566106987762027,0.5564641992920835
4,0.5567002478520412,0.5571154062671559
5,0.5568620545661773,0.5562950150572298
6,0.5565509681581248,0.5570655948344282
7,0.556545484747931,0.5563928600725675
8,0.5565452355006748,0.5577275655096958
9,0.5565360301923094,0.5562856629129295
10,0.5563962698199914,0.5562169072384701
11,0.5563528884231108,0.5561904996098093
12,0.5563466183210323,0.5563001149803384
13,0.556359789125881,0.5561415823902724
14,0.556248480540282,0.5563251289709296
15,0.5563584327701434,0.5563322270572307
16,0.5562896055150399,0.5562199132820923
17,0.5562535569651844,0.5561566569668691
18,0.5562311573269684,0.556978122241675
19,0.5562363573073517,0.5561350923397956
20,0.5562253920142032,0.5561225844723446
21,0.5562108603068605,0.5560499962379941
22,0.5561234477703979,0.556098334467793
23,0.5561232130815942,0.5560367470274238
24,0.556132608308578,0.5563202492725763
25,0.5561302413493078,0.5560195571428141
26,0.5561422327391853,0.5562506300759638
27,0.55619221437755,0.5560315260955152
28,0.5560800676836308,0.5563594809305361
29,0.5561327241781822,0.5560077142331264
30,0.5561231700226527,0.5559958621602872
31,0.5561221554133375,0.5560082753933586
32,0.5560626568527959,0.5562224083861768
33,0.5561182947167351,0.5560475497869325
34,0.5561137530334321,0.5561239988655046
35,0.5560768426515297,0.5562900936168572
36,0.5560986211505761,0.5559718497352791
37,0.5561235027252437,0.5559741527112596
38,0.5561044921850858,0.5563387429742906
39,0.5560895149655464,0.5559711725121407
40,0.5560522358087701,0.5563368629274335
41,0.5560776422789454,0.5559834883618872
42,0.5560551828428796,0.5560981691667473
43,0.5560601289372481,0.5560366493791402
44,0.556058658925483,0.5559858898031069
45,0.5560560618462458,0.5560168141258008
46,0.5560223406486474,0.5560447164411169
47,0.5560385133357288,0.5565899560839672
48,0.5561455860299275,0.556169638525095
49,0.5560599586648123,0.5559927567130306
50,0.5560403352031349,0.5560970711010345
51,0.5560298776709757,0.5560805877726881
52,0.5560585608344136,0.5559621312305163
53,0.5560181426382961,0.5562429934613107
54,0.5560018705721125,0.5560009794713038
55,0.5560100852672166,0.5559563544154675
56,0.5560595966318709,0.5560545796463944
57,0.5560579604969761,0.556041464140557
58,0.5559999575414143,0.5559785287233167
59,0.5559989835860991,0.5559355360222075
60,0.5560723066171712,0.5560128766202247
61,0.5560262040906001,0.5559475289095019
62,0.5560117674860903,0.5559460688993034
63,0.556001974923022,0.5559542699088916
64,0.5560121158769226,0.5559789592479197
65,0.556013587736095,0.5560277240941824
66,0.556062729606417,0.5562545656164303
67,0.5560238256733566,0.5559658102579395
68,0.5560194329345038,0.5560283772612881
69,0.5560243692987034,0.5559851834234827
70,0.5559679944646313,0.555946659105622
71,0.5559942150838737,0.5560730488394384
72,0.556018608126044,0.5559583764470138
73,0.5560383508779729,0.5560642792618171
74,0.5559831375717745,0.5559656341929505
75,0.5560018527567767,0.5559887439702523
76,0.5560011449311495,0.5559447390500164
77,0.5560070869399549,0.5559517608724008
78,0.5560311856169149,0.5562886333637799
79,0.5560347547010174,0.5562330865268245
