epoch,loss,val_loss
0,0.6777511160647414,0.6679058877886126
1,0.6675980318340784,0.6674430546417879
2,0.6677620102803308,0.6673335777673264
3,0.6675611959501617,0.6671996983163201
4,0.6676588694207943,0.667196023252236
5,0.6673726666317016,0.6673882953832273
6,0.6673852483786014,0.6672597821056014
7,0.667504375765817,0.667298588946608
8,0.6673934152214414,0.6677587674953117
9,0.6673673024712784,0.667304612460192
10,0.6672550523207128,0.6670898652160625
11,0.6673436499247711,0.6674870026952846
12,0.6672339270567771,0.6673077533346212
13,0.6672970856126268,0.667328707353564
14,0.6672092360631448,0.6670612805992349
15,0.6672105333975326,0.6671967538534922
16,0.6672435958067581,0.6670868848955042
17,0.6671781766334784,0.6670461333798223
18,0.6672149984281547,0.6672411159710391
19,0.6671405867203526,0.6670231260642185
20,0.6671214038892272,0.6670615166773464
21,0.6671425732774917,0.667076472519371
22,0.6671183629483155,0.6670115672232686
23,0.6670904008165226,0.6670336015336181
24,0.6671178320928954,0.6670826950279026
25,0.6671213638258824,0.6669967736463057
26,0.6670630201377641,0.6670094465719238
27,0.6671316657802216,0.6675690998963061
28,0.6670590721695693,0.6670099488561474
29,0.6671411936764394,0.6669990761254889
30,0.6670449870232503,0.6670533342921396
31,0.6670654460227019,0.6670186591824021
32,0.6671063806556307,0.6670958447465192
33,0.6670713651155611,0.6670175782396388
34,0.6670535971941512,0.6669632870194029
35,0.6670830210206965,0.6672013466679226
36,0.6670279106136103,0.6670408591912353
37,0.6670458448035136,0.6669928829832019
38,0.6670376961587391,0.6670536386743698
39,0.6670851643461659,0.6671214871085072
40,0.5863849140437561,0.5560754242484758
41,0.5560260222810691,0.5559712647729327
42,0.5559946623772362,0.5560708570687898
43,0.5560383800555994,0.5560757072904989
44,0.5560786567980983,0.5562769808268454
45,0.5560071489881823,0.5561294038663597
46,0.5560538112331518,0.5561460384860659
47,0.5560069681888371,0.5559856486687021
48,0.5560450355923379,0.5560444349336456
49,0.5560553225484535,0.5560784010362528
50,0.5560264559672834,0.5560909793385312
51,0.5560297094299519,0.5559552707679185
52,0.5560839804535653,0.5561432981407185
53,0.5559916284671442,0.5559566084114043
54,0.5560214548389472,0.556017931036694
55,0.5560231502417581,0.5560019368329607
56,0.556034870822708,0.556148776259107
57,0.5560208299074405,0.5560251688113763
58,0.5560006012910824,0.5560282620705373
59,0.5560044504781904,0.5559742784120348
60,0.5560107787275963,0.5564468903417035
61,0.5559797591533495,0.5559666568558621
62,0.5560249931427422,0.5559468859433023
63,0.5560076497385922,0.5559857153609895
64,0.5559997004095565,0.5559381525656496
65,0.5559994037461274,0.5559748797024548
66,0.5560117616181801,0.5559422662907738
67,0.5560107162727187,0.5559858809821936
68,0.5559760275029284,0.5559240144079406
69,0.5559870728326043,0.5559711131503746
70,0.5559993477350946,0.5559645358291594
71,0.5559836083257371,0.5559253896645074
72,0.5559917422998162,0.5559989591509484
73,0.555988877171722,0.5559909921108429
74,0.5559537015181165,0.5559547939307603
75,0.5559701545474095,0.5560163214352865
76,0.555979427098455,0.556097083664488
77,0.5559879078018041,0.5559645149305499
78,0.555972623892419,0.5559187826568892
79,0.5559598556917095,0.5560591632755935
80,0.5559947988443272,0.5559586544548235
81,0.5559906349484486,0.555951558907709
82,0.5559472489496102,0.5559395504982566
83,0.555976422930884,0.5559184670249584
84,0.555991786700152,0.556069738954543
85,0.5559672902086954,0.5559371410641191
86,0.5559603336420961,0.5559328660896077
87,0.5559465736228943,0.555943903933633
88,0.5559911784284316,0.5559170916138324
89,0.5559544969483848,0.555985678377185
90,0.5559629537918435,0.5559546119594027
91,0.5559544359581846,0.5559548027847935
92,0.5559423238188981,0.5559138427135745
93,0.5559471764149547,0.5559774264955459
94,0.5559269753882624,0.555991371012679
95,0.5559864062221914,0.5559568613143867
96,0.5559468784837331,0.5560463912333795
97,0.555959956918219,0.5559454055092118
98,0.5559419687358145,0.556092795000449
99,0.55594465331113,0.5563748116448182
100,0.5559652590708959,0.555902431840962
101,0.5559294120245951,0.5559150490259148
102,0.5559517564485187,0.5563444085288078
103,0.5559467575208787,0.5559341008629175
104,0.5559571504342649,0.5559419936262958
105,0.555951737225547,0.555917646856656
106,0.5559313743851153,0.5559373008010343
107,0.5559290390084128,0.5559138747846049
108,0.555946258144984,0.5559584425431442
109,0.5559296000332448,0.5559988511803194
110,0.5559285121918961,0.5560345514369555
111,0.5559377518741809,0.5563721482809837
112,0.5559616463335167,0.5559222694899687
113,0.555941873333054,0.5559327786422301
114,0.5559306922355048,0.5558886416511727
115,0.5559594847511002,0.555897648521299
116,0.5559191858360341,0.5560808854757536
117,0.5559009258032352,0.5559079679411237
118,0.5559622171271584,0.5559574046671931
119,0.5559444010664372,0.5562449393614196
120,0.5559170297995194,0.5559857494192093
121,0.5559166685283576,0.5561206261633413
122,0.5559458145390759,0.5559726987399091
123,0.5559221001817074,0.5559143833615953
124,0.5559232688158428,0.5559065386440427
125,0.5559156320298424,0.5560027134707733
126,0.5559111973323962,0.5559541209138396
127,0.5559346612391178,0.5559197740436461
128,0.5559328790688873,0.5559240236373317
129,0.5559025297906677,0.5559453244318806
130,0.555916758022727,0.5559101500407836
131,0.5559162642700161,0.5559088466100769
132,0.555904847926129,0.5559927091198423
133,0.5559327182598136,0.5560484698335867
134,0.5559617260664363,0.5559819637238703
