epoch,loss,val_loss
0,0.5725830016954475,0.5565719614538535
1,0.5570840701965472,0.5564096633825816
2,0.5569648222972886,0.5565093014169168
3,0.55667742465891,0.5568938414064419
4,0.5566722295638518,0.5563496415273727
5,0.5566943525160297,0.556499888486698
6,0.5565125650711568,0.5567491813641298
7,0.556563577599573,0.556204343243956
8,0.5564589885567498,0.5563122382824631
9,0.5564450124313798,0.5564479545258354
10,0.556427177155047,0.5562281210591647
11,0.5562939684929714,0.5562510202495803
12,0.5564598847369555,0.5561353850748875
13,0.5563224635336769,0.5562912889996553
14,0.556328965466966,0.5562564555329953
15,0.5562485829738624,0.5560932698724976
16,0.5562269529463741,0.5561298781864111
17,0.5562161528563317,0.5563847515335302
18,0.5562792165871957,0.5563044047483715
19,0.5562509999069711,0.5560997175627184
20,0.5561530849724816,0.5560645203520621
21,0.5562263090863032,0.5560470258754632
22,0.5561217619174312,0.5560483929514333
23,0.5562101751450931,0.5560468726189937
24,0.5561450590386062,0.5560159583647266
25,0.5561709347410252,0.5566500124279538
26,0.5561577088948484,0.5561327257075118
27,0.5560744710755813,0.5561577836591506
28,0.5561201711654574,0.5560067070592529
29,0.5561422378397958,0.5560389054022491
30,0.5561380818432392,0.5561729764072824
31,0.5561278722942238,0.5567608681138433
32,0.5561002803872618,0.5561200475379214
33,0.5561008255288074,0.5560968116513666
34,0.5560650585282343,0.5561895487065182
35,0.5560816267812748,0.5560868195878905
36,0.5560866549380625,0.5561104209296327
37,0.5561099305914083,0.5560359334278866
38,0.5560611897943063,0.5560515899750056
39,0.5560744835621407,0.5560979641881513
40,0.556063545740895,0.5566059871059057
41,0.5561677714406632,0.5560563816077445
42,0.5560539064629479,0.5560031903741712
43,0.5560569048914121,0.5560845346842944
44,0.5561278049742616,0.5559707809916512
45,0.5560191326719427,0.5561010742169836
46,0.5560620506069672,0.5561188180527437
47,0.5560729693690054,0.5559895672849382
48,0.5560508770425708,0.556005380047231
49,0.5560540974138327,0.5559853136285541
50,0.556015567685625,0.5560038085777819
51,0.5560420099624578,0.5560657228777024
52,0.5560558470373107,0.5560539255408937
53,0.5560438263906847,0.5561564633262932
54,0.556003237007628,0.5561190795889606
55,0.5560648304378394,0.5559912310262194
56,0.5560447933188601,0.5559646825720633
57,0.5560245082774586,0.5559851572036213
58,0.5560597555567364,0.5559646978182227
59,0.5560073164140652,0.5559833082231598
60,0.5560090348174646,0.5563856758968017
61,0.5560081886515783,0.5559706754829292
62,0.5560340805997729,0.5560004686421653
63,0.5559974393247546,0.5560974640898361
64,0.5560806019486582,0.556009154967587
65,0.5560191799409119,0.5560323895845486
66,0.5560325696469605,0.555991622127191
67,0.5559913279175357,0.5561141095949248
68,0.5559832455898978,0.5560111850030909
69,0.5560135536657834,0.5562671135367895
70,0.5559886907731136,0.5560571767484994
71,0.5560332637495167,0.5559534497847489
72,0.555967439478834,0.5560136284071288
73,0.5559974525730935,0.5559520842322907
74,0.5560207202737558,0.5560436602388626
75,0.5560057011508244,0.5559724339358695
76,0.5559760195336845,0.5560170958871907
77,0.5559930269397192,0.5559309338459065
78,0.5559865988695997,0.5563127444637862
79,0.5559747719431293,0.5559824815302519
80,0.5559961675504608,0.5560508503982768
81,0.5560051676034155,0.555956686938509
82,0.5559771384019069,0.5562916200433446
83,0.555971908769165,0.5559848647997278
84,0.5559755268298004,0.5560461778423481
85,0.5559900734415244,0.556005799046135
86,0.5560052362702921,0.5559566855585162
87,0.5559862144193648,0.5560586626032012
88,0.5559699525783228,0.5559362543580885
89,0.5559757867750902,0.5559536059778428
90,0.5559860230195085,0.5560224714114017
91,0.5559554786539783,0.5559347497575657
92,0.555983380774476,0.5559446351641658
93,0.5559748768000516,0.555973537157235
94,0.5559857111591306,0.5562336270865257
95,0.5559597557035516,0.5559385960069845
96,0.5559733126367581,0.5559943461665446
97,0.5559700650456799,0.5559902835453102
