epoch,loss,val_loss
0,0.46028593322591366,0.4482498239987337
1,0.44631927254829795,0.4468633089491252
2,0.44618039583190516,0.44584103815421766
3,0.4458599888963396,0.4465047067338658
4,0.4461440675893747,0.4453542049857594
5,0.44578836379354303,0.4455732954312395
6,0.4455488795907412,0.44583011979548043
7,0.4455911038997818,0.44771156827814823
8,0.44572203939990646,0.44543247297751193
9,0.44567865266412926,0.44559413333759634
10,0.44558196620026586,0.44705027312586804
11,0.4455896756138441,0.44524100316323756
12,0.4454578608131856,0.445302111227262
13,0.445409048534855,0.4454145465135177
14,0.44546818857694515,0.44537041637826397
15,0.4454569142478911,0.44517657068023464
16,0.4454029685326395,0.44562771895965575
17,0.4454159264431221,0.44525638059303263
18,0.445279813743317,0.4451845861249642
19,0.4453338458478585,0.4463596391189891
20,0.4452830530633836,0.44519947744957006
21,0.44528600174893535,0.4451146417579114
22,0.4452494200068,0.44511440846738515
23,0.44529702027188556,0.4453956253287041
24,0.44530749805744285,0.4451848237762674
25,0.4451633858827193,0.4450835007156436
26,0.44518332314050396,0.4462185329829218
27,0.4451825927549796,0.4450417586964001
28,0.44528022194395933,0.44513061612838944
29,0.44516906793611466,0.4450864502182049
30,0.4452780512155889,0.44513281392132625
31,0.44511091837480243,0.4451118167472517
32,0.44514693433650426,0.44518587521478675
33,0.4451977535928164,0.44511365327465907
34,0.44512479833471247,0.4449957658304376
35,0.4451887765938114,0.4456622990596557
36,0.4451449821762851,0.44507118669852747
37,0.44514039376498676,0.44511091351442855
38,0.4450670602548466,0.4449549019060702
39,0.44510533025213,0.4452745981085276
40,0.445053222609579,0.4450594246508921
41,0.4451253113315557,0.44498122257863093
42,0.445041061195672,0.44511278264830345
43,0.4450992162458446,0.4450180129411817
44,0.44505218505119676,0.4452338296410154
45,0.4450246732690845,0.44502876961997406
46,0.44513569476133924,0.4449879958036101
47,0.44503175033392633,0.4449899013361725
48,0.4450720585035092,0.44515087184894525
49,0.44505479600070874,0.4450121301206135
50,0.44507069901049134,0.44499931054593106
51,0.4450221915120375,0.4450435205110026
52,0.44508554026803276,0.44496538537942737
53,0.4450589271124687,0.44502509867378814
54,0.44502462202745363,0.44532021818878165
55,0.4450311661714226,0.44501419121699326
56,0.44506462500590926,0.44495733895662165
57,0.4450335902144732,0.44508709089361664
58,0.44502197777032965,0.44514800354515455
