epoch,loss,val_loss
0,0.5746692529307744,0.5564817295049733
1,0.5565819502414124,0.5564630413898871
2,0.5567663182566203,0.5565066470395947
3,0.5568071598935701,0.5574006391777155
4,0.5565964157273011,0.5587402418115047
5,0.556737297411424,0.5563442416821702
6,0.5565049556613767,0.5562163306112796
7,0.5564067928155052,0.5563550935142193
8,0.5565269372648188,0.5572431802661314
9,0.5565053745333721,0.5562367849072652
10,0.5564557466882181,0.5562170288103071
11,0.5563476021482,0.5567430557090058
12,0.5563904323092992,0.5562787189000534
13,0.5563789068708613,0.556158783646022
14,0.5564548459833367,0.5564293818112589
15,0.556353398802487,0.5561001343094744
16,0.5562641650205543,0.5565410739824846
17,0.5563901203605991,0.5564162808891844
18,0.5562330920665419,0.5565420518563531
19,0.5562363081394539,0.5562476362425169
20,0.5562994912636121,0.5562941503758827
21,0.5562232984160058,0.5561368762618812
22,0.5562541859631952,0.55610341768747
23,0.5562406532670887,0.5561737103867606
24,0.5561871730110642,0.5560294003989171
25,0.5562289620956111,0.5560591197451037
26,0.5561419269178419,0.556242400439807
27,0.5561307550481289,0.5560691114553016
28,0.5561593180656934,0.5562707099192097
29,0.556123819686232,0.5562739670994238
30,0.5562154357807879,0.5563843104657828
31,0.5561368098444596,0.5560464970843397
32,0.5561261843012825,0.55610752084737
33,0.5560884079049061,0.5560029734945182
34,0.5560656855757952,0.5560204951293735
35,0.5560888213082815,0.5559921784408889
36,0.5561510294908593,0.5560151482538109
37,0.5560895162406989,0.5562563896797436
38,0.5561035453631047,0.5560963761587897
39,0.5561205456021561,0.5559753589684002
40,0.556059898302068,0.5560050980871222
41,0.556101302969501,0.555993443397399
42,0.5560377750683628,0.556021151718861
43,0.5560915198274736,0.5560117681769667
44,0.5560419876408468,0.5559910808940534
45,0.556071872309021,0.5560105018625437
46,0.5561053433669404,0.5559818518340621
47,0.5560803633975956,0.5563021206617311
48,0.5560259595612246,0.5559709557649669
49,0.5560686729014154,0.5560785222658516
50,0.5560464835916198,0.5559940712499186
51,0.5560268861077271,0.5559898059353561
52,0.5560481016572524,0.5560095703012304
53,0.556106502199145,0.5561872340281996
54,0.55605887028985,0.5560964543657361
55,0.5560273769476435,0.555973956928935
56,0.5560646019867953,0.5559765609089237
57,0.5560517988951132,0.5560555711325108
58,0.5560187436381506,0.5559606634371589
59,0.5560585399609197,0.5560128724250468
60,0.5560290318896594,0.5559786170980493
61,0.5560041063562672,0.5559698379929584
62,0.5560315214623063,0.5560458245531765
63,0.556036250261836,0.5560269349812357
64,0.5560180787702623,0.5559628105070838
65,0.5560504616464244,0.556320324973456
66,0.5560070930838721,0.5559592919120923
67,0.5560205591040329,0.5560006371558341
68,0.556020819214927,0.5561824853408335
69,0.556020363227342,0.5561876170258541
70,0.5560306723670652,0.5560492098960728
71,0.555988292176597,0.555948404950949
72,0.5560427587806537,0.5559381682423667
73,0.5560329691819011,0.555963517670544
74,0.5559967371296715,0.5559980124538751
75,0.5559784125425012,0.5559630168325527
76,0.5559960014346912,0.5560144991825235
77,0.5560080730377408,0.5559624530448144
78,0.556012636310316,0.555988422023475
79,0.556016150761581,0.5561786329642471
80,0.5560008683021529,0.5559110847484803
81,0.5559842653255841,0.5559696263241578
82,0.5559971563420755,0.5559855983376083
83,0.5559865002927579,0.5559688281142992
84,0.555975825195273,0.5559308034531562
85,0.5560112274341149,0.5560397971204132
86,0.5560036273533736,0.5561393157246599
87,0.5559890770394749,0.5561294383220174
88,0.5560063230076124,0.5563003687554763
89,0.5559766217038089,0.5561162770887418
90,0.555971100484328,0.5561453510620215
91,0.5559843412256857,0.555930380689632
92,0.5559726445874283,0.5559953076350599
93,0.5559861821835802,0.5559415728168413
94,0.5559577577620413,0.5559439706700801
95,0.5559675927197941,0.5559435608564074
96,0.5560132773146339,0.5560072699306762
97,0.555961421025273,0.5560035836058516
98,0.5559530208534241,0.5560560191333416
99,0.555971487015656,0.5562725096063319
100,0.555989308773163,0.5561487959985226
