epoch,loss,val_loss
0,0.36981990934890313,0.3352021795993691
1,0.3349864019638588,0.3349655723434882
2,0.3350428508175044,0.3348005578669823
3,0.3352392008392697,0.3397897610644054
4,0.33524855966736244,0.33458497627926526
5,0.3353652726726946,0.3345533004843056
6,0.33471488693742096,0.3356233755732757
7,0.33474085309471385,0.33609395944358994
8,0.3349700189704375,0.3345123177149667
9,0.33462179338258946,0.33417166987267394
10,0.3346486887443328,0.3356018594777856
11,0.3345063796933758,0.3341886778135259
12,0.3345666444044367,0.3343037292402659
13,0.3344570654124832,0.3341520783205257
14,0.3344882071667756,0.33455730387073335
15,0.3345062599725532,0.33427762257145344
16,0.33440392823507525,0.33426463827532205
17,0.33445333113171477,0.3344605344603472
18,0.33440182861900397,0.334281445035318
19,0.33433501802144955,0.3341864660661029
20,0.3343239980890233,0.33416362680601047
21,0.3343128775879044,0.3341444189580729
22,0.33433672933882763,0.3341279059543634
23,0.33423200488142035,0.3341450436697291
24,0.3341998393893393,0.33403105830943103
25,0.33421452415271735,0.33403294150819157
26,0.33422389450778495,0.3341681015648253
27,0.3342404568938354,0.3340465472481564
28,0.3341985667042221,0.3340100593689659
29,0.33415806369849504,0.33401936120425224
30,0.33412437927699745,0.3341491818538439
31,0.33415982916937836,0.334202761886561
32,0.33413425451430073,0.3341051550414037
33,0.3341914544355997,0.33405056180700504
34,0.3341458698666387,0.3340187505298819
35,0.3341156937534089,0.3344998857305544
36,0.3340922811333992,0.3340142979337498
37,0.33411718282530156,0.3341447605669863
38,0.33409036446216794,0.33444652391332325
39,0.33411764541221517,0.334038571287778
40,0.3341188689965963,0.3342192620452984
41,0.3341243186419263,0.3339694410777794
42,0.33406247021799174,0.33407507916582274
43,0.33412154718234827,0.3342997098735227
44,0.3340837516780031,0.3341427117801415
45,0.3340314021805852,0.3339914482298726
46,0.33408562741186715,0.3340938483416802
47,0.33412450376170194,0.33402125666838794
48,0.33405821312464895,0.3339506687831384
49,0.33400452426248806,0.33400117008525765
50,0.33410731507606983,0.33421318047266135
51,0.33402326868123816,0.3342707449251865
52,0.334010236397893,0.3339527640260575
53,0.33403019861775624,0.33404969960412484
54,0.33408404094720306,0.3344462184546987
55,0.33404124593192297,0.3341853497403267
56,0.3340369519088355,0.3339121687973091
57,0.3340285570004412,0.3339323398194328
58,0.3340136733491353,0.33419230754208973
59,0.33404650350393944,0.3341621239829183
60,0.33402590032207946,0.3343871342548509
61,0.33404664640751514,0.33410654005175894
62,0.3339904762823599,0.33453870564837174
63,0.33399319192595006,0.33427301448326374
64,0.33402373764943505,0.33394948179069595
65,0.3339694190320841,0.3339335174665647
66,0.33396655067746733,0.3340722816998174
67,0.3340039289364187,0.3339653430293723
68,0.33398037003818715,0.3341713444262351
69,0.33402317760718836,0.3338956108168775
70,0.33397634954177685,0.33414138224549284
71,0.3339839721023733,0.3341273619281206
72,0.3339563116619381,0.33401248083111973
73,0.33398247684516236,0.33395087166414544
74,0.33394729382492844,0.3339510429653995
75,0.3340156525129653,0.3342484742662469
76,0.3340025991141599,0.3344498464555117
77,0.33402211386677627,0.33409814222209167
78,0.3339481898542502,0.33391128261567576
79,0.3340334715886037,0.3340341832697844
80,0.33397376007849455,0.33397940517708335
81,0.33401352024065856,0.33415603697310997
82,0.3339553979378037,0.33389638695237284
83,0.3339603101550655,0.3340071443331023
84,0.3339817238288991,0.3341439193510351
85,0.3339432649986251,0.33388387955963933
86,0.33402521808782687,0.33392028756485226
87,0.33398082716200106,0.33401038425788765
88,0.33397731003714776,0.3340894119521825
89,0.33398501154220367,0.33392588000183615
90,0.33399280432003453,0.3339516656622663
91,0.3339374185094232,0.33398956224904675
92,0.33394261107901685,0.33390540744026714
93,0.33391769809382565,0.3340418730086365
94,0.33395560469837293,0.33401546438638097
95,0.33394465856471456,0.3339606465057303
96,0.33396433072047754,0.33398797312121103
97,0.3339767255958769,0.33388920846217696
98,0.333956209787732,0.3338882706136168
99,0.33393543478043647,0.3338687289068049
100,0.333970977849121,0.33394023031962317
101,0.33407967260461435,0.33392700964730193
102,0.33398593420528677,0.33412405346737767
103,0.33393047158099043,0.3339027028477706
104,0.33390351298050935,0.33395245352769964
105,0.3339304460181365,0.3340270347199102
106,0.3339438917214176,0.33416951073609275
107,0.3339779084517361,0.3338944126906539
108,0.3339830651155712,0.33400994884811036
109,0.33394676271190177,0.33418993165281485
110,0.33394535205085496,0.3346594050871617
111,0.33394464039056965,0.3339283272422537
112,0.33391639460724054,0.3341045943669289
113,0.3339572294553366,0.33432535068439895
114,0.3339488489333504,0.33389389025301686
115,0.3339588412169679,0.33387869793544284
116,0.33390434300550265,0.3339433669381549
117,0.33390095849560186,0.33393888329770705
118,0.3339672131716949,0.3338993476880747
119,0.33393915631243876,0.33402160141816467
