epoch,loss,val_loss
0,0.5014747868500793,0.45540923964294994
1,0.4541017632767362,0.4533873556123484
2,0.45317164767915696,0.45300229436645995
3,0.4526749794614859,0.45315853009115303
4,0.45277443927741573,0.45235782531063345
5,0.45243143052938223,0.45214721186776186
6,0.45235523011274237,0.45200968297637595
7,0.45212987864723697,0.45207442485374266
8,0.4521701201022332,0.4520956987936335
9,0.45206979185584756,0.4541602726887058
10,0.45220318101826057,0.4517882423702049
11,0.45212789104771123,0.4532091878623648
12,0.451999951325463,0.4527566046444525
13,0.4521747849840478,0.4518456804540383
14,0.4518450394958682,0.45168926187479225
15,0.4518887753023751,0.45252749336540843
16,0.4517895143789732,0.4518527011503487
17,0.4518361989032327,0.45172469323709025
18,0.4518512117148027,0.45156227215878897
19,0.45174616413408947,0.4521050677462449
20,0.4516416176763957,0.4515595275409841
21,0.4515884181379525,0.45211965699596834
22,0.45160307212010314,0.45183553566952994
23,0.4516457450427399,0.45156936814750115
24,0.45154514930411144,0.4517454752647826
25,0.45148759358303053,0.4515853078360027
26,0.45156142712504227,0.45157206267709094
27,0.45156151912095566,0.4514390446837687
28,0.45145168073664654,0.45155913495514033
29,0.4514233306898102,0.4520923731381815
30,0.4513715053960422,0.4518976490361577
31,0.4515395425896033,0.45154442721924354
32,0.4514274310764642,0.4516909827588112
33,0.45137985372456485,0.4517747675749875
34,0.4513134086781218,0.4513815010470535
35,0.4515285143070435,0.4513769733572386
36,0.45123882772187013,0.4513741201781679
37,0.45137320945903464,0.45221914348502495
38,0.45132621783827914,0.45141096224076527
39,0.4513570744091961,0.45182661141680663
40,0.45134899021759045,0.4514635287406025
41,0.4512239603356603,0.4514650599308247
42,0.45122690608909705,0.45162532441725134
43,0.45133338241759974,0.4513466927625003
44,0.45134572271996304,0.4512669240783643
45,0.45116302138719144,0.45130167807952454
46,0.4512423835024323,0.45149272466107726
47,0.45112860121459225,0.4511934868228239
48,0.451153706744149,0.45167892046340374
49,0.4512255219146078,0.4512520458912889
50,0.4511844876284098,0.45119468036195176
51,0.4511236176228246,0.45125685789824016
52,0.4511512612884706,0.45156226102500785
53,0.4511820411496652,0.4512868099167162
54,0.45118190832494737,0.4512380094004022
55,0.4510956880690651,0.4513708121700626
56,0.45116000576716736,0.4520108052913205
57,0.45101496233450084,0.45125528209009397
58,0.4511383070672824,0.45188658013677657
59,0.45109172081441684,0.45126741495280825
60,0.4510181802704604,0.45122860645581053
61,0.4509879230672762,0.45133120065531174
62,0.45108114064864047,0.45170202107755403
63,0.4510654785829015,0.45149407432153943
64,0.45106646467332717,0.45121312705559474
65,0.45099586528544994,0.45120106703993523
66,0.45105629569642963,0.45125475510952096
67,0.45110942137354343,0.4511324521192115
68,0.45095349888337444,0.45125840383230437
69,0.4510013123399937,0.4512065864918651
70,0.45101870024108204,0.4511384166795074
71,0.45097371557254734,0.45147335600535016
72,0.4510808178740234,0.4512085255140904
73,0.45105330969288326,0.4512776094556937
74,0.4509466419672843,0.45126619135743934
75,0.4509348914220879,0.4512096450745695
76,0.4509793252164104,0.4512688198902581
77,0.4509284498607432,0.4512023079845724
78,0.4508923756155504,0.45135334635315216
79,0.4509451797692791,0.4511399393137748
80,0.4509131893604369,0.45151245595128653
81,0.4511678502015597,0.45131989465110456
82,0.4508819837197102,0.45115950863700066
83,0.4508988563965784,0.45139856690895913
84,0.45085840144736067,0.4511741038317326
85,0.4508778223364159,0.45173870084196976
86,0.4509444300209394,0.45115250233125415
87,0.4509357431798771,0.45126638839831723
