epoch,loss,val_loss
0,0.626831395675823,0.6053395966707191
1,0.6030614601289876,0.6038295896125294
2,0.6026047366982836,0.6034194461105709
3,0.6023154198834495,0.6017220736344803
4,0.6019249204644541,0.6020048175350033
5,0.6019193405603518,0.6022393445898856
6,0.601767820868573,0.6022033657955227
7,0.601666462098305,0.6039739914085274
8,0.6016767505927,0.6018931390864249
9,0.6015618911873056,0.6015208504954672
10,0.6015452392323639,0.6018726047508627
11,0.601456595205758,0.6015224624373423
12,0.6014029027021439,0.6013891880965758
13,0.6014985355145734,0.6012493807599597
14,0.6013969339740151,0.6012370933380629
15,0.6013351138021631,0.6023015109537531
16,0.6013394695100687,0.6011233680291096
17,0.6012610974339945,0.6012703139796525
18,0.6012499464524957,0.6015288721501639
19,0.6011507111167884,0.6011595422635588
20,0.6012835034718942,0.6017442079446209
21,0.6011618126599024,0.6013675278636079
22,0.6011835368223587,0.6012762273035793
23,0.6011073561190632,0.601180464630989
24,0.6011675461159327,0.6011779120198487
25,0.6011716326617527,0.6012006204731929
26,0.6010309711411019,0.6011408570519773
27,0.6010485200729897,0.601055179454371
28,0.6011133578557964,0.6013482629778121
29,0.6010729281538646,0.6009923046684901
30,0.6010300139780562,0.6013855134630495
31,0.6010746377103177,0.6010888706293122
32,0.6009795165395367,0.6011422061328425
33,0.6010001207591833,0.6011035187329644
34,0.6010012073216991,0.6010090901379587
35,0.6009469979451828,0.6010064860034108
36,0.6009081528402672,0.6010235558507354
37,0.6008893238796345,0.6010523601072014
38,0.6008867542060584,0.6009347199466322
39,0.6008856420944889,0.6013293022644876
40,0.6009203103716749,0.6010000238177466
41,0.6008889006044065,0.6009393641188711
42,0.6008432530883552,0.6010152914939622
43,0.6008824580218356,0.6011939716462759
44,0.6008863445931799,0.6008519819321997
45,0.6008584362643633,0.60107482381608
46,0.6008396849279563,0.60107219363831
47,0.6009059416943429,0.6009849833656095
48,0.6008490310054428,0.6011872902184112
49,0.6009889253883891,0.6009533952443461
50,0.6007750845885036,0.6009104090457625
51,0.600735107955842,0.6009241806663701
52,0.6008431243034607,0.6009674902910832
53,0.6007882025343202,0.6009734427736829
54,0.6007669682420754,0.6009470254961131
55,0.6008169292203914,0.6010593204923108
56,0.6007691765304067,0.6010902742474891
57,0.6007937150485385,0.6008763460124681
58,0.6007347598281363,0.6011611279745326
59,0.6007507530719872,0.6014060982290651
60,0.6007450916850806,0.6009290880749768
61,0.6007180666211793,0.6009077525266918
62,0.6007456295952411,0.6009578766216059
63,0.600782815467151,0.6008045973546374
64,0.6007242850160951,0.6009569880608652
65,0.6007617736971912,0.6009091974563302
66,0.6006971267530263,0.6008778917146934
67,0.600733292775167,0.6008548608288145
68,0.6007048774784214,0.6008728114426809
69,0.6006827684241189,0.6008897068810078
70,0.6007497003332166,0.6011848732108738
71,0.6007205169879433,0.6008452683008254
72,0.6007546788565746,0.6013065151515593
73,0.6006973621024069,0.600924802413802
74,0.6006772942399212,0.6010867897548771
75,0.6006686180297308,0.6009550341347187
76,0.6006958642360093,0.6008493151349433
77,0.6006529994029032,0.600923829176709
78,0.6006792924243177,0.6008934384916729
79,0.6006617482839125,0.6008441803035394
80,0.6006889674212585,0.6009136581668193
81,0.600633799380218,0.6008177967198713
82,0.6006715092791333,0.6008923579021878
83,0.600684015344897,0.6008637899115121
