epoch,loss,val_loss
0,0.5688500056681016,0.5547529977545691
1,0.5536587599052996,0.5540699748600781
2,0.5533057692735946,0.552441126407352
3,0.552420562935741,0.5519779267234258
4,0.5523784687419491,0.552391949406949
5,0.5524111630718386,0.5520086651887026
6,0.5518966598520016,0.5517877782135235
7,0.5518426963812159,0.5518101575110086
8,0.5517221094189821,0.5517961899314374
9,0.5517715244958132,0.5514431216359514
10,0.551856930819754,0.5545345459917912
11,0.5516610148531323,0.5533709291794451
12,0.5514513908909598,0.5516892746877485
13,0.551623874113897,0.5513705747461822
14,0.5515170096909463,0.5514436570620798
15,0.5515374183393499,0.551218879766035
16,0.5513140911436683,0.5513977626447966
17,0.5514647260727337,0.5513786128172722
18,0.5513115511187707,0.551234060745589
19,0.5513707196539898,0.5512971921328329
20,0.5512113224612527,0.5514503051934805
21,0.5513575896025035,0.5513291718518653
22,0.5512410656555677,0.5516386921923786
23,0.5513159398279204,0.5512497359612492
24,0.5511957496939182,0.5512504771277295
25,0.5512317971783863,0.5513536750574778
26,0.55117690214881,0.5511525918828445
27,0.5511134791266747,0.5511851216669678
28,0.5511223507020229,0.55117568397416
29,0.5511810119233841,0.5510824994922545
30,0.5506576559113996,0.5063352512085652
31,0.5015775998914297,0.5014253716421119
32,0.5012000290810872,0.501379855707147
33,0.5012369462306828,0.5013565556343716
34,0.5012367088609305,0.5012653006141021
35,0.5011582976047341,0.5012743620546598
36,0.5011575764074847,0.5012890273585411
37,0.501099989376163,0.5012079179783754
38,0.5011132119415358,0.501214891920533
39,0.5010908609891253,0.501347311317181
40,0.5012314467973591,0.5014640905389435
41,0.5011759264314657,0.5013791393805354
42,0.5010607190547698,0.5011673531701861
43,0.5011433219326741,0.5013177857330098
44,0.5010570095897962,0.5012039646525629
45,0.5010134506614939,0.5011065260064361
46,0.5010342422862546,0.5012415492726733
47,0.5010340546971358,0.5018950976868828
48,0.5010237355309962,0.5011158963335203
49,0.501056065816773,0.5014140145560948
50,0.5009985657019146,0.5011848450303188
51,0.5010240781772016,0.5011011638295145
52,0.5009829989368136,0.5013437247934287
53,0.5010089370149882,0.5012454830357091
54,0.5009151484633376,0.5010818469124738
55,0.5010405049692633,0.5011330646129643
56,0.501016193544221,0.5011806386580046
57,0.5009241770443822,0.5012213274005785
58,0.5009297592559034,0.5011725140448123
59,0.500995675308134,0.5012993976724966
60,0.50103605044347,0.5010673546265575
61,0.5009206887125854,0.5010878130073215
62,0.5008693008164067,0.5012060891789272
63,0.5008837506379746,0.5011939187362517
64,0.5008911560987773,0.5010851130019207
65,0.5008742316439047,0.5011835362010807
66,0.5009056913942118,0.501218307777828
67,0.5008509175758962,0.5012588376114823
68,0.5009050999754824,0.5012051770368712
69,0.5009559417475306,0.5011441912733199
70,0.5009603942253515,0.5014343109588355
71,0.5008649158811935,0.5011349520345024
72,0.5008412173721505,0.5011006600217789
73,0.5008546327523759,0.5013799372702357
74,0.5008920594606867,0.5010669151816816
75,0.5008837739844919,0.5010610719834638
76,0.5008243964420062,0.5011286495857535
77,0.5008333331991817,0.5011002677064137
78,0.5008124710619771,0.5015352150095151
79,0.5007954453364338,0.5010693293850739
80,0.5009292090615887,0.5021540634299587
81,0.5008349493106842,0.5010875503229507
82,0.5007680017372658,0.5012325264277514
83,0.5008048858948173,0.5014471570790576
84,0.5007919636380068,0.5010467902954739
85,0.5008429988689238,0.5010735565897579
86,0.500852978789265,0.5011307091089415
87,0.5008390081619556,0.5010877640893402
88,0.5007935136513384,0.5010871808492248
89,0.5007637400024042,0.501049879756895
90,0.5007765621017726,0.5010022694787662
91,0.5007688732884413,0.5010304149487964
92,0.5008010015168092,0.5010325677926109
93,0.5008563033826331,0.501027720739365
94,0.5008317086823441,0.5010389118619397
95,0.500769630776939,0.501005089366893
96,0.5007365717754806,0.5010897904706235
97,0.5007679417590915,0.5010330386350808
98,0.5008031683948811,0.5013540391128004
99,0.5007845287106903,0.5010846037183742
100,0.5007288654927424,0.5009713082274677
101,0.5007549357010171,0.5011314211078961
102,0.5007703544674521,0.5012972823644837
103,0.5007891010086964,0.5010212114131501
104,0.5007366782258837,0.5010496595431796
105,0.5007649612122046,0.5010911675598206
106,0.5008020314261158,0.5011087420980761
107,0.5008394311280557,0.5014080463526183
108,0.5007629785099641,0.501361550843634
109,0.5007513059652831,0.5010369889138694
110,0.5007402027679668,0.5011331112677575
111,0.5007690244133474,0.5010380782580283
112,0.5007693768375628,0.5011575463127705
113,0.5007333777352924,0.5010842587201987
114,0.5007774712800708,0.5010931119253778
115,0.5012743849397806,0.5011554703952692
116,0.5007051920322602,0.5010556310917585
117,0.5006861022228745,0.5010565001338825
118,0.5006866078181283,0.5013936255613639
119,0.5006896741314492,0.501037670641304
120,0.5007387955496481,0.5011729171462005
