epoch,loss,val_loss
0,0.5548025346901183,0.5043906518917963
1,0.5036858775243046,0.5034278935802317
2,0.503052016753124,0.50282488453938
3,0.5025645315093271,0.5024621701169883
4,0.5023443378126051,0.5019565682363502
5,0.5021006757507275,0.5019256996101616
6,0.5021063460305817,0.5025097134599511
7,0.5020608302177395,0.5019502863439725
8,0.5017825400597837,0.5017128031239242
9,0.5019137778419213,0.5015882420681167
10,0.5017586779613558,0.5021140533346758
11,0.5017571186852272,0.5023185652502159
12,0.5016425184357425,0.5019841427426799
13,0.5017342180500349,0.5016921552425624
14,0.5016199558079969,0.5017421643012849
15,0.45233194299038315,0.4521298438757741
16,0.4518597389989433,0.45165238488733955
17,0.45165374927878016,0.45168985789364013
18,0.45175154876963647,0.45179790999187674
19,0.4519205610308213,0.4527789691815356
20,0.45153063437891805,0.45245876874630486
21,0.45158922905497695,0.4516993906624252
22,0.45158242941219195,0.4514939101079279
23,0.4515756811775621,0.4514318284811323
24,0.45159535383565796,0.4514616174175908
25,0.45155507670122896,0.45166164535044473
26,0.4514156042843173,0.45149921476675375
27,0.45140804018753644,0.45192881640316623
28,0.45139323797119374,0.4513900382504637
29,0.45132774736084663,0.45136563246129596
30,0.45143605165467143,0.45129014168277587
31,0.4514861720344252,0.4513209626881761
32,0.45128454000941837,0.45165533284430903
33,0.4513822709668015,0.4522370718589291
34,0.45130371811622283,0.451274625988752
35,0.45121140833864154,0.4513180559488287
36,0.4513087653542987,0.45122945245205637
37,0.45142152227314825,0.45149001095510893
38,0.45120676078547023,0.4512066475317023
39,0.45130898705421013,0.4512345379625212
40,0.45129190780721756,0.4512356410900472
41,0.45119655608037873,0.45166375120826774
42,0.45116017921092433,0.4512258893385002
43,0.4511515479770045,0.4512014088199677
44,0.4511946719512999,0.4514153598524681
45,0.4512809237704296,0.4512205108942246
46,0.451159725902448,0.45133046321481174
47,0.45113401528905234,0.451356809494517
48,0.4511205605520602,0.4511706961053547
49,0.45107932765762143,0.4512075714423361
50,0.4511133492916654,0.45134135929494684
51,0.4510749538887339,0.4513440303536207
52,0.45120505237996666,0.45120219037055437
53,0.45108054599510833,0.45120832214180595
54,0.45106069366929635,0.45137525934006334
55,0.4511071272479363,0.45124719069608604
56,0.45108356687582696,0.45143447321506536
57,0.45113394996922135,0.45148640342786767
58,0.45106649806742144,0.4511746925918189
59,0.4510596711634191,0.4512808824340642
60,0.45103523088816055,0.4512739413909326
61,0.45099407769168065,0.4512210018569881
62,0.45101273108974227,0.4512560169417277
63,0.45095579473954583,0.45121794362756185
64,0.45112160336469687,0.4512782091232423
65,0.4509975863127564,0.45115048616191683
66,0.45093196915041184,0.451359239628545
67,0.4510079886407434,0.4511517596467819
68,0.4509305740644435,0.45123913313397923
69,0.4509839426884922,0.4512823486376701
70,0.45100759249332933,0.4519605030724684
71,0.4510721812552059,0.451327317526968
72,0.4510674447569192,0.45149392288666035
73,0.45090477930109507,0.45118461880204325
74,0.4508756967950014,0.45112545684788663
75,0.4511107526742801,0.45125102782651305
76,0.45093540890680595,0.4512341886366886
77,0.4509062294017108,0.45115016750504205
78,0.4509141275663976,0.4513280971069251
79,0.4509361827303215,0.45172639936070724
80,0.45095536086656673,0.4512294852682828
81,0.45092192001854015,0.4511209546051372
82,0.45096641198687076,0.45158540849267037
83,0.4509980194855976,0.45113332517987426
84,0.4508911382924578,0.4511569876111333
85,0.4509602400053023,0.4511680927491228
86,0.4508924181546786,0.45124710023480447
87,0.45087046664520636,0.4512204009860859
88,0.45091027591178656,0.45122308554660834
89,0.45105800321963063,0.45135785073213036
90,0.4508755869846723,0.4516100253765617
91,0.450878189833377,0.4512188664783613
92,0.4508753424304562,0.45113999581619596
93,0.450879970848978,0.4511504925043633
94,0.45091433346766485,0.45127121960924693
95,0.45086130651367656,0.45115937457898964
96,0.4508182003795576,0.4511708862076293
97,0.4509100610356897,0.4515898793488658
98,0.45089924795675507,0.4511835229277589
99,0.45088733896418537,0.4516262874479183
100,0.4508469585672348,0.45116144168661754
101,0.45081515875506833,0.4515683070103931
