epoch,loss,val_loss
0,0.5571576775312423,0.5564990980625153
1,0.5558496142625808,0.5557782851457596
2,0.5558119394514296,0.5557067055304845
3,0.5557795196109347,0.5558293724457423
4,0.5557713918685913,0.5556983683904012
5,0.5560196870565415,0.5557395888964335
6,0.5557415924602085,0.5557988519271215
7,0.555746984799703,0.5556900035142899
8,0.5557294308741887,0.5557130769491195
9,0.5557288037406074,0.5556942653656006
10,0.5557268637021383,0.5557760376532872
11,0.5557192532751295,0.5557740085124969
12,0.55571848599116,0.5557161847352982
13,0.5557163059314092,0.5557109559774399
14,0.5557155490716298,0.5557015291452407
15,0.5557173363235262,0.5556889976660411
16,0.5557142890426847,0.5556801891326905
17,0.5557138727638457,0.5557007204294204
18,0.5557151373094983,0.5557029580672582
19,0.5557107570171356,0.5557386889855067
20,0.5557107692162195,0.5557004346847534
21,0.5557090980344348,0.5557029867966969
22,0.5557063348558214,0.555739788532257
23,0.5557082069449955,0.5556831516027451
24,0.5557049260934194,0.555752681016922
25,0.5557020269102521,0.5556751832167307
26,0.5557023471726311,0.5556766570011775
27,0.5557070374621286,0.5558051538467407
28,0.5557008747259776,0.5556806391477584
29,0.5557011156611973,0.5556745641231536
30,0.5557032727268008,0.5556835489273071
31,0.5557016027238634,0.5556836747725805
32,0.5557010966406928,0.5556752785046896
33,0.5557006519635518,0.5556759614547093
34,0.5556997409529156,0.5556763302087784
35,0.5556992494265238,0.5557222285270691
36,0.5557016843557357,0.5557026080290477
37,0.5556967552900315,0.5557252984444301
38,0.5556986888249715,0.5556867311398188
39,0.5556963908672333,0.5556828625599544
40,0.5557010189957089,0.5556874189774196
41,0.5556991313960817,0.5557511098384857
42,0.5556973685291078,0.5557004948457082
43,0.5556983376344045,0.5556818790435791
44,0.5557147365146213,0.5557049732605617
45,0.5556938922405243,0.555699394861857
46,0.5556958026488622,0.555667405128479
47,0.5556921347644594,0.5556739440759023
48,0.5556932013564639,0.5556831453243891
49,0.5556919815937678,0.5556742659807206
50,0.5556919388638603,0.5556945761839549
51,0.5556928805642658,0.555719739874204
52,0.5556943063206143,0.5556723835865657
53,0.5556907624271181,0.5557369723717371
54,0.5556942522128423,0.5556714950799942
55,0.5556928319401211,0.5556638669172923
56,0.5556922785573536,0.555665617664655
57,0.5556932194232941,0.5556668606996537
58,0.555691028436025,0.5556717952092488
59,0.5556916116211149,0.5557993065913518
60,0.5556908554103639,0.555694345275561
61,0.5556924809349908,0.5556856033007304
62,0.5556927180820042,0.5556989020506541
63,0.5556907337506612,0.5556814291874568
64,0.5556913342475891,0.5556724712451299
65,0.5556904407872094,0.5556754465500514
66,0.5556907446516884,0.5557655917406082
67,0.5556906169785394,0.5556795303424199
68,0.5556902317868339,0.5557173254092534
69,0.5556907975408766,0.5556740841070811
70,0.5556923873292076,0.5556961044470469
71,0.5556921688450708,0.5557090950806935
72,0.5556913376649221,0.5557332666714986
73,0.5556904990408156,0.5556693812211354
74,0.5556875960561964,0.5556926814317703
75,0.5556904503107071,0.5557258315881093
