epoch,loss,val_loss
0,0.5574718272950914,0.5557689510981242
1,0.5558612893422444,0.5557134377559027
2,0.5558280261357625,0.5557279275258382
3,0.5557818334235085,0.5557124032576879
4,0.9634299397071202,1.0
5,1.0,1.0
6,1.0,1.0
7,1.0,1.0
8,1.0,1.0
9,1.0,1.0
10,1.0,1.0
11,1.0,1.0
12,1.0,1.0
13,1.0,1.0
14,1.0,1.0
15,1.0,1.0
16,1.0,1.0
17,1.0,1.0
18,1.0,1.0
19,1.0,1.0
20,1.0,1.0
21,1.0,1.0
22,1.0,1.0
23,1.0,1.0
