epoch,loss,val_loss
0,0.668072819881969,0.6668731600443523
1,0.6669363711675008,0.6668863711357117
2,0.6668885962168376,0.6668093310594558
3,0.666899666402075,0.6668971566756566
4,0.6668367503881455,0.6668003993829091
5,0.6668200119601355,0.6667983120282491
6,0.6668197489976883,0.6667939848502477
7,0.6668074313402176,0.6667810450394949
8,0.666807406504949,0.6668125147422155
9,0.6667994481192695,0.666775010228157
10,0.6341892006529702,0.5557328185637792
11,0.5557266092830234,0.5557291868130366
12,0.555725701822175,0.5557078991731008
13,0.5557203335894478,0.5557054517666499
14,0.555719079679913,0.555686682343483
15,0.5557821335660087,0.5556982299089431
16,0.5557152315378189,0.5557162605126699
17,0.5557136537101534,0.555680958310763
18,0.5557184988525179,0.5556856919129689
19,0.5557176075246599,0.5556965420246124
20,0.5557201639943653,0.5557496527036031
21,0.5559109705554115,0.5557255002657573
22,0.5557231347031063,0.5557285778919856
23,0.5557157164017359,0.5556899725596111
24,0.5557117850250668,0.5557693035999934
25,0.5557126010391448,0.5556931742032369
26,0.5557114653189977,0.5556783310572306
27,0.5557089052862592,0.5556771510442098
28,0.5557092264095942,0.5557100792328517
29,0.5557204288641612,0.55568840833505
30,0.555706858197848,0.5556984945933025
31,0.5557070303625531,0.5556914131641388
32,0.5557092450724708,0.5556926640272141
33,0.5557058821254306,0.5556935728788376
34,0.5557070846425163,0.5556995522181193
35,0.5557047015958362,0.5556999001105627
36,0.5557074746158388,0.5558134222825368
37,0.5557037743727367,0.5557168397903443
38,0.5557018959257338,0.5556781089703242
39,0.5557007227208879,0.5556872728665669
40,0.5557029282251994,0.5557097918192545
41,0.5557015071047677,0.5557732877731323
42,0.5557010564406712,0.5557010745604833
43,0.5557009527815713,0.5556914285024007
44,0.5557015796237522,0.555729386250178
45,0.555699541091919,0.555705716530482
46,0.5557026484145059,0.5556790620088577
47,0.5557009107669194,0.5556881654262543
