epoch,loss,val_loss
0,0.5571689812342325,0.5557981829245885
1,0.5558879261281755,0.5559403949578603
2,0.5558319419887331,0.5559109086592993
3,0.5557830254899131,0.5556947957674663
4,0.5557855186462403,0.5557104048331578
5,0.5557854777706994,0.5557092644373576
6,0.5557565349472894,0.5557867924769719
7,0.5557543201314078,0.5556971745491028
8,0.7700908777448866,1.0
9,1.0,1.0
10,1.0,1.0
11,1.0,1.0
12,1.0,1.0
13,1.0,1.0
14,1.0,1.0
15,1.0,1.0
16,1.0,1.0
17,1.0,1.0
18,1.0,1.0
19,1.0,1.0
20,1.0,1.0
21,1.0,1.0
22,1.0,1.0
23,1.0,1.0
