epoch,loss,val_loss
0,0.7797429821358787,0.777894415696462
1,0.7779234517680275,0.7778895955880483
2,0.7779139838483599,0.7778538957039515
3,0.7778877711163626,0.7779175090789795
4,0.777884642653995,0.7778683116436005
5,0.7778784639835358,0.7778628710508346
6,0.7778695500691731,0.7779074687163036
7,0.7778721548716228,0.7778548168738683
8,0.7778791082037819,0.7778804408709208
9,0.7778628912766774,0.7778402529557547
10,0.7778604910903507,0.7778574664195379
11,0.7780581328868866,0.777891051530838
12,0.7778655203845766,0.7778393373886744
13,0.7778666653765572,0.7778669621149699
14,0.777869385348426,0.7778548093636831
15,0.7778585957156288,0.7778426136175791
16,0.7778780155446794,0.7778413054545721
17,0.7778571634822422,0.7778409403562546
18,0.7778557018438975,0.7778359899520874
19,0.7778529148101807,0.7778424412409465
20,0.7778528140385945,0.7778382157882054
21,0.7778519690699047,0.7778439937432607
22,0.777850271238221,0.7778431471586228
23,0.7778587709400389,0.77783864402771
24,0.7778494960334565,0.7778648351033529
25,0.777849825170305,0.7778441937764485
26,0.7778490018977059,0.7778403539657592
27,0.7778489181862938,0.7778621532917023
28,0.7778518758349948,0.7778387698332468
29,0.7778476532035403,0.7778998927672705
30,0.7778481926388211,0.7778384198347728
31,0.7778470486799876,0.777853424390157
32,0.7778463051981396,0.7778371777137121
33,0.7778461327022976,0.7778554144700368
34,0.7778472690714731,0.7778395893176396
35,0.7778459862470627,0.7778363340298334
36,0.7778468910588159,0.7778412232398987
37,0.7778458721637725,0.7778354376554489
38,0.7778450657659107,0.777836895942688
39,0.7778454836474524,0.7778333454529445
40,0.7778461872736613,0.777833085457484
41,0.7778470620181825,0.7778477595647176
42,0.7778472386068768,0.7778384941418965
43,0.777848071416219,0.7778497952222824
44,0.7778464322355059,0.7778718874851862
45,0.7778459244966507,0.7778354719082514
46,0.777846407810847,0.7778555519580841
47,0.7778448356919818,0.7778394285043081
48,0.7778464579052395,0.7778322045405706
49,0.7778453182909224,0.7778340567747752
50,0.7778450211683909,0.7778494587341944
51,0.7778441538413365,0.7778550095160802
52,0.777844701886177,0.7778423962195714
53,0.7778457313776016,0.7778512051502864
54,0.777844801346461,0.7778361223936081
55,0.7778451500733693,0.777838762362798
56,0.7778449038267136,0.7778359508911769
57,0.7778446086115307,0.7778342678149541
58,0.7778452019691467,0.7778505274852117
59,0.7778448967138926,0.7778994893630345
60,0.7778457664781147,0.7778331012328465
61,0.7778438744015164,0.7778401348988215
62,0.7778455369075139,0.7778465677102406
63,0.7778444305790795,0.7778560201327006
64,0.7778452311886681,0.7778361376523971
65,0.777844388710128,0.7778363915681838
66,0.7778448312547471,0.7778587969541549
67,0.7778445864518484,0.7778366008202235
68,0.7778447550402747,0.777845396121343
