epoch,loss,val_loss
0,0.4467687027057012,0.44481878473361336
1,0.4448759905298551,0.4450115363995234
2,0.44654363493124644,0.44468818976481755
3,0.4447536675797568,0.44472338646650317
4,0.4447325715356403,0.4448830770850182
5,0.44471692686610753,0.4446377729574839
6,0.4446871116360029,0.44473595068852106
7,0.4447001765039232,0.44471453088521956
8,0.44472433436579173,0.44465212760368983
9,0.44469123488664625,0.4449436260461807
10,0.44467393775780995,0.44464849358797076
11,0.4446725917789671,0.4446778306365013
12,0.4446615711649259,0.4447055670420329
13,0.4447624260716968,0.44636306885878246
14,0.4454490981830491,0.4446217532157898
15,0.44466636355055705,0.4446211742560069
16,0.44466024455096986,0.44466237278779347
17,0.44465690591600204,0.4446137445370356
18,0.4446507522331344,0.4446241927544276
19,0.44465714626179803,0.44469537285963695
20,0.444661624663406,0.44461269801855086
21,0.44464946987893844,0.44461745987335843
22,0.44464373536904656,0.4446951540907224
23,0.4446443123022715,0.4446129781206449
24,0.44464484600226084,0.4446252768437068
25,0.4446482464008861,0.4446022459467252
26,0.444647340575854,0.44462410815556846
27,0.44465974020295673,0.44463032790025075
28,0.4446370568474134,0.44468058399359384
29,0.4446407116121716,0.4447152325908343
30,0.44463705934418574,0.44462682833274203
31,0.44463725701967877,0.4447750155727069
32,0.44463620003726745,0.44462576252222064
33,0.44463590061002306,0.44460975170135497
34,0.4446312486595578,0.444742959578832
35,0.4446306950913535,0.4446303040385246
36,0.44463094872898523,0.44474795641501746
37,0.44463001106182737,0.4446139554977417
38,0.4446319520937072,0.4446047293742498
39,0.4446310908065902,0.44462931819756824
40,0.4446288875937462,0.4446103414098422
41,0.4446280125975609,0.44460678442319235
42,0.4446269857154952,0.44465533701578774
43,0.4446349967122078,0.4446072479287783
44,0.4446411300831371,0.4446167054573695
45,0.4446270944741037,0.44461563958724337
