epoch,loss,val_loss
0,0.4477908125056161,0.4454942650794983
1,0.4449212903579076,0.44465611066420874
2,0.43726900441116756,0.333759324491024
3,0.33367030483484267,0.3337455129822095
4,0.33374332698848513,0.3335816545287768
5,0.333839708785216,0.33363684380054476
6,0.33366459715366364,0.33354293407996494
7,0.33359793297449747,0.333553467909495
8,0.3336185602347056,0.3335403833389282
9,0.3335982171230846,0.33369183377424877
10,0.33374263319704267,0.33357054048776624
11,0.3335893692308002,0.33357266555229825
12,0.33416081098715467,0.33360871640841167
13,0.3336496349838045,0.333525748193264
14,0.3336177256041103,0.33354363330205283
15,0.3335792435142729,0.33350552030404407
16,0.3336242541803254,0.33356894946098326
17,0.3335705162154304,0.33381353722016016
18,0.3335763076941172,0.33360438847541807
19,0.3335789128674401,0.3335566444794337
20,0.33356490647130543,0.3335995850960414
21,0.3335603124631776,0.33359602743387223
22,0.3335619921286901,0.3335170609752337
23,0.33355491075250837,0.33355230279763537
24,0.333556176841259,0.3335126653512319
25,0.33371475812461643,0.3335348811944326
26,0.3335593164165815,0.3335789754788081
27,0.33355706002314883,0.33352372763554256
28,0.333558939145671,0.33350406974554064
29,0.3335502151317067,0.33351083999872205
30,0.3335487384001414,0.33364456657568614
31,0.33354830885595743,0.33350967593987785
32,0.3335464197728369,0.33351924723386767
33,0.3335420879920324,0.333500315686067
34,0.3335446255471971,0.33353367710113524
35,0.33354228994581436,0.3335418161352475
36,0.3335440076523357,0.33366593130429584
37,0.3335400190022257,0.3335055198868116
38,0.3335383869674471,0.33351270532608035
39,0.33353786143329406,0.33354787999391555
40,0.3335380016300413,0.33355849864085513
41,0.33353371444675656,0.33356228850285213
42,0.3335362963610225,0.33354479255278907
43,0.33353531928857166,0.33350110361973445
44,0.3335360968907674,0.33362816319863003
45,0.33353187320629757,0.333506040195624
46,0.3335352024965816,0.3335037544369698
47,0.3335350048078431,0.3334983126123746
48,0.3335336511068874,0.33365517683823903
49,0.33353672569990156,0.33359487281243005
50,0.33353179577324127,0.3335246201952298
51,0.33353324871593054,0.3335269256432851
52,0.33353153732087876,0.3335268361568451
53,0.3335333201156722,0.33356933399041494
54,0.3335328551530838,0.333492974837621
55,0.33352886497312123,0.3335529877940814
56,0.333532664583789,0.3335367956360181
57,0.3335337963104248,0.333508112291495
58,0.333531103418933,0.33354657046000163
59,0.3335313742955526,0.3335112223625183
60,0.33352982279989457,0.3334970365166664
61,0.33353032641278374,0.3335020739833514
62,0.33352894020080565,0.3335047861933708
63,0.3335295760764016,0.3336144066055616
64,0.3335327174067497,0.33353431286414464
65,0.3335303730302387,0.33351008882125216
66,0.3335322288076083,0.333521088997523
67,0.3335312757955657,0.3334987295269966
68,0.33353058648109435,0.33349405745665234
69,0.3335316456887457,0.333543958067894
70,0.33353365592161816,0.3335323836803436
71,0.3335282684167226,0.3334968806505203
72,0.33352964318460887,0.3334939480821292
73,0.33353173129426106,0.3335271200935046
74,0.3335319092935986,0.33349593408902484
