epoch,loss,val_loss
0,0.7793089242511325,0.7783452125787735
1,0.7783130753967497,0.7786380744775137
2,0.7781682263877657,0.7782077325582504
3,0.6676858416398366,0.6671070473591486
4,0.6670887690915002,0.6670460766553878
5,0.6670582447581821,0.6669926769733429
6,0.6670399533907573,0.6669861627817154
7,0.667029127465354,0.6669912397464116
8,0.6670180117289225,0.6670277782678604
9,0.6670145237710741,0.667037743250529
10,0.6670075742668575,0.6669924064874649
11,0.6670002346436182,0.6670522169272105
12,0.6669961487849554,0.6670037067333857
13,0.6669945022265117,0.666949007709821
14,0.666989515238338,0.6670151598453522
15,0.6669853891928991,0.6669429881175359
16,0.666980316930347,0.6671656806468964
17,0.6669752026134067,0.6669464857180913
18,0.6669765041801664,0.6669405954281489
19,0.6669728606012132,0.6669298065900803
20,0.6669688644011815,0.6670116978089015
21,0.6669719569947985,0.6669468583265941
22,0.6669709155162176,0.6669489468336105
23,0.666969343635771,0.6669633762836457
24,0.6669645272360908,0.666957333167394
25,0.6669634838898977,0.6669259508450825
26,0.6669618943797218,0.6669226588805517
27,0.666963752773073,0.6669773670037588
28,0.6669589329957962,0.6669841665824254
29,0.6669578178193835,0.6669262375831604
30,0.666956729359097,0.6669275933504104
31,0.6669588752455181,0.6669145908355713
32,0.6669540905422634,0.6669600929816564
33,0.6669516543812222,0.6669198103348414
34,0.6669514271153344,0.6669115155935288
35,0.6669510266913308,0.6670610112746557
36,0.6669489866627587,0.6669095887740453
37,0.6669433152278265,0.6669278167883556
38,0.6669397954543431,0.6669060246149698
39,0.6669418615897497,0.6669202746947607
40,0.6669364579386181,0.6670106591383617
41,0.6669372557799021,0.666909470597903
42,0.6669291321569019,0.6668944214582443
43,0.6669290575318866,0.6668888977368672
44,0.6669281591441896,0.6670036336978277
45,0.6669235378901164,0.6668928432067235
46,0.6669242969883813,0.6668827935854594
47,0.6669219332933426,0.6668937360445658
48,0.6669217930237452,0.6669847092231115
49,0.6669208058913548,0.66691430580616
50,0.6669199561807845,0.6668835348685582
51,0.6669139575163523,0.6669388657013575
52,0.6669146324528589,0.6668916139602661
53,0.6669141350852119,0.6668941503365835
54,0.6669112805922827,0.6668775460322698
55,0.6669083895550834,0.6668653358221054
56,0.6669112187888887,0.6669126122395198
57,0.6669060623645783,0.6669719713926315
58,0.666909225622813,0.6668745166460673
59,0.6669042381180658,0.6668747490247091
60,0.6669036963515812,0.6668773618539174
61,0.6669016878737344,0.6669609858592351
62,0.6669021319945653,0.666894878745079
63,0.666900924483935,0.6669926758607229
64,0.6668980607191721,0.6668713901440303
65,0.6668994714683957,0.6669287498792013
66,0.6668972833818859,0.6669136303663253
67,0.6668957990805308,0.6669336311817169
68,0.666900784585211,0.6669510580698649
69,0.6668938853475782,0.666848902185758
70,0.666893893983629,0.6668764789501826
71,0.6668950157430437,0.6668463817834854
72,0.6668925435145696,0.666863770365715
73,0.6668925584819582,0.666849425594012
74,0.6668933724164963,0.6668870000441869
75,0.666890784210629,0.6668544817368189
76,0.6668894369337294,0.6669528789917628
77,0.6668882044421302,0.6668862069050471
78,0.666888419840071,0.6669159443378448
79,0.666890138692326,0.6668500223557154
80,0.6668875976138645,0.6672296220858892
81,0.6668898051314883,0.6668811722596486
82,0.6668870154221853,0.666921403169632
83,0.6668871828847461,0.6668939303557078
84,0.6668883281416363,0.6669511494239171
85,0.6668873043192758,0.6669125136931737
86,0.6668870187467999,0.6668550451199213
87,0.6668874536487791,0.666893185377121
88,0.6668846646149953,0.6668526800076167
89,0.6668837345573637,0.666876331448555
90,0.6668848082092074,0.6668772280216217
91,0.6668878873851565,0.6668566083908081
