epoch,loss,val_loss
0,0.22774038242962624,0.22428287813067435
1,0.223947984672255,0.22352072153488795
2,0.2235788533952501,0.22360096686085065
3,0.22337629893753264,0.22320168368021648
4,0.22328599601652888,0.22310690620541573
5,0.22320987938841183,0.2231218180755774
6,0.22316668235262235,0.22302148588498433
7,0.22314389878842567,0.22357650370399157
8,0.22310870889160367,0.22298526172836622
9,0.22309874424007203,0.22297877882917722
10,0.22307996846901046,0.2229797597726186
11,0.2230666571524408,0.2231601965824763
12,0.22306240579485892,0.22296671221653622
13,0.22305880722403526,0.22296431881189346
14,0.22305497263537513,0.2229886518617471
15,0.22304929197827975,0.22302165404955546
16,0.2230275445414914,0.22306258259216943
17,0.22303092001544106,0.2230126359562079
18,0.2230334946413835,0.2230231825908025
19,0.22302661253346337,0.22294630247354508
20,0.2230121027595467,0.22296717270215352
21,0.22302050958077113,0.22293435169259707
22,0.22300928952296575,0.22301866400241852
23,0.22300761321518156,0.22291930009921393
24,0.22300063645177418,0.2232510386208693
25,0.22299562103880777,0.22300014237562815
26,0.22299733896056811,0.22296021683017414
27,0.22299216632048288,0.222956880658865
28,0.22298514235019684,0.22321143400669097
29,0.22298303874995973,0.22290272836883862
30,0.22297642158799702,0.22289801596601805
31,0.2229728442695406,0.2229102369149526
32,0.22297230248318778,0.22292797779043516
33,0.2229728349281682,0.22300141526261966
34,0.22296471808685198,0.222940361559391
35,0.2229683847228686,0.2229240216910839
36,0.22295796884761918,0.22287972138325374
37,0.2229594958424568,0.22291831053296726
38,0.2229570172727108,0.2229986031750838
39,0.22295618832773634,0.22287320254246393
40,0.222956667025884,0.2230257399181525
41,0.22295379726754294,0.2228804542819659
42,0.2229507680800226,0.22292908932765326
43,0.22294729901684654,0.2229138321876526
44,0.22295386286907726,0.22284412755568822
45,0.22294477585951486,0.22296524090568223
46,0.2229408931268586,0.22299274124701818
47,0.22294119199117024,0.2228697566986084
48,0.22294356368978818,0.22291752407948176
49,0.2229419620898035,0.22288976206382116
50,0.22294299485948352,0.22296844510237376
51,0.22294500496652392,0.22285599587361019
52,0.22294481522176002,0.22283294919133187
53,0.22294167790810268,0.22286653665701547
54,0.22293877008888457,0.2228359439074993
55,0.22293760851356717,0.22294564890861512
56,0.22293468489249546,0.2229202424188455
57,0.22293540845976936,0.22288307016094525
58,0.22293464305003485,0.223111590752999
59,0.2229360533422894,0.22290422728657722
60,0.22293372975124254,0.22286555886268616
61,0.22293539586994382,0.22283434375127156
62,0.22293560092979006,0.2228549178938071
63,0.22293608892626232,0.2228819004992644
64,0.22293374734123547,0.22286049796144167
65,0.22293252204524147,0.22287655205527943
66,0.22293506597148047,0.2229101538658142
67,0.22293041917681694,0.22285663706064224
68,0.22293299461073346,0.22316976977388064
69,0.22293371977739865,0.22287165871262551
70,0.22293714212709004,0.22286377889911332
71,0.22292915786306064,0.22281987093885738
72,0.22292910742759706,0.22292903577287992
73,0.22292555884520213,0.2228489741484324
74,0.2229314182897409,0.2229834516942501
75,0.222926527261734,0.22306475866834322
76,0.222930590848128,0.2228762004772822
77,0.22293033854497804,0.22284655622641245
78,0.22292506712343957,0.22292505736152332
79,0.2229307489030891,0.22288323951760927
80,0.22292236955298317,0.22282783670226733
81,0.22292896036307017,0.22303991482655208
82,0.22292607071002324,0.2228594873746236
83,0.22292914577325185,0.22290053087472916
84,0.22292155575421121,0.2229018574754397
85,0.22291764677233167,0.2228539261519909
86,0.22292448872327805,0.2229468082388242
87,0.2229283487399419,0.22302843049168586
88,0.22291885308755768,0.2230300611356894
89,0.2229227802488539,0.22286219727993012
90,0.22292141964038212,0.22286711898446082
91,0.2229182561337948,0.2229272885719935
