epoch,loss,val_loss
0,0.4997447266710176,0.37738875241475306
1,0.31845370643168425,0.2529709005953293
2,0.25611462690037406,0.2283597844105211
3,0.2505289622002559,0.22290619557404387
4,0.230002702199679,0.20878957110826857
5,0.22465643848327518,0.19468101547426753
6,0.2338307355042937,0.2164096668092115
7,0.24876012208817197,0.2692287175459662
8,0.3546870899238556,0.3560405550928876
9,0.3493327848512015,0.3223294509661508
10,0.3211511463927422,0.2953798066421861
11,0.30047382417318824,0.2635995510439282
12,0.2863619178354883,0.2691372848206274
13,0.28400152845443677,0.2824753169808316
14,0.28298320455088033,0.25508095540441483
15,0.27705858373861136,0.26026109018566673
16,0.27131896804300526,0.2558750655816687
17,0.27614086553704537,0.25071139683051663
18,0.2713249140172649,0.2624238939057586
19,0.26702757628201296,0.23023743152430232
20,0.2642505143424399,0.2355248119267499
21,0.25982646892468136,0.2295413323411249
22,0.2651961049099239,0.2264223069822873
23,0.25891172031251836,0.23341414341798616
24,0.2633754681947706,0.24215402597033706
25,0.2601898685812378,0.25042290591591443
26,0.2523467041712871,0.22780887120430546
27,0.24927623569369792,0.23454909488829273
28,0.24706166304892105,0.22045772435068614
29,0.23637453187927068,0.2170157687416581
30,0.21181461212041375,0.18317766893352216
31,0.20022715134419602,0.1647207836349272
32,0.18204432681834193,0.18057307603327233
33,0.17651964385482333,0.13682099042464732
34,0.1838640575464681,0.15109455153263734
35,0.16932802345993803,0.1380535076595049
36,0.18069514070304749,0.14870448318187326
37,0.175014116087382,0.1581074552700194
38,0.17506589931692723,0.1662534779700691
39,0.1675259894062337,0.12338105384510337
40,0.16962893316738134,0.1397022566013479
41,0.17025844082772304,0.14622902690235234
42,0.1795617310519365,0.12189050513924626
43,0.1912926504080244,0.15819199139806542
44,0.17987140370227642,0.1524769584130093
45,0.1827767800262792,0.14707668022720854
46,0.17303585006202535,0.18750500909531315
47,0.18436007790392536,0.15582614111542795
48,0.188371250517577,0.18531356703698776
49,0.2034173765682059,0.18290193511824393
50,0.20933604384843205,0.21419299819051701
51,0.28020243160277725,0.28221112006324056
52,0.27870028267661445,0.24503252293617592
53,0.2259232031373526,0.14712046106193793
54,0.2836274773918753,0.3027722258311891
55,0.2868684519240134,0.2525751065483409
56,0.2592318147587643,0.18998367569299787
57,0.2792164022497517,0.2879516429075973
58,0.41614477064826794,0.28119328512200803
59,0.29067243904852086,0.25138201515742337
60,0.3308559189990556,0.33050183397912564
61,0.3476797532882812,0.39848071856581513
62,0.41607922901638406,0.4023970415861285
63,0.35900885145441236,0.25370215255864137
64,0.284358396923704,0.29315751826283304
65,0.43848376448968235,0.2920656458378403
66,0.3683887659776792,0.2724204349442552
67,0.24879376404434086,0.2517021085534777
68,0.40993434071338336,0.3534455486141798
69,0.3926481015676503,0.42515379978430584
70,0.4028444548757623,0.24618370063020756
71,0.34735898227750256,0.5923416935842434
72,0.4552006673017185,0.36403756080035066
73,0.379872850972495,0.3770297884047267
74,0.3687221657195918,0.2911993381585676
75,0.2934854806339045,0.27518972700377947
76,0.2881666939500139,0.2784022004494257
77,0.34776430089863464,0.32071210990859095
78,0.3015248098735996,0.29312535068983153
79,0.303401002971579,0.28496323442402655
80,0.4155600784088877,0.3975819059498402
81,0.41132125130993763,0.4134190810084249
82,0.401797079818426,0.3818559518411767
83,0.3974126682793208,0.3908421148111619
84,0.4009330991765769,0.41839145628504615
85,0.4266521507244316,0.3887783204982294
86,0.41745129683844856,0.3212993439954383
87,0.35753880865234644,0.4117398026804333
88,0.40847293090381975,0.4350847226950533
89,0.39107762977516625,0.3600437936344388
90,0.3772887022470494,0.4121078147178761
91,0.4009794868487153,0.3370850088093915
92,0.37321148272291077,0.1667126951284924
93,0.3215495265490241,0.2775351696110374
94,0.3762910770152589,0.3132615292646232
95,0.2968754666558892,0.30239218444032
96,0.3436398107073099,0.40342216942850395
97,0.3743841901099939,0.4111854838591066
98,0.4179656279625462,0.42479576663229535
99,0.4218875336275398,0.4109662465674725
100,0.4124210292248608,0.39052609891146306
101,0.40079222826791894,0.36702038673500237
102,0.37249901258259366,0.35452147217463015
103,0.3648238257943488,0.35156980020471135
104,0.3633666086992581,0.34539136937404114
105,0.3584607075587165,0.3507622520850226
106,0.36008262549706405,0.34419053778840314
107,0.36079413726699533,0.33366415836064006
108,0.35566190365168876,0.33510682774794415
109,0.3547621668457127,0.3352693488914005
110,0.35128241530854065,0.32632326399988326
111,0.34789581146600435,0.3267369722651984
112,0.3476685531776872,0.32133549186029864
113,0.3445316845183369,0.3361867863358525
114,0.3449334630148588,0.3447709837671143
115,0.34472881512437986,0.3325940655410619
116,0.3455515641698258,0.32409099391246277
117,0.3458970323812476,0.33429177405331767
118,0.34531163592799774,0.3265164913910999
119,0.34532541279598394,0.30950248584845164
120,0.3238634118299595,0.2170723235762392
121,0.22314188896799736,0.18942333465028957
122,0.21428232909821207,0.19982155196621557
123,0.21198382557963105,0.19224562855244812
124,0.21247313985173746,0.1755886784245296
125,0.21032068755724828,0.19139850101982786
126,0.2126254863221106,0.17523264688540371
127,0.21221001839323295,0.18185947270918382
128,0.2121292751886957,0.1834407623654383
129,0.21185541462054927,0.18286220416508986
130,0.21072461272029283,0.1821389716609595
131,0.21293983241613154,0.19726108309784177
132,0.21369385786003156,0.1885908239924635
133,0.21143272256465268,0.19586197632029007
134,0.21152832996335438,0.18098445749461603
135,0.21182595161225298,0.1826342599850145
136,0.21260265868416223,0.19587410394846216
137,0.21354105260422665,0.1880387522239053
138,0.21346017200764802,0.21047704532189734
139,0.21347892220667322,0.2033066183752024
140,0.21315431174971788,0.19630810906544574
141,0.2114724888325595,0.19474636809790144
142,0.21563126856712794,0.20648925172219432
143,0.2117481019964321,0.19375377399486732
144,0.21454170553518428,0.1819251326589765
145,0.2111901049133685,0.19949665493916224
146,0.21358499185835048,0.19293474644163788
147,0.2120498954701862,0.17734882399004656
148,0.2118301948340391,0.17534688362100506
149,0.21303885794586416,0.18748071658018545
150,0.21456774290231206,0.18991964403907427
151,0.21391595389655263,0.19273094825840598
152,0.2147153695638803,0.18334683921737943
153,0.2158630450757192,0.1815654004452825
154,0.21575092043069533,0.1854748712130767
155,0.21389689888480565,0.1977138661594963
156,0.21348217416772072,0.18337292665793561
157,0.21196291932194447,0.19644137685376073
158,0.2142199665772543,0.1982775938703775
159,0.21511655682616002,0.1761889724324045
160,0.20887758289214423,0.19477562755699127
161,0.21303745805859853,0.19552463520062469
162,0.21025080094448953,0.20643259018024498
163,0.21543093972045074,0.175748361502469
164,0.21503308714389038,0.19251212698790438
165,0.21429568727453835,0.19977440771476998
166,0.21212623223102542,0.17640323604103517
167,0.21154381447344375,0.1915467191537535
168,0.20958436266790859,0.17989464602841104
169,0.21254477180617987,0.18111794954129062
170,0.20787102839858126,0.20197562285314513
171,0.2138097750173389,0.18952874422967197
172,0.21136072571043202,0.18778279523682012
173,0.20928721168606307,0.18274672241218465
174,0.21085262845317237,0.1864294625330649
175,0.2145384002646668,0.17696503611559367
176,0.21079893691314877,0.16435722078784018
177,0.20446711453459532,0.17328319538034787
178,0.20541025275330274,0.18640221782387384
179,0.20897192616971563,0.20000752826657178
180,0.2063206802193019,0.18452481672626456
181,0.20494949612185823,0.19292443762544392
182,0.20709416648442988,0.18715316967505025
183,0.20483694974181177,0.16596834602653274
184,0.20430863605176422,0.15878661557879142
185,0.20629002651769957,0.16489357570070118
186,0.20472655469160095,0.17068527783572252
187,0.20370245284790234,0.17980098436221234
188,0.20342405933699162,0.1848356740250772
189,0.20666016581699811,0.18346381561438116
190,0.20324224507589517,0.17027567722191467
191,0.2007913813888312,0.17615158193771915
192,0.19948385895299112,0.1755385453906131
193,0.20792795313919762,0.2030755811633326
194,0.20692308374541366,0.21161692792398307
195,0.2051385161723736,0.19462767029335484
196,0.20396629847187123,0.17353297045547
197,0.20379445185478356,0.18089368042036974
198,0.20806862532401638,0.17540954350954732
199,0.2077024846101741,0.169350271654957
200,0.20445592814593389,0.19128979045100916
201,0.20433482328812472,0.18151926276903974
202,0.2062093860430302,0.19453193364928065
203,0.20997466148732663,0.19907395019480442
204,0.2039182672826506,0.1886246309754598
205,0.20609892577790528,0.17309060307027038
206,0.20767861305118845,0.16549704924237568
207,0.20599385130581715,0.19575536573318958
208,0.20292097689222088,0.1617230068489427
209,0.20415701543827422,0.18444765940743726
210,0.2104366278524498,0.18564593723747988
211,0.20639084217002351,0.18533350022740502
212,0.20761956114301103,0.18948775238189156
213,0.20449475127515748,0.1894389900548682
214,0.21055049175838772,0.19831802668351306
215,0.20693151642092697,0.18136056671955497
216,0.20511135143294132,0.19453781679707807
217,0.20630668227573473,0.19254631269796682
218,0.2047526019690134,0.17004921366684814
219,0.2022372734644335,0.16731781718904049
220,0.20345362903569622,0.21304044021615479
221,0.2079192383719577,0.20222088195906912
222,0.20385451829857487,0.18688794587104454
223,0.2095747687440696,0.1969919320322344
224,0.20721251386508857,0.19832560957513085
225,0.20468490731587513,0.1747965505133488
226,0.20423156085560362,0.15796209103776981
227,0.20424241803699641,0.20132137719768187
228,0.20567370490204517,0.1847293295066189
229,0.20534951104034338,0.18247001157704543
230,0.20680947084840443,0.18315030179253317
231,0.20896109639645385,0.1726722425260032
232,0.20599195575542587,0.16628660864969266
233,0.2062431421818779,0.17521388431233315
234,0.19761060394471783,0.15678540376715522
235,0.20082078325591213,0.16945630277859103
236,0.20363116314966712,0.1770991528467014
237,0.20838469228775,0.19068948993931253
238,0.2058459442618082,0.2134672960688396
239,0.2040832603840138,0.16164744222549915
240,0.20444076318892357,0.1863472355734013
241,0.20742271353991673,0.16056989346231734
242,0.2059647385998786,0.2013483248127664
243,0.20588026050445463,0.17613136449618516
244,0.20225533015198177,0.16348169250053596
245,0.20190720624036546,0.17750418785997704
246,0.2060330101042438,0.1670481200376268
247,0.2043597268091022,0.18841685998035212
248,0.2061090152398002,0.18232722646294378
249,0.20172871906551526,0.16719560229881786
250,0.20918208362458707,0.20511310548178305
251,0.2091844810856332,0.19279527838247068
252,0.20980959015188932,0.17037029773726084
253,0.20547198847257833,0.1819022496502138
254,0.20383500635361881,0.210801554119013
255,0.20997741684424792,0.1972393753049688
256,0.2084242440373015,0.18546635915702409
257,0.20919064887993627,0.19484844408641205
258,0.20858196152461994,0.18114684137567913
259,0.20862478750358096,0.17363892221601346
260,0.20487962052714434,0.22763663605620002
261,0.20636462517303053,0.1891256958928368
262,0.20742513150048197,0.20220648003969968
263,0.20275211972679547,0.18593193470679029
264,0.2037705876808658,0.16801074396557195
265,0.20860350314232942,0.18461900474334572
266,0.20845620650991642,0.1859933496956385
267,0.20407692309049108,0.16105786629238747
268,0.20533029948302406,0.19656238945431848
269,0.20851574550501162,0.1907074058394594
270,0.2052166386009406,0.20125073528515605
271,0.2015585645997553,0.18929468591615922
272,0.2085730159263626,0.1778437556035893
273,0.2093555314613761,0.17339203554340113
274,0.20205210771063248,0.16293589581442142
275,0.20443525922288902,0.17643662394504428
276,0.20511990732593025,0.18840474612428715
277,0.20716262509901937,0.20765355732747676
278,0.20724902708205484,0.19994241321472644
279,0.21658265353630868,0.1861448569874549
280,0.20667479541018713,0.165260442700928
281,0.20347110033154392,0.20963662079496467
282,0.20313702467129194,0.18376635145557707
283,0.19855097313817266,0.1626207436293058
284,0.20064088731384772,0.1996321175850181
285,0.20765716704628545,0.161168526349429
286,0.20521942757778794,0.17239382414951415
287,0.19762845767392434,0.19888076747178843
288,0.2035064689642329,0.15812893504689976
289,0.20732280544096904,0.18649870731177629
290,0.2001020684421396,0.1781727467217404
291,0.20883984015666418,0.20994413638782952
292,0.20471051739726803,0.19398083587801165
293,0.202716575895282,0.17461682650265772
294,0.20148571179234248,0.17673543176739442
295,0.2061107800983125,0.1535977953023203
296,0.20513590484809913,0.16458806681322505
297,0.20673032676716216,0.21031497141321343
298,0.20463037511094107,0.17178409968244812
299,0.20245845139407806,0.18922131508000742
300,0.20109324787351057,0.17451329366983911
301,0.20336576200408235,0.1899160259265832
302,0.2037634553609611,0.19432898386783645
303,0.2052224081911915,0.2158134086167803
304,0.20254774730530478,0.18496030096285157
305,0.20023474186587392,0.17876069288886054
306,0.19994062825525216,0.18636876335272
307,0.20039829997112044,0.17193454518126236
308,0.20233413594351302,0.19344774623649177
309,0.206827833212251,0.17095695400717886
310,0.20335550254268897,0.1748039802652508
311,0.2031701983426877,0.19900801635531806
312,0.2018196902972617,0.17250440700748537
313,0.20019729679627574,0.1764821092162249
314,0.1988764727037016,0.18121558408993102
315,0.2067395473698632,0.1949108080451848
316,0.20326623608239835,0.18845995071607965
317,0.20049802721928445,0.17605215601546612
318,0.2030595997266537,0.17356230551413693
319,0.20255255181607393,0.19512580233995802
320,0.2011474372028447,0.19154686034431398
321,0.20399397290605817,0.1662904440227605
322,0.20358203587938936,0.1668126785270605
323,0.20235732453261063,0.1963703730676526
324,0.1966212517637715,0.18467455656630088
325,0.20197273560350748,0.1893637367563165
326,0.20316976081314894,0.1808111170849277
327,0.20205986783873264,0.17298817823934293
328,0.2011774403812121,0.17888176293004285
329,0.20466152953801395,0.1768279064449628
330,0.20150987160720413,0.17610546633683516
331,0.20135520374793991,0.19830457427507323
332,0.19803742732671048,0.19062824038040385
333,0.20623608300392385,0.17102621074680655
334,0.20156084217851777,0.1642754200931224
335,0.2063776506818265,0.18038756973694514
336,0.2024253080074164,0.17684141749364707
337,0.20471742421650677,0.1618268744815685
338,0.20094187779844902,0.1722397468719505
339,0.2025293202923356,0.18850021574707979
340,0.2054886232784612,0.1647623416209842
341,0.2074975720067009,0.1722940704252368
342,0.20214301479949082,0.17794579064036883
343,0.20010248815817988,0.19590823185330972
344,0.20247358667383566,0.1836653001541779
345,0.19944283198252571,0.17242240794032412
346,0.203374054851673,0.16501902239051688
347,0.20404016532653052,0.16859968068944062
348,0.2022517079786717,0.15497637337225106
349,0.2030497383263757,0.1802513756992879
350,0.2062059601278995,0.17104188654492386
351,0.20133776360040279,0.16025175196548663
352,0.20578607826900902,0.15763913741851285
353,0.20296153578040696,0.2091013458340584
354,0.2040558671541542,0.1939742349811492
355,0.20933627979837352,0.19298876211599938
356,0.20754309052186046,0.18412500356442363
357,0.20368076179572622,0.17588180337680448
358,0.20457623510671366,0.2005997075630909
359,0.20713022883108956,0.18964081027654558
360,0.20421603515589362,0.1781865639087245
361,0.1976281130771271,0.201407652756974
362,0.20097782309178255,0.17232985761613476
363,0.201984067507785,0.21494710264284966
364,0.20384822999068397,0.18103832569805392
365,0.19688715056168565,0.18004683739760774
366,0.20614855822851713,0.19942154771197754
367,0.20303447021068716,0.16174896461293747
368,0.1988224251557597,0.16269338888358015
369,0.2065956692377345,0.20341839823039762
370,0.2064636604939338,0.17678720715155072
371,0.20137025221145982,0.1953350332019455
372,0.2019748744799746,0.17234542257878002
373,0.20316883445762807,0.18183314213389568
374,0.19962470524078554,0.18460428785318075
375,0.2040282534859735,0.15320991905260575
376,0.20359747449485519,0.17573360509541247
377,0.20783065157018596,0.16998649422070505
378,0.2036883833287336,0.17376860035340808
379,0.20346263983100057,0.16596590338867295
380,0.2025890765990094,0.16852457829601858
381,0.20847686984651476,0.17697568368328398
382,0.2075355986146618,0.17700116016447026
383,0.1997903365668633,0.18001736971037352
384,0.20258446121744686,0.17516730248269455
385,0.20747864021838522,0.16075647005483495
386,0.2024768882518192,0.17286721528188018
387,0.20042179231878093,0.16981566352174332
388,0.20376747186116273,0.17325590933131343
389,0.2026560616960152,0.1742245768150572
390,0.201902178557609,0.18898974662468768
391,0.19879563548248544,0.18149894016082585
392,0.19917993545889567,0.21075393511210264
393,0.20088651364774918,0.1970186067690695
394,0.20626530554488026,0.16188456419187922
395,0.20045646974484888,0.1627630865188123
396,0.20216358765114031,0.17912491716168108
397,0.20140021952460233,0.1774449547680702
398,0.20090676639243948,0.1829477850033151
399,0.2006011569409443,0.1595370935918594
400,0.2048093278904994,0.17876989175084076
401,0.199226542104253,0.1714281285006697
402,0.19991755880993142,0.1837550857307973
403,0.2008204810517869,0.20191480104106566
404,0.20386744476408122,0.18233181252758054
405,0.20106892411609728,0.1660406935751297
406,0.20327609658336562,0.16729986016074785
407,0.20860235871885607,0.18401853597907447
408,0.19837912772413638,0.1791981206626147
409,0.20127244395532196,0.1573357524463485
410,0.2025127846309893,0.17963092122006435
411,0.1988579972887592,0.17984501678781803
412,0.19795588664204286,0.1563934261462965
413,0.20533585114230354,0.16855460604110287
414,0.20006578628846305,0.16705400186819455
415,0.20398086388643794,0.17345242749167505
416,0.20054133054163817,0.194678157509173
417,0.20283136551948094,0.16891581675106837
418,0.19956729162058576,0.19657497543138883
419,0.20377094486801267,0.170206038803215
420,0.2018217142227647,0.17622729867767328
421,0.20383930694666222,0.1775761269497514
422,0.20185312307733808,0.15689994240710373
423,0.2008454044052451,0.17614394276981385
424,0.20307415120488256,0.19600522773371218
425,0.20390118463195675,0.1984986802702733
426,0.20094710971406704,0.17934008336669363
427,0.20102382164826688,0.19852982462628582
428,0.20496581610348774,0.18264489389820746
429,0.2025770266219485,0.17859104681457227
430,0.20552578158110832,0.19075348306426687
431,0.20352319094965116,0.18774265522503344
432,0.20229804327638506,0.1704922858993181
433,0.2063118108778263,0.19026017974659318
434,0.20238283763138606,0.18746446301218272
435,0.2062409662550016,0.18407697636919315
436,0.20332360834621793,0.19030207584905362
437,0.2058664139666908,0.19500243610863432
438,0.2069375214697741,0.17103909030145045
439,0.20311795441890887,0.17716115693125842
440,0.20666762961329316,0.20776634325215265
441,0.20619385697239404,0.18519745560123305
442,0.20717056271888845,0.20044189059978973
443,0.21037177060195486,0.1695738669187889
444,0.20770402143089225,0.1931238934080151
445,0.2146585412877355,0.1946892258023877
446,0.20738057268085144,0.1832786372259271
447,0.19735621007607518,0.1552992278582107
448,0.20233343725653288,0.18871164842910812
449,0.2176181813962549,0.18665299901552057
450,0.20030775657303326,0.1648942718330856
451,0.19854649183728235,0.16404233789387518
452,0.2009363419158186,0.1775686663487998
453,0.20854496718239154,0.19935446160227271
454,0.20237679375733117,0.1953743373138658
455,0.19965590105997286,0.1688268287452827
456,0.20145224216435073,0.18197583980511378
457,0.19889236728755308,0.17597422995196615
458,0.20198491608782065,0.20384943744001563
459,0.2049423277223234,0.1700197971986802
460,0.2016996087001668,0.17603316980736786
461,0.20409467152292304,0.1788089160690556
462,0.19507152837910335,0.19197920359959258
463,0.20338007255042675,0.19679541271929676
464,0.20327138853111237,0.18094245274422577
465,0.20049424818474992,0.20109056372668863
466,0.21069747817030343,0.17852954779352462
467,0.202592012318347,0.16789119325478244
468,0.2068341938342503,0.17713289828449136
469,0.19941025212419022,0.18149840783536575
470,0.20339853388013884,0.18486809869309345
471,0.20367374610033728,0.18311770951879616
472,0.2087065735392624,0.17571277029653562
473,0.20239936406735323,0.1764955074183096
474,0.20574777301171607,0.16954897841601835
475,0.20145838530205612,0.19663625042929644
476,0.19919382237630495,0.18732590144228164
477,0.20422583650484932,0.19997461062533325
478,0.20553507441453797,0.1826790908282445
479,0.2047326291839091,0.20996079507453666
480,0.21469446340744064,0.18340545221163518
481,0.20840731305446175,0.19838029667205856
482,0.2022790376790803,0.15176816563391743
483,0.20218870013976079,0.19201495343761926
484,0.2044662135622675,0.1646199952502277
485,0.21765708013904467,0.20096007185887424
486,0.20159081879446356,0.18594388406203313
487,0.20333911829905735,0.18439608633565263
488,0.20280198671287009,0.15887723744338952
489,0.20464896810331124,0.20035898015079484
490,0.20884397776006794,0.1714699380070371
491,0.2026200427187623,0.18778020108225973
492,0.2032151720899758,0.1912702543583082
493,0.20831559574623093,0.17847851299825576
494,0.20861571742523966,0.20328672430180336
495,0.20841508664839942,0.1954398770429247
496,0.20624620449557293,0.18067925336940513
497,0.20372394122761026,0.1758205575226044
498,0.20682847134167437,0.1722892139874393
499,0.20757269810477225,0.1841091647120847
500,0.20786637311382927,0.1719779524167128
