epoch,loss,val_loss
0,0.6689979685942332,0.6674770225286484
1,0.6674245255920622,0.6671802667776744
2,0.6672038915289773,0.6670546867052713
3,0.6671219095521503,0.6670404779513677
4,0.6670786062611473,0.6670276976029078
5,0.6670672640403111,0.6670966215928396
6,0.6670402550299962,0.6672172484000524
7,0.6670350530809827,0.6670159396330515
8,0.667029175983535,0.6671286435524623
9,0.6670141132540173,0.6670991084575653
10,0.6670104701386558,0.6669869570732117
11,0.6670067994727029,0.6670396384398143
12,0.6670010711219576,0.6670816879272461
13,0.6670002090533574,0.6669877757628758
14,0.6669996622006098,0.6669797199567159
15,0.6669933894342847,0.6669612062374751
16,0.6669926635556751,0.667004718820254
17,0.6669894360568789,0.667031443119049
18,0.6669898406134711,0.6670207103093465
19,0.6669894174734752,0.6671038938760757
20,0.6669853060245514,0.666981946627299
21,0.666983088347647,0.6669480327367783
22,0.6669824139939414,0.6669434192975362
23,0.6669793756670422,0.6669468431870142
24,0.6669812123113208,0.667042247414589
25,0.6669763674471113,0.6671454891761144
26,0.6669764488273197,0.6669542609453202
27,0.6669764715830485,0.6669604099591573
28,0.6669769026173485,0.6669546718200048
29,0.6669730916817983,0.6669447400569916
30,0.6669735598696602,0.6669385952154795
31,0.6669740631182989,0.6671398403644562
32,0.6669702342086368,0.666945989092191
33,0.6669738530980216,0.6669349895715714
34,0.6669680479102664,0.667033486922582
35,0.6669713909890916,0.6669463609457016
36,0.6669683489004771,0.6669518725077311
37,0.6669686066706976,0.6669449774424235
38,0.6669679494566387,0.6670462549130122
39,0.6669709765116374,0.6669609092871348
40,0.6669694973892636,0.6672688219547271
41,0.6669708485073513,0.6669467827479044
42,0.6669671287933986,0.6670393296877544
43,0.6669685807890362,0.6669756683508555
44,0.6669666890965568,0.6670787641207377
45,0.6669692814879947,0.6669247451623281
46,0.6669659551911884,0.6669350490570068
47,0.6669688056839836,0.6669616918166479
48,0.6669655406607522,0.6671030266284943
49,0.666964017894533,0.6669603131612142
50,0.6669641218980153,0.6669468687375386
51,0.6669643860260646,0.6669865653514863
52,0.6669629220697615,0.666977102915446
53,0.6669645933972465,0.6669600412448248
54,0.6669628073904249,0.6669324119091034
55,0.6669613255659739,0.6669674847523371
56,0.6669640992614958,0.6669255808194479
57,0.6669653710921606,0.666937833070755
58,0.6669615686866972,0.6669360182682673
59,0.6669605620172289,0.667027793208758
60,0.6669623519447114,0.6669576824108759
61,0.666960925300916,0.6669622426430384
62,0.6669591311746174,0.6669194851716359
63,0.6669594477415085,0.6669317046006521
64,0.6669562218056785,0.6669941617647807
65,0.6669511544704437,0.6669108634789784
66,0.6669464783403608,0.6669157396157582
67,0.6669387043714523,0.6669353425105413
68,0.6669356364409129,0.6669251838922501
69,0.666931815650728,0.6669294837315878
70,0.6669297495020761,0.6669350789388021
71,0.6669289091163212,0.6669318575461706
72,0.6669241765340169,0.6669051806131999
73,0.666922545366817,0.6669477684895198
74,0.6669182816478941,0.6668779975970586
75,0.6669148236513138,0.6669334160884222
76,0.6669137747950024,0.6670148826440175
77,0.6669125187132093,0.6668830310901006
78,0.6669080185492834,0.6669358727137248
79,0.6669119870795144,0.6669389996528625
80,0.6669066524108251,0.6668719050884246
81,0.6669059458441204,0.6668623215754826
82,0.6669064321517945,0.6668793757359187
83,0.6669029834932751,0.6670502937634786
84,0.6669038914839427,0.6668659149010976
85,0.6669052228795157,0.6668694037993749
86,0.6669003456168705,0.6669090312719345
87,0.6669041210015615,0.666911009867986
88,0.6669003607961866,0.6668787745634714
89,0.6668987139860789,0.6668597514232
90,0.6668994452026156,0.6669453494151434
91,0.6668968466255399,0.6668690881729126
92,0.6669018754429288,0.6668746310075124
93,0.6668976918061574,0.6668800583680471
94,0.6669001106686062,0.666866601506869
95,0.6669019759363598,0.666876245299975
96,0.6668961909347111,0.6669180262883504
97,0.6668983084360759,0.6668931109905243
98,0.6668934882349438,0.6668968007961908
99,0.6668962295187845,0.6669003001054128
100,0.6668940550088882,0.6668756686051687
101,0.6668964298301273,0.666867749651273
102,0.6668956911563874,0.6668658124605814
103,0.666894786980417,0.6670419249931971
104,0.6668956097364426,0.6669461424350739
105,0.6668929423093796,0.6668602460225423
106,0.6668969500329759,0.6668766498963038
107,0.6668929541773266,0.6668688344160716
108,0.6668917485343085,0.6668692951997122
109,0.666893760614925,0.6668973686297734
