epoch,loss,val_loss
0,0.44747454288933014,0.4455150523583094
1,0.44555825342734656,0.4454852183461189
2,0.44536134680112205,0.44519093229373297
3,0.4452210791044765,0.4451508888800939
4,0.4451551669769817,0.4452898501952489
5,0.44511158176925447,0.44540873434146244
6,0.44508115944597454,0.44502750152349474
7,0.4450629819167985,0.4450266533096631
8,0.44505307116773396,0.4449873757362366
9,0.44504174895419013,0.4451187698841095
10,0.44503209703498414,0.44496124354998273
11,0.4450244055920177,0.4450257144371669
12,0.4450206803215875,0.44496009103457135
13,0.44501195253928505,0.44506520742177963
14,0.4450114721854528,0.44494331659873326
15,0.4450099349419276,0.44495125724871953
16,0.4449856438504325,0.44502472547690075
17,0.44497641723023523,0.44492370639244716
18,0.44496315190527175,0.4449609556794167
19,0.44494473116927674,0.44505169582366944
20,0.44494332796997493,0.4448843026359876
21,0.44493436104721495,0.44488381151358286
22,0.44493037598000634,0.4449739401936531
23,0.44493203432692424,0.44496019383271534
24,0.4449209842416975,0.4449065015912056
25,0.44492320939567354,0.44488700197140374
26,0.44491950531138313,0.44486497102181116
27,0.44492040029499264,0.44485048041741054
28,0.4449162992835045,0.44489658176898955
29,0.44491662608914906,0.44490873634815215
30,0.4449069146712621,0.4448654613892237
31,0.44490351583560306,0.44486903125047683
32,0.44490758650832707,0.44483980631828307
33,0.4449048381447792,0.44493075464169185
34,0.44489875826570724,0.44489071663220725
35,0.44489631899197896,0.44508362392584483
36,0.4448971934186088,0.4448283526102702
37,0.4448901855548223,0.4449456279079119
38,0.44488383965359796,0.4448894869486491
39,0.4448908156288995,0.44484064730008444
40,0.44488575043943196,0.44488313867648444
41,0.4448825386431482,0.4449778726498286
42,0.4448827424446742,0.4448452489177386
43,0.4448741547399097,0.44488493911425275
44,0.4448765556613604,0.4448288950522741
45,0.44488188879357443,0.4450974818865458
46,0.44487288745244347,0.44486807902654013
47,0.4448757142689493,0.44485469233989716
48,0.4448705014520221,0.44486324884494144
49,0.44487255811691284,0.44524974598487216
50,0.4448653817574183,0.4448404585321744
51,0.44486863719092473,0.4448990387121836
52,0.4448615537881851,0.4448222637573878
53,0.4448641794655058,0.44504804827769595
54,0.4448670411772198,0.4449411427974701
55,0.4448618362678422,0.4448740299344063
56,0.4448616020878156,0.44490112346410754
57,0.44485870579216213,0.4448229708472888
58,0.4448628780974282,0.44482716178894044
59,0.4448586203853289,0.4448214361667633
60,0.4448557664619552,0.44485808569192886
61,0.44486281986369025,0.44483809246619543
62,0.44485501818524464,0.4448560740550359
63,0.44485125682089066,0.4449456255038579
64,0.44485177677869797,0.44482170895735423
65,0.4448502720594406,0.44519594935576123
66,0.444852839589119,0.4448534517089526
67,0.44485031446483403,0.4448336277405421
68,0.4448487984074487,0.44485482303301493
69,0.44485362970166736,0.4448171435991923
70,0.44484753459692,0.4448518592516581
71,0.44484906045595807,0.4447801622351011
72,0.44484012967348097,0.4447999845147133
73,0.44484283079041376,0.44481520318984985
74,0.4448412908713023,0.4447929430603981
75,0.4448396710356077,0.44483707640568415
76,0.44484182291560703,0.4448108310898145
77,0.4448480321566264,0.44478829634189604
78,0.44484427252080705,0.44481315646568936
79,0.4448455250528124,0.4449087244272232
80,0.44484276513258614,0.44478687856594723
81,0.4448406497637431,0.4448594136834145
82,0.44484051916334366,0.4448621466755867
83,0.4448416387769911,0.4447661797205607
84,0.4448416766921679,0.44477915241320926
85,0.4448430771231651,0.4447956012487411
86,0.4448387182619837,0.4449648789167404
87,0.4448490531510777,0.44479156068960823
88,0.44483797823720506,0.4447852454384168
89,0.4448421757221222,0.4450593735575676
90,0.44483499783277514,0.44478324955701826
91,0.4448430613279343,0.44477841929594675
92,0.4448300999071863,0.44482323026657106
93,0.44482845996485815,0.44492776813109713
94,0.4448260377844175,0.4447874252200127
95,0.44482712704605526,0.44485190425316495
96,0.44483125368091797,0.4447563912272453
97,0.44482791048288345,0.4448539846738179
98,0.4448235773311721,0.4448098891377449
99,0.4448197109897931,0.44480317811171216
100,0.44482107855876285,0.4448140581647555
101,0.4448224312265714,0.44492378493150075
102,0.4448170859681235,0.4449034961263339
103,0.44481519338819714,0.4449120695590973
104,0.44482090765900084,0.4448162602980932
105,0.44481513172388076,0.4448863685131073
106,0.4448136743174659,0.4447415741086006
107,0.44481440731551913,0.4447860886057218
108,0.44481513992945354,0.4448984324932098
109,0.44481580225626627,0.44478671536842984
110,0.44481312808063295,0.4447468416690826
111,0.44481037134594387,0.4447763251066208
112,0.4448175101743804,0.4448631967504819
113,0.44481252960364026,0.44491668232282
114,0.44481148131688436,0.44481823841730755
115,0.44481659673319923,0.4449236581325531
116,0.44481019126706656,0.4448943741321564
117,0.4448126804563734,0.4448054932355881
118,0.44481071373489167,0.4447601677974065
119,0.4448142963581615,0.4448113143245379
120,0.4448113549616602,0.44479295186201734
121,0.4448104260961215,0.4448753957351049
122,0.4448096593088574,0.4447709044019381
123,0.4448077023824056,0.44483859940369924
124,0.4448137713074684,0.4447451942165693
125,0.44480875233146877,0.44475828037659326
126,0.44481049069431094,0.4447760861714681
