epoch,loss,val_loss
0,0.32637185082615044,0.25924251437042173
1,0.22806183387151807,0.21169892781310612
2,0.20777725934194888,0.22401627887339487
3,0.1902408940110615,0.177046752094449
4,0.1827049646630967,0.1475357919907241
5,0.17843074554367194,0.1745775274430845
6,0.18286921278990392,0.19106556743455919
7,0.18650242420222113,0.15549956739480575
8,0.18260987704281237,0.19335737482426327
9,0.18602805352621407,0.17673239648487157
10,0.17740188107145033,0.15029207765089236
11,0.18198649459380545,0.15307729957747634
12,0.18082426948915775,0.16793509070600615
13,0.18116040364969627,0.15194649596767318
14,0.18123623533092373,0.1532775950402819
15,0.18303241704205114,0.18864102772794308
16,0.179212287849813,0.1485132837950555
17,0.17772883711288795,0.1679269946984711
18,0.17454926874205243,0.16896016227454552
19,0.17671431204359278,0.15531965751814242
20,0.18592800553425776,0.185166499306299
21,0.18475816055261393,0.15336548081400525
22,0.17669423250817032,0.16976510585321225
23,0.17632025042422014,0.16031867697146107
24,0.1742333099544287,0.15924746835028747
25,0.17541934796172776,0.15158355657225783
26,0.17462357858999716,0.1506595512110338
27,0.17500333193304826,0.16154918648659072
28,0.17602769289019587,0.15392707539034972
29,0.1751711928398252,0.16533095912293314
30,0.17542026610112935,0.18106778697182468
31,0.17279470137494196,0.16268942966175
32,0.17495993000445506,0.14923958073083887
33,0.17462280520601117,0.15496587031804152
34,0.17247260077964602,0.15960953217256582
35,0.17569916818836767,0.18250672685983987
36,0.173635343505775,0.16250843969864856
37,0.17150405139995634,0.15377237569217458
38,0.17311841376823744,0.14752200915382244
39,0.17377638943893037,0.1637406906676505
40,0.17263321934925546,0.14594409590026564
41,0.17064872750933405,0.1574809249711056
42,0.17163020289473957,0.15575418752427037
43,0.1703817100555683,0.1436624697440539
44,0.17199553196445955,0.16872041592101014
45,0.17466124966800262,0.16143718591475043
46,0.1731064852783449,0.16563237003456358
47,0.17325753754107737,0.1497587793705334
48,0.1711629404514145,0.14312369365544214
49,0.17071342482280025,0.15007851695806537
50,0.1721536886361573,0.15293273561168083
51,0.17239571331118086,0.1554054586460024
52,0.17241144221756247,0.14860166629832253
53,0.17188574267540863,0.16129512046762143
54,0.17196221291732558,0.15933606689622126
55,0.17270073665080785,0.13849822918235627
56,0.17131580322909298,0.14951051542020288
57,0.1717177761183251,0.15117650744350383
58,0.17408466309285145,0.1603673543518187
59,0.17339195240083172,0.16448883816225202
60,0.17258475230539963,0.17116315809092866
61,0.16919370449548535,0.15940172808352082
62,0.17104849852233814,0.14848668983286217
63,0.17061031988566164,0.1439725138724382
64,0.17196107689467213,0.14924615663865284
65,0.17093286713401826,0.14747793058844377
66,0.17086469006834268,0.15027730255738952
67,0.17158387403329722,0.15889115992930491
68,0.17081257516594292,0.14717444761777834
69,0.1675289533405995,0.16268344824138156
70,0.1700109214729982,0.15450519798300852
71,0.16887904088601197,0.1494216392026717
72,0.17040873473410229,0.14946654269778428
73,0.16990707544766492,0.14756392712938235
74,0.16912633092929308,0.15356221598091885
75,0.16911020006736915,0.15458032908786726
76,0.169147919171495,0.15817588612449335
77,0.1681021437275591,0.14857009381950143
78,0.1694551225426533,0.145858582251215
79,0.17050477295362348,0.1468891267878489
80,0.1706356900491363,0.14340176198870208
81,0.16934724070066162,0.13951323043014205
82,0.1702915822999109,0.15434746356002702
83,0.17120588975276252,0.16013225117835783
84,0.1720870102974202,0.15529665213745972
85,0.1702024728071699,0.15771718873111387
86,0.1689919931493443,0.16461412293197464
87,0.16847084431026915,0.14540858028361398
88,0.16867274971450683,0.15534782085782226
89,0.17081025302457847,0.17173997331516394
90,0.16981801849971112,0.15764397045556647
91,0.17092433507689198,0.16704798597972373
92,0.1688174298726577,0.1485086287170141
93,0.16856898899205786,0.17300039996292566
94,0.16844862349051012,0.15744907608964245
95,0.1723252900416036,0.15813158415046438
96,0.16954897879194125,0.14169699978461037
97,0.17041038645146558,0.15579336218155213
98,0.1703563928604126,0.1446435873767562
99,0.16971699028217,0.1844541271551779
100,0.1704843840669927,0.1549026800526513
101,0.1697372128580025,0.148083461685724
102,0.16839028314483748,0.1483054310989786
103,0.1703546534749486,0.15076293804156327
104,0.1704164278284133,0.14725641993275523
105,0.16898256358955266,0.16210575047684025
106,0.17056179602590918,0.14597696131767535
107,0.17114634966377834,0.16274132976566788
108,0.16981746055621258,0.14850868667805958
109,0.16885194634560874,0.15123121167283085
110,0.17472764809695696,0.14743510849429453
111,0.171649050259824,0.1489824197056423
112,0.17233568064576155,0.15975610777699453
113,0.1738414787370458,0.16049252394269561
114,0.17326006194870408,0.15259251316944372
115,0.17061437664626597,0.14445347930489763
116,0.16952499788138178,0.16101460897236072
117,0.1708911488934743,0.14819922699424568
118,0.16962804875558046,0.15101155677367686
119,0.17201277685819194,0.14785977636689784
120,0.1723311209679843,0.14902108534264158
121,0.17455209316230946,0.14709277041951332
122,0.1732569654599679,0.16498309335182668
123,0.17277769850577424,0.14291367031458618
124,0.17185700172372012,0.1528945923673362
125,0.17407716753437005,0.14618870463684527
126,0.17251579836309194,0.1527864989270936
127,0.17096113294864101,0.14924302240962045
128,0.1727831494913185,0.15486443038525277
129,0.17039476443914245,0.15679528535814277
130,0.17090753407133302,0.14777500820493467
131,0.17098090623179563,0.1504269403927421
132,0.17210992283707527,0.14229228906484512
133,0.17418111610510428,0.15596669896627383
134,0.1726690267292474,0.14778538517176573
135,0.17353570714795752,0.15136933837928912
136,0.1729774281615205,0.17169247381540206
137,0.17464545225087788,0.1599117009164063
138,0.1728161412646906,0.16255484258533975
139,0.17147304011498382,0.1715615098542154
140,0.17342683833071573,0.14731811464364608
141,0.1729425716641142,0.16679714291393516
142,0.17518391960067115,0.15411496233717756
143,0.1733314989476179,0.15426054491758925
144,0.1726464480161667,0.15176623785341067
145,0.1744993211473342,0.1572383079807737
146,0.17656878250732339,0.15500908140138409
147,0.17611007589259273,0.1558738970722692
148,0.17353162334097014,0.1559238512331842
149,0.17610811731450743,0.150757052995331
150,0.1742755749148784,0.15453476031572955
151,0.1746775170175241,0.1800032921636965
152,0.17522952638214545,0.17249625622742754
153,0.17612678157665235,0.1772178704793726
154,0.17446734889852608,0.16024742456151525
155,0.17347516227450915,0.15923729793917138
156,0.1745182323344857,0.14623736328500514
157,0.17513218673290587,0.1575042787283683
158,0.17562123880780536,0.1516746165289786
159,0.17522384444649836,0.15328483172335086
160,0.17524436203907545,0.1726812266012758
161,0.17688229218352022,0.14701671396825533
162,0.17730424618773502,0.16454453224925036
163,0.1775994198956043,0.18243774752353906
164,0.17515556046588598,0.1566457918271821
165,0.17527991968741696,0.1540983107366991
166,0.17581592959533032,0.16010620568887257
167,0.17539671917346786,0.15022901461338087
168,0.17842039391338776,0.15576714026497712
169,0.17684417562760574,0.1551965997650289
170,0.17412376190849646,0.1457979690226132
171,0.17496146413805583,0.14900841875136236
172,0.17595784393570918,0.1486092833356459
173,0.1750773087597256,0.1604458407377288
174,0.17596254480467308,0.14714363911653666
175,0.17464752200606157,0.15742660465515057
176,0.17578089554563725,0.16671413714964992
177,0.17685394673895322,0.1453009430630267
178,0.1770175623776819,0.16419129221060366
179,0.17556328542703528,0.16373445893677868
180,0.17449101599289762,0.1693701666854594
181,0.1763901645966393,0.15709690340558205
182,0.17575598562104974,0.15698031278663985
183,0.17537027933866717,0.16084301074104201
184,0.17460929552873103,0.15556815594724785
185,0.17533604730907873,0.15409497665928712
186,0.17454067085555688,0.15030510319942203
187,0.17644867230000927,0.1530805460063307
188,0.174774639860237,0.1576939247977608
189,0.1739396023615491,0.14856412048419124
190,0.17489961547862062,0.1531694790609755
191,0.1758831443967487,0.1642895902885428
192,0.1764474211751317,0.15558477115892147
193,0.17449226293316167,0.1551901975107309
194,0.1744025262852637,0.15462738180054172
195,0.17589118428904119,0.15811709086777037
196,0.17353431592054896,0.14998131246583207
197,0.17535813384241253,0.15663055004816373
198,0.17510077206073427,0.16624449767528854
199,0.1772440435011402,0.15329566238401193
200,0.17446733450441002,0.16419846226747503
201,0.1759346695132166,0.1505690675292282
202,0.17509748591624613,0.15882096801554393
203,0.1758255594975954,0.15008012040398128
204,0.1732173863711884,0.15185789192897559
205,0.1762428187323008,0.15426682166616218
206,0.17322774997370258,0.18316782453827807
207,0.17579862068566063,0.15896288591338092
208,0.17501778222972436,0.14890846325460722
209,0.1733896778322297,0.1679624189763947
210,0.1766475285407159,0.15436752207595356
211,0.17584628821182863,0.16484901504795046
212,0.17533199233506278,0.15875126481878013
213,0.17525816863601068,0.15490519443325945
214,0.1742951460510755,0.16160516692242385
215,0.17314410914746736,0.16096504563760294
216,0.1743171088654008,0.14528070626491854
217,0.17217112544646637,0.1570659241875496
218,0.17622410068161684,0.1639981464288724
219,0.1745418464187816,0.1551368527918063
220,0.1744289133277199,0.15401567448616416
221,0.17158797689623315,0.15337556155832047
222,0.1740683943176384,0.15863669305338862
223,0.17418321010300977,0.15915268552032605
224,0.17433661635848788,0.1578300412493514
225,0.17320377273176363,0.15899674658454344
226,0.17613592934164646,0.16017101906898634
227,0.17355945218112873,0.1610596009438732
228,0.17442934463819187,0.16090371938904224
229,0.17285133444005438,0.16514605335703925
230,0.17417235656964292,0.14841255951077592
231,0.17269758300913918,0.16206140592633855
232,0.17458351708656317,0.1540942016840948
233,0.17313213586461268,0.14638572751823134
234,0.17255438539722234,0.1483681100297535
235,0.17238606699854972,0.1547461189420264
236,0.170504608691884,0.1576048009828736
237,0.17227269153448466,0.1651043182258575
238,0.17571284922005367,0.16767154408003968
239,0.17324228828744567,0.14949842442102
240,0.17436058713709288,0.15817885870674425
241,0.17351294520666735,0.1620537005515961
242,0.1744316055255236,0.16224299100532052
243,0.1736768309155209,0.15539621895923908
244,0.17678265721560288,0.1708985626552517
245,0.1762874479755294,0.15292899716654543
246,0.17378479807829264,0.14711787082732256
247,0.17395505020387464,0.15740850450590385
248,0.17197160168086364,0.1555714528563539
249,0.173533272123437,0.14906945655429063
250,0.17422601991624617,0.15123548599780332
251,0.17251955946867137,0.15650463032944842
252,0.1735310689438048,0.1522303753428989
253,0.17340253594758703,0.15654600946427552
254,0.1736682129082821,0.1603708008345026
255,0.17487135102705445,0.1458547191100689
256,0.1733460128068733,0.15292391391880417
257,0.17310735080435907,0.15393694055123922
258,0.17293634659963383,0.16859266271894768
259,0.17419212244099097,0.15237631401634757
260,0.17532363338910456,0.14797577802137157
261,0.17312602074839192,0.17967282758915415
262,0.17420664667379293,0.15522539217420836
263,0.17383826434540692,0.15132207048200344
264,0.1728002078968396,0.1541182244950354
265,0.1741544290887918,0.15268132754655167
266,0.1736696604862988,0.15645010671476378
267,0.17245718648282884,0.1566014786259198
268,0.17435012018088822,0.14658624375509424
269,0.17402306578462842,0.1479281264947182
270,0.17191675212905347,0.16086655479326348
271,0.172169898006561,0.15304832623339434
272,0.1728479060187065,0.1527481650373168
273,0.1712074673281993,0.14854660596387326
274,0.17381239144968166,0.15354487266684583
275,0.17438529817174203,0.150675425727437
276,0.17167986264889293,0.1569761775150013
277,0.17050511816783462,0.15932320078890785
278,0.17412360824698253,0.15066881295949197
279,0.17329879703404333,0.15898673270208896
280,0.17266379529423861,0.14772667177474702
281,0.17161106407117424,0.15533705302253548
282,0.17249744559665792,0.16258746407932126
283,0.1734267886402943,0.15487404545317407
284,0.17067290598853194,0.15363541113126597
285,0.17442661501747594,0.14553412137022853
286,0.17368539612445,0.15269040150774849
287,0.17369458656772982,0.16751555987276492
288,0.17119289182418818,0.1501320529448145
289,0.1719895156653668,0.14843883176257913
290,0.17420764371239728,0.15186052173013526
291,0.17185238746999262,0.15508144443729305
292,0.17131940295712483,0.1460535619876197
293,0.17375457517689377,0.15498642891717943
294,0.17210738067392162,0.15303142843141077
295,0.1726602445885217,0.15048440951863054
296,0.1721062779909759,0.14537795652414084
297,0.17158397978501286,0.14582924127868782
298,0.17319074737204848,0.14819659782152106
299,0.17333469813088592,0.14928823932461496
300,0.17306903413265012,0.16613614783959957
301,0.17260058206305492,0.15085831945588313
302,0.17262733117449847,0.173988216018058
303,0.17440905204241136,0.15781164408600243
304,0.17347512254006772,0.1756412238003467
305,0.17237555009243583,0.14985914436521708
306,0.1732207514297924,0.1601516050796439
307,0.1727948892977927,0.15691436134695716
308,0.1715919381325201,0.16078575473922302
309,0.17070985618856452,0.15925275702981184
310,0.1748842505650152,0.15381924559068408
311,0.1718939442793019,0.15335135602989722
312,0.1707341748895981,0.15711426267827902
313,0.1725689260612687,0.1550183969475057
314,0.1763504597218968,0.15124673221112264
315,0.1712941830430487,0.16156975074164381
316,0.17043503443058058,0.14870882834952145
317,0.17168991292735117,0.1472398048540198
318,0.17163273946250124,0.15025952523642214
319,0.17382299596424386,0.15802461204979348
320,0.17220416817190745,0.14689774101861394
321,0.17295809384521912,0.1559606787340001
322,0.1714427376731192,0.1536808826651693
323,0.17252581108740275,0.1461964881188098
324,0.17088296301394487,0.1623988267810772
325,0.17226427044865605,0.14849920220981258
326,0.17427006085888685,0.1618607145132133
327,0.1715680934172616,0.16168275781259822
328,0.17193072823713645,0.14811781987801664
329,0.17243417200920963,0.15468730594409932
330,0.17142190453145292,0.15122720547207757
331,0.1731666506583496,0.15322840341275432
332,0.17362012247666062,0.15890627739904184
333,0.1711041128115238,0.14372332544584923
334,0.1721574901383194,0.14650515803503777
335,0.17226867841555177,0.16207726146279558
336,0.17198325205054446,0.1469508365570097
337,0.16998601993553347,0.15909285590789807
338,0.17088676552124935,0.15327799344391524
339,0.17243578505990886,0.15297779498889208
340,0.1714382896645724,0.14502369900689507
341,0.17273365935270457,0.15338280824196598
342,0.1703131907612825,0.1479364971887843
343,0.1725077061228651,0.1537719618254141
344,0.17049695147548893,0.1540911719444701
345,0.17034673495434396,0.15800695793230363
346,0.16998482436490497,0.15530352653378118
347,0.16997768054660364,0.15274819129864955
348,0.1698816426760488,0.1505499384626565
349,0.1692176428619769,0.1529684970449937
350,0.17357088651678101,0.1523827609680865
351,0.1713096509315521,0.15269796546044045
352,0.1721077236332733,0.15054569108787824
353,0.16938960144193388,0.1472905111972723
354,0.17064218488846233,0.16988704603132154
355,0.17077739061929398,0.1504853807528717
356,0.17079567809024745,0.1540394010987595
357,0.17233781915328042,0.15278288005984902
358,0.17098020716869325,0.15933162388478656
359,0.1717720458908879,0.1541922178062016
360,0.1722779432721764,0.14631792322852605
361,0.17171979211479593,0.1603548861405565
362,0.17278826403154957,0.16284312887928493
363,0.17291560034163958,0.1477234058825349
364,0.17033123924099416,0.1469157901316857
365,0.17240316149971788,0.14288589899750714
366,0.17135303100650076,0.1601106197439551
367,0.1714467266805655,0.14057732815797602
368,0.17146690548349133,0.15940755507202528
369,0.17200694072117703,0.15789296270770362
370,0.17313896022361216,0.15194137934640667
371,0.1713050094912585,0.1506065084732652
372,0.17112722206082318,0.1541167172298911
373,0.1723125238386128,0.14958102582362445
374,0.17003647652301815,0.1608656139535239
375,0.17355417732217962,0.1483138633192504
376,0.17592843639864933,0.15310887904763706
377,0.17476776364543517,0.15735164343924032
378,0.17238366603254796,0.15478811412445434
379,0.1709925138098512,0.16079164421471365
380,0.17063726760667738,0.151562935872863
381,0.17208412772803616,0.1491675762231526
382,0.17179240075777397,0.14726402718703727
383,0.17063726561428835,0.1462464244539237
384,0.16980556075016054,0.1572365539763289
385,0.1688187109996931,0.15076692812054115
386,0.17228987733658263,0.15632180394023198
387,0.16836662912029948,0.14575482811854318
388,0.16937894453171543,0.15184706003561507
389,0.17007268927663302,0.16350513429585647
390,0.16817209953136497,0.15216658007586187
391,0.16974172895674328,0.15306436718235342
392,0.17067601251974404,0.16041645667510407
393,0.17020419806098824,0.14744865556533804
394,0.1701588563060312,0.15156862102237448
395,0.16939975521426567,0.14737659860145533
396,0.1700626163720321,0.15675296134708958
397,0.17033294412949448,0.16321324564921402
398,0.1708760558485126,0.16047683854897818
399,0.1686460770356407,0.14084781202980878
400,0.16902946146000758,0.15718569916530248
401,0.1709589467699333,0.14634486692085175
402,0.16945353415224246,0.15550820522814
403,0.17005012921386475,0.14713898171811982
404,0.17023926909216602,0.1495898765816209
405,0.170418287625162,0.1432152508976299
406,0.16975561147622817,0.14955562718714144
407,0.16791144983054065,0.15581352887894212
408,0.1672999642168979,0.14682703237415617
409,0.17084487320913422,0.15524711892528448
410,0.1695905072544459,0.15978572965393392
411,0.16875529404971196,0.15218279113734726
412,0.17150316668974103,0.14907479027568665
413,0.16883641731641214,0.15178016936957883
414,0.16996678975436857,0.1510473537679523
415,0.17105408143803918,0.14541634553492022
416,0.1691358265540808,0.15423875610251206
417,0.16994085138122306,0.15732737186471332
418,0.16964600730934937,0.15273144949961753
419,0.1697570425424698,0.16348839866032178
420,0.1701538599043297,0.15160945934052403
421,0.16727802591074745,0.14739876960775083
422,0.17103439043637655,0.15109410672316392
423,0.16863284050654753,0.16014201097365616
424,0.16985508683827327,0.15806153028695832
425,0.17128991411985448,0.15041666042243962
426,0.1689186807426574,0.15165992556117167
427,0.1709379614998189,0.14361297952529384
428,0.16946007911446956,0.14705235908670533
429,0.16914514201977332,0.15976403909829798
430,0.16848889201151743,0.15262330057581364
431,0.16898376852858535,0.16299743306221076
432,0.1681028126960425,0.14828653460170618
433,0.16885578484118605,0.1465683369040006
434,0.16991522537173034,0.14907839947470009
435,0.17073668358180882,0.15656549952446883
436,0.16947231993818876,0.15102898273904056
437,0.16989469794844322,0.1427834620465134
438,0.16836532504499865,0.14148469727308113
439,0.16964715237828423,0.15741888234891838
440,0.16782222590964732,0.15453778908853114
441,0.17049274272065434,0.1440780309647539
442,0.16898697588124498,0.14591191780949064
443,0.16908925279879494,0.15705624742422855
444,0.17066217673788842,0.15436276278646613
445,0.1697185253493303,0.14824808686850813
446,0.17048817343586345,0.14005186002692457
447,0.16947702239688822,0.14661029899690756
448,0.17055594179931405,0.1456950908679355
449,0.16991325624114137,0.14860485282644254
450,0.17099561511551598,0.1421833122866674
451,0.16970941182181204,0.14871837856778264
452,0.17033810694340326,0.16175393255643505
453,0.1710136817921821,0.14525048919958694
454,0.1688354242685511,0.15663831785550855
455,0.1714669558628976,0.17490087234432486
456,0.17071624061732507,0.1509060929170587
457,0.17065384965524186,0.15456114766178147
458,0.17044018902439323,0.1534219667230886
459,0.17030105590701008,0.1537857327099651
460,0.16858938233770304,0.14454314675233468
461,0.16991343794225025,0.14711578920882404
462,0.16905280097042494,0.15556878948830435
463,0.17059056062976105,0.13983061866168559
464,0.16909546007195694,0.15157384705176125
465,0.16913344816053458,0.15848403201051
466,0.1702275303504866,0.1468179433184335
467,0.16721621153352736,0.15055754661729254
468,0.17057863769052123,0.15180577222327343
469,0.1700161422063724,0.15966216582934836
470,0.1686213573752593,0.15325884690201583
471,0.1674753345155401,0.1555497972936719
472,0.1674783615271648,0.1540376108444907
473,0.167338281661105,0.13915129924995184
474,0.16814451316912904,0.1461698664752623
475,0.16869410910040403,0.14768429857656806
476,0.16781388311456738,0.14715911290893105
477,0.1676371290808539,0.1420693690167243
478,0.16934816648451398,0.15600928650309376
479,0.16755455911600942,0.1433320122212776
480,0.16737080465635365,0.16727147575857576
481,0.16964832470536806,0.1408080258569095
482,0.1683633864564214,0.14524852799890686
483,0.16638155471238258,0.15358073906089267
484,0.16740106418132306,0.14033856039258008
485,0.1678138952717197,0.16219927258155062
486,0.16710592183270295,0.14197954689571748
487,0.16968610926305322,0.1437979049358248
488,0.16823563242466857,0.15212124601211957
489,0.16782603974493623,0.1440737670573005
490,0.1688089923496195,0.14276658775645934
491,0.16825515556755402,0.1522551237243709
492,0.16955578615001624,0.14901907761964195
493,0.1679577758227042,0.1442450757613534
494,0.1684774087847854,0.14826375818890666
495,0.16783961146664295,0.14547207568442058
496,0.16729349741120164,0.14561311956812287
497,0.16645104545739003,0.1593217349883897
498,0.16765701151292642,0.14427195954085945
499,0.16855013627019091,0.14792066404032495
500,0.16897734898844177,0.14847131362917554
