epoch,loss,val_loss
0,0.38191557518641156,0.3526831228733063
1,0.32635805233981874,0.30207401702801384
2,0.302019373204973,0.302326458632946
3,0.30181747863027786,0.3014911625981331
4,0.3016743941042158,0.3016555376648903
5,0.27421814475456874,0.2515375931461652
6,0.25165795588493345,0.2517452512979507
7,0.2516032078266144,0.2516546346147855
8,0.25154244721598096,0.251396714925766
9,0.2514982353515095,0.25177398266394935
10,0.2514418962597847,0.2513578939636548
11,0.25140580736928514,0.2513932083249092
12,0.2513925786746873,0.25124459540843963
13,0.2513702117535803,0.25159497441848117
14,0.2513952215578821,0.2512186315457026
15,0.2513378984729449,0.25141432746251424
16,0.2513253067731857,0.2512281194726626
17,0.25131436732742524,0.25167230639855065
18,0.25130762779050403,0.25118164070447285
19,0.25129601381222405,0.25135742564996083
20,0.25128472160630755,0.2511802120606105
21,0.2512813664674759,0.25113400534788766
22,0.25127041090197033,0.25110826071103415
23,0.2512668760087755,0.25114081062873206
24,0.2512596480184131,0.2514593713680903
25,0.25125540257162515,0.25117875830332437
26,0.25124248794052334,0.2511262968182564
27,0.2512440011832449,0.251122195204099
28,0.2512347725364897,0.25125823956727983
29,0.251229683637619,0.2512608723839124
30,0.2512294556498528,0.2511492866277695
31,0.25122630083560943,0.2512304852604866
32,0.25121239522430633,0.251263385117054
33,0.25122161913580365,0.2512227743665377
34,0.25121684663825566,0.2511106824874878
35,0.2512148592604531,0.25140696108341215
36,0.25121131998962826,0.2511681379278501
37,0.25120109797186324,0.2511226507226626
38,0.25120193106598326,0.2511150597929955
39,0.2512024993101756,0.25133647908767065
40,0.2511903652681245,0.25110367838541664
41,0.2511989592181312,0.2512111778060595
42,0.2511920921868748,0.25122940496603646
43,0.2511852019296752,0.25108838560183844
44,0.25117981838517717,0.251697541475296
45,0.2511763765083419,0.2511028077205022
46,0.25116788301202986,0.2511546346346537
47,0.25118000673585467,0.25110396897792814
48,0.2511800453265508,0.25116060918569566
49,0.2511728276411692,0.2513120312094688
50,0.2511690265668763,0.25109184233347576
51,0.2511703825990359,0.2511074812610944
52,0.2511719491879145,0.2511885800162951
53,0.2511688615348604,0.2511066746513049
54,0.2511647901336352,0.2514447781244914
55,0.2511556517680486,0.2510605007807414
56,0.25116840161217585,0.25107907251516975
57,0.25115803429815503,0.2510531871517499
58,0.2511535565853119,0.2510866641600927
59,0.2511592600080702,0.25123172614971795
60,0.2511552807092667,0.25160623117287956
61,0.25114862580431835,0.2510317750374476
62,0.25115350804726283,0.2510613030791283
63,0.2511622572077645,0.25105441675583523
64,0.25115161142084336,0.2510748408039411
65,0.2511475462251239,0.25110339556137723
66,0.2511499042842123,0.2510674781401952
67,0.25114768250783287,0.25105521982908247
68,0.25114985627598235,0.25109308860699336
69,0.2511560295489099,0.2511540724039078
70,0.2511476617058118,0.25104640193780264
71,0.2511443048649364,0.2511769629716873
72,0.2511462215979894,0.25134838922818503
73,0.25114065825276904,0.25110328586896263
74,0.2511410258677271,0.25106606912612917
75,0.2511472075714005,0.25160115549961726
76,0.25114082151651385,0.25105264127254484
77,0.25114731256167094,0.25103850187857946
78,0.25114552071359425,0.2510972649057706
79,0.25114113299714197,0.2510555904308955
80,0.2511437860197491,0.2511500270366669
81,0.251143956594997,0.25119113792975745
