epoch,loss,val_loss
0,0.6041370281908247,0.6011571861902872
1,0.6013000214629703,0.6011457791328431
2,0.6011131143437491,0.6013869758447011
3,0.6010391712321176,0.6008946952819825
4,0.6009620323843426,0.6010391025145848
5,0.6009153082238303,0.6008106138308843
6,0.6008824042081833,0.6008722202380499
7,0.6008532267544004,0.6007395842472713
8,0.600837003270785,0.6007853214740753
9,0.6008140401972665,0.6007482889095942
10,0.6008008222844866,0.6010461806853612
11,0.600792376531495,0.6007159356673558
12,0.6007843869924545,0.600712994615237
13,0.6007728705671098,0.600731961687406
14,0.6007670461071862,0.6007073762814203
15,0.6007606911394331,0.6007039961020152
16,0.6007575022776922,0.6007823961178461
17,0.6007476102246179,0.6008461667299271
18,0.6007462839020623,0.6006846909920375
19,0.6007374773820241,0.6006646444400151
20,0.6007320883538988,0.6008573946555456
21,0.6007245059278277,0.6006746591329575
22,0.600722771777047,0.6007219566106796
23,0.6007181531190873,0.60076600197951
24,0.6007159390714434,0.6006475758552551
25,0.6007114894919925,0.6009999234278997
26,0.6007102131048838,0.6006475901206334
27,0.6007022282944785,0.6006495411396027
28,0.6006997350984149,0.6007101733287176
29,0.6007000613874859,0.6007815579970678
30,0.6006971935298707,0.6007260718743006
31,0.6006887144115236,0.6006950035095214
32,0.6006930565966501,0.6006227990786235
33,0.6006883251534568,0.6006397026379903
34,0.6006870906617906,0.600655507961909
35,0.6006876028378805,0.600690156976382
36,0.6006905469761954,0.6007126165628434
37,0.6006912602186203,0.6006244311730067
38,0.600676825231976,0.6007003818750382
39,0.6006825876500872,0.6007570599317551
40,0.6006812500423855,0.600629495660464
41,0.6006782203647826,0.6007109086513519
42,0.6006700596412022,0.6006180402835211
43,0.6006767905950546,0.6006695620218913
44,0.6006739342742496,0.6006253643830617
45,0.6006815876695845,0.600612313469251
46,0.6006724513901605,0.6007054517269135
47,0.6006665584776136,0.60072318927447
48,0.6006713137096829,0.6006188823779424
49,0.6006675004694197,0.6006144534746806
50,0.600668520450592,0.6006065894365311
51,0.600672048356798,0.6006031856139501
52,0.6006689701080322,0.6006205223004023
53,0.6006640736659368,0.6006513750553131
54,0.6006691514386071,0.6006109300851822
55,0.6006578534576628,0.6006390851736069
56,0.6006651706960466,0.6007282368342082
57,0.6006594004366133,0.6007027924060822
58,0.6006677334705989,0.6006388909022014
59,0.6006630158027013,0.6006458441416422
60,0.60065837056107,0.6006029334863027
61,0.6006594581339094,0.6006318264404933
62,0.6006604467630386,0.6006264499823253
63,0.6006606866386202,0.6007007694244385
64,0.6006572899950875,0.6005934331814448
65,0.6006575056579377,0.6006449147462845
66,0.6006547385983997,0.6006081702311834
67,0.60065739622381,0.6006366460720698
68,0.6006599247985416,0.6006147209405899
69,0.6006613631116019,0.6006738214890163
70,0.6006605836550395,0.6005950414737066
71,0.6006553362475501,0.6007316656510036
72,0.6006604311068853,0.6006087335348129
73,0.6006605055862003,0.6006216533184051
74,0.6006562021838294,0.6006254660288493
75,0.6006578814453549,0.6006056853135426
76,0.600657621661822,0.6006679777701696
77,0.6006627932124667,0.6006111402511597
78,0.6006541992028555,0.6007332675457001
79,0.6006500278843774,0.6006206582784652
80,0.6006547586388058,0.6006293181975683
81,0.6006557606856028,0.6006044951279959
82,0.6006646020412445,0.6007325574159622
83,0.6006556726429197,0.6007087444464365
84,0.6006505157417721,0.6006575399637222
