epoch,loss,val_loss
0,0.6038089626762602,0.6017694520552953
1,0.6014289824565252,0.6011902347803116
2,0.6011848567061954,0.6009528836011887
3,0.6010549294418759,0.6009376603364944
4,0.6009962756103939,0.6008808315197627
5,0.600929428378741,0.6007826284964879
6,0.6009065627654393,0.6008100787798564
7,0.6008737290170457,0.6009726072152456
8,0.6008477282921473,0.6007719517548878
9,0.6008217410378986,0.6007561173041661
10,0.6008109145959218,0.6008223471244176
11,0.6007907275888655,0.6007522147496541
12,0.6007812455362744,0.6007748377720515
13,0.6007757557233174,0.6007436210711797
14,0.6007529307206472,0.6006646630366643
15,0.6007441310485204,0.600679261525472
16,0.6007379762993919,0.600661709745725
17,0.6007231786515977,0.6006860837141673
18,0.6007161298195521,0.600721692442894
19,0.6007095275322596,0.6008085237344106
20,0.6006993316279517,0.6009709349473318
21,0.6006818348964056,0.6006999098857244
22,0.6006776058806313,0.6006097306013107
23,0.6006681360536151,0.6006201402743657
24,0.6006668819189072,0.6006418846448263
25,0.6006592100858689,0.6006121683120728
26,0.600658515850703,0.6007723883390427
27,0.6006504294474919,0.600645555694898
28,0.6006496926546097,0.6006461389064789
29,0.6006509330007765,0.6006054304838181
30,0.6006424819628398,0.600634735862414
31,0.6006486874024073,0.6005859246253967
32,0.6006407611502541,0.6005909789800644
33,0.6006427004602221,0.6005907863378525
34,0.6006363717317581,0.6006412359078726
35,0.6006345918443468,0.6005860473314921
36,0.6006369064913856,0.6007910196383794
37,0.6006371930837632,0.6005753578742345
38,0.6006341462665133,0.6005649930636088
39,0.6006272424459458,0.6005762403806051
40,0.6006313800944222,0.6006256585915883
41,0.600628348853853,0.6005821024576823
42,0.600631383392546,0.6005867573817572
43,0.6006263580189811,0.6005975130399068
44,0.6006290553940667,0.6007154338359832
45,0.6006283730268478,0.6007178466320038
46,0.6006224329206679,0.600638809521993
47,0.6006258113516701,0.6005910733938217
48,0.6006248869366116,0.6007072873512904
49,0.6006206985976961,0.6005661807854971
50,0.6006244173447292,0.6006485718488693
51,0.6006282179488076,0.6005762648582459
52,0.6006190622250239,0.6005681659777959
53,0.6006199871699015,0.6006042311191558
54,0.6006206613116795,0.6005844388802847
55,0.600618412454923,0.6006107265551885
56,0.6006166257593367,0.6005686411857605
57,0.6006150052017636,0.6005535255670548
58,0.6006188622713089,0.6005502135753632
59,0.6006182711256874,0.6005891411701838
60,0.6006158380111059,0.6006833881934484
61,0.6006145734654532,0.6007740515867869
62,0.6006152000427246,0.600550532857577
63,0.6006120607852936,0.6005910505453745
64,0.6006084707710478,0.6005969917376837
65,0.6006133468018637,0.6005982637008032
66,0.600610465976927,0.6005788767337799
67,0.6006078696648279,0.6006105247735977
68,0.6006070811483595,0.6005727019707362
69,0.6006129876507653,0.6005661880175273
70,0.6006090576648713,0.6007890106042226
71,0.6006125060187446,0.6005569765170415
72,0.6006124651696947,0.6005534621079763
73,0.600608575436804,0.6005656925837198
74,0.6006070192787383,0.6005558844407399
75,0.6006105918354459,0.6006364657481511
76,0.6006095414559046,0.6005880356232325
77,0.6006098109748629,0.6005692432721456
78,0.6006120045714908,0.6005614858071009
