epoch,loss,val_loss
0,0.6044023834864298,0.6014554455677669
1,0.6014486985868878,0.6012871930599213
2,0.6011821839544508,0.6009781064987183
3,0.6010494873126347,0.6008609476486841
4,0.6009750208324857,0.600833305756251
5,0.6009359314176771,0.6009148629109065
6,0.6009020425346162,0.6008034734328588
7,0.6008793185551962,0.6008090536197026
8,0.6008547739982605,0.6007643986940384
9,0.600832553572125,0.6008991496960322
10,0.6008139882485072,0.6007248239119848
11,0.6008081883986791,0.6007228365739187
12,0.6007932716740503,0.6013979587157567
13,0.6007784301042557,0.6007006463209787
14,0.6007606414026684,0.6007428452571233
15,0.6007418206930161,0.6007357657750447
16,0.600736194173495,0.6006667221784592
17,0.600718040479554,0.6006333509286245
18,0.6007171651654774,0.6006876544157664
19,0.6007083050674862,0.6006360306342443
20,0.6007052425543468,0.6006682706276576
21,0.6006980333328247,0.6006527664661407
22,0.6006918947034412,0.6006937710046768
23,0.6006845223373837,0.6006801473299662
24,0.600685759862264,0.6007090126276016
25,0.6006748717096116,0.6006298764944077
26,0.6006750552919176,0.6006161988178889
27,0.6006718874110116,0.6006024132172266
28,0.6006671539147694,0.60062022960186
29,0.6006624770959218,0.6006096002658208
30,0.6006595573292838,0.6005966989994049
31,0.6006573854949739,0.6006171302398046
32,0.6006547573275036,0.6005908600091934
33,0.6006443807548947,0.6007521673838297
34,0.6006463309658898,0.6006384401321411
35,0.6006457662582397,0.6006203419367472
36,0.6006427725156148,0.6006140359242758
37,0.6006421339379416,0.6005943651994069
38,0.6006387586990992,0.6006289287010829
39,0.6006399706602097,0.6006100751956304
40,0.6006339304976993,0.6007117569446564
41,0.6006356637477874,0.6008836811383566
42,0.6006317496697108,0.6006221309105555
43,0.6006337887313631,0.6009481983184815
44,0.6006384323570464,0.600566733042399
45,0.6006288424995211,0.6006485345363617
46,0.6006241190168593,0.6006451701323191
47,0.6006297847165002,0.6005816768805186
48,0.6006259378724628,0.6006038191318512
49,0.6006219483349058,0.6007230444749196
50,0.6006245208316379,0.6006618905067443
51,0.6006212833192613,0.6006324212551117
52,0.6006228650808334,0.6006274766127269
53,0.6006215180158615,0.6005700896978379
54,0.6006204088131587,0.6008085570732753
55,0.6006212279266782,0.600551013191541
56,0.6006157728433609,0.6006863727966945
57,0.600616287721528,0.6006731427113216
58,0.6006163995133506,0.6007294840812684
59,0.6006214809417725,0.6007163871526718
60,0.6006109093692568,0.6005630507866542
61,0.6006143591139051,0.6005787177880605
62,0.6006142338779238,0.6005968238115311
63,0.6006109453572167,0.6005486167669296
64,0.6006120091544257,0.6005898049672445
65,0.6006124207576116,0.6006671098868052
66,0.6006100995805529,0.6005692015886307
67,0.6006063177982967,0.6005602360566457
68,0.6006108427842458,0.600613545735677
69,0.600608655002382,0.6007089844942093
70,0.600605699022611,0.600576463898023
71,0.6006099254952537,0.6005686020453771
72,0.6006039324469037,0.6005666376749674
73,0.6006091504891713,0.6005531950791677
74,0.6006036279598872,0.6005447569290797
75,0.6006097023354636,0.6005519847075145
76,0.6006029456721412,0.6005879431168238
77,0.6006013879643546,0.6008292772372563
78,0.6006038573053148,0.6005721939007441
79,0.6005987844334708,0.6006586675643921
80,0.6005994557407167,0.6005892635583877
81,0.6006137097411686,0.6005882509152094
82,0.6006052528752222,0.6005928771098454
83,0.6006021636856926,0.6005582491954168
84,0.6006042674382528,0.6006849690278371
85,0.6006015175713433,0.6006466292540232
86,0.6006014522181616,0.6005782573223114
87,0.6006045729716619,0.600557123541832
88,0.6006024946636623,0.6005731416145961
89,0.6006027555465698,0.6005490493377049
90,0.6005936725404527,0.6006884092887242
91,0.6005989134841495,0.6007791379292806
92,0.6005968473619885,0.6007499651908874
93,0.600596567498313,0.600577237645785
94,0.6005964443418714,0.600569365700086
