epoch,loss,val_loss
0,0.6032245368825064,0.6013075176080068
1,0.6013897972106934,0.6010995766321818
2,0.6011794544061025,0.6009742781718572
3,0.6010544759962294,0.6008293267091115
4,0.5831076355112923,0.5509315487146378
5,0.5510620505015056,0.5509141318400701
6,0.5510186831553777,0.5509948141972224
7,0.5509966818226708,0.5515734178622563
8,0.5509658501678043,0.5509481781721115
9,0.5509481675624848,0.5509383443196615
10,0.5509188010427687,0.5510932768583298
11,0.5509046625958549,0.550798713962237
12,0.5508942358493805,0.5508329140742619
13,0.5508789228465822,0.5514074006477991
14,0.5508802839517594,0.5508228534857432
15,0.5103515255716112,0.500832337975502
16,0.5009363500542111,0.5010339684883753
17,0.5009336807330449,0.5008160138130188
18,0.500910869134797,0.5008952272335688
19,0.5009075868924459,0.5009890947739283
20,0.5009060456487867,0.5008957855701447
21,0.5008898293309741,0.5009285963773727
22,0.5008873304790921,0.5008197268644968
23,0.5008953018188477,0.5008491264979045
24,0.5008749381966061,0.5008898634513219
25,0.5008787160979377,0.5008846491177876
26,0.5008802278174295,0.5008041417996089
27,0.5008661994404263,0.5007535065412522
28,0.5008597174485524,0.5007772878408432
29,0.500855699857076,0.500839714884758
30,0.5008537825743358,0.5007868370612463
31,0.5008535857200622,0.5008603270053864
32,0.5008563602103128,0.5009960206349691
33,0.5008424424462848,0.5007783198356628
34,0.5008408926063114,0.5010127476453781
35,0.5008437019189199,0.5007342938184738
36,0.5008348003890779,0.5008371920188268
37,0.50083539794551,0.5007747358481089
38,0.5008280440701379,0.500778690814972
39,0.5008312052223417,0.5007699360450109
40,0.5008293734656439,0.5008272531827291
41,0.5008213010231654,0.5009047338962554
42,0.5008214232789145,0.5007684483528138
43,0.5008202624056074,0.5010307288567225
44,0.5008140945302115,0.500736553867658
45,0.5008175292544895,0.5008419842720032
46,0.5008121061192619,0.5008140768607457
47,0.5008238013188044,0.5008553881247838
48,0.5008131812943353,0.500775119026502
49,0.5008108342885971,0.50078526866436
50,0.5008107029067146,0.5007386385202408
51,0.5008154916365941,0.5007937511603038
52,0.5008135880364312,0.500791939496994
53,0.5008075033823649,0.5007275210618973
54,0.5008123158746296,0.5007632084290187
55,0.5008063688278198,0.5007830496629079
56,0.5008057468069924,0.500764110604922
57,0.5007986235751046,0.5007348268429438
58,0.5008099818759494,0.5007314709027608
59,0.5008041294680702,0.5007307737668355
60,0.5007954584360123,0.5007577874660492
61,0.5007981832822164,0.5007240447600683
62,0.5007971914874183,0.5009791215658188
63,0.5007952031294505,0.500728055636088
64,0.5007974197864532,0.50077374625206
65,0.5007973024315304,0.5009507214625677
66,0.5007949384583367,0.5007233528296152
67,0.5007892134454516,0.5007926593224208
68,0.5007956631448534,0.500732655564944
69,0.5007915298276477,0.5009253302812576
70,0.5007873294883304,0.500733060558637
71,0.500792384174135,0.5008113531271616
72,0.5007845893568463,0.500728974699974
73,0.500786898692449,0.50107583741347
74,0.5007857601510154,0.5007096660137177
75,0.5007799207237031,0.5009176230827967
76,0.5007873530520334,0.5008127884070078
77,0.5007797256045872,0.5007760732173919
78,0.5007883448865679,0.5008412049214045
79,0.5007769345707364,0.5007426908413569
80,0.5007835037310918,0.5007473053534826
81,0.5007832140657636,0.5008891599973043
82,0.5007773327959908,0.5007711420059204
83,0.500778051575025,0.50088995718956
84,0.5007772656546698,0.5008238370021184
85,0.5007775010002984,0.5007401684919993
86,0.5007776065799925,0.5006965147256851
87,0.5007766924964057,0.500705249428749
88,0.500779567360878,0.5007132564385732
89,0.50077762415674,0.5007011957168579
90,0.5007757158544328,0.5007158075968424
91,0.5007784038782119,0.50076287372907
92,0.5007814131975173,0.5007333476940791
93,0.5007718638711506,0.5008170020580291
94,0.5007748931911257,0.5007816060781479
95,0.5007729066477882,0.5009566827615102
96,0.5007694858047698,0.5007160592476527
97,0.5007752401034037,0.500811130285263
98,0.5007715925375621,0.5007014285326004
99,0.5007761964797973,0.5006985845168431
100,0.5007744329240587,0.5006990191539129
101,0.5007719013161129,0.500722200592359
102,0.5007706974744797,0.5008239971001943
103,0.5007693240112728,0.500716026822726
104,0.5007696736388736,0.5013165721098582
105,0.5007738706535764,0.5007563297748565
106,0.5007721965975231,0.5007345136404038
