epoch,loss,val_loss
0,0.48266072014433375,0.4284558803378531
1,0.42830121861914217,0.42747564887885675
2,0.42797669939089805,0.42663304846934597
3,0.42774850267992703,0.42798380212864184
4,0.427752429189493,0.4280319458843492
5,0.42753870831099533,0.4290088179719119
6,0.4273147844386499,0.4264315333459571
7,0.4271267483236466,0.42613242825196174
8,0.4267664642826455,0.426322132597413
9,0.4271421597915349,0.4261846662859361
10,0.4268804077549288,0.4281860097323685
11,0.4265097532960369,0.4259867553226063
12,0.42679868607464677,0.4264730158216933
13,0.426253479758539,0.425948626891532
14,0.4266705311082923,0.4258853542316753
15,0.42622201713591834,0.42587980365815
16,0.4263290715676498,0.4261668364766307
17,0.42630609786142826,0.42596599962517473
18,0.42621632181302355,0.4258748207032228
19,0.4263699543958933,0.4258081209198107
20,0.426057382628243,0.4265528848864984
21,0.42617560096228363,0.425994425675321
22,0.4259128516661662,0.4261933571763735
23,0.42611667433437295,0.4258013631617897
24,0.42618424055829734,0.4259661229854823
25,0.4258733116297533,0.4258021880110274
26,0.42593525866549053,0.4268217502280195
27,0.42619240997812324,0.42768594207510197
28,0.42592695789758456,0.4258749838735598
29,0.4258646291716831,0.4259408105631894
30,0.4257978364317856,0.4261170005738724
31,0.4257553455818065,0.42555657716388284
32,0.42582604129614793,0.4255882070878851
33,0.42593960753394106,0.42565255680996567
34,0.42587847703565207,0.4256799646959766
35,0.42579905912926397,0.4256005102416987
36,0.42564229762455175,0.4254833804355504
37,0.42572251238264447,0.4255118436792599
38,0.4259652295812711,0.4260710170697804
39,0.42577116356209393,0.4259570542585631
40,0.4256924693011378,0.4254230371579613
41,0.4257815073453033,0.42665912746102486
42,0.42565298961458875,0.42555966531155087
43,0.42566423450472973,0.42548385838222275
44,0.42561488323245084,0.4254887513947456
45,0.4256836191779785,0.4255028685103259
46,0.4254896299559259,0.42587803829972626
47,0.4257039719128717,0.4255750593509381
48,0.4259031533438687,0.42554636468245244
49,0.42553580502267274,0.4255653427008855
50,0.42554282807845295,0.42567804906738754
51,0.42572770468267124,0.4260895717230124
52,0.42564038591684744,0.42547307471077317
53,0.42556205440185085,0.4253817218931809
54,0.4258294265843886,0.42593101337124273
55,0.42548625462233985,0.42548245245117816
56,0.42546256816836514,0.42536468757238843
57,0.42562729869613686,0.4256622741389747
58,0.42545911644890505,0.42569958357198034
59,0.42562085029809726,0.425340438666311
60,0.42554707510765827,0.4252940502944402
61,0.42551060661305995,0.4270389598428066
62,0.4255426686484945,0.42535365851063667
63,0.4254312244505063,0.42580723637208867
64,0.4256685689416911,0.4253851756781952
65,0.42552099939672283,0.42561505845595915
66,0.4254122954207536,0.42570861996843057
67,0.42556987911185856,0.425655713935189
68,0.425359901294834,0.42595775716060574
69,0.4254246935695966,0.42601763781496144
70,0.4254301601231192,0.4253384129253443
71,0.4254746566740871,0.42524958222105363
72,0.4254209959131251,0.42536377313954454
73,0.4255015485443411,0.4253526960319668
74,0.42549324591338744,0.4255670826564036
75,0.4255212126756588,0.4254087438559528
76,0.4254528427844954,0.4261109623882059
77,0.42539381837832335,0.42563390709179644
78,0.4253262827166608,0.42671372256669365
79,0.4254653943785438,0.42685448528881714
80,0.4254416864705403,0.42550958468088684
81,0.42541390673065327,0.42610624950337045
82,0.42528007395497197,0.425310758175199
83,0.4255965149570431,0.42595009869790823
84,0.42533837081389225,0.4253006518759271
85,0.4253561940636775,0.42642524653528546
86,0.42535950072302675,0.4253070675779171
87,0.4254231055169719,0.42621449091452585
88,0.42539053312332165,0.42755715059094745
89,0.42529175910121536,0.4261132881616658
90,0.42529900395534953,0.4252265997397986
91,0.42541221712399063,0.425329202782293
92,0.425419131981323,0.4252502355095987
93,0.42535260705291644,0.42524628375697787
94,0.4253991600358909,0.42537848410462425
95,0.4253200418593704,0.42621633637324596
96,0.4253719717533742,0.4255457022859556
97,0.4254225201989186,0.42692670614151057
98,0.4254828429984254,0.42528969009157946
99,0.4252973024509425,0.4259719434635002
100,0.42524478789118203,0.42530602031801557
101,0.4253912327174983,0.42529579105587395
102,0.42527495838674817,0.42538201042757495
103,0.42523258338245257,0.4252578382040311
104,0.42536341309183096,0.4259942839666304
105,0.4253290287237877,0.4254452924658621
106,0.42527847423368875,0.42533880935860774
107,0.4251710746036066,0.4263133913758817
108,0.4252380537356723,0.4254020952995143
109,0.4253503810716125,0.4258392921342389
110,0.4253234956985647,0.42635683335293484
