epoch,loss,val_loss
0,0.5929898654483885,0.5145515902414656
1,0.5134010431802796,0.5119523432524608
2,0.5128694422761785,0.5117722174970722
3,0.5121204454908476,0.5117786181461018
4,0.5120621612748908,0.5114361699874103
5,0.5119650528367126,0.5143068117175992
6,0.5066519231620797,0.49996784033543934
7,0.4999667036619102,0.49915834545404697
8,0.49953920304824917,0.4993951659353602
9,0.49936525227736994,0.49946424983832366
10,0.49931375206655804,0.4995455075897846
11,0.49925416714340715,0.499923623707763
12,0.4993269151091682,0.49898982633151573
13,0.4989030043123401,0.498504101479356
14,0.4990231606317973,0.49895660198050573
15,0.4989917623381423,0.4988100356052354
16,0.49895936612623903,0.4997773579059431
17,0.49882208519250876,0.5007844305928272
18,0.49893541156084564,0.5001637477425651
19,0.4989953041987483,0.4997670919304756
20,0.4988717105278386,0.4992593260446419
21,0.4987595234936475,0.4993640313514583
22,0.49871993083188837,0.49855443644267494
23,0.498516541420245,0.4983115749936299
24,0.49886671626655793,0.4994228200175891
25,0.4986385231298784,0.49848987022733926
26,0.49860983428345507,0.49870764118451766
27,0.4985161642933975,0.49899722472078867
28,0.49865948718913017,0.4983418269065999
29,0.49443994810948994,0.4864682092956314
30,0.47937721500991287,0.4638667134062673
31,0.4619310279989627,0.4620635431990577
32,0.4617809847894744,0.46167893168175084
33,0.4618553792597155,0.46188388146897513
34,0.4617200673355154,0.4614380342824787
35,0.4615155238003478,0.4619981768032338
36,0.4618033680420713,0.4615214509221222
37,0.4615637878596542,0.4617959248575817
38,0.461786090068155,0.46145751651160516
39,0.46162225497997,0.46172911681098217
40,0.46160835212987444,0.46148357125957223
41,0.46158733151033576,0.46158390744325517
42,0.46190069825192265,0.46230888093460665
43,0.46153967971289195,0.4614683833690148
44,0.46144874769999594,0.4614531735144935
45,0.46173719420752624,0.46150644606275676
46,0.4615457228709249,0.4627141652559435
47,0.46149701719940145,0.46137838748168625
48,0.46153394345631,0.46188131072473076
49,0.46145845145595243,0.46228325267062403
50,0.4613066057979948,0.4613375984302029
51,0.4614350712998933,0.46197515297739744
52,0.4615231264111539,0.46294359792424783
53,0.46158686846801045,0.4613457843150711
54,0.46137312734071473,0.46142427619131965
55,0.4613155169831162,0.461463484483243
56,0.46146530793227125,0.4613679888061206
57,0.46136935635468734,0.46154915889030607
58,0.46132511655376746,0.4616125756214009
59,0.46125601693489654,0.4614594161709186
60,0.4613511081147502,0.46146099847607047
61,0.46139802131361957,0.46143792832111913
62,0.46129250193103694,0.46135944155636355
63,0.4612729524144113,0.4616654858167005
64,0.4612631476499908,0.4615334401220762
65,0.4613866360922887,0.46137194594623293
66,0.46124123723612986,0.46186813375401836
67,0.4612461733712436,0.46419172523573254
68,0.46126123453649054,0.46146710716280415
69,0.46123182985471506,0.4612947976529587
70,0.4612202346545726,0.46158262127901717
71,0.4611845312552266,0.4615198605246932
72,0.46123332485523943,0.46359688602215404
73,0.46119037849332767,0.46220481624800225
74,0.4612610220101338,0.46142706632680375
75,0.46110199842055405,0.461343690579104
76,0.4611608514410618,0.4613608078595377
77,0.46126420565773624,0.46142172501537176
78,0.46110597219172905,0.4614898230846689
79,0.46117446422153696,0.4621319630771329
80,0.46118641048058,0.461612676388468
81,0.4611155642375078,0.46283132982134795
82,0.46118770932748643,0.4614174116881032
83,0.46118258200044177,0.46179925433285346
84,0.4611836880242155,0.4613620979981547
85,0.46105475295058473,0.46140836628306064
86,0.46108975266624946,0.461329229447903
87,0.46106356184104924,0.4613978042549989
88,0.4612488830650415,0.46273758083410804
89,0.4611866515736675,0.46133156106701206
