epoch,loss,val_loss
0,0.5529600169988177,0.4637708023182218
1,0.4644242465170375,0.4646066218410339
2,0.4646788088512403,0.4642679101064219
3,0.4640339181377775,0.4649437949003434
4,0.46419063482170314,0.46297036867866825
5,0.46377759864234386,0.4651898926033932
6,0.4638934722586832,0.4628018321461491
7,0.4632738208876003,0.4627682455084151
8,0.4635255673793696,0.4655261196445858
9,0.46327950566242526,0.46286349470228105
10,0.45959688845956453,0.452286739546097
11,0.45110544090275706,0.45041021610834264
12,0.4514289334270566,0.4503858716791704
13,0.45083167831586324,0.4504279802410354
14,0.4507348849802259,0.45040721322214367
15,0.4505051892316673,0.4512078198465424
16,0.45077692664435415,0.4502032586801359
17,0.4506915745769614,0.45112822756411347
18,0.4505956010016147,0.4501538109196449
19,0.4428205663536741,0.43859462797432
20,0.43837675665493814,0.43825146484140953
21,0.4381486649388931,0.43814171705782073
22,0.4379904222662104,0.43770141718254685
23,0.43815556986549137,0.4376033688832442
24,0.43796552465093236,0.4377332741374284
25,0.43804537638797847,0.43862024960329765
26,0.43777383092072186,0.43793548833752016
27,0.4379599027827166,0.4377891776583375
28,0.4378988453876577,0.437923975279208
29,0.43780040280771026,0.4387027532784094
30,0.4378879420084131,0.43790638825477857
31,0.4378703339797336,0.4375672548440766
32,0.43781283256396186,0.4375646704103046
33,0.43792071432593765,0.43760775127086754
34,0.4378732283829767,0.4375426369445106
35,0.4378111971043644,0.43759401303504347
36,0.4377967129971994,0.4383273885126003
37,0.4376745060124431,0.4378613851361417
38,0.4377226261506278,0.43788234380289986
39,0.4377486438605195,0.43831506385850033
40,0.4377849879237746,0.4375473201098233
41,0.4376007904662099,0.4383674019529855
42,0.43760602902962015,0.43754084660821896
43,0.43763819191527453,0.4374252669975523
44,0.43768413093066283,0.43893051354459844
45,0.43771271286851127,0.43750893212972164
46,0.4377254555818088,0.4374573896562287
47,0.4376979373908126,0.43753952105346927
48,0.4375368009662634,0.43750289342517784
49,0.4376094846895411,0.4388595169662303
50,0.437556055969555,0.4384614177700943
51,0.43781480782781207,0.4374235367461429
52,0.437665739901233,0.4384369259853013
53,0.437479272158631,0.43757055198887934
54,0.4374451873152901,0.4376635661796853
55,0.4377034101802547,0.43840743366999413
56,0.4375394202548687,0.43781497939844266
57,0.43747274547026865,0.43890749049707795
58,0.43771607034720056,0.4373540065645796
59,0.4374173174572577,0.43743830524035837
60,0.43749008274338186,0.4373552772176997
61,0.4374206062175491,0.43762501891530603
62,0.4373957227779937,0.4383492848788793
63,0.43749137828740375,0.437350745503826
64,0.43767370671623596,0.43745977905287214
65,0.4375118948950491,0.4384454223574875
66,0.4375114436869865,0.4376847566576175
67,0.43776037124320333,0.43749043028053036
68,0.4373620559344658,0.4374385772479598
69,0.43749302986121347,0.4389859541717956
70,0.4373699895540996,0.43749687170558427
71,0.43750370070174943,0.43740096115849597
72,0.437307391410346,0.4387072657883046
73,0.4375130283631249,0.4379176007175605
74,0.4373778526530093,0.4377244268827779
75,0.43746516894856996,0.43770686888787497
76,0.43752254822753717,0.43792333531035255
77,0.4374292727987731,0.4374661752638452
78,0.43754219217721857,0.4374706566135052
79,0.4373205739344546,0.4375231403193003
80,0.43729406809503585,0.43766095249006803
81,0.4374055881912856,0.4373989686256737
82,0.43739289773624496,0.4374393891142262
83,0.4373937792006741,0.4374906914524291
