epoch,loss,val_loss
0,0.17368074289805605,0.14951651265034302
1,0.14661548317157702,0.14594591954755085
2,0.14484217889529843,0.14490532727677816
3,0.1444751553875527,0.146358089008515
4,0.14428277385815547,0.14364596470503216
5,0.14414885687582696,0.1436925205334974
6,0.14411470675092525,0.14397934819122313
7,0.14391094566382398,0.14394769807516766
8,0.14392299542705056,0.1455083884013143
9,0.14395788000176243,0.1444981870556964
10,0.14379788291609982,0.14343418727419646
11,0.14384784151285854,0.14361333802058138
12,0.14370286726378337,0.14319042027946047
13,0.1437165509617085,0.14441758395345328
14,0.143750097906815,0.14330114614115663
15,0.14357289837949355,0.1433968720010617
16,0.14374589638829421,0.14412414259790468
17,0.14343023492339332,0.1431703198384435
18,0.1435542021891454,0.14460819932868643
19,0.14349631367954702,0.14298699863543443
20,0.14342585209826866,0.14330263916630065
21,0.14335571888868134,0.14375783867649644
22,0.14342816517207935,0.14411149251116584
23,0.14332542617142827,0.14349595253214525
24,0.14327435806106922,0.1432057117384702
25,0.14342629333251586,0.14322873863893032
26,0.14325309917391119,0.1428197526500101
27,0.14324442908622903,0.14335597321807864
28,0.14325195337601268,0.14292308832786993
29,0.1431659920054116,0.14267569271684422
30,0.14316955578900994,0.14313567313723574
31,0.14323247062888353,0.14343373839845036
32,0.1430974542926962,0.14258962808372488
33,0.14316565749123086,0.14303376718425467
34,0.14300964707253594,0.1431041908117329
35,0.14308340355409926,0.14344221924571865
36,0.1431127908975538,0.14316812877711113
37,0.14301337189742108,0.14484283156937242
38,0.14310701798187664,0.1425864428839301
39,0.14292215228443697,0.14276452526756517
40,0.14314202808018087,0.14293891287254037
41,0.14291896768124232,0.1429123133255345
42,0.1429742528426446,0.14307890767564507
43,0.14290090247473608,0.1426001332064076
44,0.143046415618263,0.1429621857566996
45,0.14296701435424147,0.1426086363212381
46,0.1429400278186299,0.14335980287722513
47,0.14288754662547262,0.14288452567105206
48,0.14296738112615348,0.14294522451756067
49,0.1429124952883397,0.14233321465095075
50,0.14287890953003984,0.1424381179480801
51,0.14293771148313097,0.1428237521089786
52,0.14291814296263958,0.14275871490489378
53,0.1428793728857372,0.1435616282119334
54,0.14285051987368297,0.1426310949296637
55,0.14289410573670935,0.1427922571427426
56,0.14283802411477914,0.14250849040266894
57,0.1428382021075988,0.1428224527271705
58,0.14295220686360097,0.1423541968300246
59,0.1427425077284526,0.14311874386976772
60,0.14289325984128332,0.14304311042208212
61,0.1428906860621854,0.14252112321189916
62,0.14279246076992205,0.14313993738920386
63,0.14282673275445065,0.14286741391886912
64,0.14281737051850898,0.14274183508808425
65,0.14283724184400967,0.14294109071354266
66,0.14278439183546887,0.1424691363779963
67,0.1428676436811921,0.14280058641989246
68,0.1428071387714694,0.14312365875793487
69,0.14280728352225522,0.1427620701805091
70,0.14274115691340167,0.14261528013602168
71,0.14282880761289085,0.14276574269712666
72,0.14286181515673152,0.1424407188258451
73,0.14279930894077755,0.1425324538075763
74,0.1428233655819296,0.1429351724575219
75,0.14269757715732936,0.1430127741639582
76,0.1427367306081853,0.14251190769239627
77,0.14276495397226155,0.14266810747103947
78,0.142781853100717,0.14274280927737215
79,0.14273483785020813,0.14246703841373157
80,0.14283563232850235,0.1427009846158857
81,0.14288031785140803,0.1429656116548214
82,0.14270987282266373,0.1427804587433395
83,0.14275291198547388,0.142385518322898
84,0.14285571046001241,0.14267434426249564
85,0.14277127679602225,0.14265557710418747
86,0.14271651164239937,0.1425277231898346
87,0.14269197496967706,0.14257566594408494
88,0.14272868270634287,0.14259073895300994
89,0.1427335953581223,0.14478530540612478
90,0.14290182481973282,0.14223025675989298
91,0.14261760657655756,0.14225356452198773
92,0.142685094467259,0.1435811201700084
93,0.14269431276593939,0.14309310965801658
94,0.1428027857283118,0.14254833445999
95,0.14265533170534803,0.14437655853681994
96,0.1428177480608234,0.14236149954164354
97,0.14270311171376848,0.1425546056022245
98,0.1426750230411334,0.1424099529401133
99,0.1426775731031276,0.14360027712657508
100,0.14278420266858963,0.14267866916790298
101,0.14264238490194675,0.14253533237851268
102,0.1426695482846125,0.14394876580588087
103,0.14270544370875218,0.14286656695662836
104,0.14275221231711505,0.14284858871254794
105,0.14268543639803724,0.14241726650123487
106,0.14262397078139252,0.14245790456219676
107,0.14270692253971998,0.14292903926211786
108,0.14267870601228586,0.1436193208713005
109,0.14271187571868338,0.14263937099705495
110,0.14267239492804987,0.14251811349749632
111,0.14264460624413874,0.14253210699609042
112,0.1426637625143507,0.14239048067177418
113,0.14264521261662094,0.14246691968467948
114,0.14264009156628368,0.14349839005465417
115,0.1427137498828984,0.14366241193552948
116,0.14264563644116715,0.14234129734548467
117,0.1426544635542644,0.14231969097915192
118,0.1426857493762433,0.1422945099321642
119,0.14262334603767712,0.14218855972289157
120,0.14262244515930886,0.14313004863750142
121,0.1427421570569432,0.14272445839938244
122,0.1426079004426125,0.14281898998324352
123,0.14266898412259935,0.14218467504895602
124,0.1425884611759201,0.14260389963704848
125,0.14263368752427708,0.14239930863964667
126,0.14274719564356236,0.14273919959734227
127,0.1425625617937144,0.1426424948451342
128,0.14256671144711366,0.14240594138688878
129,0.14272781051834213,0.14237778031466117
130,0.14267870956550432,0.14403222541849708
131,0.14261898607438586,0.14251543478538292
132,0.14252113608569192,0.1427407704099149
133,0.1426882686957733,0.14260094810313795
134,0.14262020361114092,0.14281202829818104
135,0.14266467837116154,0.14271089550543106
136,0.14260949973041215,0.14230525659496948
137,0.14262976839192085,0.14220218527679157
138,0.1426204072886344,0.14255978309196285
139,0.1427085666379551,0.14461927234872576
140,0.14257425928943307,0.1430398798094875
141,0.14261382788551516,0.14288267846802116
142,0.14268493637335983,0.1425193845563342
143,0.1425576368014095,0.14251853498314726
144,0.14270827441221476,0.14243907217439358
145,0.14259347267162029,0.14264378073337367
146,0.14259246200228573,0.14294764684634995
147,0.14261151393987392,0.14288096714459164
148,0.14255371809617087,0.14246996809959764
149,0.14257005148559002,0.14290429682097053
150,0.14268555886798004,0.1428272909926229
151,0.14260116428732306,0.1426196180520002
152,0.14259974221297417,0.1423720225600716
153,0.14256890224625504,0.1423875760520955
154,0.1425770456320032,0.14290929968643243
155,0.14266790086327805,0.14285676618222065
156,0.14258342369228566,0.1428611724878775
157,0.14261037407228636,0.14265296475316314
158,0.1426383589129016,0.14250622781631483
159,0.14256417536166413,0.14239295703003774
160,0.14264001060127232,0.14260183589660275
161,0.1426388640008895,0.14271494587233033
162,0.14254001938323252,0.14237190582096898
163,0.1425935988024235,0.14230096243303955
164,0.14254502216407705,0.14260036529358017
165,0.14259098126343386,0.1425153240796084
166,0.14262427094572463,0.14269378660431303
167,0.14253854636147853,0.14235879229404105
168,0.14259982523387726,0.14287818768197108
169,0.14257834902388697,0.14220821615401671
170,0.1426444525131875,0.14248847057530561
171,0.14260357523593217,0.14317462225272978
172,0.142495464915058,0.1427409918490638
173,0.14261543527647455,0.14273639815971795
174,0.14255463565006704,0.14301840311830893
175,0.1426208029630927,0.14237589855109306
176,0.1425688671508481,0.14236044574333664
177,0.14253485223075668,0.142676665984297
178,0.1425754526440161,0.1425592074307673
179,0.14257022206146716,0.14241266041955455
180,0.14257977615326614,0.14294769347078337
181,0.14261160211516907,0.14252913886362767
182,0.14252487014949713,0.14216289415218628
183,0.14254695935470796,0.14229008691479572
184,0.1425611154409368,0.1435997692809809
185,0.1425845317913607,0.14300823566052048
186,0.14254966022372617,0.14282920255299342
187,0.14253897549980962,0.14284086605810992
188,0.14257080018484475,0.14391441403947333
189,0.14257020183548086,0.14365690267346573
190,0.1425653605951471,0.14239719346411295
191,0.14260212910085346,0.14276081158300533
192,0.14254310658152713,0.14217451562548505
193,0.14260443015016433,0.14331533454715994
194,0.1425322738447915,0.1426242135298166
195,0.1425031925218037,0.14271428171496278
196,0.1426057654354528,0.14263051966314605
197,0.14252522992019906,0.14239446411454737
198,0.1425705289882651,0.14228168843377187
199,0.1425600880153429,0.14240856301698404
200,0.14255771480488796,0.14250867812031617
201,0.1425199271527006,0.14323773891269156
202,0.1426489440473391,0.14221179451373225
203,0.1425369554314532,0.14224365617438894
204,0.14250730220968902,0.1429312448326935
205,0.14249716892464837,0.14213088177976663
206,0.1426088368348802,0.14296569854744187
207,0.1425606820938755,0.1427070115849715
208,0.14259085186714734,0.14240051573582282
209,0.14249800428876128,0.1422553643250293
210,0.14251108338270577,0.14352856565954775
211,0.14258059176301618,0.142645681361442
212,0.14263391770445402,0.143349724037048
213,0.1425368842107959,0.1424736683043888
214,0.14250866487052655,0.1427067518593051
215,0.14259425075988003,0.14227649862345865
216,0.14246337316661706,0.14240093220106032
217,0.1425662164119154,0.1431601015748437
218,0.14254386884159412,0.14296919319956009
219,0.14253350428719208,0.1423315646047172
220,0.14246178215862035,0.14242868235838108
221,0.14266877799314706,0.14239760030528134
222,0.14250482282703741,0.14230889855854864
223,0.1425491822960035,0.1424850085958946
224,0.14249422222562863,0.1421259650506892
225,0.14259185833361682,0.142609859726168
226,0.14251997716651904,0.14254656198632387
227,0.14254075682252113,0.14255762147415477
228,0.1425283496556799,0.14285707978004217
229,0.14251219027874434,0.14262228085003775
230,0.14248448458606577,0.14253604169200143
231,0.14249885009897081,0.14352062563969925
232,0.14260215841154206,0.14234596632999233
233,0.14244482754075363,0.1424342045261366
234,0.14258437452271627,0.14213973558386248
235,0.14251580856848634,0.14245848543424477
236,0.14249963368283372,0.14534890982073134
237,0.14250193421463533,0.14217809156469338
238,0.1425806996467884,0.14385990140768837
239,0.14257115464659184,0.14236994698204847
240,0.1425025112957493,0.14318061638902924
241,0.14256421926749346,0.14225843953664577
242,0.14253614165748096,0.14265332446482076
243,0.14247974612617306,0.14232034787775785
244,0.14247702436185655,0.14411855432849877
245,0.14261698404467668,0.14271613351060938
246,0.1425125515357328,0.1433852598896334
247,0.14245350180335536,0.14244954222870174
248,0.14250494421159082,0.14222562246288187
249,0.14250368091459834,0.14245811280861545
250,0.1426390556107574,0.1422399210668224
251,0.14253248418021391,0.14229722042274953
252,0.14250942906090303,0.14248250569485144
253,0.14262632866977876,0.14249503963036456
254,0.14241633076412316,0.14231780799291027
255,0.1425364298266388,0.14242247413553383
256,0.1424751736956663,0.14596574443162513
257,0.14248168272235837,0.14289203306318854
258,0.1425439118662777,0.14294464822708844
259,0.1424794015850782,0.14245346284868718
260,0.1425438445341849,0.14268214073550328
261,0.14259539872372723,0.14222205835849097
262,0.14239688549846358,0.14236693653900948
263,0.14261153638528487,0.14221635460577578
264,0.14249298589431786,0.14245853909940095
265,0.14246942778879665,0.1422586860061023
266,0.14251656595258122,0.14227740651513718
267,0.14250428639558463,0.1427947063786296
268,0.14262419544595592,0.14239509394321648
269,0.14255700417878836,0.14397303966774633
270,0.14246589813527802,0.1426393126344036
271,0.14249271100927732,0.14230847907940708
272,0.14249005145095206,0.14242577640838944
273,0.1424894209280384,0.14285447538329574
274,0.1425152774742789,0.14254657274750698
275,0.14249372138156158,0.1428806235678087
276,0.14251041760568237,0.14208441936852734
277,0.14245708325920436,0.1424192616781232
278,0.1426375913452598,0.14242655959840747
279,0.1424543039682152,0.14279609040367006
280,0.14245050484625282,0.14304700041726953
281,0.1425263644529563,0.14335164094075029
282,0.14257422583487545,0.14236432994807466
283,0.14244952836012892,0.14252235374587138
284,0.1424960077901909,0.14227770271401072
285,0.14243110824371255,0.14276420208431434
286,0.1425747099858193,0.14248286394923676
287,0.1425519241897046,0.14260870110361548
288,0.14244311175161783,0.14234261889549554
289,0.1424560411863738,0.1432687400126594
290,0.14245314458673405,0.142595005109368
291,0.14264933943337227,0.1430440243526087
292,0.14247703592715316,0.14286912853220124
293,0.14242628220366033,0.14221468476768687
294,0.14251954312496035,0.1423075318110168
295,0.1424958237659735,0.14256891636114072
296,0.14252773932908205,0.14300477808328618
297,0.14247459551708777,0.14250114568959213
298,0.1424708587746547,0.1431555894679064
299,0.14254035394053904,0.14353125822954785
300,0.1425368033044356,0.14223820067408086
301,0.14241390674461055,0.14214839500494633
302,0.14258599772634312,0.14239917658538503
303,0.14247979786605736,0.1428288704853496
304,0.14246389924270988,0.14248787102919638
305,0.1425413498191144,0.1431411536623315
306,0.1425143835905656,0.1425565448866484
307,0.14266742499110208,0.1423389187127843
308,0.14242808833611004,0.1420915183739036
309,0.1424948966592017,0.14247268179176603
310,0.14253186481790464,0.14400517454211811
311,0.14254376018328305,0.1437616516266913
312,0.14246370079757986,0.14249689078845454
313,0.1424564525506774,0.1423711871732096
314,0.14256301487547324,0.14221001993971724
315,0.14266907147643482,0.14228343874751517
316,0.14243555006109604,0.14218024855676592
317,0.14250915457192956,0.14240721649738522
318,0.14245622028493823,0.14222348338587457
319,0.14246926657811176,0.14274438493371916
320,0.14249462281849481,0.14240001585554649
321,0.14252947646098912,0.14271791803437175
322,0.1424421068852869,0.14237988666100157
323,0.14253066964686414,0.14238990437578197
324,0.14256716087146218,0.14220185292486925
325,0.1424612160117867,0.14212754396933894
326,0.14243045974770285,0.1429911990572201
327,0.14259815599228298,0.14264844890092562
328,0.14250332651978243,0.14273168246245732
329,0.14246771509712616,0.142173616907998
330,0.1424517812075937,0.14227295065946238
331,0.14246236335531284,0.14247339721310248
332,0.14254735487253348,0.14208369775930363
333,0.14244912100548693,0.14294536291150875
334,0.1425054502497257,0.1430075401993985
335,0.142472728924723,0.14259423395564633
336,0.14257195131239844,0.14223988796355747
337,0.14257170795057103,0.1434671164116477
338,0.14248793444138386,0.1424197466434384
339,0.14250030965340924,0.14251164699245503
340,0.1425073965988902,0.14443270706163333
341,0.14247550715550825,0.14229220755234054
342,0.14245555673354957,0.1441151974134521
343,0.1424668160869663,0.14374842035602609
344,0.14249727187931754,0.14252903670828793
345,0.142506060938925,0.1421849984281658
346,0.14245389353542826,0.1424787483114427
347,0.1425022803396535,0.14420871047989972
348,0.14249907636091275,0.14219274768610313
349,0.14247052281041306,0.14243988169467234
350,0.1424446363003873,0.1431630279183675
351,0.14248800478641552,0.14291515153720435
352,0.14244525149674717,0.1422117070691147
353,0.1424450767687208,0.14238742940579108
354,0.14246617384143323,0.14308139094491207
355,0.14253635630686046,0.14326063742691067
356,0.1424659252889881,0.14250832427362753
357,0.14249867761003446,0.14226822683680476
358,0.14243746241404326,0.14237730935903187
359,0.14255563141410033,0.1420743616311986
360,0.14244696754118752,0.14231341256711588
361,0.14246892815880627,0.14264994343026166
362,0.14244717534771478,0.1428720131640656
363,0.14249659547334426,0.14331362577671694
364,0.142461407698936,0.1424076026027833
365,0.14259884427612846,0.1423475701464704
366,0.142488351882281,0.14219179406422644
367,0.1424417144062757,0.14215452478348845
368,0.14248789021193875,0.14226355854505343
369,0.1425307480760802,0.14266833097741743
370,0.14240916658245745,0.14253043418273725
371,0.1425240178911224,0.14218630876987592
372,0.14244428810084708,0.1425865434633182
373,0.14251507643608255,0.1423070763609855
374,0.14249641522280426,0.14243809205113706
375,0.14245483039483428,0.14262712992359297
376,0.1424594795595418,0.14319258506849178
377,0.14247982712154497,0.1423183254211738
378,0.14245894262852007,0.14223382586261743
379,0.14246851734616753,0.1426724195949544
380,0.14248089049091597,0.14251339909190888
381,0.1424586671148783,0.14226270047111145
382,0.14248906136261513,0.14246708900978397
383,0.1424951965589141,0.1423006930143044
384,0.14254313404194768,0.14223332164916402
385,0.14238281220681376,0.14222324938327213
386,0.14252750330553574,0.1421176240022016
387,0.1424193153268793,0.14257748826308744
388,0.1425154983337693,0.14302732072498736
389,0.14247312194608394,0.14279785260467048
390,0.14253035331657823,0.1426126692450296
391,0.14249146640092367,0.14293030345411206
392,0.14241946579234718,0.14246601389886981
393,0.14246521394320563,0.14223335794573205
394,0.14244345323940816,0.14224737277349336
395,0.142463763445869,0.14242904368187018
396,0.14243381174202277,0.14244549319211544
397,0.14250259057644057,0.14226963503103737
398,0.14248431121908875,0.14235221830688818
399,0.14247662813228334,0.1423359106902525
400,0.14248893898651402,0.14240180388173035
401,0.14240452635961967,0.1425148710307644
402,0.14250642768461655,0.14275812226150802
403,0.14243618777393813,0.14241378294425797
404,0.14253346959406232,0.14407092128325047
405,0.14250473358843327,0.14253173635489058
406,0.1423588953652641,0.14246199373173082
407,0.14250906575009287,0.14221295647034712
408,0.1424683056572859,0.14225065812763849
409,0.14248253392604923,0.14255082851251996
410,0.14246026266005107,0.1422305224581678
411,0.14246433575899778,0.14244151899529334
412,0.14248359762145105,0.1420455187514968
413,0.14258375372587137,0.14267935299844647
414,0.14242880733688923,0.14225327626083223
415,0.14241965709584964,0.14318146300627183
416,0.1425205287385673,0.1426548762114142
417,0.14250694966859126,0.1427088921120662
418,0.14236762477951606,0.1424498119261954
419,0.14253394438291891,0.14200670855986805
420,0.14251609524687256,0.14248214147889762
421,0.14250630099076328,0.14305040195852015
422,0.1425290927589347,0.14239404012834966
423,0.14234127975284938,0.14267935633526885
424,0.14255186080310225,0.14248444961605083
425,0.14239749587681236,0.1422999813520681
426,0.1425061477335055,0.14221850869710367
427,0.14241170290975633,0.14256187969555478
428,0.1425619313798227,0.14277467019835277
429,0.14241549294529138,0.14215975487302865
430,0.14247683476682466,0.1421701469494692
431,0.14247377255146132,0.14220511570233374
432,0.14245305745163248,0.14283662263023167
433,0.14252912247017543,0.142461861144792
434,0.14247275387142866,0.1424684969611379
435,0.1425869022559116,0.1420497761200613
436,0.14236841230265934,0.1424683599499425
437,0.1424696141897615,0.1422385030718816
438,0.14242297637806517,0.14258990518073944
439,0.1426040922618233,0.14217493087908895
440,0.14251082107658994,0.14275511398505758
441,0.142475388916031,0.14269428656462896
442,0.14241154457400781,0.14215390984218063
443,0.1424873756659519,0.14214857962588995
444,0.1425305090637455,0.1430780470652765
445,0.14248462734340597,0.14284984967811923
446,0.1424404418282724,0.1425419644605983
447,0.1424772111923541,0.1425075121120427
448,0.1423817019290248,0.14227371737788752
449,0.14247751034478315,0.14215056936008708
450,0.1425359819906987,0.14263516133483814
451,0.1423749162467206,0.14360213491139004
452,0.14245755767752435,0.14245723652428974
453,0.14250213410189114,0.14234875918130208
454,0.14247925077149906,0.14239635747281418
455,0.14245019621891952,0.1423058062074228
456,0.14242562717530394,0.1420959168798417
457,0.1424666682928811,0.1425416784515909
458,0.1424570040119787,0.14227785775343077
459,0.1424467841366012,0.14219952590113594
460,0.14259911540646691,0.14255178789724618
461,0.14245862127977452,0.1424912165648232
462,0.14240772111082559,0.1429559902905049
463,0.1424535166558707,0.14233851582115503
464,0.14247467790559454,0.14248660903415056
465,0.14241948808009033,0.14222176757194882
466,0.14245209649872104,0.1422209572623142
467,0.14242694422356664,0.14379450263723573
468,0.14247118966592576,0.1429820907327903
469,0.14242384694039686,0.14212727019258684
470,0.14247846757231802,0.1422515350495208
471,0.14243623708739406,0.14266210379623046
472,0.14254195632959907,0.14271162438169632
473,0.14240975510397577,0.14246682269879238
474,0.14252949300989975,0.14230690425105572
475,0.142473047162203,0.1423143451744637
476,0.14246303786892733,0.14243575731048452
477,0.14247458565267154,0.14229545079738834
478,0.1425711451727226,0.14259388260674447
479,0.14241000836748008,0.14218095046245383
480,0.14246617773379278,0.14248972689582146
481,0.14244060631134073,0.14225217719600475
482,0.14253586570395635,0.14227338399373066
483,0.14249571693378005,0.14322018704219622
484,0.14242333597350398,0.14246715173045227
485,0.14239017180549038,0.14250075232267248
486,0.14253754688552392,0.14280354188402222
487,0.1424490945034935,0.1422737069423827
488,0.14248512848452335,0.14270207422776318
489,0.14250894739400355,0.1423257295153366
490,0.14248445139164279,0.1423768336507077
491,0.14239554535721333,0.14270002760198694
492,0.1424069461607419,0.1422874384079626
493,0.14246649520535906,0.14213897909670323
494,0.14239924151381136,0.14267318750293326
495,0.14249279837277298,0.1428917137190774
496,0.14242414059170266,0.14221922424815941
497,0.14245975895174284,0.1424238952133783
498,0.14245484003327147,0.1422649318282307
499,0.14242843903038982,0.14276762929342923
500,0.1425253647468826,0.14288282239298
501,0.14242292833699197,0.14251791356691365
502,0.14244868313435982,0.14226456342537905
503,0.142506378896605,0.14214147286219472
504,0.14244373241529035,0.14287284356639393
505,0.14245206160962778,0.14266307018027966
506,0.14243989360243892,0.14310872133053282
507,0.14255468329817822,0.14276373967359984
508,0.14241079373502485,0.1424132998060531
509,0.14253676504152707,0.1423314936178926
510,0.1423772119808665,0.14255034975165193
511,0.14245197117316225,0.1426521455977753
512,0.1424080572065146,0.1426544487779947
513,0.14240312931546792,0.14211788856060245
514,0.14251875385125579,0.14279285506598044
515,0.14246187083520948,0.14257580644942186
516,0.14241951819222826,0.14320046537605607
517,0.14241460698015954,0.14273692265906407
518,0.14254009961476077,0.1424825259338244
519,0.1424013615273482,0.14228239720630345
