epoch,loss,val_loss
0,0.5513780743405335,0.5002925609367648
1,0.501247004765195,0.5001432860553386
2,0.5005288903307606,0.5001633755640534
3,0.4965642286280625,0.4889143927160469
4,0.4878363235876412,0.4883008420986254
5,0.487805845756373,0.48837622501691597
6,0.4874313539225553,0.48713091648956386
7,0.48746678758664114,0.48695294405270734
8,0.4775407456499375,0.47462783973290756
9,0.4751495491001762,0.47463239168299415
10,0.4750016301348693,0.4763548420764579
11,0.47482328495897463,0.4743459696437633
12,0.4751115132203619,0.47530063637916103
13,0.47473353406217333,0.47491939751985757
14,0.4647106487350318,0.4618717946648973
15,0.4622971492553285,0.46224066643808526
16,0.4622340965123056,0.46306923487756535
17,0.46199001000769013,0.462128265475008
18,0.4619880374799899,0.4624790279130888
19,0.4618232954592842,0.46226833397248296
20,0.4619345183014498,0.4616940637819633
21,0.46202437780610944,0.462101519979974
22,0.45815580061611594,0.4492828789232483
23,0.44951815415988333,0.4498368278435589
24,0.44936042467816883,0.44942822712376107
25,0.44933162032923074,0.44966463513629573
26,0.44938883790026124,0.45005658176745017
27,0.4494283207544513,0.44946837861861627
28,0.4495686364419351,0.4496138566488424
29,0.44940576481435685,0.44951884006102627
30,0.4492600225520532,0.44916078432839673
31,0.44925400880257255,0.44951886538665237
32,0.44928421647996986,0.4490968597158279
33,0.4491951117478984,0.4492004487355079
34,0.4492453711864495,0.45043803345474803
35,0.4491451477243044,0.44911050861644447
36,0.44918051841461926,0.4495492617186186
37,0.4490477314177305,0.4490376717074091
38,0.44912724195576825,0.44993080748829894
39,0.44908054562208666,0.44918113867427095
40,0.44900136418566783,0.44914787758785524
41,0.44903271263612776,0.449314900941817
42,0.4491009854031666,0.4495473590178012
43,0.4488812355037176,0.4490666663421483
44,0.44897447748134595,0.4491682866532
45,0.44907603986386263,0.449492150025139
46,0.44895197216186644,0.44904897264428306
47,0.44892072744866024,0.4491157503089633
48,0.44888786904361344,0.4490795897474817
49,0.44883181362607255,0.448974407807746
50,0.44892391510204516,0.4490866003312056
51,0.4489284494490805,0.44923494091893285
52,0.44892560353383776,0.44891524956300977
53,0.44880624914093503,0.44895767337592757
54,0.4487608934342686,0.4490065231800609
55,0.44880796856280036,0.44964643238672264
56,0.44878636030030894,0.4490522599580178
57,0.4490346008740317,0.4500177675572827
58,0.4488984821407122,0.4490089476892387
59,0.44878361906074393,0.4490970496525034
60,0.44873889351591806,0.45089354943867016
61,0.44883345904676486,0.449486776195559
62,0.4487832113513941,0.448994520914336
63,0.44879970292875315,0.4490865599360592
64,0.44871105525517396,0.44895750360922543
65,0.44884980129602386,0.4489389028090374
66,0.4486467714258981,0.4492807639188337
67,0.4489057261723453,0.4498503595441552
68,0.4486352780907615,0.4489511171962005
69,0.4486507150837827,0.4490802735559453
70,0.44866273551604324,0.44901735704460505
71,0.44871395881265125,0.44901255444368404
72,0.44869193416222797,0.45005667801366117
