epoch,loss,val_loss
0,0.6298058014570631,0.5982139735977878
1,0.5981847633106359,0.5973689731546499
2,0.5980906089134665,0.5976145715045805
3,0.5979361022033552,0.5985742962389086
4,0.5978256911669568,0.5976699924420419
5,0.5977943881702596,0.5972708156316848
6,0.597815824196065,0.5972513997084478
7,0.5977191239392088,0.597319176504404
8,0.5977512221564089,0.5971444750918483
9,0.5976913341259841,0.5976087322697019
10,0.5978653262850421,0.5973635324727034
11,0.5975557251464249,0.5974746563739745
12,0.5977283538986848,0.5970829648096311
13,0.5975972098264646,0.5972474228344398
14,0.5890642077156699,0.5848538158977223
15,0.5852465825174641,0.5860336443675317
16,0.5852334712142174,0.5848791414906657
17,0.58533421214084,0.5847010775326932
18,0.5851983488962164,0.5850022640420808
19,0.5852265625771642,0.5851223505764322
20,0.5852288600709775,0.5848072804462293
21,0.58509032677637,0.5849942649199049
22,0.5853935239182034,0.5849523547954704
23,0.584963209496281,0.5853398662294408
24,0.5851207241589402,0.5863034918940184
25,0.5851916114369021,0.5847212706457401
26,0.5849408052193064,0.584780216581359
27,0.5852622525717673,0.5850003216857932
28,0.584859502382499,0.584731359352865
29,0.5850999925049937,0.5847908403392543
30,0.5853313150124871,0.5846635539082603
31,0.5848641388006254,0.5849528404093822
32,0.5848891340350006,0.5847174979554522
33,0.5851627542418122,0.5848748867082074
34,0.5849183406605496,0.5846792659531657
35,0.5848424871415439,0.5852473768664193
36,0.5739859852544119,0.5603859331413957
37,0.5553109280722965,0.5480938005125021
38,0.5483322935713352,0.5480457174488739
39,0.5483061708499571,0.5481833547193665
40,0.5394814716835983,0.5359391927785356
41,0.5360001543781681,0.5359789871091997
42,0.5361264078426393,0.5363086679618123
43,0.5361611075754301,0.536018304900784
44,0.5359158242775188,0.5358233276418589
45,0.5359655012169687,0.536763765576107
46,0.5360312010820689,0.5359188624058946
47,0.5360714262314881,0.5366288491875446
48,0.5360456383508357,0.5358920614793138
49,0.5359912806536451,0.5362457960021564
50,0.5360044337038796,0.535774511791066
51,0.5360455750605767,0.5359423330236881
52,0.5358980674534328,0.5358416440531509
53,0.5360055877924429,0.5359493592730892
54,0.5359382302583771,0.5358789350439341
55,0.5358749610715373,0.5358921135657583
56,0.5359118868619939,0.5359532790264392
57,0.5360311624797214,0.5359491977035437
58,0.5359977120892108,0.5358401429522897
59,0.536018726827039,0.5360440034671147
60,0.5359174140156266,0.5358364482150296
61,0.5358935870105764,0.5358057359364943
62,0.535912861518367,0.5360398003736632
63,0.5361488034658727,0.5358442986402319
64,0.5359090117626846,0.535948900011518
65,0.535862019591755,0.535837165347557
66,0.5360038768393942,0.5357886077099585
67,0.5359733084023681,0.5357936950144138
68,0.5359350364537149,0.5369404733655717
69,0.5359130688530309,0.5357409980059068
70,0.5358760539822156,0.5362516784473665
71,0.5359781817099946,0.5361376323397898
72,0.5358672582867285,0.5366067369020875
73,0.5360272078174353,0.5358900612295723
74,0.5360172092813379,0.5375893657506451
75,0.5359223249834966,0.5360460764038317
76,0.5358439555791707,0.5360928176839962
77,0.5358685032864975,0.5364981741458316
78,0.5359494830275997,0.5358397707296182
79,0.5359637405568884,0.5358832194023959
80,0.5359841367168925,0.53660871049037
81,0.53581750517301,0.5358024773542076
82,0.5359158121736892,0.5361082047461404
83,0.5358764176509587,0.5359212119704287
84,0.5358648237351692,0.5359088988475478
85,0.5359056711185859,0.5358009282185603
86,0.5358968257491882,0.5372376287617182
87,0.5358230091291694,0.5360170600590474
88,0.53591146687861,0.5359036566747916
89,0.5359324223650825,0.5377631176730221
