epoch,loss,val_loss
0,0.5411006256664018,0.4708198867356015
1,0.47837811816844056,0.473439025215587
2,0.47697943379934266,0.47021006655768327
3,0.47765435526172795,0.46600871852466036
4,0.4777073725926981,0.47037839360282285
5,0.4755967821506002,0.4757176625182898
6,0.471662728001269,0.46437661437980754
7,0.47285030792943006,0.459144717727765
8,0.47187901326983,0.459463412802146
9,0.47151793295340383,0.45723246996479894
10,0.4716700525711671,0.4698792679533774
11,0.4711375247707946,0.4677974810116669
12,0.46927670282806805,0.4623355690945578
13,0.47052691368271504,0.46268998734482464
14,0.46828522219312946,0.4628528516736667
15,0.46778935765762697,0.4561752832914396
16,0.4681495145666037,0.4570820711923568
17,0.4692907010455974,0.4570584581560663
18,0.4675229379027296,0.45910875552172914
19,0.4670808758142945,0.4670164313199676
20,0.4681013029018085,0.4603032792000293
21,0.46873833766753537,0.4615824082844259
22,0.4685864639844445,0.46782724377011914
23,0.4692644321327682,0.4630629760172768
24,0.4689756289398451,0.4695603839506196
25,0.46916159410937897,0.46142284991991456
26,0.46901064646615687,0.46324591045786095
27,0.46810131319325793,0.46003524703874116
28,0.46831752711253394,0.4578535329806306
29,0.4676079965657372,0.45756714846924146
30,0.46657808109534255,0.4521604744627801
31,0.4650007317558848,0.45326626733615816
32,0.4659525792566325,0.45648768330147255
33,0.4661498216154288,0.4677676629295665
34,0.46515983200187594,0.4558219288453025
35,0.4653199599515334,0.45129586689191814
36,0.4648400779655702,0.45674686991236957
37,0.4646916813868508,0.4548967771626121
38,0.4651032976395221,0.4594988522091153
39,0.4662747000880855,0.45459650065264745
40,0.46668381550662713,0.4532218953005046
41,0.46649099312287917,0.4546881120743108
42,0.46631263036855597,0.454020246969214
43,0.46576908960950364,0.45762639094641006
44,0.46641125912956005,0.45451391049041084
45,0.4654517780057341,0.46155810866566654
46,0.46646069912172905,0.45594271474121684
47,0.4651782586039018,0.45882099295283457
48,0.4646112078028045,0.4549055796913397
49,0.46598683257135365,0.4571376584981875
50,0.4661088153469763,0.45546379767728773
51,0.46628277205067764,0.45797631937213645
52,0.4667555660390549,0.45691678240812944
53,0.4675873658782858,0.45916697829844166
54,0.46586062666847644,0.45285506406541687
55,0.46467775503079667,0.45245213412636365
56,0.46308282672834816,0.4534106424170963
57,0.4630825368644332,0.4461078153130758
58,0.4631559112303549,0.4617999367057195
59,0.4644560677994736,0.45416017548249477
60,0.46447118913098207,0.4535691748713544
61,0.46230881660581113,0.44926620797557726
62,0.46210845279321966,0.45330796494856535
63,0.46247159348403233,0.4541669491951919
64,0.4619033458016569,0.44924997213137086
65,0.46288404140255146,0.4595085703536292
66,0.46317853749417764,0.4535118611478015
67,0.46467032105469114,0.45632096471142936
68,0.4639854318232273,0.4533192044698825
69,0.464557311422438,0.45526128974408736
70,0.466235299392951,0.4517531833878256
71,0.4658415506807544,0.4637556052763065
72,0.46482671813951504,0.45383402803984796
73,0.46497711681014153,0.45521997561018207
74,0.4659774044958903,0.4555624334381242
75,0.46549119186296545,0.457628542500024
76,0.46551052821006517,0.45860997950268617
77,0.4652192192636043,0.4540199823471723
78,0.46538743001522775,0.4562370368318475
79,0.46613063133782523,0.4555142117515736
80,0.46641359533623256,0.4572630345868425
81,0.4664103603429741,0.4596990798765407
82,0.4676342482665936,0.4546067067837282
83,0.4689015752072338,0.46064278513969353
84,0.46768914419207736,0.4567262106225918
85,0.46873697786213014,0.4600803638266689
86,0.4680135672946247,0.46259594582250574
87,0.4676651826603331,0.45835042298545775
88,0.4658388456494974,0.4526697486615501
89,0.4669941400381015,0.45909660553593473
90,0.4672070235418949,0.4553699028849508
91,0.4670909335859102,0.45999602301909215
92,0.4658450415666155,0.4578052551471632
93,0.46639017501085117,0.459734886508338
94,0.46828789556388567,0.45999617212479194
95,0.46773755321685645,0.4538575712394413
96,0.4635430730337338,0.4521346572777749
97,0.4641804947889299,0.4535216586083621
98,0.4646440986558783,0.45553988860456984
99,0.4659058379469444,0.4549083444859536
100,0.4634750502810871,0.4516795511403795
101,0.46357217286940483,0.4547705289267515
102,0.4641077873661078,0.4546383907217253
103,0.4626104871479632,0.45554920791074244
104,0.4623282598339015,0.45051639994581383
105,0.46136505294332114,0.4592094414565351
106,0.464846640182056,0.4581474618781902
107,0.46328545414763006,0.4523061464269423
108,0.4653286501515112,0.45079690949504736
109,0.4633872194422616,0.45578533368686475
110,0.4606656425481411,0.4480219355180871
111,0.458006060416464,0.45153486462870074
112,0.45564574209286823,0.4497188781318273
113,0.4593300744355154,0.44817728742710133
114,0.4595378633383081,0.44784701096324725
115,0.4599655859118743,0.45405575745954413
116,0.45846002630526117,0.4465276649737791
117,0.4588284973475001,0.44710619440677135
118,0.4567285689899771,0.44732667196427356
119,0.45503756145445656,0.44401202175028226
120,0.45704055410161387,0.4396880810290881
121,0.455594522811526,0.4457121391934302
122,0.4539322219044566,0.4483269511853604
123,0.4538559043507496,0.4438106369200709
124,0.4571807244055563,0.44745451799978303
125,0.45782895294501247,0.447729300939858
126,0.4604245557320966,0.4472042015197245
127,0.45928402542829705,0.4484015555953829
128,0.4596650008079436,0.4476047815915253
129,0.4585667486123139,0.45473100798941074
130,0.45879410465748954,0.45871238691560284
131,0.4607230205353883,0.45603026340303215
132,0.4579731092559729,0.4475540486535597
133,0.4552544791468804,0.440769027327588
134,0.45592535542641327,0.44484697551640734
135,0.45684910277954394,0.4490274087641309
136,0.45179440164499335,0.44295243564890235
137,0.44745021795245005,0.4337807643479405
138,0.4424755511333426,0.42650765698070875
139,0.4290297937383659,0.39604445581560355
140,0.2757889776945495,0.2129202912243314
141,0.2214119394215272,0.19455881146295106
142,0.21854988760132488,0.20215966905913393
143,0.21577490287885773,0.18715475910088164
144,0.21467531699952272,0.18962374428359186
145,0.21345711514341842,0.1842924748571632
146,0.21359650843697106,0.1903184446864177
147,0.21743282694801344,0.19467396902445272
148,0.21687791266625256,0.2037418116921972
149,0.21832930461632358,0.18838887270642907
150,0.21987893774235945,0.20722480918021305
151,0.2180738056199156,0.20184640421722475
152,0.2185523372045238,0.19224929282678424
153,0.22116746873759346,0.20583190372024077
154,0.22609404000423128,0.2182430856535542
155,0.2217445735343926,0.21269683283478044
156,0.22266317783094805,0.19840839080624253
157,0.22732072458755104,0.2240361978241846
158,0.2368822912279841,0.21158698323493694
159,0.23918963354721154,0.21143203662104182
160,0.2404930286294074,0.2366803994471385
161,0.24588672165795386,0.2210348467588801
162,0.2510607283380773,0.23431723707759108
163,0.25668428508307245,0.24238679265778368
164,0.25740558918502976,0.2473381380679199
165,0.2574226526226357,0.24027970897793863
166,0.26024947934847276,0.24288736582508028
167,0.2628293534894165,0.2378964513987185
168,0.26116972578038794,0.2490891239590408
169,0.26018269766839763,0.2508823979578342
170,0.2611538506657195,0.23956644437448565
171,0.2624886563891987,0.2563279970668862
172,0.26230126058907627,0.23931235013839855
173,0.26186303844411885,0.2403029184950179
174,0.2622440684196665,0.24482829662976344
175,0.2652252490381352,0.24611257396538425
176,0.26377307857683807,0.23830732989000727
177,0.260996081101761,0.2320607658578546
178,0.26111354584769186,0.23662148403105251
179,0.26093289580681533,0.2316121363155279
180,0.26189475935354506,0.2441395728627621
181,0.2755392542560038,0.27023163495472124
182,0.2755795845227371,0.2692248259201328
183,0.2755832805824604,0.26470768244697435
184,0.2750991763685533,0.2626593527284869
185,0.274711230282875,0.26691854045959373
186,0.2755411958022655,0.2658155268703565
187,0.27652651787423593,0.25290777212583654
188,0.2755894225409372,0.25877971556728624
189,0.27387935743271874,0.25576073818067535
190,0.27532814132819455,0.24937498204898156
191,0.2763469387396729,0.2597854092611322
192,0.2762318064959691,0.26121575855183243
193,0.27650177961201977,0.25609277809757647
194,0.27818859786652833,0.2703795863143459
195,0.27532318956870067,0.2672668015547597
196,0.27480186804307166,0.25830918661044544
197,0.2770585425787692,0.25773433591779427
198,0.27745605893820213,0.25889383619849665
199,0.277707659035659,0.2645083236336802
200,0.2793677313317307,0.26622898703780623
201,0.27903243163220887,0.2654600352190006
202,0.28025101652319767,0.25737240542411427
203,0.28095087145777536,0.2642060539904973
204,0.28136471577351996,0.2712032465527353
205,0.2809635928625778,0.27322732236739117
206,0.2823438489620539,0.264335724589104
207,0.28132771526118644,0.2630911778185249
208,0.2798985750209704,0.2650951187890067
209,0.28015859730595305,0.26596931812089547
210,0.27863537979354674,0.2657929825307632
211,0.27979847380845285,0.2720163321885521
212,0.2803545280350007,0.26669977697078506
213,0.2820039590735801,0.274017113971729
214,0.280014884962643,0.2615458908613592
215,0.27975876756804546,0.26921093352168396
216,0.2800391351433395,0.2597575051608571
217,0.27903654528774324,0.26683386601654674
218,0.2781572234537676,0.25927195062341896
219,0.27959163248133984,0.27419934722270756
220,0.2806628712242265,0.2649680208223677
221,0.2816322995878333,0.264295555280717
222,0.2819933861041431,0.2662741028966166
223,0.28084632211166033,0.2673143415396479
224,0.28193635724598076,0.26799860804826137
225,0.2814606952188398,0.2701628201103813
226,0.2817822219215804,0.2617632065970971
227,0.2797939999104975,0.2662935721516703
228,0.28044639803546606,0.26064426445452926
229,0.28095542184478467,0.26145963491938107
230,0.28125581321575277,0.27058928066477966
231,0.28064422678652046,0.2569216232461636
232,0.27985106916021674,0.26340028717702263
233,0.28159810145267195,0.26998766377015476
234,0.2813552375808418,0.2731781821718532
235,0.2807607018797518,0.26439154786723
236,0.28134042587426067,0.2603043097629261
237,0.2810903002413438,0.269902242022701
238,0.28295473620998296,0.26432588849372535
239,0.2826582400632991,0.26485290708227616
240,0.28253019752976993,0.26655347368899723
241,0.2823903644911582,0.27631158509307147
242,0.2844721929942199,0.27871807709912566
243,0.2814711770243782,0.27338253587319705
244,0.28184164926516925,0.271218446360485
245,0.28269877875570676,0.2672339860223463
246,0.28189190847577333,0.2707793104102881
247,0.2817128298641871,0.26239610576874267
248,0.281306022904712,0.2626314991416194
249,0.2792204226807153,0.26699054047124254
250,0.2797569570590933,0.2660644947541635
251,0.27881740545816747,0.2622335802266799
252,0.2797761907358821,0.2776700885820878
253,0.2766318714423336,0.2634759037134303
254,0.27637843790052413,0.2687480093201221
255,0.27858032446375475,0.2802029794468688
256,0.2803198492629446,0.2615336309809711
257,0.2772328596440055,0.26542486283331285
258,0.27626923392478414,0.2647831417273233
259,0.27886108332257764,0.25997677154915483
260,0.2767859063298106,0.26056855211318153
261,0.27138357592238893,0.24791896964210924
262,0.2586177404966953,0.21717719279741243
263,0.21500703958656003,0.20399018579942557
264,0.21304771083174087,0.19673417032282467
265,0.2114674517576643,0.19533239608452654
266,0.2151998843339612,0.1938709179858288
267,0.2157077333457369,0.203519954077823
268,0.2175893763022171,0.19518434191041795
269,0.21711184078459736,0.19596687874270877
270,0.21733055541293322,0.21040158651198754
271,0.2162737538762611,0.18803894677403035
272,0.21547502457357043,0.19247059887473567
273,0.21415092954508883,0.20065014574738496
274,0.2153964411738298,0.1960026253111831
275,0.21571889626298496,0.19643889722761998
276,0.21456689798503184,0.20136516313667643
277,0.21650585298724978,0.1936540032759744
278,0.21375427844760705,0.19628606047466599
279,0.21863127934584897,0.20251799747053809
280,0.21809452739979723,0.20719968990350016
281,0.21598883432378585,0.19281132085265
282,0.21660852852723392,0.19961823939383266
283,0.2190739550857807,0.20108451779517209
284,0.21758501128041202,0.20256415282353324
285,0.22086691915345708,0.1993089106224989
286,0.21867973905363433,0.20097373928154372
287,0.2212740610257613,0.215002936729316
288,0.22021776723632996,0.20391423369874706
289,0.22077143324507797,0.19905634907727743
290,0.22235186511783195,0.19745549417285346
291,0.22230064091112592,0.20348179141601994
292,0.219587340551934,0.19921474356348343
293,0.21938384103355743,0.21207083424151932
294,0.21846964041725528,0.20605408843098047
295,0.2203193203472405,0.19961164381293303
296,0.22250840025577995,0.20397643152192152
297,0.2207959726524296,0.20821447499925544
298,0.22078569642574095,0.2082830835795346
299,0.21987546711183376,0.1986331594865343
300,0.21972631308719884,0.20199963014099478
301,0.22035555655269218,0.19639960579403573
302,0.21818076047918303,0.20582895964125336
303,0.21803735930928222,0.19353388236937039
304,0.21737945681329157,0.19886848343434818
305,0.2197560463592017,0.1966969726023565
306,0.21741871722787023,0.20379639010591213
307,0.21659953538462412,0.19086509046821776
308,0.21578630305927912,0.19397112789498414
309,0.21482707965645573,0.19652188173550364
310,0.21296813238939222,0.195623821916313
311,0.21294645503532592,0.20071180521171678
312,0.21309520285144792,0.18864688591262724
313,0.21388877984836138,0.19736081965108884
314,0.21239149937336202,0.1951177573006456
315,0.21374697590784297,0.1944927890044832
316,0.21395136891818828,0.201998122359884
317,0.21305446299931985,0.21225192102044232
318,0.21209228025089732,0.19534539087324887
319,0.21178500469235018,0.1903799354277357
320,0.21056648633248515,0.1881997719254189
321,0.20943265213526124,0.19066098424140732
322,0.2104302086561418,0.1899597125205828
323,0.2107218896194423,0.1824225128143908
324,0.20830832973873015,0.18556785249484273
325,0.21156828729607027,0.18744178240987946
326,0.21390475791325864,0.19604392452040523
327,0.21469554732695853,0.19553396181036567
328,0.2157314421235324,0.20062693995853625
329,0.2159068628990774,0.19133818550616055
330,0.2133607273336223,0.1961481689983404
331,0.21149709787395457,0.19373137363318674
332,0.2109856485701103,0.1970010599402245
333,0.20992842831199976,0.19379033108301397
334,0.20922821832837152,0.18567157178623242
335,0.20924575763831227,0.19910686574258857
336,0.20908835505862697,0.1897518472377014
337,0.2103162915360251,0.1887500313270158
338,0.21019876561314463,0.19382060699652948
339,0.21252843537490718,0.19418210619156437
340,0.20979605105926666,0.184575903716761
341,0.20658197588652824,0.18368180845323848
342,0.20616726259247575,0.18544259470988186
343,0.20776178709251417,0.18851909640038586
344,0.20803058592321202,0.18335208953038482
345,0.20821686435065015,0.1939683198787701
346,0.21283845221110098,0.1963577392704391
347,0.21331726706666435,0.2002190147668429
348,0.2129064900138014,0.20110344949112977
349,0.21388196077444951,0.19843841100077791
350,0.21214423078498681,0.19989049081832477
351,0.21236329890793557,0.18871953403658065
352,0.2118395166002589,0.18239884573639897
353,0.21446495030304605,0.18371493214684015
354,0.21018735374168432,0.19559399827126922
355,0.21050163235762517,0.1936062090892724
356,0.20911383581199616,0.19165769976805586
357,0.21038173824000797,0.1953791696298941
358,0.20879813086548202,0.18880104658729746
359,0.20767463651968898,0.17377406565712114
360,0.20484071687090216,0.18132240958541232
361,0.20464993674430154,0.18977697795784745
362,0.20746934032745118,0.18241456415630647
363,0.20510695479828106,0.19682388701538636
364,0.20538736053770013,0.18562711715321892
365,0.20495957919328714,0.19505896933829586
366,0.20742115236634165,0.1966997426306063
367,0.20793792728087504,0.1914175096561143
368,0.20881515378050572,0.20030304835410973
369,0.20703622106191732,0.18067571051542272
370,0.20729298214856193,0.19334599334561364
371,0.20830144205515524,0.19061568124188902
372,0.2063823793586686,0.18650333966762886
373,0.20437099902535513,0.18029523429761463
374,0.205216921848073,0.1825711223654796
375,0.2070752631881826,0.1923185041572696
376,0.20472912945383362,0.1784024400770335
377,0.20545062407267561,0.1899419086672889
378,0.203038715659905,0.19002224421444708
379,0.20341905129017782,0.18613040480165852
380,0.20293539820862808,0.17938097436407371
381,0.20067484939484287,0.17658450585608418
382,0.1971012538226007,0.17884759266214664
383,0.19672353420373823,0.17603588331234954
384,0.19705721423875608,0.17101658227976232
385,0.19670870660139408,0.1796769171529806
386,0.1971240173414838,0.17093278327699524
387,0.19871412868575036,0.17207149092193277
388,0.20005081043088083,0.17345149897409406
389,0.19539753500696758,0.17809176682579111
390,0.196573045602043,0.18273441768718124
391,0.20611027713349875,0.18587175351527138
392,0.20467824357257283,0.18514126984971474
393,0.2011495617975434,0.18260318358394229
