epoch,loss,val_loss
0,0.597292640224514,0.5598020799920697
1,0.5599071560886227,0.5589565495607429
2,0.5590079361247131,0.5614629408276821
3,0.5587618508396789,0.5579024268677198
4,0.558419435216562,0.5579633973140022
5,0.5580898098738001,0.5582103023437157
6,0.5585760007493416,0.5574992692189757
7,0.5579629289006268,0.5599175853698616
8,0.5580587717229175,0.5575486798102647
9,0.5579445536948373,0.5577951097896829
10,0.5579580454465579,0.5576332969634895
11,0.5578703419980111,0.5589091685905702
12,0.5579461158385539,0.557362504383226
13,0.5576789859871112,0.5594053736845993
14,0.5581739949465309,0.55743798913486
15,0.5580152425486901,0.5584763555251046
16,0.5578228417760044,0.5576832234476568
17,0.5574944138016384,0.5576379360427693
18,0.5574314980997008,0.5580287573169079
19,0.5574428309805474,0.5587594062409003
20,0.5576092939900977,0.5575483888068598
21,0.5571451019083578,0.5645826561037427
22,0.5577284409947092,0.5585141867335399
23,0.5573947904452011,0.5588637201127454
24,0.5575168790092305,0.5578281869214403
25,0.5572677174267984,0.5605029870917506
26,0.5572900948228366,0.5571977119629592
27,0.5572203645784458,0.5568875827421723
28,0.5570348201267724,0.5580734412726294
29,0.5573287573480163,0.5570995796160728
30,0.5570857253013383,0.5580773972597061
31,0.5572926655656351,0.5569690809260088
32,0.5569720691565868,0.556959754522148
33,0.5570391090234461,0.5592357906845958
34,0.5572117496013301,0.5569709048026124
35,0.5571510651382184,0.5616738257622566
36,0.5572887702042677,0.5567562777939905
37,0.5568850648394659,0.5567963581524262
38,0.5569141799853922,0.5573596417010469
39,0.5569194793956438,0.5568012125486991
40,0.5568173252030154,0.5576990725396788
41,0.5571097911978347,0.5572378944278529
42,0.5569856776500242,0.5569488745685308
43,0.5569166443672969,0.5583429314850229
44,0.5570494297314847,0.5583339393521785
45,0.5569197650384596,0.5567148640528481
46,0.5569111952009071,0.5571013991531519
47,0.5568700174533155,0.5567816421868204
48,0.556722812402427,0.5567026116608041
49,0.5567623637643224,0.5567218385620852
50,0.5568763099765028,0.5569799599861945
51,0.5568082876327972,0.5572325301374562
52,0.5568040717847853,0.5581351251877861
53,0.5569346637746251,0.558324602992938
54,0.5567848610078157,0.5568490119000828
55,0.5570417654505804,0.5573688519588119
56,0.5568428034445458,0.5566637453481523
57,0.5567787066687013,0.5573374669863274
58,0.556840963230909,0.5568284348961628
59,0.556709346772942,0.5570808969422122
60,0.5567000859299359,0.5569057787511282
61,0.5567020591372341,0.5568040817401649
62,0.5568482589925893,0.5566479143800266
63,0.5566856118290021,0.557748752181484
64,0.5567904277668094,0.5570712526043682
65,0.5569757132935235,0.5587759312776733
66,0.5568924698976003,0.5566912361079671
67,0.5567773235941852,0.5568812897935413
68,0.5566260784460254,0.5567250133071262
69,0.5567071160871926,0.5569446993078359
70,0.5566572361465525,0.5570319620393839
71,0.5565988063216635,0.5565259108196234
72,0.5566893486275493,0.5574216269578872
73,0.5567367883514797,0.5571241030345893
74,0.5567597068692003,0.5566642877887097
75,0.5566219804458836,0.5566531395503744
76,0.556606466943753,0.5571351994538971
77,0.5565933227794329,0.5566651200839743
78,0.5565429174159783,0.5576494703711483
79,0.5565823603323066,0.5578361392276445
80,0.5566777641393729,0.5596457633012367
81,0.5566779866038178,0.5566070338898603
82,0.5565131785272276,0.5567083612754462
83,0.5565836273883599,0.5565562668142788
84,0.5565878241339554,0.5574971432348901
85,0.5565764955926333,0.556692536306075
86,0.5565890601326278,0.5567699868622888
87,0.5565533857103929,0.5570485053276862
88,0.5565799158186168,0.5570456934434699
89,0.5565455048361648,0.5565808999972374
90,0.5565467828686623,0.556982427899281
91,0.5564918967334821,0.5573837597569256
