epoch,loss,val_loss
0,0.58440183082876,0.5593130125223441
1,0.559093910400396,0.5585219050883226
2,0.5608284240701554,0.5579282695016718
3,0.5580199540384662,0.5586397156470337
4,0.5581041207745788,0.5579066296971584
5,0.5584722488884583,0.5613690013548547
6,0.5581131825950808,0.5575211234470506
7,0.5577338094969974,0.5582172657488755
8,0.557924806858964,0.5584224028556709
9,0.5580654324675185,0.5579715991428629
10,0.5576222610848023,0.5573688796551887
11,0.5574753321042493,0.5589484648990427
12,0.5575914666705435,0.5578191154008248
13,0.5576501511234118,0.55747756866112
14,0.5574314304967168,0.5595205325385998
15,0.5575280146969803,0.557295693192288
16,0.5573263656318741,0.5576046857129328
17,0.5580051932311075,0.5573284323516698
18,0.557246926509849,0.5572317995657502
19,0.5572275073931611,0.5572605542758803
20,0.557240514054118,0.5577809699597654
21,0.5572231866307636,0.557487078728972
22,0.5572488211802633,0.5579523121264047
23,0.5572053051522423,0.557281822412887
24,0.557196980412733,0.5571359558074837
25,0.5572293122949811,0.557158118014162
26,0.5569869778481319,0.5574836179582159
27,0.5571256548400269,0.5569222486504141
28,0.557006194751489,0.5609794622825606
29,0.557529370713285,0.5570837090816947
30,0.5569027757151139,0.5574782826405266
31,0.5569211347540475,0.5583702447072342
32,0.5569921302250842,0.5568664086707399
33,0.5573725815248183,0.5587369162724922
34,0.5569776463389482,0.5570985591896597
35,0.5570481430199383,0.5572004911731091
36,0.5569003496656751,0.5568826548292499
37,0.5568024508873111,0.5578920602543196
38,0.5569111008375224,0.5571680368907447
39,0.5569798314596908,0.5572892886923518
40,0.556840707198966,0.556768100828379
41,0.5567471582407955,0.5575648430072776
42,0.5568302030822024,0.5581860047081043
43,0.5567705655080943,0.5573572527928322
44,0.5567945378070044,0.5567350670918663
45,0.556666254954709,0.556807350167881
46,0.5568261919150941,0.5586854062447967
47,0.5568205821862994,0.5572436742915331
48,0.556812614393949,0.5573736605348117
49,0.556885712832574,0.5566814222734031
50,0.5567486954109742,0.5584305335929103
51,0.5568332751677089,0.557744601426339
52,0.5567007844231964,0.5566232592441795
53,0.5566183884257848,0.5567016050187628
54,0.5567157228957917,0.5566817109794127
55,0.5569027898398405,0.5566303112266916
56,0.5567064903873278,0.5571173180604645
57,0.5566108519906746,0.5566499313654685
58,0.5567114568028937,0.5580602072546262
59,0.556868397576906,0.5566366866262873
60,0.5567662935866193,0.5566692319110323
61,0.5566917667637375,0.5567106760288459
62,0.5566603756223212,0.5567720564325566
63,0.5566582716336682,0.5569518277425582
64,0.5566589990145474,0.5568384276722943
65,0.5566674738080054,0.5566004397271788
66,0.5566320029179765,0.5565449355501179
67,0.5566148318025914,0.5566700622918008
68,0.5566071113631352,0.5571145928391043
69,0.5567174900182225,0.5566900571612781
70,0.5566189999583787,0.5566656294675659
71,0.5565916787803726,0.55694372904122
72,0.5567486217241471,0.5565978594969886
73,0.5565582478497387,0.5568729632671691
74,0.5567584342823805,0.5566735011096685
75,0.5565963822292652,0.5574516282602346
76,0.5566332189633453,0.5568779759284516
77,0.5566326532935688,0.5566319924095203
78,0.5565228195466118,0.5565840541933538
79,0.5564829867963362,0.5566459405345631
80,0.5565299757202551,0.5565702428909645
81,0.5565247728006062,0.5568641338664919
82,0.5565885003339726,0.5565900024050564
83,0.5565285017284473,0.5572478501903935
84,0.5565786120893272,0.5572014813504842
85,0.5566521995753412,0.5565631639778742
86,0.5564819442468572,0.5564977488374813
87,0.5566039224933677,0.556526395314766
88,0.5565113649463586,0.556597494849301
89,0.5564877880547066,0.5564488822183467
90,0.5564372102589713,0.556642778042297
91,0.5565156310392566,0.556421649404971
92,0.5564578052166103,0.5565197712859454
93,0.556564363133133,0.5566153708821445
94,0.5564367945580547,0.5572876861314957
95,0.5564812506887421,0.5566994130483787
96,0.556601867218004,0.5567939756258652
97,0.5564712473190656,0.5567482709884644
98,0.5565141176513737,0.5566245810122765
99,0.5565044952238738,0.5567393935977519
100,0.5563915652687595,0.5568744983101299
101,0.556588789380337,0.5567287604864966
102,0.5564835471906124,0.5584169137401295
103,0.556448010527007,0.556577080449915
104,0.5563923692720265,0.5565446080436544
105,0.5564572295489096,0.5568302186959816
106,0.5565270737696341,0.5566746504454848
107,0.5563999185129883,0.5565832072202858
108,0.5564089198779584,0.5568222677937411
109,0.5564293184933877,0.5568033280668728
110,0.5564453443146705,0.556636523638854
111,0.5563937057179268,0.5572125225046718
