epoch,loss,val_loss
0,0.38710622603258515,0.3425179383611781
1,0.33996361677005066,0.3385220665875543
2,0.33887932049130476,0.34100375581349246
3,0.33855186157104034,0.3392179891052287
4,0.3380991325558806,0.33664947467391443
5,0.33769655544616595,0.3386846958825113
6,0.3374670721606473,0.33650245343592233
7,0.3374767423229163,0.3374463437839034
8,0.33680541803801084,0.3378710310898195
9,0.33681463463488515,0.33744123495110095
10,0.3363708711410743,0.34122120459789385
11,0.3364291559960653,0.33660677828421176
12,0.3367324999236448,0.336042184135388
13,0.3360581326748455,0.33727462548260007
14,0.3360665413756442,0.33619325242665393
15,0.33617888600548873,0.3359564209648067
16,0.33608373737947844,0.33578134942361065
17,0.33614901503778033,0.33568627880267976
18,0.3359071861455306,0.3362419760967475
19,0.3356970794323425,0.3360359067579919
20,0.33567613778073474,0.3383785162671475
21,0.3358991191610109,0.33669389621603923
22,0.33583408545205456,0.33549350155497515
23,0.33614049908265653,0.3356745707018728
24,0.3355008591336067,0.33546822082562416
25,0.3353899592888687,0.3357516766487914
26,0.3355430246122729,0.33535112348052115
27,0.335735551848061,0.33556427613570805
28,0.3354356111925385,0.33637539286174406
29,0.33543219547625697,0.3354548575153187
30,0.3360680067096754,0.33552042664501347
31,0.33533950485049785,0.33610988480120707
32,0.33577701232418006,0.3357075598306268
33,0.3355418200113363,0.3367555561999948
34,0.33553850861381923,0.33632899964391805
35,0.33536656750771593,0.33549870630403145
36,0.3358444931207598,0.3359649432803119
37,0.3352822227021952,0.3379752218595664
38,0.33542429307458405,0.3354621973104089
39,0.3352348177370048,0.33530238972741483
40,0.3354358858163658,0.33622217599533866
41,0.33527488237530056,0.336921512378615
42,0.3351664690568054,0.3352969074402427
43,0.33542889820346655,0.33960668235315244
44,0.33554935663789615,0.3352464543420191
45,0.3351377730791608,0.33520585681437426
46,0.33523744385128446,0.3353963765521121
47,0.3356409773368822,0.33568010206396115
48,0.33619537679405403,0.3383010731774683
49,0.3352505904831774,0.3364869458900019
50,0.33520938382669485,0.33660764229629486
51,0.335277239949596,0.33521548366648735
52,0.3350923248991466,0.3354087103740561
53,0.3353366818834764,0.3351078912200969
54,0.33510506735964385,0.33586367556318736
55,0.33525552560736843,0.335767018526984
56,0.33500687236619114,0.33512883229735574
57,0.3351341502569472,0.33489736193507846
58,0.33494459785026454,0.3363999836705226
59,0.33505910766882013,0.3349690828512261
60,0.33494438593682013,0.3350643779149147
61,0.3349499520789207,0.3365659756502196
62,0.33507495556960015,0.33493244858574306
63,0.3348982462195479,0.33487654772509345
64,0.3350443331409062,0.3357614249437728
65,0.3348826816216441,0.3350326343573135
66,0.3350145473470014,0.3370359035835021
67,0.33523552595165096,0.33525355278296953
68,0.3350155633275293,0.3353777187667005
69,0.33493079103630496,0.33539990860593905
70,0.3350280214428136,0.3351186381800527
71,0.3349206125965976,0.33519008028175384
72,0.33502842195539456,0.3352784400833751
73,0.33504404103134805,0.3360046600759412
74,0.3350027115067612,0.334890385128446
75,0.3347039024673301,0.33548603578604264
76,0.33484937202751763,0.3351684054419622
77,0.3350755775042894,0.3351138907402945
78,0.334828749373502,0.33520187944875796
79,0.3349068928071212,0.3354712595776266
80,0.33483509779997506,0.3356977516757344
81,0.3348604516843487,0.33489253147000675
82,0.3349490702832962,0.33568064310055473
83,0.3348552897561881,0.3350996024092974
