epoch,loss,val_loss
0,0.3815799812220574,0.3395551360776644
1,0.3391608364406779,0.3378075603116503
2,0.33804968986487405,0.3380029890087994
3,0.3375837492738597,0.33664367891991676
4,0.33732149309128373,0.3367850790697706
5,0.3376866645212262,0.349683911246457
6,0.33822493239184265,0.33676892806171604
7,0.33672094194060304,0.339709907195808
8,0.33664333263011936,0.33903653418737
9,0.33651033618210213,0.3363097092451835
10,0.3365508955687306,0.3367378583429202
11,0.3366442942389584,0.33704794461517823
12,0.3369019398895185,0.3385941668291929
13,0.3366652443143489,0.337161341686065
14,0.33649699446305814,0.33638727760672316
15,0.3360240872122406,0.33588650146184185
16,0.33609080333781194,0.3411742031446616
17,0.3365288808420673,0.3359042564347163
18,0.3358567874615402,0.33572880027125684
19,0.33572773238661285,0.33583497241681853
20,0.3361210889853723,0.3405975073384524
21,0.33575263808745304,0.3380086717437115
22,0.33597570364174034,0.3382488129225737
23,0.3359261604609615,0.3356619289013252
24,0.33596413991521035,0.33548439933860585
25,0.33557004880939184,0.34660763090887214
26,0.3360604986941959,0.33948333264673547
27,0.3356880435638986,0.33540290319689847
28,0.33551082344756306,0.3355831327096298
29,0.3355846306751831,0.34016064907039256
30,0.3357717287617016,0.33668118594034835
31,0.33543575065294223,0.3353541873124223
32,0.3353548214786143,0.3358116710849697
33,0.3352804999535293,0.33774479649306877
34,0.33568604525542955,0.33613936670076666
35,0.33546371061320307,0.3357544414364041
36,0.33538477359968455,0.33605924070009074
37,0.33524773297013766,0.3363362393746795
38,0.3353468485596689,0.3350157089355926
39,0.33512326336859977,0.3368030455944625
40,0.3352114142774259,0.3352353371185205
41,0.33541179101097846,0.3362710237247786
42,0.33518836057500956,0.33518240557748197
43,0.3352041133891507,0.3368590580064173
44,0.3354787639342913,0.33506465902675653
45,0.3351206421469213,0.33491538838349777
46,0.3351338289619598,0.334939729797253
47,0.3350094803140301,0.33526519253626624
48,0.33526067836721996,0.33560092316449835
49,0.33518750190224333,0.3349365335460393
50,0.33492857128445547,0.3352257417917762
51,0.3349866266764546,0.33485840570492714
52,0.3350862136149219,0.3349199728996391
53,0.33499439685026466,0.3357479107073594
54,0.335085802870423,0.33596407473725476
55,0.33538312740958987,0.3350604735554158
56,0.3349978716393865,0.33485322520615457
57,0.33504562389416664,0.3350189853403757
58,0.33485769625649464,0.3351500761202622
59,0.33496605243791777,0.3358199646820093
60,0.3349324057861195,0.33540774476604746
61,0.3349342165590609,0.33507005541687096
62,0.3349317586651706,0.3366288953087825
63,0.3349143313902093,0.3350484002963889
64,0.3348094033267479,0.33505131556339385
65,0.3349251723731951,0.33488250621125837
66,0.33501992427307226,0.3349531165282272
67,0.3348536587544291,0.3352052444308932
68,0.33487929302739045,0.3349696120817605
69,0.3347820227568189,0.3368520702871572
70,0.33503682272167057,0.33506495692234733
71,0.33500964972566144,0.3399686281762746
72,0.3353441044486139,0.3351393118022086
73,0.3349146218192654,0.335198778858532
74,0.33479370094894256,0.3361739786840353
75,0.3348897492604797,0.33482057207146343
76,0.3348505489746219,0.3347657729394941
77,0.33464144526593265,0.3356620851242057
78,0.33482360165515684,0.33476748820035307
79,0.33500262075964676,0.33469481124867717
80,0.33487635846651936,0.33477549704800835
81,0.33472730299134834,0.3347294238062946
82,0.3349352573854935,0.33475474518677917
83,0.3349617883446045,0.3347432051149119
84,0.33470437745380877,0.3352308707906041
85,0.33478211771582467,0.3357110026689362
86,0.3348236835743171,0.3354556745584312
87,0.3348086825827885,0.33730899030442413
88,0.33483420200725694,0.33541485137551447
89,0.33478692741925,0.33474273504230656
90,0.33465493954904246,0.3346208108058578
91,0.3347595567621562,0.3352957760368731
92,0.33462471978141956,0.33490642343649774
93,0.334794546432958,0.33477743464567933
94,0.3347451853845734,0.3347559994369809
95,0.3346565956945167,0.334903671029293
96,0.3347417971306746,0.3349488047001449
97,0.3346160753423363,0.3351995707579292
98,0.3346494171212691,0.3350844887390382
99,0.33473235864370404,0.3346639373828308
100,0.334744886233924,0.3359702106333902
101,0.3348209946007494,0.3351888488778721
102,0.3346813775487324,0.33524925748337003
103,0.3347775110340731,0.3352278722430194
104,0.33465334536942476,0.3347898740839907
105,0.33464715265529993,0.33518346959058937
106,0.3347596783539298,0.33473848594587924
107,0.3346526442596863,0.3347894264748061
108,0.3347087865595644,0.3345979514673384
109,0.3346224380849856,0.3349525213113944
110,0.33474189549322897,0.3350377376380773
111,0.33463231082221256,0.33465418889639975
112,0.33465905316296346,0.33479767935689564
113,0.334600785751159,0.3347182844384579
114,0.33457024600742374,0.3353785347249319
115,0.3345032062256532,0.3350677041604126
116,0.33462710754093655,0.3346548085549659
117,0.33457222102285705,0.33462098630133225
118,0.3345280754021625,0.33477196882317356
119,0.3346576697268204,0.3350153774725038
120,0.3345686355971337,0.33514081257568945
121,0.33453441919130056,0.3349287421851393
122,0.33462747401803156,0.3346367286921058
123,0.33468682107799486,0.3349592408735696
124,0.33456294813979787,0.3347508479747323
125,0.3346452208223894,0.3354039513196884
126,0.33476955085716276,0.3346718785849577
127,0.33463404735525026,0.33614347954888923
128,0.33455668778014475,0.33575111672250313
