epoch,loss,val_loss
0,0.4331141649175891,0.2930805097439201
1,0.2755428900559553,0.2627518799188293
2,0.2782978615183815,0.24850788111515468
3,0.24697305286507146,0.23127552125994014
4,0.2386333009869837,0.20355494333329685
5,0.23053239665919548,0.21342086141610014
6,0.23198295729480486,0.21301249844546194
7,0.2350039509453362,0.21465482098809735
8,0.23260918487723972,0.2627208010361904
9,0.23802628533707726,0.21700004961609182
10,0.2327853170134943,0.21800685794502145
11,0.22894903272390366,0.20027008083455658
12,0.22944003957614814,0.22665165617603342
13,0.23554261006730542,0.21887826818411238
14,0.23292661008598517,0.1969470502169187
15,0.22910837800525646,0.22984841903458456
16,0.23531710345158094,0.23362062665639002
17,0.233114028523723,0.2082195999637399
18,0.23538250539252323,0.23280342680643934
19,0.2301979445748859,0.210624198087483
20,0.23267325749404902,0.22808701262148517
21,0.23109457453044294,0.21493887791929042
22,0.23398930395988346,0.20704099366583972
23,0.23243145770925602,0.21716559789457374
24,0.23139605508576766,0.23311983734580977
25,0.2316897363721324,0.22245426688875472
26,0.22499828427720317,0.19704300025220733
27,0.22848464192436943,0.21132745555563057
28,0.22956697498079684,0.20070033284652486
29,0.2266896731144995,0.2129719668753804
30,0.22604433068935628,0.2156150292813919
31,0.22739965375140608,0.20925333973640706
32,0.22961074908931764,0.21272086959564507
33,0.22678809470052627,0.2091530681291526
34,0.2304893789841212,0.2064892149926549
35,0.22840836371997184,0.21680555375617794
36,0.2284819119029956,0.20836277648324372
37,0.22912329407952292,0.21285994329740424
38,0.225322092275063,0.2168185662098917
39,0.22790655080410693,0.20416726081410824
40,0.2252253878245251,0.20178031240425998
41,0.22840810695783698,0.2149841250894384
42,0.22503651564212726,0.211194445074028
43,0.22706866863486674,0.20296041571021362
44,0.22634283164374644,0.23494943966993498
45,0.22590296926925318,0.21370278261219694
46,0.2269064696382085,0.21058657520760113
47,0.22930940572354053,0.22648434522072913
48,0.22849388823187133,0.20913980116783962
49,0.22932784966260886,0.19877826331305334
50,0.22877815964339163,0.23199399555397485
51,0.22878819216283963,0.2168451210670614
52,0.2308248347110695,0.21402929858514053
53,0.22891396807609415,0.21280040474933437
54,0.2258748990609396,0.2109494278444111
55,0.22651810063827904,0.21722656700116214
56,0.22623961649948268,0.21451476400963604
57,0.22789707690548838,0.22513756999229953
58,0.22548415878717656,0.2271396626425053
59,0.22778055214767548,0.2214386622173728
60,0.2292475116600712,0.2058136853629807
61,0.22803807512914342,0.20924525075807474
62,0.22781187049943288,0.19653027491157415
63,0.22689256126836813,0.2146345137162009
64,0.2274230350490859,0.21789497522829834
65,0.2277895767959378,0.2149751679391116
66,0.22927884278680494,0.20189115797899423
67,0.2258823096549673,0.19998299563928393
68,0.22772519205876296,0.2228583052883773
69,0.2285253978568873,0.2034024091668268
70,0.22738838675234624,0.21626096260575864
71,0.2264174732515852,0.21009755167513264
72,0.22611031799817638,0.20266327545364352
73,0.23053081351504337,0.2111754664400006
74,0.2277248773238451,0.20890379728251024
75,0.22536277213542583,0.20574181590996676
76,0.2278251413294642,0.19694433672369796
77,0.22745203073743245,0.20572790175370562
78,0.22589248986386185,0.22048717571368062
79,0.2268864242650336,0.20016069066929082
80,0.2260209107153612,0.2123102963958656
81,0.22660587111608588,0.22015239500632508
82,0.22653152854394,0.20249830588592538
83,0.22645733288104394,0.20342649585304998
84,0.2261992517552025,0.21036343290613876
85,0.22766027395888197,0.2053901420137312
86,0.22704143344546013,0.22641716120086885
87,0.2263116941129942,0.2091700683899912
88,0.22512191856245725,0.22037888973974862
89,0.22534278557478762,0.20467334631727546
90,0.22736183064375565,0.1978201471451426
91,0.22702677404994873,0.21274983273685308
92,0.2261987523042517,0.22151208895346078
93,0.2271010318367506,0.200280213847627
94,0.22597795776087792,0.2060236561317188
95,0.22648860198511875,0.23020165803494563
96,0.22646451928465963,0.19618504266853679
97,0.22479942505308192,0.2087496981648074
98,0.2267691830126978,0.2036859414995234
99,0.2248699229052789,0.20263619161113192
100,0.2250404951514767,0.21041512783343339
101,0.22577806114912224,0.20120632715505601
102,0.2251481752065446,0.21460862322500962
103,0.22959166752706042,0.19827425661008002
104,0.2247111271444461,0.21408390590734339
105,0.22482211211864517,0.2140515698347867
106,0.22826355327066664,0.19378265090457267
107,0.22314529639663552,0.21599875770409274
108,0.22830421901006492,0.20792765362627785
109,0.2272202974433998,0.21466116737736052
110,0.22511763851657854,0.20758399956557538
111,0.22479405385150994,0.20678576805879492
112,0.2243880398756118,0.2149226335954177
113,0.22674855674437577,0.21757816376889325
114,0.22706101250519856,0.20006485057563977
115,0.22955145425409626,0.21168322230806103
116,0.22563227419134715,0.20759844550629158
117,0.22736276044762677,0.21388632889422451
118,0.22621586463219828,0.21392791871725336
119,0.22630594000160742,0.20760537914478977
120,0.2243926664360231,0.21574087790268656
121,0.22544820952734693,0.19946768902236303
122,0.22621696738363933,0.22263491519483508
123,0.2234104948280622,0.2062708250090374
124,0.22662821850426002,0.21171503692230279
125,0.22471126580505157,0.20679016612417225
126,0.22446362001837777,0.21360017594476338
127,0.22565299822248333,0.20021423169403632
128,0.22344775385946203,0.2131014118395928
129,0.22692289046174902,0.19758442060723488
130,0.22598335054590643,0.20461917686810527
131,0.2276119231748924,0.21629526330291896
132,0.22681757292563587,0.20941783499557762
133,0.2262337883349231,0.21640059050840002
134,0.22733117639422892,0.2039765071803035
135,0.22740667045330828,0.22307685720892337
136,0.22676332677296884,0.19702088549415617
137,0.22919235171841013,0.20233525753303505
138,0.22626043470214596,0.21517285235349645
139,0.22735676230143587,0.21232248372277032
140,0.22762551451091476,0.21710343582477734
141,0.22542258190641776,0.2081406999852776
142,0.22537622905130103,0.2156000653283278
143,0.2265869683320288,0.19830267050177824
144,0.22459536790252208,0.2128948833567003
145,0.22470798789501953,0.2094001094586471
146,0.22508089155030192,0.2246608097509032
147,0.22419014040657656,0.22155929885469466
148,0.22807512765260432,0.20012338611208366
149,0.2265047692328239,0.20720258904378436
150,0.22742002316825777,0.21452574700046545
151,0.22685443016169646,0.19461293743177954
152,0.22604088554922624,0.21235770134118567
153,0.22920637375278344,0.19935012249468628
154,0.22413855560606333,0.20314132934399448
155,0.22592133982218712,0.20866999472326053
156,0.23062545326140096,0.21551197002794015
157,0.2279377720660443,0.20670432395697957
158,0.23125860953836036,0.2193407508667379
159,0.23140797287606887,0.2132756291008786
160,0.22818594938106865,0.22038224148957297
161,0.22819164402479175,0.20369162551041373
162,0.22805559473762885,0.21056877776404112
163,0.2320656028094528,0.21360755552432625
164,0.2252327305950421,0.23248192276320498
165,0.2260007512131088,0.21893014839388011
166,0.2237680236474692,0.21052357372140545
167,0.22469269542051828,0.21253693411927949
168,0.22663475302674121,0.22062268545049896
169,0.225807186552613,0.2051201573886924
170,0.2249911690978028,0.19816075712324788
171,0.225728275607244,0.19453379517713681
172,0.22590172016839805,0.20634259275309946
173,0.2259124857749489,0.22016992319401738
174,0.2277473308961931,0.21640476689107227
175,0.22666052068404252,0.20599349813378506
176,0.22683062786154515,0.20673639071486366
177,0.22421405082650417,0.20205343576426005
178,0.22487750549992022,0.21181921829082126
179,0.2268114978496691,0.2068321021198756
180,0.2261674692102378,0.20383181665813066
181,0.22482152871614833,0.2019802640532544
182,0.22449745440916669,0.21234119978116645
183,0.2283215320867886,0.20136181397426758
184,0.22745266173788303,0.213408080147963
185,0.2251893957610801,0.20077708441155487
186,0.22599165621016332,0.2033505689679118
187,0.22719330400776425,0.20853562741272075
188,0.22978043114300445,0.2167275971964578
189,0.23062728037484448,0.2061995588942786
190,0.22988526807200138,0.20285482355338338
191,0.22739320190595114,0.2002532194003216
192,0.22819604630545556,0.208498770690096
193,0.2294036062429849,0.22203803646959652
194,0.22744461029267712,0.2029540648988221
195,0.22684541624560536,0.20302144783213089
196,0.22872998810810247,0.2073997275722996
197,0.2292800546943141,0.22156845059042948
198,0.22998941918428567,0.2019615682002213
199,0.230115217508839,0.21366854344848205
200,0.2315372540403327,0.2241939238868742
201,0.23481177629755556,0.21292228251107584
202,0.22899119100934692,0.20352550022651006
203,0.22445324256861335,0.2309556971667974
204,0.22523371793097444,0.20540720718341637
205,0.22709831603758818,0.19763862214035752
206,0.22705770815185886,0.20979517986431964
207,0.22605003483837646,0.22641456494109313
208,0.2299649221457833,0.2100744322236354
209,0.23368226378250848,0.21405995316691726
210,0.23058783782305095,0.20733733508139027
211,0.22919410520749126,0.20829248416583748
212,0.22660400688672047,0.20384849453875656
213,0.22616718851214498,0.209649032968278
214,0.22498759093711512,0.1978042149459083
215,0.2258155197917605,0.2064276118869375
216,0.22729475216733086,0.21457495171673766
217,0.227209672212696,0.19373619589357746
218,0.22615968692097826,0.22187585813517446
219,0.23260046863298622,0.2027890862281057
220,0.23082463507005255,0.20647533267336562
221,0.23277390853678295,0.20292234152626032
222,0.23328720546550125,0.20450710898651886
223,0.2321196425852063,0.20904721431404752
224,0.23195708708035098,0.20992371996228112
225,0.23556764508418138,0.22919595655533115
226,0.2345898796995576,0.2080810267857519
227,0.23620904953502636,0.21227784619476256
228,0.229445239759797,0.215071708810734
229,0.2279727401660024,0.22296165673160703
230,0.22814930133301195,0.20255117614671952
231,0.22695438208863986,0.21010241226455595
232,0.22605872215579548,0.21863763765876654
233,0.2270405039095955,0.20838778598297272
234,0.22786446512460137,0.2145792021230157
235,0.229797160108503,0.19908438680580307
236,0.22821921969560696,0.20610222202779369
237,0.22774864831488195,0.22967894969253722
238,0.2270228504407987,0.20235848797289707
239,0.22765958264505834,0.20578185310726949
240,0.22742770244177582,0.20132253326669677
241,0.22904509357172997,0.21717611705588843
242,0.22953074875709822,0.21774995619844242
243,0.22874182741419016,0.21382033027526234
244,0.22774984944852994,0.22543042266613494
245,0.22849913071290098,0.2043550022846145
246,0.22878178571768515,0.2203579452109318
247,0.22537280054544087,0.21449573846106088
248,0.22750243451669633,0.2188257638779605
249,0.22726050518947444,0.21116460557518366
250,0.22697471692669782,0.2237852003128395
251,0.22845803885508498,0.21023281572508642
252,0.2272940762906814,0.21414447839841563
253,0.22655469682410084,0.20458489992812381
254,0.22755053525062488,0.20990452745483915
255,0.2262882320202893,0.20819987430756923
256,0.22587280120137784,0.2104561684304744
257,0.2291298297871884,0.20605876549031665
258,0.22743631090572794,0.20294466232491368
259,0.22526017922482236,0.20096219897317247
260,0.22649869955272126,0.20786343318510922
261,0.22548375811150892,0.21881646870531807
262,0.22818151235485154,0.20589356046778626
263,0.2277585405537741,0.21190629192666924
264,0.22528646830960716,0.20277102858463233
265,0.22584127669306778,0.21796394850479495
266,0.22768163745351833,0.2034736284140818
267,0.2273697031618689,0.20056064825596165
268,0.2265075353516949,0.21044303779067633
269,0.22878723889351082,0.20772481370414442
270,0.2264040786799767,0.20419113427377067
271,0.22623130180042902,0.2042260968553427
272,0.22573465472764725,0.2094537676933156
273,0.22925521427993295,0.2165014551277695
274,0.2297891513120642,0.20659992147028305
275,0.23273199093904046,0.21530062834061123
276,0.23057131448404775,0.22658118135174524
277,0.2299902777520301,0.20106080561382336
278,0.22608445979041353,0.21670138679485954
279,0.22726750346444113,0.22016600475315043
280,0.2263051320334895,0.20094165439999
281,0.22752372132574053,0.20561012650392332
282,0.2269108722404801,0.2055406996064423
283,0.2269508789757268,0.20694446475513356
284,0.22726649090611964,0.206463194366224
285,0.22614469104628865,0.21486991726232496
286,0.22743952769241174,0.2042302766251771
287,0.2282454901152282,0.21631319072882585
288,0.2274496631620885,0.20752322191597442
289,0.2308066338479376,0.2102864828745775
290,0.23094965597327283,0.21742234870074015
291,0.23729397863935794,0.22406731044907408
292,0.22985693898132378,0.20327878759287432
293,0.2339794135077013,0.24126957910871918
294,0.23396685454461405,0.20209821380069148
295,0.2298456851384051,0.2018668473519579
296,0.23147719242065834,0.2119707405543647
297,0.22866755364824543,0.21866918491065832
298,0.2300933674394751,0.21194277562630298
299,0.23257881961018442,0.20578953198024205
300,0.23051731138349438,0.21232987433413208
301,0.23030426091760944,0.2079168005825124
302,0.22916165632095267,0.22395569391860298
303,0.22861566626839785,0.22666170882633002
304,0.2283595897835031,0.23065704182554816
305,0.22896692076389738,0.21552244831985062
306,0.23204678322056788,0.22438818831423088
307,0.22809335607871545,0.2073740453562966
308,0.22730780838371561,0.22101402299180214
309,0.22927815847092872,0.22418292336042414
310,0.2270725308943519,0.22385359371423533
311,0.22764097150567053,0.21759924381947837
312,0.22843510472326636,0.2044068770843316
313,0.2302411401824509,0.20101107085372108
314,0.22698864347333436,0.210779018894179
315,0.2273066533590964,0.23144812315067345
316,0.22752052715880502,0.2107708635486386
317,0.2277652909465545,0.2146269250028982
318,0.22856979061969274,0.2259347698024247
319,0.22758262102409518,0.21996330797390007
320,0.23033720864761742,0.21495575318443746
321,0.22863788700265755,0.21603769353269683
322,0.23034119843650494,0.2120156071392118
323,0.22969243474167694,0.20587749178238338
324,0.2293619781339483,0.2018890310999156
325,0.22630542764465492,0.2064283676827716
326,0.22933133473570685,0.2254463112203738
327,0.22865697668848944,0.21690816735082852
328,0.22835681022261733,0.20034616171796207
329,0.227568321865049,0.20522395082129768
330,0.22962738951738124,0.2227144762697235
331,0.22686630677428843,0.2076058964985228
332,0.22872390124580558,0.2199415769766143
333,0.23057774036860676,0.211025636099226
334,0.22781164259861986,0.20748391647506342
335,0.22969339513997855,0.21655023454349626
336,0.22857237703723016,0.2035786446592614
337,0.22974245465225834,0.22257433923427383
338,0.23144046698423693,0.20631090675693098
339,0.23073503372075554,0.20413138199341796
340,0.2297457978129387,0.21787061707514332
341,0.23236373247359868,0.20777546427996965
342,0.23270078480458087,0.21446039822267188
343,0.23071294686467433,0.20730287156522792
344,0.23120630127515535,0.22948465757983447
345,0.23068635558172002,0.2038630230768327
346,0.23180678093747842,0.20007214687570588
347,0.23018967030312326,0.21898099988252043
348,0.23031136731830815,0.22641519231879062
349,0.2340147157402919,0.21299772491441907
350,0.23206955446399374,0.2042049023116209
351,0.22999725590268674,0.21452592051019798
352,0.2334204693075469,0.22522883193645313
353,0.23052070931874685,0.19894298473586222
354,0.23444278428642204,0.21499645039615617
355,0.2316754451996798,0.2132566366124172
356,0.23107555669417484,0.21593379089939566
357,0.231621075138676,0.21723587689855103
358,0.23037895120733934,0.21434566816101888
359,0.23024301753222323,0.1989433686848033
360,0.23084485973361776,0.2189000146470864
361,0.23056208122548438,0.20614530288429833
362,0.23011593527788166,0.22768150942713233
363,0.22945865088229556,0.20467210879171563
364,0.23382187613861546,0.21697077679652912
365,0.23112957368342044,0.2061371495146025
366,0.230591895536696,0.2252817357866051
367,0.23072798473895978,0.20706146891980823
368,0.2333990375605895,0.21306043942095074
369,0.23158311630062442,0.2197142828258832
370,0.23077460655348478,0.21533462652185345
371,0.2298857936982533,0.21851304574518948
372,0.23044657275426111,0.20423162962003497
373,0.23154046160759303,0.20363572735013036
374,0.23104435151858296,0.21373638314295682
375,0.2309829006008774,0.2137508969915694
376,0.2296671770650039,0.21215547217848552
377,0.22951865340951536,0.20797158522500517
378,0.23350765411373522,0.22656998153549532
379,0.2343707947279338,0.2165972917401706
380,0.23046271627445777,0.21325159369252664
381,0.23162305221068774,0.20492202068231383
382,0.22990997468562815,0.21119420758456628
383,0.22947115114600444,0.21109656560298676
384,0.22896940233729346,0.21609016185025107
385,0.2302358206048858,0.2155356789750195
386,0.22921532200132724,0.22249562859582261
387,0.23061137365923226,0.21513032742673804
388,0.23074061323484357,0.2146014174844867
389,0.22944948846082702,0.2254230946937507
390,0.23087371593947223,0.2155685547001266
391,0.23112272252019742,0.21921082030343747
392,0.23198514668751868,0.2131535538252452
393,0.2295428284292789,0.22246724878744337
394,0.23070407025724482,0.23006957837607603
395,0.22982405406608283,0.21040177681639896
396,0.22977589292944572,0.23058279331453033
397,0.23282303814765073,0.2195650723004962
398,0.2320673733199243,0.2089686510289101
399,0.23037633566642932,0.22074221792000903
400,0.22971093338384901,0.225729088509939
401,0.228794403237214,0.23040463855959056
402,0.22877431989645214,0.20471338793670651
403,0.23198004392720908,0.21303106962034998
404,0.2274564524396337,0.2161659852975734
405,0.22994389205718402,0.21458158795534388
406,0.23076214896832153,0.2095028541058937
407,0.22926512162248008,0.22561210573848628
408,0.23140714203210758,0.22424383690814476
409,0.22970592017344338,0.2243471103878405
410,0.23187328509980445,0.2223241240397719
411,0.23194330555500745,0.22779760255104176
412,0.23056994603096628,0.21662795108514407
413,0.2289641212335498,0.20901013220400913
414,0.22954976655763212,0.213699572088216
415,0.2329755212120015,0.22483297951972286
416,0.22933712921482768,0.22313397365380389
417,0.23132412859218585,0.20558196173329568
418,0.2312885379369596,0.21425281026369017
419,0.23068731099510079,0.2153601609846693
420,0.22882839261318186,0.22160175459160988
421,0.2318531510164793,0.20538748747830138
422,0.2286953251841638,0.2107653201990647
423,0.2317786722076978,0.21159881209894343
424,0.22981043288009248,0.21235172096536964
425,0.23037759594017748,0.21933440130201023
426,0.2320523767960634,0.21565719007645992
427,0.2328177062120083,0.22588477078487107
428,0.229600185678779,0.20620997594676813
429,0.22943839267027274,0.21831963607054952
430,0.2292518702616318,0.2113525045252072
431,0.2309689567707997,0.21082530972189853
432,0.23004935641321156,0.21146532982564292
433,0.2288588995663382,0.22141522892413407
434,0.23042555455919458,0.21026033317139511
435,0.23108032799000552,0.21125336888745344
436,0.23091970013080837,0.21314309429209724
437,0.23109498005405033,0.22132296539143304
438,0.23003593950177267,0.21571951719984447
439,0.22891659006107148,0.20875900908540154
440,0.2279254841409046,0.2172493053145924
441,0.22918105093862037,0.2082574820908958
442,0.22981736719679774,0.20663476097320324
443,0.22948241532206248,0.23677057567645737
444,0.22813393581185124,0.20991320335309901
445,0.2298759545901601,0.21905881827425186
446,0.2301407403511395,0.2249982467578355
447,0.23009475836936805,0.21857772262997766
448,0.23231890457544585,0.21041867769695966
449,0.23203465007215762,0.21486651893902126
450,0.23114749791024686,0.21090826745003155
451,0.2295599962881715,0.21642798475844707
452,0.22971219552768696,0.21570251458680997
453,0.2307233925846269,0.23711069254020867
454,0.23082891997578237,0.22104141149073017
455,0.23033107129289665,0.21787808503846814
456,0.2284413768078307,0.21984097482702727
457,0.23072749573430665,0.22650631393093523
458,0.23078978670348557,0.21582783830382266
459,0.23058257573585716,0.20146321271852705
460,0.23142715196886796,0.2137257270250343
461,0.2310753577201963,0.219446964979454
462,0.23199458992023833,0.20261629270397027
463,0.22934979371887318,0.2118282743745087
464,0.22878694720119594,0.22963531290628633
465,0.2290430397843476,0.22504888649003751
466,0.23154141933774108,0.22908950370648948
467,0.2306529913338826,0.21684592482417045
468,0.23182395932604846,0.21566812088382273
469,0.23223382340584822,0.21849743861943224
470,0.23216130838191196,0.2214216192171342
471,0.22791677057076035,0.21146781476774645
472,0.2306331979642383,0.2069909391482232
473,0.228598801358093,0.1986357353880543
474,0.22962774127292976,0.21823610180743397
475,0.2311456010972472,0.22389410250329933
476,0.22908809566073757,0.2078035779961847
477,0.23016594978664323,0.20620892632637988
478,0.22903913208882776,0.2131717136481096
479,0.22976622480949718,0.21496774209185482
480,0.23260352276354956,0.21010012918790683
481,0.23138658716071614,0.21124949844314436
482,0.23144601123462574,0.20764012891143538
483,0.22892794300683683,0.20649094455055864
484,0.22979016071982045,0.22988673166063892
485,0.22918365606896693,0.22094615717619165
486,0.22970123017291658,0.21874711216201723
487,0.2305908284956317,0.20985542014300024
488,0.23117436641316524,0.2045973614387467
489,0.2292738884187145,0.21584968791058803
490,0.2323664722087191,0.20621196666898553
491,0.23021935852025624,0.21413216154784223
492,0.22822108411555478,0.2031115512727468
493,0.23067969031971422,0.2083976888571937
494,0.23055291898864255,0.21807260638442488
495,0.23254568451385704,0.2158462286771708
496,0.23010612948597384,0.2114214674167588
497,0.22849527343238096,0.21041164558377903
498,0.2293234579354453,0.20785483353328027
499,0.2304967162098816,0.20637967909709054
500,0.2292023717070655,0.21290090714229215
