epoch,loss,val_loss
0,0.44796488829453784,0.4457587174971898
1,0.44517120254039766,0.44497698865334195
2,0.44488732805516984,0.44468571231762566
3,0.4447193108664619,0.44463862001895904
4,0.4446652000149091,0.44459607563416165
5,0.4446344063480695,0.44458546123902004
6,0.44461127405034173,0.4445332939227422
7,0.4445971346696218,0.4446035192608833
8,0.4445869208044476,0.444602607468764
9,0.44458026307821275,0.4445789099931717
10,0.44457383286290697,0.44461245969931285
11,0.44457158445649675,0.44453144693374635
12,0.4445626848737399,0.44453880953788755
13,0.44456367405917907,0.4445510592857997
14,0.4445594842897521,0.44456863997379936
15,0.44456239806281195,0.44453540647029877
16,0.44455757602718143,0.44453738725185393
17,0.4445547911193636,0.4445251801609993
18,0.44455259393321145,0.4445806025465329
19,0.44455341210630206,0.4445561753511429
20,0.4445518590476778,0.444693080107371
21,0.44455022074778877,0.44462314881881077
22,0.44455180093977187,0.44455234297116597
23,0.4445459808773465,0.4447635796864827
24,0.44454983013206056,0.44454368152221047
25,0.4445452077256309,0.44454227058092755
26,0.44454671969678666,0.44452963892618813
27,0.44454629380173155,0.44453012879689535
28,0.4445533792906337,0.44454861360788345
29,0.4445471819771661,0.4445569663643837
30,0.4445438989202182,0.444534651974837
31,0.4445452416406737,0.4445401590863864
32,0.44454413361019557,0.4445102489590645
33,0.4445478144817882,0.4445174470543861
34,0.4445429830153783,0.44454944427808124
35,0.44454146479235757,0.4445085956255595
36,0.44453878031836613,0.444559765736262
37,0.4445396504203479,0.4445168907046318
38,0.44453798241085474,0.44451334337393444
39,0.44453731891181736,0.4445166967511177
40,0.44453618235720527,0.4445310990214348
41,0.44453437380658256,0.4445116967956225
42,0.44453417592578465,0.4446667718291283
43,0.44453475758102207,0.4445166314641635
44,0.4445351187851694,0.44452466372648874
45,0.44453449779748916,0.4445746002793312
46,0.4445340264903174,0.4445388901432355
47,0.4445322394238578,0.4445146509408951
48,0.44453364212645424,0.44452500901619596
49,0.44453548000918497,0.4445159845352173
50,0.44453363337781693,0.44452003876368207
51,0.444532944381237,0.44453802186250685
52,0.44453225490781995,0.44451854594548545
53,0.4445311531556977,0.44450958162546156
54,0.44453282719188264,0.44452267968654635
55,0.4445318015548918,0.44455355856815976
