epoch,loss,val_loss
0,0.6681912925508288,0.6668953823248546
1,0.666935845931371,0.6668310236136119
2,0.6668545240031348,0.666749943057696
3,0.6668182397683462,0.6667813913027445
4,0.6667982640001509,0.6667291669845581
5,0.6667845110230975,0.6667473537127176
6,0.6667763823403252,0.6667399777968724
7,0.6667696475717757,0.6668419021765392
8,0.666761246032185,0.6667194882233938
9,0.6667567596303092,0.6667138840357463
10,0.666749529507425,0.6667395666440328
11,0.6667434816228018,0.6667226577599843
12,0.6667406977150175,0.666740645368894
13,0.6667399965524673,0.6667290761868159
14,0.6667372910181681,0.666737806280454
15,0.6667375576628579,0.6667420236666998
16,0.6667376344733768,0.666746901790301
17,0.6667339978085624,0.6667110241651535
18,0.666733250313335,0.6667292575438817
19,0.666731423523691,0.6667196058432261
20,0.666732694943746,0.6667221004962921
21,0.666731533381674,0.6667523159980774
22,0.6667307270103031,0.6667070390780767
23,0.6667301411231359,0.6667241919438044
24,0.666731350130505,0.66675051343441
25,0.6667286015219158,0.666707146525383
26,0.666728367196189,0.6667098630666732
27,0.6667281697856056,0.6667171190977097
28,0.6667280076874627,0.6667277898788452
29,0.6667265886995527,0.6667333882252375
30,0.6667259807056851,0.6667731699546178
31,0.6667268410258823,0.6667106107473374
32,0.6667248451444838,0.6667521819273631
33,0.6667255552212398,0.6667446694374084
34,0.6667248176998563,0.6667254736820857
35,0.6667248877286911,0.6667101106643677
36,0.6667235503991444,0.6667323808272679
37,0.6667238800260755,0.6667127656936646
38,0.6667228763368395,0.6667114377419154
39,0.6667226989666621,0.6667173496882121
40,0.6667238355212741,0.6667154991229375
41,0.6667234420246548,0.6667059433460235
42,0.6667221048672994,0.666736900528272
43,0.666721824089686,0.6667134077151616
44,0.6667216799126731,0.6667104194164276
45,0.6667216800981097,0.666709719379743
46,0.6667201358874639,0.6667029699087142
47,0.6667193975316154,0.6667060361305872
48,0.6667192634476555,0.6667183170318604
49,0.6667195107671949,0.6667064741452535
50,0.6667184456719293,0.6667105683485667
51,0.6667180633809832,0.6667055263121923
52,0.6667186862230301,0.6667189571857453
53,0.6667179495626026,0.6667009857098262
54,0.6667182006173664,0.6667275067170461
55,0.66671771396531,0.6667113990386327
56,0.6667177292903265,0.6667036668459574
57,0.6667179838286506,0.666715958515803
58,0.6667167992724312,0.6667068641583125
59,0.6667167503966226,0.6667349150578181
60,0.666716758078999,0.6667070630788803
61,0.6667161308791902,0.6667199637492498
62,0.6667170447905858,0.6667270781993866
63,0.6667161299652523,0.666702870329221
64,0.6667158039808273,0.6667042779525121
65,0.6667166570557488,0.6667092463970185
66,0.6667158239417605,0.6667056481440862
67,0.6667162180476719,0.6667121502955755
68,0.6667160707314809,0.6667038051287333
69,0.6667161623107063,0.6667021339337031
70,0.6667161164813572,0.6667057295242945
71,0.666715036590894,0.66672709329923
72,0.6667154108418358,0.6667073502143224
73,0.6667164162662295,0.666712707678477
