epoch,loss,val_loss
0,0.44640443068080476,0.44475597673654554
1,0.4447599133716689,0.4446197302142779
2,0.4446607622901599,0.44497370219230653
3,0.44462367609474396,0.4448759947220484
4,0.44460769432783126,0.4445464917818705
5,0.44459844324323866,0.4446564193367958
6,0.4445874378879865,0.4445908742547035
7,0.4445812981128693,0.44455152108271917
8,0.44457044056389067,0.4445349779923757
9,0.4445643701089753,0.44456221141417823
10,0.44455995800097786,0.44450921736160914
11,0.44455856440464653,0.4445468365748723
12,0.4445517022543483,0.44451333077748617
13,0.44455168743928275,0.444520701388518
14,0.4445476146671507,0.444535928328832
15,0.4445466580589612,0.4445164165695508
16,0.44454535952541563,0.4445385601123174
17,0.44454109564754696,0.44451449674367904
18,0.44454227101802823,0.4446542244354884
19,0.44454015526506635,0.44460166068871815
20,0.4445379343231519,0.44451262114445367
21,0.4445372372004721,0.4447118887901306
22,0.44453573424948584,0.44451417138179145
23,0.4445329043070475,0.44465718100468316
24,0.4445305026372274,0.4445114549994469
25,0.44453015367852317,0.44452272657553354
26,0.4445288058320681,0.44451028805971143
27,0.44452860351403556,0.44451054686307906
28,0.4445281066232257,0.4445092739065488
29,0.4445267800887426,0.44451127980152766
30,0.44452434363630083,0.4445158923268318
