epoch,loss,val_loss
0,0.5572841846545538,0.5559148959318797
1,0.5558471751875348,0.555715062379837
2,0.555749902566274,0.5556378971735636
3,0.5557127993371752,0.5556248936255773
4,0.5556945788595411,0.5556455256144206
5,0.5556736458407509,0.5557601210276286
6,0.5556688308583365,0.5556462458372116
7,0.5556616699298222,0.5556369183858235
8,0.5556537262068855,0.5556183531284332
9,0.5556513849496841,0.5557111967404683
10,0.5556485398213069,0.5556114708979925
11,0.5556422399150001,0.5556289129257203
12,0.555640370408694,0.5556558870077133
13,0.5556375985145569,0.555628947019577
14,0.5556362796359592,0.5556316508452097
15,0.5556342624293433,0.5557066195805868
16,0.5556322884427176,0.5556189150810241
17,0.5556303228007422,0.5556129941542943
18,0.5556299181116952,0.5556101745764415
19,0.5556280511750116,0.5556318713029226
20,0.5556273113489151,0.5556148446798325
21,0.5556263295676973,0.5556112348635991
22,0.5556249810059866,0.5556592089732488
23,0.5556255932251613,0.5556470567385355
24,0.5556243853171666,0.5556634739240011
25,0.5556239926947488,0.555614790558815
26,0.5556236289739609,0.55561308046182
27,0.5556218643983205,0.5556232993205389
28,0.5556228731738196,0.5556338044007619
29,0.5556213916142781,0.555602570215861
30,0.5556186859607697,0.5555996882518133
31,0.5556172124014961,0.5556130183935165
32,0.5556151376167933,0.5556492465734482
33,0.5556164753172133,0.5556085572640101
34,0.5556152481767866,0.5556024063825608
35,0.5556150098774169,0.5556025356849035
36,0.5556145482195748,0.555608463605245
37,0.5556149204439587,0.55559594476223
38,0.5556150492694643,0.555607795715332
39,0.5556151900821262,0.5555991732676824
40,0.5556133384307226,0.5556030723253886
41,0.5556135711669922,0.5556031672954559
42,0.5556123518943786,0.5555959575176239
43,0.5556126768986384,0.5555977626641592
44,0.5556128346655104,0.5556211870908737
45,0.5556122878922356,0.555633682290713
46,0.5556124764680862,0.5556005650361379
47,0.5556126264995999,0.555614096959432
48,0.5556120195388794,0.5555973344246546
49,0.5556119607819451,0.5555981220006943
50,0.5556123408344057,0.5556002343893052
51,0.5556123292843501,0.5556130506594976
52,0.5556111314429177,0.5556311448812484
53,0.5556114605135388,0.555595782995224
54,0.5556131364769406,0.5556036949952443
55,0.5556115004618962,0.5555990648269653
56,0.55561192062166,0.555604436437289
57,0.5556114196512434,0.5556005084117254
58,0.5556116955280304,0.5556084130605062
59,0.5556124525070191,0.5556131552060445
60,0.5556114883025487,0.55559987394015
61,0.5556122883293364,0.5556207683086395
62,0.555611843056149,0.5556008117993673
63,0.5556105248795615,0.5555959951082865
64,0.5556124181085162,0.5555963810284933
65,0.555611580491066,0.5555977813005447
66,0.5556111583842172,0.5556363681952159
67,0.5556115193499459,0.5556253683964412
68,0.5556116567982567,0.55560666735967
69,0.5556110894282659,0.5556031911770503
70,0.5556107772456275,0.5555939526557923
71,0.5556105568673876,0.5556661339600881
72,0.555611428618431,0.555621192574501
73,0.5556112202538385,0.5556014092365901
74,0.5556103152169122,0.5556047513484955
75,0.555610893925031,0.5555979990561803
76,0.555611157880889,0.5556159689426422
77,0.5556104188627667,0.5555959099928538
78,0.5556101056204902,0.5556091819206873
79,0.555610135184394,0.5555961002111435
80,0.5556114089621438,0.5556322835286458
81,0.5556100836462444,0.5556351348559062
82,0.5556105949878692,0.5556050284703573
83,0.5556104228496551,0.5555989877780279
84,0.555611337184906,0.5556042213837306
85,0.5556107222239176,0.5555990614891052
86,0.5556104081206852,0.5555993473132451
87,0.5556110920641157,0.555596212387085
88,0.5556104953289032,0.5556285510460536
89,0.555610614154074,0.5556025081475576
90,0.555610732489162,0.5556016000906626
