epoch,loss,val_loss
0,0.5578913443485896,0.5564586320320766
1,0.5560916199419234,0.5559137349526088
2,0.5558974314000872,0.5558602945804596
3,0.5557698511017694,0.5556766956249873
4,0.5557294883330663,0.5557021323839824
5,0.5557031158076392,0.5556390962600708
6,0.5556860407325956,0.5556421584685644
7,0.5556740315225389,0.5556624861558278
8,0.5556678843895594,0.5556363492409389
9,0.5556643048789766,0.5556410695314408
10,0.5556620146830876,0.5556336869796117
11,0.5556567767196231,0.5556526170174281
12,0.555653517153528,0.5556646658182144
13,0.5556523389816285,0.5556173487504323
14,0.5556501484182146,0.5556425402561823
15,0.5556464644802941,0.5556144533952078
16,0.5556457088523441,0.5556208199659983
17,0.5556436057355669,0.555807055036227
18,0.5556435782512029,0.555670485218366
19,0.5556443522903655,0.5556278000275294
20,0.5556402891079585,0.5556737544933955
21,0.5556396810478634,0.5556126998662949
22,0.5556399699052175,0.5556137725909551
23,0.5556368031104406,0.5556457940737406
24,0.5556372654438019,0.5556509282588958
25,0.5556365791559219,0.5556309612592062
26,0.5556373820702235,0.5556313880681991
27,0.5556374370919334,0.5556190679868063
28,0.5556366382175022,0.5556222505966822
29,0.5556414744059245,0.5556222801208496
30,0.555638965619935,0.5556396034955978
31,0.5556378573841518,0.5556145573059718
32,0.5556376201974021,0.555637438694636
33,0.5556367781824536,0.555614990234375
34,0.5556360151767731,0.5556354319651922
35,0.5556364752054215,0.5556122525135676
36,0.5556346249447929,0.555610546429952
37,0.5556368211640252,0.5556269379456839
38,0.5556363384591209,0.5556333030462265
39,0.5556348703702291,0.5556735102732976
40,0.5556340808868409,0.5556150879065196
41,0.5556343777179718,0.5556307521263758
42,0.5556337900294198,0.5556249233484268
43,0.555633386850357,0.5556215993165969
44,0.555634063217375,0.5556451636950175
45,0.5556330882973141,0.5556246723333994
46,0.5556319437556797,0.5556294995148977
47,0.5556324243413078,0.5556262197097143
48,0.5556298034588496,0.5556329470475515
49,0.5556298503610823,0.5556348345677058
50,0.5556298783752653,0.555615771094958
51,0.5556291174358792,0.5556095127264659
52,0.5556345948113336,0.5556226336956024
53,0.5556349879635705,0.5556184713443121
54,0.5556345399220785,0.5556474629243215
55,0.555631481607755,0.5556776290337244
56,0.555629937198427,0.5556145350933075
57,0.5556301676299837,0.5557086999416352
58,0.5556299491061105,0.5556126823425293
59,0.5556286833816104,0.5556190891663233
60,0.5556302162938648,0.5556176173289616
61,0.5556291940742069,0.5556324123541514
62,0.55562764872445,0.5556228567361832
63,0.5556278328763115,0.5556139915386836
64,0.5556282261610032,0.5556483459870021
65,0.5556290473937988,0.5556240945259731
66,0.5556279627349642,0.5556247018575668
67,0.5556287281645669,0.5556090130011241
68,0.5556274672216839,0.5556124148766199
69,0.5556275587214364,0.5556213805278142
70,0.5556272903283437,0.5556647911469141
71,0.5556279324558047,0.5556323355436326
72,0.5556280423270331,0.5556138375202815
73,0.5556371806330151,0.5556208862860997
74,0.5556283276345995,0.5556193284193675
75,0.5556273331642151,0.5556220118999481
76,0.5556262502537833,0.5556208989222844
77,0.5556324228578143,0.5556345078150431
78,0.555627795987659,0.5556135724385579
79,0.5556272993485133,0.5556127254168193
80,0.5556270490619871,0.5556214447418849
81,0.5556272818644842,0.5556099865436553
82,0.5556251009570228,0.5556249593098959
83,0.5556265001561906,0.5556377270221711
84,0.5556263079775704,0.5556211327314377
85,0.5556253449784385,0.5556147865454356
86,0.5556257157060835,0.5556591173013051
87,0.555625243028005,0.5556181566317876
