epoch,loss,val_loss
0,0.3799703591723171,0.3041422616294604
1,0.2556993784882528,0.1718724929974607
2,0.1969579028023826,0.17169596033664805
3,0.19225138830866595,0.18003015187534974
4,0.19183532850111457,0.17249038587086393
5,0.1918899329055587,0.17781742683340646
6,0.1892149189801766,0.18026014456687087
7,0.19178556723056361,0.1836169747226333
8,0.1892129403767918,0.1749291933245129
9,0.19452999823326297,0.18009426806723308
10,0.19500850612898651,0.17798958191858108
11,0.19019687010513678,0.17246904041065206
12,0.18921455587025543,0.17069592316607005
13,0.18946085701449764,0.16421233603409027
14,0.1928794464593033,0.18292952972461998
15,0.18902275860428905,0.18350632692968952
16,0.18781180719765211,0.17283729240842108
17,0.18759203181446218,0.173265830177847
18,0.18660762779014983,0.17005115144395866
19,0.19613843670098471,0.2072106284985964
20,0.19226372150109233,0.17040593875005589
21,0.18916975993743604,0.17347044062053685
22,0.18870831573839852,0.16317518766053982
23,0.18846171280090288,0.16498122511118868
24,0.1876022684469139,0.18503489846247342
25,0.19039455566218225,0.16033740866164897
26,0.18861742103524548,0.15945196594054972
27,0.18732338636111412,0.16468270193099588
28,0.18661499982647556,0.178983408265837
29,0.19000009689524805,0.1875947460302568
30,0.1863898876085102,0.1680441228771055
31,0.18832071342045445,0.17389749011080727
32,0.18669290440358383,0.18111138172683344
33,0.18682135940433217,0.1641605539188478
34,0.18653522480765375,0.17080999205050582
35,0.1857028331717937,0.1586012706728554
36,0.18545231558352684,0.16661543338064827
37,0.18450455155799253,0.15922151949477215
38,0.18415424002228592,0.15970136046361266
39,0.1883060235061867,0.16187752651568843
40,0.18508653460239008,0.1696891314671084
41,0.18625137585105658,0.17089598833161065
42,0.1853928763309033,0.16365342358216364
43,0.1861847756658677,0.16487797659679052
44,0.18710277823685073,0.16469010430337547
45,0.18814695019236177,0.1759121975372791
46,0.18859831466853286,0.16931777267995543
47,0.1903605181410658,0.17857266400562297
48,0.18821703068750967,0.16665964975457606
49,0.18951112643373405,0.17189803046369978
50,0.1908374863018314,0.1842637115248025
51,0.19026409915154033,0.17494558460182613
52,0.19144777408998617,0.17566933551167244
53,0.1898401369504016,0.1684857738859172
54,0.18878524563162682,0.16802915398995275
55,0.18985302200476775,0.1726075702823475
56,0.19128994034041014,0.17035292322231518
57,0.19089947001422472,0.1820943300934797
58,0.190260733165342,0.18571468074681405
59,0.19246232789382636,0.17666609215475346
60,0.19175060485915435,0.18659945284314786
61,0.18991488663910674,0.1744633787957421
62,0.19201931412263906,0.17106726421201895
63,0.19215615562575641,0.16741352613534952
64,0.18919449780968497,0.17501969614941612
65,0.18973139512410062,0.16472407683597187
66,0.19146998040527224,0.16947130183330514
67,0.19227833164225014,0.17655114488735107
68,0.19191677094078521,0.16564144155453206
69,0.1912083126503148,0.18194419059778555
70,0.1914957470004801,0.17512771563373342
71,0.18987313805340383,0.17248977779955374
72,0.19016748040413456,0.1728636871506698
73,0.194227459420673,0.1761280176775879
74,0.19031034726753915,0.1748208195236961
75,0.19121687228174758,0.17618644236309783
76,0.19126550821636656,0.17095181383404032
77,0.1911082028376283,0.16247907685779114
78,0.19158063505629333,0.17234759695000118
79,0.18985386070511262,0.1609156053975551
80,0.19093713108256305,0.17071732601931883
81,0.19079339664110287,0.16692092623153743
82,0.19226533994734812,0.16965311074392253
83,0.19149041359571575,0.16540526977565748
84,0.19034770388212846,0.16778521119508913
85,0.19340900714703804,0.17302512521919736
86,0.1912986924759954,0.17127936421036236
87,0.18914904324911994,0.17622563841134092
88,0.18924943428095864,0.1759002454282787
89,0.19067397204826506,0.18017546693580672
90,0.19501658427634175,0.18515248180934304
91,0.1974210602770432,0.1854425217330891
92,0.1940334012405313,0.1837981853147686
93,0.19860833913111706,0.18355042832417887
94,0.1937975004864178,0.18124568753627288
95,0.19607279211091844,0.1690025353156157
96,0.19717908852858196,0.1820262859410033
97,0.19492527804940676,0.1838710069027937
98,0.19428405349401592,0.17066000948228782
99,0.1945121673773154,0.17087370552430767
100,0.1959442179605329,0.17494792549811236
101,0.19389970043451907,0.1781690718072851
102,0.19225139215624362,0.1690913268152718
103,0.19267280706412512,0.17705008081807805
104,0.1982021270583781,0.18017461770255683
105,0.19747338555544447,0.18847568942247517
106,0.19701454722828823,0.2002799654166484
107,0.19515190256224144,0.1811636435676182
108,0.20110390552456042,0.20732927322387695
109,0.19957418902646645,0.19776016620002138
110,0.19660246511511176,0.1713216259942631
111,0.19443205167189706,0.17709036241530984
112,0.19538979028896677,0.1831010267174737
113,0.19658527653917873,0.18134192288502
114,0.1949753521190728,0.18743891781989094
115,0.19559680383571917,0.1951810639995148
116,0.19497385187398156,0.17284053245020028
117,0.1951705539126316,0.17856961770310986
118,0.19580198612639768,0.17378475419747955
119,0.19584274279465191,0.16869990395900203
120,0.19677722826301813,0.17806806452179574
121,0.19536892069970443,0.1750212462810801
122,0.194726588763744,0.1688462139166958
123,0.19535295242925374,0.17108452851851588
124,0.19445754749904737,0.17930940355552663
125,0.1941788373969859,0.17710740442500303
126,0.1942769031199195,0.17310934188108762
127,0.19374378522435984,0.1790999737292504
128,0.19260585984532788,0.18067430132593648
129,0.19326358792589032,0.18049270883867244
130,0.19535286231838864,0.17642662517684124
131,0.19292922351983569,0.16933032583871316
132,0.19283666494514964,0.1707830226286001
133,0.19028074988085714,0.16255517757746232
134,0.18931627101760753,0.16722016603310516
135,0.19210361206144977,0.1655382623613509
136,0.19276834331792864,0.17350262987207613
137,0.1924569252624905,0.1778734257718169
138,0.19164875118707636,0.18010665664852682
139,0.1919462183077303,0.17011640110300116
140,0.19199622699840246,0.1777107912717751
141,0.19115095169807644,0.16673377061992375
142,0.18967728162880798,0.17409595726276933
143,0.19237989622702878,0.16269681437752254
144,0.18842356703322444,0.1705658455520554
145,0.19280586811640055,0.18514183662765316
146,0.1882732368474774,0.1676090519817883
147,0.19053148428758113,0.16062494875547467
148,0.1900412083101616,0.17361942401332578
149,0.1891868261932086,0.1786700112855444
150,0.18819038643299627,0.17370004310225048
151,0.1881925073132408,0.16021235353658572
152,0.1884103118985581,0.16156897014074953
153,0.18556304604674073,0.16619205761274863
154,0.18822523861455384,0.174759069957679
155,0.1907356565921091,0.16659588494850966
156,0.19025376738549424,0.1691253302499519
157,0.1895257412337417,0.16878984993004933
158,0.1885741280795957,0.17698531927176828
159,0.18799417113976252,0.1726328880440773
160,0.18708578499557496,0.16359776103172666
161,0.18901623456811217,0.17779896170843545
162,0.18807611659801513,0.16895611552764803
163,0.1874234930301209,0.16844851538744382
164,0.18804838584126043,0.15827585099943267
165,0.1884897789769501,0.17963485327902018
166,0.18802531698257852,0.1763938112729754
167,0.18824915998906874,0.16640438864555962
168,0.1893164846327326,0.17810344337111841
169,0.18882720035801323,0.16866618616012471
170,0.1909265607726679,0.16769219939774455
171,0.18939315000350615,0.1823550268512186
172,0.1878780719993399,0.17682145695471704
173,0.18739566401398783,0.1621798789075788
174,0.18815005302214452,0.16498743441176433
175,0.18796192946507512,0.16605485065720088
176,0.18868193987181323,0.16404313995938716
177,0.19452663603498996,0.1714014383780695
178,0.1879222755245059,0.1670156609862197
179,0.18873747181687192,0.16976644419018852
180,0.18842583922766226,0.1652687285382479
181,0.18866560101103458,0.19212733853279046
182,0.19158810223217865,0.16851376803155266
183,0.19040962952890808,0.1868834716946926
184,0.19248050841405165,0.17203862818874968
185,0.18912555440795048,0.172123393595267
186,0.18912872921427887,0.17684176554548384
187,0.18753607764995223,0.19019168540412396
188,0.1878043888830203,0.18317865156730984
189,0.18929482576511114,0.17147902005925375
190,0.18708166400130222,0.1686835671621711
191,0.18902170102151514,0.16916588064817906
192,0.18810997463709073,0.17282876802573627
193,0.18745472493937151,0.16652675455214044
194,0.19116909366497714,0.1673966643052283
195,0.1870054702719657,0.18133117259757264
196,0.1897403393999589,0.1753203679368637
197,0.19012020610636765,0.1717574390350854
198,0.19372889948330277,0.1752676607410983
199,0.18959495023763875,0.17346333071214826
200,0.1857904384585263,0.16880712021876426
201,0.18546026398698456,0.17063870238078288
202,0.1887122973310556,0.1601664859979789
203,0.18925125544385207,0.17351229829654785
204,0.18984936019055265,0.1713479554155254
205,0.1906014502621155,0.17228939056106438
206,0.19012048882577684,0.17367797298394658
207,0.19320935955207,0.1625717612404893
208,0.19144726343590132,0.17646450350561088
209,0.1923271924245348,0.1795105870332741
210,0.19404711534945462,0.1818569028464547
211,0.1894496489909766,0.17248303192423692
212,0.19144135537602788,0.17566984406062866
213,0.189302300767387,0.18512620481406394
214,0.18905991555047666,0.174929315107969
215,0.18920582479792084,0.17072077965649374
216,0.18572042781928236,0.17165938265083866
217,0.18619842926343028,0.1616794833277457
218,0.18714342950533827,0.19032318056209824
219,0.18805335641050452,0.17728469509326242
220,0.18877197032551274,0.1703716376184547
221,0.18665669527981546,0.17718300316407248
222,0.18773940148904286,0.17258022546719848
223,0.18783662998504502,0.16958519746303946
224,0.18615955877318394,0.16883816359155274
225,0.18955577155940526,0.17431165254995867
226,0.18991582111430894,0.17222577036152212
227,0.18745719556144183,0.17087166495953549
228,0.18981873421811218,0.17050714968474823
229,0.1900759877098666,0.16305852596197104
230,0.18733158517327664,0.16752681912006834
231,0.18783693493987388,0.16140725734943503
232,0.1881812747129447,0.1643696717513062
233,0.18893367704675137,0.17189933282277106
234,0.1899155593925328,0.17703906405001082
235,0.18897205666960287,0.17521042232337466
236,0.19131964621088618,0.17641292285213409
237,0.18690944311497593,0.1655030079300773
238,0.18901546274403555,0.1871313613817543
239,0.18805180084380843,0.16929544868598792
240,0.18913911624227742,0.16716603017491435
241,0.18857805743467532,0.1697298092563657
242,0.18883083538235046,0.16623600842453848
243,0.18843324514056703,0.17731130836170472
244,0.1882206084634706,0.1703436106854305
245,0.18924464252564885,0.17807836124835127
246,0.18887535181997106,0.18301394291747805
247,0.18774558678925563,0.19042420239827543
248,0.18774722539801136,0.16879215098113812
249,0.1873414153404671,0.16790422939809474
250,0.1878205582117729,0.17020086044957747
251,0.1882415991351068,0.163905166204345
252,0.18795115494723316,0.17067919698123127
253,0.18862607015715874,0.17018493286062814
254,0.19060218735658427,0.16390693773850135
255,0.18857516013712192,0.16544809075796013
256,0.1892719187910219,0.16296404182596702
257,0.18945531850103572,0.16677423454790896
258,0.18818486104902027,0.16242029618801185
259,0.19000838210193322,0.17621133490393825
260,0.1875279555149418,0.17293139686694692
261,0.1901425697726665,0.15824043117493802
262,0.1890955298208446,0.16140270438604207
263,0.1881170356996638,0.16793217056182372
264,0.1879252556970923,0.16806291727785744
265,0.18951209876731073,0.16539315067213528
266,0.1900360137164545,0.16916285002028564
267,0.1916297679189876,0.17166882700196923
268,0.1907763413017134,0.1747500450990109
269,0.18888453722262594,0.17445885474036016
270,0.18374548215356418,0.16669720483812392
271,0.1852138588388411,0.15711800054332056
272,0.18537219671056784,0.16116374747983248
273,0.18568102069336287,0.17351260835671947
274,0.19033202197882917,0.17410684728032674
275,0.18968527409746896,0.1609655469172579
276,0.18567303950496442,0.16304842797194857
277,0.18590218353094914,0.17221377350069697
278,0.18866992996538803,0.16312230298022187
279,0.18786878319527264,0.16313132096840324
280,0.18472921832787503,0.16013685399961008
281,0.1848601668750982,0.16145769916384178
282,0.18620468938560653,0.16640876645686078
283,0.18797015250206375,0.16667967856486252
284,0.18719088471680284,0.15995247382292976
285,0.18700822050853955,0.16617705876616473
286,0.19062255315774912,0.17104813400943011
287,0.1945332392119617,0.1779116897784107
288,0.19236862802023502,0.17741995916942804
289,0.18995479417381714,0.16277305345562348
290,0.18814132848174406,0.16994005230173093
291,0.1883622104163357,0.1717663278617418
292,0.19229489187892673,0.16552456804314766
293,0.18661507615167872,0.1640272815345461
294,0.18890381129003697,0.16833780407422166
295,0.19042634329288077,0.1667445150580913
296,0.19601678645448556,0.17174964914791777
297,0.1908706116487829,0.17078406649542743
298,0.19004847486917262,0.15995800313868372
299,0.19195925458681115,0.1697242231941378
300,0.18849763662529717,0.1685047819424913
301,0.18620924377221887,0.1713312231276157
302,0.18601799630422033,0.17641436101359656
303,0.187159115578338,0.16655469094822298
304,0.18798084796262418,0.17552741032640623
305,0.18725877171091504,0.1612405937107617
306,0.18539763726383518,0.15927761621525494
307,0.18930868295620115,0.16868983798290982
308,0.18799512982487773,0.1608253710836003
309,0.19032606394220294,0.1847850544875169
310,0.18765026093531456,0.1589701555409474
311,0.18654778350988704,0.1686490591545948
312,0.18747092753028374,0.16117777014929205
313,0.19010179319841752,0.15810130871318745
314,0.18977473675608159,0.19018496385649367
315,0.18634590120602837,0.16513355412888314
316,0.18601060959341242,0.16165722102313532
317,0.19476220286708532,0.19695920114679638
318,0.1864668029883177,0.16565802504836497
319,0.18189333549277892,0.1754124848125238
320,0.18517532091053893,0.174537239960317
321,0.18764826757393424,0.1723425901114989
322,0.18866354339809013,0.16323537627855936
323,0.1845540227092582,0.17585467787071252
324,0.18262058408189716,0.16432218942473983
325,0.18478460697005328,0.16373538459739545
326,0.18533504821115537,0.18078661664704046
327,0.18602299802393032,0.1588372363431707
328,0.1867608361011796,0.1806097505228943
329,0.18873581046266877,0.17658989512137252
330,0.18802778412691587,0.17183542615354108
331,0.19001685299450535,0.16976774855541776
332,0.18786304662998815,0.1643863525800558
333,0.18878430399515803,0.17307562543576266
334,0.19023876004905296,0.17277976642124845
335,0.18757974084398096,0.15934240977549494
336,0.18692645312453193,0.17450700667652772
337,0.18911144276969044,0.17458400300674484
338,0.18766402755621628,0.17085070458496865
339,0.18574316034897315,0.16720855510389523
340,0.18728959341470103,0.19906890162682978
341,0.18794707882347061,0.1746217550079898
342,0.1888469363315951,0.15716994564076894
343,0.18973583525256982,0.16764377730098665
344,0.18996237612682118,0.1733442426138744
345,0.18816561575791088,0.1722268619048141
346,0.18903279765020664,0.1639629349970566
347,0.18918585413403277,0.17051263268363254
348,0.18677465477473645,0.17116583650516284
349,0.18396402788672855,0.14843296482615229
350,0.17947714347496713,0.16720549515104835
351,0.18636909865135187,0.17314749395373577
352,0.19031913004057993,0.17341555570405573
353,0.18467343955325355,0.16794122910219195
354,0.1846331710918986,0.17069752861210127
355,0.18533831251392946,0.15650887829036317
356,0.18388148268358148,0.16846760118868132
357,0.18602811496815175,0.15521972560582853
358,0.18661759948258022,0.16417136477172037
359,0.1829438571265643,0.1594685474282247
360,0.1826537827356421,0.17062272763503633
361,0.188118327573073,0.1762698606587191
362,0.18808169887841844,0.16054745753872038
363,0.1872637753991531,0.15676279887496603
364,0.18513321028269225,0.15849805092144476
365,0.18549721537111663,0.17520328727758522
366,0.18719016558962692,0.17593465787747578
367,0.1893043927162337,0.16547737077833286
368,0.1874062293488756,0.17683192581204216
369,0.1878814264547357,0.1732981744594721
370,0.1864886615482018,0.17050607755043018
371,0.1845589812466199,0.16487129012066856
372,0.18867977935257102,0.17362053636748523
373,0.18668181467667114,0.1730882182584385
374,0.18717040980549407,0.1734832724056298
375,0.18827551973161935,0.17859773075590266
376,0.1885139217989458,0.17444224894916924
377,0.18316472658188082,0.16365100245164452
378,0.18721045398588082,0.16735985829205602
379,0.19135901020516197,0.16691962219261097
380,0.18911048281994508,0.17444606713908337
381,0.18682315467809849,0.1623316407566233
382,0.18495972969646068,0.1612478845721807
383,0.18654503691210758,0.16230050995885503
384,0.18807476511399587,0.19388735844222685
385,0.1905501611811147,0.16762516234864672
386,0.1886067946938823,0.15987095588460165
387,0.1854494374403484,0.15729379796537074
388,0.18225085046932735,0.16239632699949802
389,0.18598449573791723,0.17226039158408465
390,0.18848875998925743,0.17305781179245952
391,0.18583273750433835,0.1658838054607868
392,0.18927512146097072,0.17607566263505528
393,0.18868442455394638,0.16824989134426147
394,0.18565456888334955,0.1655148351134465
395,0.18627523737038681,0.1685692719686157
396,0.19208106837623878,0.16970417395367046
397,0.1880393552364971,0.17558713102621076
398,0.19030439909144914,0.16657462923969568
399,0.18945886023503672,0.16500723851423194
400,0.1889328347016469,0.16056248129308465
401,0.18794932080994997,0.16526022822341585
402,0.18695230116908124,0.17605774129974291
403,0.18774453374602681,0.16526326981870895
404,0.18938759134544,0.17106550840082346
405,0.19105487377692262,0.19044723652381773
406,0.18855385323635954,0.1680381833141351
407,0.18982248628635803,0.1739023330727923
408,0.19068737822570642,0.1731769872794573
409,0.19092280084224011,0.17780740014054577
410,0.18901173989351888,0.16530488529344545
411,0.18845892033641867,0.17790179405382564
412,0.18972112765734056,0.1673008054374005
413,0.18733181348674482,0.16685055243417873
414,0.18735681142541674,0.17160810623242423
415,0.18832872086185948,0.19469387299968088
416,0.18668042322556624,0.172693681845023
417,0.1878633024103886,0.17565158976352224
418,0.1859015132352006,0.16415915444239504
419,0.184531195788645,0.16576846915584992
420,0.18423599978868632,0.17209606954264428
421,0.18295211392380983,0.15198698764952429
422,0.18180693070992554,0.15062015385813377
423,0.18229623575559895,0.15634640515914122
424,0.18105131692534165,0.17650417751494404
425,0.179353685612627,0.16908689790736922
426,0.17973301463646352,0.16491154556533522
427,0.19000129913501113,0.1691270831244222
428,0.19072484067552467,0.17215669799266747
429,0.1895615850344861,0.16599438325573734
430,0.18738396480691444,0.15983349727791496
431,0.18269734571369484,0.1667453946737574
432,0.180379981507627,0.16387075632931444
433,0.18546306358589182,0.16323124359317262
434,0.19072030060548034,0.18072544178485098
435,0.19034450436182457,0.16275624028087532
436,0.18828274026882943,0.1655837625917727
437,0.1872222619451839,0.16817839560910927
438,0.18562929528512603,0.16665436289993033
439,0.18775249097206956,0.169331217950568
440,0.18588449315035982,0.16581084465023374
441,0.1868146023839068,0.16250753965884424
442,0.18593005687475586,0.15885344470359403
443,0.18483633809298683,0.16993736072661716
444,0.18106914679105993,0.16863561776335995
445,0.1794753561886527,0.1454576834709975
446,0.1817591523079036,0.17141372815004133
447,0.1806868471419983,0.16646861324248427
448,0.1813162657095968,0.16344894119519485
449,0.18195997522748691,0.16238499185658042
450,0.18450099435613287,0.16660121739490769
451,0.1851237326609888,0.17013409185100162
452,0.18458864275959608,0.15806425700609217
453,0.18904254556871397,0.16677654954542112
454,0.18131628765570248,0.16413664593023686
455,0.18109892408927983,0.1864258180593729
456,0.18212840874329675,0.15981108380446857
457,0.18236580797679144,0.16807447523724617
458,0.18154929873583506,0.15461478398664155
459,0.18026622003011458,0.1435055832551537
460,0.18177360736483855,0.15687904809658254
461,0.182540735732421,0.18601335276942474
462,0.18087343880541332,0.169892478332419
463,0.17679038121580504,0.17035242025676242
464,0.18065017106845152,0.17155410976595542
465,0.1817749927671935,0.1607046210828682
466,0.17734797912731087,0.17027012117974466
467,0.1814091668976508,0.16379995312955645
468,0.18319692471034055,0.18114399560708297
469,0.18212617614013468,0.15022720186838945
470,0.1846445435531336,0.16574075004721886
471,0.18495846456819004,0.17225815059688163
472,0.18773892611038503,0.18183752038763099
473,0.17846053517203603,0.15600834519807052
474,0.17959777166167673,0.1667486497254654
475,0.18311335236502227,0.15923461176618173
476,0.18426947537257826,0.16717376977519494
477,0.18683824480009423,0.172561369673179
478,0.18712004125595474,0.18090398468240335
479,0.18701321381726582,0.16954499675264614
480,0.1850008726465979,0.1615574203147602
481,0.18492438052419283,0.17076890148820667
482,0.18677126411035405,0.1528395056748719
483,0.1809062032913379,0.17036588903326189
484,0.185776170238769,0.17823770993962484
485,0.18270367409010904,0.15917703286357168
486,0.18711765077683903,0.17751730962778048
487,0.18612531889334405,0.15862717864383843
488,0.1857836832396024,0.17328183154748497
489,0.1822356430827092,0.1626177736877525
490,0.17661815888290885,0.15752684841625883
491,0.18144560517002048,0.1749191768437213
492,0.18379878771720265,0.16370938781162442
493,0.18576008371346658,0.16552324454086348
494,0.18239743913933218,0.1911383063592083
495,0.18131930465467747,0.15407878890428134
496,0.178712038211435,0.1464967142370592
497,0.1788243630631052,0.1731870844053816
498,0.18206017356428555,0.16924891637189546
499,0.18033316230373062,0.16886745331641242
500,0.18252846442335982,0.16551171342290133
501,0.18349562181507328,0.16470625435832256
502,0.1856574449148342,0.16418477985932395
503,0.1849258962908299,0.16713295132526032
504,0.18739959721067984,0.16081484701463292
505,0.18402344247309851,0.1702626534380375
506,0.17467318171615884,0.14854497284857315
507,0.17411075488890143,0.14838690640645016
508,0.17433047147871877,0.14978955736246324
509,0.17584027768111973,0.16890642112188967
510,0.1833258847399556,0.1524411821851185
511,0.18378885837795259,0.17946830671054023
512,0.18011588584169375,0.16850072882664657
513,0.1834402948713379,0.14825214340448958
514,0.18387143554880298,0.17282767956419293
515,0.18482678201649072,0.15087792157087496
516,0.18504657907138547,0.15334584875771018
517,0.17293622279114682,0.1534880947167566
518,0.17184727765422902,0.15616868645412016
519,0.1722642593771768,0.14447928717947547
520,0.17435155388376444,0.16814287362162506
521,0.17638561420077034,0.16535223437970187
522,0.18062389022212108,0.15805421075923407
523,0.18127697543968097,0.15748593550166365
524,0.18190130934990148,0.1718837491448875
525,0.18616245732343703,0.15407309308345976
526,0.18453331508810183,0.15821411452782608
527,0.17557172656798956,0.16960332223001962
528,0.17471927155653316,0.1517641607185543
529,0.1751634517134286,0.1516898697044244
530,0.17629546386967476,0.15750776756998977
531,0.17449239636655806,0.16149701742456873
532,0.17629786467759775,0.15736176108598515
533,0.17854923321854313,0.14880006452788208
534,0.17974204921407447,0.15696233288601755
535,0.18293492881964454,0.17107765847894107
536,0.1829229888138626,0.16057170094848164
537,0.18304140342054986,0.16704445536530124
538,0.1831222519195013,0.1726378430125197
539,0.1746649949269308,0.1538861027623422
540,0.1718315563266806,0.14312190307487052
541,0.17326083656451147,0.15117948092610878
542,0.18030318404265266,0.15831301439272516
543,0.18312763403638826,0.16271000846749095
544,0.1838286944610582,0.15895713578731377
545,0.18258536909464554,0.15157450030996658
546,0.18010866026982392,0.18104600525685471
547,0.18239905032589496,0.1633087547687815
548,0.18288766243774668,0.15703526993689262
549,0.17329964403799766,0.16235695670555977
550,0.17535601269373233,0.16335373570642525
551,0.17747490610882605,0.16281092108891249
552,0.17782786866132502,0.16420140745237602
553,0.17972159988170056,0.15769867397186144
554,0.17941980770795798,0.1626709772746735
555,0.18101992436630235,0.16541798009151187
556,0.18433681075529063,0.1655502915080253
557,0.18418921962726392,0.151644233695782
558,0.1736287404182818,0.15213755610650473
559,0.1750375473196264,0.15244521152315735
560,0.17403872447719185,0.15419168619851417
561,0.1776592284262037,0.16588261913257407
562,0.17812294096017095,0.14999744380670935
563,0.18119133661707656,0.1626135668228626
564,0.18309206217885304,0.16132856002689278
565,0.18365461133521876,0.14352143861033137
566,0.17129662033734178,0.15005118085640964
567,0.17408971429419956,0.14086322699705953
568,0.1736497891495665,0.15000124844901463
569,0.17411901042449943,0.1615122338546937
570,0.1761635532073253,0.16183890477245838
571,0.18182192298116162,0.15760519711447266
572,0.17774193014523046,0.15799679227674868
573,0.1800539162490156,0.161147825365519
574,0.18003469368545794,0.15435239902281317
575,0.18064961085518041,0.1607345061411436
576,0.1880124327394846,0.18051795650572672
577,0.1724294115952533,0.15736097160240353
578,0.17065334342139735,0.1373581753051194
579,0.17363126047426838,0.1428845171293203
580,0.17299098794678863,0.143200640671638
581,0.17595671515783565,0.15001401845411083
582,0.18032451980323005,0.15633866240460023
583,0.18329777272106457,0.16847172868947913
584,0.18522251238695997,0.1567091452621002
585,0.18194214102504155,0.1621729583998376
586,0.1769452598497713,0.15540473926918158
587,0.1805254827388484,0.1650617339701935
588,0.18037792228406863,0.17288057857766348
589,0.1836537764108687,0.16084488207551395
590,0.183259076493277,0.15759502090241786
591,0.1784575650806996,0.15857021463468418
592,0.18068777975604666,0.159092282062126
593,0.18372180751316827,0.19364984576429473
594,0.1825164207715908,0.15896632008115547
595,0.17748455535635363,0.15162282244325748
596,0.17616426425160553,0.14403435613866367
597,0.1817540882097138,0.19446518421414802
598,0.18980090596897303,0.1523776832916634
599,0.17877626009852146,0.15016241874983904
600,0.18322012463123727,0.15357685779181324
601,0.18527165525932138,0.1903392817562224
602,0.17919938420478682,0.15122427760539553
603,0.17542133740394758,0.14950784719386723
604,0.1771637966887678,0.13672969355538717
605,0.17785521569230062,0.164534964954476
606,0.1840713272710816,0.16023010751481764
607,0.18137968912589444,0.1738371152705713
608,0.18204736914202344,0.16096125221648838
609,0.1854262079974954,0.16592275929567007
610,0.17491238192022085,0.15908020824218125
611,0.1765930547689895,0.15117918805121797
612,0.1777056067991104,0.17368179918640722
613,0.18367133459584822,0.17236729027871087
614,0.18221717031360912,0.16633219705155877
615,0.18961518087847123,0.18570301078096793
616,0.17499340223588403,0.14273755557514842
617,0.18230763195549324,0.16691711965558592
618,0.1846920036173182,0.16799127860999358
619,0.18428432179676046,0.15593536293612972
620,0.187657157745096,0.17860634772398562
621,0.18281939084096563,0.18530042470710023
622,0.18595540614797174,0.15682414407930234
623,0.18879010237819008,0.17714582498442905
624,0.18100039169991655,0.15929567354632312
625,0.18480554849410458,0.18022832878701395
626,0.18538200831990703,0.1575402204258502
627,0.1881164625209508,0.15716926570428838
628,0.18417935347776587,0.16105616602681075
629,0.18005537699230964,0.16967720049527826
630,0.18510703950094357,0.17693228740471703
631,0.18415652087228215,0.16730849766334865
632,0.18622897773253336,0.16017467084447254
633,0.1854229391850024,0.17827983554649043
634,0.1786260791868568,0.16978117237464257
635,0.18486987034066188,0.17015939154522455
636,0.18618117219763244,0.15622154174905817
637,0.18599947123789043,0.17032036262610437
638,0.18069597573472176,0.16065073433873717
639,0.1882162903479522,0.1533900705337621
640,0.18520199030852488,0.16517605824095394
641,0.1894925613585618,0.1755939158161578
642,0.18376011445557622,0.17520722829029026
643,0.18921909032701206,0.168485487186609
644,0.18445993329974725,0.1735568686969282
645,0.18775340538319824,0.16443532661799967
646,0.18319318716744598,0.15851237330606868
647,0.19268678507511858,0.1722562636844723
648,0.18906966348687967,0.1637895309335317
649,0.18994104214984955,0.17717784405093026
650,0.1878150551676082,0.1719761417222429
651,0.18969435866972845,0.17055452992687936
652,0.1913508955266974,0.17322982974586115
653,0.1883617014504128,0.1599224528837088
654,0.19078376274212921,0.16871971225506488
655,0.18690483721854498,0.17247281724470762
656,0.19153580658907313,0.1700358333765542
657,0.189230955952258,0.16285199395834868
658,0.18882359979484825,0.17166364736800646
659,0.19050505231197973,0.1639527574495774
660,0.1914120219868598,0.19316227574563086
661,0.19546996373191083,0.1969620299624507
662,0.19450232853667082,0.1694856430286812
663,0.19655052875522808,0.1827243977171178
664,0.19436057779887278,0.18973165789176463
665,0.19940395943158334,0.16744025309010432
666,0.19977533094901098,0.18315464775444334
667,0.19274531191496777,0.17236581773460152
668,0.18672013151540673,0.1686814419701635
669,0.18894956203056776,0.17319500811295305
670,0.1877508217735802,0.17123024455677274
671,0.18801613029739778,0.17687927361725794
672,0.18874615053232427,0.18117501772184827
673,0.18710065086046346,0.163462332565419
674,0.18826709641777487,0.16677184002919596
675,0.18751176484853768,0.16391648170866815
676,0.18793933743162095,0.16130351504221838
677,0.18994705188718197,0.17122433254221833
678,0.19041008094819284,0.17963777884949733
679,0.1905723946382276,0.17716096124074754
680,0.19003815189588538,0.16813114797885303
681,0.18818900400132918,0.15858074704854352
682,0.18855852170215787,0.17924926094620186
683,0.18841682460376794,0.18343217056984837
684,0.188479318260383,0.16781981064600376
685,0.1890837211099217,0.17193966411471076
686,0.1896947841044423,0.17540168596638572
687,0.1867846686294596,0.17561978738020806
688,0.1887122766853715,0.17690127233567512
689,0.18771739627978054,0.16574776985977882
690,0.1864155234278346,0.1658474306628072
691,0.18810971699851908,0.172137847637028
692,0.1836125815005375,0.16385555873411223
693,0.1855587128153126,0.16733242764718534
694,0.18586222470713387,0.1603954527089002
695,0.18701632572613877,0.1663551776634419
696,0.18427190495978554,0.16828923053066613
697,0.1849923695178868,0.16332837518694338
698,0.1850112099006617,0.16123722520840428
699,0.18640012008915718,0.16985391364383776
700,0.18369801663417068,0.16676757128762695
701,0.18325307070493124,0.15547608889319117
702,0.18405020481543696,0.16213513698069332
703,0.182558182647841,0.1639522064389587
704,0.1839068926292195,0.16307133757067424
