epoch,loss,val_loss
0,0.9142647918595208,1.0000000002384186
1,1.0,1.0000000002384186
2,1.0,1.0000000002384186
3,1.0,1.0000000002384186
4,1.0,1.0000000002384186
5,1.0,1.0000000002384186
6,1.0,1.0000000002384186
7,1.0,1.0000000002384186
8,1.0,1.0000000002384186
9,1.0,1.0000000002384186
10,1.0,1.0000000002384186
11,1.0,1.0000000002384186
12,1.0,1.0000000002384186
13,1.0,1.0000000002384186
14,1.0,1.0000000002384186
15,1.0,1.0000000002384186
16,1.0,1.0000000002384186
17,1.0,1.0000000002384186
18,1.0,1.0000000002384186
19,1.0,1.0000000002384186
20,1.0,1.0000000002384186
