epoch,loss,val_loss
0,0.586020918753412,0.5835208242336909
1,0.5834485068586137,0.5837485251029333
2,0.5834105435742273,0.583355772972107
3,0.5833918433056937,0.5833695248365403
4,0.5833847573200862,0.583365576505661
5,0.5833794216712316,0.5833493485848109
6,0.5833760158353382,0.5833834877411525
7,0.5833733303149541,0.5833818533023198
8,0.5833711113267475,0.5833512530724208
9,0.583370605164104,0.5833526420990626
10,0.583369777335061,0.5834011985858282
11,0.5833650788068772,0.5833505113124847
12,0.5833650206989712,0.5833628964424133
13,0.5833639738427269,0.5833501627445221
14,0.5833638744089339,0.5833676635821661
15,0.583362702038553,0.5833525595664978
16,0.5833627863857481,0.5833471769094467
17,0.5833623581065072,0.5833529638051986
18,0.5833619146611956,0.5833491537570953
19,0.5833624642160203,0.5833496371507645
20,0.5833617561923133,0.5833680252631506
21,0.5833617167870203,0.5833928659359614
22,0.5833615710470411,0.583455815354983
23,0.5833610702885522,0.583348731358846
24,0.5833604893022113,0.583349228978157
25,0.5833604788117939,0.583390738050143
26,0.5833603115081787,0.5833505955934525
27,0.5833595141039954,0.5833546704053879
28,0.583359023782942,0.583348326643308
29,0.5833592328760359,0.583355844338735
30,0.5833593030638164,0.583377286752065
31,0.5833580472999149,0.5833520177602768
32,0.5833590557177861,0.5833519014120102
33,0.5833589164548451,0.5833685966730118
34,0.5833582834005356,0.5833830186525981
35,0.5833577681117588,0.5833511610825857
36,0.5833578656249576,0.5833537004788717
