epoch,loss,val_loss
0,0.4179320866068204,0.41674790120124816
1,0.41686199916733635,0.4174800059596698
2,0.41680861825413174,0.4167208509842555
3,0.41678165309296716,0.4167131945888201
4,0.4167637957268291,0.4167202009956042
5,0.4167500494122505,0.41670467338959377
6,0.41674188360903,0.4167050287922223
7,0.4167348092065917,0.4167264890869459
8,0.41673083593448,0.41669500158230466
9,0.416726104107168,0.4167152970433235
10,0.41672277558512155,0.4166941446264585
11,0.4167187856568231,0.41670011333624524
12,0.4167160135971175,0.4166983960866928
13,0.41671367379029595,0.41672692296902336
14,0.4167113347583347,0.41682392994562784
15,0.41670893606212406,0.4166901968717575
16,0.41670881157451206,0.41669174096981687
17,0.41670644668075774,0.41671834286053977
18,0.4167056667142444,0.41669939454396565
19,0.4167031934327549,0.41669642968972526
20,0.41670274139112895,0.4166945191423098
21,0.41670101568433976,0.4167006069223086
22,0.4167009322775735,0.41669470677773157
23,0.4166989264157083,0.41668538190921145
24,0.4167001160846816,0.41668700410922366
25,0.416697468969557,0.4167327873309453
26,0.416697316745917,0.416693834622701
27,0.41669568220774333,0.41668671011924746
28,0.4166961668597327,0.41674604547023775
29,0.41669507526026833,0.4166883861621221
30,0.4166951705349816,0.416682980298996
31,0.4166949410703447,0.4166989653309186
32,0.41669495056735145,0.41671003780762356
33,0.41669431625472175,0.4166840725739797
34,0.41669450794325935,0.4166957703828812
35,0.41669430995649764,0.4166893037557602
36,0.4166937863032023,0.4166863827308019
37,0.4166940017806159,0.41668374743064246
38,0.41669362450970543,0.4166836882432302
39,0.41669396177927653,0.41668303563197456
40,0.41669362903965845,0.4167042753100395
41,0.41669288699494467,0.4167171116073926
42,0.4166931817597813,0.41668251222372055
43,0.41669326163662807,0.4166839840809504
44,0.41669259378645157,0.4166834954619408
45,0.41669254987107385,0.4166992233792941
46,0.416693140010039,0.41668215543031695
47,0.416692379143503,0.41668309875329335
48,0.41669216027524736,0.41668601002295813
49,0.41669267790847353,0.4166857825517654
50,0.4166919902496868,0.41670588924487434
51,0.41669182584020825,0.4166830427447955
52,0.41669167862335843,0.4167032783826192
53,0.41669131882985433,0.4166916797955831
54,0.4166917906999588,0.4166842260360718
55,0.41669134016831716,0.41668285127480825
56,0.41669149834579894,0.4166846006910006
57,0.4166909295519193,0.4167661967674891
58,0.4166912294295099,0.41674859937032066
59,0.41669088553057776,0.41669966737429304
60,0.41669028486145865,0.41668355323870976
61,0.4166909673147731,0.4166831660469373
62,0.4166907475060887,0.416706774075826
63,0.41668998515605926,0.416683918317159
64,0.4166897791624069,0.416681660870711
65,0.41668994274404314,0.41670225363969804
66,0.416690514087677,0.41668353925148643
67,0.4166898552907838,0.4166921873291334
68,0.4166894870400429,0.4166929895679156
69,0.41668869473536807,0.41668151066700615
70,0.41668856382369995,0.4167026904026667
71,0.4166884462767177,0.4166865722934405
72,0.41668809129132167,0.41667903488874436
73,0.41668788199954565,0.4167141226331393
74,0.41668738179074394,0.4166806464195251
75,0.4166873487432798,0.4166785574356715
76,0.41668740140067206,0.41667873261372246
77,0.4166871908042166,0.416682464102904
78,0.41668643994463817,0.41670424338181816
79,0.41668634563684465,0.4166825348337491
80,0.41668626891242133,0.41668267021576566
81,0.4166867148346371,0.4166785232424736
