epoch,loss,val_loss
0,0.4596143914792273,0.45878243529796603
1,0.4585101627442572,0.4584538531303406
2,0.458452930132548,0.45841077135006586
3,0.45842439730299844,0.45841996506849925
4,0.4584140514532725,0.4584006005724271
5,0.4584057707256741,0.45836472316583
6,0.45840064478582804,0.45836648213863374
7,0.4583948763012886,0.45835947708288827
8,0.4583898882932133,0.4583616438905398
9,0.4471890048185984,0.4166948289275169
10,0.4167168927192688,0.4167030599117279
11,0.41671391552024417,0.41679680931568147
12,0.41671162601974276,0.4167083170612653
13,0.4167103184395366,0.4167076471646627
14,0.41670826103952197,0.4167177019516627
15,0.41670770776934096,0.41668680667877195
16,0.4167062743835979,0.41675166495641075
17,0.4167062447865804,0.41668805374701817
18,0.4167050758269098,0.4166962060332298
19,0.41670501949389777,0.41671610403060916
20,0.4167056902183427,0.4166876206994057
21,0.41670351884762447,0.41669364080826443
22,0.4167032587263319,0.41672516910235086
23,0.41670205071899624,0.41669845672448474
24,0.41670149290561675,0.4166872326731682
25,0.4167020260691643,0.4167151418129603
26,0.4167019148468971,0.41670009630918503
27,0.4167002426981926,0.4166889110207558
28,0.41669992546240486,0.41668595461050667
29,0.4166989667746756,0.41668868086735406
30,0.4166995061967108,0.4166887978712718
31,0.41669821195469964,0.41673390529553095
32,0.4166985621121195,0.4166900727947553
33,0.41669808277156617,0.416724473853906
34,0.41669695520401,0.4166851124763489
35,0.4166969328522682,0.4166972233454386
36,0.41669672986533907,0.4166849038004875
37,0.4166957854363653,0.41668285650014875
38,0.41669656208488676,0.416701934337616
39,0.4166955796546406,0.4166919736464818
40,0.4166954585777389,0.4166861458818118
41,0.4166952968835831,0.41668491252263384
42,0.41669493858019513,0.41669063397248585
43,0.4166949741045634,0.4166949266990026
44,0.41669485512044696,0.41668888489405315
45,0.41669496794541677,0.4166982433199882
46,0.4166942465371556,0.4166927215059598
47,0.4166945023139318,0.4167233155965805
48,0.41669315212965014,0.41670546029011407
49,0.4166929623815748,0.4166867553194364
50,0.41669362496005163,0.4166842734018962
51,0.4166929055651029,0.41668481985727945
52,0.41669236252705255,0.41668591592709225
53,0.4166920971605513,0.4166972064971924
54,0.41669190098841985,0.416682656288147
55,0.4166923719909456,0.4166861046950022
56,0.41669189975659054,0.41668634192148846
57,0.41669146109951866,0.41668574513991674
58,0.41669133161173927,0.41668476422627765
59,0.41669132983022267,0.4167026268641154
60,0.4166913835207621,0.416687037507693
61,0.41669071298175386,0.4166832840045293
62,0.4166911798252,0.41668185689051945
63,0.4166910809675852,0.4166846030950546
64,0.41669045144319533,0.4166838896473249
65,0.4166907178560893,0.41668121620019277
66,0.4166906650794877,0.41668926974137627
67,0.41669021489222846,0.4166859789292018
68,0.4166899197234048,0.41668362893660865
69,0.4166897012458907,0.41668708497285845
70,0.41669015502267415,0.4166892743508021
71,0.41669026471508874,0.4166816149353981
72,0.4166897830234634,0.41668973622719446
73,0.41668957273165386,0.4166877704660098
74,0.41668942221005756,0.4166870169043541
75,0.41668910547097526,0.41671389967203143
76,0.4166887616978751,0.4166833211183548
77,0.41668879577848644,0.4166898214221001
78,0.41668867286046346,0.41668965403238933
79,0.41668830782175065,0.4166819410920143
80,0.41668821885850693,0.41669413965940477
81,0.41668791472911837,0.41668374176820117
82,0.4166878559390704,0.4166801917354266
83,0.416687485244539,0.4166867014368375
84,0.41668696467081706,0.4166906238993009
85,0.41668732675578857,0.41668146230777103
86,0.416686520907614,0.41668766458829243
87,0.4166870587799284,0.41668462224801384
88,0.41668634308046765,0.4166824826200803
89,0.41668622875213623,0.4167104154229164
90,0.41668643742137484,0.4166961815357208
91,0.41668621729479893,0.41668918830156326
92,0.41668661999702455,0.416681349058946
93,0.4166857382853826,0.41668010532855987
94,0.4166857563058535,0.4166804059147835
95,0.41668524080514907,0.4166924660603205
96,0.41668521851301193,0.4166876704891523
97,0.41668510267469616,0.4166779469847679
98,0.4166852073536979,0.4166817444562912
99,0.41668468167384465,0.4166923771301905
100,0.4166845356689559,0.4166842372616132
101,0.41668446415000493,0.4166835049192111
102,0.41668392375442714,0.416702831029892
103,0.41668437289529375,0.4166771361231804
104,0.4166840438842773,0.41667609840631487
105,0.41668415328529146,0.4166782866915067
106,0.41668398818704816,0.41667690565188725
107,0.41668443273835715,0.4167295976082484
108,0.41668376423915227,0.4166774281859398
109,0.41668362134695053,0.41670895795027413
110,0.416683734787835,0.41667521927754086
111,0.416683813949426,0.41667580844958624
112,0.41668369987275866,0.4166989898880323
113,0.41668317274252575,0.41669137241443
114,0.4166837501724561,0.4166772403319677
115,0.4166832444270452,0.4166803074280421
116,0.4166829929815398,0.41667711041371025
117,0.4166827623910374,0.4166852632959684
118,0.4166831724842389,0.4166770916382472
119,0.41668306305673386,0.41668479635318123
120,0.416682793352339,0.41667677825689314
121,0.41668296834495333,0.4166854098836581
122,0.4166833416024844,0.4166965922911962
123,0.41668274351623324,0.41667597752809526
124,0.4166826367047098,0.4166764817436536
125,0.4166829653647211,0.4166783341765404
126,0.4166826838784748,0.41669669351975125
127,0.41668284723493787,0.4166808132926623
128,0.4166824605200026,0.4166800558567047
129,0.4166825439201461,0.4166746480067571
130,0.4166823722653919,0.41669347425301867
131,0.4166820927129851,0.41667443321148556
132,0.41668236802021663,0.41667644637823104
133,0.41668216105302175,0.4166799959341685
134,0.41668155668179196,0.416682886381944
135,0.41668205206924014,0.4166865451137225
136,0.41668197370237775,0.41668961656093595
137,0.41668170759412976,0.41667898327112196
138,0.41668145338694257,0.41667576392491656
139,0.41668122924698725,0.41668184427420296
140,0.41668170250786674,0.41667473477125166
141,0.41668187050686945,0.4166782768368721
142,0.41668107491731643,0.41667950989802677
143,0.41668187775876786,0.41667886861165365
144,0.4166811123424106,0.4166753345330556
145,0.41668106771177715,0.4166736679077148
146,0.41668165577120253,0.4166746392448743
147,0.41668099776241513,0.4166791196068128
148,0.41668090361356735,0.4166738744974136
149,0.41668128593762715,0.41668345367908477
150,0.41668077471521164,0.41670567166805267
151,0.41668075730403265,0.4166776006221771
152,0.4166809275282754,0.41669512103001277
153,0.41668092571364507,0.41667436172564826
154,0.41668114158180025,0.4166775266329447
155,0.41668091334236995,0.416675044020017
156,0.41668064553870093,0.4166781146923701
157,0.4166808645327886,0.4166763666470846
158,0.4166810436447461,0.41667682711283366
159,0.41668068528837626,0.41667872593800226
160,0.41668086621496414,0.41667991532882054
161,0.41668014350864624,0.4166760824918747
162,0.41668109454049007,0.416703098098437
163,0.41668076389365727,0.41667758373419445
164,0.41668047463231617,0.41668050140142443
165,0.41668063991599613,0.4166834003925323
