epoch,loss,val_loss
0,0.8909677427477307,0.8902921145757039
1,0.8901397289832433,0.8900209509929021
2,0.8900144534640843,0.8899241806666056
3,0.8899535135825475,0.8899713149865468
4,0.8899343786504533,0.8899207258224487
5,0.8899198376602596,0.8901831473906835
6,0.8899156849516763,0.8898940331935883
7,0.8899044655031628,0.8899588545163473
8,0.8899000523487727,0.8898737619320551
9,0.8899029354254405,0.889857918103536
10,0.889895197444492,0.8898696405092875
11,0.8898897398975161,0.8898867177168528
12,0.889887638423178,0.8898846323887507
13,0.8898840005132888,0.8898700543642044
14,0.889880187008116,0.8900237145821254
15,0.8898815128538343,0.890163144270579
16,0.8898801435629526,0.8898561425606409
17,0.8898800823423597,0.8898475207487742
18,0.8898761380645964,0.8898548993666967
19,0.8898815976513756,0.8899336695671082
20,0.8898768953747219,0.8898539611498515
21,0.8898733682367537,0.8898530611197154
22,0.8898756076097488,0.8899420983393987
23,0.8898712437682682,0.8898561982711156
24,0.889875255730417,0.8898366874456406
25,0.8898746108214061,0.8898586828708649
26,0.8898755282825894,0.8898567819197972
27,0.8898738030327691,0.8898734989563624
28,0.8898742937246958,0.8898729664087296
29,0.8898711530367533,0.8898707971572876
30,0.8898740992281172,0.8898914626042048
31,0.8898686178790198,0.8898540965716044
32,0.8898748219278123,0.8898463546832402
33,0.8898705766465929,0.8898586130936941
34,0.8898700447744793,0.8898408492406209
35,0.8898740216361152,0.8899544959068298
36,0.8898738638295067,0.8898586912552515
37,0.8898711974885729,0.889845407128334
38,0.8898704883390003,0.8898766500552495
39,0.8898707663350635,0.8898472018241882
40,0.8898667596578598,0.8898706077337265
41,0.8898681335846583,0.8898758481343587
42,0.8898739030096267,0.889849699139595
43,0.8898729682101144,0.8899359978834788
44,0.8898667905992932,0.8898729141950608
