epoch,loss,val_loss
0,0.6713322838412391,0.6701732351382573
1,0.6700445965396034,0.6703340925772985
2,0.6698677568700578,0.6698196977376938
3,0.6698335553142759,0.6697363809347153
4,0.6697799077166451,0.6696204004685083
5,0.6697800006734,0.6696980180342992
6,0.669743208275901,0.6695854361454646
7,0.669724338081148,0.6695881261428197
8,0.6697174055841234,0.6696251051823298
9,0.6696946073505613,0.6695989060401917
10,0.6696837655438317,0.6695936863422394
11,0.6696672426859538,0.6695683009227117
12,0.6696581313477622,0.6699460697571437
13,0.6696635651720895,0.6696150859594345
14,0.6696625953647826,0.6696483433246613
15,0.6696461807489396,0.6695505197842916
16,0.6696372824509939,0.6698629977703094
17,0.6696429225206375,0.6695790165662765
18,0.6696360071765052,0.6695572681029638
19,0.6696295994917552,0.6695630714893341
20,0.6696318589713839,0.6696554407278696
21,0.6696348020368152,0.6696527475118637
22,0.669633465912607,0.6700306592384974
23,0.6696305759218004,0.6695912567774455
24,0.6696283683114581,0.669571076631546
25,0.669629333337148,0.6695820477406184
26,0.6696240953207016,0.6695507609446844
27,0.6696305448876487,0.6698346928755442
28,0.6696248798237907,0.669647402604421
29,0.6696247392495474,0.6695920435984929
30,0.6696275068918864,0.6698421336015066
31,0.669621706644694,0.6697903099060059
32,0.6696192846033309,0.6697029598553975
33,0.6696262394587199,0.669536895553271
34,0.6696202224095662,0.6696212456226349
35,0.6696260291073057,0.6697966516812642
36,0.6696186261706882,0.6695523418188095
37,0.6696187149948544,0.6695811992088954
38,0.6696212196747462,0.6695588668584823
39,0.6696173969374762,0.6696305849552154
40,0.6696182357072831,0.6695431602001191
41,0.6696286522282494,0.6695318754514058
42,0.6696190049383376,0.6695546908775966
43,0.6696251742309994,0.6695309433539709
44,0.6696161414782206,0.6697224990129471
45,0.6696227343877157,0.6695475695927938
46,0.6696178365945816,0.669541580716769
47,0.6696262117889192,0.6697958697080613
48,0.6696140775945452,0.6697536203861236
49,0.669622007449468,0.6696775464216868
50,0.669620543466674,0.6701049775282542
51,0.6696224733988444,0.6697369354565939
52,0.6696144049432543,0.6696637564102809
53,0.6696238195233875,0.6695439019203187
54,0.6696130639049742,0.6696066929499308
55,0.6696246446238624,0.6696674270629883
56,0.6696119974851609,0.6695442150831222
57,0.6696156366401248,0.6699279533624649
58,0.6696331165896522,0.6695619382063548
59,0.6696123586628172,0.6696723275581996
60,0.66961940463384,0.6695386720498403
61,0.6696275347603692,0.6695860698620478
62,0.6696106546322504,0.6696506023804347
63,0.6696147655116187,0.6695489149490992
