epoch,loss,val_loss
0,0.8904863366418415,0.8904053082466126
1,0.890038539701038,0.8899883213837941
2,0.8899646860361099,0.8898890827496847
3,0.8899421286185583,0.8899776918888092
4,0.889925330599149,0.8899072270790735
5,0.8899176843033897,0.889880369067192
6,0.8899072532918718,0.8898856783310573
7,0.8899044756889343,0.8899530090888341
8,0.8899026359452141,0.8898655574719111
9,0.8898920533392164,0.8900091319481532
10,0.8898944915135701,0.88988427734375
11,0.8898854585621092,0.8898691799640656
12,0.8898887737856971,0.8899222412904103
13,0.8898856806357701,0.8898772138754527
14,0.8898823034630882,0.8898596839507421
15,0.8898868472708596,0.8898618003924688
16,0.8898806334998872,0.8898715210358302
17,0.8898801826768451,0.8898626807928085
18,0.889879376716084,0.8898517165184021
19,0.8898805140124427,0.8898918961683909
20,0.8898764670424991,0.8898579840660095
21,0.8898807322846518,0.889869787812233
22,0.8898780584335327,0.8898458014329275
23,0.8898768703805076,0.8899003610213597
24,0.8898755128516092,0.8898570163249969
25,0.8898766671286689,0.889851346373558
26,0.8898759947750303,0.8898729471762975
27,0.8898754931555853,0.8898462992906571
28,0.8898732731872134,0.8898744157950084
29,0.8898779454231263,0.8898712716499965
30,0.8898743242820104,0.8898632593552271
31,0.889871206800143,0.8898461307684581
32,0.8898750331799189,0.8899526711702347
33,0.889873746474584,0.8898468985557556
34,0.8898751080168618,0.8898635075092316
35,0.8898747605482737,0.8899332774877549
36,0.8898713130950928,0.8899160773356756
37,0.8898717243936327,0.8898506256341934
38,0.8898735620710585,0.88985542456309
39,0.8898742567300797,0.8898803656101226
40,0.8898710854848226,0.8898921707073848
41,0.8898724112245772,0.8898628505468369
42,0.8898705744610892,0.8898437968095143
43,0.889871464504136,0.8898469547828038
44,0.8898716305891673,0.8898535399436951
45,0.8898722388611899,0.8898925997018814
46,0.8898735657930374,0.8900002036094665
47,0.8898736161788304,0.8898541916608811
48,0.8898700371185938,0.8900351272424062
49,0.8898712070782979,0.8898476203680038
50,0.8898711924155553,0.8899064675569535
51,0.8898718709945679,0.8898557345072429
52,0.8898694766892328,0.8898483040332794
53,0.8898727858331469,0.8898481390873592
54,0.8898717562754949,0.8898463840087255
55,0.8898705546855926,0.8899181253115336
56,0.8898681052790748,0.8898689959843954
57,0.8898706670734617,0.8898427679538726
58,0.8898699985742569,0.8898649692138036
59,0.8898734708362156,0.8898792713880539
60,0.889870621005694,0.8898521232207616
61,0.8898694459729725,0.8899068961143494
62,0.8898693506850137,0.8898477091391881
63,0.889870704319742,0.8899167415698369
64,0.8898717164331013,0.8898570988178253
65,0.8898666432036294,0.8900527269442876
66,0.8898721466991637,0.8898592729568482
67,0.8898695783217748,0.889842668056488
68,0.8898718702395757,0.8899384763240814
69,0.8898653709756004,0.889971527894338
70,0.8898685532013575,0.889852796514829
71,0.8898707441621356,0.889840929031372
72,0.8898688297669093,0.889855799237887
73,0.8898695058690177,0.8899629709323247
74,0.8898709252410465,0.889844999273618
75,0.8898685028420554,0.8898689170678457
76,0.8898691486120224,0.8899083463748296
77,0.889870998594496,0.8898952530622483
78,0.889868423236741,0.8898769382635753
79,0.8898709296517902,0.8898944615920384
80,0.8898669036626816,0.8898714827299118
81,0.8898697907924652,0.8902832056681315
82,0.8898710418674681,0.8898452330032984
83,0.8898685009214613,0.8899068468809128
84,0.8898677014642291,0.8898537735144297
85,0.8898685898780823,0.8898358364105224
86,0.8898668777810202,0.8899047365188598
87,0.8898687932756212,0.8898481454054514
88,0.889868609547615,0.889915408651034
89,0.8898669886191686,0.8898551052014033
90,0.8898695761627621,0.8898534968296686
91,0.8898739427990383,0.8898627061049144
92,0.8898665493196911,0.8898403547207514
93,0.8898678568601608,0.8898410705725351
94,0.8898699626127878,0.8899629429976146
95,0.8898693525791168,0.8898591903845469
96,0.8898678802516725,0.8898547468185425
97,0.8898708503246308,0.8899106684128444
98,0.8898695914083057,0.8898699307839075
99,0.8898669492536121,0.8898479932546616
100,0.8898676723241806,0.890294521053632
101,0.8898717283672757,0.8898644706805547
102,0.8898672827879588,0.8898978088696797
103,0.8898681768841213,0.8898710910081863
104,0.8898648382160399,0.8898493087291718
105,0.889870736334059,0.8898723040819168
