epoch,loss,val_loss
0,0.5621849100324843,0.5604212582111359
1,0.5603614434401194,0.5603219712575277
2,0.5600596233871248,0.5599050158262253
3,0.5598328799406688,0.5595916109482447
4,0.5596956653197607,0.5597550230820973
5,0.559657646589809,0.5596277943849564
6,0.5596273501846526,0.5595372495253881
7,0.5596017913685905,0.5597009210586548
8,0.5595820675690969,0.56056631731987
9,0.5595762374003729,0.5598417008320491
10,0.5595655988322364,0.5600031646092732
11,0.559549576997757,0.5596160521904627
12,0.5595529061820772,0.5594370786348979
13,0.5595423630078633,0.5595626986821493
14,0.5595329266389211,0.5596616914272309
15,0.5595250596337848,0.559381399234136
16,0.5595171014865239,0.5595859807729721
17,0.5595274972915649,0.5598973151445389
18,0.5595081433587604,0.5594080660740535
19,0.5595142581065495,0.5594973289966583
20,0.5595109312269423,0.5595172202984492
21,0.5594912751515706,0.559485897620519
22,0.5595120217667685,0.5594141393105189
23,0.5595015902121862,0.5602859969139099
24,0.5595112569994397,0.5595640505949656
25,0.5595028749174542,0.5593758566776912
26,0.5594887252251307,0.5595506502389908
27,0.5594956577354008,0.5594230777819952
28,0.5594996586243312,0.5593755954106648
29,0.5594880064196057,0.5595141311486562
30,0.5594900126722124,0.5594173069794973
31,0.5594917038679122,0.5597216193675995
32,0.5594786109129588,0.5594358807007471
33,0.5594853341579438,0.5593905784686406
34,0.5594817530181673,0.5594512422482173
35,0.5594878522952398,0.5593780808051427
36,0.5594805059697893,0.5595816179116567
37,0.5594768458737267,0.5594396756887436
38,0.5594800626039504,0.5596111062367757
39,0.5594796141650942,0.559389984647433
40,0.5594740093284183,0.5595979894002279
41,0.5594830591811074,0.5595429488420487
42,0.5594748327732086,0.559641887108485
43,0.559483519408438,0.5603105288743973
44,0.5594763648112615,0.5594083885749181
45,0.5594836240741942,0.5594735914866129
46,0.5594738157722685,0.5598771568139395
47,0.5594770267672009,0.559472962975502
48,0.5594719813797209,0.5595915247201919
