epoch,loss,val_loss
0,0.6715548926591873,0.6703941249847412
1,0.6701536467207803,0.669909612218539
2,0.6699358558389875,0.6696993395884832
3,0.6698246304856407,0.6697030707995096
4,0.6697914227379693,0.6700141205787659
5,0.6697457274066078,0.669729634086291
6,0.6697354877127542,0.6696282476584117
7,0.669715216477712,0.6696459139188131
8,0.669708407415284,0.669660610795021
9,0.6696873978906208,0.6697140831549963
10,0.6696690329710643,0.6697750258445739
11,0.6696715593205558,0.6696133790016174
12,0.6696730273829566,0.6697035969893138
13,0.6696524866024653,0.6698855273326239
14,0.6696594526635276,0.6696918329397837
15,0.6696528125868904,0.6695913458267848
16,0.6696472886668311,0.6697222195863723
17,0.669645902911822,0.6695670550266901
18,0.6696446789768007,0.6695621922810873
19,0.6696370633973016,0.6697574812173843
20,0.6696331173578898,0.6696267699797949
21,0.669635982076327,0.6697582109769186
22,0.6696396379338371,0.6699762224753698
23,0.6010818393627803,0.5595605785051981
24,0.5595169019301732,0.55942449426651
25,0.5595104564295875,0.5595217152833939
26,0.5595473486185074,0.5593959153493245
27,0.5594905222521888,0.5594146515130997
28,0.5594974431329304,0.5594487166404725
29,0.559565403368738,0.5595594447453817
30,0.5594900873237186,0.5599342853228251
31,0.559507076356146,0.5595810341835022
32,0.5594919055832757,0.5595102886756261
33,0.5595019666486316,0.5593986910184224
34,0.5594875845776663,0.5595089045763015
35,0.5594949105580648,0.5597637213865916
36,0.5594959694676929,0.5594370876550674
37,0.5594876468711429,0.5598966576258342
38,0.5594850336843067,0.5594679962793986
39,0.5594719376431571,0.5593877522150675
40,0.5594968620803621,0.5594310200214386
41,0.5594803190761143,0.5597534803549449
42,0.5594944215350681,0.5593977110783259
43,0.5594846773809857,0.5594160768588384
44,0.559490521841579,0.5594918175935745
45,0.5594907310671277,0.5594941318829855
46,0.559482385635376,0.5593806476593017
47,0.559491970817248,0.5595022774537405
48,0.5594848348034753,0.5594234671990077
49,0.5594992493391037,0.5594354764620463
50,0.55948125216696,0.5594304474194844
51,0.5594882349835502,0.5594472854137421
52,0.5594886037773557,0.559519056002299
53,0.5594870659642749,0.5594227977991104
54,0.5594947891367806,0.5595789200464885
55,0.5594893096685409,0.559409009774526
56,0.5594886464410358,0.559437288959821
57,0.5594785054657194,0.5596993983983993
58,0.5594726483954323,0.5605695355733236
59,0.5594919294516245,0.5594259301424026
60,0.55947279534075,0.5598423921664556
61,0.5594773210022185,0.5596173852284749
62,0.559478573653433,0.5593684318065644
63,0.4790210227039125,0.44952866274118425
64,0.4493560653593805,0.44923846938212714
65,0.44936071554819745,0.4492873750329018
66,0.4493471044898033,0.4492505613168081
67,0.4493396264579561,0.4494473924835523
68,0.44935133394267823,0.449414957066377
69,0.44934462073114184,0.44940302606423693
70,0.4493468362490336,0.4497490326960882
71,0.4493566992017958,0.44997008123000465
72,0.44934459565083185,0.44962061528364816
73,0.44934344436062706,0.4494270391861598
74,0.44932853182819155,0.4492589626510938
75,0.44933919737736383,0.44933628461758296
76,0.44934479857153364,0.44931419779857
77,0.4493546001513799,0.4495959457159042
78,0.4493468858798345,0.4492563067475955
79,0.4493420285582542,0.4497436597744624
80,0.4493661820292473,0.44924030208587645
81,0.44934514250357943,0.4492384916941325
82,0.44935030402739845,0.44929537520805995
83,0.4493355626265208,0.4492223392724991
84,0.4493654387527042,0.44922124183177947
85,0.4493273787697156,0.4495609059135119
86,0.4493458933035533,0.4493192263245583
87,0.4493532621992959,0.4492291522224744
88,0.44934864352146786,0.44927081710100175
89,0.4493485174510214,0.4492349903782209
90,0.44935703411367206,0.44926395030816396
91,0.44933596560027866,0.449284804324309
92,0.44934043594201406,0.44975497806072234
93,0.44934092595179875,0.45058823853731156
94,0.449341566602389,0.4492967880566915
95,0.44936298834615285,0.4498589965899785
96,0.4493425488935577,0.4494798308412234
97,0.449355706539419,0.4492523669799169
98,0.4493600822620922,0.4492626054684321
99,0.44933506769604153,0.4492403983871142
100,0.4493520147535536,0.44922386040290196
101,0.44934541973140507,0.4492546456654867
102,0.449333158797688,0.44942398816347123
103,0.4493413503832287,0.4493820437590281
104,0.4493566605978542,0.44959204145272574
