epoch,loss,val_loss
0,0.7810295999050141,0.7800628168582916
1,0.780125139594078,0.7798935243288676
2,0.7799607070419523,0.7797889140446981
3,0.7798827041520012,0.779973096370697
4,0.7798493148088456,0.7797819321552912
5,0.779828564564387,0.7798624263207118
6,0.779814145286878,0.7797400401433309
7,0.7797993673880895,0.7798533859650294
8,0.7798005432287852,0.7797154977321624
9,0.7797860175768534,0.7797015616893769
10,0.779776324417856,0.7797518887917201
11,0.77977912179629,0.7797604870398839
12,0.7797645156913333,0.7796963485876719
13,0.7797678138547474,0.7797022147178649
14,0.7797661626603868,0.7797102065881093
15,0.7797608269055685,0.77974880250295
16,0.7797633514934116,0.7797558091878891
17,0.7797594622638491,0.779723928252856
18,0.7797614639467664,0.7797423742214838
19,0.7797602701584498,0.7797112983862559
20,0.7797581687900755,0.7797191027005513
21,0.7797550653484132,0.7801035296122233
22,0.7797541208399666,0.7796884570121765
23,0.7797526365783479,0.7796941081682841
24,0.7797452640665902,0.7797211867173512
25,0.7797511681715648,0.7797010068098704
26,0.7797521569331487,0.7796905226707459
27,0.7797481840186649,0.7796858379443486
28,0.7797526142464744,0.7798707214593887
29,0.7797473737398783,0.7797203393777211
30,0.7797512801620695,0.7800029411315917
31,0.7797558036777709,0.7797937069733938
32,0.7797432250049379,0.7797966160376867
33,0.7797471416261461,0.7797173524697621
34,0.7797484150330226,0.7797300318479538
35,0.7797446709341473,0.7797245616118114
36,0.7797489945491155,0.7800643976132074
37,0.7797456890741984,0.7796886219580969
38,0.7797448290056652,0.7797679708003998
39,0.7797407423257827,0.7798482982317606
40,0.779744298948182,0.7797055549621582
41,0.7797422624296613,0.7797008768717448
42,0.7797395538621479,0.7796852832237879
43,0.7797526345385446,0.7797223223845164
44,0.7797360811365975,0.7798840609788895
45,0.7797477523618275,0.7798337579568227
46,0.7797445474068324,0.7797107363144556
47,0.7797384430434968,0.7796930032173792
48,0.7797455415725708,0.7797957772016525
49,0.7797414348655277,0.7798473931948344
50,0.77973754910628,0.779719952305158
51,0.7797434455156327,0.7796837190786997
52,0.7797435330814786,0.7798398706118266
53,0.7797421658701367,0.7797202392816543
54,0.7797378245062299,0.7797004338502884
55,0.7797445760700438,0.7798138771057129
56,0.7797372616926829,0.7798038845856985
57,0.7797382305992974,0.7796796236038208
58,0.7797396942244635,0.7797076773246129
59,0.779737662990888,0.7796922988096873
60,0.7797355058060752,0.7796817898352941
61,0.7797460222906537,0.779713534673055
62,0.7797327248520322,0.779700408021609
63,0.7797447402212355,0.7798762842019399
64,0.7797348060078091,0.7799877240657807
65,0.7797404962380727,0.7798501547574997
66,0.7797338883214526,0.779794558207194
67,0.7797310677104526,0.7798731389840444
68,0.7797370135386785,0.7797853631575903
69,0.7797381848759122,0.7798437382777532
70,0.7797428393231498,0.7797256885369619
71,0.7797353586090936,0.7804130404392878
72,0.7797422863642375,0.7797612217267355
73,0.7797310425572925,0.7797321954170863
74,0.7797376679182053,0.7797230690717697
75,0.7797332164314058,0.7797138816515604
76,0.7797372303538852,0.7797690611680349
77,0.7797388226058748,0.78013989063104
