epoch,loss,val_loss
0,0.5625651485522588,0.5602848329544068
1,0.5604218190908432,0.5600236318508784
2,0.5600028303464254,0.5597786819934845
3,0.5598096960783004,0.5600435454448064
4,0.540670816746023,0.44951488451162974
5,0.4496187062131034,0.4497242556413015
6,0.4495797998044226,0.44941160307327904
7,0.4495782529711723,0.4493490127325058
8,0.4495187025136418,0.4493565684556961
9,0.4494958703385459,0.4496324010292689
10,0.44949991209639445,0.44947212872902553
11,0.4494743291404512,0.4494009945789973
12,0.44945470496681,0.4492969931960106
13,0.4494432953198751,0.4493631133834521
14,0.4494512606726752,0.4493668438792229
15,0.44945483889844684,0.44931280153989794
16,0.44944631734821533,0.44972272207339603
17,0.4494298069543309,0.4493836894830068
18,0.4494293364153968,0.4493774049282074
19,0.4494320891499519,0.4493438893556595
20,0.44941651264164184,0.4493810020685196
21,0.4493964211742083,0.4493038710157077
22,0.4493969995379448,0.44930810179313024
23,0.44940013547738394,0.4493474409381549
24,0.44940744637118446,0.4493009022474289
25,0.44939105739858415,0.4496640419165293
26,0.4494014117055469,0.4494027635455132
27,0.4493870797952016,0.44951557644208273
28,0.4494020749926567,0.44931028626362485
29,0.4493956155644523,0.4495030061006546
30,0.4493748400476244,0.4493012289404869
31,0.4493632825811704,0.4493081647157669
32,0.4493855946328905,0.4492523877223333
33,0.44938585103882683,0.4494221698641777
34,0.4493729093273481,0.44944395144780475
35,0.4493875758912828,0.4492342778642972
36,0.4493724585440424,0.4505592017571131
37,0.44937329583035573,0.4493073625365893
38,0.44937590917613773,0.449380267282327
39,0.44938332512643603,0.44941012614965437
40,0.44937527872456445,0.44922352262338
41,0.4493780170414183,0.4492448533376058
42,0.4493686529199282,0.44953169280290606
43,0.4493736622267299,0.4498463005622228
44,0.4493759870992767,0.44985345429182055
45,0.4493774546649721,0.4493948623538017
46,0.44937824801603954,0.4492383701602618
47,0.4493513190017806,0.4494965587457021
48,0.44935856278737385,0.4492649927735329
49,0.4493550316890081,0.4493137842218081
50,0.4493588943282763,0.44921974003314974
51,0.44937941926717756,0.44961656667788824
52,0.4493595983253585,0.4494042247136434
53,0.4493666230638822,0.449277602215608
54,0.44935750350024967,0.4492601691087087
55,0.44935831252733865,0.45016997532049813
56,0.44936854071087307,0.44979407318433123
57,0.4493538581132889,0.4492796276609103
58,0.4493544701668951,0.4494293251633644
59,0.449356588323911,0.4500056383808454
60,0.44935585010051726,0.449241203725338
61,0.44937231957912444,0.44942421891291934
62,0.4493572618365288,0.44924608027935026
63,0.44936260124047595,0.44944797972838085
64,0.44935895009835564,0.4493553837140401
65,0.4493571681049135,0.4491982843478521
66,0.44935299489233227,0.4492389255563418
67,0.44936205637454985,0.4493207660118739
68,0.44934453587399587,0.44933474600315093
69,0.4493668121960428,0.44933501740296683
70,0.4493597297668457,0.44957222255071005
71,0.4493461657894982,0.4492190328836441
72,0.44935127415921955,0.44980687791109086
73,0.4493519456055429,0.4493811092575391
74,0.44935488914781146,0.4492077213724454
75,0.449352550804615,0.4498004947900772
76,0.4493502689070172,0.4492654992540677
77,0.44934952327277927,0.44926553463935853
78,0.4493519189423985,0.44922677673896155
79,0.44935706680350834,0.44920653955141704
80,0.44935545606745614,0.44934997977813085
81,0.4493452306456036,0.44928564902146656
82,0.4493475142849816,0.4496397264202436
83,0.4493584546115663,0.4492317548592885
84,0.449345382809639,0.4492821734547615
85,0.44934979016913307,0.4494038629134496
