epoch,loss,val_loss
0,0.6716682664288415,0.6700697543223699
1,0.6701142865551842,0.6697754598855973
2,0.6599448610544205,0.5597718580166499
3,0.5598025234407848,0.5595796858867009
4,0.5597031072907978,0.5595365093151728
5,0.5596429209444258,0.5599404422839482
6,0.5596371139552858,0.5594647237062454
7,0.5596006446679433,0.5594443321228028
8,0.5596026095284355,0.5594869603713354
9,0.5595891411039564,0.5595106919606526
10,0.5595849411884943,0.5594029333194097
11,0.5595741288132138,0.5598497114578883
12,0.5595710809495714,0.5596725323994954
13,0.5595652694569694,0.5594335982004801
14,0.5595618761115604,0.5594093300501506
15,0.559532883670595,0.5594684898853302
16,0.5595279531743791,0.5594739859898885
17,0.5595312600268258,0.5597055151859919
18,0.5595226869053311,0.559766185482343
19,0.5595341888666153,0.5596790479024252
20,0.5595121513870027,0.5594927219947179
21,0.5595249505970213,0.5593995428880055
22,0.559516385462549,0.5594304132064184
23,0.5595191006792917,0.5593763550917308
24,0.5595140315559175,0.5597140017350515
25,0.5595282337268194,0.5595283782482148
26,0.5595050938526789,0.5595178296963373
27,0.5595086442629497,0.5601672244469325
28,0.5595138737228181,0.5599874310890833
29,0.5595158504512575,0.5594805972178777
30,0.5594978840351105,0.5594592273235321
31,0.5595007959869173,0.5594074440399806
32,0.5595132594373491,0.559884179631869
33,0.5594936652978262,0.5597608842452367
34,0.5595070903566148,0.559413059592247
35,0.5594989751842286,0.5593925772507985
36,0.559503454791175,0.5594141300519307
37,0.559486403465271,0.5594459791580836
38,0.5594984969562954,0.5604228611389795
39,0.559509891072909,0.5594227655728659
40,0.5594992145299912,0.5593808114528656
41,0.5594855182435777,0.5594142326116562
42,0.5595007760127385,0.5594542489846548
43,0.5595068593555027,0.5594127529064814
