epoch,loss,val_loss
0,0.5966632638246532,0.5865343198256968
1,0.5860376864538286,0.5855233117707734
2,0.5858709258205512,0.5854468672519934
3,0.5855897218253693,0.5854215720742226
4,0.5855237343105347,0.585396816821987
5,0.5853627013240186,0.5856420295576067
6,0.5852652836490322,0.5851428236730951
7,0.5853133727744203,0.5852149030755226
8,0.5852679731333801,0.585089326984909
9,0.5852007761526687,0.5858975807712776
10,0.5851811424431075,0.5854462768494034
11,0.5851830866879713,0.5850661866807624
12,0.5851279100907093,0.5849747672706159
13,0.585133429056974,0.5851254767413503
14,0.5851285299030566,0.5849613487815789
15,0.5774803562152673,0.5696691156259586
16,0.5696939515302839,0.5695694154904396
17,0.5696977346554561,0.5697146701461194
18,0.5696881207567712,0.5698973973493293
19,0.5696564409974925,0.569781859998149
20,0.569660970591882,0.5695675863828301
21,0.5696372611639521,0.5695634671396081
22,0.5696623073937352,0.5695869312508319
23,0.5696351185226061,0.5696026960281606
24,0.5696283283835548,0.569621545687347
25,0.5696431199996653,0.5696597989403052
26,0.5696104127284287,0.5696918368763093
27,0.5696073216790175,0.5695825269345514
28,0.5696000279748186,0.5696478337499511
29,0.5695959325256563,0.5695791791844567
30,0.5696000249971983,0.5695685778911128
31,0.569578391282633,0.569707259729036
32,0.569579628391387,0.5697860363788134
33,0.5695844696828992,0.5697848319287282
34,0.5695878414489105,0.5697012481415837
35,0.5695619215678267,0.5698096479292046
36,0.5695594110202453,0.5695081918314563
37,0.5695520068744296,0.569488629171958
38,0.5695460256428507,0.5695340494572492
39,0.5695378094227528,0.5695618147916958
40,0.5695558363087273,0.5695884186244388
41,0.569520751885604,0.5695362716865573
42,0.5695360105123022,0.5695407351945174
43,0.5691657554285269,0.554971622740911
44,0.5541399273201006,0.5544165712009422
45,0.554151106150968,0.5541978618733984
46,0.5541280148482084,0.5541148749056877
47,0.5541482683418798,0.5541576197905955
48,0.5541069229871192,0.554150865426981
49,0.5541307562834886,0.5541747198644467
50,0.5541330406335822,0.5543100848823103
51,0.554105863839534,0.5542056818249002
52,0.5541200294127432,0.554054490857913
53,0.5490696931093141,0.53870439104806
54,0.538731407527066,0.5387743466233759
55,0.5387259477870666,0.538732736143301
56,0.5387265555477465,0.538761101823269
57,0.5387273431911415,0.5386852378276805
58,0.5387115663667414,0.5387478463284222
59,0.5374683557784571,0.5233189647755544
60,0.5233211631892595,0.5233653512405956
61,0.523340865481506,0.5233696038186348
62,0.5233283014924579,0.5233682505316538
63,0.5233240306107745,0.5233161201229696
64,0.5233327834195093,0.523324292789113
65,0.5233172559542193,0.5233104894376813
66,0.5233110758997753,0.5233919593830011
67,0.5233263625279639,0.5233718464103044
68,0.5233092087567817,0.523281138210954
69,0.5233106471069229,0.5235826112614536
70,0.523315085319854,0.5233840781961713
71,0.5233105121821798,0.5233349760507559
72,0.5233143933598658,0.5232929700029576
73,0.5233053634729035,0.5233145120258673
74,0.5233132624726684,0.5233694792513865
75,0.5233029816166873,0.5233103302872442
76,0.5232951056571241,0.5232740335787226
77,0.5232933954328844,0.5236202800309897
78,0.5233004279394973,0.5232705420955585
79,0.5232917810191191,0.5233061187939484
80,0.5232947248958707,0.5235280291630502
81,0.5233019372583732,0.5232640560640284
82,0.5232876204632797,0.5233039954539238
83,0.5232815689590148,0.5233213287366392
84,0.5232791244697065,0.5232985294993976
85,0.5232865784514827,0.5232545174042822
86,0.5232813809750264,0.5232699031960288
87,0.5232834485504095,0.5232629306173638
88,0.5232759785778663,0.5234690423248123
89,0.5232728394785019,0.5232641095800835
90,0.5232691565179914,0.5232657942981147
91,0.5232732034964651,0.5235897622304988
92,0.5232713935325347,0.5233063473013625
93,0.5232681163656189,0.5232708844437144
94,0.5232637222381279,0.5233973454128766
95,0.5232682401055786,0.523333408138345
96,0.5233213045280989,0.5232914209175246
97,0.5232582914032116,0.5232964109137673
98,0.5232634334004885,0.523259038600305
99,0.5232647931267707,0.5233597438719583
100,0.5232743400734728,0.5232707119407356
101,0.5232672016897982,0.5234510228845234
102,0.5232581530109316,0.5232971445729284
103,0.5232647717356256,0.5233362399784196
104,0.5232536528835467,0.5232434071577936
105,0.5232576315899452,0.5232385879809023
106,0.5232660627832156,0.5232606322436248
107,0.5232537445939693,0.5232670959856227
108,0.5232556860504026,0.523393197696233
109,0.5232678516200195,0.5232496106787672
110,0.5232492039701016,0.5233127037782952
111,0.5232652890184397,0.5232589879114731
112,0.5232561196167658,0.5234025072661783
113,0.5232563728500295,0.5232598234777405
114,0.5232548988743345,0.5234917418256622
115,0.5232466605670426,0.5233317240027006
116,0.5232527138248422,0.5233046998031441
117,0.5232574488665607,0.523284415661664
118,0.5232569309709977,0.5232784154466381
119,0.5232474084763609,0.5234481157788927
120,0.5232517739726702,0.5232705306807766
121,0.5232537720928363,0.52327569390004
122,0.5232487681574634,0.5232401161639426
123,0.5232586172457955,0.5234384215900966
124,0.5232461405960402,0.5233445451852166
125,0.5232416774933659,0.5232972794537181
