epoch,loss,val_loss
0,0.6688707871172164,0.6671561462084452
1,0.6673045674827364,0.66687155854702
2,0.6611913438638052,0.8616543330351512
3,0.594496258020401,0.5560044875939687
4,0.5559291812313928,0.5557260125478108
5,0.5557915808757147,0.5557987093925476
6,0.5557621657318539,0.5557331993977229
7,0.5558182360066308,0.5557255446116129
8,0.5557408361434937,0.5557351892391841
9,0.5557432408067915,0.5557110135555268
10,0.5557394296195772,0.555717118938764
11,0.555737582842509,0.5557030445337295
12,0.5626827805836996,0.5557577710151672
13,0.5557657046582963,0.5559240175485611
14,0.5561855323976941,0.5557525735696157
15,0.5558025747272703,0.5557420545021693
16,0.5557565433449215,0.5557034247716268
17,0.5557290795644124,0.5557189155419667
18,0.5557250657346513,0.5557257569630941
19,0.5557870817316903,0.5556963131825129
20,0.5557318235768213,0.5557213528553645
21,0.5557217482063506,0.5557293001810709
22,0.5561737063858244,0.5560630933443705
23,0.5558170466158125,0.5557393309672674
24,0.5557253954410553,0.5557196672360102
25,0.5557286841339535,0.5558049990733465
26,0.5557185171312756,0.5558118895689647
27,0.5557191296286053,0.5557120025555293
28,0.55572970714834,0.5557204047441483
29,0.5557184840573205,0.5556996116638183
30,0.5557169047329161,0.5556940856774648
31,0.5557163766092724,0.5558022822141647
32,0.5557280005746418,0.5557714327573776
33,0.5557376815610462,0.5556867247422537
34,0.5557345845301946,0.5557454884847005
35,0.5557119378381306,0.5556934784253438
36,0.5557085500160853,0.5556795028448105
37,0.5557097225586574,0.5557012605667114
38,0.5557122690280278,0.5557335070371627
39,0.5557142856121063,0.5557138308684031
40,0.5557142306566238,0.5557092669407526
41,0.5564238455030653,0.555824341972669
42,0.5557874789370431,0.5556973195075989
43,0.5557162770960066,0.555699760834376
44,0.6359134987327788,0.6667705575625101
45,0.666852360897594,0.6667792368332545
46,0.6667817804813385,0.6667623394727706
47,0.666783180475235,0.6667805555264155
48,0.666790238433414,0.6667718675931295
49,0.6667836649682787,0.6668135385513305
50,0.6667763182454639,0.6667571554581324
51,0.6667848473787308,0.6667535417079925
52,0.6667767234775756,0.666776739637057
53,0.6667786708407932,0.6667717489401499
54,0.6667765065828959,0.6667689850330353
55,0.6667758228381475,0.6667625992695491
56,0.6667769704527325,0.6667625489234924
