epoch,loss,val_loss
0,0.669185856435034,0.6667855930328369
1,0.6672233303917778,0.6668350559473037
2,0.6668966360886892,0.6668249082167943
3,0.6668693570958244,0.6667773015896479
4,0.6668250111076567,0.6668071748415629
5,0.6669726332690981,0.6668338617881139
6,0.6133010401593314,0.5556960779825847
7,0.5557720231744978,0.555703722079595
8,0.5557653811507755,0.5557065180937449
9,0.5557935237884521,0.5557251680294673
10,0.5557570713758468,0.5557101461092631
11,0.5557384401030011,0.5557633905808131
12,0.5557482443385654,0.5557578206459681
13,0.5558560022513072,0.55612029393514
14,0.5557352013455497,0.5557014613946278
15,0.555728462404675,0.555693622191747
16,0.5557454711993536,0.5557215378681819
17,0.5574389569891823,0.5561302640438079
18,0.5114062321848339,0.4447943383455277
19,0.4452453730636173,0.4447139771382014
20,0.44484585112333297,0.44546240788698194
21,0.45064168573088115,0.44479912155866624
22,0.5968617168863615,0.6668262891372045
23,0.6668385116789076,0.6667957266966502
24,0.6668316126532025,0.6668933229843775
25,0.6667992290258408,0.6667840385437012
26,0.666829223619567,0.6668369174400965
27,0.6667769809299046,0.6667784743706385
28,0.6668331855800417,0.6668454355398814
29,0.6667887417078018,0.6667771659692129
30,0.666776013996866,0.6667753130992253
31,0.6667713062233395,0.6667695070505142
32,0.6667679827610652,0.6667582251230876
33,0.6667661677863863,0.6667573380470276
34,0.6702833614349365,0.6668435459931692
35,0.6667883859872819,0.6667695351044337
36,0.6667861332893371,0.6668151284456253
37,0.6668976253006194,0.6667623365720113
38,0.6667797729041841,0.6668205545743306
39,0.6667797844409943,0.6667688949108124
