epoch,loss,val_loss
0,0.33937419519821804,0.3336008378068606
1,0.3360121616323789,0.3342354387243589
2,0.23681721731358105,0.222483781794707
3,0.22304613817069266,0.22600781178474427
4,0.15716383179525534,0.11152853415409723
5,0.11165138229893314,0.1114475240856409
6,0.11151403662727939,0.11145264287292957
7,0.11149229192237059,0.11138784697651863
8,0.11204949374331369,0.11146109803517659
9,0.11172736666103204,0.11152106562256812
10,0.11146696465379662,0.11145713135103384
11,0.11148236234651672,0.11145651429891586
12,0.11147328862713443,0.11138653832177321
13,0.11145565587778886,0.111381529952089
14,0.11145292104449538,0.11148584171136221
15,0.1114913244413005,0.11141567239662012
16,0.11147124122083187,0.11143054303030173
17,0.11143868814408779,0.11139146706958612
18,0.11148075305587715,0.11136800726254781
19,0.11144369640449683,0.11141575101017952
20,0.11240143753422631,0.11144526188075543
21,0.11157362338072724,0.11140496750175953
22,0.11165721051229371,0.11140912434458733
23,0.11186023822095659,0.11138487734893958
24,0.11152758692867226,0.11138734732071559
25,0.11156770878367954,0.11146946857372919
26,0.11149191401236587,0.11139993185798328
27,0.11146127630107933,0.11142416835824649
28,0.1114472889635298,0.11149985278149446
29,0.11152932142549091,0.1114034610738357
30,0.11144939933054977,0.11139731737474601
31,0.11151689581241872,0.111364292015632
32,0.11143620158069664,0.11139857691029707
33,0.11143514221244388,0.11139791948099931
34,0.11142934372689989,0.11137272643049557
35,0.11141864174438848,0.11140126959482828
36,0.11142748490472634,0.11168428359925747
37,0.11144349662297302,0.1114528861194849
38,0.11142327549556891,0.11150130858520667
39,0.1114425225208203,0.11148476620515188
40,0.1114252348906464,0.11139385532339414
41,0.11172578327026632,0.11150699935356775
42,0.11233895468877421,0.11144766558210055
43,0.11146359138190746,0.1114154391636451
44,0.11143909981515672,0.11139523907005787
45,0.1116017401251528,0.11137345148126285
46,0.11146747975051403,0.11147904356817405
47,0.11143822057214048,0.11140811880926291
48,0.11148164442181588,0.11145859165489673
49,0.11162596530550056,0.11144925092657407
50,0.11145899244480663,0.11148009892304739
51,0.11143363608419896,0.11158412251373132
