epoch,loss,val_loss
0,0.6681427554819319,0.6670655892690023
1,0.6671055994033813,0.6669592437744141
2,0.667003018922276,0.6669277016719183
3,0.6669679651790195,0.6669337804714839
4,0.6669398567808998,0.6669146734078725
5,0.6669425241814719,0.6669149992465973
6,0.6669295993645986,0.6669004205862681
7,0.6669192888074451,0.6668934227625529
8,0.6669157502121396,0.6669698834021887
9,0.6669142680168152,0.6668696103890737
10,0.6669138825734456,0.6668720045089722
11,0.666906203561359,0.6668769828478496
12,0.6669057119157579,0.6669143050909042
13,0.6669053409364488,0.6668695689439773
14,0.6669010476668675,0.667029158115387
15,0.6669006661044227,0.667174544175466
16,0.6669002283811569,0.666875225186348
17,0.6668982036246194,0.6668739768266678
18,0.6669006349245707,0.667010647336642
19,0.6668968506654104,0.6670350416898727
20,0.6668969932529661,0.6668686508337657
21,0.6668946549495062,0.6668665360212326
22,0.6668910998635822,0.6668699150482813
23,0.6668955420917935,0.6668790382146835
24,0.6668951390981674,0.6668634024858475
25,0.666892461432351,0.6668620107173919
26,0.6668909152216381,0.6668731792767842
27,0.6668872449530495,0.6668630283673604
28,0.6668877494732539,0.6668658900260925
29,0.666886015733083,0.6668613211711247
30,0.6668877675533295,0.6669793084462484
31,0.6668873724937439,0.6668650960922241
32,0.6668852898147372,0.6668595640261968
33,0.666886468940311,0.666867725332578
34,0.6668856283691195,0.666864899555842
35,0.6668833945592244,0.6668682823578517
36,0.6668846811188592,0.6668590335051219
37,0.6668824989265866,0.6668691425323486
38,0.6668851484325197,0.6669234390656154
39,0.6668860477606455,0.6668720612128576
40,0.6668845658567216,0.6668634947538375
41,0.6668860087924533,0.6668624604940414
42,0.6668812976015939,0.6668818765878677
43,0.6668805926508373,0.6668782827854156
44,0.6668834209177229,0.6668658792575201
45,0.6668813180128733,0.6668598374525706
46,0.666880132344034,0.6668667920827865
47,0.66687882551882,0.6668620477914811
48,0.6668821706639396,0.6668577975432078
49,0.6668818549844954,0.6668602874279023
50,0.6668798128234016,0.6668609611988068
51,0.6668790347576141,0.6669079631964365
52,0.6668802795012791,0.6669054679075876
53,0.6668814346525405,0.6669108499288559
54,0.6668791086276372,0.6668830268383026
55,0.666880748351415,0.6668652659257253
56,0.6668777658409543,0.6668601657946904
57,0.6668827027347353,0.6668543378909428
58,0.6668788863023122,0.6668709378242492
59,0.6668812048832575,0.6669119795163473
60,0.6668822177383634,0.6668765466610591
61,0.6668803840213352,0.6669111247857412
62,0.6668779852920108,0.6668582803408305
63,0.6668795192241669,0.6668689504464468
64,0.666878158821,0.6668560503721237
65,0.6668785356415643,0.6668644241094589
66,0.6668789237870111,0.666899568160375
67,0.6668807764848074,0.6668657305240631
68,0.666876358628273,0.666852750102679
69,0.6668781142367257,0.6668621036609014
70,0.6668782871431774,0.6668740098873774
71,0.6668854378196928,0.6668605905373891
72,0.6668828268051148,0.6668671705722808
73,0.6668791980213589,0.6668567312955856
74,0.6668849812878502,0.6668749224742253
75,0.6668765998548931,0.6668584843476614
76,0.6668775412638982,0.6668663235902786
77,0.6668770942952897,0.6668920523722967
78,0.6668798732625114,0.666864772995313
79,0.6668821746243371,0.6668815192778905
80,0.6668774335649278,0.6669302548964818
81,0.6668773393763436,0.6668573881785075
82,0.6668820935090383,0.6668939123948415
83,0.6668789188994302,0.666876211086909
84,0.6668802675406138,0.6668619244098664
85,0.6668768702480528,0.6668532706101735
86,0.6668792634540134,0.6668688324292501
87,0.666877748409907,0.6668797448078791
88,0.6668810589048597,0.6669133773644765
