epoch,loss,val_loss
0,0.4470894337362713,0.4451357621153196
1,0.44512896427843307,0.4449640683531761
2,0.34559705054097706,0.33402100481589636
3,0.33399792879157597,0.33394779882828396
4,0.3339542927675777,0.3338451806108157
5,0.33393726515107686,0.33414866880575816
6,0.3339123465882407,0.33403581060965853
7,0.33386468956867854,0.33390744296709696
8,0.3338533407118585,0.3339092322786649
9,0.3338376302454207,0.3337753702600797
10,0.33382779400216206,0.33383415585756304
11,0.3338234507242839,0.3337962119380633
12,0.3338238958848847,0.3337468063831329
13,0.33381104394462374,0.3337658349076907
14,0.3338153773546219,0.3339360272487005
15,0.3338083271384239,0.3337740654150645
16,0.33380771128998865,0.33376291145881015
17,0.3337953683800168,0.3337214042743047
18,0.3337944032351176,0.33374220514297487
19,0.3337929316626655,0.3338545302549998
20,0.3337865711847941,0.33375826668739317
21,0.3337831146650844,0.33373073569933576
22,0.3337846290138033,0.33373950388034185
23,0.33378648904297087,0.33374032759666444
24,0.3337788010835648,0.33373258330424627
25,0.3337795808050368,0.33373500663042066
26,0.33377499453889,0.3337211251060168
27,0.33377459367778567,0.3337871029774348
28,0.33376908118195003,0.33377336343129477
29,0.33376982370350095,0.3337556865811348
30,0.33377239101462897,0.3337169967691104
31,0.333772450890806,0.33375870482126874
32,0.33376837820476957,0.33372483267386754
33,0.3337693681253327,0.333839431921641
34,0.3337674584123823,0.3337362598180771
35,0.3337686852216721,0.3337315713564555
36,0.33376193321413467,0.33373390980561574
37,0.3337615065243509,0.333712214966615
38,0.33376566210058,0.33371610381205874
39,0.33376712754037646,0.3344484651684761
40,0.33376267609331345,0.33422682603200277
41,0.33376738697952696,0.33386693241198856
42,0.3337692656384574,0.3337179184556007
43,0.3337604109181298,0.33384511576096215
44,0.3337635696530342,0.3337263577183088
45,0.333767343627082,0.3338038983543714
46,0.3337604693836636,0.33383495394388835
47,0.33375539565086365,0.33372348711887995
48,0.33375579543908435,0.3337440896431605
49,0.3337612758212619,0.33389170974493027
50,0.33376315443383325,0.3337934674223264
51,0.33376307357019847,0.33406492282946904
52,0.33376520148913064,0.3337163086732229
53,0.33376342754893834,0.33371148773034415
54,0.3337593444916937,0.3337246965368589
55,0.333759069747395,0.33389707007010777
56,0.33376058542728426,0.33371642166376114
57,0.3337583589818743,0.33372428645690283
58,0.33376309142510097,0.33373301523923876
59,0.3337652445369297,0.33394078216950096
60,0.3337595121794277,0.33386941778659823
61,0.333761650370227,0.33376357092459996
62,0.3337591361006101,0.3337304011185964
63,0.3337595860163371,0.3337398286064466
64,0.3337584218117926,0.3337207222183545
65,0.3337638649940491,0.33373592821757
66,0.3337632712390688,0.33382912013928095
67,0.33376622827185526,0.33376651096343996
68,0.3337549741069476,0.33374174799521766
69,0.333759659436014,0.33378479854265847
70,0.333757485528787,0.3338704027334849
71,0.3337653064396646,0.33375030394395194
72,0.3337574968934059,0.3337447014252345
73,0.33376089447074464,0.33371428922812146
