epoch,loss,val_loss
0,0.22539755594068103,0.22304822782675426
1,0.22319825192954806,0.2231487057308356
2,0.22302143872446484,0.22325218843420347
3,0.2229465021987756,0.2227732870876789
4,0.22291997391647764,0.22275475839773815
5,0.2228831407427788,0.22297176547845204
6,0.22285352238019307,0.22389086785912513
7,0.22282909043961102,0.22272849794228872
8,0.22282509233885342,0.22275372795263926
9,0.22280672977368038,0.22281365578373274
10,0.2227922367056211,0.22273857814073564
11,0.2227831088569429,0.22273679383595785
12,0.22277830580539174,0.2226927921573321
13,0.22276312036646737,0.22281506023804346
14,0.2227713933719529,0.222879928757747
15,0.2227630431652069,0.2227186106244723
16,0.2227546231481764,0.22271153996388118
17,0.22275657605793742,0.22267758096257845
18,0.22274419996473524,0.22269586651523907
19,0.2227508758770095,0.2227127271493276
20,0.22273940002918244,0.22270587774117787
21,0.22274031904339792,0.22277733677625655
22,0.22273348166214096,0.22269175346692402
23,0.22273371585541302,0.22266652363538741
24,0.2227274604141712,0.22332750698924064
25,0.22272324934932922,0.2229504904250304
26,0.22272621875339085,0.22267583459615709
27,0.22272984210650126,0.22272322929898897
28,0.22272960208190812,0.2226728865901629
29,0.22272271876533825,0.2226659464140733
30,0.222723622550567,0.22270270922780036
31,0.22272513046529557,0.22266643009583156
32,0.22272166656454404,0.2228080777724584
33,0.22272324987914827,0.22267610662182172
34,0.22271790453791618,0.22273824828863145
35,0.22271852488650215,0.2226758946577708
36,0.22272027831607394,0.22303226280212401
37,0.2227292802102036,0.22273500351111095
38,0.2227174582183361,0.22276340560118357
39,0.2227171620130539,0.22281737408041954
40,0.222722006532881,0.22268138656020164
41,0.22271905703677072,0.2229288220703602
42,0.22271905701359113,0.2226830100516478
43,0.22271103663245836,0.22268169689178466
44,0.22271770285235512,0.2227474952340126
45,0.22271263656020165,0.2226672594745954
46,0.2227199307911926,0.22266955255468687
47,0.22271134461959202,0.22268011965354284
48,0.22271436454521285,0.2226662795742353
49,0.22271518754296832,0.22274445659915607
