epoch,loss,val_loss
0,0.6686240349478192,0.6668223012685776
1,0.6669216645161311,0.6668381954034169
2,0.6668791181776259,0.6668126043081284
3,0.6668607357210583,0.6668063360055287
4,0.6668486748403973,0.6668395280838013
5,0.6668465836313036,0.6668687579234441
6,0.6668346022367477,0.6667947140534719
7,0.666830836892128,0.6668361744880676
8,0.6668309083647198,0.6668569664557775
9,0.6668267301850849,0.6668860212167104
10,0.6668217345211241,0.6668046446641286
11,0.666820158150461,0.6667931307951609
12,0.6668187321556939,0.6668002785841624
13,0.6668185609711541,0.6668289515177409
14,0.6668175083928638,0.6668376329739889
15,0.6668164426883062,0.6667874904870987
16,0.6668144955105252,0.666803269982338
17,0.6668144904772441,0.6668310516675313
18,0.666813882973459,0.6667963433265686
19,0.6668110190762414,0.6668271182775497
20,0.666812770764033,0.6667998802264531
21,0.6668102288246155,0.6667925870021184
22,0.6668095143503613,0.66678542415301
23,0.6668087439934413,0.6668029956817627
24,0.6668085983594259,0.6667926298777263
25,0.6668075748946931,0.6667883685429891
26,0.6668070226377911,0.6667940581639608
27,0.6668072896930907,0.6667901016076406
28,0.6668062903881073,0.6667928737004598
29,0.6668067832258012,0.6668245467742284
30,0.6668059237135782,0.6667941844463349
31,0.6668059922721651,0.6667936110099156
32,0.6668068181408776,0.6667927025953929
33,0.6668055590391159,0.6668074754476547
34,0.6668044279416402,0.6667881277004878
35,0.6668054359886382,0.666823029200236
36,0.6668033349646463,0.6667924236853917
37,0.6668035643895467,0.6667980645100275
38,0.6668051464822558,0.6667995218435924
39,0.6668037668996387,0.6667903515497844
40,0.6668038945330513,0.6667874895334244
41,0.6668030348883734,0.6667860037883123
42,0.666803274763955,0.6668464840253194
