epoch,loss,val_loss
0,0.6724537476007638,0.6698771247496972
1,0.6691088193019298,0.6687250672439784
2,0.6685606268559092,0.6681835671512424
3,0.6683577429464007,0.6681401102773605
4,0.66820601671802,0.6681399280025113
5,0.6681093317926821,0.6679900664845412
6,0.6680707677705205,0.667893525122413
7,0.6680649191390003,0.6680035877464428
8,0.6680335086373711,0.6679481346021515
9,0.6679745923264166,0.6678542729346982
10,0.6679886591740386,0.6680326849591939
11,0.667946081406446,0.6679489181000305
12,0.6679263374556212,0.6678712476275991
13,0.6679209271396248,0.6678348207592076
14,0.6679047431229671,0.6678292182775644
15,0.6679045951111948,0.6678319345632795
16,0.667893279742744,0.6678143502169153
17,0.667891992462743,0.6682207113164235
18,0.6678794890181096,0.6679213764945567
19,0.6678761994776713,0.6678942133120213
20,0.6678483562029254,0.6680024801057858
21,0.6678549850217841,0.6679063679266805
22,0.6678486815282807,0.667758590648547
23,0.6678446511235876,0.6677836973081451
24,0.6678527232991989,0.6677860490737423
25,0.6678506214981134,0.667744397200071
26,0.6678355634050784,0.668626516628502
27,0.6678270889704899,0.6677760246078075
28,0.6678333669619677,0.6680392933246811
29,0.6678383299153702,0.667829139830161
30,0.6678118085036407,0.6677993765835727
31,0.6678223102037304,0.6677324560380751
32,0.6678142533913365,0.6678014114536067
33,0.6678222429561296,0.6678038508957136
34,0.6678173316583504,0.6677400297917444
35,0.6678192101398167,0.667908823815528
36,0.667814291582452,0.6678966975093775
37,0.667798827634961,0.6677681532154603
38,0.6678058550573673,0.6682902626009201
39,0.6678123414722333,0.6677576207641337
40,0.6678124641405343,0.6678179842958379
41,0.667809403245883,0.6677209403023826
42,0.6678028694950167,0.6677179714586243
43,0.6678063553392873,0.6677355816287379
44,0.6677970734988445,0.6678556884192947
45,0.6678094869989243,0.6677728671293992
46,0.6678154022674923,0.6678903669340734
47,0.667792136812631,0.6677576530068448
48,0.6677973195761563,0.6681057129840993
49,0.667790005703424,0.6678080877950114
50,0.6677949369120147,0.6677645077480572
51,0.6677900816746755,0.6677731840841232
52,0.6677872426805416,0.6677193050940634
53,0.6677786681294604,0.6677780467286595
54,0.6677927837937132,0.6677512999799647
55,0.6677879631520106,0.6677161746226232
56,0.6677882480933083,0.6677993941543712
57,0.6677867535597511,0.6678586162941036
58,0.6677889570865388,0.6677216267171627
59,0.667781956612869,0.6677709377137366
60,0.6677818634420082,0.6681746214554268
61,0.6677739719277669,0.667796806750759
62,0.6677864221406983,0.6684226219174879
63,0.6677767995880178,0.6682068470394049
64,0.6677789133374835,0.6678054387752826
65,0.6677752291265948,0.6677414671954682
66,0.6677783066134577,0.6677252289970814
67,0.6677742886028327,0.6677475444140565
68,0.6677665720380566,0.6678273755030951
69,0.6677917819527603,0.6677073726583059
70,0.6677688911983757,0.6677131143160553
71,0.6677658344584823,0.6677168046570298
72,0.6677648406075699,0.6678169044904022
73,0.6677728879303609,0.6677132022587892
74,0.6677776286282734,0.6677145713316299
75,0.6677721591635749,0.6677757775813119
76,0.6677689362980481,0.6677058968295531
77,0.6677706519093749,0.6677626793201153
78,0.6677705244213338,0.6677241484817145
79,0.6677735155007486,0.6678309201010995
80,0.6677704787426614,0.6676884140920994
81,0.667769271431693,0.6677614918713534
82,0.6677612178897806,0.667896839998496
83,0.6677562212478938,0.667699780564746
84,0.6677611781864815,0.6677512575319919
85,0.6677665508840517,0.6677522390119491
86,0.6677562258656938,0.6677213899846705
87,0.6677655936844622,0.6676986207737224
88,0.6677513086666912,0.6680201890450849
89,0.667764109994137,0.6678104206291086
90,0.6677657903842863,0.6676947059169892
91,0.6677649129415347,0.6677406421961914
92,0.6677590838343004,0.66770429040303
93,0.6677528924009369,0.6676967509627046
94,0.6677654723902998,0.6680358806259875
95,0.6677554441630162,0.6677970227177622
96,0.6677570080787432,0.6677229111898626
97,0.6677537801402625,0.6679140819213526
98,0.6677587310001405,0.6676877879327343
99,0.6677414535012071,0.6677749343013053
100,0.6677490908376602,0.6678438737138034
101,0.6677539566303091,0.6676855012737491
102,0.6677517168647558,0.667713515663857
103,0.6677566847436013,0.6677263382942445
104,0.6677625195343425,0.6676947104723815
105,0.6677597568396125,0.6677246433037978
106,0.6677587376980805,0.6677553035485242
107,0.667756058943344,0.6676809561163852
108,0.6677612003990937,0.6676933586153736
109,0.6677463297426738,0.6676870828230979
110,0.667746941068723,0.6678050240866895
111,0.6677537110105177,0.6685592201152452
112,0.6677583172455704,0.6678420290461841
113,0.6677639469267905,0.6676989834302708
114,0.6677481353443061,0.6676961207508153
115,0.6677646613511029,0.6676762604831762
116,0.6677441633042198,0.6678491722857094
117,0.6677617736042333,0.6677534166104149
118,0.6677460861596367,0.6682899469477367
119,0.6677583683285045,0.667871721358808
120,0.667744007835655,0.6676791061834425
121,0.6677537548086238,0.6678898193995947
122,0.6677584909818178,0.6677151692416473
123,0.6677510053307096,0.6676765162063296
124,0.6677449503409535,0.6677643013947063
125,0.6677542472708903,0.667717573157611
126,0.667749944083108,0.6677558988554602
127,0.66775180984472,0.6678920503881374
128,0.6677572900327486,0.6677456871155769
129,0.6677432214339281,0.667714321376668
130,0.6677375972421632,0.6676906764359392
131,0.6677465182268525,0.6676873599625107
132,0.667750144529077,0.6676998614673283
133,0.6677474784373991,0.6677082116787251
134,0.6677508232226289,0.6677233359358151
135,0.667746079887664,0.6679129440494566
