epoch,loss,val_loss
0,0.6716482425808513,0.669419283399511
1,0.6688094652302835,0.6687658530902626
2,0.6684323074672166,0.6683977638225698
3,0.6682409495424895,0.6682454667079537
4,0.6681531811836144,0.6682110035981493
5,0.6681216818268032,0.6679162930318203
6,0.6680147320367766,0.669883366228629
7,0.6679980016035838,0.6679780380897428
8,0.667966753737812,0.6678446420073213
9,0.6679154741464471,0.6682611648853009
10,0.6679163366519487,0.6680042995412652
11,0.667901969668621,0.6677589588070626
12,0.6678892200646378,0.6678962532994764
13,0.667877059544905,0.6678014779800813
14,0.6678675269036474,0.6678941158443763
15,0.6678637240001516,0.6678041565506985
16,0.667862773907115,0.6679160284049458
17,0.6678354407959395,0.6677879597649681
18,0.6678203271977997,0.6677313218933181
19,0.6678384570310844,0.6677998091091885
20,0.6678353381551967,0.6678539154843125
21,0.6678125934089606,0.6677320625290977
22,0.6678043264480114,0.6678000906265107
23,0.6677956840829506,0.6677543706692773
24,0.6677986975706072,0.6677345508085587
25,0.6678197574264292,0.6677545531511898
26,0.6678082038082085,0.6677855664979732
27,0.6677923764602044,0.6677046882603364
28,0.6678065562427767,0.6678270693452424
29,0.6677790207474814,0.6678234709107846
30,0.6677944332247235,0.6677167752540437
31,0.6677999219604941,0.6677152049452731
32,0.6677701592767216,0.6677676832705515
33,0.6677842862843233,0.6677572666563408
34,0.6677835759674392,0.6679220586497494
35,0.6677868707551624,0.667726020984555
36,0.6677727109212654,0.6677565059058423
37,0.6677702210514326,0.6677318270685655
38,0.6677839765675108,0.6677241355846301
39,0.6677651569584273,0.6677220152566214
40,0.667772816460163,0.6680192416714084
41,0.6677780575196671,0.6677134754639997
42,0.6677663420197085,0.6684442315444757
43,0.6677778709641732,0.6677036579134447
44,0.667763461717799,0.6677107501562417
45,0.6677577507360044,0.6677143730241667
46,0.6677702433681701,0.6677070611168078
47,0.6677645256466277,0.6678193708803163
48,0.6677656570644386,0.6679836342707461
49,0.6677533667769513,0.6678061746190262
50,0.6677584960484612,0.667697573092676
51,0.6677605155558374,0.6677029291690135
52,0.6677461077190991,0.6677333118602005
53,0.6677568203242304,0.6676946571092156
54,0.6677418494968886,0.6678302411405975
55,0.6677585209352008,0.6677159670564732
56,0.6677473103254965,0.6676953122574402
57,0.6677543228816473,0.6676949508728519
58,0.6677563995135926,0.6678887242123152
59,0.6677417378658712,0.6677478913929563
60,0.6677543109553542,0.6677182181597348
61,0.6677545731176611,0.6676982952998235
62,0.6677465566774925,0.667685680560971
63,0.6677455679003228,0.6676924931500153
64,0.6677478132910099,0.6680310801891772
65,0.6677389002774291,0.6679042275431138
66,0.6677573925827762,0.6676820221669029
67,0.6677294755510194,0.667678674308597
68,0.6677344031641314,0.6676977975196933
69,0.667747153436252,0.6677237535824551
70,0.6677469808651039,0.6677024109191989
71,0.6677384177141673,0.6677837658460916
72,0.6677406901561385,0.667981676369092
73,0.6677416694523824,0.667681619221756
74,0.6677331463384192,0.6676927684554391
75,0.6677390091940888,0.6680453939710006
76,0.6677410386091468,0.667690057908335
77,0.6677378518814158,0.6676747810160256
78,0.66773626673359,0.6677498789046598
79,0.6677332863349085,0.6678187908960631
80,0.6677296248075625,0.6677128514640088
81,0.6677297545697952,0.6676837798087828
82,0.6677422820042707,0.6676880434488245
83,0.6677310778487582,0.6678361894770828
84,0.6677440602311991,0.6680149930582449
85,0.6677324996042402,0.667794627350554
86,0.6677383876692802,0.6677492583064228
87,0.6677331911714678,0.6677174172685401
88,0.6677372101783828,0.6677536501777971
89,0.6677405807409393,0.6676866220185538
90,0.6677323169849989,0.6676749632021334
91,0.6677413738413951,0.6676746036515342
92,0.667724922225038,0.667672139835121
93,0.6677437376533323,0.6676817558835221
94,0.6677293418430682,0.6677719600147408
95,0.6677318615645252,0.6679744478490749
96,0.6677393683767378,0.6679127396484167
97,0.6677298814701593,0.6676940941633125
98,0.6677277237750767,0.6677048490006042
99,0.6677376697757015,0.6678138710429
100,0.6677383318904521,0.6677439491151285
101,0.6677304646926276,0.6676779661817527
102,0.667742778383069,0.6678070931517457
103,0.6677343967154612,0.6678836848836383
104,0.6677289676853054,0.6676868675956064
105,0.6677421421079626,0.6676839877890594
106,0.6677267554695756,0.6676741612460418
107,0.6677340586978606,0.6676875605476701
108,0.6677290462241926,0.6677475893763691
109,0.6677311351192605,0.6677213169800732
110,0.6677218641283602,0.6677271227386986
111,0.6677307068108108,0.6677024888933148
112,0.6677258159768119,0.6676963127280583
