epoch,loss,val_loss
0,0.6721237586309465,0.6706675798070638
1,0.6688728579667282,0.668883242116081
2,0.6685303972970893,0.6684419473406694
3,0.6682864772150334,0.6681326140245196
4,0.6681571102743736,0.6683916289812282
5,0.6680861212102854,0.6683110605990029
6,0.6680969467558888,0.6680547256919349
7,0.6680414311612363,0.6682794930621353
8,0.6680037723777643,0.6678516240628718
9,0.6679907280241941,0.6678885498650317
10,0.6679863900688106,0.6679985123295937
11,0.6679410882275147,0.6678609772592266
12,0.6679459186798732,0.6678256163526114
13,0.6679140572114941,0.6678629137742017
14,0.6679198305122912,0.6678535758413688
15,0.6679207224150518,0.6679772816875732
16,0.6679118716439573,0.6678135757410792
17,0.6679026617959166,0.6680994092678609
18,0.6679045828985573,0.6678557278500598
19,0.6678723720605515,0.6677804835972656
20,0.6678816136644474,0.6680470574582481
21,0.6678844205367098,0.6680001938905077
22,0.6678475737114196,0.668373327633879
23,0.6678764606910178,0.667798953789931
24,0.6678630902753266,0.6677786234590611
25,0.6678326642146786,0.6678723012839003
26,0.6678477140463162,0.6678748463578614
27,0.6678316468409103,0.667760746768923
28,0.6678325379280228,0.668332305410068
29,0.6678225897999284,0.6682168342635294
30,0.6678272343728187,0.6682268070819656
31,0.6678064600609589,0.6677591453414993
32,0.6678106122607202,0.6684022688392374
33,0.6678143780522174,0.6677288949045886
34,0.6678038734255753,0.6678148053420093
35,0.667803981782167,0.6681325344826389
36,0.6678038588275214,0.6678214629589772
37,0.6678058608591985,0.667928376830837
38,0.6677983365910076,0.6677611033614752
39,0.6677908629427087,0.667923932365389
40,0.6677896986536395,0.6677595913853894
41,0.6677755296756465,0.6678407601328109
42,0.6677817279221188,0.6678727405834435
43,0.667787460540681,0.6678625795149034
44,0.6677836733183004,0.6678493679309305
45,0.6677713292382541,0.6678889545258458
46,0.6677826509488834,0.6677106586046905
47,0.6677660127533677,0.6677669700854469
48,0.6677803470555446,0.6684009964057884
49,0.6677795866188855,0.6678356332459462
50,0.6677671000322987,0.6677166624932963
51,0.6677654057374754,0.6678677697039715
52,0.667773890881195,0.6679290698420617
53,0.6677714298430315,0.6677754185927417
54,0.6677705393680498,0.667894851628959
55,0.6677601165208009,0.6677588064676478
56,0.6677630578559229,0.6676903645690558
57,0.6677660569222229,0.6686273684868446
58,0.6677708221992321,0.6679056238891469
59,0.6677540269614393,0.6677528340230805
60,0.6677472045460063,0.6678495825076517
61,0.6677608623152317,0.6677229495261502
62,0.6677703886277209,0.667845706549235
63,0.6677514026468897,0.6677921534767813
64,0.6677585327794557,0.667697129326482
65,0.6677496014200983,0.6676970858136123
66,0.6677472833144426,0.6680149522667783
67,0.6677660870917448,0.66769500500511
68,0.6677473983989496,0.6677158909459268
69,0.6677503178283136,0.6676958221655626
70,0.6677508307425278,0.6677135959748299
71,0.6677518756747967,0.6677316383155937
72,0.6677514550566328,0.6681418531290059
73,0.6677530120551256,0.6678461094943821
74,0.6677404702971084,0.6678519573164341
75,0.6677530273094846,0.6677522539796663
76,0.6677455878008798,0.6679541617114254
