epoch,loss,val_loss
0,0.564054150730827,0.5595179264362041
1,0.5582758640017458,0.557650876104388
2,0.5578018094798485,0.5578725461036929
3,0.557631823726156,0.5574259327895588
4,0.5575328249272253,0.5576175937877399
5,0.5574422543833049,0.5574315085896191
6,0.5573531663685545,0.5571584580553969
7,0.5572989635945812,0.5573216696235146
8,0.5572944049503203,0.5571876637693078
9,0.5572598752209859,0.5571943889480666
10,0.5572624928328626,0.5572055431512686
11,0.5572279668094429,0.5572158095558583
12,0.5571919763462604,0.5570526714360448
13,0.5572067460255762,0.5572880677490613
14,0.5571619686729702,0.5570894731185573
15,0.5571543096382208,0.5570024300154031
16,0.5571446351475164,0.5571283686545587
17,0.5571116515742317,0.557187145756137
18,0.5571394367273299,0.5570024477636843
19,0.5571145252476182,0.5570133012814202
20,0.5571019753473168,0.5570182304820115
21,0.5570927900791617,0.5573019851526019
22,0.5571012723144718,0.5570433683490044
23,0.5570893379178535,0.5571390826116425
24,0.557086874909986,0.5569982115743178
25,0.5570823330551438,0.5569700360889767
26,0.5570607640036433,0.5569770369872857
27,0.5570795778771573,0.5570749751095736
28,0.5570780135859482,0.5569728179545911
29,0.5570625725539153,0.5571141469271544
30,0.5570719359828551,0.5571604636999277
31,0.557072228735918,0.5571994065646794
32,0.5570590903382542,0.557002902859198
33,0.5570424471526115,0.5571540188256919
34,0.557043178580115,0.5570530158118634
35,0.557058314716653,0.5569237600189285
36,0.5570319062446069,0.5571991624370698
37,0.557034943539886,0.5569729383175189
38,0.5570233705535674,0.5569368742535783
39,0.557024562177899,0.5569848738888061
40,0.5570289786224736,0.557111064642298
41,0.5570499381511858,0.5569470901643077
42,0.5570131822320307,0.5569284912078611
43,0.5570244968889585,0.5575743727589364
44,0.5570260109957088,0.5571505896210966
45,0.5570113518280633,0.5570230229320952
46,0.5570136323034605,0.5573078195747015
47,0.5570127370197823,0.5569605232468314
48,0.5570031221487105,0.5570316314105657
49,0.5570012484412323,0.5568974646386082
50,0.5569874460876932,0.5570455300305085
51,0.5570046159218373,0.556890246264692
52,0.5569821814461712,0.5569996547166526
53,0.5569904406624057,0.5574773671609297
54,0.5570036594582245,0.5578389972078593
55,0.5569828880413641,0.5574830962469797
56,0.5569868038411576,0.5568948400819272
57,0.5570076830253551,0.5569870227323868
58,0.5569792981001738,0.5569568146547076
59,0.5569812455236438,0.5569480735078343
60,0.5569678128496899,0.5569568586112843
61,0.5569826147092506,0.5569092396766909
62,0.5569791150454994,0.5572919077080474
63,0.5569819794233347,0.5569969146482406
64,0.5569711074654486,0.5570103087732868
65,0.556993426418808,0.5569044833739402
66,0.5569711352755855,0.5570337723561611
67,0.5569667873131279,0.5568977826286486
68,0.5569682415060128,0.5569784189276304
69,0.5570143062608882,0.5568973597166852
70,0.5569723263737687,0.556941391634882
71,0.5569654574151077,0.5568878352789962
72,0.5569798176231904,0.5569614122878234
73,0.5569644272599569,0.5569543114666903
74,0.5569739222228374,0.5570093286836117
75,0.5569526418469471,0.556944560708834
76,0.5569796530341943,0.5568794277998117
77,0.5569590816191927,0.5569126938472019
78,0.5569550512137107,0.559389264412021
79,0.5569701719862427,0.5575046261250233
80,0.556955318557041,0.556927918855369
81,0.5569600359624354,0.5569488746652532
82,0.5569553252344713,0.5577710374709098
83,0.5569550449488375,0.5570552125166427
84,0.5569619150583988,0.5568729789913736
85,0.5569476327423641,0.5569383207089256
86,0.556948775283441,0.5571263764395608
87,0.5569579508584757,0.5569208767218862
88,0.5569614004513592,0.5574995144721
89,0.5569505610247466,0.5570600688309587
90,0.5569623890376325,0.5574228015490265
91,0.5569447148953894,0.5569237181921455
92,0.5569464493770634,0.5568786556016718
93,0.5569496190590066,0.5570680803459868
94,0.5569732614774925,0.5569887572719204
95,0.5569471584657422,0.5568719932814093
96,0.5569477858081584,0.5572915500505983
97,0.5569444359862608,0.5568650007247925
98,0.5569485022597592,0.5570415482035938
99,0.5569552070648572,0.5568943013920086
100,0.5569586641815839,0.5571088529402209
101,0.5569549836702994,0.5569414116312789
102,0.5569570382071678,0.556950738796821
103,0.5569397193073771,0.5570565956106257
104,0.5569547534784092,0.557107389091558
105,0.5569446947897373,0.5573001956229766
106,0.5569480221536971,0.5569772536050593
107,0.5569601808425598,0.5569388188440214
108,0.5569557385930496,0.5568887342590256
109,0.5569380680297199,0.5569223268156311
110,0.5569363209591373,0.55687033408333
111,0.5569425866590946,0.5571091197856307
112,0.5569528060265414,0.556931706072379
113,0.5569368210154525,0.5568955314070652
114,0.5569413994947975,0.5574433639090942
115,0.5569463941756575,0.5568991703076043
116,0.5569434249341615,0.5568811363085328
117,0.5569408689818269,0.5572245307063346
