epoch,loss,val_loss
0,0.604107681830724,0.602046091834704
1,0.6020573911799325,0.6022302993933359
2,0.6018107506699032,0.6026221971909205
3,0.6016154897212982,0.6014270904858907
4,0.6015022997193866,0.6016312675873439
5,0.6014230172634125,0.6013694258530935
6,0.6013910978370243,0.6014538487990697
7,0.6013676545090145,0.6011914482116699
8,0.6013383149835798,0.6013621118863424
9,0.6013294840653738,0.6012752720117569
10,0.6012975777652528,0.601193570971489
11,0.6013087889618344,0.601174259742101
12,0.6012818078862296,0.6012574879725774
13,0.6012953967915641,0.6011588108142217
14,0.6012747371594112,0.6011866069237392
15,0.6012709136406581,0.6012145702044169
16,0.601264679590861,0.6011331756512324
17,0.6012540487978193,0.6012365950345993
18,0.6012655524545246,0.6014292653004328
19,0.6012561509344313,0.6011287200450898
20,0.601255059030321,0.6014483439524968
21,0.6012573236889309,0.6011164901653926
22,0.6012512481477525,0.6011181668440501
23,0.6012456288072798,0.6012876815398535
24,0.6012509940597746,0.6013137432734171
25,0.6012398246791628,0.6011604962348938
26,0.6012347362968656,0.6012892052729925
27,0.6012318958441416,0.6012553121248881
28,0.6012209241390228,0.601114556034406
29,0.6012280075814989,0.6010844254891078
30,0.6012165101501676,0.601254769206047
31,0.6012266852325864,0.6011550968488057
32,0.6012215801080067,0.6014215237696966
33,0.6012165141105652,0.6011400800943375
34,0.6012160592741437,0.6011170037587483
35,0.6012147107521693,0.6011681230465571
36,0.6012064964771271,0.6011060109933217
37,0.6011987557808558,0.6012743298212687
38,0.6012122832669152,0.6011901478767395
39,0.6012046697404649,0.6013034832874934
40,0.6011998376581404,0.6010910872618357
41,0.6012113123204973,0.6011602079073588
42,0.6012123041682773,0.6011748377482097
43,0.6012002372344335,0.6010398419300715
44,0.6012021675772137,0.6012027251323064
45,0.6011986227035523,0.6011367009480795
46,0.601200652692053,0.6010682370265324
47,0.6011916708548863,0.6011387395858765
48,0.6011886742512385,0.60105624071757
49,0.6011876416338815,0.6010911135276159
50,0.6011924928559197,0.6013205618858337
51,0.6011826625929938,0.6011066659291585
52,0.6011913308170107,0.6010783328612646
53,0.6011881011327108,0.601103206594785
54,0.6011850468317668,0.6011218187808991
55,0.60118618897597,0.6011300521294276
56,0.6011847019592921,0.6010758465925853
57,0.6011859770086077,0.6011291910807292
58,0.6011902359194226,0.6010684574445089
59,0.6011831907431284,0.6012531287670135
60,0.6011806297434701,0.6014865314165752
61,0.6011833088000615,0.6010761892795563
62,0.6011803263823191,0.6012007206281026
63,0.6011810376909044,0.6011929820378621
