epoch,loss,val_loss
0,0.8375980639950558,0.5744415632514066
1,0.5717718076028258,0.5713756860688676
2,0.5711815421895463,0.5713151134261789
3,0.5711457345836847,0.5713224216949108
4,0.5712281993809288,0.5713172328564547
5,0.5713352647246625,0.5717860002850377
6,0.5712817648584528,0.571630080540975
7,0.5713733973737218,0.5713602456935617
8,0.5713763360213248,0.5727905182875404
9,0.5715530160477611,0.5714644595634105
10,0.5716149696083956,0.5715826278509095
11,0.5717962980270386,0.5717843646226928
12,0.571681124141358,0.571526634138684
13,0.5714522617115839,0.571319534797077
14,0.5728740641313006,0.5716617735781411
15,0.5713785002705971,0.5716828634572584
16,0.5711522556706609,0.5713319071503573
17,0.5712806724146663,0.5713150348774222
18,0.571365800938865,0.5714904222377512
19,0.5715178989008723,0.5719219954438912
20,0.5711608110164179,0.5713646860085717
21,0.571913074769407,0.5716373828030372
22,0.571443031462588,0.5713258722955866
23,0.5712413769359737,0.5714632448299911
24,0.5712093151817026,0.5716608989146329
25,0.5711717088093129,0.571418609730033
26,0.5714299007287629,0.5714031712029332
27,0.816108908148083,0.9999887347221375
28,1.0,0.9999810974727306
29,1.0,0.9999809496162474
30,1.0,0.9999809496162474
31,1.0,0.9999809496162474
32,1.0,0.9999809496162474
33,1.0,0.9999809496162474
34,1.0,0.9999809403752171
35,1.0,0.9999809496162474
36,1.0,0.9999809491541959
37,1.0,0.9999809491541959
