epoch,loss,val_loss
0,0.34012220072084004,0.33719099165995914
1,0.33670595774385664,0.33632047575712204
2,0.33607473321755726,0.3358298386732737
3,0.3359334859583113,0.3356575917402903
4,0.3357893036339018,0.33565644377470016
5,0.33572080622116723,0.33621670939524967
6,0.3356879034572178,0.3361709019939105
7,0.3356522250705295,0.33580540984869
8,0.335641296101941,0.3357557635307312
9,0.33560989767313004,0.3355050071875254
10,0.3355806518461969,0.33541332735617957
11,0.335587072941992,0.33542681743701297
12,0.3355542299085193,0.3354923548301061
13,0.3355535669724147,0.3355339324673017
14,0.3355365529855092,0.3363871456782023
15,0.33553127194775473,0.33552083257834114
16,0.3355175172487895,0.3353654351433118
17,0.3355235244035721,0.33537319817145667
18,0.3355182661347919,0.33555363182226816
19,0.3355179581311014,0.3353935526808103
20,0.33548917765749825,0.335574214776357
21,0.33549659075339633,0.33550130353371305
22,0.3354937385121981,0.33562982696294785
23,0.3354826549026701,0.3353469085097313
24,0.33548637765645983,0.3356825767358144
25,0.3354728997018602,0.3353742884198825
26,0.3354601266450352,0.33536606176694234
27,0.33546265532573066,0.3353840245604515
28,0.33545783743593427,0.3353957783579826
29,0.335460990038183,0.3353549999396006
30,0.33545856142044067,0.33534039012591044
31,0.3354561132325066,0.3353288759390513
32,0.33544797223806383,0.3353039163947105
33,0.3354461796018812,0.335341628630956
34,0.33543965292639205,0.3352982662518819
35,0.3354393708043628,0.3356419608592987
36,0.3354377800491121,0.3355432283480962
37,0.3354375738236639,0.33533819144964216
38,0.33542722008625664,0.33534870187441507
39,0.33543340559800466,0.33533170000712076
40,0.33542247916592494,0.3353995458086332
41,0.3354226375222206,0.3356703073779742
42,0.335423544910219,0.3352713558872541
43,0.3354146460692088,0.33531060749292374
44,0.335425625052717,0.3352473882039388
45,0.33541881541411084,0.335350538055102
46,0.335424192501439,0.33562363479534785
47,0.33543574814663996,0.3353018362124761
48,0.33542933901813293,0.3354367502530416
49,0.33541654483477273,0.3353201621969541
50,0.33541830796665617,0.3355563722848892
51,0.33541225285662546,0.335260135948658
52,0.33540619709094366,0.33539063622554144
53,0.3354044612778558,0.33583264843622845
54,0.33541730048921375,0.33525227606296537
55,0.3354142028093338,0.33561575015385947
56,0.3354020926952362,0.3352787944674492
57,0.3354131441977289,0.33532509160041807
58,0.3354106890691651,0.3353220913410187
59,0.3354097749193509,0.33528455928961437
60,0.3354007686575254,0.3355816103418668
61,0.3354100013971329,0.3352876225312551
62,0.33540154467688665,0.3353126303354899
63,0.33539413648181493,0.33528262227773664
64,0.3354101622502009,0.33535142993927003
