epoch,loss,val_loss
0,0.5634381166001228,0.5599890160797252
1,0.5589522203694717,0.5590440442485194
2,0.5582372852490071,0.5576819101870799
3,0.5578584490165875,0.5577255453424478
4,0.5576873467531476,0.5575438904998912
5,0.5575704313782593,0.5589051958644952
6,0.5574880002638616,0.5572718015379704
7,0.5574173067444991,0.5573571543835528
8,0.5574314450465425,0.5572905016892009
9,0.5050738764261045,0.4467183621882209
10,0.44665804713756607,0.44644887576032216
11,0.446629868955569,0.4467200549601325
12,0.38274062484168725,0.33596863681566036
13,0.33582030661169754,0.33567470579821773
14,0.33579728324228303,0.3360252990764069
15,0.3357625509848676,0.3356599697552011
16,0.3357428845423261,0.3362448203060822
17,0.3357335001699987,0.33556270694022733
18,0.3357180053659165,0.33575366305062554
19,0.3356804549934654,0.33553429824246955
20,0.3356915907465325,0.33552130305441674
21,0.33565716689726377,0.33549087760466206
22,0.33568320754702047,0.3355732762192378
23,0.3356361653255881,0.335579295208673
24,0.335633176967236,0.33567958227162326
25,0.3356310310596127,0.33551766029362645
26,0.3356168840311577,0.33548072279239116
27,0.3356211702926597,0.3358369161709958
28,0.335593367411043,0.33539802605105984
29,0.3356053471609421,0.33584434227375476
30,0.33559633073080597,0.33550716523201235
31,0.33558999234191117,0.33546586304385373
32,0.33557116467218706,0.3353795900682066
33,0.33557302632676533,0.33543210757281583
34,0.3355501394281727,0.3356001614193171
35,0.3355590140550086,0.33544246545500556
36,0.3355733431497364,0.33544398883436216
37,0.3355309054961684,0.33549736930478
38,0.3355434066149419,0.3355553548330113
39,0.33554587693840177,0.3354529582389235
40,0.33552247458122963,0.3355793992136016
41,0.335541773191227,0.3353961410652615
42,0.33553252228823033,0.3354034595246942
43,0.3355052168996317,0.3356118946306167
44,0.3355452970510989,0.3354109283120697
45,0.3355295177703389,0.3354113901075595
46,0.33551769183877617,0.3355156054863563
47,0.33551198275135236,0.3356298527114149
48,0.3355072454670938,0.3354208402834814
49,0.3354927022220853,0.3355325446383237
50,0.3355131913891298,0.33563067738530655
51,0.33549709620635554,0.33549133903039596
52,0.33548926082670394,0.3354158266306515
