epoch,loss,val_loss
0,1.0,1.000009490538013
1,1.0,1.000009490538013
2,1.0,1.000009490538013
3,1.0,1.000009490538013
4,1.0,1.000009490538013
5,1.0,1.000009490538013
6,1.0,1.000009490538013
7,1.0,1.00000948961391
8,1.0,1.000009490538013
9,1.0,1.000009490538013
10,1.0,1.000009490538013
11,1.0,1.000009490538013
12,1.0,1.000009490538013
13,1.0,1.000009490538013
14,1.0,1.000009490538013
15,1.0,1.000009490538013
16,1.0,1.000009490538013
17,1.0,1.000009490538013
18,1.0,1.000009490538013
19,1.0,1.000009490538013
20,1.0,1.000009490538013
21,1.0,1.000009490538013
22,1.0,1.000009490538013
23,1.0,1.000009490538013
24,1.0,1.000009490538013
25,1.0,1.000009490538013
26,1.0,1.000009490538013
27,1.0,1.000009490538013
