epoch,loss,val_loss
0,0.34530642259300953,0.3377557455753866
1,0.3378943961223979,0.3377047116791936
2,0.33709488388959136,0.3365028280330355
3,0.33663919556584376,0.3364887160491707
4,0.3364295194001696,0.3359789486854307
5,0.3363091530117182,0.33624373251392
6,0.3361716813685124,0.33663694513938563
7,0.33610252227808574,0.3365855427149212
8,0.3359857343348374,0.33710400478419833
9,0.3359419051532882,0.3357648882321625
10,0.3358510154936676,0.3356067485756081
11,0.3358668522086117,0.3356953757720313
12,0.3358353342674034,0.3357804411989879
13,0.335852063104008,0.33575183092512506
14,0.33577324218475235,0.33583214768109193
15,0.3357681056378803,0.33569532027907173
16,0.33574937115755443,0.33556321556159935
17,0.33573133564484753,0.33557713753532237
18,0.33574661420194374,0.3356070325333191
19,0.33570943789377927,0.33551782286788334
20,0.33570496991348325,0.33562906808947807
21,0.33569091909800486,0.3356406939680464
22,0.33569336504904096,0.3356837840441143
23,0.335665848090813,0.33560802985361726
24,0.3356971352717804,0.33557881859336836
25,0.335651553611837,0.3355135635909608
26,0.3356792016602899,0.33552013733250924
27,0.33563882609149265,0.33550044709340515
28,0.3356337268881402,0.3355648091501989
29,0.33564337698748886,0.33548884893173614
30,0.33560161807204164,0.3355157544092268
31,0.33561011589144096,0.3362992391988598
32,0.33562712732889,0.3354954991979575
33,0.3356000306681673,0.3354481730656352
34,0.33558585094633475,0.3354653218987562
35,0.33559907701475483,0.3355837970750208
36,0.33559395280199994,0.3356078264139426
37,0.3355827417347752,0.3355396108798886
38,0.335595466705627,0.3354607089577478
39,0.33558266072330617,0.336012918555707
40,0.335580736871205,0.3355255645498744
41,0.33558044135645465,0.33553552944074494
42,0.335599984477151,0.3360854296027579
43,0.33557090884417046,0.33544887440376187
44,0.335587625428696,0.33541354825419767
45,0.335575592416725,0.33548132857081314
46,0.335578021966446,0.3354591367410371
47,0.33554776137630943,0.3355061296937483
48,0.33557659276008756,0.33545340017112846
49,0.33554520896502454,0.33549341365658025
50,0.33557662219521045,0.3354652174057499
51,0.3355438316359502,0.33586403178813734
52,0.3355385097326031,0.33543423958510976
53,0.33554914344150805,0.33588776036764195
54,0.3355582551376325,0.3355298442521107
55,0.3355180546705442,0.33545817434048236
56,0.3355488122922343,0.3358253551032348
57,0.33553667000034826,0.33563224773844774
58,0.3355241583704395,0.335465217287428
59,0.3355342591620257,0.335811847699783
60,0.3355302591173565,0.3354243372865114
61,0.3355284258953005,0.3354917055028248
62,0.3355416939782862,0.3354268716671331
63,0.33552512234054105,0.33541499431020866
64,0.33552238596269623,0.33539234370215065
65,0.3355189563713395,0.33569810900735503
66,0.3355043876787345,0.3355347431918823
67,0.33551026551977264,0.3356133785200474
68,0.3355124870645787,0.33571544869366116
69,0.3355054892129737,0.33544145991133695
70,0.3355035717547191,0.33572368926505003
71,0.33549023884031326,0.3358696218755642
72,0.33552756863747835,0.3354365577029235
73,0.33550436930692656,0.3354068610567609
74,0.3355172320300515,0.33541008512080456
75,0.33548186930251617,0.3354403623724102
76,0.33549966794116953,0.33582058572591683
77,0.33549389945064656,0.3353991387351867
78,0.3355008577444913,0.3354682091152106
79,0.33548645344998596,0.33543019167542754
80,0.33550079279869105,0.3355665252611004
81,0.3355008952879789,0.33574393403441377
82,0.33549136477497965,0.33552453534183074
83,0.33549487190341176,0.3353777032632094
84,0.33550288022141117,0.33554036342180693
85,0.3354788686364727,0.3354419912061384
86,0.3354676453329455,0.33540283882292565
87,0.3354980209168739,0.3357276673796159
88,0.33549102735018344,0.33556957116198005
89,0.3354807530384887,0.33544081087147926
90,0.33548284266913886,0.3354362922921666
91,0.3354712611220626,0.33541421249841635
92,0.3355109054668741,0.3359367927901502
93,0.33548273683995256,0.3381725259513476
94,0.33551158212367177,0.33559699629435763
95,0.33547206407300995,0.33538379948724883
96,0.3354759506636799,0.3353686249581519
97,0.33547489137079434,0.3357074251689627
98,0.33548119321998543,0.33544235430639374
99,0.3354904051312061,0.33545193336441853
100,0.3354733629006665,0.3353993221488839
101,0.3354972566307333,0.33550830033813456
102,0.3354686256724147,0.33538361372190434
103,0.33549010972018667,0.3354232828463278
104,0.3354868782162027,0.33573205352716945
105,0.3354817830575667,0.33539517391704154
106,0.335487245726905,0.33539319385961625
107,0.3354746204457899,0.3357202722919786
108,0.3354735611556653,0.33542342594184593
109,0.33547745514554334,0.33542888892199796
110,0.33548384662651765,0.33540156190803566
111,0.33547084929223325,0.3361071351887866
112,0.33548134504022004,0.33551974339461504
113,0.33547571970347106,0.3354393542700311
114,0.33546482941716266,0.33537228382550754
115,0.3354805372371907,0.33540636891171005
116,0.33546808796730343,0.33576261134952234
