epoch,loss,val_loss
0,0.342799457502574,0.3370853457350293
1,0.3373075974609807,0.33651218563688007
2,0.33680027661389367,0.33806382843637584
3,0.33644039958198363,0.3368598781803406
4,0.3362785623743009,0.33613589860073684
5,0.33626794489829626,0.3359857127181354
6,0.3361013714992764,0.3358614200693798
7,0.3360659491067509,0.33570825541877275
8,0.3360013637851819,0.33588731858333937
9,0.3359692010380851,0.33569768384727594
10,0.3359064430523363,0.3359653495233645
11,0.33587828277397763,0.3355587099385321
12,0.3358327755742854,0.3360606226376801
13,0.3358100897870383,0.3356983779233975
14,0.3358021988521913,0.3355613191429498
15,0.33576377581334305,0.33584209707179674
16,0.33575301767783905,0.33591618765672443
17,0.33572602875802765,0.33561746552031924
18,0.3357148884648601,0.3355486331743283
19,0.3357398404374878,0.3357218762337422
20,0.3357002226718468,0.33562169370816897
21,0.3357073165873399,0.33556300755174223
22,0.33568868048059086,0.33557157689525235
23,0.33566620250499574,0.3354878932903186
24,0.33568628277704604,0.33550674517456414
25,0.33566998485557376,0.3359438944395364
26,0.3356436599724926,0.33573951432781834
27,0.3356403949685543,0.33555008774951434
28,0.33563542721197714,0.335431988910765
29,0.33563947657457743,0.33636775692698384
30,0.3356253550217224,0.3357900970035392
31,0.3355819937592346,0.33563412223796985
32,0.3355962258245487,0.33560498151234897
33,0.33559936978990496,0.3355397174139472
34,0.335584122034182,0.3354637027526316
35,0.3355907371092877,0.33545284467950354
36,0.33558587971332016,0.3359688907344051
37,0.335593543956702,0.3353813125980699
38,0.33555793424509694,0.33575569440058384
39,0.3355922901423413,0.3355028730468182
40,0.33554640600268937,0.33555337313386996
41,0.33558294976335495,0.3355315577007701
42,0.3355606551465276,0.33565082774860394
43,0.33557015534328294,0.33565504281751574
44,0.3355535029397887,0.3353958437519689
45,0.3355614222089489,0.3356298451092344
46,0.33555443450206845,0.3354420353401979
47,0.3355745743243344,0.3354206397426927
48,0.335526295309481,0.33556631117245694
49,0.3355527275836281,0.33591659355991826
50,0.3355381347197505,0.33537580125385125
51,0.3355456375515361,0.33573046925641764
52,0.33554619955018833,0.33558059967776976
53,0.335532634101467,0.3355151951756726
54,0.3355353967965914,0.33544380951755987
55,0.33555004572800823,0.3356597453281838
56,0.33552569313147196,0.33556698742634605
57,0.3355454915678411,0.3354404626206192
58,0.33552110350914033,0.33536923057388135
59,0.33553331184250895,0.33543798053826646
60,0.3355121650692614,0.3355155000024043
61,0.33553009346778095,0.3354710577735238
62,0.3355324628342517,0.335366550228436
63,0.3355071377068562,0.33543573412350924
64,0.33552904947697854,0.33547809832445147
65,0.335538252492584,0.33539658209526213
66,0.335534844186572,0.3355342098116579
67,0.3355358781040388,0.33568857995511286
68,0.33550911307377496,0.3358676788233054
69,0.3355119404019292,0.33540582414300507
70,0.3355290609769099,0.33537832429036313
71,0.33552901905582044,0.3356892619771934
72,0.3355157980264346,0.3357039826235759
73,0.33551884636964663,0.33544749812807695
74,0.3355110454006515,0.3353793245391278
75,0.33549157835967053,0.33535911840185634
76,0.33550619577661345,0.3355042562147524
77,0.3355137633913063,0.33535424503440003
78,0.3355112940668973,0.33552110808954644
79,0.33552145590668386,0.33546160310137063
80,0.3354919370812494,0.33541198952618073
81,0.335515484644332,0.3356030563119032
82,0.3355055914103951,0.33540083053094283
83,0.33551312766956287,0.33540065378764133
84,0.33550948146441506,0.33551713510719183
85,0.33550154962646134,0.33591174699236676
86,0.3355005735214217,0.33546903704295383
87,0.33549546071314995,0.3354328717398584
88,0.33550681724265435,0.33536620790846
89,0.3354978499939821,0.3354377398124108
90,0.3354957334887453,0.33537906349149
91,0.33549912392188325,0.3356190622000777
92,0.3354923691685804,0.33542329393900355
93,0.3354930592342736,0.3353942399285271
94,0.33551554537463457,0.3356118824286733
95,0.3354869607769303,0.3355073555823295
96,0.3355004822307329,0.33547805862746227
97,0.33548025006705906,0.3354452397036493
