epoch,loss,val_loss
0,0.6016713325977325,0.6006854850451152
1,0.6005481640232934,0.600397018869718
2,0.6004512375328276,0.6003751949866613
3,0.6003928458558189,0.6003309152523677
4,0.6003372482591205,0.6003275165557861
5,0.6003139744732116,0.6004453134934108
6,0.6002992374897003,0.6002400556405385
7,0.6002864527834786,0.6002479095856349
8,0.6002786570257611,0.6002513424952824
9,0.6002786521514257,0.6002593420346578
10,0.6002752462095684,0.6002545369466146
11,0.6002738732761806,0.6002853480180105
12,0.6002693408727646,0.600234879175822
13,0.6002634799480439,0.6003023196856181
14,0.600257393916448,0.6002445721626282
15,0.6002573040458891,0.6002342053254446
16,0.6002550531758203,0.600232843875885
17,0.6002519931130939,0.6002199059724808
18,0.6002487956815296,0.600232720096906
19,0.6002458877033657,0.6002103961706161
20,0.6002411311599943,0.600234439253807
21,0.6002374576992459,0.6002681034008662
22,0.6002369338406457,0.6002243384520213
23,0.6002376699447631,0.6002186805009841
24,0.6002348057693905,0.6002708490689596
25,0.6002373360130522,0.6002124980688095
26,0.6002356662220425,0.6002443178494772
27,0.6002341052956052,0.6002185468276342
28,0.6002323942714267,0.6002109132210414
29,0.6002334657245212,0.6002183150450389
30,0.6002345144748688,0.6002232226928075
31,0.6002349950604968,0.600217726945877
32,0.6002328834003873,0.6002143907149633
33,0.6002325200239818,0.6002613714138667
34,0.6002317152950499,0.6002112596035004
35,0.6002336912817425,0.6002954154014587
36,0.6002313483953476,0.6002051310141882
37,0.6002317584620581,0.6002701756556829
38,0.6002309438917371,0.6002237444718679
39,0.6002311368253496,0.6002079244852067
40,0.6002300490140915,0.6002199744383494
41,0.6002301885419422,0.6002648883660634
42,0.6002287183205287,0.6002550011873246
43,0.600227838118871,0.6002068350712458
44,0.6002278296285205,0.6002383952935537
45,0.6002281810442607,0.6002444058656693
46,0.6002264249457253,0.600263528585434
47,0.6002245857848062,0.6002645045518875
48,0.6002244927883148,0.6002568239768347
49,0.600224367790752,0.6002191766897838
50,0.6002247885465622,0.6002685845692952
51,0.6002232553296619,0.6002074604829153
52,0.6002244010633893,0.6002233762343725
53,0.6002243361605538,0.6002351632118225
54,0.6002222759458754,0.6003528940677643
55,0.600223574757576,0.6001995783249537
56,0.6002243980964025,0.6002340641816457
57,0.600223149339358,0.6001981744766235
58,0.6002212479511897,0.6003073978424073
59,0.600221147192849,0.600208194176356
60,0.6002210838794708,0.6002024595340093
61,0.6002214777072271,0.6002086429198583
62,0.6002215303712422,0.6002015169461569
63,0.6002206871906917,0.600278521458308
64,0.6002221177551481,0.6002372735738755
65,0.6002223755783505,0.6002480012973149
66,0.6002207239468892,0.6002316865126291
67,0.6002205173042086,0.6002047421534856
68,0.6002208350102106,0.6002896676063537
69,0.6002200155920453,0.6002081707715988
70,0.600221043586731,0.6002081459363302
71,0.6002193743652767,0.6002103571097056
72,0.6002207936975691,0.600197311202685
73,0.6002199785047108,0.6002266697883606
74,0.6002198231220245,0.6001979929208755
75,0.6002187793387307,0.6002395607630412
76,0.6002196468909582,0.6002152829567592
77,0.6002187385691536,0.6002426957686742
78,0.6002195975250668,0.6002287345727285
79,0.6002169913848241,0.6002040421565373
80,0.6002196521361669,0.6002079923947652
81,0.6002178865803612,0.6002041139602661
82,0.6002189766565958,0.6002027394771576
83,0.6002195293505986,0.6002122829755148
84,0.6002184769047632,0.6002514432668686
85,0.6002191355360879,0.600203825155894
86,0.6002201772795783,0.6002113676865896
87,0.6002197599013647,0.600215458949407
88,0.6002196482419968,0.6002191673914592
89,0.6002180719905429,0.600212274312973
90,0.6002202342483732,0.6002481098572413
91,0.6002182854811351,0.600193511168162
92,0.6002200617525313,0.6001959818204244
93,0.6002189313173294,0.6002048284212749
94,0.6002184952232573,0.6002041898568471
95,0.6002176376448737,0.6002035995721817
96,0.6002196573813756,0.6002136243581772
97,0.6002184625731574,0.6002078937292099
98,0.6002185239262051,0.6002155580917994
99,0.6002178775999281,0.6001983158191045
100,0.6002206659581926,0.600205529332161
101,0.6002177678611543,0.6002299160162607
102,0.6002179350058238,0.6002100061178207
103,0.6002175096538331,0.6002241266171138
104,0.6002189760870403,0.6002015149195989
105,0.6002181703382068,0.6002050987084706
106,0.6002171362241109,0.6002397151390712
107,0.600217977947659,0.6002004597584406
108,0.6002183060910967,0.6002217485109965
109,0.6002180712355508,0.600196876168251
110,0.6002183997498618,0.6002464230060578
111,0.6002190831502279,0.6001973806619644
