epoch,loss,val_loss
0,0.4537804812870126,0.448570799028903
1,0.4478219706224516,0.44728160775624787
2,0.4472021833952562,0.44771602946534644
3,0.4400544967852645,0.33622892071532257
4,0.3362100069799831,0.33598760737674704
5,0.3361377151440975,0.33590882935240013
6,0.33609704195990053,0.3376109859487851
7,0.3359967936693875,0.3356493449092799
8,0.33593959030628145,0.33647477200841786
9,0.33591385799407125,0.3360486146238247
10,0.3359079103713218,0.33584758643772705
11,0.33582877004923256,0.3360253332566387
12,0.3358625807191003,0.33560975813688176
13,0.335793880706549,0.33568986614347984
14,0.3357832071160698,0.33593118717297726
15,0.33578362703888165,0.33697683605603485
16,0.3357784578404399,0.33553246020087535
17,0.3357646008293918,0.3356404205114019
18,0.3357078746485563,0.33548262700549425
19,0.3357314908294342,0.3356787064974716
20,0.33572036784788944,0.33597371090138817
21,0.33570341985312857,0.3355490388556686
22,0.3356912105455572,0.3355102142980022
23,0.3356662756467206,0.3359265307486797
24,0.33568587266607325,0.3355688500345197
25,0.33563318430452116,0.3356130988367142
26,0.3356611095617836,0.33548498785229536
27,0.33565163759324407,0.3359089291569021
28,0.3356567865046032,0.3354941783117006
29,0.33562667182519507,0.3354721650740053
30,0.33563229717614296,0.335491332788917
31,0.335603941436026,0.33563751801663533
32,0.33559303028560716,0.33544786180515146
33,0.33560727022066544,0.33547173892298054
34,0.3356281216444222,0.3360355980343026
35,0.3356266252571189,0.33559233290385965
36,0.33559678214797667,0.3355953231786676
37,0.33557227160832154,0.3354259480761535
38,0.33558569897070095,0.3356612281083469
39,0.3355741720192107,0.33549342681988886
40,0.33559260222761045,0.3357560268554735
41,0.33560244991263716,0.33558648721160134
42,0.3355968604032801,0.3354561310695951
43,0.3355672512578099,0.33545273073553744
44,0.3355715121375825,0.33544345117976
45,0.3355703616080429,0.3355099685434668
46,0.3355700783568096,0.33547316510091646
47,0.33558023455016417,0.33541028839778664
48,0.3355360544138381,0.33554717720886024
49,0.33556211731328195,0.3354870447449885
50,0.33555894569752653,0.33577549142518054
51,0.3355476884929258,0.3356358868756306
52,0.33554632744447593,0.3353942234078353
53,0.33555903434169687,0.3354556159257297
54,0.3355442651530322,0.33564370873548255
55,0.33555754617556066,0.3356881034137593
56,0.3355341695203822,0.3355499050309581
57,0.33557758847973385,0.33577395230901447
58,0.3355384264149949,0.3364290023264163
59,0.335538574266635,0.3355075619356804
60,0.335563489458572,0.3354882276087777
61,0.3355390771299952,0.335443614833704
62,0.3355380720820615,0.3355534749942145
63,0.3355600669268329,0.3354022654499073
64,0.3355313948374362,0.3356387142655867
65,0.33555237388412373,0.3354560869355356
66,0.33552996609411995,0.33568256702967375
67,0.3355429695595712,0.33571457068618415
68,0.33553081596929935,0.3354165082681859
69,0.33551954008327567,0.3354747946593661
70,0.3355553666338822,0.3358837034950777
71,0.33553667811186827,0.3358538237753932
72,0.3355132505512419,0.33546891815904945
