epoch,loss,val_loss
0,0.7676666414117209,0.7650206707843185
1,0.7643402068736218,0.7652340848747613
2,0.7640663514885266,0.7633017305700713
3,0.7638036733630589,0.7632288582863346
4,0.540257928833241,0.5266282183952427
5,0.5267258049819799,0.5252239431991766
6,0.5265065323201971,0.5272121056433647
7,0.5263220164748114,0.5253313421611454
8,0.5262308520079685,0.5252261083120152
9,0.5261222663066574,0.5250537083107544
10,0.5260048673059557,0.5259574213631396
11,0.5260344469831724,0.5250076138647851
12,0.5259822104194005,0.5250176491571715
13,0.5258546258620048,0.5247885014519797
14,0.5257534126898993,0.5252048926081314
15,0.5257782338424758,0.5250294094050196
16,0.5256213034678048,0.525409965657123
17,0.5256858785819374,0.5255883379550489
18,0.5255803176753455,0.5250865743710444
19,0.5255763942254965,0.5254444839345018
20,0.5255918672847416,0.5243213247720421
21,0.525415677467758,0.5245437897464478
22,0.5255313895176265,0.5248247336513056
23,0.5254054921303581,0.5247478903079447
24,0.5254379178987956,0.5243476131713716
25,0.525294076795148,0.5244627514193135
26,0.5253458749858116,0.5243996837890473
27,0.5253002843411155,0.5244152951181379
28,0.5253285410225583,0.5246032159618349
29,0.5253364223340962,0.5245729443453085
30,0.5253109327332679,0.5248790525029374
31,0.5252913212976862,0.5243974319166936
32,0.5252217711137505,0.5256213243191059
33,0.5252125870193718,0.5247781515713069
34,0.5252298057395636,0.5300474307968954
35,0.5251527328240743,0.5242856249915755
36,0.5252031624743925,0.5260271735286003
37,0.5251779643171725,0.5244733504858561
38,0.525194877685138,0.5242585998906687
39,0.5251358523265783,0.5246729442262767
40,0.5251918703708507,0.5245549119731628
41,0.525181637483678,0.5241555076970652
42,0.5250871043080247,0.5248928588318174
43,0.5251561716044902,0.5245914062554428
44,0.5250949792339986,0.5258322760425785
45,0.525116310927105,0.5248279385472054
46,0.5251056604390362,0.5239729847564887
47,0.5251037229240367,0.5258671909644645
48,0.525064409785689,0.5243190291501748
49,0.5250916404762048,0.5242232321509652
50,0.5251435996935165,0.5246564392120607
51,0.5250632373409254,0.5241665001542634
52,0.5250619901736252,0.5252101062249309
53,0.5250565072412635,0.5241172616889992
54,0.5250899163297573,0.5242260165605
55,0.5250800869991843,0.5245899463705626
56,0.5250156686835808,0.5251392862932853
57,0.5250035535254115,0.5245441313121219
58,0.524998301762298,0.5245830103126412
59,0.5250939965812909,0.5257726926365798
60,0.5250006342411918,0.5241763914489272
61,0.5249818682274602,0.5251688112396165
62,0.5250202403166861,0.5244702525233512
63,0.5249793999226116,0.5248223717987686
64,0.5249842271557622,0.524104527800018
65,0.524994737063609,0.5257924940390859
66,0.5250863023151092,0.5239603885054293
67,0.524938645706436,0.5241509774482576
68,0.5249290021164974,0.5242977759382565
69,0.5249914495820122,0.5240632187639809
70,0.5249560373985007,0.5240871914858853
71,0.5249024842734265,0.5240792236020488
72,0.5249617561865388,0.5246876403356604
73,0.5249673623275489,0.5244975492025428
74,0.5250459583124542,0.5245680848658825
75,0.5249158387823978,0.5243998975670959
76,0.5250205739886324,0.5257826634435441
77,0.5249603415652188,0.524645019672053
78,0.5249988435168587,0.5262168870078718
79,0.5249404973961425,0.5241544930869829
80,0.5250506783706776,0.5262237574858938
81,0.5249928029610802,0.524551950790746
82,0.5249617007453291,0.5239105234075125
83,0.5249384370408775,0.5243481351779058
84,0.5249415403358314,0.5251311977507163
85,0.5248993027093647,0.5241269212798504
86,0.5248823819366693,0.5239588130792376
87,0.5249552760657328,0.5238869407928315
88,0.5249517022474013,0.5241794706278344
89,0.524883034024625,0.5259285313911533
90,0.5249538637880212,0.5242523508391368
91,0.5248875549573779,0.5243126041540142
92,0.5249033593212958,0.5242500625828064
93,0.5248727436129474,0.5240101333883205
94,0.5249382513262745,0.5255934868793629
95,0.5249777667201629,0.5248298890241618
96,0.5248739063874667,0.5270860193976693
97,0.5248749289272704,0.5254276185414336
98,0.5248763939310452,0.5260803126815531
99,0.5249956636479886,0.5256446786613086
100,0.5248961077620442,0.524404998423148
101,0.5249130718019643,0.524437418439548
102,0.5249276671439456,0.5240443473122551
103,0.5249469091878644,0.5248453927986675
104,0.5249443206261624,0.5248552135143327
105,0.5249807159246348,0.524120339773429
106,0.5248841340865165,0.5244089794513901
107,0.5248687027089515,0.5262583834657598
