epoch,loss,val_loss
0,0.4495969440009859,0.4467269641757011
1,0.36274904579586453,0.3359440543254216
2,0.33600463638040756,0.3358694537679354
3,0.3358304795026779,0.3358883715470632
4,0.3357643866141637,0.33566734319925307
5,0.3357214550309711,0.3356021145184835
6,0.33568729892704224,0.3355543240706126
7,0.3356449186735683,0.3356017950773239
8,0.3356364257070753,0.33664455970128376
9,0.3355966337190734,0.33549243134260176
10,0.3356052126089732,0.33542015572388967
11,0.33559010257323585,0.33557055548826853
12,0.3355611273712582,0.33570746062199275
13,0.33556170189380646,0.3356791492501895
14,0.3355500012371275,0.3354930892388026
15,0.3355402379367087,0.335706671555837
16,0.33553628214862613,0.3355488857825597
17,0.3355407001243697,0.3354589518706004
18,0.33551792790492374,0.33574132978916166
19,0.3355257412062751,0.3355683971643448
20,0.3355105732149548,0.3353657906254133
21,0.3355117577910423,0.3357726060549418
22,0.33549380566014186,0.3354012585083644
23,0.335501548661126,0.33572274138530095
24,0.3355079668362935,0.3354018947084745
25,0.33550241737233266,0.33540436923503875
26,0.33549438913663227,0.33542408400774004
27,0.3354825096395281,0.33536966566244764
28,0.33549924073616666,0.3356565541823705
29,0.33548392564058305,0.3354291175603867
30,0.33549249808655845,0.3353694518407186
31,0.3354862024585406,0.3354188399910927
32,0.3354913865990109,0.3353930894533793
33,0.3354790234764417,0.33553182808558146
34,0.3354735900561015,0.3353839027484258
35,0.33548314379321204,0.3354158714214961
36,0.3354829115205341,0.33585945641994475
37,0.3354757285780377,0.3353603298664093
38,0.3354790744052993,0.33565218820174536
39,0.33547034940454695,0.3353513293862343
40,0.3354753044247627,0.335709792415301
41,0.3354694897532463,0.3353539931178093
42,0.33546199927065107,0.3353351227442424
43,0.3354578863912159,0.33538549196720124
44,0.3354504587981436,0.3353077681263288
45,0.3354422555632061,0.33537992254892984
46,0.33545996748076545,0.33531840838988625
47,0.3354476403925154,0.3353323362867037
48,0.33544339044888816,0.335312289138635
49,0.3354476383328438,0.3353704789082209
50,0.33544517278671265,0.33568257753054304
51,0.3354425945149528,0.3353576775789261
52,0.3354435321357515,0.33582473887999853
53,0.33544642390145196,0.33539661757151285
54,0.3354561694131957,0.3354801288644473
55,0.33544015679094524,0.3360312002102534
56,0.33544841528601116,0.33575217670202256
57,0.3354473235607147,0.33546628298362097
58,0.3354438129994604,0.33538264950116475
59,0.3354305314951473,0.3353555704156558
60,0.3354446185827255,0.3354430431127548
61,0.3354298353526327,0.33541686632235845
62,0.3354394879274898,0.33530403780937196
63,0.33544300350877976,0.33533196824789047
64,0.3354308740364181,0.3353212145765622
65,0.3354276647236612,0.33536856855948766
66,0.33543979851404826,0.3362588896552722
67,0.33543291393915814,0.3355124883055687
68,0.33543644919660354,0.3355150264700254
69,0.3354361914396286,0.3354150128364563
70,0.33543373889393274,0.33534488205115
71,0.33544040395153896,0.33536238501469295
72,0.3354282355904579,0.3353594347834587
73,0.33543229764699933,0.33531258507569633
74,0.3354377549820476,0.3352996038397153
75,0.33542208286126457,0.3353379281361898
76,0.33543893805477354,0.33533114087581634
77,0.3354297563632329,0.3354130599697431
78,0.33542684104045234,0.33527733202775317
79,0.3354264377951622,0.3355877459645271
80,0.3354266297751003,0.3355548020998637
81,0.33542560750908323,0.33531112696727117
82,0.3354194666213459,0.33532166411479314
83,0.33542888725466197,0.33529619719584786
84,0.33542662284109326,0.33538612071673074
85,0.33542809134721757,0.33536812488238016
86,0.33542471049229305,0.33573474367459616
87,0.3354191678762436,0.3353639337619146
88,0.33542111380232703,0.33542850959300996
89,0.3354257188571824,0.33536289938290914
90,0.335435021367338,0.3353984585404396
91,0.3354209246834119,0.3353355735143026
92,0.33542601366175545,0.33536342372496925
93,0.3354335021906429,0.335343307296435
94,0.3354259441362487,0.33540098518133166
95,0.33542522546317843,0.3353633562127749
96,0.33542823146449197,0.3353018985191981
97,0.3354224590592914,0.33559161581595737
98,0.3354271340105269,0.3354122297167778
