epoch,loss,val_loss
0,0.7150090683338254,0.5566905080810074
1,0.5525892919040157,0.552359825418901
2,0.5512539576498421,0.5514603746953861
3,0.5516861307528592,0.5526536698489226
4,0.5515276487791569,0.5522678905679274
5,0.5513478434363077,0.5514396077902742
6,0.5513253538491498,0.5517946250678957
7,0.5516229479811913,0.5532576524934103
8,0.5521686908810638,0.5513772650282512
9,0.5519194157856687,0.5515469746996265
10,0.5519261346306912,0.551580473896145
11,0.5513354093221423,0.5514902232229247
12,0.5519809190000983,0.5596003379932669
13,0.5519434390758051,0.5516994743384132
14,0.5514865154135751,0.5515709112780963
15,0.5522035063083166,0.5520444258238918
16,0.5515968873519306,0.5532904096352037
17,0.5514339977148583,0.5519036073093266
18,0.5520575698031935,0.551474347133045
19,0.5515965653020282,0.551425463931505
20,0.626631481086869,1.0
21,1.0,1.0
22,1.0,1.0
23,1.0,1.0
24,1.0,1.0
25,1.0,1.0
26,1.0,1.0
27,1.0,1.0
28,1.0,1.0
