epoch,loss,val_loss
0,0.4555095328880283,0.44951290874268224
1,0.44854765855659096,0.4479291362442982
2,0.44782621863919775,0.4478831353761422
3,0.4473194785983984,0.44807807112450043
4,0.4470468215588451,0.4472973436782733
5,0.44690640452633484,0.4466928499508141
6,0.4468363016909663,0.44653407419585706
7,0.4467426986624351,0.44684357112158024
8,0.4467314673207489,0.446831823548963
9,0.44664217196448813,0.44644787731596614
10,0.4465913615444494,0.4465252077165372
11,0.44660966049775913,0.4466278276875356
12,0.446557669141616,0.44638425530334264
13,0.4465341780428532,0.4465233927181282
14,0.4465307091489221,0.44633856853539533
15,0.44649418028172666,0.4463356279114044
16,0.4465130010929843,0.4469442350840746
17,0.44647995275217445,0.44629106196221285
18,0.44645735746797127,0.44656496868831647
19,0.446450331197254,0.446283038348773
20,0.446452321459615,0.4473483755777847
21,0.4464017628449637,0.4463433488131161
22,0.4463962894203478,0.44635296620742854
23,0.4464052111634954,0.4464728595157415
24,0.4463661938948707,0.44622820247491596
25,0.44637697019235434,0.4462349243702427
26,0.4463710010113256,0.446229829282382
27,0.4463600846329481,0.4463306943033233
28,0.44635596386404486,0.4463413456829251
29,0.44635654702459016,0.44625946002326
30,0.44633782761206536,0.4462162879057617
31,0.4463300526716387,0.44622647454661707
32,0.4463342495758697,0.44616975494413164
33,0.44633164243726453,0.44624994345397573
34,0.4463195961666698,0.44710315304713566
35,0.44631397741032536,0.44659542734214747
36,0.4463025785235096,0.4463845171940238
37,0.44630388346576755,0.44618857488147085
38,0.446315052452954,0.44618507271664903
39,0.44631359728073894,0.44708006540244033
40,0.44629725278211896,0.44619804889925063
41,0.4463066142074351,0.44618048074819316
42,0.4462928559572785,0.4462677206502067
43,0.446296280548648,0.4461596692762067
44,0.44630750932033203,0.4462125281837975
45,0.4462844276592772,0.44618692046063707
46,0.4462873427828227,0.44640948129055225
47,0.4462713621264597,0.4463042993551448
48,0.4462881430730527,0.4463465162749326
49,0.4462984999896494,0.4463672754782305
50,0.44627749057426086,0.4462461979010561
51,0.4462778897437926,0.44729212024075815
52,0.44626780527818843,0.44613001598022123
53,0.4462558006817799,0.4461711678848077
54,0.4462657391782824,0.44618239327340803
55,0.44626413276088844,0.446323541228292
56,0.4462677874005814,0.44618623314365263
57,0.44626233397315385,0.4463305179889385
58,0.4462517897418161,0.44678254090526853
59,0.44625006079337726,0.44638994398247217
60,0.44624722063769384,0.44619510811256713
61,0.4462451635797306,0.4461854996663465
62,0.4462416562978713,0.4463388200433319
63,0.44626403214309546,0.44643062953617674
64,0.44623796430795376,0.4463274260608493
65,0.44625381525178026,0.4462931601936113
66,0.4462480968344914,0.44688860015301196
67,0.4462475309705812,0.44621717134125477
68,0.4462451906889936,0.4466671647859862
69,0.4462322681545509,0.44616405240655244
70,0.4462395635221633,0.4461839230717264
71,0.446250756633687,0.446476115363999
72,0.4462290706802195,0.44625378424121487
