epoch,loss,val_loss
0,0.33818765807177986,0.3335308954970121
1,0.33377383973301217,0.3334960282884224
2,0.333653288696059,0.33341414611925263
3,0.33359303870978074,0.33352381072328346
4,0.33353495196523025,0.333648133780761
5,0.3335113290919342,0.33339736757444094
6,0.33351358345869686,0.33354535213770997
7,0.3334793340544377,0.3334124089470572
8,0.33347670092986076,0.3333952582207862
9,0.3334725052025614,0.3337605989896334
10,0.3334678412635454,0.33347523801084195
11,0.333464187613043,0.33356865351608317
12,0.3334552213598718,0.33375044176655433
13,0.3334582015463586,0.333389112552993
14,0.33344779700189514,0.3335070633414957
15,0.33344580596687695,0.33349449306208795
16,0.33345108006920954,0.3334196841894249
17,0.33343320744399635,0.33341171921926455
18,0.3334455615184954,0.33358603519186486
19,0.33344304064929337,0.33342143090132154
20,0.33343863642485033,0.33359536595143396
21,0.3334282412390442,0.33339626938474387
22,0.333428396785703,0.33346562515713146
23,0.3334301718032842,0.3333896604276472
24,0.3334292378524328,0.33338870040832025
25,0.33343215998866066,0.3333892336406424
26,0.33342347032506897,0.33369689675477837
27,0.3334186219410688,0.3334396809561377
28,0.3334197660952992,0.3334042414837972
29,0.3334259226084232,0.33339388250713015
30,0.33342060008032415,0.33340424815419295
31,0.3334145935518317,0.3333825742784268
32,0.33341899087166177,0.33338523598817676
33,0.3334175776722044,0.33341424901491357
34,0.33341699805546965,0.33350143043634023
35,0.33341298450014606,0.33341833379665026
36,0.33341468559230164,0.33338010149913155
37,0.33341159520928154,0.3333828714881878
38,0.3334091515557074,0.33383687715376575
39,0.33340896870218406,0.3333913381726807
40,0.3334092193408946,0.33342134905216414
41,0.33341000811186694,0.3333801637068576
42,0.33340473424776046,0.3333802060808792
43,0.3334068684779661,0.333457373759291
44,0.33340614405644,0.3334291088817729
45,0.3334030097944589,0.3335003854914871
46,0.3334037686806763,0.33338279256749687
47,0.3334060112292154,0.3333893523174835
48,0.33340711207677975,0.3334036467388901
49,0.3334007460560232,0.33338759671665597
50,0.3334015437640242,0.3333797885377709
51,0.33340177601278387,0.3334292805076533
52,0.33340392141319064,0.33338439693817723
53,0.33340179455221775,0.33339761245635247
54,0.3334059972385591,0.33338347179422306
55,0.33340074325292235,0.3333934378683123
56,0.3334031610285942,0.3334002779967732
57,0.3334016353564398,0.3334053325002306
58,0.3334007186592323,0.33345939162055555
59,0.33340038556628604,0.33343760467344713
60,0.33340080053565146,0.3334294814034076
61,0.33339915201968173,0.33337919672133015
62,0.33339893807094667,0.33338535787449874
63,0.3333991505003987,0.3334635740917906
64,0.3333989811488526,0.3333785379494982
65,0.33339426995745197,0.3333742052982226
66,0.33339838949736095,0.3334905414220417
67,0.3334007337140178,0.33338900820788914
68,0.333395512039177,0.3333772813268098
69,0.33339794661373334,0.333396144288941
70,0.33339935693830647,0.33347136925526943
71,0.33339557047832813,0.3333794382902292
72,0.3333959452963401,0.333398728778877
73,0.33339674093366717,0.33338414266446686
74,0.33339705372769834,0.33337281900954896
75,0.3333940901058142,0.33355040859347834
76,0.33339617650581865,0.3333860497468754
77,0.333399209262575,0.333379298093597
78,0.33339254381408606,0.33338190383709987
79,0.3333981576927116,0.3333787356061912
80,0.3333969981097911,0.33339162223392327
81,0.33339218974422685,0.3333752324504237
82,0.33339597288442185,0.333376486987689
83,0.3333936093615901,0.3333913244917138
84,0.3333939605119963,0.33337485206038425
85,0.3333925100068831,0.333410516211176
86,0.3333942368231194,0.333374559879303
87,0.3333914038907355,0.33345378212834115
88,0.3333924149964751,0.33343142957308747
89,0.33339287967029746,0.3334071823000612
90,0.33338993572652065,0.33337420238454646
91,0.3333914069289072,0.3333824214657246
92,0.3333900882117374,0.3333824813513839
93,0.33338903518254187,0.33338847864354515
94,0.33339092720621555,0.33337461444047783
