epoch,loss,val_loss
0,0.5631912667242897,0.5642394274990848
1,0.5584556741495247,0.5591575198078865
2,0.5579006791192113,0.5575395845893595
3,0.5576671783133792,0.557570734095041
4,0.5575239476404609,0.5572991072687854
5,0.5574300977114758,0.5572192339684177
6,0.5573623142257451,0.5573108809461664
7,0.5573174200453218,0.5572972432259591
8,0.5572973947486782,0.5573529513834724
9,0.5572980014230078,0.5571704627858202
10,0.5572610154121436,0.5573316086610552
11,0.5572297572805621,0.5570907156461522
12,0.5572069660494714,0.5570565671542146
13,0.5571799754033095,0.5572202331079147
14,0.5571660272688042,0.5572383289005857
15,0.5571644144118115,0.5574579416374414
16,0.5571644563001646,0.5571446486797286
17,0.5571380371781495,0.5572943593668879
18,0.5571329404134593,0.5570641002051587
19,0.5571146833903106,0.5570998887861929
20,0.5571144611127333,0.5570932525559039
21,0.5571064052011812,0.5569809547429049
22,0.5571140075357511,0.5572212358266485
23,0.5570983826034199,0.5570251411894711
24,0.5570957065023016,0.5569838817302998
25,0.5570920312887868,0.5570220605611209
26,0.5570516969634757,0.5570171508836391
27,0.5570833240694301,0.5571628210858139
28,0.5570595316308155,0.5570277147198434
29,0.557057150816476,0.5569820090795569
30,0.5570667488176687,0.5570409227245795
31,0.557051801865,0.5569595566458501
32,0.5570635462794549,0.5569715577674563
33,0.5570450624705758,0.5570067011688838
34,0.5570580486512244,0.5570133382865868
35,0.5570501304351498,0.5570894668770783
36,0.5570411718564879,0.5570670297660544
37,0.5570336740148293,0.5572039427591613
38,0.5570463616476833,0.557739379388227
39,0.5570268194854131,0.5572441024756609
40,0.5570303484651742,0.5569919143066216
41,0.5570408554646115,0.5583555511446212
42,0.5570194610257466,0.5569540530812948
43,0.55702606627442,0.5569426956602717
44,0.5570189392080289,0.5569682606396545
45,0.5570019989433896,0.5574213276725845
46,0.5570177911214901,0.5574702619027263
47,0.55701695128691,0.5571397052509317
48,0.5570179088706587,0.5569590270962964
49,0.5570052095812911,0.557112038727138
50,0.5570079331020257,0.5572177241812865
51,0.5570056161378041,0.5569722431173395
52,0.5569972303935324,0.55715478711921
53,0.5570038916008868,0.5569279497373785
54,0.5570011814768209,0.5571003073498274
55,0.5569968248143775,0.5571404186430995
56,0.556999654583166,0.5571949033820008
57,0.5569933955882481,0.5570307930113364
58,0.5569840111701687,0.5569293770837429
59,0.5569980507795542,0.5574179878601662
60,0.5570023593179579,0.5569083557235396
61,0.5569815549272915,0.5569415821331015
62,0.5569895743847278,0.5570032629422456
63,0.5569898403318322,0.5569181122791679
64,0.5569879178416427,0.5569548553923519
65,0.5569896851977304,0.5570584827853787
66,0.5569760244838096,0.5569075674927856
67,0.5569825378947417,0.5576036707639103
68,0.556990539453667,0.5571484317258925
69,0.5569842202514397,0.5569186466799184
70,0.5569766651321794,0.5570357720845982
71,0.5569967320355643,0.5569511368316101
72,0.5569797052096555,0.5569329061224206
73,0.5569642119548318,0.5569241493866403
74,0.5569883155601251,0.5573270858369453
75,0.5569810188499271,0.5569265982649166
76,0.5569693871834704,0.5570433815714739
77,0.5569823108053127,0.5570649223055496
78,0.5569837819658914,0.5570166873576919
79,0.556963760506108,0.5570678179672279
80,0.5569821039958669,0.5569366736979994
81,0.5569721712420335,0.5577951413230328
82,0.5569823881065284,0.5569367982613538
83,0.5569778370287074,0.556915237590042
84,0.5569837815604337,0.557190312434071
85,0.5569695505095525,0.5571703855216356
86,0.556972660036249,0.5569320108103692
