epoch,loss,val_loss
0,0.4541090633885074,0.44813895794948927
1,0.44824482765619117,0.4481906136567184
2,0.4476079079340327,0.44815594272932996
3,0.447175723109821,0.44702458137613965
4,0.446961937727632,0.4467250780935027
5,0.44680766285817053,0.446884089944972
6,0.4467382349741531,0.44683073821197966
7,0.44665309789084173,0.44639871930957725
8,0.44660394704022727,0.44633338591892724
9,0.44658397305291153,0.4473808963452616
10,0.4465853474183584,0.4470687327550599
11,0.4465236206365076,0.4465131567370507
12,0.4465192964773342,0.44639707630680453
13,0.44646833320527357,0.4464555800700602
14,0.446470191620529,0.4466528017231016
15,0.44645516720414596,0.4465426575605094
16,0.4464440005625401,0.4472263380552344
17,0.4464484556447068,0.446292705556595
18,0.44642750925589963,0.44640788736177733
19,0.446409216836848,0.4463436502233037
20,0.44639431762484855,0.4465367302705277
21,0.44642304205102173,0.4462669195075781
22,0.446415522331214,0.4463361635841152
23,0.44638231219898716,0.44675121069250273
24,0.4463819644468527,0.4462727858322134
25,0.44636635159226956,0.44635384479172474
26,0.4463550838611514,0.446292048234206
27,0.44637033028730455,0.4463886208924703
28,0.4463641118929777,0.4463033028039388
29,0.4463529808314661,0.44685644100676697
30,0.4463428862641285,0.44621673491101704
31,0.4463454636481353,0.44660093788769345
32,0.4463417336280232,0.4462136224392922
33,0.4463558560556887,0.44649448573737227
34,0.44632264187756227,0.4462555161776673
35,0.44633253537575657,0.44618714147111027
36,0.44633356128701196,0.44629104868058234
37,0.4463122747921817,0.44624077557925845
38,0.4463327421146023,0.44631495347094
39,0.44631577073700257,0.44618990915289
40,0.44630621725766584,0.44615291275694113
41,0.4463257689714618,0.4465752557696539
42,0.44631349401563863,0.4463663158286594
43,0.44630782488788306,0.4462123933856008
44,0.44631417866799855,0.44625628979566967
45,0.4462946675086472,0.4461892860107327
46,0.4462956401980609,0.44629151078666707
47,0.44632246600871783,0.4462796890410241
48,0.4462946718026333,0.44640100849769254
49,0.4463112748739975,0.4462607063371549
50,0.44629373341698997,0.4462243499590209
51,0.4463222424228691,0.4462843012721012
52,0.44628883780663653,0.44676157048263265
53,0.44631354549338126,0.44622699014897976
54,0.44629247660626553,0.44625008331043253
55,0.44629440189363956,0.4462291049750212
56,0.4462771806460424,0.4461864205211327
57,0.44630855279563525,0.44623364093285933
58,0.44630492223255547,0.44632834131013666
59,0.4462725229509956,0.44649414156861694
60,0.44629730368835563,0.446171905030092
