epoch,loss,val_loss
0,0.537522916421591,0.5308347074033013
1,0.5313029734996624,0.5364157280318494
2,0.5307198088627029,0.5299012672516608
3,0.5301331523595585,0.5301184714284192
4,0.5297801196429232,0.5293748524585373
5,0.5294588747275826,0.5285029857685193
6,0.5292404126474763,0.5313121742705258
7,0.5290917971834633,0.5291737371579589
8,0.5288302316922302,0.5286994881428797
9,0.5287800534169936,0.5282577325925046
10,0.5288435843924185,0.5280727450960031
11,0.5285447612952073,0.52866996139214
12,0.5284908969064285,0.5284778057789389
13,0.5285232041250367,0.528390165623601
14,0.5284263034378421,0.5282271554097349
15,0.5283598047662357,0.5298094014080228
16,0.5283750409025199,0.5284654734152422
17,0.5283653750613163,0.5279314958428035
18,0.5283122106928477,0.5277835773179312
19,0.5282625609971637,0.5305376159641938
20,0.5282473479593458,0.528490511093187
21,0.528200640378935,0.5289115300545326
22,0.5282063884080443,0.5286126689638748
23,0.5281623104438972,0.5291991925417046
24,0.5282540944792548,0.5279038916154771
25,0.5280819221301823,0.5284448665069883
26,0.5281127371533202,0.5293349926584116
27,0.528102983544729,0.5277844048611283
28,0.5280585272798934,0.5282736962249793
29,0.528050401262816,0.5280331549218511
30,0.5280377873625193,0.5280852426961988
31,0.5280026450316004,0.5278599859171411
32,0.5280375097928207,0.5275929223514964
33,0.5280104987365191,0.5290443221629405
34,0.5280016206530381,0.5295067601405066
35,0.5279393235539477,0.5279993360154978
36,0.5280180488135897,0.5276556087486797
37,0.527936858926616,0.527506111780408
38,0.5279284399994988,0.5281288116800578
39,0.5279719490962725,0.5280512888437465
40,0.5280109088806226,0.5280478980937607
41,0.5280064426105061,0.5276698821531631
42,0.5279742623261816,0.5277952000165992
43,0.5279069962896382,0.5277216616694448
44,0.5279370451492245,0.5278353671873769
45,0.5279186082069931,0.5286594092106405
46,0.5279015499983446,0.5276339053811862
47,0.5278366275828927,0.5276040238423028
48,0.5279172691128142,0.527558923388829
49,0.5278386562611852,0.5291869869303171
50,0.5279166585811149,0.5275187907088779
51,0.5279160469663545,0.5292888265685467
52,0.5278556191083972,0.5281642023446247
53,0.5278867406062638,0.5308092626685245
54,0.5278735038133304,0.5277682391348902
55,0.5278553401322181,0.527642297241883
56,0.5278455875885448,0.5297002441829842
57,0.5278982993826319,0.5279038811735717
