epoch,loss,val_loss
0,0.5255425040630484,0.5176564386701465
1,0.518298028482073,0.5175090372414506
2,0.5179722379791553,0.5172350420253744
3,0.5177278703996158,0.5187924546284356
4,0.5174075850274731,0.517026425295373
5,0.5173233316001183,0.5174092038985222
6,0.5172237258452463,0.5172787788783942
7,0.5170800659764468,0.5178365576060179
8,0.5170622642877893,0.5171413845518978
9,0.5170930153669387,0.516941492522029
10,0.5169151858412517,0.5170893639252144
11,0.5168054670608576,0.5166149702320619
12,0.516940147575628,0.516683021550143
13,0.5168809066058779,0.5167060317531709
14,0.5167987554584274,0.516508840982139
15,0.516759076497864,0.5167200354725197
16,0.5167297955301519,0.516456767199353
17,0.516679242920455,0.5178833622790447
18,0.5166689477844855,0.517152447233129
19,0.5166957953750825,0.5169318860576999
20,0.5166034041692223,0.5168432304048657
21,0.5166375879421896,0.517282870360107
22,0.5165327700959502,0.5165458446992538
23,0.5165700703822649,0.5173132120231837
24,0.5165485432901121,0.5169018645440379
25,0.5165301896773213,0.5171786326036856
26,0.5164899760009111,0.5162626692438244
27,0.516430656583778,0.5165464705923947
28,0.5165207724928977,0.5167652776460198
29,0.5164353427381672,0.516744114684112
30,0.5164240536534707,0.5165948672862561
31,0.5164185795370524,0.5162301563447521
32,0.516410271353521,0.5163113723913434
33,0.5164109167585246,0.5166774279722209
34,0.5164043959791486,0.5176204187698459
35,0.5164521098968327,0.5161529095237959
36,0.5163710833635501,0.5162439097837538
37,0.5164061281014375,0.5163327093751495
38,0.5163653950037694,0.5173211017554215
39,0.5163757401877305,0.5163829450867607
40,0.51630831228917,0.5163018473028841
41,0.516327713669278,0.5179247538741706
42,0.5163545110454406,0.5163411612546178
43,0.5163279423947367,0.5166781498244027
44,0.5163623481542036,0.51698301125401
45,0.5163833693495574,0.5162723996207377
46,0.5163272708101041,0.5168092531838429
47,0.5163172835064367,0.5163664016179352
48,0.5163355861120208,0.5166878100660244
49,0.5163296217333779,0.5161811290840357
50,0.5162992516495539,0.5165198082663581
51,0.5162852901696537,0.5165807005785239
52,0.5162821336437866,0.5162510272586908
53,0.5162871027642477,0.5165101348022669
54,0.5162290547180292,0.5181793090427483
55,0.5162826124569594,0.516659276982395
