epoch,loss,val_loss
0,0.0918132611647207,0.08140959202060037
1,0.07634745953720364,0.07250970965875289
2,0.07234688099003425,0.0722150116789134
3,0.06826940887159962,0.06555450520947317
4,0.06344454014198239,0.0629026184473233
5,0.061288511846035815,0.061707291600500085
6,0.06005894874880299,0.06004408981013239
7,0.06010737501958333,0.06012233961604665
8,0.058309315455044905,0.05911541101210762
9,0.05755717408466809,0.05740716667018517
10,0.05733316099009312,0.05771020241913665
11,0.05704637112826382,0.05639918471129597
12,0.056770083526321034,0.05720860630495672
13,0.05656682264357417,0.05624544014299182
14,0.05634887143062384,0.05583334676089417
15,0.05619965906862308,0.056215881871489376
16,0.05588870138544019,0.05555366431698018
17,0.0557703502276346,0.05532347631106897
18,0.05567218914044888,0.055494638475087975
19,0.055740197515911985,0.055814890384156414
20,0.05561637308839664,0.054744139583619594
21,0.05539784107061305,0.05586700832503605
22,0.05539690455708076,0.05467646703419851
23,0.05519192125428621,0.05583625849216215
24,0.0552019155015395,0.05484630995367656
25,0.05504635276777718,0.055485022985018215
26,0.055003485628630694,0.054893276136063464
27,0.05491498829629654,0.054733955813918454
28,0.05475712107986678,0.054317910335126056
29,0.054575190741495194,0.055014881155183236
30,0.05453906397137001,0.05391025289745248
31,0.05443058223696977,0.05439957632283419
32,0.05453399614661585,0.05518582365648918
33,0.05434619625995938,0.054205653230398526
34,0.054315741549318945,0.054449706888820046
35,0.054114698400894425,0.05387884291725478
36,0.05411411686141564,0.0543724596297031
37,0.05417378982502052,0.053142738114885305
38,0.05412644866150269,0.0544226844908286
39,0.05411838370682448,0.053392654808963796
40,0.05408369577854442,0.053746022971776816
41,0.05399488150028061,0.053669508389444565
42,0.05401090501113868,0.053502717821237174
43,0.05400010578214923,0.05331202961375045
44,0.053887489111689155,0.05508261317798577
45,0.053942188726073086,0.05355592833522236
46,0.053891027585440884,0.053737398767589636
47,0.053869228939094654,0.05417802371177129
48,0.05378651603567975,0.053753389414427595
49,0.053767252171023884,0.05336016404162861
50,0.05374491083407378,0.053339703828466145
51,0.053692792782119504,0.05507392943755864
52,0.05376959870727925,0.05424620251427809
53,0.05363232822075195,0.05326666566115751
54,0.05359789901930877,0.05289277078551483
55,0.0536323895038998,0.052713273223443304
56,0.053579733790860715,0.0534881362215461
57,0.05353542464269939,0.05337858738437776
58,0.05344291098203953,0.053304353811161095
59,0.053435729925636125,0.05395183948887785
60,0.05338141442496312,0.05308999755320419
61,0.053443616936901174,0.0532863313604895
62,0.053256858033689077,0.05310911155368199
63,0.05327721464876072,0.05274466748347058
64,0.05327892338323141,0.053091281927918677
65,0.053234011082291276,0.053318488030294625
66,0.05325470231649453,0.05359753193726611
67,0.05316422503133979,0.05380012008451646
68,0.053215924270856425,0.05327895715943637
69,0.05307643278260658,0.053099934455404806
70,0.05313439358812793,0.0532106946589929
71,0.05316741183642522,0.05254381729414682
72,0.052919378060170066,0.05335939522120852
73,0.052952471777703666,0.0530200867680255
74,0.053023730320800384,0.05324668622120438
75,0.05287871662645598,0.05238962370541788
76,0.05291179572347865,0.05247849060901933
77,0.052840141384939386,0.05279090728971266
78,0.05286528889532405,0.0526669530470673
79,0.052788612076954754,0.05273290373958074
80,0.052859572345166764,0.05295620002684463
81,0.05281496829731923,0.052546575007308506
82,0.052772955007468446,0.052683242817152816
83,0.05269667714907377,0.052776050878221875
84,0.05284966867776951,0.0536189457064231
85,0.05260431382636645,0.05379362338529923
86,0.052727109796634225,0.052621960544741476
87,0.05258862475269184,0.05260798588912777
88,0.05273921765695983,0.05239200328035331
89,0.05271528679285652,0.05286022588869478
90,0.05272282276972242,0.05233999603143697
91,0.05264786007458015,0.05350490442613514
92,0.05271493928530808,0.053035357452134044
93,0.0525488128432026,0.053074347440421436
94,0.05258671732345065,0.052479688556998895
95,0.052539025195887275,0.052965057336219194
96,0.05272464205338198,0.05297720312480595
97,0.05249943878500717,0.0528426272198373
98,0.05250295682692625,0.05288245961365865
99,0.0524956395900391,0.052104892372789216
100,0.05248120433254931,0.05262931776105914
101,0.052445704029734155,0.05351571678079979
102,0.052621661203790596,0.05281182096406781
103,0.052523369218410304,0.05261170944712002
104,0.05246007497845172,0.052269186645228574
105,0.052535610160332875,0.05217391751503234
106,0.052394895529653845,0.0526257075461797
107,0.05237298360635096,0.05225971963432231
108,0.05240731606193952,0.05252035847003052
109,0.05234673010344285,0.05305947886026527
110,0.05236621447951436,0.05315785203545029
111,0.05241068779975142,0.052469497516048756
112,0.05237312211920238,0.05216894814601311
113,0.05232294841463332,0.05217916906138804
114,0.05229391450245378,0.052704814845515834
115,0.052280036644821955,0.05272740949287308
116,0.05234228905862118,0.05370135326909072
117,0.05237699828358537,0.05232555404416385
118,0.05233601436340983,0.05262093440474706
119,0.05233416797021607,0.05179805904626846
120,0.05224733632883463,0.052489728038719215
121,0.052228659427196275,0.052162187596408664
122,0.05237844887576549,0.053039780288712854
123,0.05219536405488845,0.05238119852047404
124,0.05227624510631863,0.05260840188111028
125,0.05236104496125209,0.05236063568526995
126,0.05225632611708838,0.052710087606614046
127,0.052150793537167985,0.05301733802329222
128,0.05231365102441532,0.052796127547327404
129,0.05217507458573276,0.0520259632625
130,0.05221195450603739,0.05194974837099056
131,0.052338787506464604,0.05323828455827964
132,0.052126479967116196,0.05388373747541946
133,0.05207150990854325,0.052091158545638436
134,0.05219015030338279,0.051700359645759496
135,0.05221108467710449,0.05210658405761861
136,0.05209552435224428,0.05259621871944988
137,0.052061985442971866,0.05257239659356124
138,0.052133788675587676,0.05208251502725386
139,0.05205725424304352,0.05198000648773042
140,0.05222915894557993,0.05280760248046063
141,0.052245563569175445,0.05281388579911689
142,0.052155639832499115,0.05208730916527306
143,0.05206850516499769,0.052218836961919556
144,0.052050963800110456,0.052203134123799816
145,0.05218078819794885,0.052227747608577055
146,0.05200226396229366,0.05209102907562374
147,0.05210818760885362,0.05164896757815671
148,0.05200846531216387,0.05188307868450806
149,0.05207460094562517,0.05215693896188038
150,0.0521245841814717,0.05197380127260466
151,0.05213898324816632,0.05160633008141376
152,0.05207047827244144,0.05204937031709823
153,0.05199907322255801,0.05380293691979153
154,0.05199586891019569,0.05193655827722833
155,0.052047511858096536,0.05221064817668782
156,0.05203580901742489,0.05196597609604263
157,0.05188923770151205,0.05203244637134057
158,0.0519347661899015,0.0519758621364758
159,0.05197847497268228,0.051909785828652515
160,0.05194485713511276,0.051790113660227274
161,0.05204778578062333,0.051920897178998955
162,0.05191205063587859,0.05205915941863735
163,0.052079206715712985,0.05416083667917228
164,0.052052634291008586,0.052112329063507226
165,0.05198602084253797,0.05194995118947538
166,0.05182520484962495,0.05217515076360395
167,0.05200992949324023,0.052048104897917946
168,0.05192641108748724,0.05211372476431631
169,0.05192599326207084,0.05233360789254049
170,0.051923370188964243,0.0519108766028958
171,0.05200941677236288,0.05209429252421294
