epoch,loss,val_loss
0,0.5149672877357686,0.5098581491865531
1,0.5101956331645169,0.5097685874839575
2,0.5096221642424722,0.5093212786442589
3,0.5090355828933533,0.5105897371881357
4,0.508636686724479,0.5080443764147037
5,0.5084212671719492,0.5079996080315734
6,0.5081752216547274,0.5081875657621152
7,0.5081302101274378,0.5086742017760171
8,0.5079690413601186,0.5083875870290524
9,0.5078884910005897,0.5078137659257458
10,0.5077955598726168,0.5083840534349825
11,0.5076798532136,0.5082267203047021
12,0.5075946512109141,0.5075512169312603
13,0.507553368684965,0.50733789637426
14,0.5075334289446239,0.5083329751532959
15,0.5074559536092365,0.5080855921243616
16,0.5074316466243222,0.5080445387523168
17,0.5074340863522929,0.5080524487767563
18,0.5073843175782649,0.5077175692352408
19,0.5073994016687096,0.5086505154226317
20,0.5073083514707255,0.5070733304650848
21,0.507298725337554,0.5070796416651818
22,0.5072364427166157,0.5070516628899586
23,0.5072550535323506,0.5070914834368022
24,0.5071973928804314,0.5073017480355634
25,0.5072201774569679,0.5070541678823844
26,0.5072003780862318,0.50696542641661
27,0.5072138969144199,0.5071430892565706
28,0.5071739796370363,0.5070170413767434
29,0.5071344571350171,0.5069991895046186
30,0.5071423708886909,0.5069643880238308
31,0.5071314408273001,0.5073030524750797
32,0.5071164651234226,0.5070387657463699
33,0.5070751065717929,0.5070813667981263
34,0.5070640306671185,0.5069352773519663
35,0.5071026521696105,0.5076597154584179
36,0.507099848020383,0.5068790138211499
37,0.5070769368787343,0.5073262568738857
38,0.5070725107347288,0.5070776927264098
39,0.5070247508315181,0.5074977243804458
40,0.5070157296624968,0.50763125564561
41,0.5070582869757753,0.5069103981365932
42,0.5070292499673712,0.5073247221799997
43,0.5070276976292751,0.5080462995888874
44,0.5070361785614412,0.5069695338717761
45,0.5069468692433163,0.5068938272170925
46,0.5070422126504065,0.5078323163702233
47,0.507018104918753,0.5076629954591283
48,0.5069538665758724,0.5069630595649738
49,0.5069987039417362,0.5068762570693535
50,0.5069810644598137,0.5075365837395339
51,0.5070175213034482,0.5069293339258388
52,0.5069824720195442,0.5069102762650616
53,0.5069527458695592,0.5067838357932515
54,0.5069511533627554,0.5069605661680917
55,0.5069798700532853,0.5073177587897251
56,0.5069366072807264,0.5080641913650645
57,0.506970197384774,0.5071169765356457
58,0.5069345616844364,0.5067881360539136
59,0.5069180018866075,0.507773071394369
60,0.5069250615089794,0.5068948201446912
61,0.5069573877186258,0.5080111328188894
62,0.506915352755524,0.5068711124046269
63,0.506932355627088,0.5070219199947329
64,0.5069276336244031,0.5068553910657726
65,0.5069403594744039,0.5070761499866363
66,0.5069055896746841,0.5068211834720583
67,0.5068949803192709,0.5069510831134787
68,0.5069240086198009,0.507093799410032
69,0.506932453359742,0.5072214096119031
70,0.5069353116659671,0.5069048563244917
71,0.5068478927066941,0.506896190607814
72,0.5069360933662781,0.5072019079778686
73,0.5069068154355544,0.50889847154357
