epoch,loss,val_loss
0,0.07645390355401223,0.0030728312229102318
1,0.00346673838012113,0.003071755593166102
2,0.0024547247184219093,0.0031064329010095128
3,0.0024519138879236556,0.0031226394258533395
4,0.0024505438942171017,0.0030721131993760894
5,0.0024494342087799303,0.0031096995176473096
6,0.0024613171505431333,0.003125174733171196
7,0.0024407667862022782,0.0030859960495790307
8,0.002451927659074109,0.0030754796019935794
9,0.0024436842021472193,0.0030713211835268163
10,0.002489311010239872,0.0030726302079423225
11,0.002448586215811375,0.003090960349050141
12,0.0024936123695753955,0.003083865712360703
13,0.0024549752004259296,0.0031667581313585703
14,0.002461747694110801,0.0030796368220142385
15,0.0024540235594670634,0.003125139032923725
16,0.0024574024672559835,0.0030753403611466753
17,0.002451293783813465,0.0030676503656720815
18,0.0024476495982949124,0.003070183165097075
19,0.002548818007979099,0.003158023481639896
20,0.002461152758271234,0.00306821784524377
21,0.002455749947852058,0.0030912728835792505
22,0.002708881122700254,0.003126557685377062
23,0.0025162878867421657,0.0030829163463136485
24,0.0024549936408234775,0.003183226467492853
25,0.002523953043187918,0.003070000891191091
26,0.0024503331746634108,0.0033642497417235443
27,0.0024664682310281526,0.0030656229350860265
28,0.002507743519220684,0.00309751611726373
29,0.0025849961955461275,0.003096335799462169
30,0.0025383921110586237,0.003082557583169997
31,0.002484543815746095,0.003210317149447898
32,0.0024763602454778415,0.003109500900474052
33,0.0024852898716084294,0.003136249786141769
34,0.0024848356858035428,0.0032390683290165986
35,0.0025100833375382332,0.003606040303256045
36,0.002662506816338372,0.0030622249297696607
37,0.002458944056244466,0.003065906279150021
38,0.0025051742664584046,0.0031284228393216006
39,0.0024823444767299203,0.0030662533285659415
40,0.0024406445234922513,0.0030523227264223868
41,0.0024517989584764595,0.003056400053044276
42,0.0025060901728769145,0.0032972349666145653
43,0.002492673717798949,0.003050327744125569
44,0.002517366172380033,0.0031314123351516765
45,0.0024529155674667246,0.0030506791442257257
46,0.002520901248465444,0.0030507539297894453
47,0.002434632419644631,0.003061745166886858
48,0.00256112351855961,0.0033334741538549348
49,0.0025331185093132695,0.0030477017727355625
50,0.0026038429794294003,0.0031691735769196075
51,0.002587153189165821,0.0033258107281470485
52,0.002789868175133928,0.003473878921146772
53,0.0026505275988032034,0.0031012851336985362
54,0.002570338370350673,0.0034787557665403035
55,0.002561817209185787,0.00304078461346036
56,0.002566849474448624,0.003445697737164622
57,0.0024821804135493953,0.0030396013311290927
58,0.00260910037929043,0.003278278271025119
59,0.002468567827983593,0.003276929419935327
60,0.002516724078709053,0.003235083304403364
61,0.0025355514093513966,0.003112758659620502
62,0.0025266536843279517,0.003048852678973141
63,0.002460164087162731,0.0030383366835123114
64,0.002445750147554282,0.0030917321799265205
65,0.002561113508346007,0.0030378331276840827
66,0.00255496308384391,0.0031955536182377807
67,0.0025254325048988373,0.003061645619152475
68,0.002472620918259063,0.0032039358841919508
69,0.002655182324364319,0.0034859192326607167
70,0.002514635865788339,0.0030529928283563766
71,0.0024718617774047995,0.003217142582473944
72,0.0025261694396056657,0.003085435907782395
73,0.0024908944115810366,0.0034597605564306642
74,0.0024889036841589467,0.0036166569014087087
75,0.0025298094929819227,0.0030680044541539727
76,0.002717316023871851,0.003040615395216863
77,0.0027331505100139314,0.003028777040822735
78,0.0026272069882404166,0.0030306767647031896
79,0.0027458764930335124,0.00312046430438266
80,0.002470033412055625,0.0033174464307624356
81,0.0026086097312742213,0.003099308337460366
82,0.002420267858482339,0.0033923313860933103
83,0.0024788773189075002,0.0030436029715477956
84,0.0024562395693378124,0.0030256500927904662
85,0.0024956969769300954,0.003163384461356688
86,0.0024741900286418253,0.003416023322727618
87,0.0024495325293403974,0.0032965604778985645
88,0.002477177964446426,0.0030697918706393055
89,0.00255522465899476,0.0030179046718909067
90,0.0025403378952477485,0.003048415262389264
91,0.0024656409969871012,0.0030579879165215547
92,0.002607898573687141,0.0031481874933423
93,0.0024125407751016703,0.0030544865515458493
94,0.0025025669580688867,0.004523250916900561
95,0.00252958457241345,0.0030314569165677467
96,0.0025396023164635634,0.0030800670867266004
97,0.0025028147357479893,0.003188177533068716
98,0.0024842232371288177,0.0031070345182462717
99,0.002501156385049455,0.003084067986238488
100,0.002553379803430289,0.003019713809309426
101,0.0024043221143375147,0.0030703725322156913
102,0.0024291771059153115,0.003092412728556367
103,0.002553764768293758,0.0030166157160329728
104,0.0025875222537117873,0.0030155919434488284
105,0.0024562651160334355,0.0030735393574591293
106,0.002563522984237634,0.0030232277227738914
107,0.0025075542646067974,0.00307314830124667
108,0.002563940650225167,0.003043875170424003
109,0.0024268467191941264,0.0031157573594805575
110,0.002447971961796717,0.00355869164517106
111,0.0024656011621908163,0.0030678545725856756
112,0.002539689325636075,0.003573442848991285
113,0.0027211763437606337,0.0032335401263607795
114,0.0025824477474351995,0.0030430957517954844
115,0.002412708464754837,0.003140274949675036
116,0.002684253129869873,0.0034592747453657926
117,0.002541362357600195,0.004649848568924638
118,0.0028678119680134325,0.003043097868027498
119,0.0024335493826372332,0.003292798364260631
120,0.002580682827985198,0.0030857652476302877
121,0.0024312411769454485,0.0030544650535164184
122,0.0024257914397206146,0.003089027862829813
123,0.002517101260140365,0.0030362099687056255
124,0.002388846974468547,0.0031928700149463593
