epoch,loss,val_loss
0,0.5272916086746076,0.5234065360525997
1,0.518771556584229,0.5186390391354525
2,0.5181122768395562,0.5173523790487284
3,0.5177649828485908,0.5181722321817952
4,0.517463647702854,0.5173545694232874
5,0.5174839375929728,0.5174588948562187
6,0.5171490811368925,0.5170253401062921
7,0.5171788335390788,0.516891156384726
8,0.5171377690641658,0.5171319691773976
9,0.5169229128903431,0.5170683482740417
10,0.5168991432930367,0.5197498380694141
11,0.5168676431805281,0.5164448135248189
12,0.5167423068133707,0.5165175531697332
13,0.5166998825793474,0.5166987559044036
14,0.5166439255312126,0.51746173960991
15,0.5166254862721931,0.5166592847028973
16,0.5165770966450938,0.5166080740781931
17,0.5165708444624959,0.5179821704812441
18,0.5165341641761849,0.5162748616623227
19,0.5164847426380034,0.517071253342309
20,0.5164905976692864,0.5163163845355694
21,0.5164919570008518,0.5162567762228158
22,0.5164768805762392,0.5163005033438614
23,0.5164888880814515,0.5180816927855423
24,0.5163847290605491,0.5161918735681633
25,0.5163511686566707,0.5163603052903641
26,0.5163690799388024,0.5163529749839536
27,0.5163785860557131,0.5165510951733175
28,0.5163236192172599,0.5172297761398864
29,0.5163623221670486,0.5164034028207102
30,0.5164107562627578,0.5170065216036056
31,0.5163596005142591,0.5161315703510351
32,0.5163264587462194,0.516076973265513
33,0.5163300523696596,0.5161785591329002
34,0.5163467347671614,0.5163050745320379
35,0.5163373852547282,0.5172057509718107
36,0.5163255853761876,0.516998168434162
37,0.5163364962651099,0.5166536711581587
38,0.5162839408767156,0.5165507452659512
39,0.5163234484509505,0.5164338168080332
40,0.5162441155553973,0.5164436339148812
41,0.5162687149305136,0.5172790976966877
42,0.5162786998227332,0.5164955269905829
43,0.5162404885337616,0.5166875850178172
44,0.5162369111704364,0.516234213187736
45,0.5161754533561128,0.5163172676308871
46,0.5162800764130699,0.5163108365411498
47,0.5162067056148686,0.5166322653997625
48,0.5161975274445894,0.5163734208857156
49,0.5162029760045528,0.5159818818788079
50,0.5162108353740464,0.5161480790332292
51,0.5162335258970234,0.5163352712803976
52,0.5162150088169503,0.5173729433906877
53,0.5162435669695847,0.5162235816418385
54,0.5161666689294108,0.5161162493542465
55,0.5162090383438209,0.5160842661526304
56,0.5161698548580588,0.5168883215700723
57,0.5161967881808669,0.516315655584075
58,0.516141271490532,0.5161308144517336
59,0.516128913968854,0.5183056382032541
60,0.5161495689964855,0.5161608356695909
61,0.5161174675665794,0.5160482028282014
62,0.5162155322975177,0.5172008904274876
63,0.5161957039988752,0.5162715176198973
64,0.5161633359947464,0.5164047940197417
65,0.5161275645686352,0.516452798979454
66,0.5161581798912466,0.5169113858461971
67,0.5161725133533215,0.5159146701727553
68,0.5161483082447755,0.5159253824141717
69,0.516131033215663,0.5164074716437839
70,0.5161131502871709,0.5161467414340074
71,0.5161669757827771,0.51637393218412
72,0.516036648043105,0.5183620909899104
73,0.5161589547137649,0.5162988471925702
74,0.5161028587963763,0.5160960552118552
75,0.5161824133423883,0.5160756616971037
76,0.5160956324086314,0.5160104163822997
77,0.5160910062193815,0.5163363736853115
78,0.5160823189321347,0.5160126261616463
79,0.5161771957024036,0.5162193507769564
80,0.5160888976509392,0.5159870510065822
81,0.5160864460487382,0.515972224772716
82,0.5161085121960816,0.5167647872905873
83,0.516071747905882,0.5159497298614559
84,0.5160951397207602,0.516492295590583
85,0.5160997681999782,0.5162099238660732
86,0.5160450101690726,0.5159746241037071
87,0.5160670985984451,0.5162387678404304
