epoch,loss,val_loss
0,0.7940178904730528,0.5156508961389231
1,0.5120706336442814,0.5121001859968023
2,0.5113401577762239,0.504760930704516
3,0.49697069704378605,0.49304837103961974
4,0.491768837283132,0.49160695745963456
5,0.4914861516281,0.49156893708909205
6,0.4914992501723366,0.49160229050835896
7,0.49151097180307374,0.4915849774382835
8,0.49203014959044544,0.4920133594856706
9,0.4984770714466578,0.4918110848859299
10,0.49223317910534464,0.49159255508304567
11,0.4913107421663072,0.4916210620440254
12,0.4914576828633784,0.4916694284409516
13,0.4913246503017977,0.491577172002127
14,0.49152697719036764,0.4919553657834844
15,0.49154476979290174,0.49160355999488237
16,0.4917451023131378,0.4915731248929519
17,0.49153387769864204,0.4917401814645575
18,0.4914618878401527,0.49156768839488657
19,0.49140434733348914,0.49203785814980205
20,0.4916504298839766,0.49156587022219517
21,0.491482403235226,0.49157941849656805
22,0.4918029259033597,0.4926297045493311
23,0.49172115418338036,0.4916162333747213
24,0.49161999462802897,0.4916077685910602
25,0.491459739993709,0.49157069473303566
26,0.6273862453086123,1.0
27,1.0,1.0
28,1.0,1.0
29,1.0,1.0
30,1.0,1.0
31,1.0,1.0
32,1.0,1.0
33,1.0,1.0
34,1.0,1.0
35,1.0,1.0
36,1.0,1.0
37,1.0,1.0
38,1.0,1.0
39,1.0,1.0
40,1.0,1.0
