epoch,loss,val_loss
0,0.5832524354153273,0.5784435749941369
1,0.5788150555961817,0.5784664321182383
2,0.5781598125384295,0.5777523164713649
3,0.5775981298324216,0.5770239700454636
4,0.5772303290062386,0.5771819305183278
5,0.5770716789120238,0.576965954848022
6,0.5767974724881416,0.5765002113713816
7,0.5766007914839246,0.5766401743474728
8,0.5764290496748967,0.5761837901607636
9,0.5763224016037539,0.5761317927843288
10,0.5762079227818032,0.577160206888213
11,0.5761507599790581,0.5762226659665924
12,0.5760459417691688,0.5759359948984151
13,0.5759837292908306,0.5759274190176213
14,0.5760059707891527,0.5758628703820202
15,0.5759346766938912,0.575812481680224
16,0.5758619680412046,0.5757471170969696
17,0.5758315161898198,0.5758016034332162
18,0.5757705981398434,0.5757891113054072
19,0.5757879441485029,0.5762755687420185
20,0.5757282582283954,0.5758394945939777
21,0.5757451865722635,0.575647332768878
22,0.5757105170436468,0.5777283273027197
23,0.5757082084599358,0.5757675128302562
24,0.5757002638189065,0.5762227626651452
25,0.5756607751639262,0.5757672135646527
26,0.5756370125374943,0.5755397633938281
27,0.5756413403035845,0.5761427009076102
28,0.575613021777225,0.5755828109627622
29,0.5755934131467162,0.5757421946111447
30,0.5755675308277872,0.5755463211767136
31,0.5755794072124049,0.5754237979576546
32,0.5755777636337106,0.5762463023881462
33,0.5755548331839151,0.5761040411279456
34,0.5755593302246406,0.5760451005055354
35,0.5755445517830217,0.57587053249255
36,0.5755006872229237,0.5754489789529711
37,0.575539140880926,0.5756506141007095
38,0.5754794515199501,0.5754453530086773
39,0.5755100304831049,0.5754830843461655
40,0.5755145377707083,0.5753821861655185
41,0.5754536353269083,0.5753213721824343
42,0.5755029053201564,0.5754824004161446
43,0.5754792206599224,0.5753280087381084
44,0.5754381258916413,0.5757092989703858
45,0.5754917230285941,0.5754345774354769
46,0.5754354527580945,0.5776106028048039
47,0.5754173619228965,0.5755397434861725
48,0.5754330595244445,0.5753299046095193
49,0.5754602847310268,0.5756649166419547
50,0.575421847124889,0.5754341586056182
51,0.5754189475242985,0.5752650151181753
52,0.5754107462396042,0.575628123833583
53,0.5753991806493385,0.575297807966805
54,0.5754324668313052,0.5784988197736054
55,0.5754253486928714,0.5753312090490356
56,0.5754291623062872,0.5753869340969966
57,0.575427495241812,0.5753531277031816
58,0.5753443287494593,0.575422992215263
59,0.5754108565177813,0.5761580195675416
60,0.5753922361414491,0.5755290175489989
61,0.575395167690369,0.5753741377636458
62,0.5754114643090916,0.5753442930524462
63,0.5753736490197457,0.5757168539700378
64,0.5753690297185433,0.5753566244104068
65,0.5753591731126589,0.5754120099929071
66,0.5753669564178194,0.5761025131784066
67,0.5753630579903884,0.5753373188061395
68,0.5753693572486734,0.5757361339871996
69,0.5753751372781748,0.5756725123147515
70,0.5753427560690626,0.5754310744276118
71,0.5753667568427167,0.576911411894758
