epoch,loss,val_loss
0,0.7206515349937096,0.7198891851801434
1,0.7178641804557255,0.7180862689136571
2,0.717439465103362,0.7175507355268776
3,0.7171464883177272,0.7169380189763109
4,0.7169533438502451,0.7166514751337302
5,0.7168046002442524,0.7168343624761028
6,0.7166999168080213,0.717613419468882
7,0.716575646111425,0.7163978380245843
8,0.7165017443861184,0.7163421119708873
9,0.7164535161706154,0.7163044241758493
10,0.716412450131456,0.7165558314500908
11,0.7164027369392645,0.7162796945193269
12,0.7163586486233254,0.7163347722578877
13,0.7163523561355525,0.7162826980905557
14,0.7163311191972739,0.716272084825388
15,0.7163292662801508,0.7162778776869289
16,0.7162996507696262,0.71619001854738
17,0.7162993219371407,0.716363668855899
18,0.7162685194910792,0.7161999346304768
19,0.7162706663579175,0.7161106428496595
20,0.7162433541664648,0.7162788236999038
21,0.7162556131067098,0.7164322864624761
22,0.7162210425381638,0.7164035945021485
23,0.7162292340137798,0.7162898234043169
24,0.7162139326682267,0.7163830247469635
25,0.7161953929740278,0.7160916648195045
26,0.7161828252398992,0.716074524860524
27,0.7161764176581533,0.7161278115016947
28,0.7161799964090273,0.7162215418614466
29,0.716182356711468,0.71608375574164
30,0.7161551120105752,0.7160610096034578
31,0.716159218092287,0.7160550525703147
32,0.7161513227348748,0.7160888507407593
33,0.7161701198087154,0.7160695171829489
34,0.7161446311347602,0.7161509764697357
35,0.7161615098984119,0.7162303481445124
36,0.7161334971739107,0.7160786295055456
37,0.7161487719501536,0.716088194350155
38,0.716127450816301,0.7161518085683249
39,0.7161258576902673,0.7161010340484733
40,0.7161274322015341,0.7160321978126507
41,0.7161166246167591,0.7161141665934333
42,0.7161238088779248,0.7164677562252167
43,0.7161068001666658,0.7162156868217601
44,0.7161179736115202,0.7164438368960586
45,0.7161077119526291,0.7159842163989917
46,0.7161055622838731,0.7161612765073184
47,0.7160842844038352,0.7161751053469353
48,0.7160914282872538,0.7160319217381347
49,0.7160939988084557,0.7159954572729674
50,0.7160909383374051,0.7160449352217075
51,0.7160774656217449,0.7160263592492854
52,0.7160858251138154,0.7162104093998892
53,0.7160821138816179,0.7167093531665376
54,0.7160777298515703,0.715992557440443
55,0.7160778979429634,0.7160088074710174
56,0.7160806690418686,0.7160262022065761
57,0.7160661934684561,0.716099676866981
58,0.716064066715947,0.7159647769135222
59,0.7160500385800671,0.7159780292298007
60,0.7160628597986038,0.7163968764227022
61,0.7160562595723995,0.7161971372055357
62,0.716037745555346,0.7162119605700964
63,0.7160610501423949,0.7165403174703233
64,0.7160389120988861,0.7161261810262505
65,0.7160616538057673,0.7159783578688098
66,0.7160451009488374,0.7160200333476954
67,0.7160363745964535,0.7161160769592739
68,0.7160455570429702,0.7160589690835542
69,0.7160281879610871,0.7159823200247128
70,0.7160356165980623,0.7160247747123093
71,0.7160283251525035,0.7159933694243136
72,0.7160383222021428,0.7159828530943423
73,0.7160502372267191,0.7160354493273695
74,0.7160346427344778,0.7160066715541016
75,0.7160285583671832,0.71598715054486
76,0.7160228381821304,0.7159699469287105
77,0.716027414859003,0.7160036178439781
78,0.7160291020725159,0.7159886844400732
