epoch,loss,val_loss
0,1.2507246772756255,0.9999999630358792
1,1.0,0.9999999630358792
2,1.0,0.9999999630358792
3,1.0,0.9999999630358792
4,1.0,0.9999999630358792
5,1.0,0.9999999630358792
6,1.0,0.9999999630358792
7,1.0,0.9999999630358792
8,1.0,0.9999999630358792
9,1.0,0.9999999630358792
10,1.0,0.9999999630358792
11,1.0,0.9999999630358792
12,1.0,0.9999999630358792
13,1.0,0.9999999630358792
14,1.0,0.9999999630358792
15,1.0,0.9999999630358792
16,1.0,0.9999999630358792
17,1.0,0.9999999630358792
18,1.0,0.9999999630358792
19,1.0,0.9999999630358792
20,1.0,0.9999999630358792
