epoch,loss,val_loss
0,0.4529128586962279,0.44870761984926893
1,0.44793156335599366,0.4471319475925294
2,0.44734237950894573,0.44716427869003994
3,0.4471129464596091,0.44687419233487796
4,0.4469651437185467,0.44660397158662973
5,0.4468394604744596,0.4466612553773979
6,0.4467825661541125,0.44675675606905085
7,0.44666397121497814,0.44698425382005963
8,0.44665638082681625,0.4466855229574161
9,0.4466425136864257,0.4469994303162577
10,0.44659228494472414,0.4465238872148263
11,0.44656651110741624,0.44672066693566276
12,0.4465331857514541,0.4465604555961808
13,0.4465244915927252,0.4463897427613327
14,0.44653023999692226,0.4463597129059784
15,0.4464861977067399,0.44642931384129203
16,0.4464632895784149,0.446391626356849
17,0.44648481044789673,0.4462811940065389
18,0.44645680799788234,0.4463140807879474
19,0.4464326600612351,0.44633410500533527
20,0.4464358903212371,0.4467953248296127
21,0.446398767091742,0.4463357351258138
22,0.4463829949770914,0.44628469238506063
23,0.44637246135983105,0.44682720759074684
24,0.4464054045107998,0.4473805292812234
25,0.4463626475743001,0.4463879629341012
26,0.44636538072268245,0.44623278163502883
27,0.4463514813480123,0.44637720188491103
28,0.44633621892560726,0.4462432579130452
29,0.44635149055797546,0.44624970930977437
30,0.4463147220069206,0.4461978865172668
31,0.44633289127569714,0.44625841334794947
32,0.44630598684529815,0.4466901505555468
33,0.4463140155174306,0.44635097730544304
34,0.4463205894003241,0.44620723978757265
35,0.4463040352122467,0.44630969577924196
36,0.446299920004582,0.4461869808491643
37,0.44628481403677706,0.44743043681232275
38,0.44628999978996103,0.4461644362870872
39,0.4462831540319196,0.44630295169856354
40,0.4462806381350959,0.4465241582310821
41,0.44627087509409186,0.4461604484849177
42,0.44628548639682775,0.44632546895786784
43,0.44626455107370205,0.44648689603983027
44,0.4462820460529543,0.4464691089489324
45,0.4462722205387319,0.44619789031835705
46,0.4462704055319014,0.44654117550506783
47,0.4462659878145527,0.4463233605212077
48,0.44627137468539285,0.4465503932672458
49,0.3917866190208295,0.33543652498692494
50,0.3355584620393712,0.33540110521517674
51,0.33550303851398083,0.3353903108879591
52,0.33551209031201645,0.3356680926406946
53,0.3355071298615657,0.3359601351226826
54,0.33551463318045266,0.33565376754434173
55,0.33549384200463006,0.3354368033539273
56,0.3354962417958086,0.33543548535176604
57,0.33549105026209186,0.33579767417375267
58,0.33549112008206133,0.33538792841783527
59,0.3354756443715648,0.33535121790232786
60,0.3354790779634636,0.33571267059955645
61,0.335503134368435,0.33543034738701566
62,0.3354829688879554,0.3355436104550847
63,0.33546474399101683,0.33591821161156554
64,0.3354461380151371,0.33554194400979037
65,0.3354504139441734,0.33574662967296154
66,0.3354617556855162,0.33621028460580715
67,0.3354528670952386,0.335719732906919
68,0.33545219176051694,0.33551916524435094
69,0.33546020186205683,0.33542738997610866
70,0.3354435418653027,0.33537772080442746
71,0.33546633095511946,0.33530573285838805
72,0.3354295781628791,0.33536381545492794
73,0.335458968345428,0.33538478311179
74,0.33542620691088676,0.33541270179429067
75,0.33545938489008326,0.3356067611177269
76,0.33546251386139386,0.335477670931047
77,0.33544073678762437,0.3353955783264217
78,0.3354432704681846,0.3354388022836917
79,0.33544529119430033,0.33542577917167626
80,0.335437593878509,0.33538429324443525
81,0.3354305045622786,0.33601673567857104
82,0.3354495184427787,0.3353177805544425
83,0.3354445807878842,0.3357047740046499
84,0.33543477621349976,0.3353599397627355
85,0.3354208430111171,0.3354189726170476
86,0.33543766887358567,0.3357517192884355
87,0.3354494953186755,0.3353791673485162
88,0.33543535644591493,0.335316337116303
89,0.33543290898190636,0.33536585320905776
90,0.33544502259712783,0.3353353302768679
91,0.33543714701051036,0.33536898678644717
