epoch,loss,val_loss
0,0.7802418550915188,0.7790622586806615
1,0.7789536388450199,0.7787954192956289
2,0.7787445883353551,0.7786052574316661
3,0.7786672857867347,0.7787116772333781
4,0.7786315753592385,0.7785879995822906
5,0.7786151957909266,0.7785594924688339
6,0.7785893151892556,0.778544623653094
7,0.7785832675298056,0.7785484498341878
8,0.7785730429357952,0.7785116655826568
9,0.7785629759762023,0.7785481375455856
10,0.7785606487062242,0.7784982786575954
11,0.7785507984161377,0.778712553858757
12,0.7785475809574127,0.7784998867909113
13,0.7785410197178523,0.778484316110611
14,0.7785351423422495,0.7784938671191534
15,0.7785340006351471,0.7784763756990433
16,0.7785307354927063,0.7784808142582575
17,0.7785293542941412,0.7785077303647995
18,0.7785299963288838,0.7784843325217565
19,0.7785278895696004,0.7784875138600668
20,0.7785233135620753,0.7784833898544311
21,0.7785197122097015,0.7784928141037623
22,0.7785206878715091,0.7784865603446961
23,0.7785176853471332,0.778483789841334
24,0.7785189149247276,0.7785596241156261
25,0.7785148225360446,0.7785038372278213
26,0.778516640080346,0.7785730590820312
27,0.7785086252424452,0.7784665605227152
28,0.7785119989183213,0.7784951157569885
29,0.7785020952357187,0.7784804154634476
30,0.7785062336921692,0.7785709652900695
31,0.7785094134277768,0.7784906998475393
32,0.7785037141243617,0.778489098350207
33,0.7785030741824044,0.7785067346493403
34,0.7785042150550419,0.7785798251628876
35,0.7785049264298545,0.7784507979551951
36,0.7785004804001914,0.7785174293518067
37,0.7785012403991487,0.7784857163031896
38,0.7785031534565819,0.778465315580368
39,0.7785009138186773,0.7784764563242594
40,0.7785004303852717,0.7784964393774668
41,0.7784999106725057,0.7786169805129369
42,0.7784962617556254,0.7785350810686748
43,0.778500589383973,0.7785612851381302
44,0.778496821363767,0.7784576825300853
45,0.7784996408753925,0.7784590577681859
46,0.7784972414043214,0.7784619278113047
47,0.7784953235652712,0.7784952048460643
48,0.7784982032113605,0.7784876735607783
49,0.7784945059617361,0.7788376787900925
50,0.7784975582758585,0.7784537180264791
51,0.7784977580838733,0.7785235009193421
52,0.7784989172087775,0.7784849742650986
53,0.7784957939783732,0.7784684104522069
54,0.7784935133457184,0.7784549823999405
55,0.7784955477582084,0.7784542000293732
