epoch,loss,val_loss
0,0.6728375021759869,0.6693435942268845
1,0.6691234895920524,0.6694720078934511
2,0.668670970956953,0.668899494838478
3,0.6684268758126296,0.6686790305686647
4,0.6683326300181195,0.6682373969489824
5,0.6682713043435567,0.6680780491225476
6,0.6682070051654595,0.6685853790408625
7,0.6681535390268332,0.6683090839433315
8,0.6680729299461471,0.6681291222572326
9,0.6680422438206862,0.6681480447648477
10,0.6680150760131851,0.6679177702508553
11,0.6679748584794051,0.667865416015644
12,0.6679468124158705,0.667948445847845
13,0.667933760989667,0.6680024847794999
14,0.6679201749564747,0.6681024038466271
15,0.6679173059687276,0.6682953624808167
16,0.6678937830332546,0.6678570976328317
17,0.6678813214651419,0.6678777813615633
18,0.6678852786571157,0.6681363676676975
19,0.6678642405634848,0.667907908773304
20,0.6678679435445396,0.6677909753754476
21,0.6678501287029615,0.6678316439055924
22,0.6678546921432975,0.6680871755846085
23,0.6678485637380931,0.6677850693686133
24,0.6678322843095138,0.6678772831968871
25,0.6678592183485779,0.6680072292204826
26,0.6678272537787803,0.6679192694481786
27,0.667821443630242,0.6680117738749786
28,0.6678078307958242,0.6680285544016816
29,0.6678131689868952,0.66780022433023
30,0.6678199966425136,0.6678405328660686
31,0.6678072187369536,0.6681808566041383
32,0.6678137278093308,0.667750917297439
33,0.6677961136819233,0.6677317842952075
34,0.6678043882077346,0.6677094723095669
35,0.6678020438096472,0.6677313680388496
36,0.6678076410645081,0.6677808026817833
37,0.6678020910178575,0.6679541339945261
38,0.6677911696177999,0.6677056983150265
39,0.6677958443862434,0.6677477268663884
40,0.6677929301308032,0.668652714896143
41,0.6677923065968494,0.6677758248509011
42,0.6677842607026261,0.6677239898120795
43,0.6677822434741744,0.6677331133456739
44,0.6677825104404447,0.6677315291636635
45,0.6677728146261375,0.6679145576344531
46,0.6677859241337586,0.6677070025474795
47,0.6677768587572295,0.6679002698242812
48,0.6677776291788755,0.6677105737679058
49,0.6677791399962123,0.6679126257636115
50,0.6677740287391711,0.667827820896215
51,0.6677649769525735,0.6678157671805351
52,0.667772215145132,0.6678825469821618
53,0.6677732120448652,0.6677351404656252
54,0.6677705864973772,0.6677139095573804
55,0.6677623348436383,0.6677475496793799
56,0.6677694095373611,0.6677701446613662
57,0.6677644018597683,0.667711978514792
58,0.6677592283073895,0.6678823165503093
