epoch,loss,val_loss
0,0.5022563627958297,0.5012404524087906
1,0.5007026259104411,0.5004865440527598
2,0.5005792509052489,0.5005067323843638
3,0.5005051410595576,0.5005711470047632
4,0.5004655583169725,0.5006860767602921
5,0.5004204262362586,0.5003472491105397
6,0.5003996403482225,0.500363525946935
7,0.5003853763209449,0.5004840423663457
8,0.5003728882074356,0.5007134467760722
9,0.5003671590884526,0.5002996820211411
10,0.5003561578061846,0.5003172007799148
11,0.500342337820265,0.5002994776566824
12,0.5003407248126136,0.5002853128512701
13,0.5003372770945231,0.5002955898443858
14,0.5003344002829657,0.5002783366839091
15,0.5003362256420983,0.5002843683958054
16,0.5003369505537881,0.5002874317169189
17,0.5003259688615799,0.500314913670222
18,0.5003246500624551,0.5003208036025365
19,0.5003208740949631,0.5002826890945434
20,0.500324764556355,0.5002864391803742
21,0.5003200214306514,0.500363821943601
22,0.5003191031350029,0.5002996427218119
23,0.5003177203337351,0.5004124530553817
24,0.5003148931927152,0.500395101348559
25,0.5003127260075675,0.5003284428914389
26,0.5003076241281298,0.5002894010543824
27,0.5003131432930629,0.5003459856112799
28,0.5003080550167296,0.5003232722282409
29,0.5003087975978852,0.5002739587227504
30,0.5003110218313005,0.5002861235539119
31,0.5003067860338423,0.5003887234131495
32,0.5003089822133382,0.5002822871208191
33,0.5003094673951467,0.5002774556875229
34,0.5003076950179206,0.5002862157026927
35,0.5003063911729388,0.5002825240294139
36,0.5003067405488756,0.5003769576152166
37,0.5003063576486375,0.5002836298942566
38,0.5003027675151825,0.5002736925284068
39,0.5003017505142424,0.5003209351301193
40,0.5003009964889951,0.5002707351048787
41,0.5002992760737737,0.5002793438037236
42,0.5003014574978086,0.5003408581018448
43,0.5002980219655567,0.5002651087840398
44,0.5002990715238783,0.5002847646474838
45,0.5002994807826148,0.5002732441027959
46,0.5002970700263977,0.5002781887451808
47,0.5002996064159605,0.5002686176300049
48,0.5003003952503204,0.5002735215028127
49,0.5002984447346793,0.5002662097215652
50,0.5002969874011146,0.5003483486970266
51,0.5002959126763874,0.5003298178116481
52,0.5002973826064003,0.5002686574459075
53,0.5002954932981067,0.5002793064117431
54,0.5002983949184417,0.5003371225992839
55,0.5002974704636468,0.5003586665391923
56,0.5003000727362102,0.500317432363828
57,0.5002959451940324,0.5002736764351526
58,0.5002954032950931,0.5002717145284017
59,0.500296923690372,0.5003121296564738
60,0.5002933778762817,0.5003013306458791
61,0.5002949266963534,0.5002843271096548
62,0.5002945883538988,0.5002785482406616
63,0.5002970677746666,0.500298906246821
