epoch,loss,val_loss
0,0.23416292477498257,0.22753762040777184
1,0.2274822988362195,0.22610986833241087
2,0.22619580701631503,0.2256646510906906
3,0.22588372551642008,0.2259169908004718
4,0.22578710023852086,0.2254927008086931
5,0.22572047700424247,0.22534675014669783
6,0.2255662830553376,0.22533272867906773
7,0.22544179892728033,0.22544234436439817
8,0.2253995402653302,0.22566987426937662
9,0.22536274144240293,0.2251707885682435
10,0.22531853664040627,0.22501455498836176
11,0.22521575214212483,0.22522157605913082
12,0.2252248854909907,0.22487068009139882
13,0.22516427669951777,0.22494427533658504
14,0.2251828918944322,0.22490952835781106
15,0.21389448165529115,0.11417156668661842
16,0.11436657347301257,0.1141849436586903
17,0.11435131329275301,0.11432450316088372
18,0.1143292409781538,0.1148722781510862
19,0.11428642586044976,0.11426599662076155
20,0.11426418998962776,0.11403201903140278
21,0.11423978029406075,0.11430752150548007
22,0.11423790862097041,0.11463894544183173
23,0.11419528268516364,0.11423309175829142
24,0.11418544312832088,0.1140380198140594
25,0.11417184351722673,0.11412561718864417
26,0.11418077001395147,0.11506492829796103
27,0.11415160638778099,0.11396800735896041
28,0.11412255431926689,0.11385658754234575
29,0.11413845478385197,0.11406913248466204
30,0.11408614923133834,0.11422254030890855
31,0.11410743688653482,0.11481925383690865
32,0.11406724867655432,0.11454247585301364
33,0.11407632313180542,0.11397425869188593
34,0.11408042126005856,0.11415497408093649
35,0.11406492214759414,0.11387443404561533
36,0.11406865146712826,0.11418622642311801
37,0.11405746904925494,0.11435818006989382
38,0.11406375221682587,0.11412890904002983
39,0.11403343007551245,0.11550829262280879
40,0.11404914151133153,0.11499619970916222
41,0.11407383831116298,0.11435334310490204
42,0.11403342864319771,0.11499798942736301
43,0.11402383304566306,0.1139650713421275
44,0.11403294704289786,0.11425952555671814
45,0.11401064145800656,0.1138557888807789
46,0.1140476056259231,0.11458220096586952
47,0.11403034712857821,0.11389988726998677
48,0.11401482855641326,0.11394988936614754
49,0.11403443025943312,0.11419578255997698
50,0.11401837573522888,0.11389048043314931
51,0.11402036924736465,0.11438008966502125
52,0.11401153930754554,0.1139421400782784
53,0.11399238609198856,0.1138677019191439
54,0.11399721075661613,0.1139196446382674
55,0.11404960313948834,0.11434572876313188
56,0.11399456799216467,0.11390763331509701
57,0.11397716115104949,0.11406635741516023
58,0.11400389028637799,0.1138771766172745
59,0.1140051091040814,0.11415555012359217
60,0.11397488125711724,0.11439271916083012
61,0.11399088735052623,0.11410517327247127
62,0.1139692726853332,0.11399532941079908
63,0.11399877634160208,0.11390037011937527
64,0.11397657915520897,0.11411982897123688
65,0.11400649449586697,0.11427744759741255
