epoch,loss,val_loss
0,0.8105330868477343,0.8066500342809237
1,0.8066156359729582,0.8078232354620846
2,0.806322534735482,0.806166778634263
3,0.7517467824726249,0.6128028430358944
4,0.6120390424829553,0.6118966942093804
5,0.6118116566722489,0.6113889967833204
6,0.6117907192551789,0.6113305127058668
7,0.6115825094989713,0.6114324680037297
8,0.611397958878096,0.6111247335710833
9,0.6113001057755548,0.6112926180841906
10,0.6112625083069071,0.6112385100229798
11,0.6111140760411353,0.6112433882860037
12,0.6110424149041298,0.6106678974539707
13,0.6110401689233993,0.6106712876419276
14,0.610978919280039,0.6111450575421525
15,0.6108979395069122,0.610528803492894
16,0.6108781286090302,0.6106701194500509
17,0.6108033600499219,0.6108157535048927
18,0.6108043848694391,0.6109129262325486
19,0.610799984760707,0.6105890153951148
20,0.6107248325771091,0.6104109973233036
21,0.6107131764049166,0.610521272719646
22,0.6107036025379216,0.6106932965165036
23,0.6106186186785645,0.6102875936120083
24,0.6107001074083546,0.6101759665361409
25,0.6106320280718328,0.6103198235738958
26,0.6106183427535727,0.610322969752565
27,0.6105884634234133,0.6103519946706502
28,0.6106145152473155,0.6104662170776954
29,0.6105707921446165,0.6105908110183167
30,0.6105545572635301,0.6114312559735982
31,0.6105594195072411,0.6101595760279199
32,0.6104911798950357,0.6103712735045932
33,0.6105759951392177,0.6104363997875905
34,0.6105032698288468,0.6101112089441078
35,0.6104805124739815,0.6104119174533683
36,0.6104851134735817,0.6111646003226192
37,0.6104849653221869,0.6106157282741727
38,0.6104598805187849,0.6110315783739682
39,0.610479126448471,0.6104294654749167
40,0.6104052973931701,0.6108595306169307
41,0.6104519734378085,0.6104478086490489
42,0.6104122006792662,0.6106249981423466
43,0.6104209404969467,0.6101635199326735
44,0.6104303024105475,0.6109731973548681
45,0.61041890426878,0.6100772864469524
46,0.6103972530671371,0.6100419630779522
47,0.6103896678848467,0.6103045339915651
48,0.6103592846078717,0.610272524226688
49,0.6103924343706848,0.6117447751627371
50,0.6104170694923381,0.610685217972133
51,0.6102738975468877,0.6100782088547132
52,0.6103610845228418,0.6106842959784988
53,0.6103458034407065,0.6100910981298971
54,0.6102777201979076,0.6100755167362412
55,0.610440582255083,0.6101644782511235
56,0.6102792674922364,0.6103850510220965
57,0.6102935326630908,0.6105090810110788
58,0.6103089604081021,0.6100162028970553
59,0.6102956161333875,0.6101263380523947
60,0.6103030842646221,0.6104532895845456
61,0.6103153888157004,0.6102991592203713
62,0.6103012882890599,0.6101216397273629
63,0.6103026137144244,0.6101975615799575
64,0.6103103767687883,0.6124817528440698
65,0.6103768370520722,0.6105275684787381
66,0.6103181753811593,0.6100029349327087
67,0.610310623186085,0.6100359245210368
68,0.6102697462605893,0.6101467280174899
69,0.6103530706929056,0.6101021120625157
70,0.6102648584462246,0.6101993440694312
71,0.6102775309114906,0.6102655061125459
72,0.6102782900915465,0.6101872789652708
73,0.6102464575360861,0.6100873820834952
74,0.6102655637351181,0.6104417531129445
75,0.6102859406250949,0.6100265812045588
76,0.6102649051385411,0.610013005544175
77,0.6102833339826625,0.6099377021304431
78,0.6102606849110279,0.6100456893000354
79,0.6102416026095451,0.6101022918230251
80,0.610239186001339,0.610019706319047
81,0.6102922020330381,0.6101464990054999
82,0.6102317741656148,0.6103101792465664
83,0.6102687017195793,0.610070263452033
84,0.610281914887898,0.6100578328220188
85,0.6103004416445262,0.6100263246827327
86,0.6102610382847463,0.610108892408849
87,0.6102938732964456,0.6112125731579423
88,0.6102294973495915,0.6109867423994665
89,0.6102450820635188,0.6104340786673591
90,0.6102098583996834,0.6104395128952954
91,0.6102071475356967,0.6101262307936145
92,0.610327076694052,0.610310564058886
93,0.6102359107363239,0.6103372547525922
94,0.6102442237332847,0.611334382955253
95,0.6102448651831038,0.6105560967407511
96,0.6102106018228968,0.609941398239609
97,0.6102282776232566,0.6104831841684157
