epoch,loss,val_loss
0,0.579224021681908,0.5748250204043708
1,0.472416960661099,0.2911727761956066
2,0.2913955591167509,0.2932257290661483
3,0.2910109880669105,0.291372647888903
4,0.2908244551812086,0.29088194099608483
5,0.2907364925718208,0.2906164236459188
6,0.29059618888918454,0.2905346293455318
7,0.29043724028306683,0.2901280083224436
8,0.29038102570659635,0.29120443557983
9,0.2903066606618853,0.29061716534659526
10,0.2902724638712813,0.2899881564949641
11,0.2901969010821154,0.289931689139927
12,0.2901949966659513,0.2900126237431472
13,0.2901068441655097,0.2905090905448639
14,0.2900870833720205,0.29002359682513823
15,0.2900848769948023,0.28992888893442176
16,0.29008442544629176,0.28986657650831615
17,0.2900470724051217,0.2903696393848353
18,0.2900386880708803,0.29010288829247355
19,0.28996960193601506,0.28978449425685493
20,0.2899940030833471,0.29012953386117446
21,0.28999574670359535,0.2898016939831727
22,0.28997551269564126,0.28980145788666034
23,0.2899514152286143,0.28967747911625996
24,0.28993654178092587,0.29062899188427416
25,0.2899404275733017,0.28980297653314196
26,0.28990815757752236,0.2897884787016412
27,0.28989906556266054,0.2897613047666053
28,0.2898994025358526,0.2898064987831021
29,0.2898997752993616,0.28974468233271805
30,0.2898633977112647,0.2903215257464804
31,0.2898628628554007,0.2908273406123405
32,0.2898938824094542,0.2899027752965023
33,0.28982645478501146,0.2896411321595052
34,0.2898523128711392,0.29081632487531334
35,0.2898289280835368,0.2897669625489351
36,0.2898292772161205,0.2896976625357313
37,0.2898277437136634,0.2906633438750473
38,0.28982685180064793,0.2896290857502012
39,0.2898236549250371,0.29046783052366365
40,0.28981743823852324,0.2896690221341609
41,0.28979376970943077,0.28982674438071904
42,0.2897984972394347,0.2905748949305295
43,0.28978342585780054,0.28972804071589675
44,0.2897955301687938,0.28966218696042856
45,0.2897597016914745,0.2897636969391229
46,0.2897804582050044,0.2900344045670985
47,0.2897610961945212,0.2898960704838963
48,0.2897786725780789,0.29015745507280527
49,0.28976547222979543,0.28968597032296156
50,0.2897552303574756,0.291570864362693
51,0.28979451813973084,0.28982892907582797
52,0.2897505865635532,0.28988924656553244
53,0.28976035383583143,0.2896796248538914
54,0.2898013726285224,0.2900997651126189
55,0.28974015614907567,0.2896057852000812
56,0.28978414073411146,0.28978444370383366
57,0.28972265383687684,0.2903677976013117
58,0.2897742601443012,0.28984986676767505
59,0.28973964062739,0.28978945731229283
60,0.2897750041256104,0.28964916248771155
61,0.2897562072509489,0.28968655958069167
62,0.2897165010391335,0.2898492587707179
63,0.2897225733890255,0.28966634845911127
64,0.28972568808215193,0.2896377692595309
65,0.2897810446466805,0.2911160204901589
66,0.28970044672712403,0.28973339414478233
67,0.2897485702426483,0.28966625005968155
68,0.289728592885853,0.2899569379780488
69,0.2896828551818946,0.2898584173571679
70,0.2897388348654535,0.2916862324065074
71,0.28971396879936795,0.2907791687596229
72,0.28971186781905817,0.28974413987128966
73,0.28973333220371056,0.2904743049783683
74,0.2897507156012472,0.2896671771707369
75,0.28973119850478074,0.28970311464506104
