epoch,loss,val_loss
0,0.09268673121778502,0.07897785463862621
1,0.07658624542097543,0.07348298312860446
2,0.0726748423991807,0.07184626024133219
3,0.06824253204121339,0.06630051287801626
4,0.066024097733658,0.06521459406532958
5,0.06483479905852091,0.06387431736545586
6,0.06369789527527189,0.06346957023179264
7,0.0628026917122622,0.06201498279574491
8,0.062158243215436206,0.062148543267924496
9,0.0618477797126861,0.060209843667949695
10,0.06153376147577355,0.062268004564582265
11,0.06103486538065873,0.060982304038687915
12,0.060682991456143635,0.061385984914770195
13,0.060460801613206445,0.059775031655657083
14,0.060037501660342,0.05913967125247193
15,0.059673401786347745,0.05934469085695134
16,0.059444014280251554,0.05925649820870856
17,0.05909178844347017,0.058755306455840546
18,0.058795132051731175,0.0589167463054728
19,0.05851221971876039,0.057988625017939964
20,0.058105657868002196,0.05873749693000583
21,0.05795822499060559,0.05751022527146872
22,0.05776695123326414,0.05773275761908988
23,0.057523032051828155,0.056920493702882574
24,0.05734215719045984,0.05735887565624625
25,0.0572458954737975,0.05688712575447471
26,0.05709682041517738,0.056613708546306596
27,0.05696699171319672,0.05649018430939087
28,0.056911099605734886,0.05666732849650288
29,0.05677018272609682,0.05624040493154644
30,0.056659962615331426,0.05606272384413419
31,0.05654645086707733,0.05637888170723288
32,0.056507862095382895,0.05579457708793893
33,0.05640469808028662,0.05664817418708991
34,0.056355374847892006,0.05630217524749174
35,0.056236709204709016,0.05616793660239014
36,0.05615498756960773,0.05602972576251397
37,0.05617846912236645,0.05592595230113188
38,0.05615768868619275,0.05583298928462542
39,0.05599960630771158,0.0562893559190239
40,0.055842771024549986,0.056196765796681196
41,0.05573741336414393,0.055944843816735014
42,0.055765466681964186,0.05543550404144576
43,0.05565091937385375,0.055123083833281517
44,0.05556834246734749,0.05626558986476278
45,0.05555996922171293,0.05585377583321803
46,0.05563473855264031,0.055382679646867085
47,0.05553881193101946,0.05542353804849513
48,0.055328333737524056,0.05582567433047827
49,0.05521809630537407,0.055177678031010306
50,0.05529723050980508,0.05489772507370849
51,0.055236219069920295,0.05552421427579139
52,0.05518691087988711,0.055290630537434195
53,0.05514793851298835,0.05517379095588369
54,0.05504724143311312,0.05511892231795983
55,0.055157142531884654,0.054912246458657624
56,0.055026441072347936,0.055366935693744394
57,0.05505986510361368,0.055156283753533514
58,0.05494297077199858,0.05479251680243991
59,0.05489993202846205,0.054889794799589345
60,0.05487339265698881,0.05473084450507578
61,0.054829995391200405,0.054639406872002715
62,0.054705017378126525,0.05481680297378275
63,0.054682192685733905,0.05461851108273856
64,0.05450765566347182,0.05484008960074586
65,0.054548755101319714,0.054704024670437605
66,0.05459545476455807,0.0540916529504892
67,0.05455784082098766,0.055328885824523555
68,0.05443778787532939,0.055022507493682295
69,0.054441368178765104,0.0547185038218723
70,0.054364626958418615,0.05488163085455634
71,0.05409877869730813,0.05433941501245901
72,0.05406135746043969,0.05383698957655625
73,0.054043760433347576,0.054173941651437775
74,0.0540442944956997,0.05467643048198288
75,0.05397859334874092,0.0546907178891208
76,0.053884426019855575,0.05376588920357801
77,0.05389407093167302,0.05396589765107957
78,0.05396936759047999,0.053595779865758295
79,0.05373646238777425,0.054650176177841264
80,0.05383816197484164,0.0552810459238276
81,0.05382651038539569,0.054460108039840575
82,0.053733402480859026,0.0534682488988706
83,0.05375471857811768,0.05411754456480443
84,0.05368517218893848,0.053623045010321196
85,0.05360661549827567,0.053633543098387
86,0.05362299965325942,0.05381842774729575
87,0.05360941980189167,0.053248421850593454
88,0.05353532175759239,0.054590880844936185
89,0.05372942351646387,0.05356998947765632
90,0.05368037766533638,0.05351513217274959
91,0.05350920945556626,0.05319238492650518
92,0.053539375277218526,0.05317779354769598
93,0.05338768803019883,0.05333491905821169
94,0.053421187188139936,0.05285270065069199
95,0.053446016994087374,0.05340390675343
96,0.05337524255369994,0.053085889413989805
97,0.05339123250790659,0.05356842864480415
98,0.053434035530680976,0.05301238922194275
99,0.05327182804967184,0.053840510650692744
100,0.05335398075190277,0.05305093813031246
101,0.05336452788691694,0.05361914287503836
102,0.0533162561980093,0.05318842806643055
103,0.05330513820432362,0.05309684154561376
104,0.053322400289949216,0.05340283112808433
105,0.05321789268425495,0.0533505994133263
106,0.053161425592944726,0.05334016141428545
107,0.05326101066577758,0.053532108919644175
108,0.05328150915948251,0.053168905151097415
109,0.053209820282644475,0.053112964609420624
110,0.05320803705422489,0.05298456576636648
111,0.05313682894054282,0.05336522602709588
112,0.05313118198928593,0.053244291780234564
113,0.05324100578560915,0.053039930601865425
114,0.053145362706471744,0.05324886172418263
