epoch,loss,val_loss
0,0.5228206398420864,0.447273518482844
1,0.44708303164773516,0.4468999810020129
2,0.4467863889667723,0.44653298489252724
3,0.446645032260153,0.4465168385306994
4,0.44654380120833714,0.4467103306055069
5,0.44649304530355666,0.4467381911079089
6,0.44646520845095317,0.44655817530552544
7,0.4464393268691169,0.4463194846113523
8,0.4464199284778701,0.44635704733928044
9,0.4463965875837538,0.44626484541098277
10,0.44638919795221754,0.4463043071826299
11,0.4463655921816826,0.44634641416867576
12,0.44635410985019475,0.4462818094889323
13,0.44633532015482585,0.4463192783991496
14,0.44633870238727996,0.4463590143918991
15,0.44633061210314434,0.44620530025164284
16,0.44632688692543243,0.44638335961103437
17,0.44631641048855253,0.4462040547132492
18,0.4463159813483556,0.4462523620525996
19,0.44631353826655285,0.4466321457227071
20,0.4463135475979911,0.446255647957325
21,0.44630180319150287,0.44617694316307704
22,0.4462954153550996,0.44616063582897186
23,0.44630684340662424,0.44620206918319066
24,0.44628498019774754,0.44630001930395763
25,0.44628726101583904,0.4461677749355634
26,0.4462774046791924,0.4462242420911789
27,0.4462721137934261,0.4462927260994911
28,0.44627286665307153,0.44634709499279657
29,0.4462690267761548,0.44629957211017607
30,0.4462706782354249,0.44618921337525047
31,0.4462692894736926,0.44644191094239555
32,0.4462748674352964,0.4461567320227623
33,0.44626283046272064,0.44618960295120874
34,0.4462699428598086,0.44618032799164453
35,0.4462658369143804,0.4461551039814949
36,0.4462555756436454,0.4462002213001251
37,0.4462520385252105,0.4463315195639928
38,0.4462535308202108,0.44613138953844705
39,0.4462586793171035,0.4461760512193044
40,0.4462578460044331,0.4464534803628922
41,0.4462577553656366,0.446168192644914
42,0.44625812400711906,0.4461720082163811
43,0.44624254625373416,0.44627285935481387
44,0.44625565701723097,0.44631063906351726
45,0.4462418308125602,0.4462670325636864
46,0.4462500215040313,0.44686084711551666
47,0.4462546629971928,0.4463520491321882
48,0.4462462028927273,0.44622170833746594
49,0.44624390669001474,0.44617188729842505
50,0.4462430915368928,0.44612598393360775
51,0.4462465420564016,0.446160594979922
52,0.44624566552374095,0.4464018684824308
53,0.44623410165972177,0.4461549828648567
54,0.44625308143430287,0.44616535494724907
55,0.44624692008892697,0.44615552653868995
56,0.4462422897153431,0.44633110698064166
57,0.44623900796969734,0.446172546684742
58,0.4462356259690391,0.4461270185709
59,0.44623969079388515,0.4462855036258698
60,0.4462441223926014,0.4462660179336866
61,0.4462447741097874,0.4464066792329152
62,0.4462359812325902,0.44620329888661703
63,0.4462345559663243,0.44619078997770945
64,0.44623894096745387,0.44614117018381755
65,0.4462460222178035,0.44613779457410174
66,0.44623672423760097,0.44620116156339645
67,0.4462371435960134,0.44632522167762123
68,0.4462359368271298,0.44629936482508975
69,0.4462372670637237,0.4461211646795273
70,0.44623459339141847,0.44614879379669825
71,0.4462362813750903,0.44612513146797816
72,0.44623765270577537,0.4463428419431051
73,0.4462448334561454,0.44686396565039954
74,0.4462408788005511,0.4461467594106992
75,0.4462393744852808,0.4461031297246615
76,0.4462400485012266,0.44621146072944007
77,0.4462325863043467,0.4462097200751305
78,0.44623800369766026,0.44635309424002967
79,0.4462394187516636,0.4461290751894315
80,0.446242516040802,0.4461611855427424
81,0.4462368211812443,0.4462887263496717
82,0.446233106440968,0.44631498225529986
83,0.4462401193049219,0.44631265902519224
84,0.4462346775134404,0.44613606051603955
85,0.44624706886874305,0.4463615870873133
86,0.4462406446205245,0.4462601553797722
87,0.4462330456243621,0.44621564133961994
88,0.4462371169593599,0.44638623781998954
89,0.44623662804894976,0.4461727207104365
90,0.4462358029683431,0.44627152184645336
91,0.4462228187918663,0.44612910942236583
92,0.4462341169251336,0.44621492926279704
93,0.4462363477746646,0.44649541725715003
94,0.44623433079984454,0.446167415201664
95,0.4462314306166437,0.446446257909139
