epoch,loss,val_loss
0,0.8906065795884516,0.8895658049039155
1,0.8895721772321282,0.8894992791985163
2,0.8894569164432424,0.889352681175355
3,0.8894053005444565,0.8893696836147356
4,0.8893844870578126,0.8895255753479288
5,0.8893632964931639,0.8892966014871526
6,0.8893519839171647,0.8894734995832514
7,0.8893320766426244,0.8895457816183123
8,0.8893298489887386,0.8893889980931435
9,0.8893200840565191,0.8892909229541239
10,0.8893232379185134,0.8892807411200947
11,0.8893159649015582,0.8892895650035394
12,0.8893032382966489,0.8893456524418246
13,0.8892980561476208,0.889263944974904
14,0.8892979633372545,0.8893269367904284
15,0.8892958395901808,0.8895989640770716
16,0.8892898931865652,0.8892877588496906
17,0.8892866500733971,0.8892722496027982
18,0.8892853106486993,0.8892558909231617
19,0.8892815372221343,0.8892764725105342
20,0.8892823437381906,0.8892560200123278
21,0.8892761749725931,0.8892862775189705
22,0.8892771742325002,0.8893000995550795
23,0.8892709415363244,0.8892583330866717
24,0.8892730382912761,0.88924990055283
25,0.8892702691975721,0.8892950749870565
26,0.8892672501960068,0.8892709536824569
27,0.8892697414163135,0.889389009156239
28,0.889264922890248,0.8892386114922706
29,0.8892660043231737,0.8892565575190277
30,0.8892658550855624,0.8893059177375017
31,0.8892617792246466,0.889290485754794
32,0.8892651319454877,0.8892442671004359
33,0.8892622504303604,0.8892504637649574
34,0.889263563791387,0.8892549573635641
35,0.8892591344226519,0.8892626727485183
36,0.8892604619881072,0.8892510096429299
37,0.8892641911022502,0.8892442379045131
38,0.8892594680985423,0.8892687072529095
39,0.8892597435802125,0.8892419901734251
40,0.8892576022517367,0.8892408890404713
41,0.8892590713858158,0.8892442098326482
42,0.8892595888176489,0.8892360581357781
43,0.8892549537761694,0.8892311306212736
44,0.8892603603089458,0.8893447301523857
45,0.8892546663437524,0.8892559455287072
46,0.8892581172705445,0.8892431888627651
47,0.889256269188938,0.8892454540759103
48,0.8892587019752208,0.8893128333848996
49,0.8892572428860797,0.889237187044792
50,0.8892555301918394,0.8892753716142243
51,0.8892561181007359,0.8892688871021602
52,0.8892568876459938,0.8893175133108797
53,0.8892549140271182,0.8892458841167667
54,0.8892555961236749,0.8893019341653393
55,0.8892541132639858,0.8893977151023543
56,0.8892538107065776,0.8892759579878587
57,0.8892513508666441,0.8892882975396093
58,0.8892562967576934,0.8892459252927795
59,0.8892520889763109,0.8892654359784374
60,0.8892515193753273,0.889227913567801
61,0.889252141652678,0.8893117448532256
62,0.8892506793829815,0.8893919237198368
63,0.8892473733938983,0.8892431814380675
64,0.8892562083481994,0.8892254042566267
65,0.8892480639948114,0.8892590287009776
66,0.8892538210418042,0.889243232138991
67,0.8892487473921457,0.8892475553836775
68,0.8892528140040514,0.8892251707484053
69,0.8892542687625261,0.8892356930832117
70,0.8892477612472957,0.8893431453787659
71,0.8892509879275954,0.8892440915403532
72,0.8892505976753716,0.8892517178880961
73,0.8892494521059835,0.889256166642712
74,0.8892508643758068,0.8894837605154544
75,0.8892508330522293,0.8892352553218529
76,0.8892475097515232,0.8892395518849564
77,0.8892493769156719,0.8892513229888367
78,0.8892518680728723,0.8892471046956538
79,0.8892485735083874,0.889289634251417
80,0.8892494484245225,0.8892771224821767
81,0.8892496255661411,0.8892300952161216
82,0.8892472577327578,0.889237102562973
83,0.8892470787200388,0.8892392076866207
84,0.8892523694023561,0.8892289421990255
85,0.8892479036134248,0.8892783151075206
86,0.8892514959258325,0.8892820011297468
87,0.8892498862620163,0.88925388649143
88,0.8892457197158371,0.8892839991129362
