epoch,loss,val_loss
0,0.6701344059970644,0.6683631560405096
1,0.6667342672215568,0.5580149662097295
2,0.5573588074975544,0.5573007177114486
3,0.5572390219900343,0.5570677290360133
4,0.5571918492449655,0.5570789045492808
5,0.5571506206062105,0.5574230422576268
6,0.5571221761306127,0.5569978302319845
7,0.5571041310098436,0.5571576813459397
8,0.557093626247512,0.5569948114156723
9,0.5570842625829908,0.557019670565923
10,0.5570601149002711,0.5571428464253744
11,0.5570408457782533,0.5571489477952322
12,0.5570375924242867,0.5569763495922089
13,0.5570415060652627,0.5575597306489944
14,0.5570319987932841,0.5569710099697113
15,0.5570190827051799,0.5570229052305221
16,0.5570239074892468,0.5569578866561253
17,0.5570085514121585,0.5570077596505483
18,0.5570129299693637,0.5570627276500066
19,0.5570004983610577,0.5569411553541819
20,0.5570036242405574,0.557045239130656
21,0.5570013811588287,0.5569726394017538
22,0.5570013874901666,0.5570473898251851
23,0.5570026067760255,0.5569051351149877
24,0.5569953826533424,0.5571318736473719
25,0.5570029060178333,0.5570471311807632
26,0.556991759551896,0.5571890329917272
27,0.5569941492213143,0.5569762762387593
28,0.5569907546838124,0.5569276969830195
29,0.5569992045429017,0.5569187209606171
30,0.5569988528754976,0.5569962879419327
31,0.5569969162013796,0.5569232730468114
32,0.5569887150526047,0.5569777266979218
33,0.5569925075769424,0.556941733678182
34,0.5569833195606867,0.5569325585365296
35,0.5569888287385305,0.5569507475694021
36,0.556994310008155,0.557029565135638
37,0.5569819382164214,0.556963771780332
38,0.5130223552717103,0.44625451157490414
39,0.44623147116767037,0.44615256643295287
40,0.44623163120614157,0.4461427024205526
41,0.44623180734448964,0.44618022110064826
42,0.44623019546932646,0.44635679517189664
43,0.44623439696762296,0.44621489850680035
44,0.4462254336145189,0.44612417044242225
45,0.4462260894444254,0.4462057147423426
46,0.44622975767321055,0.44617150600751243
47,0.4462242940399382,0.4461504852771759
48,0.44622146480613284,0.44618692884842553
49,0.44621391701698304,0.4462624390721321
50,0.44621968860758676,0.44616359466314315
51,0.4462104740672641,0.4462198094924291
52,0.4462129796544711,0.44615844402710597
53,0.4462171655231052,0.44625907733043035
54,0.44622208494610255,0.4461635247071584
55,0.4462079599168566,0.4461170621116956
56,0.44621163363589184,0.44611084657907485
57,0.44620607412523694,0.44628544360399247
58,0.4462042472097609,0.44627444678545
59,0.4462070786555608,0.4466229870915413
60,0.44620710713333556,0.4462754482825597
61,0.4462012153731452,0.44615849179029465
62,0.4462100469271342,0.44623423624038694
63,0.44619993127054636,0.44623969481388726
64,0.4462070591913329,0.44633989469210306
65,0.4462038287917773,0.4463117517630259
66,0.4462049922214614,0.4461508816679319
67,0.4461941690047582,0.4461321467757225
68,0.4462010349763764,0.4461061637401581
69,0.4462064796619945,0.44618473420540494
70,0.4462055070532693,0.4461454579035441
71,0.44619879666301937,0.4464497305949529
72,0.4461983587609397,0.4461079458793004
73,0.4462025631666183,0.4461368138392766
74,0.4462019180258115,0.44620073290665946
75,0.4462020314733187,0.4462226752638817
76,0.44619682757722007,0.4461979389389356
77,0.44619463834497664,0.4463111938436826
78,0.44619424409998787,0.4461294560829798
79,0.4462045552796788,0.44616216379404067
80,0.44619479744964174,0.4461523756980896
81,0.44619767106903924,0.44611691363652545
82,0.4461898233691851,0.4465464486281077
83,0.44619406451119314,0.446177658478419
84,0.4461843389603827,0.44613240798314413
85,0.44619725920094383,0.44610178260008493
86,0.44619306196106806,0.4461342584292094
87,0.4461892435418235,0.44613538165887195
88,0.4461951032280922,0.4461212847232819
89,0.4461991165611479,0.4461119260986646
90,0.44619840330547755,0.4461094927787781
91,0.4461948064102067,0.4462654405037562
92,0.44619306976927653,0.4463233815630277
93,0.446200385093689,0.44620469282070796
94,0.44619224464231066,0.44611159137884776
95,0.4461975588997205,0.44613346312443414
96,0.44619916048314834,0.4461666409174601
97,0.4461951788332727,0.44609329881270726
98,0.44619159677293563,0.44619162793954215
99,0.4461959447065989,0.4461198405623436
100,0.44619336854749253,0.4462029026548068
101,0.4461887350148625,0.4463097646435102
102,0.4461985279917717,0.4461574017008146
103,0.4461957613892025,0.446158673107624
104,0.4461958838833703,0.4461278025309245
105,0.4461956543193923,0.44609623348712923
106,0.44619626578357485,0.44622647498051327
107,0.44618422581089867,0.4461531243721644
108,0.4462000545130836,0.4461281710267067
109,0.4461895698308945,0.4461317092180252
110,0.4461960252126058,0.4463419576485952
111,0.44619909852080875,0.4467084513703982
112,0.446194493704372,0.4462506830294927
113,0.4461925050020218,0.44612224179506305
114,0.44618969884845944,0.44618270788590114
115,0.44619101389249166,0.44625464363892875
116,0.44619095216857063,0.44614550536870956
117,0.44619062889284555,0.44610328966379165
