epoch,loss,val_loss
0,0.5153270837420106,0.5148951539626488
1,0.3896744141600162,0.3456627297933877
2,0.3453399441865424,0.34500330464715695
3,0.3449547881228049,0.3450968945736329
4,0.3444355692062141,0.34395086700212274
5,0.34412850645728454,0.344246871595643
6,0.3440131620198772,0.3437536723412592
7,0.34380001358527057,0.346444116529105
8,0.3436091307173165,0.3436400060174483
9,0.3434668038229669,0.3435422674745839
10,0.3433231024539177,0.3439128059311481
11,0.3433253013333242,0.34511360829284704
12,0.34318815469994246,0.3432608173000014
13,0.34314961881449263,0.34411385619906576
14,0.3430674763441518,0.34303937551401387
15,0.3429747245787432,0.34297912117861046
16,0.34294727741642544,0.3433441589842955
17,0.3428901348786758,0.3429681784461805
18,0.34281945135928793,0.3437714683358782
19,0.342739250652575,0.3432768921106684
20,0.34277274921587525,0.3433164730409239
21,0.34271233333627354,0.34277285412878317
22,0.34267824792505075,0.34405447465018657
23,0.3427110828846873,0.34280803526009873
24,0.34263599945850737,0.34241491912612254
25,0.34254754295158035,0.3427302716091904
26,0.34258659329379787,0.34380362595872904
27,0.34253042166389347,0.3437281630027383
28,0.3424828175593722,0.34248472308698424
29,0.34246014474282654,0.34269680627818144
30,0.3425116327587629,0.34320877762349605
31,0.34251336090456913,0.34235824234136575
32,0.3424500254701797,0.34273013355714216
33,0.34240041167998164,0.3424645443708074
34,0.34237739832079656,0.3423163885218334
35,0.3425087823913045,0.34319413887064154
36,0.3423814082147742,0.3425082544682931
37,0.3423737567022901,0.3433869592457196
38,0.3423411510617053,0.3434373048487727
39,0.3422996175570608,0.34233033516566747
40,0.34229011352423416,0.34220394381222596
41,0.3423040464386945,0.34242708333964383
42,0.3423147063623314,0.3434760640040225
43,0.3423260608464044,0.3423838992864263
44,0.34223392275578085,0.34225516836933106
45,0.34232340061887506,0.3427706515079101
46,0.342308564804995,0.3424083903320966
47,0.34226391099116193,0.34234726038523405
48,0.3422579293411264,0.3425125580419678
49,0.3421881560332009,0.3432342855421544
50,0.3422420310624828,0.3423962920090697
51,0.3421957463046162,0.3428934068892789
52,0.3422712382286153,0.3422817721556197
53,0.34218630946535566,0.3433932707120408
54,0.34219996642484884,0.343058490575691
55,0.3423039624363835,0.34273993883180265
56,0.3421573340514154,0.3421927527221793
57,0.3422130619473355,0.3426455949879166
58,0.3422543371383658,0.3427583599800507
59,0.34222969232043676,0.34238793727186123
60,0.34216856713404536,0.34238517643796007
61,0.3422123622358515,0.34223699636258204
62,0.34215999899889804,0.3436786767123059
63,0.34215541713626907,0.3429639852520254
64,0.342182751916605,0.34257992829933354
65,0.3421087622239426,0.3427440315263147
66,0.34213641598587785,0.3434416202250545
67,0.34215652619040715,0.34294459418978346
68,0.34211921242459686,0.3443603303976745
69,0.3421003796945401,0.3423899616851996
70,0.34215705714433264,0.34498954490751543
71,0.34210988496306605,0.34227053718294753
72,0.3421685682742965,0.34226496965062825
73,0.34204894908833416,0.3438122044278138
74,0.3421277602458413,0.34252047316903805
75,0.34213152042679823,0.34321962926287214
76,0.3421416390391959,0.34219196117841283
77,0.34212205783427024,0.342430193873848
78,0.3421243132391308,0.3429604270026347
79,0.3420792435223542,0.34281751807806804
80,0.342126424422144,0.34254063372280696
81,0.34209782294351704,0.34221039643654455
82,0.3421103665347709,0.34223935648466164
83,0.34206611375565377,0.342670437449557
84,0.34212934569815473,0.34297305378073795
85,0.3421392242504219,0.34249569238267524
86,0.3420890793047528,0.34218581585079505
87,0.34205200914406675,0.3428873029891078
88,0.3420936611539717,0.34225823966504326
89,0.34208137594141036,0.3423099007854982
90,0.3420330609544151,0.34224742764870525
91,0.34204583773313413,0.3422571840268507
92,0.3420080062751774,0.34217836979600985
93,0.3421141954439591,0.3452816269238001
94,0.34210220234708755,0.3423297945678086
95,0.34206723698227304,0.34267076959385173
96,0.34203218384691547,0.342243884825529
97,0.34205494267255093,0.3439933696988203
98,0.34200307237194966,0.3425875442939124
99,0.3421010752059085,0.3440063105475518
100,0.3421048583772622,0.3422992885852274
101,0.3420502981840653,0.34226081881570464
102,0.3420692744189246,0.34234946454429155
103,0.3420054047060935,0.3438517184174682
104,0.3420361548603418,0.34223611155159717
105,0.34204513343934734,0.3423689746087597
106,0.3420475340343418,0.34259356458488827
107,0.3420483294444863,0.3422907983546813
108,0.34199954569201707,0.34232634569220155
109,0.34211189713079065,0.34223833266026327
110,0.3420462531351718,0.34219509669332293
111,0.34205884583689494,0.34317424822386083
112,0.3420096714740739,0.34291790201705385
