epoch,loss,val_loss
0,0.7813797719518585,0.7798115948589505
1,0.7792504096939603,0.7788826828559042
2,0.7789365427665161,0.7789300124639317
3,0.7788184402328526,0.778645748713472
4,0.7787925499041626,0.7790753430527434
5,0.7787342067226202,0.7795364364796773
6,0.7787083072537782,0.7788111576963004
7,0.7786740724491507,0.7785734981224496
8,0.7786580713822533,0.7786050516381748
9,0.7786235576535093,0.7785443396485473
10,0.7786192381125304,0.778575787769062
11,0.7786193529525007,0.778548493959176
12,0.7785956962309827,0.7785714982756906
13,0.7785766292445986,0.7785878581089654
14,0.7785764765653301,0.7786204593353176
15,0.7785594752106826,0.7785081620547671
16,0.7785581352819235,0.7785056329542591
17,0.7785568656906052,0.778760820789905
18,0.7785581125210758,0.7786344426737234
19,0.7785559907366064,0.778713162069581
20,0.7785436028284787,0.7785267356607518
21,0.7785415885731204,0.7784799958576931
22,0.7785393528092922,0.7784856066218677
23,0.7785480662556585,0.7785639079865392
24,0.7785312879926589,0.7784854099117496
25,0.7785297868968404,0.7784860830153189
26,0.7785314650688048,0.7785752092046714
27,0.7785283520546992,0.7784813802532168
28,0.7785216847781009,0.7788095718873642
29,0.7785190448281883,0.7784955324960997
30,0.7785191250046828,0.7785098279380325
31,0.7785210758682324,0.7784733367321213
32,0.7785211123191929,0.7784767216843352
33,0.7785155542233397,0.7784851898034808
34,0.7785121857992964,0.7784922572282644
35,0.7785139724603756,0.7784596250607417
36,0.7785140131299891,0.7785145411124597
37,0.7785114970379305,0.778760652713681
38,0.7785091373420986,0.7785974059448053
39,0.7785031182732104,0.7784839278119373
40,0.7785036206952213,0.7784658510099274
41,0.7785076291870568,0.7784628123562626
42,0.7785033413538147,0.7786259236761713
43,0.7785061340271702,0.7785565713794889
44,0.7785006358144181,0.778470039190193
45,0.7785015904195517,0.7784695280396908
46,0.7784959920461326,0.7784636666106232
47,0.7784926334737641,0.7784596752883779
48,0.7784987953300156,0.7784572903039142
49,0.7785014589731709,0.778454875827723
50,0.7784899358131832,0.7788219697717993
51,0.7784958765719444,0.7784838336573049
52,0.7784898097781635,0.7784771252802525
53,0.7784922117070664,0.7785105617111433
54,0.7784920756200095,0.7784585225079255
55,0.77849163270404,0.7784513890891158
56,0.7784882007659194,0.7785320468635181
57,0.7784946966837982,0.7784836907836403
58,0.7784867936802747,0.778469519845901
59,0.7784954808933717,0.7784532572140469
60,0.7784915304971526,0.7785177234976226
61,0.7784910082432129,0.7784881676692821
62,0.7784911633915136,0.7784708245516415
63,0.7784840605689674,0.7785930840904008
64,0.778495656553571,0.7784573031418377
65,0.7784860567648937,0.7784882061238916
66,0.7784860396063036,0.7785217289889125
67,0.7784851225091602,0.778562172973718
68,0.7784901623102023,0.7784908731581259
69,0.7784885825208863,0.7784879922571016
70,0.778485207141745,0.7784616349944405
71,0.7784824946914247,0.7784414110349367
72,0.7784829158317929,0.7784656188919882
73,0.7784803947503961,0.7784791298894669
74,0.7784885439929411,0.7787229634692
75,0.7784809959865443,0.7784635816259361
76,0.7784806625133829,0.7784691063996876
77,0.7784832782762463,0.7784613757807919
78,0.7784789646869759,0.7784502529033065
79,0.7784824811338351,0.7784378191377626
80,0.7784782411240893,0.7785892628262712
81,0.7784818747687262,0.7784537105938932
82,0.7784820679393331,0.778531334654569
83,0.7784789402656448,0.7785378989155771
84,0.7784772399252425,0.7784859327169565
85,0.7784848060510222,0.7784702219679102
86,0.778481842231931,0.7784712928104637
87,0.7784823835557915,0.7787995313296543
88,0.7784794343008347,0.7784963450124187
89,0.7784759000942981,0.7784484251852959
90,0.7784782577249779,0.778463320874103
91,0.7784786965958367,0.7786490981395428
92,0.7784812714753141,0.7784897400782659
93,0.7784809847536313,0.7785801014888375
94,0.7784795555855311,0.7784466897879285
95,0.7784799979146124,0.7784403396303541
96,0.778477911188822,0.7785945353082037
97,0.778473474300188,0.7784892454928263
98,0.7784802929505441,0.7784544609320666
99,0.7784783685577011,0.7784580884441252
