epoch,loss,val_loss
0,0.8407128020992644,0.8384799693121804
1,0.8385670604280285,0.8383316870067019
2,0.8383871837126187,0.8382344717127513
3,0.8382687721949639,0.839867320250045
4,0.8381315555045699,0.8382228265033467
5,0.8380502483488238,0.8381886072845081
6,0.8379600959067054,0.8397660633470521
7,0.8379227755391921,0.8377236637229067
8,0.8378397814460231,0.8376570376213963
9,0.837792583137979,0.8376451071083694
10,0.8377499035097945,0.8385852423554319
11,0.8377310312180334,0.8375704232279775
12,0.837684714873515,0.8376606137521805
13,0.8376702453235944,0.8376613792059735
14,0.8376307793813433,0.8374445188430047
15,0.837602335858062,0.8377780294300013
16,0.8375967073419411,0.837540294366794
17,0.8375776861699079,0.8375488812811026
18,0.8375666444861768,0.8376153148137606
19,0.7640731958799233,0.6749770754028491
20,0.6751125941065333,0.6749703463490488
21,0.6750920894800346,0.6751197110926247
22,0.6749703052195023,0.6749641419344445
23,0.6749682096525258,0.6748819470109774
24,0.674941811787852,0.6747096713955881
25,0.6749262801833583,0.6748412731859288
26,0.674943142439203,0.6746716346693394
27,0.6749062127459367,0.6746234173218606
28,0.6748346897327424,0.6746957051842739
29,0.6748612704327965,0.6749118549060585
30,0.6748153184669383,0.6758689110391489
31,0.674795314762888,0.6767506923332404
32,0.6748024830479169,0.6748120432456137
33,0.6747794101909733,0.675366927938485
34,0.674801711491936,0.674847300886812
35,0.6747957244873349,0.6762487396117179
36,0.6747810620081889,0.6746906027308764
37,0.6747582686078206,0.6747326805041387
38,0.6747329222258447,0.6745466311279656
39,0.6747426780873291,0.6748556876300879
40,0.6747358530742852,0.674564198761365
41,0.6747127379471956,0.6746158493363827
42,0.6747440840441608,0.6751206766878701
43,0.6747034757099214,0.6746895502873745
44,0.6746655847774765,0.6746801734858057
45,0.6746975169863876,0.6744569006983755
46,0.6746818395370328,0.6746484276378717
47,0.6746339795859574,0.675279554953942
48,0.6746510316819764,0.6747000241102119
49,0.6747153565277533,0.6746671345038686
50,0.6746378047888364,0.6746187229014508
51,0.6746364172661302,0.6746440520061748
52,0.6746337427489787,0.6744484635499808
53,0.6746432614555868,0.674726016024502
54,0.6746317049423668,0.6746517994859378
55,0.6746109298834867,0.6746033284563581
56,0.6745829075281825,0.6744660129618112
57,0.6745995258223526,0.6747980574520291
58,0.6745997290639286,0.6745834843692353
59,0.6745943951916917,0.6745155888514838
60,0.6745901195789755,0.674555776551107
61,0.6745648084591962,0.675367196765786
62,0.6745949952161999,0.6747454626980254
63,0.6746081536004028,0.6745503219126472
64,0.6745605880210658,0.6746936421536335
65,0.6746036361077296,0.6746272931027945
66,0.6745604483274865,0.6744610839091223
67,0.6745900265359049,0.6745155294539024
68,0.6745745966523806,0.6745413805355801
69,0.6746159561521816,0.6750016216604644
70,0.6745622648512335,0.6750341236443437
71,0.6745727488247767,0.6753699363017497
72,0.6744939266891481,0.6750013007123772
