epoch,loss,val_loss
0,0.42979041406981494,0.4269916612220461
1,0.4190711927079714,0.2300933137794878
2,0.22968770712296557,0.23202448153762012
3,0.2283525386969239,0.22709888232405073
4,0.2274888647892207,0.22701962593915148
5,0.22671599951980873,0.22973604205228554
6,0.22640353549248698,0.22963754567999403
7,0.22600554037125828,0.22693351054605715
8,0.2259184544270348,0.2251714931232462
9,0.22567839307660462,0.2260843402324776
10,0.2254292323265006,0.22513883407447238
11,0.22520742585695913,0.22499319238047447
12,0.2252062905673824,0.22465839532409648
13,0.22511679957956804,0.22458780454494817
14,0.22478591174775078,0.22473654955551584
15,0.2249737467824702,0.2244576932774584
16,0.22477382391182807,0.22478027323043673
17,0.2246059494415272,0.22400251952353542
18,0.22452800525704988,0.22450114103316077
19,0.2244755734695487,0.22684428606080653
20,0.22443004566310118,0.22429251331401523
21,0.2243713852117165,0.22405980758128627
22,0.22435403182771102,0.22472883048039807
23,0.22426259811784258,0.22566379639262302
24,0.22419863588039818,0.22475226141382978
25,0.2242328001434757,0.2237167347897371
26,0.2240409470671698,0.22376175193721545
27,0.22406420164842927,0.22333621422646951
28,0.22401575454021072,0.2235795230708702
29,0.22405358898230435,0.22377059203815222
30,0.22403289654449723,0.22362683842850678
31,0.22395912782843722,0.22432349158575754
32,0.22399506140192418,0.22350857110680186
33,0.22394310489068744,0.22417390795410716
34,0.22398896750164118,0.22401114730326177
35,0.22389218410925021,0.22378624231732513
36,0.22383912493890532,0.22463848816401905
37,0.2238528275216557,0.22424889069337112
38,0.22378221758987782,0.22389335502170155
39,0.22377278710423373,0.22407144167582982
40,0.22383376237797423,0.2237514290339302
41,0.2237126360478534,0.2234899755225288
42,0.22376112465158862,0.22320693839276695
43,0.2236869305498845,0.2235576941047058
44,0.22365425695175356,0.22417306608656795
45,0.2236978097774137,0.224691679940626
46,0.2236809601871912,0.2243340241849866
47,0.22368185986799474,0.22404059430505738
48,0.2235766503208486,0.2232175508296815
49,0.22366324116220337,0.22530864407643492
50,0.22364387616679432,0.22414638015531724
51,0.22361173537416573,0.22317499800887947
52,0.2235084310215599,0.2231656681441196
53,0.22369473619130603,0.22326070990219304
54,0.22362001472445017,0.22428342878226903
55,0.2235866057952996,0.2236543033170345
56,0.2235768761739867,0.22331326810952748
57,0.22358482518058817,0.223406309517974
58,0.2236304011280352,0.22427085277904057
59,0.2235038926781862,0.22359458125258794
60,0.2235347990852918,0.22348942703407987
61,0.22345127754335525,0.22557837177003287
62,0.22350521657006875,0.22377581741318808
63,0.22350429951394446,0.22338794110430676
64,0.22341772577320101,0.22364899861457627
65,0.22343872105732462,0.22315912513667832
66,0.22352042717001322,0.22373986312236738
67,0.22331207349802362,0.2235742778325495
68,0.22345869900436055,0.22331574258969972
69,0.22353631828866086,0.22351069871160587
70,0.22327452708213735,0.2275161309662291
71,0.22349865114282153,0.22435879564610664
72,0.22349020182038043,0.2240663148037553
73,0.22338986284223772,0.22361601626606792
74,0.2233769889021735,0.22299845424982218
75,0.22345188480989758,0.22409351155272783
76,0.223488035429059,0.22437968472984826
77,0.2235138572470371,0.22386124358875284
78,0.22331537953285885,0.2247179181197145
79,0.22347446460900952,0.2243360041906461
80,0.22339670827153504,0.22325037978866852
81,0.22338088881358742,0.22425640101172492
82,0.22338627656495702,0.2242864061747828
83,0.2233408523783853,0.22298790408718971
84,0.22324776884427566,0.2334824886274693
85,0.22343666662162337,0.22671626995574157
86,0.22329142121018952,0.22344195248175497
87,0.22340588666485547,0.22315929031401652
88,0.2234123174513622,0.22339728407321438
89,0.2233906402430409,0.2229914786797895
90,0.22320849134853685,0.22416781556073845
91,0.22344926695525902,0.22481243123043856
92,0.22339829609506592,0.22324291687301606
93,0.22337178137536018,0.22311489380175067
94,0.2234387974987177,0.2236451303840571
95,0.223325913682381,0.22449211594336677
96,0.22323998005616782,0.2263073389272832
97,0.22338412373753586,0.22301071312084386
98,0.22329312544267,0.22305730518425074
99,0.2233280026815742,0.22373110331021823
100,0.2232530182519482,0.2230678508728373
101,0.22333601070415746,0.22315905131122316
102,0.22331302215835103,0.2230469539798519
103,0.2233174029561753,0.22384329254810625
