epoch,loss,val_loss
0,0.9024508450756804,0.893141133491274
1,0.89209921307145,0.8909577389465484
2,0.8899507661489918,0.889483616490365
3,0.8896082286926273,0.889328403251453
4,0.88932564707736,0.889046861709095
5,0.8893549896771136,0.8897786401053563
6,0.8893955881129284,0.8894370864888664
7,0.8893839148710727,0.8890161721828719
8,0.8892088133619359,0.8897007795164441
9,0.8892208011813986,0.8889996078816517
10,0.8890508609162682,0.8889530145524844
11,0.8889976794728884,0.8891400044284953
12,0.8890586659250794,0.8889603394931143
13,0.8890763613355788,0.8891671849322159
14,0.8891316887194515,0.8889695327027143
15,0.8890452021380949,0.8889712273071272
16,0.889085614292772,0.8889439741923538
17,0.8890004791624123,0.8889691222635105
18,0.8890998778764878,0.8889620495819218
19,0.8890212787736237,0.8889723306034865
20,0.8890507118623434,0.8890495240096025
21,0.8890101215384987,0.8890182625157091
22,0.8890579578101324,0.8889551712591008
23,0.889021460388263,0.8889554332608602
24,0.8891909314083623,0.8889812928526427
25,0.8889883904289131,0.8891442174167862
26,0.889014337929402,0.8889688426015634
27,0.8890131716755291,0.8897773078067673
28,0.8890232196219124,0.8889376284069958
29,0.8889846623318649,0.888986249889667
30,0.8890010329323184,0.889031766442976
31,0.8890114823104031,0.8889503378554788
32,0.888985879953489,0.8890109997906759
33,0.8890149603548644,0.8889360324748025
34,0.8890038298614352,0.8889596855101298
35,0.889018301648354,0.8889444795565778
36,0.8890118480744206,0.8889587575101727
37,0.8889974782734628,0.8889665829920184
38,0.8890088871287636,0.8889684272063864
39,0.8890101347965124,0.8889343503328493
40,0.8889962868535425,0.8889320103398348
41,0.8890027540038432,0.8889288253775477
42,0.888997103281223,0.8889318308610747
43,0.8890329932241264,0.8890045116721822
44,0.8889743250061601,0.8889295251488903
45,0.8889558412515967,0.8893888665488225
46,0.8890164723849895,0.8889610950493759
47,0.8890542234951161,0.8889442892109398
48,0.889012181616226,0.8889419930118065
49,0.889004780360276,0.888938665329576
50,0.8889903145616271,0.8889422839999658
51,0.8889978438440503,0.8889715161315811
52,0.8889788718157806,0.8889400227464882
53,0.8889740074868054,0.8893278129587694
54,0.8890160734034014,0.8889676617986169
55,0.8890117631788049,0.8889568767303918
56,0.8890217214300912,0.8889381957571494
57,0.889042841365392,0.8889341350260286
58,0.8893503396967734,0.8889577278039732
59,0.889023009919627,0.888960081431958
60,0.8890031537994492,0.8889489122274511
61,0.8889571911350047,0.8892913130373579
