epoch,loss,val_loss
0,0.8089667112048262,0.785670038036922
1,0.7826685073062829,0.7803818018144876
2,0.7799394339329089,0.7796960368622536
3,0.7790044422372425,0.7783647092813605
4,0.7783752387181376,0.7781267265136284
5,0.7782044208530932,0.7780214778986791
6,0.7781275337224848,0.7788469199233983
7,0.7781201070425807,0.7779611305589972
8,0.7780477904490046,0.7779204784143626
9,0.777969203894911,0.7780492950515654
10,0.778277978973016,0.7787416498889741
11,0.7783438089523989,0.777920026079053
12,0.7784392063253897,0.7778813588259017
13,0.7781659341811102,0.7779064173752578
14,0.7780132993635642,0.7778828069733886
15,0.7780308198448482,0.7778851566124194
16,0.7780279737119782,0.7780821002344407
17,0.7783010758111495,0.7779246592250902
18,0.778036210863531,0.7779150345919703
19,0.7780393407581931,0.7779794390485388
20,0.7781346315714096,0.7779518430287639
21,0.7780483105862716,0.7781731464562563
22,0.7780604226965908,0.7779145930993632
23,0.7779676594975012,0.7778900897761577
24,0.7780160014475104,0.7779035673521518
25,0.7780631295638993,0.7783625620998831
26,0.7781781709852651,0.7779463701232696
27,0.7780462090218416,0.7779167732199315
28,0.7781641103619938,0.7778838452377079
29,0.7781000217481653,0.7780558387011356
30,0.7780852757943877,0.7778858798944159
31,0.7781156973304939,0.7778784363972345
32,0.7779417974165008,0.7778799691347243
33,0.7779979632508641,0.7782230316637689
34,0.7780247533364096,0.777875971598307
35,0.7779730354044663,0.777910076394523
36,0.7779583657668785,0.7790397896507502
37,0.7780898670284286,0.7779873002859188
38,0.7780459359188479,0.7778871479587559
39,0.7780156845326244,0.7779201064866978
40,0.7779702111090361,0.7778530830883443
41,0.7779824605546466,0.7780179637751505
42,0.7780258868038997,0.7778723747462875
43,0.7780048343998432,0.7778805371255281
44,0.7779748978410739,0.7779214979185097
45,0.7780206248957039,0.7778721725425767
46,0.7779754370070158,0.7779880925284707
47,0.7780699830865708,0.7778510684126702
48,0.7779659094275975,0.7778842962191908
49,0.7779981125989637,0.7779116678905158
50,0.7780266683094078,0.7778822005677479
51,0.7779456221519768,0.778095995006685
52,0.7781022816511594,0.777885290592927
53,0.7779607142124495,0.7779223664830505
54,0.7780078200924494,0.7779099419667691
55,0.7779225150741433,0.7787479451234044
56,0.7779229612486187,0.7778884845122293
57,0.7780046517535774,0.7779588245687947
58,0.7779919258979664,0.7779017602592326
59,0.7779822415475728,0.7778639623442375
60,0.7779525966449568,0.7778641860520373
61,0.7780142675249807,0.7778858266720978
62,0.7779324578631199,0.778271572424514
63,0.7780217980163414,0.7779160415611314
64,0.7779606674225413,0.7779599374144683
65,0.7779510714051754,0.7780684459356912
66,0.7779492131958191,0.7778724291290287
67,0.7780161879905846,0.7779045133507535
