epoch,loss,val_loss
0,0.6973819493739682,0.6724064012396724
1,0.671424860955413,0.6689661513281941
2,0.6682400044680173,0.6672397532948517
3,0.6672470939223064,0.6679309005912335
4,0.6672376209223829,0.6668443825708589
5,0.6670981102730905,0.6668189166525851
6,0.6673664995513544,0.6670171988346446
7,0.6673410279007247,0.666855525847164
8,0.6671130280934421,0.6668919179942878
9,0.6679106133397296,0.6672299234844371
10,0.6670675810851365,0.666799901646742
11,0.6671352995094006,0.6668157586338699
12,0.6671967282271694,0.6690524654779103
13,0.6673401699903714,0.6667874693822193
14,0.6670285697705799,0.666854189462919
15,0.6670105749747871,0.6668082970171665
16,0.6671164177524883,0.6668129282412532
17,0.6671320698532224,0.6667856912636123
18,0.6670062988220771,0.6693835418646439
19,0.6673207773566529,0.6668365831501801
20,0.6671433224211228,0.6669233775337093
21,0.6669589239535004,0.666767783011222
22,0.6669042040082958,0.6691380240230139
23,0.6672037392743871,0.6674914834490172
24,0.6670769334854924,0.6667683556920687
25,0.6669706526493158,0.6670081824203263
26,0.6671046473322126,0.6667840923820105
27,0.6669614906928721,0.6668225536963394
28,0.6670797826810038,0.666803951124177
29,0.6673561908170197,0.6668055703494448
30,0.6670235627628099,0.6673970237461941
31,0.6670301645806801,0.6668040001157862
32,0.6669885044681092,0.6668430884816153
33,0.6670008173466664,0.666794690936411
34,0.6669529669707627,0.6668814797837553
35,0.6669596216554663,0.6677734874682987
36,0.6670448441033463,0.6679665631707361
37,0.6670664965312546,0.6677200251601333
38,0.6670364921551255,0.6667976129782706
39,0.6669713385359333,0.6668037055133927
40,0.667009946557025,0.6668884900563437
41,0.667136496667744,0.6668542650717312
