epoch,loss,val_loss
0,0.5973768489217832,0.5693114345877777
1,0.56236134863119,0.558450032213691
2,0.559214774827736,0.559611932207764
3,0.5584204428199661,0.5575623294326119
4,0.5569006522031772,0.5574422856780342
5,0.5570302335270262,0.5560706553002734
6,0.5560320565839317,0.5557680289804803
7,0.5564027352544553,0.5576952764384042
8,0.5564470521843253,0.555749066979376
9,0.5561311840608069,0.5560523229011824
10,0.5559930833347847,0.5557441694382068
11,0.5561165040908338,0.5557992766218237
12,0.5564123562686173,0.5557789778980177
13,0.556239307551345,0.5558286146541271
14,0.5560796799939235,0.5558296622743569
15,0.556196667772303,0.5558471618523537
16,0.5560226972120367,0.5561561737019932
17,0.5563894255707241,0.5557995742945032
18,0.5577090422954498,0.5559501476665947
19,0.556247527060471,0.5557455656809392
20,0.5561356090377435,0.5557805897860275
21,0.5559753125228583,0.5561716908664932
22,0.5560965927222157,0.5557110057571456
23,0.5561460762073572,0.5557647195628245
24,0.5560213279533915,0.5558604312049427
25,0.5560925096529314,0.555805299483214
26,0.5560167056133907,0.5568833508638503
27,0.5563812440544715,0.5560190525699933
28,0.5559340377349123,0.5565448059341386
29,0.5560567886308243,0.5558927486354307
30,0.5560362940869122,0.5588806129280343
31,0.5561768398566352,0.5557399682838132
32,0.555990561684749,0.5562871970648795
33,0.5559556428127715,0.5557968138898998
34,0.556309413292548,0.5558724414985577
35,0.5558844843812473,0.5579959014757389
36,0.5562433303712179,0.5557198125096176
37,0.5559280892510047,0.556148900895785
38,0.5560582052274292,0.5560124346775255
39,0.555903903712334,0.555806358478007
40,0.5561258714699244,0.5557967297229678
41,0.5559773260202266,0.5566931445732535
42,0.5560071586023181,0.5557357888631757
