epoch,loss,val_loss
0,0.6967666985079335,0.6742417763512943
1,0.6725980691119628,0.6686998326622239
2,0.6693150670547271,0.6678382398583685
3,0.6684029550518841,0.6673577016034781
4,0.6680838747010351,0.667686898407117
5,0.6678794610775167,0.6674678010042191
6,0.6678506353992565,0.6675042781039779
7,0.6676533257459161,0.6669808425639324
8,0.6677420446947021,0.6694857407428507
9,0.667515742529737,0.6671711378807327
10,0.6680059838219223,0.6669691461526557
11,0.6672961542108433,0.6674007931386112
12,0.6672426724109903,0.6674499834824034
13,0.6674444981870895,0.6673334640534068
14,0.6671851115676148,0.6682886143553646
15,0.6673868724157147,0.6668614548351672
16,0.6671375095114876,0.6670681191394886
17,0.6672067760889271,0.6669183726050602
18,0.6672766249873447,0.6672437952537127
19,0.6674089840182055,0.6671916866031725
20,0.6671207402639188,0.6669037900283356
21,0.6671206795309323,0.6676168166534626
22,0.6670643807577802,0.6670918668943446
23,0.6674539051387318,0.6669125779360212
24,0.667022723780387,0.6668885578202128
25,0.6671321356798652,0.6668961213728255
26,0.6671820269395997,0.6670958983610474
27,0.6670731796904644,0.666847988138139
28,0.6671022788142507,0.6668605807102662
29,0.6670429811428659,0.6670175518449967
30,0.6670987631839249,0.6668498959098426
31,0.6669992120671681,0.6668463225201259
32,0.6669709698825552,0.6669602547013912
33,0.6672348673699409,0.6669088463903174
34,0.6670254209802259,0.6669036357766884
35,0.6670262380123751,0.6668944887906053
36,0.6669922717669682,0.666798994401434
37,0.6671206534138542,0.6680730829928376
38,0.6672423593244062,0.666849109783687
39,0.6670070701040044,0.6667880703967282
40,0.6671093575539047,0.6676750554682589
41,0.6670133646865475,0.6671034984669852
42,0.6669244061102451,0.6667968812348561
43,0.6670284495498127,0.6668350202296042
44,0.6670551356707696,0.6667812582421946
45,0.6670829647131071,0.666797745012652
46,0.6669548937510497,0.666770421970304
47,0.6669508071073403,0.6668876523880658
48,0.6673481099891353,0.6680575327804572
49,0.6671569744154854,0.6669960816862424
50,0.6670602714787325,0.66683148490418
51,0.6669522952851301,0.6667927276215431
52,0.6671144867933076,0.6669145398487113
53,0.6671184373348418,0.6669820903208695
54,0.6670513726072212,0.666818124929806
55,0.6670276374823665,0.6669651525447539
56,0.667072917939393,0.6668475032142828
57,0.6669809426249713,0.6667955957399955
58,0.6670540787411078,0.6668527456307551
59,0.666919719748948,0.6673929354671145
60,0.6670905456292477,0.6667995290663392
61,0.6669324116616259,0.6667720001456076
62,0.6670367273579311,0.6668747605597651
63,0.6669244145848964,0.6667759579737997
64,0.6669704306521367,0.6667706071544772
65,0.6669343559070289,0.6671872236766866
66,0.6673348881508272,0.6670932418505673
