epoch,loss,val_loss
0,0.8010134732382316,0.7827818200061685
1,0.7811043306487012,0.7790569098308588
2,0.779318173019843,0.7784040831716905
3,0.7786634304800556,0.778042924619306
4,0.7787177705851814,0.7788992982635002
5,0.7790503396392151,0.7786801599798665
6,0.7786915118759911,0.7780532674575718
7,0.7783417820317953,0.7779146310427784
8,0.7783586379037604,0.7779491608076612
9,0.7782344146913177,0.7781776173364751
10,0.7780602670861954,0.777942253836897
11,0.7781206483080441,0.7780113632165014
12,0.7779774069020411,0.7779944484070913
13,0.7782957104823869,0.7780070777138598
14,0.7781350578266261,0.7779360479792145
15,0.7779871134243472,0.7778723862900789
16,0.7780245347847022,0.7778874303767077
17,0.7782982763553534,0.778026004092395
18,0.7780142847281603,0.7778839681821091
19,0.77800947923011,0.7794191048948403
20,0.7781066582504501,0.7778532752350555
21,0.7779965298298801,0.777985192232455
22,0.7780516560062677,0.7780623519500403
23,0.7782060979233255,0.7778852636130918
24,0.7780333126294879,0.7779931751329355
25,0.7780288167443417,0.7779735988933352
26,0.7780452790064306,0.7779232318926912
27,0.7780408861308123,0.7778673436355938
28,0.7780254051994983,0.77788528078977
29,0.7779564642493538,0.7779475638600978
30,0.7781655833232911,0.7778933942499279
31,0.7780041101697605,0.7778932270885747
32,0.7780289621633946,0.7778788619340252
33,0.7780093433536032,0.7778783590961388
34,0.7778997334261452,0.7795251933901239
35,0.778103717570614,0.7781632576334963
36,0.7780164416337156,0.7778596605594104
37,0.7780444765460072,0.7778830323372088
38,0.7779710762448053,0.778111001742198
39,0.7781067895209054,0.7778599868921208
40,0.7779434838479387,0.7782265938118876
