epoch,loss,val_loss
0,0.5004310235577579,0.4549992155337329
1,0.4534773088663718,0.4476484475863969
2,0.44719410134445026,0.44534306557249576
3,0.4472210564962967,0.4455001039211031
4,0.44614205592286793,0.4451478478742211
5,0.4451411881772284,0.4449091054947907
6,0.4451057957624472,0.4449501574655934
7,0.44557740926927925,0.44536815894663007
8,0.44617595187460835,0.4449521890097084
9,0.4463058355275133,0.4447468855612613
10,0.44578977589972824,0.44501020881279174
11,0.44580795519146116,0.4501081681159659
12,0.4455215476378249,0.44523072075926007
13,0.4451953788355248,0.4447233825045651
14,0.4451320051953482,0.44475596578071386
15,0.44502970619203597,0.44538731461750086
16,0.4453544649743508,0.44482801661508803
17,0.44511179084887764,0.44492056543965824
18,0.44522609256173185,0.4450134978263428
19,0.44505506604214756,0.4448839498385772
20,0.445195015954823,0.44495515668278557
21,0.4451203012263329,0.44512541502974046
22,0.44493764297778915,0.44537751959560123
23,0.4450244500605461,0.44477135486352326
24,0.4450246206637804,0.44477560291834717
25,0.4453589537046025,0.44479619387534974
26,0.44501634945847524,0.4448555337381856
27,0.4450138042865471,0.4447835375645707
28,0.44548912046445843,0.4451769615157674
29,0.44515817036905003,0.4448923967088171
30,0.4453032002891668,0.44487154804724655
31,0.4452767645975823,0.4448521103935826
32,0.44485822128166363,0.44804647875542913
33,0.44555426851447893,0.4448708090814077
