epoch,loss,val_loss
0,0.6694460424847073,0.6673525398572286
1,0.6250021315018336,0.5012061129808426
2,0.5012554279963175,0.5010978091557821
3,0.5012198704746035,0.5010307761033376
4,0.5012154829104741,0.5014394854307175
5,0.5011973227130042,0.5011451481580734
6,0.5011847163306342,0.5010376877387365
7,0.5011803347137239,0.5012995412747066
8,0.5011618892351787,0.5011735782225927
9,0.5011634361479017,0.501152633746465
10,0.5011551913287905,0.5010241872469584
11,0.5011474170684814,0.501043575167656
12,0.5011489031977123,0.5014414093891779
13,0.5011494118902419,0.5010265775124232
14,0.5011316306591034,0.5010307089487711
15,0.5011318410105176,0.5010214714606603
16,0.5011316215197246,0.5012902617454529
17,0.5011246184640461,0.5010197360515595
18,0.5011198227538003,0.5012553384701411
19,0.5011241751909256,0.5010168852011363
20,0.5011206897099812,0.5011896940469742
21,0.5011155251529482,0.5010249028205872
22,0.5011167475250032,0.5010342102050781
23,0.5011195179621378,0.5010210775136947
24,0.5011194250848559,0.5010221371253332
25,0.5011042565107345,0.5010222210884094
26,0.5011159902281231,0.5010813679297765
27,0.5011026734511057,0.5010223829746246
28,0.5011079129510456,0.5010196590820948
29,0.5011070442729526,0.5011154706478119
30,0.5011156324280633,0.5010394796530405
31,0.5011102114386029,0.5010204517443975
32,0.5011111315488815,0.5010424299637477
33,0.5011103914578756,0.5010233565966288
34,0.5011164689196481,0.5010217246214549
35,0.5011078440480762,0.5010932650963466
36,0.5011026053561105,0.5010474495093028
37,0.5011034264299604,0.5010428057114283
38,0.5011063798268636,0.5010616273085277
39,0.5011078316238191,0.5010240331888199
