epoch,loss,val_loss
0,0.28908834012569373,0.2841163777683864
1,0.27990097916532813,0.27867124913348157
2,0.27882365501806833,0.2784419185618313
3,0.27832886086474706,0.27873155196606375
4,0.2778711719580053,0.2770550407783565
5,0.277371663782968,0.2772758946968959
6,0.2772803791768072,0.2763701839719162
7,0.27695321321078814,0.2769122028912859
8,0.2768318324220564,0.2759942138904969
9,0.2766203653971594,0.2764632175933043
10,0.27628575623397506,0.2783311411257713
11,0.2761861910134326,0.2751651155002064
12,0.2758536384779058,0.27561484131564573
13,0.2757231282716305,0.2772369260231851
14,0.2755472818713817,0.2752525709255162
15,0.27552255683751686,0.2749313116665218
16,0.27541135205908074,0.27510935397952724
17,0.2754228296366331,0.27504528894022146
18,0.2752571539824353,0.2750111516001207
19,0.27520810926588923,0.27447633095473867
20,0.27519367168401865,0.2750292440649889
21,0.27514568067861,0.27504359097693754
22,0.2751568929140893,0.27490808156228835
23,0.275118527512154,0.2752170089752443
24,0.2749838061790759,0.27495871366697267
25,0.2750655688921573,0.2755927369848966
26,0.27494722815723677,0.2759048798391896
27,0.27495682359631557,0.27483707589487877
28,0.2749783443147368,0.27445753407537493
29,0.2748865782007662,0.27474982197172293
30,0.2749102692370982,0.2747571698785124
31,0.27484057482737106,0.274585032418703
32,0.2747983920781019,0.2780562484530598
33,0.2749273349471081,0.2762876109804764
34,0.27489499124361966,0.2742299260631684
35,0.2748275340341767,0.27440466298063104
36,0.2748118500158553,0.274879456749625
37,0.27490641249923564,0.2746113896369934
38,0.274815250379551,0.2744259629001097
39,0.2747863971385277,0.27410573997805193
40,0.274804879405642,0.2747708427107364
41,0.2748041142462687,0.27543711798362636
42,0.27481588885746,0.2755158023414186
43,0.2746750025755296,0.2759186999673583
44,0.2747720227634857,0.27440260342569567
45,0.2747130271196886,0.27475094684300294
46,0.2746847188891142,0.27434724865125365
47,0.27476224709373726,0.2749964512163593
48,0.27466841488735444,0.2753394586424674
49,0.2747173959166756,0.27550583345718477
50,0.274727673943751,0.27696918327518494
51,0.2747351725355852,0.27602423391034525
52,0.2746800003726553,0.2746809242528958
53,0.27481346934163325,0.2744793811152058
54,0.2746770286826367,0.27423635940102137
55,0.2746326762753115,0.2742928808291556
56,0.27466954243162467,0.27481812936792305
57,0.27469480064824897,0.27427080187844877
58,0.27461582301368553,0.2740795790853335
59,0.27463566595297867,0.27470060507062055
60,0.2746182204719048,0.2746710255631146
61,0.2745656349341037,0.274208557517002
62,0.2747101850869886,0.2752161070815387
63,0.274614818272606,0.2745690176859683
64,0.2746115005027686,0.2742578596394352
65,0.2745964089764352,0.2741089243155259
66,0.27467970412942216,0.2741043925137437
67,0.2745892725356104,0.274309203287508
68,0.2746470684818141,0.27399322637553253
69,0.2745757505702527,0.27486060672894896
70,0.27452097924680374,0.2761641616117274
71,0.2746253048070798,0.27564659515030626
72,0.274598812537818,0.27408117021875406
73,0.27457971211931875,0.27482752369591973
74,0.2745403391530879,0.2743339463439828
75,0.27462545745361194,0.2741749853413395
76,0.2746025370077352,0.27417674002517245
77,0.274567935898918,0.2753474190276551
78,0.274695223616332,0.27432855941521617
79,0.2745449362546937,0.27493287762696333
80,0.2745692051825933,0.274372325671222
81,0.2745771486995424,0.27464554345341535
82,0.2746187200868706,0.27470606737042186
83,0.2745997270811302,0.27438021135093554
84,0.27448158440321263,0.27626486062707734
85,0.2746382083216923,0.2740436018992299
86,0.27445565783536235,0.27416494682468195
87,0.2745294529114959,0.2749022272473233
88,0.274690712200002,0.2739128402089954
89,0.27456536451355484,0.27421778505552497
90,0.27446613456233565,0.27544304595395885
91,0.2746456145322827,0.2754241370681498
92,0.2744609736032041,0.2743146842082144
93,0.27461284617261905,0.2744101332227882
94,0.2745123702866437,0.27406255073346214
95,0.27454439549405657,0.2774299313501448
96,0.2745535206077536,0.2767369338359785
97,0.2745108141779491,0.2745243207100899
98,0.2744807056312855,0.27416578494289673
99,0.27467878879807067,0.27429431931256654
100,0.274509166322623,0.2781667718224727
101,0.27459634305761543,0.274545815476117
102,0.27459228492009063,0.2743586855106259
103,0.2745362093785279,0.2744433680627837
104,0.2745096648458506,0.27543910017084544
105,0.27446297234152367,0.2740159805743925
106,0.2744871201531416,0.2749352565770114
107,0.27453260738286006,0.27412164289661434
108,0.27450853783246176,0.27442051892540886
