epoch,loss,val_loss
0,0.5616932279366842,0.558122701680394
1,0.5580697001486824,0.5575937577276017
2,0.5577147573201492,0.5574496435764114
3,0.5575133774724532,0.5588360887011582
4,0.5574538054488777,0.5573328224955953
5,0.5573798044700563,0.5575316928160693
6,0.5573027081516131,0.5571805255880427
7,0.5572774440617687,0.5570913022860108
8,0.557239437492637,0.5571186865529706
9,0.5572237450610689,0.5573654006787624
10,0.5572009750675987,0.5576348983324491
11,0.5571759876552881,0.5571112814671348
12,0.5571758807974699,0.557014407147249
13,0.5571732307702776,0.5571320112822369
14,0.5571552050457449,0.5573931981552919
15,0.5571329100191214,0.5571827787027761
16,0.5571354392846104,0.5580782952734613
17,0.5571294999062985,0.5569842298036769
18,0.5571077884034755,0.557029883056953
19,0.5570993832035461,0.5569920850155076
20,0.5571070174115068,0.5570624979494819
21,0.5571063580182134,0.5577298708648303
22,0.5570891613426134,0.5574247554868977
23,0.5570815594411102,0.556973494134529
24,0.5570831419463615,0.557133365801487
25,0.5570730311185146,0.5570669945948769
26,0.5570799309519099,0.5570590013605785
27,0.5570641976503657,0.5570328899707747
28,0.5570560914273535,0.5570068191949546
29,0.5570650779928497,0.5569377636791163
30,0.5570523224789659,0.557433588924834
31,0.5570625246436481,0.5569420211664204
32,0.5570643188711671,0.5569538011444414
33,0.5570408201440417,0.5570238657683948
34,0.5570390269262226,0.5569961281923147
35,0.5570486540919701,0.5572627282615926
36,0.5570335831244708,0.5573814532301267
37,0.5570348262506042,0.5569562205014099
38,0.5570300395687429,0.5570191911077381
39,0.5570184843555116,0.5569340399417925
40,0.5570206077626004,0.5570333625187649
41,0.557024869106204,0.5569971353481189
42,0.5570127643140256,0.5570593063647931
43,0.5570200884431016,0.5571250144956129
44,0.5570096375309243,0.5569738401372735
45,0.5570085938118732,0.5569282865701775
46,0.5570062045523394,0.55699863377635
47,0.5570037442391089,0.5569475117747305
48,0.5570063247492418,0.556965728166973
49,0.5570050892565984,0.5570751860478972
50,0.557011370237735,0.5571549516161973
51,0.5569966448747854,0.5570813742524046
52,0.5569998519874136,0.5570901344786803
53,0.5570297149225686,0.5569903706794341
54,0.5570016347406382,0.5569277419641651
55,0.5569992878916619,0.5569285036020776
56,0.5570057492052268,0.5569552256806612
57,0.5569996919515338,0.5569412617766236
58,0.5569952369466722,0.5572951902822585
59,0.5569935956248153,0.5569078259077617
60,0.5570060043090992,0.5569611553814512
61,0.5569843584446678,0.5569337886852899
62,0.556999419217352,0.5571741892741277
63,0.5570051310999884,0.557210346368643
64,0.5569961071006516,0.5570798748775984
65,0.5569937977880632,0.5571854564451402
66,0.5569847132366992,0.556950455149705
67,0.5569981205482499,0.5569894260567412
68,0.5570072233846508,0.5569240101513733
69,0.5569852675943673,0.5569927741221103
70,0.5570054196904051,0.5570914612514505
71,0.5569841935961471,0.5569024617263756
72,0.5569785429810054,0.5569308333302254
73,0.5569979011751379,0.5569642362464451
74,0.5569802815417098,0.5575497492962972
75,0.5569974120590806,0.5571217161254315
76,0.556983033902002,0.5569790191449243
77,0.5569780160461594,0.5573328787576471
78,0.5569987312763675,0.556899382517888
79,0.5569894862103046,0.5569619973007562
80,0.5569909299354399,0.5570501553213626
81,0.5569839293229363,0.55692605149953
82,0.5569947289941871,0.5569391871800198
83,0.5569701520265237,0.557445645805624
84,0.5569890074484057,0.557011908455463
85,0.5569848010861251,0.556958952376032
86,0.5569666792633904,0.5574263375686949
87,0.5569927255599735,0.5571162961552811
88,0.5569808502363298,0.5569664369741681
89,0.5569750540650378,0.5568929774293828
90,0.5569844087427178,0.5573079877988281
91,0.5569776652668968,0.5569617407197692
92,0.5569740958857238,0.5570261862674363
93,0.5569761174661404,0.556894529989872
94,0.5569701330496846,0.5570092818281491
95,0.5569692158492047,0.5569028144438865
96,0.5569793783563399,0.5569323259015238
97,0.5569751893183034,0.5570567348163122
98,0.556968642644854,0.557109240118978
99,0.5569767316264492,0.5570716596123007
100,0.5569719351836282,0.5571243330503516
101,0.556978116714043,0.5568881375322271
102,0.556965046234484,0.5569452973808308
103,0.5569645041296837,0.5574480157336289
104,0.5569709702274914,0.5569217079922224
105,0.5569722430829807,0.5569329623253115
106,0.556976691969691,0.5569655964747257
107,0.5569750514287741,0.5572328116994342
108,0.5569590322164625,0.5570277698874178
109,0.5569870449733056,0.5569111998856215
110,0.5569553213771016,0.557426475679904
111,0.5569687259932266,0.5572902633297828
112,0.5569680912508133,0.5570405503952178
113,0.5569702149939428,0.5568973947695408
114,0.556965808861719,0.5569729446477393
115,0.5569779973627643,0.5570501407086109
116,0.556962436708096,0.5571022905427824
117,0.5569712171338616,0.5575905141108681
118,0.5569705011279487,0.5569873668715617
119,0.5569753263006803,0.5571107917624727
120,0.5569629810618454,0.5568802046420852
121,0.5569725378956739,0.5568925091409802
122,0.55696684024192,0.5573269490864378
123,0.5569743422872439,0.5571434173631313
124,0.5569724438271267,0.5569341327948842
125,0.5569660366768698,0.5571101269710153
126,0.5569480652039941,0.5570108156642014
127,0.5569717532380462,0.5569168917594417
128,0.5569684287107123,0.557085009958253
129,0.556953025080178,0.5574674540950406
130,0.5569593106152194,0.5569348361001121
131,0.5569664056614976,0.556996790262369
132,0.5569703177419664,0.5571575502899682
133,0.5569560746385798,0.5569371313965942
134,0.5569561512282725,0.5569033842820388
135,0.5569439812457571,0.5570650022023961
136,0.5569593086778574,0.5570069857329943
137,0.5569661282984721,0.5569311884733347
138,0.556951678623077,0.5568885597342593
139,0.5569533068740512,0.5574721776226318
140,0.5569599084941149,0.556935928595569
