epoch,loss,val_loss
0,0.08901943260031828,0.07679507194766336
1,0.07124666703882902,0.06844862156707063
2,0.06582888886653959,0.0668353855683845
3,0.06283249084837575,0.06157460407199102
4,0.06138644545411139,0.05980882918087779
5,0.060412026949861766,0.059228463413623665
6,0.05965634538722176,0.06008660131811208
7,0.05942095512771816,0.0593552142122839
8,0.05891890922957353,0.05832612096671727
9,0.058548964742497704,0.05797106828124588
10,0.05821914151440091,0.05841917666622782
11,0.05746926080080394,0.05701973477826817
12,0.057227100517221005,0.05704836203132019
13,0.056868683006532854,0.05760618426811606
14,0.056691208200576326,0.05665380868589316
15,0.05627366464350242,0.055559652097171945
16,0.05626947027089216,0.05674375528954986
17,0.056081662971099774,0.05558986338433202
18,0.05590590919258877,0.05549596644586724
19,0.05568297863315418,0.054816188167771396
20,0.05571623463854885,0.05562766468702416
21,0.05548208390205818,0.05524343255140054
22,0.055389534606357246,0.05578399338290354
23,0.05528909044473343,0.05593747673533099
24,0.055171812794792684,0.05457304521803524
25,0.054970456641078906,0.05521771495898367
26,0.05491708197117008,0.05477077227002634
27,0.054994412474995376,0.054426689717743
28,0.0548719181671116,0.05423815848476834
29,0.054780915457864725,0.05485710042618936
30,0.05470263567556656,0.05416454951609335
31,0.05467898609348564,0.05514126680883817
32,0.05472516935510049,0.05409296995615841
33,0.054530786914455544,0.05418233064652672
34,0.054471264271029926,0.053826706948928146
35,0.05438044691293356,0.05385546969439344
36,0.05440654802385454,0.05480988929903241
37,0.054272561728697155,0.05415804239530717
38,0.054367992780216506,0.05411651218980181
39,0.0543251463343006,0.05406613870900559
40,0.05436010386578026,0.053505825423277344
41,0.054235039848448095,0.05420254821295182
42,0.05414099120450342,0.05371244174449083
43,0.05424900597841637,0.05378173234740794
44,0.05391526267552112,0.054065018234122776
45,0.054085543159572896,0.054289575634759946
46,0.05407463405143014,0.053951928084230896
47,0.05401488153420928,0.05361980302236216
48,0.05415821628575621,0.05400084780330398
49,0.053903990071441664,0.05336627957986543
50,0.05397854635013716,0.054112147745068555
51,0.05390503759257059,0.05349945019255797
52,0.05399598126207226,0.05417210242847355
53,0.05386940343143389,0.05363282784449847
54,0.0540347978449242,0.05365475087840267
55,0.053906575274140736,0.05383038867828864
56,0.05392477543850625,0.054275511378981636
57,0.05386042344476447,0.053555552279645986
58,0.053887284534676345,0.054879195169169025
59,0.05379025129969964,0.05342464178393851
60,0.05379761631945831,0.05334556614125041
61,0.053761046087445176,0.05479115921421619
62,0.05382406577403629,0.054166188259278575
63,0.053817732473255685,0.05335211762904234
64,0.0537698322169807,0.05335885364719419
65,0.05367366205191209,0.054013337303997565
66,0.053726085629980005,0.053291544103740755
67,0.05380180214873911,0.0538639029982516
68,0.05356795755019693,0.053583740528035106
69,0.05363167570808622,0.053546081906734565
70,0.0536835081448864,0.05359478229957242
71,0.05359173913024677,0.05365110665707671
72,0.053619100292644786,0.05411722309905897
73,0.053562130664105534,0.0544740850258406
74,0.053695818504303536,0.05305853971920298
75,0.05360952489586543,0.054147114933794246
76,0.05357715187215189,0.053244883347090065
77,0.05352276727464298,0.054200371587764536
78,0.053506217488818356,0.05354278623761965
79,0.0535989686670923,0.056642665882264416
80,0.05349859916908939,0.0533674225969143
81,0.05359102638732158,0.0532480328757473
82,0.05358087007948833,0.05373625422714662
83,0.05354663217168472,0.05359107963093753
84,0.05355956998116851,0.05408692220711235
85,0.0536424481505173,0.053202568255272455
86,0.05354585617393568,0.05407710568632736
87,0.05353609798940153,0.053579797281446885
88,0.05359475503543967,0.05366356422935171
89,0.053477342448923236,0.05427548784586987
90,0.053453292969320776,0.055842742767582464
91,0.05341895840016576,0.05308456762922609
92,0.053532487674110944,0.05394451872401734
93,0.05347389921258947,0.05347797256841257
94,0.05338543996998173,0.0536603574902189
