epoch,loss,val_loss
0,0.6696066100899881,0.6667691768842654
1,0.6668543805097713,0.6668943385036649
2,0.6668115064086247,0.6668091588221472
3,0.6667958020933603,0.6667035558383458
4,0.6667704889447148,0.6667150731713837
5,0.6667641119671351,0.666742294065414
6,0.6667570069137828,0.6668195735432079
7,0.6667465757270427,0.666708905199917
8,0.6667439487383655,0.6668504302909889
9,0.6667379211106917,0.6667710379986255
10,0.6667311941639761,0.6669837083473394
11,0.6667328224062732,0.666699954682485
12,0.6667276526812886,0.6667226333180373
13,0.6667273735481327,0.6667195807615521
14,0.6667254822032457,0.6666981136828439
15,0.6667208210941508,0.6667267874511832
16,0.666722192444302,0.6667915124159592
17,0.666720648589264,0.6667280235893969
18,0.6667160323424043,0.666754230139569
19,0.6667220717141518,0.6667155254271723
20,0.6667221556076044,0.6667434824903313
21,0.6667172473807333,0.6666983351222339
22,0.666717699509427,0.6666985906679045
23,0.6667176425442013,0.6667478843303235
24,0.6667171010996501,0.6666972738933327
25,0.6667163115639089,0.66669868186449
26,0.6667134945772919,0.6666952451464556
27,0.6667149349585845,0.6668405394104515
28,0.556392727593498,0.5555990907749526
29,0.5556143396026403,0.5556055391988447
30,0.5556195694000446,0.5556192833199987
31,0.5556145755766408,0.5556573594770123
32,0.5556163767710902,0.5556305331864368
33,0.5556132074756728,0.5555981529261871
34,0.5556162748379263,0.5556148629626328
35,0.5556139394727102,0.5556397909857795
36,0.5556156547819158,0.5556507425627697
37,0.5556123065810599,0.5556434334063944
38,0.5556149911044966,0.5555990151376937
39,0.5556144242770329,0.5556081645541984
40,0.5556132180057399,0.5556212714528919
41,0.5556128041991072,0.5556076048325664
42,0.5556123037704652,0.5556756837196445
43,0.5556133655670913,0.5555948856154979
44,0.555611709947724,0.555606251111989
45,0.5556142550039751,0.555594536743448
46,0.5556107421447064,0.5555958844887707
47,0.5556104944045449,0.5556042912876044
48,0.5556127479674917,0.5556053588763065
49,0.5556105825095512,0.55559636265705
50,0.5556121316749804,0.555594032603517
51,0.5556088609039193,0.5555987899415842
52,0.5556122106074927,0.5556225500390785
53,0.5556101048472787,0.5556178041486527
54,0.555609205889239,0.5556090422954512
55,0.5556072411257483,0.5556543354656797
56,0.5556107799461407,0.5555949627909412
57,0.555608846959015,0.5556298155346816
58,0.5556103996647049,0.5556998635935724
59,0.5556090151111479,0.5556248104306072
60,0.5556083516254141,0.555592723638189
61,0.5556078974520778,0.5556479052633565
62,0.5556090580999162,0.5555940988637673
63,0.5556087552774619,0.5555922066307541
64,0.555609292333762,0.5555932879152132
65,0.5556092952153512,0.5556125891711516
66,0.5556071073980765,0.555605223841466
67,0.555608396401667,0.5556025676041028
68,0.5556074376362536,0.5556338003788042
69,0.55560690588009,0.5555970837697202
70,0.5556070268342674,0.5556561258235582
71,0.5556069676997643,0.5555952932639394
72,0.5556067041451758,0.5556104545557765
73,0.5556066914742289,0.5555926278862113
74,0.5556070505977159,0.5555930804969655
75,0.5556074938820681,0.5556026011483545
76,0.5556064196290564,0.5555976738409132
77,0.5556080036756781,0.5556943745826077
78,0.5556047233132555,0.5555957909257477
79,0.5556078624217967,0.5555916100222774
80,0.5556090624637137,0.5555906430663305
81,0.5556046893202835,0.5555919924089986
82,0.5556079442887499,0.5556203111525505
83,0.5556048243850191,0.5557731222869741
84,0.5556069567784383,0.5555949934954679
85,0.5556061473689604,0.5555950819114893
86,0.5556042402104352,0.5555929678841205
87,0.5556060409868055,0.5556092793533287
88,0.5556058179101454,0.5555915565407897
89,0.5556051028113849,0.5556110410477328
90,0.5556030938025227,0.5555907116634379
91,0.5556048829704978,0.5556016382745123
92,0.555604193006958,0.555611841968508
93,0.5556050392326238,0.5556093691596322
94,0.5556048516390321,0.5556081343525396
95,0.5556048097940646,0.5555962225639495
96,0.5556068752688244,0.5555931054628812
97,0.5556052200825237,0.5555905480538645
98,0.5556047940948065,0.5556038984589778
99,0.555604245100381,0.555627041803696
100,0.5556026333280271,0.5556203775311226
101,0.5556042095258085,0.5556045701722649
102,0.5556041923167333,0.555643426632467
103,0.5556048601473327,0.5556554931269094
104,0.5556023546902552,0.5555927569753775
105,0.5556037378136669,0.5556020571931124
106,0.5556025584090724,0.5556088375986066
107,0.5556029276745229,0.5555919916990673
108,0.5556044182244977,0.5555934570563342
109,0.5556020754955708,0.5555920139139994
110,0.5556055101448937,0.5555949814266365
111,0.5556025279129756,0.5555918263442463
112,0.5556039323568347,0.5555935648179824
113,0.5556016517244607,0.5555961430812296
114,0.5556047395725815,0.5556269347519792
115,0.5556017092087354,0.5556077470554608
116,0.5556026251029158,0.5555915949658188
117,0.5556020559397318,0.5556456887692435
