epoch,loss,val_loss
0,0.5859209522141351,0.5847806471586228
1,0.5844718756808175,0.5841984357039134
2,0.5842806227207183,0.5840304155747096
3,0.5841572274102105,0.5840448027054469
4,0.5841491127411524,0.5845503548383713
5,0.5840982224014071,0.5840863654216131
6,0.5840886370340983,0.5839204180637996
7,0.5840663895474539,0.5839399150212605
8,0.5839961847861608,0.5840325237115224
9,0.5839803482294083,0.5838829574982325
10,0.5821290146907171,0.5010391869147619
11,0.5008769328991572,0.500706368803978
12,0.5008211284081141,0.5007115279436112
13,0.5007839902506934,0.5009271535476049
14,0.5007736475070318,0.5006328897873561
15,0.5007570433484183,0.5006660602490107
16,0.5007746664815479,0.5007355701526006
17,0.5007729489141041,0.5006903143723805
18,0.5007663876215617,0.5006799503962199
19,0.5008354244894452,0.5009210371573766
20,0.5008975954055787,0.5010159372886022
21,0.5008850129710304,0.5007970662911733
22,0.5008848974439832,0.5007732410828273
23,0.5008833107550938,0.5009447010358175
24,0.5009052014748255,0.501035236398379
25,0.5008887839582231,0.5010518908898036
26,0.5008754649427202,0.5008029336134593
27,0.5008870176739163,0.5008479431470235
28,0.5008693296776877,0.5007858150402705
29,0.500872264623642,0.5009189253250758
30,0.5008695944282744,0.5008312900861104
31,0.5008620790905423,0.5007671149969101
32,0.5008626475069258,0.5008267828623454
33,0.50086225508319,0.5007776740789414
34,0.5008595963981417,0.500794828971227
