epoch,loss,val_loss
0,0.7802483422367366,0.7778199378077505
1,0.7779063916780943,0.7778197386424536
2,0.7778990991723505,0.7778068336304601
3,0.7778721809563904,0.7778106044894708
4,0.7778590757029196,0.7780574569631156
5,0.7778553374943767,0.7777990596761775
6,0.7778343844379996,0.777801741234422
7,0.7778354005740963,0.7777982891049634
8,0.7778305755662299,0.7778010711776412
9,0.7778270275362688,0.7778191848073349
10,0.7778243213579212,0.7778464792679912
11,0.7778185848086282,0.777800342048664
12,0.7778176003573922,0.7778856256167883
13,0.7778169311384553,0.7778080996449472
14,0.7778159454432373,0.7778365827375843
15,0.7778128610856812,0.7778012317995872
16,0.7778119435665147,0.7777989325689028
17,0.7778109863582482,0.7778629674509204
18,0.7778099126361179,0.7778209729170976
19,0.7778102878840412,0.7777944829860337
20,0.777807953078893,0.7777928990406671
21,0.7778085892325199,0.7777955761026804
22,0.7778079541020032,0.7778343424311939
23,0.7778079413505959,0.777803562415149
24,0.7778081026588557,0.777809656465024
25,0.7778057683072839,0.7777944150988576
26,0.7778056878846751,0.7778126513395949
27,0.7114653722041605,0.6667051632114439
28,0.6667063271173772,0.6666976499794139
29,0.6667050871560223,0.6666939836577801
30,0.6667059743021492,0.6667702692614004
31,0.6667042884020351,0.6666894663356374
32,0.6667056152977753,0.6667000827067543
33,0.6667027930804388,0.6667023115950838
34,0.6667032064847691,0.6666922968611232
35,0.6667021416787635,0.6666874510774542
36,0.6667042774278578,0.666752435137557
37,0.6667005992152184,0.6667232288024562
38,0.6667014681212717,0.6666903153838354
39,0.6667014376322744,0.666696313267606
40,0.6667011238790281,0.6666943521712613
41,0.6666989672733172,0.6667088392650519
42,0.6666982231377921,0.6666921000622638
43,0.6667004542167698,0.6667206467824893
44,0.6667029437142757,0.6667044221615377
45,0.666698996745515,0.666704566277582
46,0.6667001887926586,0.6666891027620945
47,0.6666985505779958,0.6666981422871573
48,0.6666997528120662,0.6667168972214161
49,0.6666998348991025,0.6667361972941358
50,0.6666989501234042,0.6666922002217314
51,0.6666986096202061,0.6666874024767437
52,0.666699153857209,0.6666906851101159
53,0.6666974155662838,0.6666911654377694
54,0.6666990859864339,0.6667284798089683
55,0.6666960030337806,0.666748058736768
56,0.6666976416018384,0.6666893865866933
57,0.6666974179635325,0.6666879002864544
58,0.6666975193098084,0.6666869940000492
59,0.6666980633243618,0.6666879555723507
60,0.6666984130797253,0.6668268601592657
61,0.6666987486614245,0.6666856966894259
62,0.6666971623484995,0.6667492143865259
63,0.6666967771621302,0.6666986245967023
64,0.6666972481887802,0.6666951983501539
65,0.6666986524677743,0.6666874798000895
66,0.6666970150293184,0.6666941393989487
67,0.6666964134934155,0.6666895269755986
68,0.6666975552101669,0.6667175739929635
69,0.6666963739131736,0.6667115237221825
70,0.6666971980066878,0.6667580438902597
71,0.6666966644504182,0.6666867430393513
72,0.6666972659389915,0.666689101283071
73,0.6666960225975079,0.6666874283004931
74,0.6666977172039183,0.6667485223514567
75,0.6666955916575275,0.6666967812897846
76,0.6666956669259331,0.6667028678853814
77,0.6666965330426899,0.6666850684002671
78,0.6666964478216395,0.6666847281952946
79,0.6666950947943887,0.666703644609333
80,0.6666955203600828,0.6666928388344738
81,0.666696044668131,0.6666854896261437
82,0.6666946787277633,0.6666916720328793
83,0.6666948590491483,0.6667283159035903
84,0.666694210704971,0.666711719840691
85,0.6666949052216271,0.6666864536536242
86,0.6666942479542257,0.6666932157192278
87,0.6666949832170117,0.6666948376754969
88,0.6666928990383474,0.666714061815153
89,0.6666942835713948,0.6667233176030237
90,0.6666949324330435,0.666728993266747
91,0.6666936158938281,0.666688360617711
92,0.6666924470753076,0.6667102074208981
93,0.6666942455057031,0.6666924254178409
94,0.6666930159813336,0.6667099937611715
95,0.6666913334006085,0.6666922749419958
96,0.6666940251197357,0.666729212250958
97,0.6666925444198581,0.6667062141759224
98,0.6666930095539617,0.666687513847209
