epoch,loss,val_loss
0,0.454955906318783,0.44809312478780156
1,0.448132758561104,0.4475798161686502
2,0.44754596767516597,0.44726468445941175
3,0.4471409944810152,0.44679119412419815
4,0.4469584869696492,0.44789987184273694
5,0.44687625774438144,0.44647601638775014
6,0.446712141771481,0.4472274746107996
7,0.4467000252770367,0.4465521338707756
8,0.4465967275693221,0.4465971002655645
9,0.4465486979357872,0.44650321630922796
10,0.44650067238917107,0.446511433171871
11,0.44648448787476275,0.4465552915118764
12,0.44647398459228377,0.4465971461152912
13,0.44648449326088147,0.4463138134248795
14,0.44638663080165497,0.44658748063792664
15,0.44639854975498994,0.4462842935368086
16,0.4463594362221148,0.44669172635149423
17,0.44637547591437754,0.4462583653980094
18,0.44635772313267175,0.4463555594827638
19,0.44635390416192955,0.44630264709368533
20,0.446325530953213,0.4461996577070014
21,0.4463375738669495,0.44647437357725045
22,0.4462964176193736,0.44626537956315887
23,0.4463090688332146,0.4463871154684583
24,0.44630307944753567,0.4461858616425441
25,0.44629273815131426,0.4466205398438882
26,0.4462659139139751,0.4461478509766884
27,0.44628241625198295,0.44613348412750375
28,0.4462723412882084,0.44612816792563825
29,0.44626893002093543,0.446248005134592
30,0.44624471138753624,0.4461222520537175
31,0.4462471376036694,0.4461913154527508
32,0.4462463506422689,0.44627150171447927
33,0.4462584811601058,0.44616815749528094
34,0.44623373662956406,0.44615319748374427
35,0.44623654937662416,0.4461523834440312
36,0.4462402441132414,0.4461839956326165
37,0.4462447848727958,0.4464646660364591
38,0.4462272394381222,0.44610123792593886
39,0.4462372227574185,0.4461347577589617
40,0.44622813981053083,0.44616434727945636
41,0.4462296576866965,0.44619866012047893
42,0.44622336552786496,0.4462833744420603
43,0.44621787038404886,0.44633422353427404
44,0.4462141419037293,0.4462552621258104
45,0.4462252727001947,0.44623392449123395
46,0.4462185246404932,0.4461482636538096
47,0.4462044147776771,0.44703361124317936
48,0.4461975641939794,0.44611493313578754
49,0.4462098455708638,0.4466460251630684
50,0.4462201417185053,0.44653454353436645
51,0.44620866649047763,0.44616545033514055
52,0.44618964233549074,0.4463212173866575
53,0.44620091418586955,0.44642547497678337
54,0.44620220999507504,0.44664399002681004
55,0.4462075196412158,0.4461053706576156
56,0.44618198461690106,0.4461324766906852
57,0.4462114770485396,0.44619399270703713
58,0.4461982068511,0.44610193778504215
