epoch,loss,val_loss
0,0.6714784814735871,0.6686927143160818
1,0.6687184861932768,0.6684820335497039
2,0.6683792876294216,0.668329403329428
3,0.6681875413937768,0.6681418672980505
4,0.6681092320216961,0.668150985033873
5,0.6680576830652345,0.6679812531021629
6,0.6680073609984563,0.6678552540596898
7,0.6679857205722062,0.6682414893181093
8,0.6679683951685271,0.6678372332535074
9,0.6679295879900846,0.6678690766282472
10,0.6679236481629295,0.6683193508212087
11,0.667899818572086,0.6678139925890466
12,0.6678909278255466,0.6679570838180429
13,0.6678929874322137,0.66785673917671
14,0.6678672401354236,0.6679111501715024
15,0.6678626568450158,0.6677666730975395
16,0.6678626404429118,0.6677852565538203
17,0.6678575751816519,0.6678555646250325
18,0.6678483884565313,0.6678337763024323
19,0.6678273527885471,0.6680799338125414
20,0.6678474670776287,0.6678679655266755
21,0.6678375129994034,0.6678543901325159
22,0.667829956476029,0.6678000894432919
23,0.667826887284483,0.6678774990751489
24,0.6678226808519967,0.6677919733908868
25,0.6678271668128418,0.6681812225145383
26,0.6678076343145055,0.66775428314067
27,0.6678196961565682,0.6677355678738199
28,0.6678050387629972,0.6677145350068142
29,0.667818143447723,0.6678563988238351
30,0.6677912220977487,0.6678391969529334
31,0.6677876894728126,0.6677134563550168
32,0.6678011382806689,0.6677336136401439
33,0.6677818945273596,0.6679740364439138
34,0.6678042795356116,0.6678236393419744
35,0.6677791607139952,0.6677261244570352
36,0.6677911408871006,0.668036939222227
37,0.667787577889125,0.6679332180886943
38,0.6677971669670935,0.6677270805865304
39,0.6677872860810782,0.667750617440226
40,0.6677772266351313,0.6677355428191627
41,0.6677852539761162,0.6678821826691071
42,0.6677734794820659,0.6677470882240655
43,0.6677709444281559,0.6677487371873028
44,0.667775413220156,0.667845328836228
45,0.6677771582563509,0.6683372764374423
46,0.6677854386123911,0.667863142934094
47,0.667766812566751,0.667780775911459
48,0.6677697087367278,0.6677234484894992
49,0.667767064404086,0.6677158292114883
50,0.6677744387775717,0.6679115000492881
51,0.6677699875275322,0.6681977793241552
