epoch,loss,val_loss
0,0.6700091055896548,0.6683861750761668
1,0.6683060986465877,0.6685819565455119
2,0.6680869108173583,0.6683167178630829
3,0.6679911089870665,0.6679169053236643
4,0.6679237816996044,0.6678385913769405
5,0.6678759422567155,0.667892130057017
6,0.6678449087142945,0.6678785185813904
7,0.6678281356890996,0.6679600294431051
8,0.667809548219045,0.6677517196734746
9,0.6677891819344627,0.6677660245895386
10,0.6677810032235252,0.6677712340752284
11,0.6677764079968135,0.6677186766465505
12,0.6677712083525128,0.6676941699584326
13,0.6677722648912006,0.6677055300076803
14,0.6677621629238129,0.6677155065536499
15,0.6677579046885173,0.6677266012827555
16,0.6677574437061946,0.6676893256505331
17,0.6677521384159724,0.6676894894043605
18,0.6677507332298491,0.6677133091290792
19,0.6677457733286751,0.6677817775011062
20,0.6677457016838921,0.66772969075044
21,0.6677418165604273,0.6677033254305522
22,0.6677379591464996,0.6676748608748118
23,0.6677367280191845,0.6676684556802114
24,0.6677380978398852,0.6677168358961741
25,0.6677346207698186,0.6676872118314108
26,0.6677297090556886,0.6679517946640651
27,0.6677335645092858,0.6677750535011292
28,0.667733310368326,0.6676900937954585
29,0.66773257625103,0.6676626042127609
30,0.6677233779033025,0.6676768832604091
31,0.6677271019087897,0.6678004088799159
32,0.6677289442221324,0.6676696936686833
33,0.6677255449957318,0.6676800897518794
34,0.6677232200437122,0.6677264355023702
35,0.6677210253477096,0.6678516891400019
36,0.66772034031815,0.6677043941020966
37,0.667722193479538,0.6677250909407934
38,0.6677176451683045,0.6676848685741424
39,0.6677162295050091,0.6677286933263142
40,0.6677167230182224,0.6680180887381236
41,0.6677189701133304,0.6676904784838359
42,0.6677150419420667,0.6678035677274068
43,0.6677172294192844,0.6676886464357377
44,0.6677169842322668,0.6677137137254079
45,0.6677158205509186,0.6677391631603241
46,0.6677127447393205,0.6676577258110047
47,0.6677145768801371,0.667677509466807
48,0.6677141778601541,0.6677023735443751
49,0.6677104904651642,0.6676772442261378
50,0.6677149435281754,0.6677534158229828
51,0.6677141447199716,0.667664415359497
52,0.6677133853038152,0.6677467665274938
53,0.6677145282957289,0.6676746950944265
54,0.6677117032342487,0.667678779800733
55,0.6677086706558863,0.6676456966400146
56,0.6677108559476005,0.6676549914280574
57,0.6677096576690674,0.6676560722192129
58,0.6677093433803982,0.6676577794949213
59,0.6677080876297421,0.6678074778318405
60,0.6677075630691316,0.6676535431146622
61,0.6677091599437925,0.667999147494634
62,0.6677102909220589,0.6676496584415436
63,0.6677076100640826,0.6680142608880997
64,0.6677114612791273,0.6677196137110393
65,0.6677118195030425,0.6679976412455241
66,0.667708611064487,0.6676830360889435
67,0.6677072738541497,0.6676599101225535
68,0.6677050356732475,0.6676464833418528
69,0.6677038970126046,0.6678271129528681
70,0.6677109766403834,0.667669553677241
71,0.6677017391787635,0.6676772334973018
72,0.6677078853315778,0.6676577492157618
73,0.6677077766921785,0.667654435078303
74,0.6677028826475143,0.6677962007919948
75,0.6677056142091751,0.6676666502555212
