epoch,loss,val_loss
0,0.703089224656423,0.7015091964006424
1,0.7015682842466566,0.7012412421305975
2,0.7014497568607331,0.7015431613127391
3,0.7012825486660004,0.7014343373775482
4,0.701157898902893,0.7011089300314586
5,0.7011129872931374,0.7010056280295054
6,0.7010853405131234,0.7009531515836716
7,0.7010674750275082,0.7010373584032059
8,0.701054174039099,0.7009699023564656
9,0.7010369656748242,0.7009457886616389
10,0.7010293779638078,0.700947982152303
11,0.7010248931248982,0.701011965672175
12,0.7010125636392169,0.7009321972529093
13,0.7010086813370386,0.7008683239618937
14,0.7010035206211938,0.7009097625811894
15,0.7009988198810153,0.7010200843016307
16,0.7009953517383999,0.7008850176334381
17,0.7009958039522171,0.7009150036176046
18,0.7009896414809756,0.7009419531822204
19,0.7009857780933381,0.7010496880610784
20,0.7009838173919254,0.7010182087421417
21,0.7009789328707589,0.7009575802485148
22,0.700977432873514,0.7009513607819875
23,0.7009753935072157,0.700883761882782
24,0.7009847367869483,0.7011955028772354
25,0.7009751950502395,0.7010556066433589
26,0.7009730081955592,0.7008994628985723
27,0.7009700671964222,0.7008882916768392
28,0.7009712895419863,0.7009483466148376
29,0.7009682690434985,0.7009332735935847
30,0.7009733160469267,0.7009871347347896
31,0.7009664744536082,0.700866600036621
32,0.7009610642724567,0.7009900830189387
33,0.7009641073147456,0.701081552028656
34,0.700967160542806,0.7009055291811626
35,0.7009597282939487,0.7011106796264649
36,0.7009592724243799,0.7009479172229767
37,0.700962669716941,0.7010162978569666
38,0.7009656116432614,0.7009917569160461
39,0.7009612053235372,0.7009161198139191
40,0.7009597228765487,0.700912033756574
41,0.7009536497857836,0.7008537704547246
42,0.7009615133470959,0.7009274198214213
43,0.7009594607220756,0.7009044229984284
44,0.7009596714840995,0.7008817255894343
45,0.7009563058482277,0.7008618070284526
46,0.700953154179785,0.7009538199106852
47,0.7009537512991163,0.70097909339269
48,0.7009549259212282,0.7009535880883535
49,0.7009602119790184,0.7009597297509511
50,0.7009549897114435,0.7008729971249898
51,0.7009556124475267,0.7011029614607494
52,0.7009522920979394,0.700905029853185
53,0.700953380227089,0.7009379839499792
54,0.700953580737114,0.7009805006583532
55,0.7009486153655582,0.7009583271344503
56,0.7009508590565787,0.7008761781056722
57,0.7009534333944321,0.7008871131340663
58,0.7009490913550059,0.7009009166558584
59,0.7009525201320648,0.7009044750928879
60,0.7009545713663101,0.7009105403025945
61,0.7009539244572321,0.7009367859363556
