epoch,loss,val_loss
0,0.45237547786273896,0.4493445534859934
1,0.44791901436560544,0.4472440126811896
2,0.44734133754188193,0.4472021534928021
3,0.4470969127904438,0.44682214870938003
4,0.4468962028061573,0.4466386053165786
5,0.4467845441288971,0.447712235474409
6,0.446709969902734,0.4468442410748295
7,0.4466550056898954,0.4464880421203064
8,0.4466348937377173,0.4464128981453018
9,0.44656686167330073,0.4467269216666446
10,0.44657848422682017,0.44643948363607044
11,0.44652966129720023,0.44640948189695184
12,0.4465476309214572,0.4462767642277938
13,0.446469802174882,0.44643699781178836
14,0.3828721099161196,0.33664274194991917
15,0.33573707826456767,0.3356995361614464
16,0.3357201981603026,0.335496818161484
17,0.3356933534114591,0.3355763283024355
18,0.33567910564885894,0.3354899750601861
19,0.3356442062135135,0.3359799657802724
20,0.33564139410737626,0.33635917584002756
21,0.3356239678981632,0.33551112908879227
22,0.3356028200990446,0.33575830672574103
23,0.3355970279566924,0.33559267330110515
24,0.33559523055690094,0.335432478482315
25,0.335540598645814,0.3354811181797283
26,0.33557379908886453,0.3354607357428624
27,0.3355531388372185,0.33539627410342027
28,0.3355461276772935,0.3354116104376819
29,0.33555814804789885,0.3354172908194899
30,0.3355502250803178,0.33547725124335465
31,0.3355340260984066,0.33571441160242255
32,0.33554671145430803,0.3357381654436476
33,0.3355423141502545,0.3354809747144543
34,0.3355409752406614,0.3357547791512965
35,0.3355262144893028,0.33533957785471497
36,0.33550930860258366,0.3356257827494931
37,0.33551518936544134,0.3354927552988748
38,0.33548542982948754,0.3353408414731842
39,0.3354964498803951,0.3354371869534476
40,0.33550099420545276,0.33563508264184294
41,0.3354928219520014,0.33588947412689624
42,0.33550596510472136,0.3354470749203088
43,0.33550251342735926,0.335612489449475
44,0.3354822880953317,0.335350230757711
45,0.3354946184410908,0.3353300771849327
46,0.33549167870650104,0.3354813767426067
47,0.3354846743888716,0.33586284704598834
48,0.3354917979690365,0.33541820192751165
49,0.3354736298882351,0.3360674146239278
50,0.33546919987936596,0.3357883016169811
51,0.3354738847069461,0.33555359439577714
52,0.3354649510816799,0.33539840408945204
53,0.33549039654283946,0.3354309305215888
54,0.3354963971231732,0.3354572575973814
55,0.3354535902045491,0.3355998523034174
56,0.3354717542642989,0.3353845395462093
57,0.33547511848231054,0.33546685061738746
58,0.33544674191752455,0.3357946936900799
59,0.33546902888666286,0.33544693157335664
60,0.3354434125724227,0.3354219926645975
61,0.3354678062112939,0.33542870104164996
62,0.3354522858302474,0.3355094710739316
63,0.3354529868827392,0.3353881706966656
64,0.3354442340663537,0.33540684750890615
65,0.3354637760195844,0.3353578564842641
