epoch,loss,val_loss
0,0.8908294265607947,0.8896928113684169
1,0.8897396671524469,0.8897104993055831
2,0.8895660087102787,0.8895695838975551
3,0.8895092714038109,0.8894195322954921
4,0.8894654169557011,0.8894549296748253
5,0.8894334857919874,0.8894770022953119
6,0.8894069445893482,0.8893461705733173
7,0.8893606505197595,0.8894379108774455
8,0.8893496760039576,0.8893109527474302
9,0.889322907543869,0.8894641484279491
10,0.8893086796246357,0.8892788325882431
11,0.8893054890135037,0.8893275970856546
12,0.8892986744895077,0.8892696383869086
13,0.8892939762447493,0.8892722791241061
14,0.8892844575223646,0.8893246351045652
15,0.8892882981973192,0.8892468189779049
16,0.7881032827371854,0.7785198986382401
17,0.7785532124491101,0.7784934193265645
18,0.7785528541933343,0.7785217059161468
19,0.7785530841604085,0.7785252072083447
20,0.7785410361520253,0.7785689411328981
21,0.7785416116802637,0.7784967434909148
22,0.7785360017481455,0.7785636265579583
23,0.7785340178713485,0.7785072188223562
24,0.7785295074931164,0.7785048465279136
25,0.7785259181064723,0.7784768221396074
26,0.7785271165723106,0.7784828937379066
27,0.7785330122952944,0.7784740888747033
28,0.7785193636275684,0.7784788149757953
29,0.7785255292630956,0.778717064354615
30,0.7785232636744636,0.7784891219943688
31,0.7785119557659606,0.7785782070668696
32,0.7785075483163936,0.7784691966792786
33,0.778516895776296,0.7786547417676183
34,0.7785048731547696,0.7785258462647943
35,0.7785098563692233,0.7784526539795452
36,0.7785082936043968,0.7786348788081564
37,0.7785052882479809,0.7785071680031107
38,0.7785043093138092,0.7786643119662926
39,0.7784992806486543,0.7788662397536096
40,0.7784974151994181,0.7786210432241927
41,0.7785013843026971,0.7784407613295183
42,0.7785017590142173,0.7785423849711643
43,0.7784952336446501,0.778508461083727
44,0.7784895752429855,0.7784506193165743
45,0.7784997494839396,0.7784752329289174
46,0.7784907203445985,0.7786604875666332
47,0.7784898879502457,0.7784950333848485
48,0.7784990793144647,0.7784617551798856
49,0.7784913077186695,0.7784847864442073
50,0.778488105082641,0.778513795802966
51,0.778490322929815,0.7784519441666141
52,0.7784947581548104,0.778616766332101
53,0.7784880985140689,0.7784533153100878
54,0.778489064666858,0.7784893152139915
55,0.7784829820720601,0.7784437054440047
56,0.7784880858494327,0.7786921238485104
57,0.7784852449084708,0.778496147562789
58,0.7784878976090018,0.7786557701326186
59,0.7784798810757515,0.7786306525578274
60,0.7784840718231787,0.7784457061190168
61,0.7784866914394678,0.7784647193203493
