epoch,loss,val_loss
0,0.8901032478809356,0.8894566191037496
1,0.8894935796525744,0.8893934967915217
2,0.8894094336960051,0.889393810749054
3,0.8893739410771264,0.8893948295116425
4,0.8893525988525814,0.889322900334994
5,0.8893336400588353,0.8892825356721878
6,0.8893218581279119,0.8892903272310893
7,0.8893067228264279,0.8892838732004166
8,0.8892939383718702,0.8893105101585388
9,0.8892896652883954,0.8893023088375728
10,0.8892838425768747,0.8892477513551712
11,0.8892821089294222,0.8893506211042405
12,0.889279294345114,0.889307716846466
13,0.8892759806844923,0.8892583788633347
14,0.8892751759158241,0.8892585341930389
15,0.8892710668643315,0.8892788572311401
16,0.8892714403470358,0.8892599171002706
17,0.8892709942791197,0.8892514396111171
18,0.8892698256307178,0.8892583391269048
19,0.8892668422063191,0.88924862241745
20,0.8892685134278403,0.8892472814718883
21,0.8892668099138472,0.8892500366369883
22,0.8892676540613175,0.8892530376911163
23,0.8892663236724005,0.8892706486384074
24,0.8892656202316285,0.8892467595736185
25,0.8892659203079012,0.8892406410773596
26,0.8892616326014201,0.889238878806432
27,0.8892649901443057,0.8892542103528976
28,0.8892631840970782,0.889241973400116
29,0.8892629150284661,0.8892468646764755
30,0.8892610501315859,0.8892321637868881
31,0.8892620521916283,0.889238195737203
32,0.889260602593422,0.8892459833224614
33,0.8892602961063385,0.8892373461325963
34,0.8892600034740236,0.8892419930299124
35,0.8892600973579619,0.8892460808753967
36,0.8892580567863252,0.8893530763785045
37,0.8892591037485335,0.889318474928538
38,0.8892591783735487,0.8892603297233581
39,0.8892584487729602,0.8892593816916148
40,0.8892574004862044,0.8892481772502263
41,0.8892567536301083,0.8892404079437256
42,0.8892575314309862,0.8892427788178126
43,0.8892571128739251,0.8892382439374924
44,0.8892577850553725,0.8892424279848734
45,0.8892555598020554,0.8892394121090571
46,0.8892548260688782,0.889359403570493
47,0.8892546182341046,0.889238023241361
48,0.8892551570336024,0.8892464164098104
49,0.8892554315461053,0.8892389400402705
50,0.8892559480667114,0.8892508061726888
