epoch,loss,val_loss
0,0.34041007764471903,0.3372561659812927
1,0.3364423856271638,0.33644804314772286
2,0.3360575803584523,0.3359377602338791
3,0.3359179990755187,0.33614166589577993
4,0.33582133099767897,0.3359819989800453
5,0.3357610896229744,0.33562033814191816
6,0.33572919713126287,0.3357678965727488
7,0.3356886571513282,0.3355219987630844
8,0.33565292179584505,0.3355678077141444
9,0.3356369920174281,0.33598669290542604
10,0.33562831974691815,0.33547661954164504
11,0.3355958709915479,0.3354401912689209
12,0.3355725869933764,0.33569543753067654
13,0.3355772582888603,0.33557426851987837
14,0.3355651564134492,0.33547654714186986
15,0.33555254687865577,0.33545223174492517
16,0.3355512358811167,0.3354834381341934
17,0.33553283423847624,0.3356818284789721
18,0.3355263377428055,0.3354621696074804
19,0.33552007349332175,0.3354171026945114
20,0.33551693563991125,0.3358641602595647
21,0.33550877975755267,0.33537728957335156
22,0.33551315201653376,0.3354634542266528
23,0.33550755350457295,0.33544274973869326
24,0.3355074710978402,0.3354231682618459
25,0.3355147042936749,0.33541652468840283
26,0.3355036144124137,0.335418304781119
27,0.33550977628098594,0.33550513329108556
28,0.33549146080679365,0.33539555782079694
29,0.3354999049504598,0.3358608362277349
30,0.33549223725001015,0.33539959571758904
31,0.3354940721458859,0.3359313946167628
32,0.33549177718824813,0.3373607523639997
33,0.33549575599034626,0.33548191624879836
34,0.33548861397637264,0.33535224944353104
35,0.3354931203259362,0.3355215527613958
36,0.33549567253722085,0.33548212840159736
37,0.33548624551296236,0.33544654975334803
38,0.3354883640607198,0.3355220510959625
39,0.3354833733373218,0.3353954755862554
40,0.3354804411066903,0.33538491533199943
41,0.33548758292198183,0.3353753041625023
42,0.3354857095943557,0.33537640035152433
43,0.33547715116209453,0.33545835292339327
44,0.33548366496960325,0.3353844589591026
45,0.33548240585459604,0.3354976428349813
46,0.3354851770732138,0.33536231152216595
47,0.3354821485877037,0.33563933364550275
48,0.3354776816897922,0.335407533009847
49,0.3354870220356517,0.33566111292441686
50,0.3354757715463638,0.3353515236377716
51,0.3354781911505593,0.3354599558313688
52,0.33547454973724156,0.3354260364770889
53,0.335480328977108,0.3353420517841975
54,0.33547070691982905,0.3353650995691617
55,0.335476911286513,0.33561492572228113
56,0.33548094950781926,0.3353989998896917
57,0.3354741085569064,0.3353803623517354
58,0.3354746687743399,0.33543947849671046
59,0.3354732470446163,0.3354390230377515
60,0.3354815632899602,0.33563687988122304
61,0.33548033044073317,0.335435918033123
62,0.3354756351974275,0.33533388330539066
63,0.3354793278111352,0.33538900601863864
64,0.33546964365906184,0.33535325384140013
65,0.3354709686040878,0.3353223662575086
66,0.3354661425087187,0.33543945191303887
67,0.3354615653951963,0.33535460035006204
68,0.33545623564720156,0.33540061773856483
69,0.33546043740378484,0.33554788903395333
70,0.3354741760889689,0.3353444864749908
71,0.3354619863761796,0.33580611902475355
72,0.33546634329689873,0.33594566738605497
73,0.3354681069718467,0.3353946133057276
74,0.33547709058390723,0.33534278136491774
75,0.3354643144475089,0.335430283387502
76,0.3354655833774143,0.33545083757241567
77,0.335470402167903,0.3353594532608986
78,0.3354679996702406,0.3353779351512591
79,0.3354734437995487,0.3353400572737058
80,0.3354715750482347,0.33539948268731434
81,0.3354687778022554,0.3353992489973704
82,0.3354599108762211,0.3355868760943413
83,0.33546928970019024,0.3353750081459681
84,0.33547715323501165,0.33536230407158535
85,0.3354569226768282,0.3353650385936101
