epoch,loss,val_loss
0,0.8912447616474701,0.8896828569786128
1,0.8897268473356578,0.8899255440785334
2,0.8895888028805433,0.889621475346331
3,0.8895089004762994,0.8899899431257035
4,0.8240521833028642,0.7791158414951921
5,0.7790511784643013,0.7789089954816378
6,0.7788892448144874,0.7787963608358397
7,0.7787731713992825,0.7788764624678467
8,0.7787338953540014,0.7785833222102883
9,0.7787004248820553,0.778852687254733
10,0.7786758245784883,0.7786153593666796
11,0.7786565087057754,0.7786064759081706
12,0.7786399628922922,0.7786038948347788
13,0.7786361726644762,0.7785451013456207
14,0.7786260380518825,0.7788171552546859
15,0.7786151838434189,0.7787029872461229
16,0.7786014292802451,0.7786115979734188
17,0.7786047194170376,0.7787072904648319
18,0.7786003995739375,0.7786156980334678
19,0.778590180462071,0.7785335705238892
20,0.7785887591451774,0.7786488390146354
21,0.7785833811884899,0.7785943294281403
22,0.77857867707485,0.7786041248820852
23,0.7785789313638629,0.7785845755347542
24,0.7785803658541868,0.7785465398734024
25,0.7785716515306434,0.7785418025613127
26,0.7785711643282832,0.7785251867386602
27,0.7785714969376779,0.7786612297405971
28,0.7785625245355913,0.7785088303663003
29,0.7785696879519728,0.7785717233534782
30,0.7785608011748167,0.7785155408435661
31,0.7785628971188531,0.7785171715852345
32,0.7785585463205582,0.7785907133045622
33,0.7785498593188672,0.7785019337391439
34,0.7785548918918768,0.7785414527722683
35,0.7785497558135687,0.77854504073524
36,0.7785552563659851,0.7786625320503197
37,0.7785515606516153,0.7785401016547722
38,0.7785472847454551,0.7785432388113983
39,0.7785490350762645,0.7784978993181555
40,0.7785465838030048,0.7787039756183293
41,0.7785400339797646,0.7785809459224824
42,0.7785392657621045,0.7785322171286969
43,0.7785401162151006,0.7784854346410216
44,0.7785398615695374,0.778678083242317
45,0.7785429054562647,0.7784854781243109
46,0.7785332637074509,0.7785422856399499
47,0.7785330059404947,0.778508822586637
48,0.7785346568986763,0.7784868895268026
49,0.7785330095919802,0.7784891362225743
50,0.7785292002808333,0.7791479862061683
51,0.7785342866140599,0.7784771374378252
52,0.7785214373211288,0.7785235682137255
53,0.7785280966976129,0.7785316391854961
54,0.7785236238581354,0.7785511171551556
55,0.7785220273338299,0.778575541718722
56,0.7785248075973407,0.7784947981017991
57,0.7785203597676601,0.7785132428848418
58,0.778517558577327,0.7785451013160403
59,0.7785182310580684,0.7786278225352096
60,0.7785285059905709,0.7784859685093238
61,0.7785178806629651,0.7784772980006102
62,0.7785151118051208,0.7784856269140693
63,0.7785212143099414,0.7785247327967849
64,0.7785192644521477,0.7784903630133598
65,0.7785179774332488,0.7784981817524723
66,0.7785165738436906,0.7785184592822053
67,0.7785253226753105,0.7785266202377622
68,0.7785170935686471,0.7785134773100576
69,0.7785180380949233,0.7785180912715921
70,0.7785179262966743,0.7784760261291902
71,0.7785192966063612,0.778478302109626
72,0.7785167496679661,0.7784656496852562
73,0.7785133400592044,0.778482714716909
74,0.7785175306283564,0.7784944778340626
75,0.7785138144344298,0.778551074914246
76,0.7785139217576567,0.7785305490268963
77,0.7785183404811558,0.7785581377244765
78,0.7785149113512634,0.7784942931631954
79,0.7785093207785659,0.778552187613163
80,0.7785122660554624,0.7784754577109003
81,0.7785113771620812,0.7784682149922582
82,0.7785135923832462,0.7784737729552957
83,0.778507795313479,0.7784775451750081
84,0.7785151379957934,0.7784795467078538
85,0.7785052921234937,0.7784717940219282
86,0.7785121882438748,0.778486394053949
87,0.7785036241565992,0.7784963200760834
88,0.7785075706228763,0.7785756057308566
89,0.7785103167782462,0.778468174348694
90,0.7785083052049037,0.7785200360099376
91,0.7785102448805034,0.7784608137814638
92,0.7785074376532684,0.7785209939438416
93,0.7785065222308072,0.7784583013643402
94,0.7785045184479316,0.778573030159432
95,0.7785139974670172,0.7785138412681466
96,0.7785077589303576,0.7784819161625713
97,0.7785049095765434,0.7785579268453139
98,0.7785094325894362,0.7785029456278231
99,0.7785013398254099,0.7784671129127294
100,0.7785149191732835,0.7784816278417412
101,0.7784987207644559,0.778488058014484
102,0.7785094430366764,0.7785803067477111
103,0.7785049017616228,0.7785681579604042
104,0.7785037784529655,0.7786060799735948
105,0.7785077709765525,0.7784777021881368
106,0.7785058361901097,0.7785014450697981
107,0.7785018667429017,0.7785195812102287
108,0.7784984622023609,0.7784654601631922
109,0.7785040222781727,0.7784776813043258
110,0.7785063918659098,0.7784763862713987
111,0.778501321816463,0.7785226710676851
112,0.7785060184677886,0.778462190071939
113,0.7785030825329841,0.7785210396752464
