epoch,loss,val_loss
0,0.09238574608427405,0.08118686479685029
1,0.07169916362258216,0.06571653159912999
2,0.0652990416717806,0.06279824138907877
3,0.06172924579263938,0.05911869949871494
4,0.05990808959742948,0.059275922881758245
5,0.0589289594554997,0.05887171323630709
6,0.05815191589982835,0.056817012627796266
7,0.057704230878661424,0.05742318254916307
8,0.05739434818816449,0.056787837599924125
9,0.05703296709774519,0.05852940008229121
10,0.05688413202668339,0.05568816634287905
11,0.05656374300976751,0.05535198119896517
12,0.05634771422619285,0.05580359858185718
13,0.056229216970534,0.05698013718311603
14,0.056199881599216954,0.05499925779885897
15,0.05595920789311957,0.05559218580610403
16,0.055827035380334136,0.0553809514782269
17,0.05565357766446481,0.055031019852267896
18,0.055622653756565534,0.055332174592145324
19,0.055361385561256735,0.05549780377383268
20,0.05532084270019857,0.0552868553670701
21,0.05502671942840946,0.05552150279135621
22,0.05504514198828204,0.054481587756804145
23,0.054997751506907035,0.053949648348924246
24,0.0548935979042188,0.05540494522075203
25,0.05482432113665339,0.05437567099078417
26,0.05482662959272224,0.05403778858612252
27,0.054720194905119146,0.05422196185618417
28,0.05460627768701207,0.054341402333738194
29,0.05455545939232363,0.05421828162248614
30,0.05458862954797173,0.05413667636902693
31,0.0544026784991368,0.05489570951417421
32,0.05431349952419193,0.05500023659161539
33,0.0542651466525656,0.05448087873884821
34,0.054350666368563075,0.05394921835428728
35,0.05413073145817556,0.05430949961133394
36,0.05424054609598196,0.054259122087257375
37,0.05407077123421686,0.05420290286798335
38,0.05417658344691716,0.05383072202244112
39,0.05395321650498227,0.053443283160626145
40,0.053903748454484826,0.05381697270251977
41,0.053866858863615294,0.05325052725802876
42,0.05385562440672345,0.05383455278929646
43,0.05376419076733187,0.053311270849765384
44,0.05379099801336174,0.05327427888441618
45,0.0536833429529791,0.053626292820086255
46,0.0536969918503773,0.053392418668080796
47,0.053716491397512486,0.053369393464057675
48,0.05358880599770503,0.0528445359088351
49,0.05360389544680734,0.053546761664060444
50,0.05359579871965912,0.05306505345861906
51,0.05349303151737186,0.05268991779415838
52,0.05337598702033572,0.053217170681462395
53,0.05332089679545211,0.05368308957582964
54,0.05339878771046223,0.053052614910283104
55,0.05334113227496513,0.052736523982239124
56,0.053360124298318705,0.05357181496049275
57,0.05322144784476669,0.0530568562429537
58,0.053203834334062464,0.0532633483909052
59,0.05318391298374627,0.052805191821998755
60,0.053072911747922745,0.052912575692382106
61,0.053100171009794556,0.05271203711111256
62,0.05297470864010732,0.0530056442963722
63,0.053056750863182525,0.052547845359031974
64,0.052982244789134963,0.0531039416124448
65,0.05287941436833461,0.053662918898145257
66,0.05288549973879683,0.05258809002694066
67,0.052857906082141075,0.052809772180120645
68,0.05286725011044372,0.05249607459024963
69,0.05287437813745485,0.05229511243422925
70,0.05270206186232103,0.05356613981812527
71,0.05258600847925935,0.052947533840577
72,0.052619614531982634,0.05186312204000376
73,0.05272337928232126,0.052935343289345724
74,0.05275081264359728,0.05312633540841841
75,0.05256679179222194,0.053146274524646125
76,0.052515781454482525,0.052455975312194224
77,0.05269862596595936,0.05262423413563011
78,0.052438687613132286,0.05215414182997075
79,0.05246375513441852,0.05217289236321047
80,0.052378774754298967,0.052759441104775325
81,0.05240940370632036,0.05216492997949236
82,0.05230889346616369,0.05337101207403628
83,0.05223575238943979,0.05261407576445906
84,0.05220320030008178,0.052149545503017626
85,0.05229622344836027,0.052655646169821615
86,0.05231454158109003,0.052261383010642995
87,0.05214944025399185,0.05148040483111779
88,0.05212106395721021,0.05208585687610263
89,0.05225386983506562,0.05210762572088845
90,0.05213287400133003,0.05172747590442745
91,0.05218271922952028,0.0521255226995306
92,0.05207008358029834,0.05185650550106323
93,0.052106142487093,0.05239006794859694
94,0.052024449330956256,0.053297192098632935
95,0.05204830355793851,0.052209730594241
96,0.0520843998280721,0.0518977223107448
97,0.0519173626101717,0.052313409926873576
98,0.051961771643427926,0.05178045438921481
99,0.05193735379029307,0.052380726137025185
100,0.05206863010002111,0.05143921801048532
101,0.05194127233136308,0.05181614909293338
102,0.05183944392002897,0.05164063774030794
103,0.05183654920452802,0.052307927616809496
104,0.051837810649198846,0.051673666907303385
105,0.05182035462282357,0.05245871638911533
106,0.051882639741019344,0.05190574128559742
107,0.051861805850768,0.05196850629842311
108,0.051880865577714395,0.05190880991167229
109,0.052010513883864455,0.05211862698382243
110,0.051735397931176756,0.052988467385839885
111,0.05189174458821722,0.05174787046373926
112,0.05171277817325936,0.051800735993657455
113,0.051752572233859824,0.05181950617664801
114,0.051764832168447364,0.051965051621346556
115,0.051735344974208765,0.05213665914520732
116,0.05178347004416818,0.051735415636901524
117,0.0517689070834844,0.051832683184750324
118,0.05165007889555352,0.05202035305295925
119,0.051682880248152305,0.05176207658005116
120,0.05157662640300446,0.053036808912126955
