epoch,loss,val_loss
0,0.769120091056387,0.7652208040429108
1,0.7645453054355503,0.7639650287758328
2,0.764202785889355,0.7637651120462725
3,0.7640505016904731,0.7638049519387428
4,0.764050879326968,0.7638890945290218
5,0.7639309190461865,0.7635524062601567
6,0.7637599709276578,0.7634516472260354
7,0.7637473624805301,0.7637352539942814
8,0.7636778816464223,0.7634243984080425
9,0.7636451066014399,0.7632982001411116
10,0.7636087095288929,0.766329143183403
11,0.763597641853274,0.7642598594980263
12,0.7635183816300928,0.7635971937818503
13,0.7635228000285947,0.7646523591306605
14,0.7635168937999974,0.7639788813685661
15,0.7634976849673221,0.7631673699573015
16,0.7634402513007067,0.7632653286084348
17,0.7634711193930479,0.7632909415969186
18,0.7634707496132814,0.7632610343821883
19,0.7634808814286905,0.7636283544985295
20,0.7634313527479237,0.7631844256711066
21,0.7634065272323387,0.7630837002699783
22,0.7633695133900393,0.7633278037419094
23,0.7633868524467561,0.763680277657568
24,0.7633751836391142,0.7634146497208191
25,0.7634081596309714,0.7631193051858812
26,0.7633639420458171,0.7632337798255845
27,0.7633907688878669,0.7632366071859601
28,0.763364546244804,0.7632095231015984
29,0.7633889550595457,0.7637957225662307
30,0.763366296508563,0.7635984881344268
31,0.7634147957701556,0.7631372476629821
32,0.7633317307376699,0.7633330263511715
33,0.7633388942510773,0.7632653719438217
34,0.7633439403430239,0.7638495071058533
35,0.7633555407766185,0.7630192408490714
36,0.7633455079638768,0.7632210979982286
37,0.7633231941079249,0.7632180813228522
38,0.7633297827004916,0.7631091766854374
39,0.7633425649209417,0.7631144434879199
40,0.7632923658159086,0.7632178785783186
41,0.7633497423713651,0.7633672290936889
42,0.7633140368975988,0.7633533236110772
43,0.7633205729510545,0.763163906794328
44,0.7633138733963968,0.7637362620966606
45,0.76329366869262,0.7633472152146749
46,0.7633464101939758,0.7630929278972427
47,0.7632945430889173,0.7630859245733351
48,0.7632933445094878,0.7630564642899089
49,0.7632666901628589,0.7632226279592396
50,0.763247848565979,0.7630633367498223
51,0.7632985374694059,0.7633020540916594
52,0.7632811005940529,0.7632922423980372
53,0.7632802156290359,0.7638671937710594
54,0.7632505489921916,0.7633737081333662
55,0.763310881164504,0.763144751429262
