epoch,loss,val_loss
0,0.7800739030970467,0.7788621963262558
1,0.6851454240481059,0.6679194339116414
2,0.6679753218491872,0.6680455704132716
3,0.6679272927310732,0.6678464092413584
4,0.6678989911476771,0.6679228825966517
5,0.6678758297761281,0.6679573126633962
6,0.6678605731593238,0.6679715385039647
7,0.667849152021938,0.6678158973058065
8,0.667835294259919,0.6677700762748718
9,0.6678223963048723,0.6677507172425587
10,0.6678150996632046,0.6678192131121954
11,0.6678054237498178,0.667743888815244
12,0.6677953831487232,0.667730681180954
13,0.6677931158012814,0.6677102946837743
14,0.6677865015003416,0.6677153561512629
15,0.6677808612452613,0.6677122484445572
16,0.6677731735838784,0.6677796269257863
17,0.667774900648329,0.6677645084063212
18,0.6677681342230902,0.6677071663538615
19,0.6677651915550232,0.6676970636049906
20,0.6677637849781248,0.667745050350825
21,0.667762422243754,0.6677230126063028
22,0.6677569046815236,0.6676957828998565
23,0.6677522047625648,0.6678083138465881
24,0.6677573343118032,0.6678360778888066
25,0.6677531297869153,0.6677164045969645
26,0.6677494755453534,0.6676941268841425
27,0.6677500294711854,0.6676887563467025
28,0.6677414387332069,0.6676915686130523
29,0.6677413901223077,0.6676852322816849
30,0.6677437434328927,0.6677377698421478
31,0.6677423246304194,0.667698190331459
32,0.6677385731803046,0.6676702406009039
33,0.6677406696346071,0.6677308027744293
34,0.6677427499426736,0.6677291679382324
35,0.6677384332550896,0.6678192842801411
36,0.667733346886105,0.6676871418555578
37,0.6677397876183192,0.6676925127108891
38,0.6677400367789799,0.6676981422503789
39,0.6677343165477116,0.6677058362563452
40,0.6677352537049187,0.6676909479697546
41,0.6677376295725505,0.6677841433684031
42,0.6677297548055648,0.6676772169272105
43,0.6677348096503152,0.6677752086718877
44,0.6677322178416782,0.6676986145575842
45,0.667730742600229,0.6676799569129944
46,0.66772872127427,0.6678394450743993
47,0.6677277261018753,0.6679775104522705
48,0.6677317068444358,0.6678443293174108
49,0.6677272623247571,0.6676702232758204
50,0.6677291149165895,0.6677605927387873
51,0.6677314332591163,0.6676586407025655
52,0.6677314485973782,0.6677748529911042
53,0.6677299334870445,0.6677286366224289
54,0.6677327891985575,0.6676713307698567
55,0.6677279315259722,0.6676982396841049
56,0.6677326413922839,0.6676847176154455
57,0.6677267905208799,0.667779494603475
58,0.6677250972986222,0.6677022596597671
59,0.6677306145297156,0.667703772465388
60,0.6677246438794666,0.6676655249595642
61,0.667725264509519,0.667719448685646
62,0.6677275955147214,0.6676927495797476
63,0.6677238411506017,0.6676645445426305
64,0.6677279067436854,0.6676891903877258
65,0.6677247149546941,0.6676698783238729
66,0.6677261493603388,0.6677810164690018
67,0.6677244091828665,0.6677261566321055
68,0.6677209331327014,0.6676916315158208
69,0.6677259183592267,0.6676611989339193
70,0.6677250367535486,0.6676897692282995
71,0.6677215085956786,0.6676718776226044
