epoch,loss,val_loss
0,0.862337927177587,0.45271815463554027
1,0.4592018092787543,0.4428868171318557
2,0.44160112877224766,0.44174061819564464
3,0.44139980199417095,0.44179517123126244
4,0.4414103556356997,0.4417800806289495
5,0.4414707483093252,0.44178754299185996
6,0.44145560826750074,0.4418341693027999
7,0.44141873209051385,0.44177451822184777
8,0.4414870729742124,0.44188287184219954
9,0.4414412494007623,0.44221883734991385
10,0.44148085884345595,0.4418385738088179
11,0.4415924669236176,0.4420271795387416
12,0.4414963684494797,0.4418297754239666
13,0.44159609264181565,0.44173511192780135
14,0.4415076197117798,0.4420326684796533
15,0.44158595623280034,0.4423384652581326
16,0.44168243497533083,0.4427839854890986
17,0.44162488538165423,0.4418369004892748
18,0.4415952035006935,0.44189491313557294
19,0.4416488354366263,0.44185500967410185
20,0.4416149407240155,0.44217015121334285
21,0.44189079163610473,0.4427603760430979
22,0.44154414442158485,0.4418271135452182
23,0.44151917677517083,0.4417306311832842
24,0.44155195355415344,0.44178508187449256
25,0.44173531638559443,0.44229758894720744
26,0.4416481684652718,0.4418355649293855
27,0.44243029383725896,0.44743002385132075
28,0.4433711277422055,0.4424841956112736
29,0.44209323596276673,0.44173043180805766
30,0.44176603857552976,0.44213178846263146
31,0.44153620653066217,0.44177920434826107
32,0.44161681257169066,0.44204526215560674
33,0.44153374641440635,0.44295000336891
34,0.4418362542332297,0.44271272028139397
35,0.4423833470165884,0.44192459740379986
36,0.4418215127108325,0.44239967460780183
37,0.44171440763066905,0.44265837863434193
38,0.4421810848152299,0.44172310089880185
39,0.4421606650648191,0.44901552773261255
40,0.44478571230126906,0.44173855328744693
41,0.44145785915143115,0.44176615347233855
42,0.4415400632746152,0.44172119262606596
43,0.44170463993875864,0.44191997665767524
44,0.4414388311001681,0.4417216022347295
45,0.44150858000883453,0.44172020129455153
46,0.44163146545720655,0.4418646882670794
47,0.44184435022277735,0.44174184009086254
48,0.4415308534328944,0.44182817972907723
49,0.4415935561330436,0.4357227435869764
50,0.42465908274786107,0.4127307675143545
51,0.41228631847280556,0.4144096346788628
52,0.41224446746422033,0.4130375343699788
53,0.4121244336437501,0.41418485609135886
54,0.41163958512843424,0.4119273468043453
55,0.4118539815725282,0.4124916200489961
56,0.4116693440949886,0.41219478060108744
57,0.4119892055674117,0.4122042482675508
58,0.411856728930806,0.41210592324419537
59,0.41192243696799263,0.41207105244777
60,0.4116189375866291,0.41200879608937935
61,0.41159767289802396,0.41204940718273786
62,0.41179629898502534,0.4125639669192854
63,0.41175616557591954,0.4119131202383559
64,0.4115442839241767,0.41184000959692074
65,0.4117274355210691,0.4118187549964402
66,0.41185729155552786,0.4119906150555426
67,0.41178328707544687,0.4122214007747266
68,0.4120757383431575,0.41222271900768426
69,0.4117522744861376,0.4118129634117895
70,0.411652039957909,0.41189174203909645
71,0.41161665559123034,0.4122519088807956
72,0.41218260215542424,0.41556748239568964
73,0.4130705833743093,0.4118070177329603
74,0.41187526597533114,0.41187665236088655
75,0.4115789112194564,0.4119003368902576
76,0.41171301489344553,0.41186986228292305
77,0.41030001170567454,0.40555913342061894
78,0.40188530865257716,0.4018488593341768
79,0.4015951821200299,0.4027740188347277
80,0.40167132366535274,0.40241450787514677
81,0.4017768686285931,0.40190892002379247
82,0.4015807363105991,0.4020141882951869
83,0.40201817995818084,0.40216344179109087
84,0.4017843017282412,0.40192932814590693
85,0.40185554891593694,0.4018759258495745
86,0.4017344717061489,0.4020268988701724
87,0.40184762596467977,0.4027129014333089
88,0.4041261106960533,0.40246357358703316
89,0.40163167702751257,0.40289370357528215
90,0.4018281563461905,0.4022718466991602
91,0.4019303388065762,0.4027390856613485
92,0.40212868327318235,0.40210642971733745
93,0.4016995521632892,0.4019450030123541
94,0.40178808662318444,0.4018615627473639
95,0.40172664001006486,0.4020395357479421
96,0.4018620999592527,0.40186349458472675
97,0.4017202798710313,0.40190720142320147
98,0.40172744143840877,0.4021095910737681
