epoch,loss,val_loss
0,0.5628839465318234,0.5585228323640657
1,0.5587229590945668,0.5585979622587672
2,0.5579306052978752,0.5577273436574723
3,0.5576501843808158,0.5574716027853802
4,0.5575104750186712,0.5573201256117809
5,0.5574394370929889,0.5573607011409315
6,0.5573813826643618,0.5572333579027919
7,0.5573462954591214,0.5573113063724697
8,0.5572838756791088,0.5571100878952159
9,0.5572588291898793,0.5571376658550858
10,0.5572439498705485,0.5570830987345787
11,0.5572213469201188,0.5571140658470892
12,0.5571940005810838,0.5577693521828568
13,0.5571613356210157,0.5571873433832495
14,0.5571556786889379,0.557084135796237
15,0.5571544775663264,0.5570700928531864
16,0.5571328686758485,0.557058469237524
17,0.557107564924513,0.5570712377060731
18,0.5571187328412596,0.557005060813563
19,0.5571026363285211,0.5570411516182476
20,0.5571024443324794,0.5569994059449094
21,0.5570817981144808,0.5570145006511111
22,0.5570832746422463,0.5569692420604507
23,0.55707347071194,0.5573285871640624
24,0.5570699097633399,0.5569657250906043
25,0.5570681516176099,0.5570016750035156
26,0.5570569288836167,0.5569689508703152
27,0.5570660854778681,0.5572160259074076
28,0.5570541261968766,0.5571002486917577
29,0.5570517485883347,0.5573579216713349
30,0.5570803811243097,0.5570235526591317
31,0.557035242072693,0.5571985424008618
32,0.5570415586883528,0.5570992365072738
33,0.5570444603895927,0.5569643756887753
34,0.5570352162882668,0.5569349210552187
35,0.5570222546196645,0.5569921736681728
36,0.557045349071568,0.5570536691852598
37,0.5570343857547595,0.5573070817490665
38,0.5570167973052862,0.556944262744771
39,0.5570213218319402,0.5569469258743835
40,0.5570206748658457,0.5569382669020527
41,0.5570113452957772,0.5570141633154441
42,0.5569942557572407,0.5569525695616199
43,0.5570297366516291,0.5570201334231545
44,0.5570057708159631,0.5569383885665212
45,0.5570068524610835,0.5571330891353616
46,0.5570065302358228,0.5576528853281556
47,0.5570048586521511,0.556899693290294
48,0.556991782026832,0.5574428603607727
49,0.5569861939768069,0.5569624819471581
50,0.5569991859450878,0.5569504624560808
51,0.5569842879549831,0.5569375623248647
52,0.5570019749906225,0.5570582278017371
53,0.5569726134307035,0.5569771652481987
54,0.5570036070753016,0.5569692507275281
55,0.5569943424139584,0.5569305758026635
56,0.5569786154940342,0.5570244768713012
57,0.5569802699159603,0.5571896855943552
58,0.5569951630926355,0.556935592650184
59,0.556979477175999,0.5569664435706126
60,0.556979859091098,0.5570023014882658
61,0.5569969981609438,0.5569460937166333
62,0.556972419101308,0.5569564048468919
63,0.5569925283269016,0.5569740443312501
64,0.5569870442917582,0.5569234739166335
65,0.5569734714248967,0.5569409792535654
66,0.5569858348793515,0.5569552029332807
67,0.5569618167159806,0.5569360056526903
