epoch,loss,val_loss
0,0.5618910868372562,0.5582442456676114
1,0.558350697893969,0.5581330696938943
2,0.5578538502501599,0.5574918137294779
3,0.5576214038157145,0.5581426663966688
4,0.5575046519175746,0.5572159556242136
5,0.5573864125017154,0.5572249866301013
6,0.557349761316853,0.5579271076630717
7,0.5573166065150056,0.5571600853361504
8,0.5572736781551025,0.5573279439959278
9,0.5572661547617221,0.5570771803039475
10,0.5571927020042747,0.5570945416727374
11,0.557198995233546,0.5573585735065469
12,0.5572013492805794,0.557181901701035
13,0.5571394411329351,0.5578419925557176
14,0.5571449596390805,0.5572084886264564
15,0.5571545478012195,0.5570470270684575
16,0.5571162568208827,0.5569814045730951
17,0.5571187663814443,0.557002891944005
18,0.5570933731304543,0.557025406348794
19,0.5570911885481638,0.5570085570770813
20,0.5570982831045797,0.5572806308642214
21,0.55708775136828,0.5575495671101894
22,0.5570784647538491,0.5572615945013818
23,0.5570778099744118,0.5569587459931007
24,0.5570746672143849,0.556969943058402
25,0.5570887369499068,0.5569679791814932
26,0.5570583349548283,0.5569330175816273
27,0.5570560199058816,0.5569510764874537
28,0.5570566098704642,0.5569891066172579
29,0.5570600080372735,0.5569727863922308
30,0.5570527596443782,0.5569355316552571
31,0.5570547445987144,0.5569740276774461
32,0.5570630995289916,0.5571176179585327
33,0.5570499682418248,0.5569622753571636
34,0.5570317185208584,0.5569754213316565
35,0.557051215835881,0.5570323621664686
36,0.5570377388660706,0.5570041949044978
37,0.5570384693319925,0.5569404010145599
38,0.5570400387363859,0.5571546538000367
39,0.557042792607284,0.5569578755582236
40,0.5570397839835419,0.5569853973447833
41,0.5570382054713388,0.5570792460559911
42,0.5570238370933628,0.556953770587817
43,0.5570245653056027,0.5569868017367039
44,0.5570158301214987,0.5572142390104441
45,0.5570325586938458,0.5569388973210053
46,0.5570352325720466,0.5572902762268672
