epoch,loss,val_loss
0,0.29617144318227473,0.2860807049363186
1,0.28646876313607456,0.2848929467479289
2,0.2856161136203975,0.2874410955101326
3,0.17657136035482926,0.047525899836946064
4,0.04626919737666006,0.04889186298839803
5,0.045870468577746244,0.04535512082075363
6,0.04537431344398691,0.04495193528995916
7,0.04538964120091192,0.04433977551961655
8,0.0448261234927094,0.043629624568868805
9,0.04494811583201064,0.04932428535730312
10,0.04474098662711455,0.04325962070717705
11,0.0445914167815514,0.04781114894425307
12,0.044383541205246034,0.04658295988444951
13,0.044184467392162946,0.043022615813809645
14,0.04414810968677563,0.04406350140757951
15,0.04410976908934468,0.046144197019690615
16,0.044024504455945884,0.0432437029632534
17,0.043775197050188494,0.04613066304743142
18,0.04371573737792904,0.042944307776893634
19,0.04360702883102775,0.04300455225090827
20,0.04370302051563915,0.042988077776677555
21,0.043522591397918205,0.042602180565705076
22,0.04346935129573395,0.04264424699300868
23,0.043517164556169,0.043658692953604326
24,0.043607459825388,0.04295178516848803
25,0.04336181096939684,0.04358621784312554
26,0.043449531255432126,0.042330655270711365
27,0.0431999217507483,0.0439785259181897
28,0.04337027585475202,0.04227692264111403
29,0.04314990277975347,0.0428062496831636
30,0.04311827163899231,0.04241453464288569
31,0.04321376329341847,0.045095012477476604
32,0.0434212796429005,0.04347457373815198
33,0.043136551777764334,0.04451141937106626
34,0.04309450654081669,0.043944729502236574
35,0.04325524178513766,0.04241448498467358
36,0.04313929033183813,0.043985209303443545
37,0.04307767444897212,0.04208068643551015
38,0.043186201941839655,0.04499683642838492
39,0.04308814376505273,0.04212968768759933
40,0.04309871581552487,0.04234461818750088
41,0.04306048371332217,0.04340540288251919
42,0.04301203789690832,0.04427398620704859
43,0.04309227398621269,0.04226987560836612
44,0.042976620303539464,0.04233806767216687
45,0.04305665842221758,0.04253219896303513
46,0.043039939011024875,0.04232462089943235
47,0.04285326110340664,0.042738423531611565
48,0.04291039605386193,0.0525478870656443
49,0.0429291075593704,0.042518363917066204
50,0.042964260336198254,0.04278335210222464
51,0.04294284673043605,0.04375176751621012
52,0.04288733881438473,0.04442151201052346
53,0.04303643604494312,0.04340802904948703
54,0.04279746850809654,0.04238659311317037
55,0.042827347190381504,0.04369510199606567
56,0.042699521630353614,0.042200858465791045
57,0.042887908976274466,0.04296640455353053
