epoch,loss,val_loss
0,0.7199781788274074,0.7175680188919711
1,0.7168407100082285,0.7171283490012952
2,0.7165982596936807,0.7169844311165159
3,0.7163820191011906,0.716540500721328
4,0.7162899537815427,0.7161136764450641
5,0.7162240798728844,0.716281780800216
6,0.7161669608548352,0.7160206678487527
7,0.7161197584606612,0.7170703361702911
8,0.7161032585656542,0.7164690478859705
9,0.7160845767411858,0.7168736989977342
10,0.7160627914356,0.716769042914322
11,0.7160575475221156,0.7164242289793994
12,0.7160379148481244,0.7162731897742222
13,0.7160265198245945,0.7165724426877705
14,0.7159976640384172,0.715895875216122
15,0.7160081230849905,0.715861871609321
16,0.7159775451394239,0.7168547104665127
17,0.7159829030606649,0.7158450970282921
18,0.7159589863563722,0.7158788764447196
19,0.7159956233470607,0.7160526952435894
20,0.7159504827185764,0.7160157960934319
21,0.715963927838661,0.7163655073707808
22,0.7159370929631852,0.7161598288095914
23,0.7159374331887158,0.7159881776083196
24,0.7159410162047837,0.7158233925071603
25,0.7159186231560062,0.7158244689404225
26,0.7159299722523828,0.7161739236959452
27,0.7159298781325617,0.7159140438654878
28,0.7159061642430891,0.7158095865924069
29,0.7159328480035426,0.7158461198321643
30,0.7159044810052702,0.7157933703131475
31,0.715917391959321,0.7162155432973251
32,0.7159091999299476,0.7159654841825329
33,0.7158751315759506,0.7163657888289421
34,0.7158744060173287,0.7157809124691019
35,0.7158811895727197,0.715901914128003
36,0.715881940038591,0.7159006490305103
37,0.7158823485364101,0.7157907397812117
38,0.715878060349773,0.7159127404612879
39,0.7158770427519776,0.7157888937528908
40,0.7158539440837877,0.7158023619770116
41,0.7158806890249647,0.7159058885006396
42,0.71585597865226,0.7157955802699768
43,0.715854421563052,0.7163222902761796
44,0.7158524306278207,0.7159162007845365
45,0.7158590502110793,0.7158066860203708
46,0.7158464829928444,0.715805428051771
47,0.7158481495643019,0.7159008986305067
48,0.7158591364252644,0.7158161537523009
49,0.7158492366192057,0.7161145857782577
50,0.7158319125920319,0.7159298078002172
51,0.7158548245643166,0.7157886334151843
52,0.7158374474624175,0.715989813585731
53,0.715848102909849,0.7160501974687978
54,0.7158450873814941,0.715796324603315
