epoch,loss,val_loss
0,0.3493452263489602,0.34220347857061156
1,0.34164484100045134,0.3440163603787387
2,0.3407307508002487,0.34041830583778265
3,0.34030959268110456,0.3398196639553193
4,0.3398456463148989,0.3393016377098803
5,0.33966506298773075,0.3395535181533018
6,0.3395336712458689,0.3390261208153244
7,0.33938411173637045,0.3409354406018411
8,0.33930597647168087,0.3389001159307087
9,0.3391855982784161,0.33959248382459506
10,0.33909724341988606,0.339060822535981
11,0.33905534187208025,0.3386417700398353
12,0.3389801575827817,0.33975303164191045
13,0.3389412679315659,0.3388158060776684
14,0.33889072384042435,0.33916697014058494
15,0.3388577071367512,0.3397960070345005
16,0.33881512522623297,0.33911641064116144
17,0.3387624578881347,0.33880592652645064
18,0.3388014302365453,0.3390206217322101
19,0.33871686330166423,0.3384324667915221
20,0.3387156495392647,0.3386512395022229
21,0.33866855573714755,0.3395017150170158
22,0.3386514146139821,0.33863668111950235
23,0.33865887644484627,0.33861325253032276
24,0.33864849342434805,0.33845057311484006
25,0.338620481213374,0.3393213500455946
26,0.3385977225955948,0.3386693398502861
27,0.3385855546253799,0.33842286668699373
28,0.33861118976263765,0.33917524900389073
29,0.3385517608865255,0.3384143491832553
30,0.3385591159108453,0.3388849646814408
31,0.3385255086809439,0.3399100031657491
32,0.33854599258689894,0.33841988704636433
33,0.33852952843251266,0.33832318605323586
34,0.33854390143223273,0.3384971376536206
35,0.33850853721420665,0.3389840001651726
36,0.33849105251141326,0.339021066814735
37,0.3385003951365878,0.33834483695976786
38,0.3385378456327444,0.3384046148721397
39,0.33849831670611435,0.34015080584190027
40,0.33848336504216947,0.3384358209948386
41,0.3384574706975552,0.3384082718019746
42,0.3385024399330061,0.33846883767887614
43,0.33852185571869403,0.3392196308294538
44,0.33848425383655273,0.3389985811473714
45,0.33848406663382535,0.3383439832230655
46,0.33846979296965807,0.33965331175487035
47,0.3384404526094959,0.3392098458174145
48,0.3385015472895358,0.3385306008252553
49,0.3384680966108659,0.33848690581380875
50,0.33847329774067725,0.3382804248380306
51,0.338487316303733,0.33845148729923047
52,0.338459191649643,0.33849886033138626
53,0.33844610559585525,0.3383208574491458
54,0.3384348730314854,0.3401182345509825
55,0.33843168619134645,0.3384609046999929
56,0.3384521057600821,0.33874819972379033
57,0.3384641977704835,0.33931193746644867
58,0.33845676050648915,0.3382267969565711
59,0.3384012711123696,0.33862207299722336
60,0.3384538465448875,0.3383806577243521
61,0.33842548490709684,0.33834757980874397
62,0.33840227662097894,0.3382309493148889
63,0.3383838747993495,0.33824434460836367
64,0.338422827672776,0.3386662699152755
65,0.33842793757421596,0.3382747966657501
66,0.33836684656696,0.3386054321199138
67,0.3384267208742203,0.3381999903961683
68,0.3383976252823096,0.3398597020517212
69,0.3384181543478881,0.3381782227651061
70,0.33838541631827285,0.33823833647496054
71,0.338397990214727,0.3384212685725825
72,0.33839622967056493,0.3382576273777349
73,0.3384164846790968,0.3389646003914826
74,0.3384583846153267,0.3383887035379339
75,0.3383908091909121,0.338392107939306
76,0.33839590392279206,0.33891244557300215
77,0.3383842896093716,0.33828398396004516
78,0.33841929583903463,0.3382166232128001
79,0.3383806844603632,0.3389274799202571
80,0.3383748987256622,0.3382835994731108
81,0.3383855146638463,0.33853169697390006
82,0.3383527961924365,0.3383215006024903
83,0.3383699826120871,0.34048879285604133
84,0.33836228206091706,0.3386686980576432
85,0.33838156917887136,0.3384705754131005
86,0.3383626769664382,0.3386098159454005
87,0.3383491927760891,0.33826372548013406
88,0.3383950251342996,0.33905337899553567
89,0.33836283733914774,0.33819954028496374
