epoch,loss,val_loss
0,0.7800393380059136,0.7787428313096364
1,0.778790291455057,0.7786087853511174
2,0.7786856384144889,0.7786015238364538
3,0.7786207815938526,0.7785605473518371
4,0.7785889568726222,0.7785396027962367
5,0.7785606687466303,0.7785025771458943
6,0.7785473618507385,0.7785587632656097
7,0.7785416299502055,0.7785942526658376
8,0.7785269480148951,0.7786496298710505
9,0.7785235030518638,0.7784851260185242
10,0.7785251399808459,0.7785040184656778
11,0.7785168056620492,0.7784712464412054
12,0.7785161887539758,0.7784999639987945
13,0.778508685681555,0.7786487274169922
14,0.7785060762564341,0.7784757162332535
15,0.778505813545651,0.7784941253264746
16,0.778503003610505,0.7785288378397623
17,0.7785007501443227,0.7785404067436854
18,0.7785005049705506,0.7784774920145671
19,0.7784985827869839,0.7785261138677597
20,0.7784972417089674,0.7784647481044134
21,0.7784977243211534,0.7784495449463527
22,0.7784978277683258,0.7784978533983231
23,0.7784959537585576,0.7784552349249522
24,0.7784943307638168,0.7784809708595276
25,0.7784952896436056,0.7785040644009908
26,0.7784934294886059,0.7784532461166381
27,0.7784857962263955,0.7785796374082565
28,0.7784928784900241,0.7785432130893072
29,0.7784919795460171,0.7786933757066726
30,0.7784881882667541,0.7785122902393341
31,0.7784878705739975,0.7784679292837778
32,0.778486929959721,0.778485064705213
33,0.7784902824693256,0.7786009089946747
34,0.7784874543481403,0.7784404151439667
35,0.7784872734414207,0.778510194738706
36,0.7784898447990417,0.7784599922895431
37,0.7784854797787136,0.7784634625514348
38,0.7784889189667172,0.7784738397200902
39,0.7784850463602278,0.7784661459525426
40,0.7784865481456121,0.7784652981758118
41,0.778487194803026,0.7784883544842403
42,0.7784852101537917,0.7784441140890122
43,0.7784846503734588,0.7785074506203333
44,0.7784860468308131,0.778461555202802
45,0.7784831346538332,0.7784562407334645
46,0.7784848248958588,0.7784447441101074
47,0.7784828090932634,0.7784526683489481
48,0.7784843222962485,0.7784555002848307
49,0.7784845407671399,0.7784420200188955
50,0.7784841726223628,0.7784438617626825
51,0.7784819435013665,0.7784750294685364
52,0.7784820966985491,0.7784579861958821
53,0.7784817518525653,0.7784521288077036
54,0.7784826752477222,0.7785047046343485
