epoch,loss,val_loss
0,0.6264092521225674,0.6231301069851253
1,0.6205637817137581,0.6195291802545931
2,0.6200443960881956,0.6200712485585556
3,0.6195739960454648,0.6193428070906078
4,0.6194516499578504,0.6209646214030813
5,0.6191606232240611,0.619033864295808
6,0.6189327976755739,0.6186845516448577
7,0.6187130448114919,0.618675319136816
8,0.6185898152694664,0.6183583489422763
9,0.6183360589269821,0.6184487204102074
10,0.6183018450357668,0.6178651249142497
11,0.6181876682016902,0.6196383823532029
12,0.6180537803132898,0.6185159192783365
13,0.6179437789572937,0.6181111909023881
14,0.6178841317812702,0.6175312299586407
15,0.6178272638716789,0.6178076707991418
16,0.61772069500125,0.6175786528930475
17,0.6177673719025559,0.6196929326720036
18,0.6176955458365695,0.6175977621421624
19,0.6176098861321189,0.6172967628864733
20,0.6175934284954253,0.6174029142330065
21,0.617654654298032,0.6187065395173009
22,0.6175481217152764,0.6173655103217284
23,0.6175218001965473,0.6175919061854814
24,0.6175431750779956,0.6175648716484051
25,0.6174648190956364,0.6177137584307649
26,0.6175076091376764,0.6173951705099631
27,0.6174799012913159,0.6172394843018676
28,0.6174480737346595,0.6176143811003446
29,0.6173923707018143,0.6175652499530215
30,0.6174207232282454,0.6175628173144224
31,0.6174652839157865,0.6174388147761153
32,0.6173533901018667,0.6173552456623863
33,0.6173708287063311,0.6172367941948675
34,0.6174619234005342,0.6177808014985645
35,0.6173255447927329,0.6174668265927222
36,0.6172864157156045,0.6182018536491962
37,0.6173651588461486,0.618072471784303
38,0.6172919735535108,0.6173322251357748
39,0.6172335232246503,0.6170633247117546
40,0.6172744709948033,0.6172091731362545
41,0.6172400337484714,0.6172789663298254
42,0.6172580065726098,0.6178380116931262
43,0.6172822655833617,0.6179416778957282
44,0.6172522141995254,0.6172640055048259
45,0.6172300001831876,0.6174363435350044
46,0.6172113659644988,0.6168816475655245
47,0.6172548513924835,0.6173276357851905
48,0.6171800724381977,0.6170675111467726
49,0.6172164048757427,0.6178742653087115
50,0.6171948149692034,0.6181182069458974
51,0.6171901916173684,0.6176305132527505
52,0.6171329564790807,0.6170824480411728
53,0.6171325469053,0.6171385721000785
54,0.6171648906821494,0.6169421056068269
55,0.6171587677080268,0.6179889463017655
56,0.617162053484966,0.6176082527075453
57,0.6170727809877621,0.6171694145900736
58,0.6171320927082988,0.6171748301823146
59,0.6171485241495868,0.6171438393166876
60,0.6170483211965779,0.6171196939927472
61,0.6171349844371731,0.6170736298371782
62,0.6171139564500088,0.6175480853535106
63,0.6171375604273206,0.6194753377964124
64,0.6171290032959318,0.6172423670664614
65,0.6171222118396378,0.6170096434967098
66,0.6171478018164832,0.6169279865828105
