epoch,loss,val_loss
0,0.453322572708193,0.4510105096672664
1,0.3241965727982726,0.2267830034491442
2,0.22648512177626154,0.22621152047483856
3,0.2259454322103674,0.22542444719718052
4,0.22569032586480228,0.22531899834241229
5,0.22552403017530068,0.22519594010880803
6,0.22541576273262787,0.22511342531694076
7,0.22535127455071127,0.2256261158743804
8,0.22532554701722204,0.22508382597573046
9,0.2252603200186514,0.22572158893787536
10,0.22523646310102557,0.22567010088534864
11,0.22522761427951976,0.22509025773102828
12,0.22520593454753993,0.2249259411475203
13,0.22514164179523685,0.22521571041484625
14,0.2251134269613253,0.22577871913945408
15,0.22511146871513296,0.22514183608533136
16,0.22511754706426035,0.22493495517421894
17,0.22504437964035537,0.2250683236802482
18,0.22504150346125626,0.2249146612938817
19,0.22504904498841571,0.22491853153587274
20,0.22501781401756832,0.22487769980288616
21,0.2249956160412624,0.2249789800004983
22,0.22498010683613606,0.22553120580855435
23,0.22496005107435724,0.22526912006639666
24,0.2249793532025282,0.2247482870411932
25,0.22496082749267493,0.2247099885573754
26,0.2249492382900214,0.22487715048618412
27,0.2249407412133038,0.22480658811907614
28,0.22493286389737777,0.22473793687211077
29,0.22490979141078893,0.2247472960806958
30,0.22492112695411165,0.22493601119695764
31,0.2248793637752454,0.22502496755744328
32,0.2249084522391077,0.22483002490204557
33,0.22490487016746433,0.22517020211326277
34,0.224874431365861,0.22472004882307264
35,0.2248799814438675,0.2247258275229641
36,0.22488180182952,0.22512134450393043
37,0.22489364944439127,0.22493827137402803
38,0.22488524336018542,0.22477657564964246
39,0.22483661757923276,0.22472891327613045
40,0.22486488008557992,0.22481705183278833
41,0.2248421170598289,0.22499938076985976
42,0.2248345929539394,0.22501839205585697
43,0.22483655731473323,0.22495303699011837
44,0.22480677870136478,0.2247167937513025
45,0.2248360501861792,0.2248875036059183
