epoch,loss,val_loss
0,0.6152328937029795,0.6093927401171133
1,0.6093697590974727,0.6097757768985947
2,0.6090767824167521,0.6086361385160877
3,0.6087929901333203,0.608882667320242
4,0.6084946412819668,0.6088389499311707
5,0.6083088712282007,0.6080203813595453
6,0.6081983423149732,0.6083862435137368
7,0.6080898196560199,0.6083654546264383
8,0.6079881548166852,0.608219439486416
9,0.6079200297967581,0.6077524135781281
10,0.6078555169961061,0.6077739761425899
11,0.607826928029477,0.6079359181465641
12,0.6077366319985459,0.6078471513007474
13,0.6076980851909813,0.607865296847767
14,0.6076903863551181,0.6076666141266267
15,0.6076624709341484,0.6081096320235108
16,0.6076737111927482,0.6082489814415167
17,0.607611400835034,0.6076174665917238
18,0.6076082418235693,0.6076150977581961
19,0.6075838536209074,0.6084633189750368
20,0.607566539667858,0.6076013772126758
21,0.6075610857194095,0.6077119056403489
22,0.6075390039193488,0.6075474881948372
23,0.6075467021683238,0.607674149780652
24,0.607531019600263,0.6081720671641916
25,0.6075211029684996,0.607501239190918
26,0.6074891983914502,0.6076253452904467
27,0.6075099802942034,0.6088461721801285
28,0.6074790835476791,0.6078641092806832
29,0.6074968308908092,0.6074636242821554
30,0.6074880091691004,0.6077609242635684
31,0.6074365845414231,0.6077395559540457
32,0.6074712476379349,0.6075789079476823
33,0.6074340203545114,0.6077137450426447
34,0.6074496868628197,0.6074467199316096
35,0.6074382575016,0.6078524974676279
36,0.607468505894481,0.6086090695769261
37,0.607416841744654,0.6076180927215084
38,0.6074130402926021,0.6073793894008135
39,0.6074154169151087,0.6075052988144659
40,0.6074356396783173,0.6078123303264306
41,0.6073974326821485,0.6078203269329023
42,0.6074121731259149,0.6084306820746391
43,0.6073856290243322,0.6078331158415555
44,0.6073402635088271,0.607705345934733
45,0.6074162340069841,0.6074235252943583
46,0.6073861391894803,0.6075348470110455
47,0.6073726294888229,0.6074024531444899
48,0.607372017485959,0.6074973116737441
