epoch,loss,val_loss
0,0.3578066821875229,0.34977680929837096
1,0.3441514099973905,0.18590961852233404
2,0.18585592303950385,0.1876219357139715
3,0.18456170877095393,0.18942388302043414
4,0.18425900149037913,0.1860710348074253
5,0.18374729875530732,0.18318781797998301
6,0.1832852853910179,0.18400625599820916
7,0.18297982554091421,0.18483438151645898
8,0.18268588537936273,0.18463270312207508
9,0.18260315779691572,0.18379208730261024
10,0.18237695439584475,0.18313679095385388
11,0.18247926469934514,0.18268575042708043
12,0.18215420294921178,0.1834973471706026
13,0.18205075296078413,0.18188486695289613
14,0.18193678986758643,0.1818755784416317
15,0.18201050775057365,0.18679703310612708
16,0.1818715029673772,0.18262250024834578
17,0.18166938724791987,0.1829285822420499
18,0.1818379696983987,0.18352303581113555
19,0.18161699785618546,0.1818382157655271
20,0.18158929528629647,0.18323167958863024
21,0.18158095356376366,0.1819796193178475
22,0.18154540600314073,0.18175669278459572
23,0.18141484374958886,0.18228935597848064
24,0.18144187692699873,0.1815470031709884
25,0.18146198562703553,0.18139404555408298
26,0.1813271297391993,0.18401264350852067
27,0.18126268942061466,0.1822897370192904
28,0.18128061066939297,0.18206041530699055
29,0.18127719991781643,0.18157704899240074
30,0.1812107139485126,0.1822866298572597
31,0.18121413806638795,0.18205653237497837
32,0.18115454037039985,0.1812651031366353
33,0.18117130383794122,0.18183891690398565
34,0.18116567252581892,0.18165877104249248
35,0.18120396298710673,0.18134978611770988
36,0.18106918210006612,0.18161797463598087
37,0.18109141131416448,0.18126574220787503
38,0.18116433801729537,0.1815678468487103
39,0.18117714242531238,0.18156708556576343
40,0.18107895660313778,0.18129096894938657
41,0.18108638528428725,0.18148510109254207
42,0.18101296081796467,0.18159612281890425
43,0.18099148480046337,0.18147549848846406
44,0.181078795692053,0.1820600705614161
45,0.18100032648879333,0.18142758205570003
46,0.18092222159990423,0.18109897132546968
47,0.18098545692135062,0.1820701758190065
48,0.1809784480502106,0.18297120662540123
49,0.18097876435571036,0.18133744786749997
50,0.18089715035626114,0.18168569100701779
51,0.18094364167114854,0.18253155744844868
52,0.1809107855005143,0.18131524925640144
53,0.18091622945194633,0.18117578638250714
54,0.18091192225317007,0.1857961810995864
55,0.18081945546771166,0.18218697210399448
56,0.18080865794937004,0.18114981024200213
57,0.1809288212122031,0.1812343912518054
58,0.18083958686312354,0.18132374473008564
59,0.1808919981994658,0.18122071620104627
60,0.18102900857007914,0.18210206899246567
61,0.18085713658527539,0.18291802762016174
62,0.1809658565222637,0.18250964714339
63,0.18082111942952842,0.18212777702299596
64,0.1807273689390382,0.18134235834365448
65,0.18081823697293478,0.1812108431871121
66,0.18082724502354652,0.1824797499934142
