epoch,loss,val_loss
0,0.2845514758537269,0.27589235567573284
1,0.2765275724687252,0.2760448094633022
2,0.2758616671176963,0.2745159292635196
3,0.27503078770215333,0.27629737896895584
4,0.05542112863043618,0.032405709769234764
5,0.03241964567829483,0.03182463496276374
6,0.03221590328404057,0.031490504730576026
7,0.031884678831156775,0.03197366969461181
8,0.031530850903617666,0.03178020697410586
9,0.03159719238390791,0.03144368425695683
10,0.03144692063202039,0.03085304330063813
11,0.03141755651674185,0.031876731051072
12,0.03132679994229255,0.032611668516625246
13,0.03139005655009436,0.032070661748461335
14,0.03101767019966529,0.03452948281915844
15,0.03114911733092071,0.03061296356744861
16,0.031026008425125668,0.031122368688766774
17,0.03099757508726753,0.030669568039051652
18,0.030871047976529783,0.034887453712171716
19,0.030997882778763777,0.03126988930826447
20,0.030661290535622127,0.03033909244975884
21,0.03075096926330657,0.03060829739084019
22,0.03060281628796331,0.030540139459202958
23,0.03073152877800378,0.03057693116200473
24,0.030676232647498875,0.030595007051642125
25,0.030646699534019942,0.030337918453639555
26,0.030633161261143706,0.03302786240802509
27,0.03068047704690096,0.030931472990929933
28,0.030536461301727037,0.030585053302440098
29,0.030482260956580312,0.03126631270419279
30,0.03054532878540348,0.030437251337556627
31,0.030588447516805888,0.03226823559211146
32,0.030437420566595905,0.030582563094702312
33,0.030541849383640306,0.03105698768280576
34,0.03048314278627651,0.03348670089548042
35,0.030529843217020017,0.03086109288942725
36,0.030449830538740362,0.03108465724506834
37,0.0304723719494805,0.030758118046165697
38,0.030430276319182437,0.034427960991637585
39,0.030384440463702315,0.03004993463475858
40,0.030421662135106522,0.03011969930351372
41,0.030384893254691184,0.030138848065664397
42,0.030360583590004375,0.030450517394887307
43,0.03038031499905293,0.030260917866052527
44,0.030362622698700468,0.031107796540035502
45,0.030506640887602413,0.029999003972553142
46,0.03039663446275676,0.034352535803434864
47,0.030309496182890718,0.030267404960861277
48,0.030324688679401423,0.030246779891123843
49,0.030397203764799145,0.03353879081441214
50,0.030331742354280166,0.03191291003420986
51,0.030377155011240865,0.030224137466687423
52,0.030200751841826922,0.034875840787999976
53,0.030205890046076236,0.03085898578388815
54,0.030229957169965176,0.030018470306920057
55,0.030216992255026904,0.03168685239168906
56,0.03031611882773939,0.032617399305401015
57,0.030262297049535127,0.02995089343829871
58,0.03017620840172683,0.030781103732531182
59,0.0301708336089058,0.03285884305317112
60,0.030387235059505937,0.0305853562637535
61,0.03018810919865326,0.031134821655732527
62,0.030227468823704577,0.030251690831321936
63,0.030384021558947136,0.03063119941809337
64,0.030216239244087957,0.030532069050385698
65,0.03016429842641496,0.031100191620569075
66,0.030221527316887754,0.031496466171209034
67,0.030373122902752882,0.03235873176297982
68,0.03025570807993326,0.030343090463660786
69,0.030178782820430045,0.036803829845586424
70,0.030226836404069795,0.03033754679446037
71,0.030186113284437127,0.02998165307617365
72,0.030270545470976618,0.030520207299931764
73,0.030095378456304007,0.030070360509618636
74,0.03026766594860189,0.030190420996573368
75,0.03027409586308375,0.029916497813560827
76,0.03007927637189965,0.02989333874682339
77,0.03018388235151592,0.02988348079581858
78,0.030252768068785293,0.029948605062721977
79,0.030255763736788895,0.02997904740569757
80,0.030181552059549595,0.030534145868297842
81,0.030305643658997523,0.029944784609281988
82,0.03013542534542668,0.03061898431137537
83,0.03005090558600713,0.030141556349862597
84,0.030228305864847003,0.03048319762050366
85,0.030110021359249547,0.03159250952765604
86,0.030188147452554534,0.02994818139553218
87,0.030012466373285095,0.029979857371625476
88,0.03012064779099288,0.030255059178724477
89,0.030072628873737874,0.0309005348395473
90,0.030108810422654342,0.03028277986990311
91,0.030269119389782825,0.030560126993111877
92,0.03016614933328347,0.030029696226119996
93,0.030287105223472516,0.030851790194328016
94,0.03013800282591711,0.030341202970917705
95,0.03005515023962142,0.0304067143768294
96,0.030062689367393623,0.030597917101445327
97,0.030179131023133306,0.030706343455032144
