epoch,loss,val_loss
0,0.7197013821300662,0.7167972759632556
1,0.7170276447336454,0.7178043057545834
2,0.7167433442973663,0.7167620464235026
3,0.7164902507503911,0.7169335111494988
4,0.7162966733400938,0.7160683253858581
5,0.7162086505273407,0.7161185835786257
6,0.7161011782719685,0.7159554159966651
7,0.7160583552955639,0.7158849160073709
8,0.7160078715616092,0.7165414192836279
9,0.7159825188453431,0.7161904497418746
10,0.7159329320815812,0.7159931148843789
11,0.7159009768625526,0.7158249201017337
12,0.7158749574105806,0.7158105377819639
13,0.7158852777937842,0.7157304445212296
14,0.7158552765896737,0.715833046891849
15,0.7158466671850091,0.7157807795344748
16,0.7158436855565444,0.7157968206973585
17,0.7158239678610763,0.7163803467383751
18,0.7158142496259062,0.7159945931387303
19,0.7158193005596802,0.7159424980284262
20,0.7158071359206867,0.7157668838429984
21,0.7158121958234368,0.7160037920433594
22,0.7157921917549479,0.7156921481672055
23,0.7157829558945098,0.7157093586756041
24,0.715785912451649,0.7158187964122289
25,0.7157818911847413,0.7157587892364331
26,0.7157814205532943,0.7158436891754567
27,0.7157789412316715,0.7158944800533077
28,0.7157831114577341,0.715715038983461
29,0.7157695198120295,0.7158527907603431
30,0.7157579394525341,0.7157065192463972
31,0.7157626175987397,0.7159915143147887
32,0.7157656374593389,0.7158068618170973
33,0.7157600123769869,0.7156859875612755
34,0.7157614225706146,0.7157416579741106
35,0.7157487370391988,0.7157069597883201
36,0.7157664335944165,0.715662137095449
37,0.7157508216895825,0.7162097842758406
38,0.7157513342961537,0.7158234213185369
39,0.7157373233054538,0.7156834959688021
40,0.7157409529704527,0.7157096578524663
41,0.7157468567308066,0.7159532184636327
42,0.7157619911153573,0.7156769704286278
43,0.7157412917027316,0.7156660856739168
44,0.7157323123928767,0.7157442734791682
45,0.7157371527813147,0.7156811347966159
46,0.7157329102055108,0.7156586371935331
47,0.7157473824193041,0.7157397854712702
48,0.7157353156131459,0.7156971288378127
49,0.715740376947619,0.7157061572701996
50,0.7157252382158363,0.7156573919741155
51,0.7157243394873456,0.7156846311784559
52,0.7157252063069484,0.7156595677655033
53,0.7157229005180554,0.7156338473407565
54,0.7157329777788977,0.7156482140124584
55,0.7157219381145666,0.7156532359478196
56,0.7157172465338285,0.715662734354696
57,0.7157162806658064,0.7156790719730387
58,0.7157368512651597,0.7157315697622654
59,0.7157196739048061,0.7159532658515438
60,0.7157317529385898,0.7161023342579825
61,0.7157196217553763,0.7156473489612267
62,0.715714817697997,0.7156473360049813
63,0.7157314509680698,0.71564737377924
64,0.7157091341232481,0.7156362703065423
65,0.7157226941400987,0.7157743494800539
66,0.7157041506216608,0.7157251843151916
67,0.7157174894455728,0.7159439182458976
68,0.7157161399270298,0.7156705515852045
69,0.7157037351837314,0.7157954780990373
70,0.7157139573530958,0.7157093122046875
71,0.7157042164233396,0.7156923124867101
72,0.715712116943632,0.7156563548532964
73,0.7157098555436775,0.7156958673787176
