epoch,loss,val_loss
0,0.7514050363567141,0.7509039037624995
1,0.7506668812301424,0.7506539440155029
2,0.7505593081050449,0.7504152964353561
3,0.7504894035259883,0.7503404033581416
4,0.7504559049738778,0.7503296339909236
5,0.7504127589331733,0.7504736689726511
6,0.7504342037174436,0.7503747617801031
7,0.7504303159448835,0.7503539286057155
8,0.7504140047762129,0.7503468943436941
9,0.7504011743730968,0.7503703085581461
10,0.7503875231080585,0.7505597030321757
11,0.7503791165484323,0.7503497454722723
12,0.7503709827926424,0.7503038891553879
13,0.7503625414768855,0.7505904108683268
14,0.7503592708773084,0.750326553940773
15,0.7503578897714615,0.7502892775138219
16,0.7503486185338762,0.7504902418057123
17,0.75034677570396,0.7503003752628962
18,0.7503433509932624,0.7502874720891317
19,0.7503381878667408,0.7503808158238728
20,0.7503358396556642,0.7503018765449524
21,0.7503358373377058,0.7504755699237188
22,0.7503346829944186,0.7503551464478175
23,0.7503329305913713,0.7502843878269195
24,0.7503279268741607,0.7503302474021911
25,0.7503325488302443,0.7502794520457585
26,0.7503273737827937,0.7502768055995306
27,0.7503304286268022,0.7503076989650727
28,0.7503264591958788,0.7503063884973526
29,0.7503258475992415,0.7503287816445032
30,0.7503223904238807,0.7505123472213745
31,0.7503205422427919,0.750315793633461
32,0.7503182755841149,0.7502843246062597
33,0.7503136016130447,0.7503035235007603
34,0.7503131813075807,0.7502746394077937
35,0.7503064706325531,0.7502701778014501
36,0.7503171441025204,0.7502798337141673
37,0.7503033596012327,0.7503021762768427
38,0.7503053164747027,0.7502722419102986
39,0.7503035247193443,0.7502712769110997
40,0.7503086046642727,0.7502644688685735
41,0.750304229537646,0.7502973136504492
42,0.750301361269421,0.7502535728216171
43,0.7503005364868376,0.7502635633150736
44,0.7502950762377845,0.7503274710575739
45,0.750293518755171,0.7502643245855968
46,0.7502981028027005,0.7503399444421133
47,0.7502979346646202,0.7503414404392242
48,0.7502961598767175,0.7503615042368571
49,0.750311799036132,0.7502630164225896
50,0.7502947964138454,0.7505187729994456
51,0.7502955003579458,0.7504287990729014
52,0.7502940678464042,0.7503010051250458
53,0.7502921494377984,0.7502525902986527
54,0.7502957117027707,0.7502624106407165
55,0.7502938441303041,0.7502572491963705
56,0.7502928627994325,0.7505032925208409
57,0.7502907215091917,0.7502558408975601
58,0.7502946401966942,0.750261348883311
59,0.7502924745745129,0.750290156920751
60,0.7502908352613449,0.7502491601308187
61,0.7502941895061069,0.7502527047793071
62,0.7502886943552229,0.7502557688951492
63,0.7502908757792579,0.750261887828509
64,0.7502918651501338,0.7502772861719131
65,0.7502904137770335,0.7502766978740693
66,0.7502898270818922,0.750261638045311
67,0.7502919827434752,0.7503019984960556
68,0.7502887988752789,0.7502956395546595
69,0.7502916083733241,0.7502555059194564
70,0.7502885280450186,0.7503355292876561
71,0.7502890951236089,0.7502489049832026
72,0.750290894707044,0.7502565141518911
73,0.7502918586333592,0.75025470662117
74,0.7502890324725046,0.7502930444081625
75,0.7502907775243124,0.7502647483746211
76,0.7502900835540559,0.7503286550839742
77,0.750291898171107,0.7502632441123327
78,0.7502880158556832,0.7502603653271993
79,0.7502886620759964,0.7502849461634954
80,0.7502867100901074,0.7502517733176549
81,0.7502899984916052,0.7502533661921819
82,0.7502905692921744,0.7503398977120718
83,0.750288570549753,0.7502954123020172
84,0.7502877329190573,0.7503659836053849
85,0.7502882172266643,0.7502578115463256
86,0.7502853387196858,0.7502807541688283
87,0.7502882079150942,0.7502905488014221
88,0.7502877932919396,0.7502571789423624
89,0.7502892869975831,0.750252628326416
90,0.7502874564727148,0.7503391158978144
91,0.7502852516306772,0.7503130120436351
