epoch,loss,val_loss
0,0.45442898085829464,0.4496792201220841
1,0.44837923285218423,0.44776939863602516
2,0.44763016133734945,0.44880756043618725
3,0.44723494995954693,0.447272974326652
4,0.4470274646394588,0.4468215066357227
5,0.446932782101954,0.44820696479333544
6,0.44678158154235,0.44664245722607404
7,0.44674176488197054,0.4465611344827316
8,0.4466805397999583,0.44642475043277885
9,0.44666154610754294,0.44779096940906704
10,0.44660536053470634,0.44645016330939075
11,0.4465952370509004,0.44652789624098216
12,0.44656784965059865,0.4464539328076999
13,0.446541908169952,0.4466565954478148
14,0.44652550966894483,0.4463751884902973
15,0.4465025512106222,0.44637495671253347
16,0.44651811721551754,0.4463288484524852
17,0.44648476734790354,0.4469466108542222
18,0.4464736834902636,0.4469379762561978
19,0.44644737573461396,0.44626227600994534
20,0.4464344178090014,0.44670726582962583
21,0.44645764408355665,0.4465287340633922
22,0.44642542627862064,0.446379309552479
23,0.4464029171214371,0.4462569609173474
24,0.4464221845798215,0.4462930604038996
25,0.44640169128878343,0.44666631922828354
26,0.44637930081198013,0.446278698228429
27,0.4463701652881178,0.4462969307716076
28,0.44637597508326105,0.44642708246820323
29,0.44635894502749524,0.44681210634726154
30,0.4463781558701048,0.4462139944432687
31,0.446362285899743,0.44642425686786547
32,0.44636448267968337,0.4461989187720987
33,0.4463674927950994,0.44628667809235545
34,0.44636322746554713,0.4462627971586459
35,0.44634278660436727,0.44623015490418333
36,0.4463501718238459,0.44622592630220703
37,0.44635693110107827,0.44646266302459
38,0.4463471409496279,0.4463913861190711
39,0.44634047540450755,0.44647454014487065
40,0.4463439484752838,0.44671987774354355
41,0.44634508978421106,0.44617995732179644
42,0.44633365288258287,0.44626605550645304
43,0.4463367268591604,0.44634349857903
44,0.446344893662598,0.44624943807166506
45,0.4463268194681245,0.4462462060800557
46,0.4463505018821703,0.4465753835868599
47,0.44631872607343015,0.4466716901540165
48,0.4463402461805095,0.44636338740661186
49,0.4463264527166693,0.4462791455146988
50,0.44631881277629437,0.4463849313353782
51,0.4463421146888213,0.44621440618860514
52,0.44632249570454846,0.4462002319526436
53,0.4463218629271061,0.4463124657978787
54,0.4463267323909613,0.44629304706310813
55,0.4463205485847773,0.44637682980698334
56,0.44633704064238217,0.44638461458771755
57,0.44632774932022484,0.44623154020191125
58,0.44631597759298924,0.44718381292175124
59,0.44630837201633555,0.44621455562913387
60,0.4463163827169904,0.44717819156776883
61,0.44630964348348723,0.4462376670861067
