epoch,loss,val_loss
0,0.4529250207064515,0.44791501793021304
1,0.44797263333653287,0.44712562540328826
2,0.4473254796543955,0.44676787547083113
3,0.44697332143463303,0.44671020779952814
4,0.4468890026359052,0.4467374550941268
5,0.4468151642262854,0.44741505107867807
6,0.4466981519691,0.4464355328390675
7,0.4466734982942084,0.44649723081967374
8,0.4466071676524664,0.4466873677729377
9,0.44656094461685375,0.44652614222270975
10,0.4465138341613909,0.4464880714197608
11,0.44649663702235437,0.44647112806736683
12,0.4464667337532323,0.4467649645308407
13,0.44643158602317917,0.44693592564935425
14,0.44644945077549286,0.44633974427029155
15,0.446401815781644,0.4462668409418527
16,0.4464152352151171,0.44630979349832084
17,0.44637307921934954,0.44628146046740247
18,0.44637257553284715,0.44647060172729397
19,0.4463641618096294,0.44634225886157963
20,0.44633426721012326,0.44627927870075995
21,0.4463579382370401,0.4462654983139511
22,0.44632501167986055,0.44715358134238953
23,0.4463148559014296,0.4462264179591801
24,0.4463086891000143,0.4462447983603324
25,0.4463010053777043,0.4462577097173364
26,0.44628303918327217,0.4461901101817564
27,0.4463001287502066,0.44630346225745626
28,0.4462951563095678,0.4462078049520109
29,0.44627634167246816,0.4461918628689077
30,0.44626546634668024,0.44641786273892403
31,0.44626970048202286,0.4462903409974451
32,0.44627669544257265,0.44665972528327486
33,0.4462688249024834,0.4462299084397167
34,0.44627794984855446,0.4461674889175235
35,0.44626970852807013,0.4462801282666161
36,0.446256391064047,0.4463391537553915
37,0.4462472653685892,0.44625631465805377
38,0.4462753642358866,0.44618859132821154
39,0.4462481169042519,0.44621581920323244
40,0.4462592926185649,0.4461442146200696
41,0.44624538392270674,0.4461771903351578
42,0.4462351226219437,0.4462950419403483
43,0.44624665372700867,0.4461780371352402
44,0.4462391793415499,0.4463979911271751
45,0.44623940412641744,0.4461108290823754
46,0.4462470641341864,0.44616074322470956
47,0.4462277015348429,0.4461590799001547
48,0.4462389072561792,0.446370293041021
49,0.44623492495028333,0.4461417744828217
50,0.44623053722575895,0.44615397058408846
51,0.44622474687286345,0.4462555651037628
52,0.44623941449004184,0.4461480471839384
53,0.44621945963102017,0.44613171508235316
54,0.4462213388942151,0.4462489756549854
55,0.44622138415678064,0.44617106568428777
56,0.44622915672046803,0.4461359958494863
57,0.4462345352017263,0.44652641856344993
58,0.4462287930178337,0.44618440830973777
59,0.4462096595699161,0.4463765918912722
60,0.44622031224698305,0.4462011915726342
61,0.44621782202020543,0.4463780820813428
62,0.44621958787673077,0.4461413166363245
63,0.44621080943881214,0.44610366333211326
64,0.44620787195317146,0.44619654162645933
65,0.4462023949977607,0.4462373432243432
66,0.44623363101927765,0.4461887622145802
67,0.44620137301092544,0.4461359715343409
68,0.446227603675582,0.4461676636789336
69,0.44621052758893204,0.4461611237774416
70,0.44619823069461445,0.44641051537937326
71,0.446199415309419,0.4472902890026717
72,0.4462067158130915,0.44617886139500523
73,0.44619094639386675,0.4461871883413632
74,0.4462033969814915,0.4462941937499839
75,0.44617813233079023,0.4461471496977226
76,0.4461997266350466,0.44634866170196913
77,0.44620029098361785,0.4461335217834406
78,0.4461977160150028,0.4461522190949461
79,0.4461800753285398,0.44609932236872596
80,0.4461918843578815,0.4461082092733596
81,0.44619457002275253,0.44626985383092915
82,0.44619206262200256,0.44613723493095664
83,0.446197736758817,0.446166701160057
84,0.446189529748808,0.4462560761803137
85,0.4462067697283132,0.4461047598357236
86,0.446191048330186,0.44633027183506685
87,0.4461962424126066,0.44623162339697997
88,0.4461734704829577,0.44612792079561103
89,0.4461786816533683,0.44610563708889867
90,0.4462047440349465,0.4461619470166805
91,0.4461825970453377,0.4461141269940596
92,0.4462098209357603,0.44657638781419756
93,0.44620352461822665,0.44616075507168734
94,0.44620037155531517,0.44620455396974057
95,0.44618779172608436,0.4461963743932785
96,0.4461862905801752,0.4461406799463125
97,0.4461884803592656,0.44663025905417447
98,0.44618122527395215,0.44626707030880836
99,0.4461903340123654,0.44638187398685714
