epoch,loss,val_loss
0,0.6720841113576105,0.6700854835084296
1,0.6687951032954561,0.6694306647215529
2,0.6684297278634472,0.6690486824542062
3,0.6682303349090272,0.6689186745186894
4,0.66812611085792,0.6679427282390169
5,0.6680627162393311,0.6679527939105449
6,0.6680188697189445,0.6681328467636487
7,0.667988851433549,0.6680071345925627
8,0.6679639016246769,0.6680599557554752
9,0.6679409084275453,0.6678856054843212
10,0.6679226875082727,0.6678353358439121
11,0.6678946588770516,0.6689162716972029
12,0.6678961722494028,0.6678017256277666
13,0.6678841275611974,0.6678420722336686
14,0.6678701294055206,0.6677593143051375
15,0.6678699225053595,0.6677628281098738
16,0.6678646607186066,0.6684593238842399
17,0.6678502745336238,0.6677353894444317
18,0.6678319957869363,0.6677758300866442
19,0.6678221231110445,0.6677946222627134
20,0.6678281376780903,0.6677680419041561
21,0.6678158369607171,0.6680144037561441
22,0.6678188678317798,0.6683558000228541
23,0.6678265359435749,0.6677523440521941
24,0.6678103141917443,0.6677780219698071
25,0.6678024023580784,0.667812442838702
26,0.6678184697733125,0.6681248733482645
27,0.6677923079031488,0.6677784037057578
28,0.6678055570420317,0.6677467355361352
29,0.6677992325238914,0.667784314179243
30,0.6677984236358289,0.6677453923462047
31,0.6677946106921282,0.6677120450412665
32,0.6677910598886472,0.667806104010447
33,0.6677951986262671,0.6677640510256178
34,0.6677951337727598,0.6677761398237337
35,0.6677865644673859,0.6681161729928577
36,0.6677897503471266,0.6677972323545451
37,0.6677897772832418,0.6678803851231748
38,0.6677804416999363,0.667749082805501
39,0.6677838033779213,0.6680291343563544
40,0.6677754927016928,0.6677588010544221
41,0.6677789023372748,0.6677349882149519
42,0.6677788614120809,0.6677304076793472
43,0.6677706173634343,0.6678766757027979
44,0.6677858945235159,0.6677497442543655
45,0.6677714922985012,0.6677199976911615
46,0.6677832148355958,0.6677558599275631
47,0.667761578805485,0.6677934020979529
48,0.6677714026300375,0.6677005400432843
49,0.6677731745345084,0.6677335757475633
50,0.6677684346908969,0.6677949037800356
51,0.6677751859808496,0.6677865428605092
52,0.6677748106193351,0.6677357282887025
53,0.6677684423527848,0.668094723041241
54,0.6677653170321709,0.6677168209558682
55,0.6677678664277658,0.6677346895705382
56,0.667746791237913,0.6679397924366424
57,0.6677696586958356,0.6677868193787322
58,0.6677709356887286,0.6676842348155549
59,0.6677583903817735,0.6678577407418055
60,0.6677596985428448,0.6676866176406444
61,0.6677637066544653,0.6676992528787618
62,0.6677568012795522,0.6677442019393959
63,0.6677536351702117,0.6677761264237814
64,0.6677577108055228,0.6677336557627316
65,0.6677668373840738,0.6679410970536415
66,0.6677649185232828,0.6678296851165242
67,0.6677615542350654,0.6678663288097524
68,0.6677601681125291,0.6677282855469299
69,0.6677511651867368,0.6678710505625155
70,0.667756845799436,0.6681452908527762
71,0.6677571057688005,0.6677308114231668
72,0.6677561602651662,0.6677925305094375
73,0.6677605449641402,0.6677180720322186
74,0.6677529705722302,0.6677016878837984
75,0.6677557168246259,0.6677668459066386
76,0.6677505160166565,0.6677511128539187
77,0.6677576785471839,0.6684336573846879
78,0.6677525890641666,0.6677286602427291
