epoch,loss,val_loss
0,0.09521255301224422,0.08204632816702201
1,0.0763587326777109,0.07433440163916454
2,0.06878312053098115,0.06583208072717965
3,0.0654294984803055,0.06329006243580328
4,0.06360356556980695,0.06311299663693379
5,0.06250115140356123,0.06319337350780851
6,0.06144887141902995,0.0605856937820799
7,0.061139304354605246,0.06071518662919478
8,0.06062035292814061,0.06105702998250649
9,0.06026096669488305,0.060867471743384305
10,0.059737886552835615,0.05911504454707389
11,0.05943780013428206,0.05895785160048428
12,0.05901488619016496,0.05849642600522148
13,0.05851721115243392,0.05704939307705049
14,0.05838060058354882,0.05821287932045407
15,0.05813263652269411,0.057195315467512636
16,0.057871778904752744,0.0579877226694346
17,0.05765371611610159,0.05722655384031774
18,0.05746060438623306,0.05700687976281341
19,0.05744853806336757,0.0570505036091982
20,0.05693479841419356,0.05634780725459603
21,0.056830008953787654,0.05643162253421383
22,0.05666064350769261,0.055748497572711324
23,0.05655718352772095,0.05664750724919972
24,0.056211529441679835,0.05574684062459628
25,0.05603698464403716,0.056077902876857495
26,0.055847853502280276,0.055276978026992336
27,0.055330649790402524,0.05415034111838778
28,0.05531108811774962,0.055085025559509955
29,0.055199025853667885,0.056469951133722114
30,0.05492006330155626,0.05452991441335927
31,0.05486660408736217,0.05450175978039985
32,0.05472589903954022,0.05463520930733338
33,0.05460536633347448,0.054297649721723636
34,0.05453826566800098,0.0541579087341098
35,0.05441810728505614,0.0543365509242337
36,0.05446753330346123,0.054541435492023935
37,0.0542713327312156,0.05335706281602826
38,0.05397109826945993,0.053900564386146536
39,0.05404220713214169,0.05360164521978451
40,0.05394337043614116,0.053323881091462175
41,0.05386216340285334,0.05403938866948371
42,0.05379153282347367,0.05309627303118741
43,0.053665971474808574,0.05324175521990206
44,0.05367095675463641,0.05324079668884242
45,0.053528817771973526,0.05479673643783659
46,0.05356261671083253,0.05600659638162582
47,0.05348351793178686,0.05328082027417554
48,0.053406373736355046,0.053096106493147666
49,0.053367751998779855,0.05232930016650751
50,0.053259461135737284,0.0527517431722977
51,0.053072063768642506,0.052656476066514815
52,0.05311589253186632,0.05308126147568374
53,0.053078914726269445,0.052668661927392994
54,0.05295487524874094,0.053523383742526506
55,0.05297145432170921,0.05262366555649649
56,0.05294691250021055,0.05245086587688171
57,0.05290931115003525,0.05264909518489767
58,0.05290845860245392,0.052993699651276205
59,0.05296453759933048,0.05289344883364424
60,0.05285312407620657,0.05295330536165841
61,0.05265030748554,0.05296896896498375
62,0.05271885633711981,0.052717476388065156
63,0.05271297672042946,0.05248355253532566
64,0.05258092062800696,0.052927926896375696
65,0.05253156931803808,0.05338767108602204
66,0.05253150120957921,0.05234146791859241
67,0.05246348573559938,0.05294030136417219
68,0.05261804245422604,0.05282752298687587
69,0.052545389690088734,0.05221161413429393
70,0.052382855719265924,0.052482740632801436
71,0.05240330099963371,0.05188214858767413
72,0.05242015933648147,0.05226552796644845
73,0.05241870484598652,0.05214681032092932
74,0.05230481947726021,0.052568636629406924
75,0.052321988677482265,0.05220166981294196
76,0.05249170350863538,0.051765856919602185
77,0.05223515191478189,0.05235056426403836
78,0.05229114150976937,0.05245201924894347
79,0.05236214351564363,0.052024027528634144
80,0.0522323621039606,0.05291461954101292
81,0.05225646694830577,0.051919795458133404
82,0.052114816260135734,0.052584231637473736
83,0.05218319857362368,0.0524601567046666
84,0.052156347407170095,0.05185517706439158
85,0.05216688998744115,0.05264012721683784
86,0.0521646208153106,0.05236391479856619
87,0.0521338961717897,0.05280379486217097
88,0.05212731811732637,0.05297392852807755
89,0.05215747018415732,0.052366500081628485
90,0.05211899107160708,0.05218340409341876
91,0.051914214667001496,0.05194758967341619
92,0.05189366801679166,0.05257266766158286
93,0.0519869961663912,0.05201588782756855
94,0.051922959622862266,0.052286489424353495
95,0.051961668399576666,0.05184158443591139
96,0.05199192117326425,0.052269862993405414
