epoch,loss,val_loss
0,0.33950766348838807,0.33624395779768623
1,0.336274028023084,0.33612722369035086
2,0.3360298883914947,0.33563419367869696
3,0.3358554038140509,0.3357408080101013
4,0.3357484691739082,0.33575795447826384
5,0.3356982620822059,0.3357264037926992
6,0.33566348939471774,0.3354455060164134
7,0.33563791899548634,0.3356312815944354
8,0.33561441972520617,0.3356495091716448
9,0.3356035335130162,0.33554105162620546
10,0.33558053763045204,0.33553503197431567
11,0.33557398310634823,0.335519690255324
12,0.3355575246744686,0.33575302322705586
13,0.33553972482019,0.3358395427465439
14,0.3355416270626916,0.3354044750928879
15,0.3355377673572964,0.33542061187823613
16,0.3355215281248093,0.3359569614330927
17,0.3355097515583038,0.33550072689851124
18,0.33551140334208807,0.33535854969422024
19,0.33551025203201507,0.3357399438023567
20,0.33551128645737965,0.33535779917240144
21,0.335492569009463,0.3354460080067317
22,0.3354910643498103,0.33537952254215875
23,0.3354982674651676,0.3353940359354019
24,0.3354858585927222,0.33538313694794974
25,0.3354941162334548,0.33574821418523787
26,0.3354939264125294,0.33550223330656687
27,0.3354869006872177,0.3356213670372963
28,0.33548142047723134,0.3359942320783933
29,0.33548598386181727,0.33542445113261543
30,0.33546921771102484,0.3354218982458115
31,0.33547640822993385,0.33540847716728844
32,0.33547184910376865,0.3354702248573303
33,0.3354866888854239,0.33537496880690254
34,0.33547560335530174,0.335650714357694
35,0.33547802809874216,0.33565561525026955
36,0.3354681880739,0.335572919567426
37,0.3354627677400907,0.33537972571452457
38,0.3354679237869051,0.3353722526431084
39,0.3354597042997678,0.335349222501119
40,0.3354614430003696,0.335433913509051
41,0.33545581603712504,0.3353861087361972
42,0.33546067970328863,0.3355598894158999
43,0.3354610397749477,0.3354853881597519
44,0.33546101717154186,0.33536801556746165
45,0.3354462192191018,0.33538375254472097
46,0.3354602626959483,0.335430096924305
47,0.3354506727655729,0.335380689462026
48,0.3354516137242317,0.33537879637877144
49,0.3354478251602915,0.3353233746290207
50,0.33545853012137944,0.3356636859575907
51,0.3354659075538317,0.3353414358496666
52,0.33544225082794826,0.33562735174099606
53,0.33546036111646227,0.3354835142890612
54,0.3354491860932774,0.3353447201649348
55,0.33544541632466846,0.3357054366668065
56,0.33545289711157483,0.3353439873456955
57,0.33545309639639326,0.3353953285415967
58,0.3354488155312008,0.3353320942521095
59,0.33545431590742536,0.33533344344298044
60,0.3354464318950971,0.33534282600879667
61,0.3354512443277571,0.3353296497861544
62,0.3354548783765899,0.335350015103817
63,0.3354422030051549,0.3353328380584717
64,0.33544879412651063,0.3354332170287768
65,0.3354600226746665,0.3355855009953181
66,0.33544377761416966,0.3353306866288185
67,0.3354445564481947,0.3353364655375481
68,0.33544572314951154,0.33578384562333424
69,0.3354428975449668,0.33536560730139414
