epoch,loss,val_loss
0,0.4534983383856838,0.45009830354461006
1,0.4479975369855474,0.44718587117514597
2,0.4473067273351151,0.44799938587929417
3,0.44698100706354077,0.44810016096081984
4,0.44687965131113927,0.44663628962436325
5,0.35356574444324906,0.3359750401441276
6,0.33613848994373985,0.3363591697168705
7,0.33600693405304805,0.3392529292822476
8,0.3359601777234512,0.33833138087842957
9,0.3359364394272408,0.33661134177934443
10,0.3359132362535182,0.3356043448814979
11,0.33587990799979583,0.33643578588223044
12,0.3358387809988129,0.3357275229381864
13,0.3357809910390261,0.33579949533968945
14,0.33576735567567595,0.3357682046908007
15,0.3357533025094896,0.3362001790598072
16,0.33572935295563133,0.3357471365047152
17,0.33571257682049566,0.3356191680242051
18,0.3357248474831216,0.3357461902994672
19,0.33570669846198625,0.33721843549690533
20,0.3356884904372932,0.33584938290397226
21,0.3356723205331657,0.3358875790393678
22,0.3356467849677149,0.335519491605664
23,0.3356611984429968,0.33556938629883987
24,0.33563064699929557,0.33553781533063787
25,0.33564013261653436,0.3354714702140013
26,0.33560477595074906,0.33582680024225126
27,0.33562412258618257,0.3370111960335346
28,0.33560366560529925,0.3354522625950371
29,0.33560830092878485,0.33573448696444114
30,0.3355984031444927,0.33555157400538255
31,0.3356185258846847,0.335522549516214
32,0.3355831085674797,0.3355669964927598
33,0.3356115525857507,0.335503920683494
34,0.33558711433115307,0.3358410930071516
35,0.33558441059383437,0.33553894849923943
36,0.3355777562011666,0.33567313025370427
37,0.3355687371485712,0.3356888654805886
38,0.3355645217695903,0.33593470185033736
39,0.3355609502033632,0.33563442722739417
40,0.33556782651193057,0.33543797787602425
41,0.33556492676382915,0.3356536459390342
42,0.3355652288349248,0.33556701061743366
43,0.33554199208433705,0.33586175086776315
44,0.335554459681069,0.3354780718203514
45,0.3355525937545918,0.3354634580334126
46,0.3355420422680071,0.3355145772544681
47,0.33554116978264603,0.33541909836362077
48,0.33555250073400283,0.3354199039137393
49,0.33554909307088576,0.33559889629224393
50,0.3355272947721169,0.33545037045076526
51,0.3355419932013177,0.3356737808021659
52,0.3355327405814365,0.3355775868330641
53,0.33551693419535755,0.33542640070169794
54,0.335536031303145,0.3355534965140056
55,0.33551911638631543,0.335424065160988
56,0.3355067435073363,0.33544338832126364
57,0.33550090722452663,0.33548367897570874
58,0.335525043670314,0.33541819077567486
59,0.3355020928395653,0.3354522973077173
60,0.33552913194225786,0.3355434372466492
61,0.33549901404521965,0.33592256439235013
62,0.3355060141946811,0.33564573770421313
63,0.335510510673761,0.33538940686445967
64,0.3355100553124495,0.3356098647448916
65,0.33549984636818364,0.33583259511526403
66,0.3355107008416935,0.33569293023634783
67,0.33550815196317546,0.3353928314545018
68,0.3354914604034345,0.3354675016835073
69,0.3355288914238182,0.33549616608962823
70,0.3354896680308449,0.3360250501715516
71,0.3355148542116814,0.3354731595545785
72,0.3354943166295197,0.33540150637070537
73,0.33551216799778594,0.3355604205178859
74,0.335502196894677,0.33581248231916216
75,0.33549397230760447,0.3358229995957083
76,0.33550035223224617,0.33565017598734304
77,0.3354779436593304,0.3354367379958813
78,0.33548788413973574,0.33567876122133905
79,0.33550014960713936,0.3354214418023159
80,0.33548501729010727,0.33540698782386025
81,0.3354952307003238,0.3366395290672927
82,0.3355090540019836,0.33541279121604806
83,0.3355084029844677,0.3356246301317333
