epoch,loss,val_loss
0,0.6637199164861514,0.5593443534806112
1,0.5587325772424308,0.5582403559246962
2,0.5581429506955522,0.5577333322825562
3,0.5577703995619521,0.5575550227839657
4,0.5575206020143402,0.5579898243506553
5,0.5574124835627698,0.5572298093410047
6,0.5573757359980938,0.557668412619134
7,0.5573056594109823,0.5575263299066435
8,0.5573179787328678,0.5580981803295334
9,0.5572837624286271,0.5572060357843972
10,0.5572299375822264,0.5571136224950217
11,0.48307181580214253,0.4471677012686102
12,0.44653928297349255,0.4467949987345239
13,0.4465031239187999,0.4464197597935537
14,0.44648686241594626,0.4463773316396377
15,0.44648567968446895,0.44642890796767865
16,0.446452183392205,0.44623648689934986
17,0.44644217783781487,0.44628226221643075
18,0.44645294067631236,0.4469296659044829
19,0.44643007191248474,0.44640094046261414
20,0.44640288512932774,0.44630939071586645
21,0.4464277654195627,0.4464598660877266
22,0.44638446666736814,0.4465721145161328
23,0.44640589791413826,0.4465996419081913
24,0.44638630215888275,0.44625369391725317
25,0.44638082569412313,0.44665518463693243
26,0.4463749013627084,0.44629062186399704
27,0.4463827500633012,0.44646143405964
28,0.4463758195930034,0.4462498684526969
29,0.4463422577483303,0.446220390835116
30,0.44632974772487005,0.44633152733369735
31,0.4463596763453516,0.4463554472100942
32,0.44634476653229044,0.4465122553314228
33,0.44633768758323417,0.44637153976904254
34,0.44633211952724217,0.44634206117530617
35,0.4463413670840298,0.446267753410576
36,0.4463315351597898,0.4464624657672333
37,0.4463293444352888,0.44619275111122697
38,0.44631907313139585,0.44642023935211506
39,0.4463275909826919,0.44674648812627676
40,0.4463197937468261,0.44627230239861065
41,0.4463334689601974,0.4461966409428835
42,0.4463382952597699,0.4464099031819895
43,0.4463293715003775,0.4462349618191163
44,0.44631922409141334,0.44618232473546166
45,0.4463346017714732,0.44636717978541374
46,0.4463091824142152,0.4462673077068613
47,0.44630950471441455,0.44620460691877983
48,0.4463105785970714,0.446314794549871
49,0.44632490454555807,0.44642487558774263
50,0.4463110912119253,0.44620194773815997
51,0.44629892073363137,0.44630288685817576
52,0.44630595463468337,0.4463795007458396
53,0.4462952123814456,0.44618680829149915
54,0.44629920293769526,0.44630881031748676
55,0.4462986613113192,0.44644598662113727
56,0.44630259775987313,0.44635431686642746
57,0.44629348956180714,0.44630313951975065
58,0.44628738399830536,0.4463983292467245
59,0.4462970227053977,0.4462330103068435
60,0.4463133850843856,0.4462366859759054
61,0.4462864389604741,0.4465420373024479
62,0.4462871011399085,0.4462053953418069
63,0.4462853061992888,0.4462155793943713
64,0.446284811615469,0.44643438953915543
