epoch,loss,val_loss
0,0.2471344696018431,0.11491683491567771
1,0.11495569356282552,0.11444442007939021
2,0.1146588702450196,0.11453496158619722
3,0.11451145831247171,0.11413312046726545
4,0.1143988924490081,0.11435901805758476
5,0.11433765217496289,0.11416256443659464
6,0.11428615454667145,0.11416782708962758
7,0.11424063471787506,0.11433717617889246
8,0.11421134279006058,0.11427390886843204
9,0.11419395079215368,0.11411988389492035
10,0.1141663471510013,0.11432136071721713
11,0.11415595789750417,0.1140883447776238
12,0.11413364056083891,0.11415586233139038
13,0.11413360326654381,0.11396674898266793
14,0.11412329339318805,0.1139763253480196
15,0.11410962692565388,0.1139628799855709
16,0.11411889893147681,0.11424845718840758
17,0.1140842841880189,0.11389207728207111
18,0.11408702414068911,0.11431810912986597
19,0.11409022757411003,0.11395253374179204
20,0.11407773101992078,0.11391433109839758
21,0.11407356427775489,0.11392575633525849
22,0.1140788290599982,0.11389422195156415
23,0.1140675567454762,0.1140046975115935
24,0.11406590961085425,0.1138976761996746
25,0.11406373332771991,0.11395946476360162
26,0.11406089612676037,0.11452534337341785
27,0.11404890428649055,0.11392850536604722
28,0.1140490462217066,0.11388189176221689
29,0.114049382256137,0.11407980420192083
30,0.11403991966115104,0.11399550997217496
31,0.11404797814620865,0.11390601769089699
32,0.11403927546408442,0.11389421308040619
33,0.11405315507120556,0.11397871361176173
34,0.11405730725824834,0.11431091798345248
35,0.11403663325972027,0.11387400388220946
36,0.11403841350641515,0.11405768867830435
37,0.1140389206558466,0.11392344077924887
38,0.11403713525500563,0.11404268633822601
39,0.11403557389809026,0.11394593482712904
40,0.1140275940630171,0.11388020394245783
41,0.11403094372649987,0.11388097510238489
42,0.11404541168610255,0.11404009299973647
43,0.11403601506352425,0.11440931375324725
44,0.11404205657872889,0.11386705862979095
45,0.11402927777502272,0.11390187967320284
46,0.11402744631965955,0.11400487118959426
47,0.11402884367936188,0.11397501634061337
48,0.11402723900311523,0.11424616274734338
49,0.1140245018551747,0.11399223386744659
50,0.11401710964904892,0.11387097391486167
51,0.11401893379622036,0.11382932879030705
52,0.11402714469366604,0.11403856707612674
53,0.11403158429761728,0.11386022727191449
54,0.11401076636380619,0.11394376820822556
55,0.11400602650476827,0.1138848058929046
56,0.114010864612129,0.11392907920479775
57,0.11400759614341789,0.11409594110151132
58,0.11403107003205352,0.11391556997597217
59,0.11401065010494656,0.11386674084762732
60,0.11400808519456122,0.11389579445620378
61,0.11400928768515586,0.11390694120029608
62,0.11400209264953931,0.11401433724661668
63,0.11400434211558766,0.11389552712440491
64,0.1140068110972643,0.11392179820934932
65,0.11401685952146848,0.11385668149590492
66,0.1140073923021555,0.11382221552232902
67,0.11399376541376113,0.1144716663211584
68,0.11401366827388605,0.11435308096309503
69,0.11401887178752157,0.11398864177366098
70,0.11400014074477885,0.114617905408144
71,0.11400928517017099,0.1143730155179898
72,0.11399091950886779,0.11386241000394026
73,0.11400184035963483,0.11408559041718642
74,0.11399073076248169,0.11390003893276056
75,0.1140082135366069,0.11386128391325474
76,0.11401072467201286,0.11385972259938718
77,0.11398241954876318,0.11398893798391024
78,0.11400321626497639,0.11386564217507839
79,0.11399101621409258,0.11476402712364991
80,0.11399014389680491,0.1138939181069533
81,0.11398317648139265,0.11393218905727069
82,0.11399926172859139,0.11399356038371722
83,0.1139854676955276,0.11384118149181208
84,0.1139873334897889,0.11423563446104526
85,0.1139930553999212,0.1138633898148934
86,0.11397628259162108,0.11422375681996345
