epoch,loss,val_loss
0,0.0911957302823732,0.07943668264904921
1,0.07312657838722723,0.06797562578032093
2,0.06739621716749737,0.06518743462657219
3,0.06431866247296211,0.060881212897247475
4,0.06169830558890606,0.060707429731750015
5,0.06041708235131189,0.05901135747729992
6,0.059651828854207244,0.06131376337546569
7,0.05925515570440959,0.058848638760466726
8,0.05875783853087519,0.058010116679866615
9,0.05826074537832688,0.057899206070686986
10,0.05808405201160396,0.05704530777395807
11,0.057864155982753775,0.05702489834491432
12,0.057706929172917885,0.05747342571320368
13,0.05758789969723973,0.057476641901447516
14,0.057384397462508334,0.05719271517790873
15,0.05709030194396186,0.05746012015577877
16,0.05696192184573505,0.05694698294250308
17,0.056787703102805696,0.056047248966049026
18,0.0567789927861644,0.05690137975047303
19,0.05679071402400971,0.05590034894109068
20,0.056593236709841725,0.055856446821991326
21,0.056482281233841296,0.056325257133239555
22,0.056390111996904774,0.05614019138530525
23,0.05628430202297275,0.056085099989811774
24,0.05620067033133948,0.055790434053015175
25,0.05606617537799163,0.05547612926578403
26,0.05618011567250242,0.05544518638152638
27,0.056054940802381145,0.05582939449226294
28,0.056017939772845034,0.05539450848812501
29,0.05586615500838585,0.05541328490889694
30,0.0560301142620344,0.056784239758924576
31,0.05588994659758043,0.05511184810630737
32,0.05580661637704033,0.05494771833270418
33,0.05569640320145494,0.054886467562567806
34,0.055701208240875974,0.05511805952778525
35,0.05566700281630121,0.05582927870136632
36,0.05570038888940229,0.05549117618658703
37,0.05552911740903471,0.05515795317351374
38,0.05547986962911381,0.055509522618268324
39,0.05553644907381081,0.05604821191753998
40,0.055532330536108024,0.05487624905984988
41,0.05542484138418447,0.05532496970507406
42,0.0553093762733239,0.05488105713951381
43,0.05522016388729105,0.05459199890531322
44,0.055104092399464455,0.054909935950419445
45,0.05507370150433213,0.05489727567798151
46,0.0550774869900337,0.054196088618735226
47,0.05496186495975607,0.05454910812765434
48,0.05496397344463185,0.05496963443368599
49,0.054813225977003964,0.05479673357592623
50,0.0548550660555971,0.05423698422150044
51,0.0548508687968125,0.0540750617535771
52,0.054742178469105514,0.05425335538964118
53,0.054739969379945415,0.054153991085719826
54,0.05465346755972224,0.054960224413250575
55,0.054625412559651976,0.054969762049375044
56,0.05465117522882938,0.054394465527744504
57,0.05454203732517511,0.054453460768641666
58,0.05455694962962674,0.053936390898585616
59,0.05464831919886662,0.05418925132630185
60,0.05456392689303858,0.05432576460223044
61,0.0545213244655929,0.053950080147969814
62,0.054433344838913815,0.05371773259034819
63,0.05448779372554819,0.054144384436512705
64,0.05446383790001302,0.053930139301284666
65,0.05450977176349747,0.05398870644624121
66,0.05428451555336426,0.05393996873764187
67,0.054156017152396346,0.05402555031235105
68,0.05428185828300382,0.054228155078278585
69,0.05418439637501559,0.053784783790927965
70,0.054154748534639884,0.05405951474906493
71,0.054231820297454034,0.053831536805363504
72,0.05415484853621019,0.05402115085728411
73,0.054219598736275236,0.05376163918534224
74,0.05411488815898137,0.05501252104419632
75,0.054152818851767405,0.053630913605465194
76,0.05403220892336871,0.05377048717871789
77,0.05407066661484649,0.053643742765741374
78,0.05394659383666596,0.053666262350810075
79,0.05380455705817882,0.054110374044691656
80,0.05390795336719513,0.05386325752099158
81,0.053949133035572173,0.05310698318163455
82,0.05390761441222023,0.054292375515804396
83,0.053946647437145175,0.053406669086691165
84,0.05375554257253532,0.05370675572760348
85,0.053765857312930605,0.05338482270317693
86,0.05380214670476373,0.053633550666365076
87,0.05388189528872387,0.05309697454125059
88,0.05369535389156606,0.053166049561710574
89,0.05355450902023005,0.05353859933670934
90,0.053536791971330724,0.05328523841485492
91,0.05359623880067887,0.05301658478068655
92,0.053537252291758354,0.053384198747556795
93,0.05352526697184502,0.05277552118631214
94,0.053464855759394456,0.05318046705080913
95,0.05345565024842968,0.053075168496252
96,0.05336792222534592,0.05279580090684867
97,0.05340334406199402,0.052935812296923575
98,0.0534270326581847,0.05356941043073427
99,0.05326155006992612,0.05321217407437767
100,0.05314582572385356,0.05357901637740526
101,0.053360150394726386,0.053103281910676814
102,0.053193579517491554,0.05265267665125892
103,0.05316824713866991,0.052901875930225876
104,0.053119067479040306,0.052559444212144424
105,0.053157395518179,0.05252635606724038
106,0.05309854244190863,0.05239978703686381
107,0.053017812581647256,0.05261348263630944
108,0.053156320400167975,0.052349215241209154
109,0.05301913669304587,0.052996584710205165
110,0.05308678024223823,0.0525788006356573
111,0.05303373236179918,0.052761872672931136
112,0.052893358764435405,0.05237968953201552
113,0.05293567554542038,0.05287651255467985
114,0.052790057941835604,0.05276030336989658
115,0.052964604784342735,0.052578020846429596
116,0.05286245278630444,0.05289616115372767
117,0.052721162976911824,0.05255862814709359
118,0.052788462534855876,0.05241242399434594
119,0.052803105748747615,0.052459591144589576
120,0.052810661913501054,0.0522941940586561
121,0.05273099938963344,0.052419841753563866
122,0.05276244726756804,0.052446007197977
123,0.052743360230059516,0.05232456742644902
124,0.052693594775790165,0.05222417619587766
125,0.05270090504976508,0.05243656454104052
126,0.0526582016631117,0.05234462462605968
127,0.052527358508122395,0.05310526497606604
128,0.052507892454236565,0.05190726124840989
129,0.05250239884784656,0.05238929041118243
130,0.052492723851010434,0.052109997906253
131,0.05240278598272408,0.052383572996476155
132,0.05246756443131724,0.05239975359706814
133,0.05263164324345971,0.05246116772072191
134,0.052444245702058565,0.052521750131256824
135,0.05236490411184416,0.05194738488413264
136,0.05239562234004747,0.051821722169741805
137,0.0524572710652317,0.052124641384587396
138,0.05234661997376266,0.05201361905922073
139,0.05245023462094837,0.05171208555807842
140,0.05237345014513564,0.051937479679253204
141,0.05223263985168771,0.0521097446493712
142,0.052359288879145816,0.05268434885306926
143,0.05236510503737141,0.052045719846898215
144,0.05219969219512966,0.05236884496052271
145,0.052338175560593614,0.05200030941784234
146,0.05222761291248883,0.05367215063894357
147,0.05217766248351255,0.05235407652689269
148,0.052065899314277755,0.05237134439182045
149,0.05212697390959404,0.05165418042956156
150,0.05208035120051171,0.05205346870400178
151,0.052175016413328765,0.05165737500742411
152,0.05215471446754919,0.053023991780008925
153,0.051989514825148804,0.051890335285634026
154,0.052145768903072896,0.05163105306938919
155,0.05210508046318575,0.05227667944639847
156,0.05214463596553523,0.05207127538641392
157,0.05203966873772345,0.052998186891930865
158,0.05200744519519646,0.05181873080877601
159,0.0520743935224957,0.0515826185236202
160,0.05194167135895506,0.05165499791539928
161,0.05202538805665853,0.052269979991554916
162,0.0520003594826905,0.05183131584606455
163,0.05196739406247408,0.05178761711302526
164,0.051863304310224255,0.05226384759799718
165,0.0518432326327033,0.051567559260366574
166,0.05184625910885915,0.05186796909008665
167,0.05185569015446033,0.05185891725954879
168,0.05190220718289027,0.0519533647497002
169,0.051937792921169304,0.051845833640684263
170,0.05185916770650774,0.052215834923328895
171,0.05174737925712985,0.05171752982858393
172,0.05178813611859135,0.053452076456017295
173,0.051852224512436325,0.05247263693927831
174,0.051851821029493574,0.05197581442872585
175,0.0518033733131871,0.0524702829828777
176,0.051641569402064366,0.05135378718524062
177,0.05172733859586388,0.0513489175726551
178,0.05166887595884353,0.051750026162593596
179,0.05186019303634745,0.05150388317464599
180,0.05167261202147798,0.05203406060895612
181,0.051897511530024004,0.05144500790843301
182,0.05191805266294782,0.054587159518420546
183,0.051834779819401766,0.051917695119126556
184,0.051846018988666774,0.05171501785701617
185,0.05174727841166132,0.051958965556349414
186,0.05166424100048675,0.051739333436891397
187,0.051683720150966096,0.05234367663304208
188,0.051694479353902506,0.05169552005180354
189,0.05171142307055246,0.05521686938464198
190,0.05170037522834129,0.05173472685568386
191,0.05163737505538684,0.05159343943813303
192,0.051720769952145175,0.051969942696411024
193,0.051625742440857214,0.05237008832746345
194,0.051713708355385656,0.05207862993771622
195,0.051615278332620126,0.05248684794746025
196,0.05162401567071803,0.05178001061007935
197,0.05160071761334227,0.051151714472114
198,0.05159602318291315,0.05147552959269684
199,0.05154961013274581,0.05189127079014742
200,0.05150544920263529,0.05122855273872688
201,0.051634609747860806,0.05148002947160683
202,0.051621145881028424,0.05126092100779413
203,0.05163590135357362,0.051678068518047
204,0.05143735077215804,0.05168648187080329
205,0.05165811113180883,0.05263177405294059
206,0.051554432547290356,0.052749901547769165
207,0.05152858139826538,0.05139779971713759
208,0.05151723420994086,0.050967961889934306
209,0.05155770029164239,0.0512735246317854
210,0.05145632319320573,0.051144292381206165
211,0.05149475261567051,0.052168279078329174
212,0.051511075241860396,0.051338808915159545
213,0.05151867606560257,0.05136001021705253
214,0.05149737635802386,0.05191920534626722
215,0.051617596713034695,0.05166893249964596
216,0.051580122816808335,0.051318056162252615
217,0.051436521539477684,0.051599070577704284
218,0.05154907293914029,0.05141969296905598
219,0.051366318626860606,0.05207352863795704
220,0.051388158874179954,0.051339006542272074
221,0.051410258351238795,0.05183391362687494
222,0.05132239322538326,0.051479945838377436
223,0.05128708107548834,0.05210577714864729
224,0.051467502715611325,0.051604022054237406
225,0.05145511215317543,0.05135276127911679
226,0.05139683282904758,0.0514917456519515
227,0.051409651536768956,0.05133357028807363
228,0.05136843795013673,0.051464192534129025
