epoch,loss,val_loss
0,0.4532016786272262,0.4498559420221201
1,0.44810751703371715,0.4474305779407397
2,0.44731342302372606,0.4472988771445698
3,0.4470088661049896,0.44676664959704016
4,0.4468871887736644,0.44677000443633674
5,0.44677080364709487,0.44662324994728525
6,0.44670356633533465,0.44694025828583955
7,0.4466555090691492,0.4491623836770543
8,0.44664128974735406,0.44737715724088417
9,0.4465985175158707,0.44657531374737286
10,0.446560359959507,0.44651685694311155
11,0.4465532371086137,0.44629851742358717
12,0.446516621228939,0.4463085425402923
13,0.44649325716464117,0.4463350313768789
14,0.44650366179311485,0.44632462659485583
15,0.4465397112728707,0.446622418928383
16,0.44644282796079965,0.44645959017590314
17,0.44643532807252634,0.44634561223664293
18,0.44645628069268156,0.4462462870861697
19,0.4464342629241693,0.4462974008200482
20,0.44642848139076713,0.446917982136937
21,0.44644231448651744,0.44642880070889857
22,0.44642993604827175,0.44633381721695364
23,0.44638705588143096,0.4465384497831832
24,0.446456759732248,0.44650694294543775
25,0.4463689927557942,0.44641436861998984
26,0.44639059159699573,0.4462463699706435
27,0.4463942387238892,0.4463057202973378
28,0.4463696547451211,0.4469906612306316
29,0.44636649252075933,0.4462307571033686
30,0.44636662252792314,0.4464707296480316
31,0.4463667653215971,0.44624107055569406
32,0.4463741391034618,0.4478009177940359
33,0.446388299952975,0.44638727816103707
34,0.4463461275436654,0.4464162030971376
35,0.4463673836149711,0.44624289349645896
36,0.44633570827414665,0.44636122707101905
37,0.4463392721804578,0.4462489173814617
38,0.4463589007864622,0.4464325942561289
39,0.44633324788558304,0.4462340642885298
40,0.4463333918695987,0.44638776106219136
41,0.44632877164349527,0.44631566184921834
42,0.4463439540404665,0.4462861024860117
43,0.4463248182883818,0.4466244870320739
44,0.44633514257746804,0.44620772632712463
45,0.4463194296777811,0.4461879393894678
46,0.44632212717152486,0.4462411927674012
47,0.4463249571197719,0.44625769761892464
48,0.4463158533561034,0.4463147917545167
49,0.4463129878265789,0.44646069055455495
50,0.44632316433146985,0.44625034032033634
51,0.44633737704998444,0.4463152209819103
52,0.4463045778301798,0.4462062042197282
53,0.44632316875837347,0.4466117704032964
54,0.44632143931257845,0.4463810042471211
55,0.44629669534013267,0.4462553153558641
56,0.44632635719273417,0.4461929415354953
57,0.446318020413393,0.4463322712972797
58,0.4462997381004134,0.44631814057418784
59,0.44632107541470917,0.44644774966145273
60,0.44632126196941424,0.44726586004640567
61,0.44630387701196994,0.4469302093420668
62,0.4463070612911783,0.44666639344567993
63,0.4462972365634175,0.4466006480434692
64,0.44629685689884535,0.4462376740818876
65,0.4463031598732998,0.4465585622982707
