epoch,loss,val_loss
0,0.344112343420695,0.33893335446826284
1,0.3378076585966715,0.3368282406117129
2,0.3369881790011281,0.33610766667586106
3,0.3365971616708154,0.3369023437831301
4,0.3363771832929887,0.33700823329814317
5,0.3362612793448932,0.3360615866651606
6,0.33618518113348467,0.3359680126086062
7,0.3361092693272983,0.3357921106495869
8,0.3360721641714341,0.3370029700009462
9,0.3359771304752403,0.3357291233598742
10,0.33597924565800674,0.3361229596747358
11,0.3358924184429127,0.3358393660697984
12,0.33588975840627977,0.3356946070052258
13,0.33584996624966396,0.3356623549023574
14,0.33583037980770813,0.33616018727162933
15,0.3357777027824056,0.3358709958439725
16,0.3357810100198093,0.33573889596290685
17,0.33572066900315556,0.33566547086457754
18,0.33572401362983095,0.3356012499214106
19,0.33569514306890214,0.335687331378312
20,0.3356931093306714,0.33555428866417175
21,0.3356726541818415,0.33568803963826843
22,0.3356644766759778,0.3357800410491953
23,0.335653844752191,0.3355179288399131
24,0.33565043943268236,0.33561998157584044
25,0.3356286575723036,0.3354926871011038
26,0.3356254791876137,0.3360727864666553
27,0.33562797588120463,0.33578435962016767
28,0.3355963477560842,0.3354114835374704
29,0.33562414030405197,0.33546101933081746
30,0.3356049868171381,0.3356918164281632
31,0.33560048617383437,0.33550236767929775
32,0.3355808773334973,0.33548022555949963
33,0.3355729611443166,0.33545051440411705
34,0.33559991609324324,0.3354450398432114
35,0.3355906439056906,0.3354358247580658
36,0.3355712028285941,0.33546554938735207
37,0.3355896420410729,0.33576245219180956
38,0.33555083877876773,0.3355881332463721
39,0.3355739254043126,0.3355965915595923
40,0.33556380159787585,0.33548086928966325
41,0.33554750000598615,0.3372016548518803
42,0.3355737445386362,0.3357082384839543
43,0.3355699924534227,0.33578319823179886
44,0.335557356506562,0.3354406534294337
45,0.33553144668513923,0.33541121046537203
46,0.33555999983542,0.33572501198529603
47,0.33555260343864074,0.3354983267653965
48,0.33554157379084976,0.33541891715366845
49,0.3355329442308367,0.3354265780513991
50,0.33553677374939467,0.3355569543081241
51,0.3355238451748947,0.3357807516164283
52,0.335542233586051,0.33569690410611647
53,0.3355119639015146,0.3357776415850921
54,0.33552979652209636,0.33539735232630086
55,0.3355212721274707,0.3354376595458085
56,0.3355100412444881,0.33541923617902525
57,0.3355172749016789,0.3355095715587843
58,0.33551400466189363,0.3354074621318883
59,0.335496745948114,0.3357142984127584
60,0.33549449255160996,0.33540235086351117
61,0.3354970281435008,0.33596788057618343
62,0.33551351569137505,0.3359962195527761
63,0.33554261043845085,0.33553147102999625
64,0.3355067179031574,0.3355388057586869
65,0.3355069907868221,0.33564110093613714
66,0.33548756567245236,0.335488115957298
67,0.33550991745644543,0.3355633426688741
68,0.33548390115781407,0.3365707806115115
69,0.33549362146720774,0.3353996299188723
70,0.33549606300159496,0.3366180555696227
71,0.3355073936531971,0.33539224272922014
72,0.33547835440215457,0.33545661397074944
73,0.33550209917898277,0.335457868463644
74,0.33547670854374695,0.3355651599449792
75,0.3354935099876453,0.3354132227950889
76,0.3354810001842682,0.33540061863125403
77,0.33548967003762376,0.3353898080199883
78,0.3354771732053425,0.33540179349352645
79,0.3354944073498857,0.3353703809435255
80,0.3354757158496511,0.3353756511773424
81,0.33548919729369486,0.3356395607994449
82,0.3354741300853561,0.33546074482406635
83,0.33549409143091175,0.3355760721059946
84,0.3354720595916772,0.33547360942913934
85,0.33548433603483585,0.33552808016168867
86,0.3354751391578911,0.33538297093831576
87,0.3354759118994807,0.33535845881656146
88,0.33547825587593944,0.3354165776195952
89,0.335504708757039,0.3354743959442262
90,0.3355106370341722,0.33581739360877955
91,0.3354810287224934,0.33533881870156185
92,0.33547601824692713,0.33544241627747606
93,0.3354665355187715,0.3355202915502837
94,0.33547356955747404,0.3360009168572816
95,0.3354677773902737,0.33541423752349303
96,0.33546084079393645,0.3356816557737497
97,0.3354897741653077,0.3353704217349921
98,0.33547236100410127,0.33631024178736857
99,0.3354642774378114,0.33614640108704863
100,0.3354767736985867,0.33538463053573153
101,0.33546931660108587,0.3354488837216096
102,0.3354787014329057,0.3356013962116194
103,0.3354589930917563,0.33600994230204123
104,0.33550779647027024,0.33557320420558634
105,0.3354649275426531,0.3355222470559198
106,0.3354723282791705,0.33551360445637857
107,0.3354856438354127,0.33624230178059183
108,0.33545902625488105,0.33540955847013676
109,0.33548119859072195,0.33540721581532407
110,0.33546302413697787,0.33561466839118276
111,0.33546538518328356,0.3354751031836564
