epoch,loss,val_loss
0,0.7813311769501919,0.7792038168859837
1,0.779299322723533,0.7790915211731979
2,0.7790760426600752,0.7789127494502008
3,0.7788375437104275,0.7792572458683705
4,0.7787455929246847,0.7789470695975992
5,0.7786883145018181,0.7786060867179416
6,0.7786593087799166,0.7786446997013045
7,0.778657163754992,0.7786042183859473
8,0.7786328370170317,0.778730338471699
9,0.7786273136233071,0.7787295135315832
10,0.7786107629403876,0.778643718073445
11,0.7785995195911591,0.7786476906416729
12,0.7785886238611476,0.7785959227209351
13,0.778599774669789,0.7785606807573854
14,0.7785788250361372,0.7786504113348779
15,0.7785762835067368,0.7788769144574111
16,0.7785741834947136,0.7786351923907069
17,0.7785725933646492,0.7785044930413106
18,0.778565418355649,0.7784914518408385
19,0.7785522092710936,0.7786901639353845
20,0.7785543298029037,0.7784962159232526
21,0.7785505314225487,0.7784924622209137
22,0.7785402967526244,0.7785634908131867
23,0.778540664548488,0.7784981748306425
24,0.7785422323192183,0.7786281563508007
25,0.7785382255099531,0.7784797905692391
26,0.7785393686860367,0.7785100742250163
27,0.7785304058902993,0.7785698603459682
28,0.7785298372911275,0.7784947689946177
29,0.7785400052112016,0.7787132241885656
30,0.7785318016728253,0.7784982222481341
31,0.7785327621886483,0.7784825760436709
32,0.7785236886059398,0.778524291870316
33,0.7785241345943951,0.778484122481003
34,0.7785209364996503,0.7785685049097236
35,0.7785179361231067,0.778548646061947
36,0.778512685517993,0.778481685612397
37,0.7785228136298539,0.7785291615254234
38,0.7785107065682167,0.7787912854485713
39,0.7785153745590486,0.7784974278054817
40,0.778507573833407,0.7784709594977405
41,0.7785068583252447,0.7784566299199467
42,0.7785117648364145,0.7785008028482385
43,0.7785107798306323,0.7784596295865535
44,0.7785055446053013,0.7787320965868664
45,0.7785097851017542,0.778498850596454
46,0.7785135103340738,0.7785161982103258
47,0.7785032387154384,0.7785297106572475
48,0.778499553957103,0.7785162085339095
49,0.7785051622563469,0.7785029456574035
50,0.7784931297468595,0.7785140709604874
51,0.7785028209583542,0.7786027982867977
52,0.7785048793644248,0.7784817690293191
53,0.7784976589599415,0.7786882621182993
54,0.7784979112019453,0.77851586537089
55,0.77850452619028,0.7784961849229212
56,0.7784973731280569,0.7784604935728883
57,0.7784974079209006,0.7785933656077231
58,0.7785036794897395,0.7784642244686856
59,0.778501864951473,0.778472742608404
60,0.7785026157683727,0.7784799625205047
61,0.7784883645187576,0.7784527905229895
62,0.7784985400731106,0.7784750057509164
63,0.7784938819520967,0.7785111927217053
64,0.7784967146718914,0.778569458199494
65,0.7784968766293567,0.7784684647697373
66,0.7784976097244429,0.778476129779153
67,0.7784919436608904,0.7785343626888455
68,0.7784942324607912,0.7785335658205946
69,0.7784967073594543,0.7784585549576999
70,0.7784878858972701,0.7784498548980978
71,0.7784808994907729,0.7784515354236953
72,0.7784872181392429,0.7784399560899947
73,0.778485687247807,0.7784990130819694
74,0.7784907128594081,0.7784792014446211
75,0.7784942738064304,0.778452407662981
76,0.7784886844934916,0.7786319811350063
77,0.7784867169975003,0.7785519076931862
78,0.778486608253594,0.7784557292538304
79,0.7784879471900071,0.7784756220895659
80,0.7784877801627432,0.7784511633901383
81,0.7784839671251721,0.7786673169869643
82,0.7784874375604734,0.7784625271118013
83,0.7784886314937051,0.7785592195118035
84,0.7784821274832381,0.7785038793057425
85,0.7784875641318962,0.778589060998732
86,0.7784815151135691,0.7784367513124167
87,0.7784856666664914,0.7785081365859834
88,0.7784818289859284,0.7784894321160044
89,0.7784833966580551,0.7784737719791402
90,0.7784826602972204,0.7784781588809958
91,0.7784866250895534,0.778454769397196
92,0.7784817747445264,0.7784476156861847
93,0.7784839622675682,0.7784941352330721
94,0.7784812273443226,0.7784808101192597
95,0.7784804137130363,0.7784668352112877
96,0.77848203215651,0.7784499185256863
97,0.7784834884547772,0.778475564999261
98,0.7784872650721522,0.7784726153236465
99,0.778481818861319,0.7784848390678614
100,0.7784794830330608,0.7784505832579828
101,0.7784777538791322,0.7784468717965536
102,0.7784882899981611,0.7784485418210846
103,0.7784817808327021,0.7784915035770785
104,0.7784742029218297,0.7784859876478872
105,0.7784819357427767,0.7784517476635594
106,0.7784844949308843,0.7784564045463543
