epoch,loss,val_loss
0,0.669239552702795,0.6669143334511788
1,0.6668358090825931,0.6673834642464707
2,0.6667981376952248,0.6668344626947313
3,0.6667753115048475,0.6668222576453727
4,0.6667596687757641,0.666702103230261
5,0.6667544085997983,0.6667149206544862
6,0.6667522021858996,0.6667111986328296
7,0.6667384850731317,0.6668198284676885
8,0.6667420698427645,0.6667140072687684
9,0.6667284140700633,0.6668477849096578
10,0.6667326714079975,0.6667021720935926
11,0.6667227359027315,0.6668187134319145
12,0.6667248351992875,0.6667375703307594
13,0.6667214408283193,0.6667024652656195
14,0.6667178408729555,0.6667227568756557
15,0.6667170775010668,0.6667162186750407
16,0.6667154779831584,0.666691739712992
17,0.6667134579977523,0.6667742252349853
18,0.6667183845704,0.6667063453061409
19,0.6667145931506646,0.6667293458659359
20,0.6667103528703506,0.6666970618013709
21,0.6667089864298658,0.666725325288607
22,0.6667120811794442,0.6667001846706305
23,0.6667086184762365,0.6667142804739788
24,0.6667069542980837,0.6666924750538676
25,0.6667089899575054,0.6667084680893285
26,0.6667083393438694,0.6667338963773647
27,0.6667092957451648,0.6667255681146759
28,0.6667072669319828,0.6667919321628125
29,0.6667094515734353,0.6667227703643496
30,0.6667059977666316,0.6667148273576874
31,0.6667082832077021,0.6666901411252932
32,0.6667061458770074,0.6667430305895083
33,0.6667058881881451,0.6667883046211734
34,0.6667039117870727,0.6666943306662605
35,0.6667048385647152,0.6667024878355173
36,0.6667042908899992,0.6667164120721462
37,0.6667043154335986,0.6666879189813107
38,0.6667023138436653,0.6666880699304434
39,0.6667025136562053,0.6666874808354059
40,0.6667010887201681,0.6666874047248594
41,0.6667010274203317,0.6667012222647372
42,0.6667031084973236,0.6667519870821951
43,0.6667001279968833,0.6666885756973001
44,0.6667014518958653,0.6666910132166766
45,0.6667005926640005,0.6666886255699707
46,0.6667008671612134,0.6666859514364237
47,0.6667000745435204,0.6666879083915029
48,0.666699058617252,0.6666878516265832
49,0.6667017210424565,0.6666868284085844
50,0.6666990778536156,0.6666896251235943
51,0.6667001372687694,0.6666915625851444
52,0.6666988380987615,0.6666937147713181
53,0.6666986854131824,0.6666861315518987
54,0.6666994535290838,0.666835020256989
55,0.6666987962419616,0.6666922437346011
56,0.6666996591402996,0.6666854677661773
57,0.6666978375435986,0.6666867490737669
58,0.66669936865354,0.6666976943205367
59,0.6666959809292379,0.6666929628653798
60,0.6666993909213701,0.6667217035151592
61,0.6666981286748308,0.6666987297552691
62,0.6666984227775787,0.6666933192508688
63,0.6666968673196674,0.6667004153982877
64,0.6666983473600846,0.6666917159598755
65,0.6666972338376294,0.6667544878150334
66,0.6666973932739999,0.6666861701839911
67,0.6666981560582117,0.6667021688989019
68,0.6667001109132318,0.6667169793072173
69,0.6666976674840792,0.6666893990696512
70,0.6666983335295604,0.6667149229321823
71,0.666697937500748,0.6666864050824944
72,0.666698080932584,0.6666871129431144
73,0.6666996022310806,0.6666884483533817
74,0.6666975814016284,0.666690663043086
75,0.6666964540794132,0.6666857455563604
76,0.6666977078050308,0.6666949098814214
