epoch,loss,val_loss
0,0.3442802583300744,0.3376496456397083
1,0.3379311644198446,0.33679223800119634
2,0.33690985640710414,0.3397947205207484
3,0.3364964532024061,0.33601848244962856
4,0.3362496136255135,0.33579835206935776
5,0.3361283893927462,0.33636605315113777
6,0.33603461736054213,0.3357464420292573
7,0.335973502175703,0.3359364193958917
8,0.33591051671912675,0.3355711751924851
9,0.3358078437234809,0.3361364975016999
10,0.3358266631361462,0.33550942412972745
11,0.3357477535948074,0.33564713461227513
12,0.3357409634412631,0.3355840987662228
13,0.3357569743101392,0.3355032768054281
14,0.3356923796314905,0.33570813671235117
15,0.33569537364140195,0.3355697480679742
16,0.33566139145268276,0.3355885553596629
17,0.33564691887957815,0.33594496038652233
18,0.33565759196639056,0.33558202230604944
19,0.3356037975699402,0.3355264089391486
20,0.3356115231991407,0.33545605228201625
21,0.33561756072858,0.3355121979642447
22,0.3355933131045626,0.3364435341015051
23,0.3355906918822194,0.33613294269843375
24,0.33558389881237743,0.3354418060471935
25,0.33558608135002527,0.3356100716454811
26,0.3355579353597111,0.33555091987768415
27,0.33552936233963776,0.3354464453591898
28,0.33556161114749267,0.33538707755043845
29,0.3355671875011681,0.33547912736980257
30,0.3355322675401194,0.33554387823227916
31,0.33553354721108397,0.33544077235770875
32,0.33554240789064915,0.33542412429234525
33,0.33553553215122134,0.33548749401314976
34,0.3355364226123985,0.3354873342934081
35,0.3355355238590597,0.33538857325726645
36,0.3355183616233029,0.3357326341621929
37,0.33551968026987256,0.3353532117590419
38,0.3355019403649977,0.3353733051207758
39,0.33549755077489474,0.33551062076322496
40,0.3354928846827722,0.33559500236369244
41,0.3355293529174798,0.3353473233082158
42,0.33549588463098207,0.33535977341696876
43,0.3354892007546785,0.33564430439738424
44,0.3355050457341752,0.3357163303839066
45,0.33550877177149396,0.3360510773605508
46,0.3354810249380903,0.3359414109816918
47,0.3354850362539307,0.33530522346792385
48,0.3354651998504733,0.335536933862246
49,0.33550117605795315,0.3354326951148788
50,0.3354555174008873,0.33533865454474987
51,0.3354686162545953,0.3354551140634949
52,0.3354786968178665,0.3355946485221238
53,0.335475709202985,0.33554843849047244
54,0.33545861698677115,0.33595588161395146
55,0.33544724503528184,0.3362053223786224
56,0.33545021537364333,0.3353310682193813
57,0.33545289975351333,0.3355092569409174
58,0.33548585916617474,0.33533151032906905
59,0.33545087994164946,0.3355652976864325
60,0.33546112700682507,0.3359868221927813
61,0.335464307402238,0.3353348410750737
62,0.33546273745394767,0.3354592558763755
63,0.33545772642699045,0.33551571120695206
64,0.33543781926683014,0.33566431712275996
65,0.33546475882493043,0.33556038685531236
66,0.3354475018726041,0.3353693625175628
67,0.3354632998545078,0.33539208147129407
