epoch,loss,val_loss
0,0.6190736880712431,0.6138179331796045
1,0.6141333819584203,0.6132038758942862
2,0.6134956164188144,0.6129631790866331
3,0.6132873826333234,0.6130233756957516
4,0.6128831026838433,0.6122595705110441
5,0.6126121434300723,0.612067797787432
6,0.612406709890687,0.6122822212226338
7,0.6122126322962845,0.6120808960190482
8,0.6121222200244241,0.6131671779208976
9,0.6120653365402094,0.6120654793590233
10,0.6119036659858861,0.6118305889903464
11,0.6118849786538194,0.6117854352328677
12,0.6117921993508141,0.6113283036956124
13,0.6117115810645033,0.6118856770524908
14,0.6116086119609084,0.6118054763554935
15,0.6116276811670549,0.6114702498054978
16,0.6116369670715405,0.611556022871221
17,0.6115110050319159,0.611484154755661
18,0.6114797917578367,0.6111751714356188
19,0.6114048622225654,0.6111807210865446
20,0.6114591937672144,0.6110734142085754
21,0.611406932683508,0.6119217229244431
22,0.6113592836090763,0.6113404181104144
23,0.6113221703696955,0.6110982509463951
24,0.6112937723539109,0.6113747610939347
25,0.6113312031037266,0.6113193870182368
26,0.6112390336524506,0.6112067474325005
27,0.6112810229345135,0.6113779627064025
28,0.6112315781763861,0.6127107776424133
29,0.6112171963875427,0.6116202273380668
30,0.611198046438523,0.6109739660625126
31,0.611174994846809,0.6115474097781974
32,0.6111809118200346,0.6109909716670034
33,0.6111669274041668,0.6114061470954649
34,0.6111729698002815,0.611195967185586
35,0.6111786923297315,0.611073748615776
36,0.6111078383745532,0.6121539178320551
37,0.6111639049640996,0.6114983027981173
38,0.6111647657657322,0.6111583842533103
39,0.6111128366217053,0.6111123926290507
40,0.6110823370320178,0.6113685972637337
41,0.6111003418526041,0.6112286787175067
42,0.6110632312210892,0.6120153612593563
43,0.6111386948790088,0.6109090616034515
44,0.6111264360807529,0.610912350005015
45,0.611103691283243,0.6113456402168085
46,0.6110920175809224,0.6110943762599387
47,0.6110704755728179,0.6108711004848811
48,0.6111077718432084,0.6111654260909882
49,0.6110888456752726,0.6107552455021785
50,0.6110380610010073,0.6113375878511528
51,0.6110579117915071,0.6112178880582673
52,0.6110470056150443,0.6108281746099959
53,0.6110887784339823,0.6109940942700388
54,0.6110429928540707,0.6109300747402844
55,0.6110693510414767,0.6111628945057209
56,0.611094670820223,0.6108480968487174
57,0.6110120701929637,0.610975544121366
58,0.6110305362950168,0.6108892530128914
59,0.6111153150101444,0.6110436575880122
60,0.6110223008493303,0.6111244702457495
61,0.6110410576456049,0.6108724152184006
62,0.6110638842114644,0.6110008429948509
63,0.6110244300330077,0.610985075125919
64,0.6110735550420059,0.6112349757189787
65,0.6109940223323351,0.6113411493987658
66,0.6110021388945182,0.6108136922194999
67,0.6109938592018823,0.6115542868822443
68,0.6110959796257669,0.6109204055062003
69,0.6109961090021188,0.6109230675709159
