epoch,loss,val_loss
0,0.5256687885748368,0.5239021204245593
1,0.5206083022867052,0.5201021151270523
2,0.5199890570045724,0.5202922841455445
3,0.5193063413771362,0.5184353437080572
4,0.5188057333508246,0.5185593918594474
5,0.5186107018036492,0.5186448719897874
6,0.5185652024713346,0.518260024380743
7,0.5183758470949672,0.5182640463779346
8,0.5182371564649528,0.5179703143039354
9,0.5182303702267572,0.5184311317450947
10,0.5181386706165225,0.5177961912699433
11,0.5180706536550099,0.5178286027671681
12,0.5180139655737859,0.519934620928232
13,0.5178792837385171,0.5179621831950716
14,0.5178442662838294,0.5182111347875288
15,0.5177711363756058,0.5180932412372333
16,0.517773727859916,0.5175163520476954
17,0.5178243513955195,0.51747151583655
18,0.5177382306643936,0.517777849042386
19,0.5177037694960589,0.5175015458102262
20,0.5176239279751502,0.5176027009268257
21,0.5176506067573092,0.5180185817607283
22,0.5176457672389487,0.5173703716943046
23,0.5176920660541277,0.5174439919497772
24,0.5176295282449123,0.5191959666259236
25,0.5176135719061494,0.5175279391018983
26,0.5175955777426315,0.5175748251803756
27,0.5175145529637027,0.5173779849674802
28,0.5175699377012292,0.5174211311872781
29,0.5176054502804783,0.5172808959229709
30,0.5175224760058281,0.5173775156733416
31,0.5175360442170256,0.5174965188461853
32,0.5174944270835802,0.5174969894714451
33,0.5175408449494941,0.5175811004697832
34,0.5175001455545094,0.5174172045870987
35,0.5174810388001424,0.5182252505872741
36,0.5174889943443545,0.5176486144586473
37,0.5174677103027798,0.5183541039970909
38,0.5175288971333312,0.518023890656218
39,0.5174759180795298,0.5187785482584099
40,0.5174444765761649,0.517394439369514
41,0.5174460325318267,0.5177837522686564
42,0.5174846638568071,0.5180768497232764
43,0.5174896526837733,0.5173342391811588
44,0.5174395532432344,0.5176817434301447
45,0.5174748213023187,0.5172438992460076
46,0.5174792698372117,0.517249523439715
47,0.5173777975476761,0.5174885434193292
48,0.5174414149991772,0.5173021400832657
49,0.5173913786167726,0.5178966610662399
50,0.5174081600516504,0.5176051966901453
51,0.5174190660143407,0.5178890584124525
52,0.5174022181751196,0.5176238490393381
53,0.5174209968716305,0.5176273289152765
54,0.5173607251495866,0.5178715863535481
55,0.5174008122522077,0.5195119294280154
56,0.5174307592630345,0.5176825838704263
57,0.5173519631824001,0.5174502525968528
58,0.5173543831660019,0.517382834833254
59,0.517425270481512,0.5172807228476475
60,0.5173915077960614,0.5180356277425591
61,0.5174068896052423,0.5182485298838272
62,0.5173437986381664,0.5183468953551489
63,0.5173117325051652,0.5180423944818766
64,0.5174208532331216,0.5173270477846302
65,0.5173964484169498,0.5174019700244402
