epoch,loss,val_loss
0,0.620724271339471,0.6156048155008416
1,0.6145846877788971,0.6159434617601021
2,0.6140523024655813,0.6130982354320308
3,0.6135665469699961,0.6128488193966319
4,0.6133745786587141,0.6135156310817445
5,0.6130466405719133,0.6126911726246401
6,0.6129006549332033,0.6146289347714881
7,0.6128328582219797,0.6133836833774008
8,0.612689773879052,0.6138570498296109
9,0.6126445142400629,0.6131073006329406
10,0.6125958438824308,0.6132429390628048
11,0.6124995914124122,0.6125202551373181
12,0.6124586305926749,0.6126501356401751
13,0.6124160034239298,0.6124033183672883
14,0.6123333886482485,0.6125078715994103
15,0.6123148708550746,0.6122210075186737
16,0.6122890415091122,0.6120634771458269
17,0.6122444177263617,0.612198184264209
18,0.6122748511436212,0.6121296813115292
19,0.6122418050020644,0.6127149697864618
20,0.6122305336660014,0.612259460412539
21,0.6121713483023262,0.6123324698313294
22,0.6121982720108967,0.6121945085951471
23,0.6121338552548066,0.6126519461127724
24,0.6120987925750225,0.6120375666665676
25,0.6120817770340894,0.6137508886919424
26,0.6121652960663692,0.6134376230074218
27,0.6121267544137966,0.6130885785330022
28,0.6120993676126099,0.6126281404613562
29,0.6120657847145076,0.6119532681576372
30,0.6120515040565898,0.6120582716340759
31,0.6120717920850741,0.6122675468844753
32,0.612063109431404,0.6123873707378472
33,0.6120184947738176,0.6120782964578634
34,0.6120292645973885,0.6125530440221649
35,0.6119963977130873,0.6121092277484259
36,0.6120145931902852,0.6120274144425877
37,0.6119520653289818,0.6118529243445574
38,0.6120095579660241,0.6119850549153595
39,0.6119430984242387,0.6125688198778233
40,0.6119711724564646,0.6120771829602736
41,0.61197471099209,0.6120263606679647
42,0.6119395864303143,0.6117739004473532
43,0.6119219571889591,0.6126076510171441
44,0.6119136446787052,0.6123336785780289
45,0.6119615347156867,0.6133551637233043
46,0.6119225798520468,0.6119908028145877
47,0.6118809102646838,0.61167358795999
48,0.6119201725370251,0.6117012214719806
49,0.6118545210203242,0.6118762300564693
50,0.6118118354175552,0.6123197826794892
51,0.6118539685866079,0.6123994805085157
52,0.6118528257844289,0.6138683969862112
53,0.6118544750221764,0.61183459282513
54,0.6118257506271619,0.6116381698447481
55,0.6118551643751633,0.6137206029063714
56,0.6117899584106956,0.6134964772844433
57,0.6118456239008421,0.6121112202888092
58,0.6118136558357469,0.6117809041558069
59,0.6118074204196916,0.6126567233880755
60,0.6118609672372958,0.6134703672849215
61,0.6118107479635043,0.611979753977016
62,0.6118336582106217,0.6115951228674233
63,0.6117853326063938,0.6116467463171512
64,0.6118086820966969,0.6116262336522711
65,0.6118191204807053,0.611823419128399
66,0.6117966044331078,0.6117727775727549
67,0.6117885638295549,0.6122107722327372
68,0.6117674547098364,0.611996774046356
69,0.611778350058844,0.6116369294469469
70,0.611741967037693,0.6117828020682702
71,0.6117686198610949,0.6121022730548092
72,0.6118452931144293,0.6122174020440644
73,0.6117920907812389,0.6119868887565272
74,0.611799469344191,0.6117739949273708
75,0.6117884287624529,0.6126472559223696
76,0.6117890049225426,0.6122761609240738
77,0.6117416097742631,0.6117678767694137
78,0.6117563642449718,0.6118811210095143
79,0.6117995553382931,0.6117405765997269
80,0.6117743938828809,0.611876904579901
81,0.6117528790293971,0.6132799986278449
82,0.6117406549529905,0.6127971739390352
