epoch,loss,val_loss
0,0.5208731713665343,0.5123779657870123
1,0.5127428853407615,0.5118800419900447
2,0.5124739874930413,0.5125766188875145
3,0.5122264512895388,0.511760732116994
4,0.5120251701003912,0.5124731855888861
5,0.5119026146786243,0.5116514887685228
6,0.46845960363847694,0.4671304876659496
7,0.4673920770601498,0.4671800517553037
8,0.4674477049871366,0.4675241279483456
9,0.46733911647243065,0.46815986735694975
10,0.4673471442348601,0.4671706141979111
11,0.46725155785353323,0.46831341039903596
12,0.46725902295020555,0.46773567533679405
13,0.4476572518086991,0.44486122543571643
14,0.4450370047890818,0.4451510716996707
15,0.4418966825559527,0.42263606383398555
16,0.42279859782422985,0.42275862298610684
17,0.4227834005648881,0.422856373888791
18,0.4227657616759678,0.4227378907932611
19,0.4227882405843113,0.42274058379761004
20,0.42276465615784115,0.422700025394048
21,0.42276143883558687,0.42274718555999197
22,0.42274458213320876,0.4228911091758676
23,0.4227349789202133,0.4228404221705845
24,0.42275667156455254,0.4226442278066819
25,0.42269499845633185,0.42265672099422996
26,0.41900823154253386,0.4006640900407555
27,0.40051752408219415,0.40067766904619156
28,0.4004856289685398,0.40039978393294456
29,0.4004856038874892,0.4006117713411148
30,0.400509728609444,0.40051957409511896
31,0.4004806190235695,0.4004302855271983
32,0.40046067610105957,0.40045568227323214
33,0.4004804293276966,0.400358265697649
34,0.40044573482105617,0.4005599406286928
35,0.40047613813917937,0.4003993042473853
36,0.40045957871385524,0.40041988469140105
37,0.40044794099202763,0.40043578653082285
38,0.40042506381602827,0.40052208732724254
39,0.40044392201010276,0.4003465342191295
40,0.40043330582028486,0.40039254202684305
41,0.4004413113472748,0.40042016090159094
42,0.4004426720159759,0.4003311388974165
43,0.40039547484316995,0.4006134569803761
44,0.40041750344468374,0.4003657068859347
45,0.40043898430736813,0.4004483168058231
46,0.40039481665284077,0.40042370123642124
47,0.40039773009687285,0.4011620860272179
48,0.40039784974031045,0.4007837946132437
49,0.40038727079192415,0.4005395769225829
50,0.4003983208855406,0.4003565983347453
51,0.4003791583332104,0.40043619324331237
52,0.400378709907689,0.40039208716155156
53,0.40037463924096806,0.40030102850298493
54,0.4003930751812363,0.40042419947894264
55,0.4003747138226617,0.40031518966759005
56,0.40037160002177485,0.4011009666843045
57,0.4003801981086154,0.4003660083028855
58,0.400359491497094,0.4003156647575878
59,0.4003476374191735,0.40034263254503816
60,0.40036352350769594,0.4003355352349975
61,0.40036594997809527,0.4003071879266867
62,0.40035272282119283,0.40029175675112266
63,0.40035166862642513,0.4004646161560225
64,0.40034318065929636,0.4004127499974204
65,0.400362804771009,0.40055769201196684
66,0.40036498571056645,0.4003104344844225
67,0.4003610096055266,0.40030120772459005
68,0.40034961966928706,0.40052002791740854
69,0.4003572108432593,0.4002884534953818
70,0.40035263753474953,0.40034523796370236
71,0.400347732649372,0.40032900151657497
72,0.4003498260413866,0.4003366823729242
73,0.4003515785805897,0.40046623367720247
74,0.4003314025819924,0.40028753018989127
75,0.40035976647093896,0.4003479292155964
76,0.4003269768407582,0.4003222514467397
77,0.40034703173393305,0.4003343597507155
78,0.4003457076007318,0.4003430231254125
79,0.40034995976745746,0.40029835464857383
80,0.4003332806471627,0.4003667221397167
81,0.40033720237286485,0.40043110588258063
82,0.4003346994641713,0.40031883729925205
83,0.40033350870972245,0.40028714732878967
84,0.4003276704822759,0.40028195150645257
85,0.40035106709559326,0.4002995119200314
86,0.4003263011277901,0.40035163402705615
87,0.4003269124957814,0.4003831596426609
88,0.40033702017892914,0.4002752888264083
89,0.4003385831825058,0.40027192605073336
90,0.40033883064195336,0.40028047188388494
91,0.4003268953458745,0.4004338576126997
92,0.40033385074496974,0.40038432707412136
93,0.4003231997456553,0.4003216543519956
94,0.4003321326319423,0.40027321240558444
95,0.40032985983583436,0.4002907657669882
96,0.40032198533260843,0.4002799350714722
97,0.40033153986031206,0.4002952705132303
98,0.4003150895473351,0.4003344579199572
99,0.40033444343400587,0.4003105589351935
100,0.40031999173252353,0.40062411640122003
101,0.40032161351551077,0.40038488828324786
102,0.4003168910026697,0.400321153742866
103,0.4003311098518451,0.40033060200558734
104,0.40032898192847105,0.4002859766253741
105,0.40031529946815375,0.40031939181622445
106,0.4003244186999613,0.4003407143057716
107,0.40032153708921736,0.4002657693907219
108,0.4003261364416687,0.40031187939673507
109,0.40031718307700637,0.400281872926586
110,0.4003212631213252,0.4003005476261799
111,0.40031819639761757,0.40030754070486135
112,0.400321904177278,0.4003545543475735
113,0.4003243834965548,0.4003616740900959
114,0.4003096934372035,0.4004454805025476
115,0.4003122162651744,0.4004107396245575
116,0.4003237477132066,0.40037471527188384
117,0.4003105383704929,0.40046967897709107
118,0.4003114078539721,0.4003351816944255
119,0.40033240366457007,0.4002830485749952
120,0.40031147972841735,0.4002823674841871
121,0.40031466268238236,0.40030219879872975
122,0.40030544423609726,0.4002849531334657
123,0.40030831504114334,0.4002872286246966
124,0.4003079368918375,0.4003191953824413
125,0.4003160442607831,0.4004810237136949
126,0.40031079505082146,0.40038863800732105
127,0.4003161519203226,0.4003031072004118
