epoch,loss,val_loss
0,0.4801062002111301,0.4677147973354639
1,0.468512743230732,0.4676891952292452
2,0.46794549577792505,0.4679368332142219
3,0.46779634129033376,0.4677316148458143
4,0.4677053704802411,0.4674790651003237
5,0.4676571694131312,0.46735026502211113
6,0.46752887313591324,0.46751536422839785
7,0.46743459504809015,0.4674484457527475
8,0.4674133713620044,0.46735494311844017
9,0.46736745702821375,0.46710242116339024
10,0.46733767984264524,0.46713593905021633
11,0.4672790463588226,0.4674125366173665
12,0.4672621783756545,0.4670570749471149
13,0.43284325861839357,0.3782624924748337
14,0.3783609760613196,0.3782568721454422
15,0.3783763808568424,0.37822428789353113
16,0.37839739973940906,0.3786051165498495
17,0.37834185446715185,0.3781911024913459
18,0.37833161488770845,0.37823319295876234
19,0.3783636816091454,0.3782200935171137
20,0.37832773187601165,0.37828511489413946
21,0.3783125778006353,0.3783425872883718
22,0.37829336378093603,0.37835203723472055
23,0.37830349312207107,0.3785120638781954
24,0.3782895765493586,0.37866777222392445
25,0.3782581336464319,0.37816786674988123
26,0.3782723796838643,0.37816642891092145
27,0.3782561568574067,0.37813984985609084
28,0.3782408895830441,0.37819643773179557
29,0.37825880522122785,0.37829815166567077
30,0.37823055665965194,0.3782670899529422
31,0.378254415222732,0.37813417976968644
32,0.37822692522157314,0.3781457607965102
33,0.3782422061366557,0.37815318148477944
34,0.3782237129354363,0.3784010722097569
35,0.37820803160666516,0.3782360759535783
36,0.3782067480610122,0.37899874540158035
37,0.3782188800536895,0.3782384859549891
38,0.3782117510779679,0.378194443332215
39,0.3782095497560419,0.37823678171111585
40,0.3782046335341057,0.3784219159137972
41,0.3782027251279871,0.378233245834192
42,0.37819016373676784,0.3781342704949656
43,0.37819753256552197,0.37823056167682845
44,0.3781847528867805,0.3783001783930148
45,0.3781647153856471,0.37810182738185544
46,0.37818628497901596,0.3781303021746432
47,0.37817675955264446,0.37817566425831245
48,0.3781731894282713,0.37813606112798337
49,0.378168107088584,0.37810403576624035
50,0.3781608263191733,0.37817794213732936
51,0.3781685938786745,0.37822816529268055
52,0.37817036095866063,0.3782184170583866
53,0.37814944381145393,0.37809963864508433
54,0.3781603688040741,0.37818352909595554
55,0.3781650735895561,0.37809173103377586
56,0.37815578223745944,0.3781026498285359
57,0.37814278705892035,0.37825118231612426
58,0.37814386022489904,0.37823596582422886
59,0.3781692541804457,0.3781601407850248
60,0.3781443617915538,0.37847277964701087
61,0.37815421042385394,0.3781888502002885
62,0.3781323652954243,0.37823159963840236
63,0.3781448516573891,0.37828936319428286
64,0.37814700308335025,0.3781056370229445
65,0.3781385479258133,0.3782978672014712
66,0.37814446916307315,0.3780957133472654
67,0.3781475672668607,0.37842998940475797
68,0.37814155849405895,0.3781878176813842
69,0.3781245682025607,0.37818546336674314
70,0.3781421308981451,0.3780920037920002
71,0.3781390129739106,0.3782565012815092
72,0.3781380644105404,0.37823070645819423
73,0.37811985211722854,0.3781228140300958
74,0.37812523038564005,0.3781660114242756
75,0.37813897413071984,0.37818013043466314
