epoch,loss,val_loss
0,0.14037731297169959,0.12531328820196835
1,0.1248761265646665,0.12358711283666483
2,0.12388527460329381,0.1228137545639827
3,0.12333667080382403,0.12373931804826847
4,0.1231694033610304,0.12211388281829409
5,0.12303678645351736,0.12394154085308887
6,0.1229043488062627,0.12194716279163471
7,0.12277368017021544,0.12624435145603483
8,0.12272969498172946,0.12259025172321157
9,0.1225078900489879,0.12199723435599483
10,0.12242273042487294,0.1219441069997158
11,0.12233542644061837,0.12173583952849311
12,0.1222611419335506,0.12236710907709228
13,0.12223203840466372,0.122437019306339
14,0.1221682834029113,0.12256336131032924
15,0.12210026776110862,0.12224957233984092
16,0.12205070389641362,0.12141505484879478
17,0.12200063264121706,0.12193593637687097
18,0.12202153297477873,0.12210409081243334
19,0.12202494644584713,0.1214425000136502
20,0.12197616165725814,0.12199895093235857
21,0.12195278292296141,0.12200980348069677
22,0.1219060089563276,0.12145024880330865
23,0.12187774665966411,0.12352648000263401
24,0.12189264830159607,0.12214739400380609
25,0.12184120072312553,0.12124227293517514
26,0.12186480479693296,0.12115784134764042
27,0.12181071711943363,0.12235928894801543
28,0.12182774715006633,0.1219763441478584
29,0.12177354715965912,0.12136446763103415
30,0.1217895693946837,0.12148268372003111
31,0.12178645918578615,0.12116101704653422
32,0.12182315155155758,0.12103437362976854
33,0.12174766139357467,0.12152806597124036
34,0.12185096851145504,0.12098069794998999
35,0.12172328773122403,0.12125885595008076
36,0.1217429959826115,0.1225301924584066
37,0.12179371477108404,0.12177804050965013
38,0.12178559183566397,0.12111453567247607
39,0.12176031942445287,0.12170195717676066
40,0.12175199292012932,0.12408042577073142
41,0.12174613154905538,0.12138033581429349
42,0.12176956364806366,0.12167805527462822
43,0.1217776075171513,0.12143820121051253
44,0.12168047310612339,0.12161674422651175
45,0.12186975528282509,0.12129305030733438
46,0.1216389757746979,0.12139674002995707
47,0.12167848353618184,0.12098390607556726
48,0.12182568196373697,0.12137391809113009
49,0.12169951339961496,0.12264010650716548
50,0.12167463269672743,0.1212320414808636
51,0.12169406873028356,0.12278902448433038
52,0.1219072087528795,0.12112623208652572
53,0.12163488745458023,0.12134470861107913
54,0.12164187478198152,0.1225913131817733
55,0.12165345567494637,0.12109018646111934
56,0.12166965382518145,0.12101869895392718
57,0.12168954711342797,0.12102686696154397
58,0.1218814668087648,0.12169548908841894
59,0.12163420851588168,0.12109345585157043
60,0.1217569314146363,0.12135717665122109
61,0.12159200235819423,0.12178198169603764
62,0.12165877353219152,0.1237916309746453
63,0.12167572959884138,0.12175466787709945
64,0.12163379640047617,0.12192382582601362
65,0.12160217336986226,0.1224781235841103
66,0.12164022329357556,0.12126917194543106
67,0.12165531081134198,0.1216880900706207
68,0.12181948885992824,0.12106934611266695
69,0.12167694961915411,0.12168638325867505
70,0.12169983260271526,0.12268870502308489
71,0.1216891254419624,0.12129298361862213
72,0.12152967306715325,0.12099846813507897
73,0.12164464110362318,0.12099361983147001
74,0.12156680228457015,0.1210791033029569
75,0.12211690740332982,0.12133496715266053
76,0.12159992646240358,0.1211351926738263
77,0.12160368464276095,0.12100282031253527
78,0.12162446163893265,0.1212632894501696
79,0.12168294965399154,0.12120521249724993
80,0.12161151152933221,0.12185485975047784
81,0.12161372934849433,0.1210462733291553
82,0.12161203966390889,0.12199750242917921
83,0.12167914089090333,0.1219044449848705
84,0.12157584854724916,0.12128780373141677
85,0.12163864396678159,0.1213513938606354
86,0.12156818348292847,0.1222980970119017
87,0.12175898907619627,0.12152091933089025
88,0.12233847559716376,0.12141196279431281
89,0.1214892474892285,0.12153284618123625
90,0.12155287265462567,0.12157165369156206
91,0.12168425687883695,0.12104660560249526
92,0.12175554857346925,0.122899947793907
93,0.12157295807816322,0.12084341313814434
94,0.12165496741581025,0.120859684255537
95,0.1217506230768267,0.12286689794955272
96,0.12161115571482047,0.12124364754525684
97,0.12165535812208866,0.12139151552225973
98,0.12162891230515453,0.12557991775109023
99,0.12163177662239089,0.12072147423191912
100,0.12165770438118886,0.12108723003793892
101,0.12205978011548418,0.12190975885863485
102,0.12155163754910263,0.12108104192234716
103,0.12161747904922414,0.1210871326387618
104,0.12158719446423347,0.12189013507964291
105,0.12158842358243581,0.12112818453692237
106,0.12157045440571845,0.12130558874499968
107,0.12155335877147244,0.12230545982511187
108,0.12158356890975669,0.12126972349289605
109,0.12155247130791301,0.12134246100880905
110,0.12158388155816736,0.12212578206658777
111,0.12155148766105692,0.12128243480086778
112,0.12156277461210839,0.12177905948683822
113,0.12162475755674325,0.12145263423039983
114,0.12154364885034029,0.1218736204740361
115,0.1215137359099378,0.12132815849737832
116,0.12162995077740103,0.12096580521661272
117,0.12150423748518936,0.1210526205166084
118,0.12158879392187028,0.12148851398101641
119,0.12160063587926398,0.12107190319894315
120,0.12167982565583825,0.12156230799823226
121,0.12154576413297083,0.12193901291986597
122,0.12155789538790022,0.12144752678850569
123,0.12153906774869357,0.12196541192679239
124,0.12153346980040519,0.12109260442051967
125,0.12158740680204126,0.1212627797546922
126,0.12154696115521901,0.12181032496618004
127,0.12163784550211783,0.1214439221378113
128,0.12149951571085764,0.12115882571375854
129,0.12155319409450835,0.12124816433396579
130,0.12158792652403165,0.12139330319661179
131,0.12152787009428567,0.12104745828119962
132,0.12177098476145205,0.12131258444745918
133,0.12151159430550508,0.12145758808581984
134,0.12154572404745874,0.12154454942124551
135,0.12157210333418066,0.12138055207054224
136,0.1215800988951753,0.12080588106572078
137,0.12174244687887839,0.12095560048638977
138,0.12143388865753096,0.12073603485754252
139,0.12155423252466378,0.12193409384427877
140,0.12159903991035381,0.12263415898262664
141,0.12158911556492834,0.12146996525611882
142,0.12162003619200518,0.12110025248140985
143,0.12149042276059135,0.12101863709262571
144,0.12159004705937478,0.12152161045235331
145,0.1215949711084423,0.12140664441994194
146,0.1219187515601208,0.12174034610129379
147,0.12149578198011071,0.12095233896981614
148,0.12155519624113902,0.12097284292235072
149,0.12153803636270176,0.12135016521411061
150,0.12153736945496453,0.12097425818560836
151,0.12154826607637315,0.12104412033770351
152,0.12157768718388373,0.12148048949485928
153,0.12218488945507813,0.12141564233797493
154,0.12149857546213287,0.12166553162058578
155,0.12159617989626637,0.12124804198767326
156,0.1215276345505391,0.1215486417126981
157,0.12155222395074174,0.12145665197514627
158,0.12150124899072733,0.12175229232958218
159,0.12157915501464077,0.12095074182947975
160,0.1215213870282202,0.12205717479748074
161,0.1214888594002065,0.12159151482612589
162,0.12156422261043232,0.12114817804506972
163,0.12160966686110193,0.121326871960839
164,0.12150826534871541,0.1211036750818947
165,0.12155473730671097,0.12206483381087926
166,0.12153414420941758,0.12199093800109377
167,0.12162413462344071,0.1216241392718318
168,0.12154215027047677,0.12122700847290234
169,0.12147379036968003,0.1215207161047194
170,0.12162532467981728,0.12097151075075704
171,0.12148826229228314,0.12141323520758827
172,0.12149371767815684,0.12191158736922089
173,0.12151718577038068,0.12111682634897364
174,0.12157509433266359,0.12151650689994578
175,0.12153158202199672,0.12112804530084702
176,0.1214871081027166,0.12223609895100188
177,0.12149056858731322,0.1213151475091304
178,0.12160130645746062,0.12103375691881009
179,0.12152466116914952,0.12103186900768301
180,0.12143228246247904,0.12129772120190983
181,0.12153527626914692,0.12066181252982477
182,0.12147566582884312,0.12093651582994853
183,0.12146856917276352,0.12107440849846247
184,0.12142070578126726,0.12120847380932273
185,0.12146366050374226,0.1212789203771293
186,0.12144345527793421,0.12204056515140535
187,0.12377833730846487,0.12138264245416529
188,0.12142065546650292,0.1215127692506498
189,0.12154710318666426,0.12135681843089567
190,0.12156816614756724,0.1223743960864126
191,0.12159279582659642,0.12130802158888346
192,0.12156041829456886,0.12115617507252364
193,0.1216086561306352,0.12142286769168588
194,0.12157283067263276,0.12091522047430482
195,0.12161353966024242,0.1208594289213643
196,0.12157996358009965,0.12189405089720654
197,0.12156691802492114,0.12136013878890906
198,0.12163372239241681,0.12289458149010163
199,0.12156144584987727,0.12105718939942109
200,0.12155065094137883,0.12142616007120657
201,0.12155691410489386,0.12445942167501832
202,0.12160283428928609,0.12161523606746313
203,0.1215356108990834,0.12133575159996193
204,0.12154328370379089,0.12094525206078219
205,0.12160730029981653,0.12116012186779306
206,0.12162719684509032,0.12116020323529665
207,0.12150114489106884,0.12116110090259448
208,0.12158738290583558,0.12108827125766934
209,0.12153362314110895,0.12118439278193821
210,0.12156773189709624,0.121487785886201
211,0.12157820451469169,0.12140371678928662
212,0.12152533783413676,0.12113953606846846
213,0.12160183248940364,0.12133214334091995
214,0.12152888635211577,0.12092167545871008
215,0.1215786908868644,0.12129288819774231
216,0.1215217602060215,0.12129866424813959
217,0.12172393512406414,0.12087149326535918
218,0.12151589968868129,0.1214111419927208
219,0.12161565554359707,0.12106117960128145
220,0.1215228108607836,0.12105356215476062
221,0.12154132875553172,0.12145292219575685
222,0.12167625826140936,0.12180035098436538
223,0.12152969096683908,0.12276774422323018
224,0.12161194102900663,0.12131699494894828
225,0.12156463031190208,0.12161006883111569
226,0.12153415386296211,0.12082466741740205
227,0.12156483550998101,0.12122203753153754
228,0.12158522408192442,0.12108984062877894
229,0.12153548919192778,0.12096934061220878
230,0.12154344304220575,0.12170698445115409
231,0.12159689618204335,0.12235437912460152
232,0.1216273824864458,0.12131852018044065
233,0.12150997042214916,0.12111318153193439
234,0.1216248462350586,0.12116172849220272
235,0.1215294384245921,0.12097698937157848
236,0.12155389662875271,0.12107976822607719
237,0.12164937618170749,0.12224238384194398
238,0.12150359360370976,0.12174210768967926
239,0.12152790608485399,0.12087414639912161
240,0.12157622713990629,0.12136947907666652
241,0.1215595225315263,0.12142265353921455
242,0.12151602512585913,0.12118529362594789
243,0.12166162321014454,0.12170077875087379
244,0.12148285463197807,0.12089714382189472
245,0.12157580434965246,0.12093964490702187
246,0.12152275214554407,0.12256480230574719
247,0.12154081470239948,0.12162053853008137
248,0.12168877494813106,0.12393267906748372
249,0.12170349665145033,0.12105135870918259
250,0.12154696356069652,0.12140449249070318
251,0.12153828031023257,0.12144295314856698
252,0.12153035725221104,0.12149636613214308
253,0.12153542700576427,0.12109690971407677
254,0.12152742107038263,0.12137606325913472
255,0.12154398605127273,0.12087345694384391
256,0.12156360124071994,0.12144744125077359
257,0.12158641090516502,0.12091721098885724
258,0.12154399553466613,0.12163923725693082
259,0.12177143059781778,0.12158778603231132
260,0.12147648762108618,0.1207471211606497
261,0.12155170419413873,0.12121380619775803
262,0.1217426429756263,0.12085918369072368
263,0.12148956433370738,0.12144836620999724
264,0.12165917442781511,0.12096165957149016
265,0.1215438759401375,0.12191798013931257
266,0.12157355694034394,0.12203101509345059
267,0.1215685123645235,0.12114315870689671
268,0.1215560089849296,0.121095663498747
269,0.12146152249683759,0.12103149696310173
270,0.1215083977939221,0.12116146865226132
271,0.12167801916750695,0.12105787161338408
272,0.12150490743506445,0.1221322399719796
273,0.12155209472940567,0.12073997030480295
274,0.12147023085719891,0.12097326012468539
275,0.12150711228349632,0.12154716784387155
276,0.12151783669165597,0.12112514987847625
277,0.12149829389717462,0.12134922072605074
278,0.12150292275357576,0.12149067708433917
279,0.12171854433512594,0.12100720146636887
280,0.12150144122039233,0.12126990740426166
281,0.12150617753566256,0.12160026029563183
282,0.12147125235960135,0.12093198015092246
283,0.12154166896736462,0.12147842851210167
284,0.12150887836348505,0.12097868752976391
285,0.1215334846411432,0.12764706429861847
286,0.12157306466443701,0.12122979092186895
287,0.12149423762086056,0.12206154361018581
288,0.12148174002858865,0.12098941169764539
289,0.12155557759076047,0.12127541362078201
290,0.12149328381861646,0.12129646265498167
291,0.12144275672420682,0.12085029573576324
292,0.12153455314383768,0.12069986159900088
293,0.12148721265167728,0.12121763776336367
294,0.12148368567942278,0.12136318491766754
295,0.12146666213485008,0.1209472197339821
296,0.12152420757790337,0.1209047703708863
297,0.12149662655202133,0.12198163062645379
298,0.12144539160851085,0.12110321968833578
299,0.12144308994720333,0.12138394718254222
300,0.12150173074042825,0.12097708111819394
301,0.12142612121226999,0.12124255448913343
302,0.12143727890737278,0.12159848257272678
303,0.12166750604176814,0.12136740999527909
304,0.12144885972515612,0.12106275827975972
305,0.12138467593610057,0.12117323679090569
306,0.12150245246673924,0.12092092621334706
307,0.12143459040263416,0.12205153517812221
308,0.12141466927413068,0.12149182315581275
309,0.12152519734682449,0.12260621655713531
310,0.12140936258683321,0.1224834978848907
311,0.12168018337457329,0.12174111907351776
312,0.12141081255304649,0.12142075744209808
313,0.12147623424879825,0.12153329297503905
314,0.12144858693988968,0.12074483752890779
315,0.12178542394905814,0.12122111596504216
316,0.12136985441628509,0.12111305774738557
317,0.12142481783518265,0.12114973679206356
318,0.12152881692556224,0.12130321159046328
319,0.12143186082483193,0.12181071947885018
320,0.12144938008532903,0.12106450598392889
321,0.12144746242087932,0.12150804733411086
322,0.1217348827604973,0.12075040982699131
323,0.12142724210092655,0.12085233055432773
324,0.12143274849944229,0.12115686090396728
325,0.12144605864920552,0.12105851083094903
326,0.12142483661990579,0.12089861500798808
327,0.1233174255890221,0.12235447066195108
328,0.12199919979315928,0.12154490852191721
329,0.12185234539475188,0.12184532924796423
330,0.1218132956271991,0.12202796459035986
331,0.12179800865433453,0.1216245359271941
332,0.12176020566992624,0.12187410222755302
333,0.12177004668240222,0.12127247277937331
334,0.12171760600485337,0.12121881739957777
335,0.12171702304925422,0.12103852838053858
336,0.12174657768204394,0.12267133135556832
337,0.12169668834142351,0.12123185366253948
338,0.12172976665244534,0.12163049373276381
339,0.12170133032209461,0.12183181781641222
340,0.121691484700383,0.12098065712010944
341,0.12169377411358963,0.12136398356169428
342,0.12170243627047705,0.12263056139574817
343,0.12167297649465239,0.12127567449712565
344,0.12170454240187617,0.12220335028514052
345,0.12168786148248942,0.1214540158554555
346,0.1216712828530442,0.121370132697046
347,0.12164695085832647,0.12127582544136967
348,0.12166442433831187,0.1214797861907062
349,0.12161798864189544,0.12117493522467088
350,0.12166927499976607,0.1212325132575198
351,0.12164778028665522,0.12219589152053965
352,0.12159772755814244,0.12154332888168941
353,0.1216433073742501,0.12165867795447313
354,0.12162359064740447,0.12140620474634169
355,0.12163494377757844,0.12106744590965039
356,0.1216382470336076,0.12106321298913433
357,0.12160666139176608,0.12141348297324496
358,0.12158324116561295,0.12243144768886599
359,0.12159620333840483,0.12113095489572069
360,0.1216189360149951,0.12206824396778664
361,0.12157271951325813,0.12116649900568273
362,0.12157410498822682,0.12115413731510359
363,0.12159139684264814,0.12183330775463574
364,0.12154149620607155,0.12144723022021585
365,0.1215701317461878,0.12193333586573772
366,0.12153572460602595,0.1213311017225122
367,0.12156033541753966,0.12132796116797888
368,0.1215137458235733,0.12150437761284183
369,0.12155124779741765,0.12291699823257937
370,0.12159245967794044,0.12107752097086288
371,0.12153293562179077,0.12076697061563525
372,0.12153053273605435,0.12138344889701966
373,0.12155816956250251,0.12128856208242728
374,0.1215653937681884,0.12150223815974184
375,0.12155708531709039,0.12091278634424982
376,0.12151885499718959,0.12186169769901435
377,0.1215398777574919,0.12107001494314285
378,0.12153645692134864,0.12106176948093729
379,0.12157629389950154,0.12158309605522767
380,0.1215114677369646,0.12122195593133979
381,0.12150924215484799,0.1223628902754721
382,0.12155818943934302,0.12153942800340753
383,0.12153491273165397,0.12118841107744706
384,0.12155396565987531,0.12087503290226266
385,0.12148908342351128,0.1210267751291573
386,0.1215501792194093,0.12125420805410504
387,0.12154767625887258,0.12166864195783872
388,0.12151597818698298,0.12135774576828524
389,0.1215075691787582,0.12150026926311076
390,0.12153833813772139,0.12160781882248638
391,0.12153443921843195,0.12109556143973063
392,0.12153539314264747,0.12123390420066556
393,0.12153230356816329,0.12073360452286401
394,0.12151070718304205,0.12129061736298707
395,0.12153402247711323,0.12175877283966148
396,0.12154263270554719,0.1218716211750812
397,0.12153862292178524,0.1206746715493391
398,0.12151852235698216,0.12159846538790685
399,0.12153437032807614,0.12123492855761521
400,0.12158769869466278,0.12112141845037337
401,0.12149019523565467,0.12149915681514685
402,0.12154103634564022,0.1212412510763123
403,0.12153213806929848,0.12121468072270988
404,0.12153536898443157,0.12127536178955117
405,0.12152578133127206,0.12214633225139852
406,0.1215391815101692,0.1221549449843816
407,0.12154603121059711,0.1207824965173239
408,0.12151542116073322,0.12175215243632456
409,0.12151438192561938,0.12092978501006343
410,0.12156246336746097,0.12133304578360989
411,0.12148005298415823,0.12142987730933463
412,0.12156575941936724,0.12165600209332272
413,0.12151537970924715,0.12194629389740463
414,0.12156569080028698,0.12162150963978086
415,0.12151371629656349,0.12092480001492534
416,0.12150709844175912,0.12136455486671875
417,0.12156615238585608,0.12098764696868315
418,0.12147041340082457,0.12104138097368577
419,0.12155294930032516,0.1214010779574781
420,0.12154401291516273,0.12187386285913707
421,0.12150285867986654,0.1210609028759252
422,0.12152972916063605,0.12114187005307891
423,0.1215240097511865,0.12116978412443137
424,0.12151712625680083,0.1211920862193778
425,0.121528275047527,0.12136842930840447
426,0.12150162025437819,0.12090120962473246
427,0.12148057845806383,0.12089020544598049
428,0.12160034118666055,0.12147499937632633
429,0.12151022002033837,0.1212900232567161
430,0.12151544070792661,0.12096240673570982
431,0.12152665379671528,0.1209168982149689
432,0.12151696520999199,0.12098295830199315
433,0.12152180495874366,0.12134527226777268
434,0.12151406576114934,0.12069543011453572
435,0.12150855989578702,0.12101914854204515
436,0.12149793958066776,0.1216830708873124
437,0.12151739265587425,0.1217416073643106
438,0.12157647832398864,0.12112013100966242
439,0.121468427756536,0.12157738616064923
440,0.1215009576732179,0.12099807833784051
441,0.12155865319928588,0.12109739982393423
442,0.12149765532274213,0.12136799576665232
443,0.12148114284885901,0.1208228945461302
444,0.12152577445031056,0.12110056085992023
445,0.12148042889549582,0.12125990237961863
446,0.1215553502262463,0.12096453769984152
447,0.12148789001368186,0.12111332282135687
448,0.12149899593499598,0.12136693363224514
449,0.1215114371453025,0.12101215874469592
450,0.12152447653877362,0.12099984785291627
451,0.12148523100292877,0.12057039023957794
452,0.12153415366024999,0.12103195736792362
453,0.12150477791134781,0.12141573453647765
454,0.12151526255077162,0.12159191163674998
455,0.12151695715815782,0.12161295169078229
456,0.12154867915960828,0.12089463008423448
457,0.12149841793290553,0.12150289564935636
458,0.12151668766142076,0.1211050151678689
459,0.12147850992410553,0.12138635828699543
460,0.1215141838340465,0.12185308342056095
461,0.1215170727079078,0.12098647939444401
462,0.12151034677696501,0.1209335552734689
463,0.12147182196770234,0.12182850826160171
464,0.1215752748310344,0.12099281381230959
465,0.12146937219378436,0.1212661871927313
466,0.1215015325041839,0.12080997154843304
467,0.12149495608789414,0.12268339371054449
468,0.12149103444704398,0.12104086279321097
469,0.12151171953090402,0.12096529860413419
470,0.12146579474296774,0.12164960658887629
471,0.12151452361835072,0.12071674906798646
472,0.12151263144976546,0.12117155756830553
473,0.12147461169832582,0.12095152421390389
474,0.12148304613577086,0.12140144052116282
475,0.12159431562617727,0.12100380642743327
476,0.1214567203878163,0.12302776743549532
477,0.12152189027248778,0.12109775027362533
478,0.12148735188757473,0.12080073163166666
479,0.12148990682441371,0.12115285477963286
480,0.12149434880412652,0.12193425387510999
481,0.12147395448715072,0.12183690329253505
482,0.12153063049306685,0.12104266344323975
483,0.12148084940528787,0.12134485830727247
484,0.12151131577044123,0.12092966351314426
485,0.12148427472591573,0.12179687891572623
486,0.12152240956820692,0.12145073615776567
487,0.12148451003068306,0.12241734581855684
488,0.12148126451359266,0.12130413444868914
489,0.12149649796800742,0.12112653045640828
490,0.12150693229908643,0.12202615263520772
491,0.12149926645535317,0.12103419467725016
492,0.1214746401934429,0.12119784499799266
493,0.12147814611335159,0.12115600996927775
494,0.12159141752093945,0.12076031753108082
495,0.12148591307390359,0.12183520430641909
496,0.12144691575994977,0.12089032979796946
497,0.12151207652952459,0.1216980251400975
498,0.12150670464972964,0.12115423287496456
499,0.12143122164643247,0.12169159365422702
500,0.12153860691249091,0.12212378819464799
501,0.12151160435454673,0.12068124143422136
502,0.12146573311226061,0.1208574544996371
503,0.12151369950812131,0.12207376700102543
504,0.1215323752002618,0.12209730750969439
505,0.12149999711827089,0.12088777595273355
506,0.12146953737828985,0.12102207873710112
507,0.12145451654923892,0.12091969639699812
508,0.12151690247108551,0.12089996667506249
509,0.1214798591574817,0.12263633422694506
510,0.1214772365856726,0.12199189392055129
511,0.1215025106359201,0.1206903271525995
512,0.12147484957667017,0.12161781872428443
513,0.12147738604969723,0.12078600834290915
514,0.12148735742731394,0.12250477576186863
515,0.1214535507464767,0.12087981646448376
516,0.12151229040054551,0.12145491000811873
517,0.12148472987228089,0.12162040799025475
518,0.12147592784733596,0.12126389636136903
519,0.12147843049860929,0.12089421215482989
520,0.1215037834006969,0.12118924360706221
521,0.12145638067114896,0.12102136073390514
522,0.12149480462037483,0.12130439006995718
523,0.12148527159902657,0.12079526164038301
524,0.12150863140366397,0.12074829821459414
525,0.12150408162464747,0.1212610483184645
526,0.12144864484275855,0.12108503157225384
527,0.12145936374883592,0.12244138791017528
528,0.12150771688197355,0.12131772851167899
529,0.12147540026980398,0.12169284226598881
530,0.12147784556810562,0.12091679607534347
531,0.12147240263304494,0.12342748401832182
532,0.1214975580342243,0.12102632046187413
533,0.12148744589087224,0.12146525669368238
534,0.12147230534611544,0.12191030654162986
535,0.12147684489290154,0.12192941624128202
536,0.12149181170939599,0.12126069392329726
537,0.12149447389954614,0.12103768443024718
538,0.12146205818000881,0.12078351616996034
539,0.12147524005005796,0.1214302547793427
540,0.12149134761245993,0.12149737429699524
541,0.1214773901418614,0.12086477674345711
542,0.12148303687845144,0.12099073106153099
543,0.12150446039473561,0.1215312550591805
544,0.1214569793991148,0.12290296716085344
545,0.12151840145174063,0.12153831025192315
546,0.12146510756276054,0.12127681611484921
547,0.12148386268542702,0.12137114471167584
548,0.12149462209647109,0.12220130339189422
549,0.12149061997844388,0.12126925007149729
550,0.12147222386967284,0.12129176870224312
551,0.12144002180633319,0.1211080632320391
