epoch,loss,val_loss
0,0.480067161323306,0.4719645714416748
1,0.46815797073686866,0.46786545443903343
2,0.4678881370967902,0.46734333254342647
3,0.4483612229397288,0.42293709725125644
4,0.4231964483118397,0.4233330296546745
5,0.4165779561073327,0.4036431939897539
6,0.400972716824612,0.4006290852674097
7,0.4009735395789364,0.4010425025117738
8,0.4008517482640926,0.4006406581037568
9,0.40079510410805563,0.40105995339956774
10,0.4007444336188326,0.4007297364247377
11,0.4006753232191809,0.4006594408361076
12,0.40066891799296794,0.40046264076343036
13,0.4005709686285114,0.40075002321872516
14,0.40056562644168553,0.40052362952992215
15,0.40061723040569275,0.4005379590678541
16,0.4005762020051289,0.4006596486211395
17,0.40051516526123826,0.40125812927641863
18,0.4005536443169154,0.40043516624119974
19,0.40052006761232073,0.4006077150433202
20,0.40052522463888546,0.40061765857839016
21,0.40052044160086453,0.4008151764322458
22,0.40048805563307033,0.40042558608374473
23,0.40049564209706573,0.4003920644484652
24,0.4004882485550515,0.40037723544499954
25,0.4004647072673671,0.400677142446726
26,0.40048143584312534,0.4009730599716049
27,0.4004720796307217,0.4004147867894677
28,0.4004465569442775,0.4008847102483142
29,0.4004422387453981,0.4009741992473094
30,0.40046549314099106,0.4003581509568548
31,0.4004273108696275,0.400429521335084
32,0.4004657249358122,0.40058401576429475
33,0.40043544711965445,0.4004442522540188
34,0.4004362724223926,0.40047674715190695
35,0.40043318050750903,0.40032123986199475
36,0.3838870216557305,0.37828980221865255
37,0.37827727193588656,0.3781727339948636
38,0.37824033253297434,0.37825883996171117
39,0.37823275333301715,0.3782381379365032
40,0.37823725748350717,0.37817174752687427
41,0.3782320305231037,0.37842151784181044
42,0.3782214745259718,0.3781380279647836
43,0.37821296032006435,0.3781133710565057
44,0.378228214605988,0.378232740258891
45,0.3782183004949846,0.3781642162698182
46,0.3782136538627517,0.37818645748517765
47,0.37818851793727515,0.37813268577804743
48,0.3782013065517012,0.37821462044687926
49,0.3782002754874945,0.37827802206318295
50,0.3781697159967873,0.3781767601779647
51,0.37822905810341206,0.37839463442632837
52,0.3781966006275513,0.3781643177639593
53,0.378191096269839,0.3782061406722774
54,0.37818492668718723,0.37816363725553803
55,0.37818819160548056,0.3784327847291784
56,0.37817863151856407,0.37824676905755866
57,0.3781936358742789,0.3782625096711284
58,0.3782125164463911,0.3782548100142734
59,0.3781750710958115,0.3783561038089955
60,0.37819238451770365,0.37824465820708436
61,0.37816526402100986,0.3786282990876301
62,0.37816331077692766,0.3784755371957038
63,0.37815391814267924,0.3781155225152253
