epoch,loss,val_loss
0,0.6086845678542987,0.6021744223550786
1,0.6011600613390747,0.6008812431798648
2,0.6011726643760339,0.6006327668755193
3,0.6010304367460096,0.6009117143258762
4,0.6007363811651681,0.6004875352400025
5,0.6007568116797071,0.6005059891726328
6,0.6006355939379725,0.6006066932053904
7,0.60059331158724,0.6004803998895131
8,0.6005295019835155,0.6004201305401772
9,0.5419451758834829,0.5337303006049688
10,0.5338645191737832,0.5338419787539409
11,0.5338501505520015,0.5340395865759728
12,0.5338305933259141,0.5338830564241889
13,0.5338054054283273,0.533971587883937
14,0.5338210395697939,0.5339068400010607
15,0.5338249887978925,0.533706898078505
16,0.5337846350302211,0.5338759382488165
17,0.533766589180095,0.5336713113736505
18,0.5337748907275802,0.533982950346278
19,0.533753679983342,0.533807915933053
20,0.5337528017830171,0.5338540203322694
21,0.533749815841202,0.5336225049960336
22,0.5337401662661362,0.5337524525351328
23,0.533728868621301,0.533729906138486
24,0.5337305911809929,0.5336405615396579
25,0.5337268620214822,0.5336581043757433
26,0.5337082963853077,0.5338769701853339
27,0.5337141405701126,0.5336228968682478
28,0.5337058282966997,0.5337938402151845
29,0.5094628007396652,0.4892300620005342
30,0.4892709150564118,0.4893196945896494
31,0.4892810154423426,0.4892106364348956
32,0.48926702216449364,0.48930989828726434
33,0.48925865228775256,0.4893410937583643
34,0.4892681538275101,0.48935553334622933
35,0.48927570351598887,0.4892913640064294
36,0.48927208629325847,0.489203435730015
37,0.48925991024973153,0.48925991974497035
38,0.48925044071833323,0.48921202276968195
39,0.48924694055533013,0.4892119789530147
40,0.48926982454851276,0.48919063200322066
41,0.4892452639567394,0.48924797061260944
42,0.4892498441996171,0.4892329244582728
43,0.4892285104262924,0.4892945473804887
44,0.48925905942614734,0.4892201090149143
45,0.4892431911659322,0.4891903230417133
46,0.48923901609895887,0.4892981197518891
47,0.48922593684747323,0.4892679632588927
48,0.4892326363597072,0.48921121561859743
49,0.4892229249139556,0.4893187205053219
50,0.48923251254844835,0.48916635687068716
51,0.4892194561465629,0.4894121204701256
52,0.48924179064032225,0.48935513406181913
53,0.48921556874326444,0.48927683805059763
54,0.4892337320427922,0.48919802111553495
55,0.48922608086038216,0.48934360580983094
56,0.48921534205021233,0.48920965381595377
57,0.48923358717852955,0.48923747879210616
58,0.489221671056264,0.4893345043319943
59,0.4892226992685063,0.4891868770270772
60,0.48921175350737284,0.4892182619750849
61,0.4674209346855557,0.4671365809993351
62,0.4670025623916018,0.4670009488194551
63,0.45748994171521995,0.44474803096321763
64,0.444788423442975,0.4448182564801233
65,0.4448011947959569,0.4449040880633578
66,0.4447820214414584,0.44473208649837437
67,0.44478441730406715,0.4447482709754189
68,0.4447935921117668,0.444781075973116
69,0.4447829440286566,0.4450684875477523
70,0.4447794191312154,0.44478970440460325
71,0.4447891482294974,0.4447651842248696
72,0.44477375400812685,0.4448317314447995
73,0.4447854382988628,0.4447658622449108
74,0.4447909554628837,0.4447798063274725
75,0.44477315597942263,0.4447580330916971
76,0.4447800636278797,0.44477480173449807
77,0.4447756561039212,0.44481959853762737
78,0.4447821031685936,0.44472597656166984
79,0.4447703989684634,0.4447279566239455
80,0.4447699559468498,0.4447790343737302
81,0.4447803086906888,0.44475629729834093
82,0.4447795135439449,0.4448065136768272
83,0.4447677851571797,0.4448367938476084
84,0.44476909736225145,0.4447252596540717
85,0.44478859398833026,0.4447424339981269
86,0.4447600613513308,0.44473516968601573
87,0.4447724910192076,0.4447285823562383
88,0.4447759638908877,0.4447935620237782
89,0.4447591846765244,0.4448034840952463
90,0.44476037163588394,0.4447242230955206
91,0.444764800608168,0.4447392805534562
92,0.4447637754067248,0.44481121811292423
93,0.4447612378071312,0.4448395332575988
94,0.4447714579543902,0.4447686371434368
95,0.4447663126597059,0.4449075488229695
96,0.44475979358222567,0.4447767481401094
97,0.44475693369723845,0.4447740178047647
98,0.444754721885872,0.4447435792194715
99,0.44475351484275305,0.4447884641218448
100,0.44476298281968957,0.44480835287031767
101,0.44475197553165907,0.4448440570902456
102,0.4447689862069377,0.44472422713516746
103,0.44475014861830625,0.44472687781058273
104,0.44475114198928506,0.4447266339969838
105,0.4350034227536009,0.40032403614470624
106,0.40034444386846635,0.40030062039806147
107,0.40033080940727517,0.4005243748844697
108,0.4003218698965243,0.40035969712505926
109,0.4003240593955047,0.40031391026432
110,0.4003460236449824,0.40030529794906466
111,0.40032287896883795,0.40039878145461183
112,0.40033372570327175,0.4003041828953578
113,0.4003354260494079,0.40034878819381436
114,0.40033135690255817,0.40030384376621264
115,0.4003293889532108,0.4004528729979999
116,0.4003280438044201,0.40054519029509894
117,0.4003249920034046,0.4002981806684502
118,0.4003216502444359,0.40037833873978684
119,0.400324471247406,0.4003300897116601
120,0.4003250693827059,0.4003788516425731
121,0.40032063521335204,0.4003290389958146
122,0.38610863632874803,0.37808961330584256
123,0.3781186807391955,0.37807883938245357
124,0.3781010666009497,0.37815660331977324
125,0.37810768917085413,0.3781520688665085
126,0.37810026411463293,0.3780722336439579
127,0.3781138698853443,0.3780827284293396
128,0.37810679549297466,0.378128131804235
129,0.37809326038744734,0.37814671079649514
130,0.3781004477663178,0.37826281271346784
131,0.3781088953922685,0.37808251792297287
132,0.3780925131593533,0.37813534553869727
133,0.37810288007971454,0.37807320952309575
134,0.37812409842401445,0.3780736223453526
135,0.3780950304817622,0.3781252932084731
136,0.37810221409872213,0.3781632498835857
137,0.37808356886803235,0.37809742013775743
138,0.378097387347287,0.3782974787971058
139,0.37810903243763067,0.37810602182180597
140,0.3780889888083034,0.3781072572336927
141,0.3780989534816712,0.3781602950804736
142,0.37809587000549627,0.3781166367959459
143,0.3780990781499313,0.3781099124146643
144,0.3781050687209878,0.37810730182864055
145,0.37809338377091156,0.3781144925429398
146,0.3780959336339522,0.37809952206182995
