epoch,loss,val_loss
0,0.4623840034698887,0.39367690346047174
1,0.34193027663907466,0.2986926568852886
2,0.3080392353635707,0.3028056190158781
3,0.3143954429980948,0.3065268117890362
4,0.3047355892632505,0.2894204587520533
5,0.3043131503484232,0.2964472773983992
6,0.3017892917092565,0.3090641113275981
7,0.3066950384661448,0.2923235066687863
8,0.3025645784360709,0.29823895256257754
9,0.3041838329377697,0.29298224566532294
10,0.3037326851730152,0.29014135660763885
11,0.303281197308017,0.2851126449683941
12,0.3053075589841123,0.29627793505141
13,0.3044591740631371,0.29349309572951476
14,0.3048920027858062,0.3108852767718525
15,0.30682255451580126,0.2923831707300308
16,0.3121640164551022,0.3095823747724083
17,0.3147370998950885,0.30021544088974844
18,0.32082509937332115,0.3417798636603186
19,0.3152346242603352,0.3050603972661185
20,0.31528410716927785,0.31624810109480966
21,0.3195883249588531,0.2953530104261924
22,0.31412693973687245,0.3009763002960157
23,0.31157560411879387,0.3024138636304905
24,0.31386706458150054,0.30346362482118344
25,0.3162828394882589,0.30127877283961924
26,0.3139755925138315,0.3010004976412962
27,0.3108159491388823,0.295254111878027
28,0.3114562572287522,0.30292806536217987
29,0.30863097411313123,0.2921746305550942
30,0.30219479944470595,0.28130861992147277
31,0.2994141413522758,0.28734415874249747
32,0.3035719607897895,0.301060589990375
33,0.306031199036647,0.30738058481615366
34,0.3118736157945687,0.3004785373912802
35,0.30678565480964454,0.28618396655160233
36,0.3056315550272413,0.3137323072837297
37,0.30076762961207343,0.29298703286623334
38,0.3084024012827282,0.29207924400010066
39,0.30552080976400825,0.29012423791373537
40,0.3028866244579772,0.30315880563283587
41,0.3036600016742397,0.28632774139918393
42,0.30182258435171383,0.28589021045811647
43,0.30036895616734915,0.2885474572288962
44,0.3026371393010294,0.3001292544786819
45,0.30127065578143564,0.2933472182657555
46,0.30267786050586104,0.2964453549486686
47,0.3007826438184074,0.29487000098826854
48,0.30092152664892013,0.2956863667260217
49,0.30061198543492174,0.2846712392314551
50,0.3040099201335324,0.3004633680562288
51,0.30341069574812524,0.2885188517155568
52,0.3013905327109029,0.2934158196012712
53,0.3042180121814509,0.2913660827050928
54,0.3037079076567809,0.2934729171933014
55,0.3059418048742387,0.3014011355653558
56,0.30512455204050604,0.2941706625372759
57,0.3050660217682616,0.28973421242731995
58,0.3055818611316734,0.29054726993087343
59,0.3065279075543848,0.29780810772666994
60,0.3084676562310409,0.2997247163667957
61,0.3090456013711427,0.2997859961396611
62,0.30479033957187124,0.2867179112869073
63,0.30719937195928454,0.29530985612236993
64,0.30565206823255614,0.28960837034513
65,0.3071807955714057,0.2903196761809472
66,0.308338891860726,0.3048996222047422
67,0.3076164099238188,0.299807247818222
68,0.30954225557885295,0.3026961305993885
69,0.3100879600675081,0.2992254758596232
70,0.310913273470579,0.30326972611324937
71,0.31125655990067147,0.29426467027030034
72,0.31410755874584617,0.29788768724277437
73,0.31261895636288667,0.3005686244723735
74,0.312046328775412,0.3027461416954682
75,0.31243630063286026,0.29631923965892176
76,0.3113341158409294,0.2951908906379269
77,0.31251203356315194,0.29983862277176215
78,0.31142711024776065,0.308477569444968
79,0.3156564087985898,0.299452356753052
80,0.3105886561050118,0.29688173438398124
81,0.31089880260870423,0.30196702155713123
82,0.31561231865680855,0.29909017339830996
83,0.3096390022314805,0.29318819421430975
84,0.3057346545296798,0.29621789008731814
85,0.30676375447417337,0.3033058723080506
86,0.3124510372499768,0.30185883148222714
87,0.3140007655302302,0.29950585493254867
88,0.31075488589555145,0.29683783154084914
89,0.3136392025698384,0.2948009014458946
90,0.3160438792382499,0.30958995780515786
91,0.3139912685115846,0.3068600456453066
92,0.31510207839578175,0.30301814895026213
93,0.31698197557581226,0.29639817232114646
94,0.3128404714149251,0.3107781256618891
95,0.31905470527619195,0.2927968343624282
96,0.31223649133166537,0.31857307037689975
97,0.3127186116364172,0.3020300835065232
98,0.3130960556910002,0.3067331328670529
99,0.3145178673412207,0.3014661655382745
100,0.3104092047321234,0.2989329921041969
101,0.30987840671714645,0.2875200514376587
102,0.3129995240510511,0.30422058969665533
103,0.3119537542692477,0.3039942551477744
104,0.3107647914454329,0.31340057892694
105,0.31070233208479453,0.29449737720020946
106,0.30157887438337483,0.28458940168958813
107,0.29780122653829105,0.2780385087137629
108,0.3013396746070265,0.2888883668650015
109,0.29939708584170643,0.28500041186856584
110,0.29676898641528177,0.29155756149737966
111,0.29901611263589034,0.3010365544879352
112,0.30237957847704416,0.28802126459042293
113,0.3009962315837161,0.29630204101387875
114,0.30047362759340107,0.2894235678611069
115,0.31393542049600065,0.3307138782085729
116,0.3105222245248006,0.2989073821476528
117,0.3114538518883151,0.2987085546248526
118,0.3064715234483842,0.2857502472734677
119,0.30085601421187724,0.2901374038835163
120,0.300384515808593,0.2950768128637263
121,0.3058441394715191,0.2883538861936157
122,0.30871659125998724,0.3013195058635209
123,0.3118555244924925,0.29831799344933685
124,0.30487578619512723,0.2833271332514408
125,0.2998605489039974,0.2916825866854464
126,0.2981898888385744,0.2861169457741393
127,0.30000995184115464,0.29555278703652693
128,0.29554164512075487,0.2795146053925968
129,0.2963068959571951,0.2779495131456673
130,0.29801418870496904,0.28657557232556796
131,0.299948206557025,0.2802752495729368
132,0.30114773002793366,0.28126299042539893
133,0.30029293965045023,0.2852314731551609
134,0.29885838595297126,0.2828236254727455
135,0.29831054379090033,0.28510195941273964
136,0.30040163980375567,0.28169054423342
137,0.30193217391733357,0.2915978918018168
138,0.30438766355137176,0.2881422513991524
139,0.30236534951783295,0.29152685241522336
140,0.3032944130061342,0.28742261682567205
141,0.30918910165580155,0.30304392908818156
142,0.30577621984777215,0.2968253484605896
143,0.3019435859198193,0.29236725057403967
144,0.3025324337964626,0.2876877483177486
145,0.30167244866097287,0.2836104702460267
146,0.30351215767727,0.2920268709582424
147,0.305061583759354,0.29881409165797124
148,0.3076217309367075,0.2897168764728397
149,0.31941819697213497,0.3130749734302346
150,0.3178120043804701,0.3087230833995596
151,0.31098676388926927,0.29256437963496634
152,0.3133059033124948,0.2960487142875614
153,0.3164350130467964,0.3088246266156929
154,0.31688815187350167,0.30106865607008
155,0.31446751910481424,0.29970180419080356
156,0.30434224603892707,0.3023344194362177
157,0.3081506588738218,0.294740327437656
158,0.3013093037118348,0.29870089673346767
159,0.3083082352706092,0.2896602861201001
160,0.30076437441708087,0.29218020777628945
161,0.30749024725932295,0.2991966552497274
162,0.30352443180305305,0.3056349760919645
163,0.3051163202567066,0.28215524771830747
164,0.2985847833738339,0.28375909195796845
165,0.30351945958572996,0.28716958891056427
166,0.29648313327706594,0.30121444754931714
167,0.29500136778747243,0.28478546708751684
168,0.29145734760162834,0.3282572242953971
169,0.2913087068153895,0.27070146713232374
170,0.2916129387015824,0.287032968161044
171,0.2948523452527803,0.28242901368647366
172,0.293549651031395,0.29224944180546547
173,0.2957110337371068,0.2865986233634467
174,0.2972245722663679,0.28355729599919205
175,0.3005242217347014,0.28452270379806
176,0.30276548079878307,0.30911326187279814
177,0.30265043191105534,0.2956875945370124
178,0.29656826145500303,0.2849044622213895
179,0.2951641075319047,0.27871157560606313
180,0.29437358127676133,0.28085379179011394
181,0.295282615382942,0.2865572949634731
182,0.29831787318491537,0.28628398151075923
183,0.2961038988497522,0.29387218219940364
184,0.2999507176290027,0.2825656843025475
185,0.29971032919024204,0.2904737050150357
186,0.3048253310955972,0.29716454908522266
187,0.3040438619055908,0.2938828110671363
188,0.2969850144690747,0.29244923229375597
189,0.2980926820485712,0.2888640186145913
190,0.29383048808855783,0.285544544046755
191,0.2949892785206592,0.27912874411623967
192,0.29502484772345433,0.2770193501330777
193,0.2981773292858728,0.28122224365291204
194,0.2964684881692786,0.28392199162855425
195,0.2958007534142497,0.28325506767233055
196,0.29865682773667274,0.2946730598089915
197,0.29898508142033736,0.28185104947440154
198,0.2981760808877903,0.30354108517341194
199,0.2988759458934565,0.2781692891489735
200,0.2998988707776931,0.28325599143847574
201,0.3018568322407923,0.28702234395065923
202,0.2991118895397674,0.28201281141133977
203,0.2982446975726113,0.2770386832900751
204,0.29803539450458294,0.28800229203682204
205,0.2989010361018036,0.28727627657912524
206,0.2999572821682115,0.28484730629490035
207,0.2986714030793912,0.2867283792761996
208,0.30024304394003487,0.29320271052096714
209,0.29989579520065435,0.286605299389447
210,0.29937911370722986,0.28528159107621864
211,0.2993169037474812,0.2957206364565227
212,0.3013000211341204,0.28669047019287835
213,0.2999329172033105,0.28980980547705126
214,0.301217430405956,0.2828938959147296
215,0.2999377406889396,0.28270048334688863
216,0.301775980058858,0.28672129788451434
217,0.3001779106071146,0.2807588701348843
218,0.3021181129413448,0.28700199112848873
219,0.3000529540611876,0.2871845332463143
220,0.30174614705866,0.28215896816308234
221,0.3011661330394322,0.2837336725292943
222,0.3004112312500235,0.288574216444848
223,0.29970213919163324,0.29659347373759926
224,0.3007089597799128,0.29666234688111526
225,0.30037482639701724,0.29140162585566337
226,0.2996582433664732,0.28746802183992765
227,0.3018905440037199,0.28705938583814733
228,0.304524842277467,0.2831376652103197
229,0.30241462372118333,0.2881168888112928
230,0.3012646754487432,0.2873473364063013
231,0.3001032774325469,0.2897486768680571
232,0.30034097375796376,0.2830994439435551
233,0.2986699946992975,0.2819915650487417
234,0.3014921804281066,0.2838028725339563
235,0.30031749157072735,0.28431981484440244
236,0.30077514776604164,0.2832869705997684
237,0.3001845448339681,0.2896040501374378
238,0.29965322471255784,0.27991587134120777
239,0.3000790925620557,0.2859021398196939
240,0.30026736070545645,0.28851621499801117
241,0.3022768926277435,0.28974547998681255
242,0.30485136803391455,0.3007878372423651
243,0.30483319534719894,0.2876467072620294
244,0.30202347080079583,0.28146722532908747
245,0.30334232219284196,0.2928998779149722
246,0.30370953740428486,0.29000878713925055
247,0.3032555236673946,0.28895163821863584
248,0.3065930649125986,0.29143411363309635
249,0.3053367971349582,0.2884881010465765
250,0.299914390009513,0.29726792839021315
251,0.31105927994354166,0.3025430943802199
252,0.30884924072394077,0.28599306892812393
253,0.3090335749607864,0.28977674572789586
254,0.29889655901754886,0.291372727035253
255,0.300393670737791,0.28179043233865064
256,0.3024822926099638,0.30568078134411797
257,0.2982828126703616,0.2775234741518228
258,0.29913048296094796,0.29167087104439077
259,0.30100445236733775,0.29270438479455135
260,0.29372936068512173,0.289721868150142
261,0.29346320333836273,0.2800030172835586
262,0.29077828157362606,0.27664087015338645
263,0.29348614233003245,0.2791669945855167
264,0.2988678422882307,0.2849467656418575
265,0.2913093294063918,0.2795502052193283
266,0.2905067064517217,0.28382390244748523
267,0.29680916802774515,0.2856966477613705
268,0.30309216098652947,0.2847694212772193
269,0.30052373362340323,0.30608504892995064
270,0.30296685319724415,0.30140580396861094
271,0.3020346694879776,0.2969569340524658
272,0.2983149986961286,0.2944494104799362
273,0.3019034347886281,0.27932327823462033
274,0.30079062685048835,0.28575518870786504
275,0.302202066994733,0.28730251122010253
276,0.2962672946800431,0.27299928299394666
277,0.29502425754337097,0.299030162541059
278,0.292806249960578,0.27906094978386337
279,0.2872421111134316,0.26993664573428194
280,0.28669400309487214,0.2777387484167162
281,0.2888556350525811,0.2837870257547171
282,0.2868470632308107,0.27135845670666203
283,0.28866382954503705,0.28053581727567206
284,0.29063398712616173,0.28024826265265834
285,0.290647220584176,0.2708876400997814
286,0.2900109777955128,0.2759871139898955
287,0.29286220097403637,0.28371583915594156
288,0.29332814140499924,0.28130250519998634
289,0.2986922627337259,0.2855072330798139
290,0.2939205390395973,0.2801093802902768
291,0.29183942925849027,0.2758167030991018
292,0.29328064266726267,0.29122636453693274
293,0.29628674085024925,0.2798263196316684
294,0.2938980468862253,0.29084181555068295
295,0.29552479441479435,0.2778517857793757
296,0.3029237792527171,0.29909732469725814
297,0.30056773259533015,0.2931194223798723
298,0.30377033483877264,0.3266981195867203
299,0.3032653536096656,0.28948642408744313
300,0.2981179169446921,0.2788456421530708
301,0.287300035303874,0.27777493452828234
302,0.2898070419268261,0.28495612996906017
303,0.29429301440858724,0.268062912239366
304,0.2914485568932587,0.27795207100584457
305,0.28917837962448645,0.2774928589928498
306,0.2882679001473599,0.26715937750774194
307,0.2929632988014667,0.27428180929611495
308,0.29482386559009743,0.28558147870939177
309,0.2908876420889827,0.27860166913379153
310,0.28928184181118277,0.2757268792875376
311,0.2872721027139184,0.2704125817074207
312,0.2904883182639603,0.2700990941360793
313,0.28909003371290926,0.2682339568352643
314,0.289543176917054,0.28915520668641354
315,0.2876419372124066,0.27465347575219295
316,0.2902371295862537,0.2741444344325807
317,0.28869630538707347,0.2803241998286537
318,0.2913692499653136,0.2737525910868265
319,0.2895343646788292,0.270558127158725
320,0.29395547356131935,0.2866819191844612
321,0.2942551566804532,0.282735869570708
322,0.2918277525370546,0.2762344198238219
323,0.28986621864860673,0.2720538381172525
324,0.2867733838615848,0.2721465432629777
325,0.2875454567497869,0.27812403922675627
326,0.2874004541815137,0.29505521992858036
327,0.2881709500956688,0.27902811925620097
328,0.2889415416166746,0.2785328532897683
329,0.2898819198151477,0.26766989632394245
330,0.28787607607319293,0.28174357304398057
331,0.28823845517292296,0.2725820436003458
332,0.2879200841632964,0.2671508519383237
333,0.288364033321206,0.2828033155663896
334,0.2875248187666031,0.2805784382778731
335,0.2881861575108638,0.26922144507364487
336,0.287445096839532,0.2711440946233489
337,0.28632516633692406,0.27611546104313733
338,0.2887158705938539,0.2733128328867192
339,0.29030917706987935,0.281094399111047
340,0.29266367481052163,0.28211512390138976
341,0.28870493988934565,0.27726389277188346
342,0.2887547990377191,0.26945971183026035
343,0.28831182992596516,0.278656221238195
344,0.29025192284803214,0.27634613185344764
345,0.28759802815963703,0.28337580378401817
346,0.2891924306690741,0.27878612195212915
347,0.2897511913502912,0.27729902328848366
348,0.2877946494104003,0.27936692622908477
349,0.2894394398509837,0.2814804666867478
350,0.2905831829392367,0.2761360234342039
351,0.29092889920556003,0.27870405874058496
352,0.29426604503397935,0.28007159323888026
353,0.2921158780189727,0.2762497468265663
354,0.2913596411760477,0.2723758297707024
355,0.29076994770913006,0.27531363019438926
356,0.28898268326414195,0.27700581623281
357,0.2906471245485149,0.27101648981729265
358,0.2905552522312823,0.2742208053417439
359,0.29162066924176533,0.2719924460623146
360,0.29100799804135,0.27853409626066167
361,0.29099979443992263,0.28023894475780325
362,0.29030019776831617,0.2739314170408738
363,0.29146048289647014,0.28433139305841104
364,0.29059055177785226,0.2705744004851735
365,0.29212615673514386,0.27989002337771884
366,0.292906548818953,0.2785696460326638
367,0.2917810293148271,0.27595032684522625
368,0.290979553410094,0.2991997785425224
369,0.291833619068233,0.2731689204239149
370,0.29114359574947807,0.2744622194776407
371,0.2898675449353328,0.2875477213297854
372,0.29180220983845057,0.2744536089586666
373,0.29286219402969027,0.2715272407834701
374,0.2889777705680838,0.28368005111825306
375,0.29272249503601655,0.2731551993947003
376,0.29193778413472227,0.29965931511151106
377,0.2909221198621223,0.27437451081945846
378,0.2914031879138127,0.2745730235713998
379,0.2916089296043157,0.2805468145090478
380,0.29429383893355093,0.28601013192202784
381,0.2902656453881237,0.2753819770105448
382,0.2921502751042898,0.2928122196055437
383,0.2918889814024444,0.2781774301578797
384,0.2923838492039201,0.27955814630334175
385,0.2923080843272541,0.2792351871564243
386,0.2947064426829584,0.2758551480949819
387,0.2927468434023819,0.27639676818672654
388,0.2930962819513752,0.2780920571361646
389,0.2923558068801936,0.28761568997164083
390,0.2929201860972446,0.27884498445556777
391,0.29436492161165706,0.2745957612262152
392,0.29413400222357516,0.2872395191897345
393,0.29473926261555755,0.2802053874839265
394,0.2951424851072587,0.282494499467919
395,0.29652387649416445,0.2845221018711224
396,0.29470162046589343,0.2845144736056452
397,0.2962979517466159,0.2757913722306043
398,0.293446932282808,0.2819451977628935
399,0.29677719812837244,0.2771189517290835
400,0.2944033713006287,0.2764288573963207
401,0.2944589536562622,0.28504248311553493
402,0.29384410208006273,0.2740482303013271
403,0.2935904135390056,0.28728658323129896
404,0.2936410873377924,0.28066878067807316
405,0.29431145007518844,0.2759157005806278
406,0.29193737416816273,0.2749821524287926
407,0.29696571868624716,0.28333699984303967
408,0.2970912082494496,0.27558819054616374
409,0.2934955727460859,0.287348580929644
410,0.29571799743923544,0.2780517035920317
411,0.2980223524270298,0.2856707501783085
412,0.2957589402675724,0.27592847312211805
413,0.294134354687852,0.28763872482641156
414,0.2926588172821118,0.2882626143584782
415,0.2999035577169902,0.27864802527023097
416,0.2928328148002247,0.28310629058608694
417,0.2937922685218753,0.2756352016162759
418,0.2981186804773329,0.2896826754382208
419,0.2946977230082218,0.2715952597152745
420,0.2901317794367278,0.2809096891271287
421,0.2860329720042021,0.2727827181614753
422,0.2873069575305084,0.28512440408979145
423,0.2852771670745908,0.27681107241616254
424,0.2890974794693893,0.27167329301538673
425,0.2863946328941676,0.3195909894679415
426,0.28892923656889763,0.28971233371212995
427,0.2873256354809379,0.2839672022102946
428,0.2863017731457115,0.2640292183470331
429,0.2860228064761078,0.275229772398485
430,0.287277338786615,0.2708195096974121
431,0.28716558022655364,0.267832368847509
432,0.2864020457573169,0.2724476013606048
433,0.28541233607357164,0.2770030429585298
434,0.2881163054173418,0.2747406448048687
435,0.2859344828924496,0.267476853591867
436,0.2868119624378584,0.27389660345915273
437,0.2858848980457472,0.2815037152149965
438,0.28725637724216607,0.2676123383836475
439,0.2882904803259767,0.27006271285105615
440,0.289386802320953,0.27263400264396004
441,0.28646188665279665,0.27421109243086594
442,0.28674148254209664,0.27418359189684594
443,0.28682455732572754,0.2737073587472738
444,0.2884155487556823,0.26814001756290234
445,0.2874362222689519,0.27321365593264396
446,0.2875077240853954,0.2720188553067955
447,0.28883945359457597,0.28038055958386565
448,0.28761366216970574,0.2744765749411406
449,0.286020384775363,0.27665264932725403
450,0.2865728132492251,0.26940154929328547
451,0.2888893830202085,0.2762527262825804
452,0.2893113701654186,0.26956686678606406
453,0.28840356360641506,0.2765611669823421
454,0.28862042572024726,0.27614105748631584
455,0.2915966139673043,0.27221872261780494
456,0.2895729644216603,0.274589206973398
457,0.2874960560473702,0.28040712242674054
458,0.2884548146256821,0.27911237447912896
459,0.2884361597595455,0.27824200100567553
460,0.2876903009381321,0.27856384998668154
461,0.2888123165193698,0.275852161006092
462,0.29014732206849264,0.27483676679744057
463,0.2902347893118382,0.27076774996711966
464,0.2889847678424929,0.27442501452417006
465,0.2886879605521782,0.2828210009160527
466,0.28698640095768313,0.27713114521874155
467,0.28741825482161115,0.2769444718451225
468,0.28808212645357845,0.2755265582261729
469,0.29019536356702985,0.2699688291846059
470,0.28702197532407003,0.2849843962016591
471,0.28781736264530894,0.27758896404961103
472,0.28793375948659905,0.28116577263883274
473,0.28806178373612945,0.28777825453663397
474,0.2884162014825262,0.28434280156148356
475,0.28957009687126395,0.27539959558136556
476,0.2872812928889486,0.27901393981928324
477,0.2881724745463982,0.2741275678587976
478,0.2874403998708363,0.2796035542225593
479,0.2900967253126401,0.27546191713004575
480,0.2883679556081907,0.2774987471037807
481,0.28949773226448483,0.2786414447081023
482,0.28999426985363497,0.2721045561540569
483,0.28854065422984143,0.27256631497190803
484,0.28826705251428053,0.2788555825448168
485,0.2884058303815379,0.2748364443937059
486,0.2867752003202812,0.26600093442149864
487,0.28718221771250146,0.2672544578891527
488,0.2889552402088968,0.2757527504201564
489,0.287687864556587,0.2740104635846643
490,0.28804025301139513,0.2778075666011744
491,0.28917323450128335,0.27940812719884406
492,0.2881670250273723,0.27858825432520357
493,0.2891146168648768,0.2777004563370933
494,0.2880162378247503,0.27393834222322766
495,0.2888691832872032,0.2736417967311585
496,0.28969268792038627,0.2788704185737054
497,0.29050619960379165,0.26861247308581665
498,0.29097608414342363,0.281880922962477
499,0.2915510803901797,0.27433583547303125
