epoch,loss,val_loss
0,0.568340939606829,0.559056871874249
1,0.557987417065753,0.560726157099215
2,0.5577234080540512,0.5570207977934488
3,0.5572854318846254,0.5568239560430523
4,0.5412914621190977,0.5392202399068837
5,0.5393110754960501,0.5391562859443222
6,0.5389751883880478,0.540089198138494
7,0.538906215006227,0.5388992725796885
8,0.5388833160317599,0.538957616441689
9,0.5387846334780748,0.5386310836247641
10,0.538698411905283,0.521047881683462
11,0.5209024502475589,0.520583829779802
12,0.5208153573445702,0.5208449911152115
13,0.520777991567328,0.5207117603227117
14,0.520851499670015,0.5206653774049359
15,0.5207424303592854,0.5206442428304409
16,0.5207249502061874,0.5207882551597138
17,0.5207101434266621,0.5205959072755145
18,0.5207611699525835,0.5207222578664893
19,0.520631199508004,0.5212377445865936
20,0.5206526460518144,0.520614446501343
21,0.5206598126176978,0.5207069348772204
22,0.5205922116322229,0.5205135777484123
23,0.5206105396644636,0.5210497732864728
24,0.5206383068504458,0.5205301317551946
25,0.5205854537768443,0.5207891299259093
26,0.5205846067815282,0.5204684365428898
27,0.5205185423907217,0.520735164310437
28,0.5205528179571998,0.5204832037339352
29,0.5205051474267733,0.5211701924899561
30,0.5205526077335363,0.5204287611012942
31,0.5205325063145149,0.5206969412568832
32,0.5205310966887382,0.5204963632620213
33,0.5205002185107718,0.5206936661780759
34,0.5205164565881797,0.5213907591232209
35,0.5204669773983849,0.5218702049720434
36,0.5205188296442501,0.5210944718885938
37,0.5205194467444076,0.5204749639662402
38,0.5204859427303152,0.520528314909475
39,0.5204347450837041,0.521115447365596
40,0.5204776677456314,0.5205267470605972
41,0.5204256573781044,0.5204488052888119
42,0.5204501066225505,0.5205851979017639
43,0.5204359032932856,0.5204457516546549
44,0.520454899290893,0.5204810316428385
45,0.520417938162224,0.5205181234999816
46,0.5204592519434793,0.5208728625817163
47,0.5204268094503148,0.52043025788839
48,0.5204271419794846,0.5204915120750322
49,0.5204253880679501,0.5204498169688565
50,0.5203994068244515,0.5207192013733424
