epoch,loss,val_loss
0,0.6185633231308345,0.610552885272317
1,0.6046562374328555,0.5934362051266298
2,0.5928033302000111,0.5924205501224838
3,0.575945914634539,0.5774028317545845
4,0.5746506932424619,0.574481893621344
5,0.5744875517802865,0.5745393990686762
6,0.5743361148690896,0.5740804075982986
7,0.5742167993170383,0.5740228853994035
8,0.574106522618695,0.5738905973852919
9,0.5644889241381168,0.5206846329559757
10,0.5207938322178448,0.5206838084762357
11,0.5207268732970991,0.5209036658788198
12,0.5206433742307325,0.5205928345920138
13,0.520656222598755,0.5204863446308169
14,0.5206365412839775,0.5211002953439225
15,0.5206148021639129,0.520980561006173
16,0.520544074545829,0.521191984049739
17,0.5205445725312917,0.5205054412537854
18,0.520530591235929,0.5206556002101332
19,0.5205333294578077,0.5204155542092757
20,0.5205046828318843,0.5204505984472707
21,0.5204285112626713,0.52035983253868
22,0.5204487615937683,0.5204473365939389
23,0.5204556529253179,0.5206030558620682
24,0.5204479328962042,0.5204843476369678
25,0.5203856063210439,0.5204196826647983
26,0.5203765490058078,0.5203056198429481
27,0.5203675663922736,0.5205177693982005
28,0.5203990872251284,0.520333225497515
29,0.5203339081998546,0.5216350874779682
30,0.5203691660803017,0.5203472526549107
31,0.5203466414219308,0.5203928733236266
32,0.5202993000378491,0.5218516813859484
33,0.5203539214268174,0.5209359890467152
34,0.5203469934814094,0.5212725607936728
35,0.5203098666592545,0.5202495541088025
36,0.5202942695001426,0.520320822796997
37,0.5203119028658525,0.5204842724455336
38,0.5202802853386967,0.5205994267767796
39,0.5203226229751833,0.5203254368572469
40,0.5203030557531018,0.5203782831569996
41,0.5202659521391603,0.5203175120655269
42,0.520289128710009,0.5209328568962248
43,0.5202629021043861,0.5203712051027853
44,0.5202482660474049,0.5203914596166592
45,0.5202566224246123,0.5203648302647843
46,0.5202532801792566,0.5203334248961765
47,0.5202309822958259,0.5210909901683507
48,0.5202664030192066,0.5202485242053445
49,0.5202209115307931,0.5205600116197414
50,0.5202275684492206,0.5203485188379997
51,0.5202472579189221,0.5203256230198441
52,0.5202121386072378,0.5201850259128271
53,0.5202723224662233,0.5203857102938795
54,0.5201656202422049,0.5213582568343145
55,0.5201792165802557,0.5202098259982598
56,0.5201855753187425,0.5202587102251126
57,0.5201776757118762,0.5202662502709153
58,0.5201921787515421,0.5202483547837214
59,0.520167830506169,0.5203046666874854
60,0.5201395918961135,0.520533030823887
61,0.5201649204873179,0.5204209012404113
62,0.5201725490643802,0.5202026743727057
63,0.5201535442440373,0.5202658819694844
64,0.520164713756605,0.520429083161211
65,0.520138803192409,0.5202318354977831
66,0.5201854515053659,0.5202135902290596
67,0.5201141140328084,0.520513662734534
68,0.5201398941732823,0.5201849197701803
69,0.5201224268384939,0.5201629507306584
70,0.5201342648331704,0.5204668082422591
71,0.5201530482422428,0.5201628026032156
72,0.5201142092630069,0.5204653166542893
73,0.5201124159689496,0.5202152944623439
74,0.5200996508684056,0.5202119485335317
75,0.5201280798287327,0.5208685784065442
76,0.5201229293687455,0.5210887118181299
77,0.5201085397483166,0.5203779410735649
78,0.520111168807727,0.5204920831106128
79,0.5201190737980292,0.5201621001493997
80,0.5200891481761831,0.5209300876150844
81,0.5200680889291427,0.5203606986431949
82,0.5201010456413774,0.5206659215766004
83,0.520075595093397,0.5209029317855157
84,0.5200812580471571,0.5218264660481174
85,0.5200859973371731,0.5202826045507817
86,0.5200688120659025,0.520189605485188
87,0.5200949544595103,0.5202371204041274
88,0.5200810708411057,0.5202458671660295
89,0.520122728854468,0.5203410863219834
90,0.5200420097714928,0.5204211601801846
91,0.5200733226622557,0.5209954381412629
92,0.5200898616374419,0.5203029506052762
93,0.5200540799386639,0.5201896038015605
94,0.5200740155780756,0.5203902323475992
95,0.5200509504583261,0.5202376397449353
96,0.5200554419761668,0.5201396516149178
97,0.5200252536008609,0.5202294534932955
98,0.5200705984813603,0.5202432931115433
99,0.5200282722823806,0.5201806416835978
100,0.5200414926736328,0.5202267430120473
101,0.5200565463231527,0.5203531889238627
102,0.5200369931251121,0.5204867228645905
103,0.520048860713861,0.5202254334358449
104,0.5200100537500436,0.5202614044736515
105,0.5200545875318584,0.5201704391981657
106,0.5200345055753764,0.5201561799860906
107,0.5200255249878666,0.520186429962762
108,0.5200221373609798,0.5202976779608219
109,0.5200252473787782,0.5208367367454905
110,0.5200239818703883,0.5205075327637225
111,0.5200225667708166,0.5201630803911443
112,0.5200398960931164,0.5202100219661335
113,0.5200126919456233,0.5201860238485426
114,0.5200250533110697,0.5202235440988485
115,0.5200069297251466,0.5201401339582787
116,0.5200230252862211,0.5201186362920678
117,0.520034971841912,0.5202869151769046
118,0.5199888611044846,0.5201596797603255
119,0.5200162196914992,0.5202644530463375
120,0.520000209997144,0.5203212870757773
121,0.5200302859288105,0.5205023229852792
122,0.5200217226599377,0.5202193400601042
123,0.5199822597866568,0.5202137709172205
124,0.5199877582018352,0.5202118195295545
125,0.5199993796957029,0.5201590552722228
126,0.5199994298860413,0.5201646779629282
127,0.5199672974028224,0.5201904143357832
128,0.5199942739536708,0.5202072051939944
129,0.5199710827785052,0.5201299504586574
130,0.5199789517309895,0.5201341665369259
131,0.5199535988317299,0.520153716945123
132,0.5199558929985109,0.5203726278102764
133,0.5199722866138702,0.5202715754572506
134,0.5199766990038165,0.5202469386836737
135,0.5199744685205542,0.5201955405999551
136,0.5199592052205875,0.5201166935978488
137,0.5199534824320489,0.5201120286158123
138,0.5199528538463811,0.5201185465727295
139,0.5199535765002836,0.5206390992958522
140,0.5199682857849812,0.5201293959522738
141,0.5199793830835506,0.520133416825066
142,0.5199327958704021,0.5201836338177056
143,0.519965313454943,0.5202271669367148
144,0.5199627843201775,0.5203404965653134
145,0.5199326956111455,0.5201906019066976
146,0.519967243684237,0.520169159450758
147,0.5199409631044812,0.5201148588887369
148,0.5199306760532428,0.5202043004814442
149,0.5199380570303771,0.5201804640238483
150,0.51992700031865,0.5203227127481468
151,0.5199290010521757,0.5201700410467627
152,0.5199364203741129,0.5201598378518776
153,0.519932188846715,0.5205487809462453
154,0.5199220840868308,0.5201612238689984
155,0.5199408014870454,0.5201390361696943
156,0.5199385107242674,0.52046353336464
157,0.5199273847634556,0.520121495959644
