epoch,loss,val_loss
0,0.30725928669246494,0.2960330673394073
1,0.2964904272727165,0.29401449911647637
2,0.29531234952266644,0.2967928734665769
3,0.2947393033068138,0.292364930514958
4,0.2936278095752389,0.2920115717735243
5,0.2932014039498924,0.2917471988621184
6,0.2927408382755857,0.29224592959022994
7,0.292251945456183,0.2910621161496373
8,0.29217918543895066,0.29127029103617513
9,0.29182627624176194,0.29125021605870266
10,0.29159510061145816,0.29440055597508813
11,0.29148912412770883,0.2925920888744572
12,0.29143010463448105,0.29017136199006965
13,0.2913232176375426,0.2908323575338122
14,0.29123042085528844,0.2931002030745333
15,0.29109881672657123,0.2908352650572585
16,0.2911774869394177,0.29018027640453936
17,0.29113013584285236,0.29061723440219983
18,0.2909641908326293,0.2913886174226813
19,0.2911090165578998,0.2903171139082897
20,0.29093026276225503,0.2917438366720753
21,0.2909267430938216,0.28994239477010875
22,0.29089700087501247,0.28956940364896805
23,0.29095433757295397,0.29114110024632056
24,0.29081409598292646,0.290081276846287
25,0.2907989921496905,0.2929001951631778
26,0.2906357291686295,0.2896852570343254
27,0.290810273352416,0.28953885178707967
28,0.29071732078764334,0.2904934851318672
29,0.29071720649038674,0.2894380841450419
30,0.29066679174931515,0.28953478195827004
31,0.2906412909916958,0.2923131763935089
32,0.2905556996506435,0.2929243277231458
33,0.2905209992827898,0.2923333875298796
34,0.29052604991247044,0.2895543901263632
35,0.2904700409594427,0.2900407881358125
36,0.2905680241638071,0.29048900907447855
37,0.29052668611539906,0.28919237171745776
38,0.2905800061555558,0.2895854473705623
39,0.2905995138673336,0.29083077165092486
40,0.29041986912814327,0.289424686573871
41,0.29047799750664977,0.28966844546292025
42,0.2904123381154716,0.2906067912395184
43,0.2904313892424655,0.29120293817212506
44,0.2903008669138734,0.2894933251086299
45,0.29043969713334167,0.2896474784124578
46,0.2902863141784733,0.28937187734667774
47,0.29043606661522514,0.2892653822159353
48,0.29036678905385205,0.291513994003348
49,0.2902754649348942,0.2951521305381216
50,0.2902911992287841,0.29170769030048
51,0.29039607719319543,0.2894804070516496
52,0.2902593617143554,0.2897182217898499
53,0.2903436140949352,0.29135762146921373
54,0.29029237869530167,0.29134424624608707
55,0.290251918396105,0.29164617171062723
56,0.2902600372849367,0.28947814356896184
57,0.2902484685188488,0.2899878238625917
