epoch,loss,val_loss
0,0.5159548621128387,0.5109697498399626
1,0.5093377696698066,0.5101971918536771
2,0.5086304300763249,0.5077844642232133
3,0.5083079370557674,0.5081690859262168
4,0.5079751813816066,0.509578285708321
5,0.5077646162767991,0.5083485875768637
6,0.5076140623488264,0.5072427822697547
7,0.5074564902198486,0.5081214351334584
8,0.5073928731951036,0.5082987328616916
9,0.507195158935641,0.5073824496186401
10,0.5071169650385374,0.5070086925260482
11,0.5070694255252381,0.5077209335698679
12,0.50700309673882,0.507355359144897
13,0.506948383027436,0.5071987300001953
14,0.506834780334049,0.5065369619920886
15,0.5068573644180756,0.5066983262007645
16,0.5067264651006165,0.5065758793880567
17,0.5067478795717725,0.5064518135475462
18,0.5066993240746203,0.506624328113963
19,0.5066468477362737,0.5067737499478437
20,0.5066667136770072,0.5064303190181628
21,0.506601287180639,0.507135952376846
22,0.5066413668422439,0.5065025307996102
23,0.5065884092500903,0.507371564479383
24,0.5065979966533766,0.5067553879013724
25,0.5065617949301798,0.5073915818784728
26,0.506496764536774,0.5065872508006415
27,0.506522186886846,0.5074747625414846
28,0.5064926135817834,0.506664416186567
29,0.5065365788357962,0.5063635024480133
30,0.5064330023542369,0.5065902927968993
31,0.506443566516107,0.50686206441955
32,0.5064426081940151,0.5064408304673567
33,0.5064359767586133,0.5064646747508652
34,0.5064337127342274,0.5065349064748873
35,0.5064741314018346,0.5061317700606126
36,0.506368551700623,0.506322580768216
37,0.5064347975875119,0.5070904341584104
38,0.5063378015499244,0.506412185451233
39,0.5063814430309956,0.5066154467556672
40,0.5063497394221196,0.5064830488070069
41,0.5063429507062146,0.5065044528201555
42,0.5063914247584367,0.5073926011326887
43,0.5063623753244115,0.5064857288270671
44,0.5063742021840305,0.507396530188047
45,0.5063266348140536,0.5062081100627152
46,0.5063162366066412,0.5064127551710635
47,0.5063020145823207,0.5062143926289182
48,0.5062718425543163,0.5063824936710576
49,0.5063417716100519,0.5063463578448993
50,0.5063236030973671,0.5064206706383092
51,0.5063136787413983,0.5075654022155269
52,0.5063538955573447,0.5062675282322148
53,0.5063173260493279,0.5063743614677164
54,0.5062862207319044,0.506318670910582
55,0.506326127818417,0.5076488790086127
