epoch,loss,val_loss
0,0.42389092308070103,0.4162310519526082
1,0.4163179810266349,0.41795840214558927
2,0.4156622940357192,0.4150807022752596
3,0.4153241776987451,0.4153581290179979
4,0.4150570370335291,0.4149664377899975
5,0.41494939674908116,0.4157920162376044
6,0.41464201581211335,0.4141839782150448
7,0.4143839583182066,0.41480754040015244
8,0.4143244664435165,0.41363134496561055
9,0.41408784036045615,0.4139199534065966
10,0.41412509552619436,0.41544202475926423
11,0.4139210932046793,0.41457088006933035
12,0.4138874058353584,0.41380152345886895
13,0.41376987778158064,0.4136310576800969
14,0.4137184774474443,0.4139254438226335
15,0.41383845802674646,0.4133395281973903
16,0.413675018865254,0.41330804357457696
17,0.4136291348577308,0.4133759693087774
18,0.41355455854275064,0.4131937210820153
19,0.41357297267325477,0.415017765272344
20,0.41352916678580115,0.41335229181474253
21,0.41348564439332874,0.41321760346516784
22,0.413447081854953,0.4131847564990704
23,0.41334052197282667,0.41595861450318367
24,0.41337645010714624,0.4135661887471788
25,0.41332957809156085,0.4132240120441683
26,0.41326413797410233,0.4134905920135176
27,0.41329049245362165,0.4130752034873584
28,0.4133304250338772,0.41527928721816015
29,0.41326930007111856,0.4140025609332338
30,0.41319491995584545,0.4133875208664177
31,0.4131852864905163,0.4140786578726236
32,0.4131413795269605,0.4131874859185136
33,0.41320975671750254,0.41373669398629637
34,0.4132058154787896,0.4136744940695041
35,0.41309241488160026,0.41371997680616734
36,0.41311697765114563,0.4141661119816025
37,0.4131253737531255,0.4132710288683179
38,0.4131457964621861,0.41405228596763044
39,0.4131325656548808,0.41350440193642457
40,0.41314506853668526,0.4131151040789507
41,0.41310419827323785,0.41308368326120876
42,0.41307323092146564,0.41442475663521156
43,0.41303468479899835,0.4129773027695734
44,0.4130029160068847,0.4137876053158166
45,0.41301955249182665,0.41329603570862383
46,0.41299223954073244,0.41292793568843056
47,0.4130604053158611,0.41521408021006334
48,0.4130310058156739,0.413798499432746
49,0.4129640028201919,0.4130061906265562
50,0.41302880628548416,0.41284491890121633
51,0.4129951727185825,0.4151168266685666
52,0.4130181061884066,0.4128420082274501
53,0.4128852562949258,0.413113543280301
54,0.412974746600601,0.41310265354128095
55,0.41295867033471495,0.4143012533856385
56,0.4129338491509798,0.41497550704343145
57,0.4129520449867001,0.413552957166809
58,0.4129381133529022,0.4128870392703537
59,0.4129311308451882,0.4129142203194924
60,0.4129026723128734,0.41296925602420687
61,0.4128882401798334,0.41296143272970215
62,0.4129475554173605,0.4135770048899923
63,0.4129265453507943,0.4143262331154447
64,0.41291976784058787,0.41277180862781726
65,0.4128616990939407,0.4129935579619396
66,0.4128932190971458,0.4128268377212969
67,0.4128642675732609,0.4131449030883259
68,0.41291257488298605,0.4165954224820764
69,0.4129071125319399,0.41308107560976565
70,0.41286322189909913,0.4133847943310702
71,0.41281702217178107,0.41425012021739194
72,0.41297442937690526,0.4128815795440532
73,0.4128807039119885,0.4129122959916704
74,0.4129110449957284,0.41348413635720094
75,0.41281069582513696,0.41355851359166224
76,0.41292873920536544,0.41314032295205755
77,0.4128301096537422,0.41302988771765164
78,0.4128865186420407,0.41278559537442683
79,0.41278874023403256,0.41287198387659513
80,0.41288907168675465,0.4127172689579853
81,0.4128125229006439,0.4136614194578923
82,0.4128460199071918,0.41288918468259994
83,0.41282112762006373,0.4156263333396344
84,0.4128481289481421,0.4133597494354911
85,0.41282590003320685,0.4126398865401597
86,0.4128890821529267,0.4127437035587822
87,0.4128417454055401,0.41273016555433534
88,0.4128376174231977,0.41323102376892906
89,0.4127970420856404,0.4132057383693477
90,0.41287475337057483,0.4129501735454162
91,0.41279013490746613,0.41267220391233267
92,0.41284312197181755,0.41265383932194105
93,0.41286560264954353,0.4133276889992707
94,0.41277556118726483,0.41304444271340857
95,0.41291322069344727,0.4134035932219058
96,0.41278515267549776,0.41271682090262324
97,0.41281375824340993,0.4127318713120728
98,0.4128242180886717,0.41591823725191596
99,0.4128244295238059,0.4127743805756344
100,0.41283481366601776,0.4129742436314339
101,0.41278607388283023,0.413177899051245
102,0.41278051032907503,0.4128659568856431
103,0.4127869376717552,0.41433174506606296
104,0.4127854236154899,0.41285979592474753
105,0.4127562440504548,0.4127780280101388
