epoch,loss,val_loss
0,0.9127689395148009,0.5726474870082944
1,0.5714501042390671,0.5713725713796394
2,0.5711129426340108,0.5713327342225599
3,0.5711621423408351,0.571371756320776
4,0.5711041393206101,0.5714457571044449
5,0.5712217870300746,0.5720841270084529
6,0.5714025009202095,0.5713497682135235
7,0.5713153926593081,0.5717925156733786
8,0.5712487600570502,0.571347806804864
9,0.5711502258783779,0.5715716772301253
10,0.5712246657649984,0.5713296652764313
11,0.5712189923885257,0.5750360719917357
12,0.5740500027819198,0.5714275518129038
13,0.571260393589966,0.5713351803232533
14,0.5711166530616524,0.5714495838150497
15,0.5719649402054089,0.5719499929930812
16,0.571833254446971,0.5713417950526688
17,0.5712786119729666,0.5713293196619019
18,0.5712537961104736,0.5715169047200402
19,0.5714010830381427,0.5722502613252447
20,0.571245011125116,0.5713435610135397
21,0.5711658319761587,0.5714520710383275
22,0.6223087119809725,0.5960882809735084
23,0.5654737421092445,0.5416430863299111
24,0.5413441511703708,0.5415607815565064
25,0.5411688320396483,0.5414195416509643
26,0.5412222992542178,0.541416233824205
27,0.5411781332905594,0.5414533730625182
28,0.5411831590248325,0.5414762252060942
29,0.5412964595996749,0.5416509767835455
30,0.5412168810841957,0.5421685169833576
31,0.5412392660936952,0.5414149844369223
32,0.5411454850389051,0.5416406129681787
33,0.5412172627387429,0.541752508906431
34,0.5412930023762607,0.5421497895736103
35,0.5414273421585714,0.5414785054302955
36,0.5412200627708927,0.5416556592135466
37,0.5411853697872901,0.5414256837016852
38,0.5412368441736976,0.541510800520579
39,0.5411896141924599,0.5414312541946884
40,0.5412485400835673,0.5415913753731306
41,0.5411949174656733,0.5414988444757092
42,0.5411756577725866,0.5417052156241365
43,0.5413605178049369,0.541429084400798
44,0.5416590072387872,0.5414116719896479
45,0.5411624623515501,0.541428498057432
46,0.5412764549255371,0.5419244567553202
47,0.5413564369660016,0.5414163997006971
48,0.5412730697821585,0.5414467172105183
49,0.5411962172165705,0.5414206662843394
50,0.541166128730281,0.5416487381439801
51,0.541306232913212,0.5414205276688864
52,0.5414851967062445,0.5419400422148002
53,0.5413487649087142,0.5414096810096918
54,0.5413321786456637,0.541430932144786
55,0.5416885189307753,0.5414743012236071
56,0.5412361908328626,0.5417345415714175
57,0.5414677085186468,0.541455938372501
58,0.5413717228620859,0.5419441045716752
59,0.5412064821529142,0.5416564299154651
60,0.541624603653447,0.541554237520972
61,0.541310221957914,0.5416950296986011
62,0.5416001406442903,0.5418747136759203
63,0.5412373214729073,0.5421778527341148
64,0.541248221730077,0.5414098228595053
65,0.5411784544163588,0.5414651539898658
66,0.541239735384012,0.54147523549176
67,0.5412254054725016,0.5414478691049325
68,0.5414949655532837,0.5430271570072618
69,0.5419997252543152,0.5414060044658277
70,0.5418064592728628,0.5416375814482223
71,0.5412888884236339,0.541436955448269
72,0.5413377965759554,0.5418869090634723
73,0.5413921778824287,0.5414159385732902
74,0.5416260158368783,0.5431944247364073
75,0.5414601633715075,0.5414480659388756
76,0.5413154838005085,0.5414066587307657
77,0.5411944566463007,0.5415141462355622
78,0.5412195902462154,0.5415955241336379
79,0.5413108923946548,0.5414044852404631
80,0.5413000389587047,0.5417521064595658
81,0.5415639128795889,0.5416357937709305
82,0.5413008957562212,0.5417455767476281
83,0.5413505750725127,0.5420114370279534
84,0.5449950402405219,0.5422255868135497
85,0.5413649166893282,0.5414762589358544
86,0.5411492421337493,0.5414191840230956
87,0.5414228340760066,0.5414298398550167
88,0.5415692352509314,0.5418967660083327
89,0.5411828984277809,0.5414171708646671
90,0.5412107012992682,0.5420350603354994
91,0.5413772636297753,0.541617517323457
92,0.5412895697955937,0.541404878446298
93,0.5413458778568633,0.5418627604033596
94,0.5413986487598074,0.541496148405149
95,0.5412420644316562,0.5414992039517839
96,0.5411913111536386,0.5414145487223485
97,0.5412811196435637,0.5415940520375274
98,0.5413198645108738,0.5414282952168191
99,0.5411854822198242,0.5416160771089007
