epoch,loss,val_loss
0,0.8021374283499187,0.8012140938838322
1,0.8012576010889477,0.8010618687868118
2,0.8011454377041922,0.8009755529959997
3,0.8010146978166368,0.8008302457332611
4,0.8009057134124968,0.8008017470836639
5,0.8008420390552945,0.8008275172313054
6,0.8008026694986555,0.8007454742987951
7,0.800767974893252,0.8008774926662445
8,0.800746330499649,0.8007218318382899
9,0.8007150064441892,0.8006288055976232
10,0.8007077917257944,0.8006695551077525
11,0.8007002320422066,0.8007074254353841
12,0.8006898136138916,0.8006733198563258
13,0.800685058871905,0.8006846804221471
14,0.8006820729441113,0.8006882736682892
15,0.8006755128171709,0.8006026829481125
16,0.8006770093970829,0.8006464272737503
17,0.8006737315919664,0.8006744976441066
18,0.8006722887224621,0.8006053409179051
19,0.8006723635064231,0.8006116227706274
20,0.8006637938022614,0.8006053531567255
21,0.8006647492382262,0.8005928304592769
22,0.8006634630759557,0.8006096477111181
23,0.8006610468228658,0.8006437936623891
24,0.8006568149593142,0.8009250402847926
25,0.8006588843928443,0.8006264957984288
26,0.8006555154588487,0.8005949131647746
27,0.8006531978713142,0.8006772222121556
28,0.800652431315846,0.800674043138822
29,0.8006557863818274,0.8006096104780833
30,0.8006506159305572,0.8005881466070811
31,0.8006502007246017,0.8006849952936173
32,0.8006502547529009,0.8005782250960668
33,0.8006501769489712,0.8008934139410655
34,0.8006500325202942,0.8006096685330073
35,0.8006442731486426,0.8006016153891882
36,0.8006490704748366,0.8006404630740483
37,0.8006421537531747,0.800972406744957
38,0.8006439045270284,0.8006133957306544
39,0.8006438438892365,0.8007504584789276
40,0.8006446813080046,0.8005780584017436
41,0.800646652314398,0.8005846826632818
42,0.8006441930532455,0.8005830235083898
43,0.8006431317726771,0.8005998725493749
44,0.800640169037713,0.8007870160738627
45,0.8006409049034119,0.8007171934048335
46,0.8006418778896331,0.8005922820568084
47,0.8006378430922826,0.8007767657438914
48,0.8006434112654792,0.800588590780894
49,0.8006380748616324,0.800571389277776
50,0.8006407481829325,0.8006067063411076
51,0.800639678200086,0.80076957321167
52,0.8006368113226361,0.8005833203792572
53,0.8006379691362381,0.8006456160942713
54,0.800633883661694,0.8005709088643392
55,0.8006376200119655,0.8009597035249074
56,0.8006382675435808,0.8005836402972539
57,0.8006357451015048,0.8009026721318563
58,0.8006326524416606,0.8007459243138632
59,0.8006347220341364,0.8005629523992538
60,0.8006360407670339,0.8005621216694514
61,0.8006324240631527,0.8006392168998718
62,0.8006339352793164,0.8005997351010641
63,0.8006319033702215,0.800592987815539
64,0.8006326130628586,0.800595215678215
65,0.8006315852801005,0.8005790630976359
66,0.8006320450835758,0.8007248852650325
67,0.8006266936328676,0.8007464752197265
68,0.8006314432621002,0.8006342642307281
69,0.8006312953631083,0.8006455907026927
70,0.8006294576062096,0.8005622316201528
71,0.800630567656623,0.8008415074745814
72,0.8006272705263562,0.8005651470422744
73,0.8006319023105833,0.8005758229096731
74,0.8006298370758692,0.8006626679499944
75,0.8006270422670576,0.8005753298600514
76,0.8006249316136043,0.8005690080324809
77,0.8006300387647417,0.8005598274072011
78,0.8006272110939026,0.8006652940511704
79,0.800629724740982,0.8005609071652094
80,0.800620639151997,0.800601189772288
81,0.8006276106437047,0.8006212635437647
82,0.8006251299381256,0.8005679899851481
83,0.8006262333790461,0.8005906760295232
84,0.8006221616797977,0.8005873018900553
85,0.800628132197592,0.8005968773365021
86,0.8006204825109906,0.8006844778060913
87,0.800621058596505,0.8005955585241318
88,0.8006231210364235,0.800586886604627
89,0.8006197973622217,0.800740079164505
90,0.8006247637934155,0.8005809662739436
91,0.8006243393023809,0.8005709304412206
92,0.8006200431585312,0.8006234660545984
93,0.800621670126915,0.8007698453267416
94,0.8006260066297319,0.800585812330246
95,0.8006240673859915,0.8006478614807129
96,0.800621536427074,0.8005630299250285
97,0.8006225969261593,0.8005826422373454
