epoch,loss,val_loss
0,0.34352689617416376,0.33790532837138876
1,0.337885982388531,0.3393807666473294
2,0.33704193231816865,0.3362932899157995
3,0.3364750587276496,0.3374184143158697
4,0.3364074227429249,0.3361589439305715
5,0.3362419687782329,0.3363083833944117
6,0.33625704759851666,0.3359052317461956
7,0.33612260622331436,0.33582920085999274
8,0.3360550363329237,0.33586552264376845
9,0.33598786426001337,0.3358939935640425
10,0.33592970866654087,0.336223365843444
11,0.3359198830722524,0.33581047330245783
12,0.33589175398494814,0.33576875327538613
13,0.33586495375598846,0.33596997157515723
14,0.33582528951062013,0.3366312201354403
15,0.33584331410042345,0.33594560525553396
16,0.33578286196904034,0.3357016957427373
17,0.3357509120130733,0.3357648440833127
18,0.3357499337525607,0.33578834026386367
19,0.33573652980575647,0.3357895736954644
20,0.33571597673968673,0.33551856308953637
21,0.33571595834934137,0.3357468824084876
22,0.3356776237712609,0.33553777996718737
23,0.3356755318226392,0.33575307837786805
24,0.3356567101704907,0.33590155124072696
25,0.3356695351174238,0.33610654665577794
26,0.3356458352075638,0.3360179640814921
27,0.335656659636581,0.3355513877223798
28,0.3356248948339658,0.33551213183710654
29,0.3356321011980966,0.3355599480438469
30,0.33560469950107324,0.3355310816622845
31,0.33559603153183376,0.3354496151726536
32,0.33561481163206436,0.3354917883872986
33,0.33558266241613144,0.33548573313220853
34,0.33558656891879624,0.33626575608998904
35,0.3355891703352419,0.33653451236838444
36,0.33557649748857743,0.3355324072370458
37,0.33556544004879263,0.3354389995410484
38,0.3355696906785321,0.3355798513214878
39,0.3355684769681952,0.3354859195039527
40,0.33555265129645095,0.33551723411302115
41,0.33556320137931595,0.33548829718204054
42,0.33558545387429706,0.33547120978755335
43,0.3355499247513492,0.33547814344945676
44,0.3355487055452465,0.3354717716389791
45,0.33555682155564426,0.335463501146946
46,0.3355562995245486,0.335426641575456
47,0.33554525952693764,0.3355138492791292
48,0.33553201573354874,0.33552429498573094
49,0.3355174028042492,0.3356767986311806
50,0.3355441933523152,0.3372672878778898
51,0.3355467247653889,0.33568827694757997
52,0.3355294061219673,0.3354606558903867
53,0.3355239374800165,0.33659618891794096
54,0.33554143967507444,0.3357083228622418
55,0.3355112392729211,0.335588564514818
56,0.3355359514646635,0.33557057084871583
57,0.3355027991858829,0.3356208861317883
58,0.335519591904553,0.33563180543648696
59,0.3355095220630341,0.33544492674228865
60,0.33551973796239787,0.335523854946676
61,0.3355064240141819,0.33632091462760055
62,0.3355175298174158,0.33579914594998134
63,0.335490086660373,0.33543773707621743
64,0.33549249826938066,0.3356466094110503
65,0.335510547737641,0.33554124278998554
66,0.33551372706458615,0.33540340979992606
67,0.3355112493537506,0.3355563167454883
68,0.33551578910123836,0.3354428451646942
69,0.3354832838638854,0.3354041373759286
70,0.3354961584383646,0.3357399461730834
71,0.33550401315574424,0.335523266265765
72,0.3354871761526555,0.33663274962316375
73,0.3354903519649768,0.3356681833344121
74,0.3355145214528038,0.33543020250187916
75,0.33548731692850703,0.335405359552161
76,0.3355101966053779,0.33551384745993035
77,0.3355028980670707,0.3359244983338245
78,0.3354951189612369,0.3354647453458374
79,0.335488483360428,0.33542201261662374
80,0.3354927212624251,0.3353757392975592
81,0.3355006126571589,0.33554528580410015
82,0.3354903581324298,0.3353874300460957
83,0.3354877220765674,0.33582728240389387
84,0.3354908458534446,0.33537815855099606
85,0.33547430162195624,0.3356663638249816
86,0.33549003884358186,0.3363265486716041
87,0.3354719458489668,0.33538768406837216
88,0.3354810617175978,0.33539611998917745
89,0.33548557201418616,0.3353907982853447
90,0.33547497350989325,0.33596418491072455
91,0.3354893184955644,0.3353976616196834
92,0.33546955529851574,0.3354186741649069
93,0.3354560504175984,0.33540052650288377
94,0.3354699386851736,0.3359051062954271
95,0.3354741855671905,0.33585319421427423
96,0.33547455596421505,0.3354678831236534
97,0.3354867239474455,0.336082770422138
98,0.33546652560517354,0.3356048345565796
99,0.3354722293920665,0.3353962130493325
100,0.3354647630585712,0.3354235548683195
