epoch,loss,val_loss
0,0.9015640374554528,0.9007086718877156
1,0.90075868484709,0.9006288201411565
2,0.9006731019814809,0.9006180462439854
3,0.9006129143370523,0.9005138142506282
4,0.900572808570332,0.9005001916090647
5,0.9005321756866244,0.9004639694690705
6,0.9004909156295988,0.9004311135609945
7,0.9004573440949122,0.9004685155550639
8,0.9004407270881865,0.9004747850497564
9,0.822141955561108,0.8009073784351349
10,0.8008735094600253,0.8008029456535976
11,0.8008576351801554,0.800998818397522
12,0.8008409006198247,0.8007882260878881
13,0.8008449648353788,0.8008743410905202
14,0.8008349883423911,0.8008332511583964
15,0.8008391558859084,0.8007776710987091
16,0.8008290861712561,0.8008104594945907
17,0.8008286576006147,0.800809313694636
18,0.8008291325171788,0.8007659075260163
19,0.8008249918354882,0.8009506817658743
20,0.8008236614200804,0.800784273147583
21,0.8008231912851334,0.800759663383166
22,0.8008137048217986,0.8008420255184173
23,0.8008128322495355,0.800776294350624
24,0.8008151987393697,0.8008983909289042
25,0.800811787141694,0.8007676937977473
26,0.8008076550430722,0.8007937023639679
27,0.8008117305967543,0.8009026405413946
28,0.8008121471934848,0.8007541949351629
29,0.8008086981773377,0.8008610489368438
30,0.8008087830675973,0.8007895896832148
31,0.8008036177423266,0.8008358987172445
32,0.8008060695860121,0.8007736601432165
33,0.8008053029378255,0.8007507745424907
34,0.8007991564406289,0.8007960227330526
35,0.8008018143044577,0.800755004644394
36,0.800805552734269,0.8007633405129114
37,0.8008032885789871,0.8007900797923406
38,0.8008016010522843,0.8008127697308858
39,0.8007980352905062,0.8007681618928909
40,0.8008069938818614,0.8007940960725148
41,0.8007977027893066,0.8007274566888809
42,0.8007994727426105,0.8007516119082769
43,0.8007977228959401,0.8009865059455236
44,0.8007948742840025,0.8007320311069489
45,0.8007965668307411,0.8007506800492604
46,0.8007963551150428,0.8007919446229935
47,0.8007971359226439,0.8007653536399205
48,0.8007947056690852,0.8007388111750284
49,0.8007965739303164,0.8007893257141113
50,0.800794681986173,0.8007730447451273
51,0.8007919639216529,0.8007997944752375
52,0.8007967303858863,0.8008622358640035
53,0.8007921255164676,0.800785921851794
54,0.8007951922284232,0.8007619744936625
55,0.8007916055520375,0.800723970413208
56,0.8007912415530947,0.8007323407729466
57,0.8007918704483244,0.8007646489143372
58,0.8007915080785751,0.8008384736776352
59,0.8007964537408617,0.8007460737228393
60,0.8007909035285314,0.8007258161306381
61,0.8007922003534105,0.8007278947035471
62,0.800791781478458,0.8007310159603754
63,0.8007871172030767,0.8007649240493775
64,0.8007914273473952,0.8008350364764532
65,0.8007888171540366,0.8007488627433776
66,0.8007899247540368,0.8007374027172725
67,0.8007890647384855,0.8007532118558883
68,0.8007879560788472,0.8009336151679357
69,0.8007904357115427,0.8007910530964534
70,0.8007896744807561,0.800718601822853
71,0.800791547258695,0.8007745739618937
72,0.800789579404725,0.8007671513954798
73,0.8007886432541741,0.800809932311376
74,0.8007884915934669,0.8008792020877202
75,0.8007904636065165,0.8008053310314814
76,0.8007917642990748,0.8007405761480332
77,0.8007875816557143,0.8007217242717742
78,0.8007903488477072,0.8008280619382858
79,0.8007870031992594,0.800749299844106
80,0.8007878417306477,0.8007527932325998
81,0.8007956324948204,0.8007172887325287
82,0.8007877157131831,0.8007619428237279
83,0.8007896019750171,0.8007147547006607
84,0.8007886711623934,0.8007505681912104
85,0.8007899770869149,0.8008007854620616
86,0.800793546239535,0.8007264959812165
87,0.8007934607664744,0.8008173355658849
88,0.8007909523513582,0.8007318897247314
89,0.8007930430306328,0.8007301095326742
90,0.8007937671608395,0.8007648559014002
91,0.8007908815145492,0.8007263850768407
92,0.8007891113228268,0.8008888615767161
93,0.800791221247779,0.8008148499329885
94,0.8007962136268616,0.8009608852465947
95,0.8007869218322966,0.8008263851801555
96,0.8007915349933836,0.800802262822787
97,0.8007869028117922,0.8007355636755625
98,0.8007893919282489,0.8007509656349818
99,0.8007857916222678,0.8007339942057927
100,0.8007854648563597,0.8007512360811233
101,0.8007882406314214,0.8008074870109558
102,0.8007890635199016,0.8007303782304128
103,0.8007899694707659,0.8007592794895172
