epoch,loss,val_loss
0,0.2370064126969321,0.2279292365235667
1,0.22733219591838216,0.22726329298084486
2,0.22645563436492264,0.22598485565067225
3,0.2258282394795532,0.22571915735677808
4,0.22565144561267125,0.22673935499735565
5,0.22551577284475996,0.22522012641648798
6,0.22535132728821247,0.22525852561440715
7,0.22528830244978462,0.2261509437419049
8,0.22521491200798716,0.22516759837383668
9,0.22516731509678992,0.2248814819468458
10,0.2251061110709678,0.22497242933171557
11,0.2250760699704926,0.22526601911626443
12,0.225104090964871,0.22506395514786393
13,0.22508299259648593,0.22549131981492337
14,0.22502565148367043,0.2249094676291085
15,0.22501591237630447,0.22491130050151578
16,0.22503259162815684,0.22495785893932466
17,0.22500089871993198,0.22724709890172737
18,0.22498401641680837,0.22490832420347937
19,0.22494656474569225,0.22511804027681612
20,0.22495478084536816,0.2254970624192477
21,0.22492914508434456,0.2250958745739892
22,0.2249298836174149,0.22519952256981254
23,0.2248843185465278,0.2248044395417197
24,0.22491523347613282,0.22477993783968553
25,0.22485612783044567,0.22464020501443233
26,0.22486961601640656,0.22548078811050348
27,0.2248727313037178,0.22476082004181505
28,0.22486130958821499,0.22474975497196092
29,0.22483578159571171,0.22538949051506763
30,0.22486354182972818,0.22481038957908195
31,0.2248214852308448,0.22618617162515153
32,0.22483348071589362,0.2250166360409029
33,0.22484395911735192,0.22499459983397357
34,0.22483617460528435,0.22548040174520934
35,0.2248286877202517,0.22468007982664606
36,0.22482020814861703,0.22473266648299642
37,0.22480963851089908,0.2246979941431405
38,0.22484441499534585,0.22469928115976065
39,0.2248068090331881,0.2249026454781776
40,0.22479764108099443,0.2247960974205812
41,0.22480606440780063,0.22479548074175643
42,0.2247959428743723,0.2246704502747609
43,0.22479547316545978,0.22469130991114575
44,0.22479156273521952,0.22468110555898463
45,0.2247880472686765,0.2246399481968016
46,0.22476221782016637,0.22463060317944653
47,0.22474924232774499,0.22510112125435774
48,0.22478670413175328,0.2246262351129546
49,0.22477742253131142,0.22479411862772097
50,0.22478756343402087,0.2247376178097784
51,0.2247658590823197,0.22467280312744026
52,0.2247728739771488,0.22484380579172233
53,0.22476177587997723,0.22466321289539337
54,0.22477216652094995,0.22463119666718373
55,0.2247677243785232,0.2248202709938693
56,0.2247372085519911,0.22474433458768406
57,0.22474920244853724,0.22520053177406416
58,0.22477018068312615,0.22486600942410548
59,0.2247504204575932,0.22463143856886303
60,0.2247491963688414,0.22481586082697505
61,0.22474065242705382,0.22474377973943432
62,0.22475547049584996,0.22466879061078907
63,0.2247283145416752,0.22466696352136342
64,0.224749296874818,0.22474909440311547
65,0.2247351740184244,0.2246962830313382
66,0.22475374765727962,0.22468215863107155
67,0.22472720437410612,0.22472123591686893
68,0.22473556307675677,0.22465964563135474
