epoch,loss,val_loss
0,0.42747662372208645,0.4206511101119276
1,0.4201775853952662,0.41914322217995714
2,0.41930081164920024,0.41793735204796045
3,0.41871339963444537,0.4175080617071677
4,0.4181050085998232,0.418196528824624
5,0.4178672823243203,0.4174723997305404
6,0.4174863589799789,0.4170815027381291
7,0.4172374305092016,0.41778509414225595
8,0.41700644761486033,0.42417161353764404
9,0.4169227676032622,0.41860762702915866
10,0.41685504794950634,0.4166543409930861
11,0.4166167086720888,0.41640386889057773
12,0.4165322004370666,0.4163996760809688
13,0.4165147226491409,0.41807978945985325
14,0.41647009562075693,0.4171695890852595
15,0.41640774444473505,0.4167080584146249
16,0.4163155804123142,0.41910064142040226
17,0.416214538738945,0.4163849172018302
18,0.4162852712993853,0.4172494054136442
19,0.4162419589383273,0.41640449278703695
20,0.4162424138847152,0.4164680049525893
21,0.41610374271272516,0.416147721494102
22,0.4161178171046997,0.41571449937654786
23,0.41608886927095295,0.41612574937325847
24,0.41612733694603715,0.41614000689303016
25,0.41603073821910785,0.4157619446885793
26,0.4160278026262604,0.4164262815977149
27,0.41605688632343124,0.4169286150938228
28,0.4159389908398061,0.41586321258071635
29,0.4159236309927845,0.41559127622443454
30,0.4158520326650382,0.4156509993981487
31,0.4159043205507591,0.41658488807843874
32,0.4158609474716254,0.4155047092189268
33,0.4158421394543717,0.4160018181978325
34,0.41585717378790243,0.4157010032284644
35,0.4158779345914743,0.41683139845396094
36,0.4158513587939872,0.4157569564157917
37,0.4158748366554245,0.4158785538697065
38,0.4158598903499894,0.41561233175007933
39,0.4157850483324417,0.4159163263240464
40,0.41582637365744585,0.4160028984913459
41,0.4157753453532083,0.41544067784219463
42,0.4157638025608653,0.4160262569008631
43,0.41573606483329956,0.4156350294798243
44,0.4158412937087077,0.4158781441950029
45,0.41576445680153307,0.41615853183914353
46,0.4157416571003999,0.41548153105799673
47,0.41572173752171776,0.41662157240044095
48,0.4157676019919395,0.41646580749350803
49,0.41575400238380344,0.4192542519374166
50,0.41575821192151186,0.4155092770201397
51,0.4157325923123365,0.41637448766095464
52,0.4156623845411296,0.41545890886197906
53,0.415795071577881,0.41673608228527287
54,0.41572809677196215,0.4157391167751909
55,0.41581034495553154,0.41796154088477044
56,0.4156541214107298,0.415619538661564
57,0.4156544680517998,0.4155596322220549
58,0.4158080059542121,0.41615551674632223
59,0.4156505781385857,0.41560348168791966
60,0.4156420124858806,0.41535343033800054
61,0.4156795207025659,0.41538523120560655
62,0.4156970375146096,0.4160397622484723
63,0.41558143579419204,0.4168925837458807
64,0.415673145550729,0.4158002653281683
65,0.41556610544737166,0.4165986809038347
66,0.41565574196905175,0.4155203165990247
67,0.41566390752416876,0.41545052310964903
68,0.41569588352921377,0.41681408453224317
69,0.41567935702545517,0.4156691850119134
70,0.4156236056638694,0.415535498848624
71,0.4156536170521459,0.4154022617760131
72,0.4156241879567037,0.4157525855761308
73,0.41560064371695415,0.4164970584454075
74,0.4156003952404216,0.41556134191399474
75,0.4155894275633654,0.41673417097285725
76,0.41563852206325125,0.41555181840809047
77,0.41562720127279,0.42132563993297795
78,0.4155813341718264,0.4154867527798447
79,0.4155878735864789,0.415618733525572
80,0.41554277378576826,0.4152833946881164
81,0.41563473370574683,0.4161339554834011
82,0.41559643441944394,0.415849498276675
83,0.41553369709349913,0.4171727741474549
84,0.4155794466973247,0.4153028251663331
85,0.41560003309256754,0.4157772063765277
86,0.4156198138512976,0.41617769452537556
87,0.41557825184195296,0.4160377470050793
88,0.4155118024066339,0.4155135151322367
89,0.41554715147994814,0.42002250967783017
90,0.4155260703017064,0.41587825163126585
91,0.4156307602631241,0.418039965969753
92,0.4155493580464851,0.4157353502497188
93,0.41551502001264884,0.4153700407917979
94,0.41557886900335855,0.41633377746671957
95,0.4155541579072985,0.41561631106265423
96,0.41550429010812157,0.4152863933194068
97,0.4155385154811252,0.4155254620624239
98,0.41558761709900194,0.41596974063452063
99,0.4155663552653065,0.41569753386838265
100,0.41550119310131134,0.41761271469942096
