epoch,loss,val_loss
0,0.7709903614635344,0.7672301221722113
1,0.7673973114880411,0.7673663185784598
2,0.7669785583024463,0.7700507287647824
3,0.7667584168340026,0.7673817291153276
4,0.7665068437359562,0.7662422844848917
5,0.7662922275678349,0.7659476060429519
6,0.7661664559402852,0.7662814510075685
7,0.766046181412451,0.7658743170591501
8,0.765960493262068,0.7660956293418448
9,0.7658140389261178,0.7666833835855016
10,0.7657239610645468,0.7655411760505316
11,0.7657205273988925,0.7655398893297163
12,0.7655547374742583,0.7672110535370801
13,0.7655719504967442,0.7656822461052509
14,0.7654976293152176,0.7658938750143974
15,0.7654428994494215,0.7654562380414447
16,0.7654365073681489,0.765696465732442
17,0.7653851101893253,0.7655536620551836
18,0.7654567338814467,0.766440101622352
19,0.7653418779728142,0.7655604445017301
20,0.7653294608441248,0.765354456380934
21,0.7653985459452307,0.7653660793754067
22,0.7652985955213591,0.7652637331124866
23,0.7652892644201753,0.7653662763517488
24,0.7652361716591607,0.7657937176765934
25,0.7652564007692807,0.7653724112226709
26,0.7652354037593984,0.7652431165609999
27,0.7652187807653901,0.7651397786720219
28,0.7652584244243155,0.765451464079154
29,0.7652251112565374,0.765310667584611
30,0.7652178688745126,0.7657082464203941
31,0.765205863844643,0.765341715806767
32,0.765180716844507,0.7653293520286124
33,0.765179397641419,0.7653380069779995
34,0.765254851960402,0.7651568852642334
35,0.7651539355935696,0.7654853400758124
36,0.765200827123186,0.765245546241552
37,0.7651823813445017,0.7651282927238616
38,0.7651718320228558,0.7671928380026711
39,0.7651673600503005,0.765202737032036
40,0.7651156696616823,0.7659393997701167
41,0.7651517308582972,0.7651998335019531
42,0.7651391087084355,0.7652140008012946
43,0.7651036083725882,0.7652769970538894
44,0.7651658682437223,0.7653326507241791
45,0.7651577198318134,0.765139296362477
46,0.7651491692421765,0.7652855617236854
47,0.7651685235907718,0.7662375240112949
48,0.7651277813655731,0.7652011552460436
49,0.7651109159670371,0.7655374345649265
50,0.765094914665069,0.7653904997385466
51,0.7651288039314083,0.7653985112239942
52,0.7651048374962329,0.7651399637570157
53,0.7651431252376413,0.7663026772420992
54,0.7650926916400268,0.7652439491032963
55,0.7651058215088805,0.7654149109021605
56,0.7650979654043465,0.7654870021431973
57,0.7651351128141857,0.7656178279195175
