epoch,loss,val_loss
0,0.5627410315637122,0.5594347568362877
1,0.5585095769431914,0.5595687002461246
2,0.5581163123140164,0.5577054067225965
3,0.5577299724720266,0.5575853612523517
4,0.5575717774874871,0.557277591855591
5,0.5574637430476936,0.5573653129430918
6,0.5574101334512,0.5572470897776317
7,0.5573393803279817,0.5578549014723331
8,0.5573225906261849,0.5571982279308972
9,0.5573211555237304,0.557254518172877
10,0.5572615533677079,0.5571026215186485
11,0.5572536574920356,0.5571095565412536
12,0.557229385488495,0.5570121353376593
13,0.5572176191248965,0.5570232160925569
14,0.5571814119548414,0.5570992267752995
15,0.5571915943680552,0.5570052607775327
16,0.5571710375045666,0.5570662315075214
17,0.5571784852382828,0.5570473573343926
18,0.5571553446998828,0.5578550714712877
19,0.5571341008980103,0.557003801750486
20,0.5571382820777407,0.5570250330136964
21,0.5571456744554405,0.5570635534693527
22,0.557119797138471,0.5573456243013329
23,0.5571083149383856,0.5569704563386979
24,0.5571161622553739,0.5580574287078517
25,0.5571187417108435,0.5570142155545521
26,0.5571023953194303,0.5570311873781474
27,0.5571019809014558,0.5570944853811051
28,0.5570976428908543,0.5569653880507419
29,0.5570837684999497,0.5569526044961537
30,0.5570819196689565,0.5570771290114145
31,0.5570926782572478,0.5571704281175107
32,0.5570933204075463,0.5575997054724776
33,0.5570787559781631,0.5570311923772466
34,0.5570715735171032,0.5570894689772916
35,0.5570732748403855,0.5570319682137842
36,0.5570669311403107,0.5569834166365877
37,0.5570727197838156,0.5569642878939437
38,0.5570551580637845,0.5569870220816165
39,0.5570570123873883,0.5572484394161045
40,0.5570619023118684,0.5572520528774404
41,0.5570621474283873,0.5570332914073177
42,0.5570484850176971,0.5569332475401924
43,0.5570534103242756,0.5571690383383417
44,0.5570481218546213,0.5569842298036769
45,0.5570401091574424,0.5569912470008245
46,0.5570604233726552,0.5570049957365315
47,0.5570496871042566,0.5570885640515879
48,0.5570448783778035,0.5569638825231983
49,0.55706198962568,0.5569229474730291
50,0.5570361071000781,0.5571242085461581
51,0.5570242154256042,0.5569529531907207
52,0.5570424005502214,0.5569386992501858
53,0.557032219810112,0.557197063111194
54,0.5570445361999232,0.5571063032221262
55,0.5570476078218487,0.5569360499346523
56,0.5570158428019114,0.5569425584364766
57,0.5570229692664265,0.557267810334047
58,0.5570255155895356,0.557001319150475
59,0.5570343078122264,0.5572125234615714
60,0.5570200849091514,0.5569624483437455
61,0.5570357671175066,0.5575351734315196
62,0.557024434501328,0.557285732371044
63,0.5570394765843065,0.5570476559196453
64,0.5570312441345893,0.557225650682047
65,0.5570294426380188,0.5569498113899609
66,0.5570270959807276,0.5576440682186382
67,0.557024410020046,0.5571002804907617
68,0.5570280957723048,0.5570178525027802
69,0.5570340346434003,0.5569377944132234
