epoch,loss,val_loss
0,0.5210829673742213,0.5133268408680672
1,0.5134684822142886,0.5145140834836747
2,0.5124226527101974,0.5123568045885923
3,0.5119378269361614,0.5147006951254
4,0.5115744402148886,0.5116149764202961
5,0.5112857184070142,0.5138798347773682
6,0.511050318934392,0.5108457046466193
7,0.5108369681697004,0.5105625465549252
8,0.5105817011376693,0.5118215968827752
9,0.5103863416312413,0.5101830224837026
10,0.5103596819497674,0.51053476827612
11,0.5101020690997584,0.5099957593321505
12,0.5100411350010731,0.5102649988962462
13,0.5099518597406041,0.5100223456068015
14,0.5099834778949366,0.510179978357651
15,0.5097963904634308,0.5100688211379513
16,0.5097850989357335,0.5103390047922916
17,0.5097159017744878,0.5107277417301245
18,0.5095971246057931,0.5096368735836398
19,0.5095596221301991,0.5100529001605126
20,0.509586526143308,0.5097752317305534
21,0.5095127809309747,0.5105701277037117
22,0.5094228835966729,0.5096960253514368
23,0.5094239348372005,0.5097188650230616
24,0.5094228610511752,0.5096426690778425
25,0.5093948893717697,0.5098062299617171
26,0.5093162765075195,0.5110587247843777
27,0.5092839731328709,0.5098949501295539
28,0.5092840324677365,0.5103263811792984
29,0.5092998145046621,0.5097680417834677
30,0.5092144075659972,0.5095521155421254
31,0.5092750152452225,0.5093058021429455
32,0.5092297203045955,0.5096603706811853
33,0.5092449646991216,0.5095429656227528
34,0.5092350879339447,0.5098123713699227
35,0.509176492861427,0.5096284274132021
36,0.5091853462664188,0.5097435900058699
37,0.5091669575476195,0.5096623774497739
38,0.5090798317602772,0.5100243419334847
39,0.5091498464914282,0.5102272900399144
40,0.509101518822837,0.5094655428867482
41,0.5091282857896741,0.5100580486707001
42,0.5090726202111788,0.509476643519721
43,0.5091302626790312,0.5115935862212264
44,0.5091409461677261,0.509666421247771
45,0.5090103105957519,0.5097441465328112
46,0.5090549767685502,0.5095961756505091
47,0.5090132740417274,0.5095798352220218
48,0.5091156870498657,0.5095532389195918
49,0.5090190398218368,0.5108939754164249
50,0.5089644894759763,0.5093912530477822
51,0.5090445208047174,0.5094004968851435
