epoch,loss,val_loss
0,0.09074178482317653,0.0754891673089109
1,0.07161697524786548,0.06856118811123424
2,0.06652835453709167,0.0649791545999553
3,0.06417377692745031,0.06200924713173812
4,0.061710443906084225,0.059352718574681294
5,0.060003626861530227,0.058178111733337194
6,0.059381165166066036,0.06103227171427559
7,0.05894012324075881,0.057978165534234814
8,0.058412671795567986,0.05968522568864207
9,0.05828412967966608,0.05734064661465567
10,0.05786301600102991,0.05852019382691561
11,0.057671682005306535,0.057387524122192016
12,0.057475086807795644,0.057963558683916
13,0.05725217736110032,0.056799013034507594
14,0.05712657870793795,0.05679529901991411
15,0.05700880844393064,0.05652977684073649
16,0.056967422628674144,0.056173775110292076
17,0.056758584114448854,0.056268403592239835
18,0.05658086805047695,0.057032528406854896
19,0.05650724633385148,0.05584772579353441
20,0.05647507489973524,0.05659925818221445
21,0.05627380243514304,0.05702852109081988
22,0.056261368172588325,0.056566855213408436
23,0.05607544702721834,0.05690741743476456
24,0.05605540751608848,0.055836761639298634
25,0.0559642264810933,0.05615463004107807
26,0.05584047998920878,0.05628036756077712
27,0.05577484922642882,0.05562214850639883
28,0.05557394076572936,0.05497072226652141
29,0.055464435415563694,0.05469488863909511
30,0.055367526040659476,0.05635489046795492
31,0.05521855503665806,0.054992743705401644
32,0.05508159228651626,0.05490674569870047
33,0.05506759703495965,0.05430727126469683
34,0.05506468180450329,0.05493627654448632
35,0.054917472495465636,0.055298172126041156
36,0.054890599663033085,0.05410823018911755
37,0.054877122446763106,0.05435667724415623
38,0.0548918715344099,0.05529350805704115
39,0.05476950203200917,0.055101203581979195
40,0.05471646701794907,0.053870262795361334
41,0.054785978455261695,0.054281446089963464
42,0.05466449840101025,0.05428995130301705
43,0.05466167222622136,0.05444034943472659
44,0.054528864352174654,0.05423505492970606
45,0.054578471500205415,0.05516252859354611
46,0.05446880514912718,0.05454756610150965
47,0.05450844688762576,0.054584844317980497
48,0.05456748966491629,0.054333452286924384
49,0.054619713222735886,0.05448226563392147
50,0.054445285251776596,0.054313036962123425
51,0.05453933636122834,0.054185231512518736
52,0.05445588906241797,0.05640206003825067
53,0.05444659582464072,0.054257908228683115
54,0.05439852211831501,0.05399786849730364
55,0.0543738730704182,0.054013192368943995
56,0.0544543140287497,0.053838794691391086
57,0.05443781443837823,0.05403776143310088
58,0.05438840919255491,0.05375472882730198
59,0.05430995160944894,0.0538112850790432
60,0.054262425173663406,0.05418511945985387
61,0.05431979949703197,0.053974093433940974
62,0.05428762123738285,0.05421928954553368
63,0.054289444879318006,0.054197974689767024
64,0.054221397503155216,0.05413165240740362
65,0.05417796748154853,0.05412115698712635
66,0.05410387516374729,0.05355166720027663
67,0.054222268005377605,0.053908601011295174
68,0.05414678606387561,0.05391502231729238
69,0.054107926373807826,0.05374769720412957
70,0.05413746538533028,0.05375239732987236
71,0.054166225505928506,0.053455363918400875
72,0.05409609019918816,0.05391314901577923
73,0.05397469945431104,0.05363037736333038
74,0.05409631023683853,0.053950181644104846
75,0.05404758756175621,0.05380982544189943
76,0.05402914290498265,0.054394608144428834
77,0.05399705547105744,0.05351524892870901
78,0.05406268685213077,0.05332828373937098
79,0.054028415042760625,0.05344391735478607
80,0.05403526835755401,0.05436673682025881
81,0.05393952519606537,0.053548606078396954
82,0.05403554839179815,0.05310514072053338
83,0.05394605311241349,0.05363564665796739
84,0.05400039262511435,0.053428940993569624
85,0.053927130491147675,0.0541188339256767
86,0.05396476981708837,0.05336225206961407
87,0.05390925943397697,0.053443795636703005
88,0.05374592606050379,0.053399231534442
89,0.053938358412425634,0.053327305956972444
90,0.053909863921033974,0.053818499054713524
91,0.053777597388460795,0.05352694005994288
92,0.053733096408555836,0.054876085964237195
93,0.053774876303923386,0.053663535883867415
94,0.05386665619492572,0.05353294010493655
95,0.05372104231766658,0.05335345105741811
96,0.05381449473499021,0.05317391448055692
97,0.053817053045329334,0.053553735278084616
98,0.05374622036292383,0.053622749044788684
99,0.053773724378650925,0.05345072023773903
100,0.05373888196932025,0.05319694621909049
101,0.05366780960640779,0.053622933072280644
102,0.05374284950480323,0.05389256511373496
