epoch,loss,val_loss
0,0.44866531828945383,0.44512983028113695
1,0.4447717533416565,0.44463819083445716
2,0.4447190721150551,0.4445922527952171
3,0.4446464305664027,0.4445021239462916
4,0.4446205452657033,0.44451280163772056
5,0.44461412358168195,0.44450748150165265
6,0.4445871387460284,0.4445111424544313
7,0.44458240255824094,0.444547673564395
8,0.44457289566472896,0.44474419024091205
9,0.4445599139993328,0.44449608314126066
10,0.4445555858881303,0.44455993963826085
11,0.4445509297754729,0.44465890226529786
12,0.4445473163575733,0.4445717057134614
13,0.44454411355707407,0.4446684745641855
14,0.4445386414427018,0.44449183290117134
15,0.4445361155261828,0.4448312552336132
16,0.4445357942660533,0.4445372716960481
17,0.4445377410931691,0.4445110541863122
18,0.4445282200634621,0.44452349012602055
19,0.44452128531574353,0.44453399200593274
20,0.4445241171749268,0.44460945408929964
21,0.4445207154130332,0.44448799922803495
22,0.44452216186633053,0.44452233008356307
23,0.4445210387308209,0.4444782185199539
24,0.44451864923582196,0.444588017019977
25,0.4445200387053561,0.44448695551077133
26,0.4445167919537182,0.4445536268260284
27,0.44451826788907367,0.44460574497951766
28,0.44451805395493194,0.4445001476160054
29,0.44452040724271824,0.44459586263294554
30,0.4445093458658921,0.4444785715776401
31,0.4445124029122452,0.4445129607066919
32,0.44451359395521045,0.44449270318814604
33,0.4445138152925045,0.4446311114295836
34,0.44450824407488926,0.44450121558925354
35,0.44451145055842717,0.44449630684355645
36,0.44450805255372206,0.44450130725912657
37,0.44450916557842673,0.44449355334561164
38,0.4445126406157516,0.4444817951831865
39,0.4445060478380571,0.4444850264500743
40,0.4445059951640566,0.4446603820578336
41,0.4445116446657675,0.4444809599934382
42,0.4445047986028439,0.44453542899553
43,0.44450567018263026,0.4444831903312106
