epoch,loss,val_loss
0,0.8693456867800818,0.7788466254472732
1,0.778747977177302,0.7786824827591579
2,0.778676009244389,0.7786034155686696
3,0.7786264729764727,0.7785287952423096
4,0.7786018766032324,0.7785300632715225
5,0.7785790182616975,0.7785283457040787
6,0.7785601368877623,0.7785452552636465
7,0.7785497063795725,0.7785219436883927
8,0.7785464015669293,0.7785040476322174
9,0.7785368838840061,0.7785234603087108
10,0.7785341115925047,0.7785411258538564
11,0.7785300128327476,0.7785014315048854
12,0.7785276438395182,0.7785217578411102
13,0.7785312419864866,0.778556135058403
14,0.7785240117443932,0.7784832338492076
15,0.7785223316616482,0.778487464149793
16,0.7785206290218565,0.7784910651445389
17,0.7785212975343069,0.7785222257375717
18,0.7785154186222288,0.7785884963274002
19,0.7785169138378567,0.7785165086984634
20,0.7785140595701006,0.7784843127330144
21,0.7785116045607461,0.7786249455213546
22,0.778509047071139,0.7784640817642212
23,0.7785079221460555,0.7785424383481344
24,0.7785083460675346,0.7784631309906641
25,0.7785090533362494,0.7784945553143819
26,0.7785078564749823,0.7784782056411107
27,0.7785060506131914,0.7784710733493169
28,0.7785076070759032,0.7784740308920542
29,0.7785061774783665,0.7784693323771159
30,0.7785036395788193,0.7786047080755234
31,0.7785024162398444,0.7784681634902955
32,0.7785032460954454,0.7786166213353475
33,0.778503394987848,0.7784856706857681
34,0.7785023695627848,0.7784723103046417
35,0.7785017903116014,0.778465238571167
36,0.7785024775266647,0.7785686730543773
37,0.7784951635731591,0.7784745517969132
38,0.7785008484919866,0.7784712933301926
39,0.7784985285070207,0.7784600786368052
40,0.7784982966184616,0.7784628086090087
41,0.7784980970621109,0.7786303806304932
42,0.7784918058845732,0.7784896649916967
43,0.7784986678494348,0.7784558333158493
44,0.7784975157446331,0.7784799777269363
45,0.778493877198961,0.7784757058620453
46,0.7784942783912023,0.7784573368231456
47,0.7784935511483086,0.7784622120857239
48,0.778492279542817,0.7784462750355403
49,0.7784897298812866,0.7784622474908829
50,0.7784943580627441,0.7784584142367045
51,0.7784900515211953,0.7786030670404435
52,0.7784912844366497,0.7784883897304535
53,0.7784905748499764,0.7784691634178161
54,0.7784919823010763,0.7784788829088211
55,0.7784901149935193,0.7785487760305405
56,0.7784902473820581,0.7784967259565989
57,0.7784875208271874,0.7784459705352783
58,0.7784903916915258,0.7784499226411183
59,0.7784873478412628,0.778530757466952
60,0.7784892715480592,0.7784713745117188
61,0.7784896907276577,0.7785240891377131
62,0.7784888584083981,0.778494488676389
63,0.7784881395366456,0.7784597967068354
64,0.7784899619817733,0.7784597024520238
65,0.7784879151847628,0.7784647910992305
66,0.7784890982442432,0.7784680753151576
67,0.7784873940017488,0.778488995830218
68,0.7784870757394367,0.7784825972716014
69,0.7784874760309856,0.7784549342791239
70,0.7784880797333188,0.7784441624482473
71,0.7784874891837438,0.7784605974753698
72,0.7784898506800334,0.7784517463048299
73,0.7784874815808402,0.7784937622944514
74,0.7784864907264709,0.7786890158653259
75,0.7784877759085761,0.7784626798232397
76,0.778486756987042,0.7784611402352651
77,0.7784873312579261,0.778454368631045
78,0.7784838031927744,0.7784726699193318
79,0.7784873024225235,0.7784502347310384
80,0.7784841571384006,0.7784683127005895
81,0.7784868881305059,0.7784450476964315
82,0.7784885879622565,0.7785460179249446
83,0.7784887132512198,0.7784848101536432
84,0.7784853169785606,0.7784452538490295
85,0.7784905859761768,0.7785069950024287
86,0.7784874109294679,0.7785297466119131
87,0.7784868480629391,0.7784439723491668
88,0.7784875874784257,0.7784371177355448
89,0.7784849512047238,0.7784579250415167
90,0.7784858801762263,0.7784677829742431
91,0.7784839339521196,0.7784481282631556
92,0.7784877878030141,0.7784627197980881
93,0.7784870009687211,0.7784838108619054
94,0.7784872113731173,0.778502185622851
95,0.7784869379997253,0.7784720123608907
96,0.7784866786135568,0.7785629734992981
97,0.7784873930215835,0.7785025714635849
98,0.7784864656527837,0.7784531208674113
99,0.7784844723939895,0.7784826633135478
100,0.7784844827387069,0.7784593692620595
101,0.778485499938329,0.77860966583093
102,0.7784851400587294,0.7784783157904943
103,0.7784843352900611,0.7785236863295237
104,0.7784830314583249,0.778450681646665
105,0.7784872313075596,0.7785121505657832
106,0.7784870621495776,0.7784417181015014
107,0.7784847527742386,0.7785124922593435
108,0.7784870436588923,0.7786564565896988
