epoch,loss,val_loss
0,0.582061091909729,0.5786885230476152
1,0.5771618244234981,0.5762860588341138
2,0.5764326043034056,0.575850045385195
3,0.5760996318584769,0.5770284164040616
4,0.5758975639814476,0.5756825589660379
5,0.5758225909896327,0.5755348843025511
6,0.5756575140946627,0.5757504352860652
7,0.5755970223700221,0.5756215862245773
8,0.5755090291209708,0.57592368344811
9,0.575452126114048,0.57650145727115
10,0.5753371531330613,0.5774829303952068
11,0.5752725864775331,0.5751885954262896
12,0.5752435322395444,0.5752401274427883
13,0.5752370288609288,0.57558588197746
14,0.57514478572127,0.5752118780358554
15,0.5751301821959854,0.5751280998177919
16,0.5750965652102518,0.5755110964289966
17,0.5750676622016653,0.5750949291378333
18,0.5750770026725501,0.5749334297168344
19,0.5750489473513283,0.5750056696588881
20,0.5750079511652691,0.5750190878328555
21,0.5750029218051567,0.5749681758821454
22,0.5749798619386352,0.57496194111798
23,0.5749880540555685,0.5749583955142398
24,0.5749664541340668,0.5749327122425619
25,0.5749437934966336,0.5749797619897734
26,0.5749267903268925,0.5751501974337746
27,0.5749203704520485,0.57512497049999
28,0.5748924183829113,0.5749963881951704
29,0.5749254307223925,0.5750079514962568
30,0.5749033008424665,0.5749625868596155
31,0.5748929688903092,0.5748578552868466
32,0.574868827839343,0.5751003523026743
33,0.5748914533352704,0.5749028231310785
34,0.5748493796044197,0.5750075176691003
35,0.5748458265969528,0.5753767762231472
36,0.5748389019888316,0.5749006301238578
37,0.5748725931764752,0.5749149181115124
38,0.5748568088637803,0.5749299890054367
39,0.5748657102736988,0.5748884596540673
40,0.5748522503930616,0.5748239810650165
41,0.574833094164181,0.5763405955163184
42,0.5748475809799726,0.5748139099506823
43,0.5748137674648016,0.5754263006132234
44,0.5748308468006348,0.5748223464483067
45,0.5748387433073696,0.574824294647567
46,0.5747968205030113,0.574818724231152
47,0.5748079001183334,0.5748144198292242
48,0.574811179007225,0.5754535714982462
49,0.5748192147460746,0.5753311227628078
50,0.5748256874140322,0.574821833493396
51,0.5747925257383361,0.5749807635548688
52,0.5747883726022357,0.5751014029713482
53,0.5747561179251048,0.5747687668125919
54,0.574798593890479,0.5748215224547658
55,0.5747565717947423,0.5747446187968289
56,0.5747750006017888,0.5747527113623417
57,0.5747810509074834,0.5750036160348367
58,0.5747528682165446,0.5753386663739793
59,0.5747428746535258,0.5749187402038953
60,0.5747463986005632,0.574766631073159
61,0.5747553119730607,0.5749471856110149
62,0.5747525649578682,0.5747653897879437
63,0.5747809162631932,0.5751625734286627
64,0.5747236213845823,0.5747651773410163
65,0.5747506789123288,0.5757101148292977
66,0.5747450803282925,0.574992990907901
67,0.5747332917434047,0.5747054965265336
68,0.5747266533087306,0.5747373788587509
69,0.5747166891666358,0.5750421797962993
70,0.5747306466881962,0.5758117935201962
71,0.5747325224679259,0.5748988869172468
72,0.5747042679100086,0.5747588311768052
73,0.5747203712855521,0.574956385018512
74,0.5747137102028327,0.5747921956088348
75,0.5747165374954897,0.5750243013609136
76,0.5747567907568748,0.5746526921061665
77,0.5747125570630607,0.5748091925462482
78,0.5747141986207771,0.5748979887358899
79,0.5747144488560021,0.5752156999211749
80,0.5747100610742877,0.5747437383933339
81,0.5747302662418954,0.5747666026759088
82,0.5747150033761689,0.5749871004012324
83,0.574722639115245,0.5747093799392283
84,0.5746926476941815,0.5753960014868611
85,0.5747049270287897,0.5749532436022984
86,0.5747225615048086,0.5755402975875153
87,0.5746814709977773,0.5756739354015284
88,0.5747034778907157,0.574847147512081
89,0.5746910305262429,0.5747452496003277
90,0.5746857789556036,0.5747321181202645
91,0.5747025401712378,0.5747189742164044
92,0.5747488547195944,0.5748936993016794
93,0.5746944611438651,0.5749525016649781
94,0.5746790815173718,0.5747685635947708
95,0.5747051281555174,0.5747947768597094
96,0.5746694315907764,0.5748975721541468
