epoch,loss,val_loss
0,0.08720663094306678,0.0698493138547275
1,0.06789751333557496,0.06367443618052651
2,0.06420981207493794,0.0625054782621618
3,0.06265349262690499,0.0618922479062459
4,0.06094944619178832,0.060466817259862464
5,0.06020721199066348,0.05900898724794388
6,0.059636026002620794,0.058269476066008394
7,0.05917076114830131,0.0597194286641057
8,0.05895250377541391,0.05919063139716094
9,0.058531879919477246,0.05955312537311325
10,0.05836257201450181,0.057157475553064725
11,0.05793165970298422,0.05790906010505283
12,0.057888182113782154,0.0567059040254458
13,0.05762421200024172,0.057294080792822256
14,0.05745710048503249,0.0560039691682489
15,0.05729781604700918,0.05798031905522713
16,0.057175267105404555,0.05643014873634497
17,0.056913981844611945,0.05598839106911761
18,0.05682692915235501,0.056183294193916225
19,0.056770529854564024,0.055372119378806935
20,0.056614711962869935,0.05572626699252105
21,0.056631850198135485,0.05603110086422405
22,0.056435092942879496,0.05635230815588097
23,0.05647796354897505,0.05603356040071317
24,0.05637339771760624,0.05736745740691426
25,0.05623719850416894,0.05549570216656323
26,0.05620636664378979,0.056048240532946055
27,0.05619538934741791,0.05619706288164958
28,0.055981790877149884,0.0552222163169171
29,0.056024076687631916,0.056207186434759984
30,0.05596282569931959,0.055698276418388336
31,0.05580154895118672,0.05516613326208763
32,0.05591223590347425,0.05645614001280617
33,0.05598073522670303,0.055161056477142034
34,0.05582368037115177,0.05601601631151831
35,0.05582312345353897,0.05490636876218077
36,0.05570328967565082,0.05505620389991895
37,0.055720179578936546,0.05519036145201392
38,0.05576578653023915,0.056226245400775456
39,0.05568395340088355,0.05525895422948501
40,0.05560854255924938,0.054985089446637526
41,0.05561419641041086,0.05523622688969075
42,0.05551281746093962,0.05540152657638413
43,0.05558176456671471,0.05503056034926445
44,0.055500668587909495,0.05529649402234454
45,0.05551786253009662,0.05537356309611212
46,0.055286993366460785,0.05510446689745629
47,0.05538212167366901,0.05505533763773684
48,0.05545849703857051,0.05556706739658901
49,0.055356155911116665,0.055266463116883636
50,0.05522749222476531,0.05452614078117955
51,0.05521179259292156,0.055105498967410314
52,0.05514107109244371,0.05518275378803461
53,0.055063776191490096,0.05614711544464895
54,0.05510493563944044,0.054659160513144275
55,0.05511564765620453,0.05523636436861739
56,0.05506749097679136,0.05500180294769574
57,0.05504377095987406,0.05496113663053986
58,0.05501789040343381,0.054739264139984145
59,0.05499479882966852,0.05423390892133228
60,0.05505261270243596,0.0554606140695198
61,0.05490559706190366,0.05456327519589855
62,0.054899152504281366,0.05443926145768639
63,0.05490947525189877,0.05454631129247379
64,0.054832476246009246,0.05450854895835183
65,0.05483282347406601,0.05436502576576865
66,0.05484390840981223,0.05467618180267864
67,0.054803022268412487,0.05521461673025458
68,0.05484823005432468,0.05459199309275109
69,0.054755686728130165,0.05455437849458335
70,0.05481230924381854,0.05461001910139846
71,0.054717228819823244,0.054945870919647644
72,0.05482252733273509,0.054339027336380324
73,0.054759071276560725,0.05429288498853927
74,0.05466520722898127,0.05479576010303225
75,0.054711555229814655,0.05483898439862888
76,0.05463176007962718,0.05449185001827943
77,0.05460497814975533,0.05419748376306174
78,0.05468024614096923,0.05428323079057722
79,0.054517220516206985,0.054112360029303405
80,0.054547894991242796,0.05404903569418207
81,0.05449886366855519,0.05408820880405956
82,0.05460413817653863,0.05416924213948972
83,0.05456546272229229,0.0543668163713835
84,0.054567391766189306,0.05402078420367489
85,0.05462611046950171,0.05516955479794637
86,0.054446895308700394,0.05428900534920302
87,0.054493343319066315,0.05443725012076404
88,0.0544755878895109,0.05531482176841341
89,0.05458087197455845,0.05438442675225788
90,0.05453749813075445,0.05380278937980792
91,0.054498512072066664,0.054370442456184484
92,0.054426428779717706,0.05472572793070199
93,0.05439758649714457,0.054988720720962024
94,0.054425479325829175,0.05419193337632172
95,0.05431701331425326,0.05419743388484489
96,0.054386744523849534,0.05420167031825032
97,0.0544518958140457,0.05463203232060591
98,0.05435920087621232,0.054595851676339846
99,0.05427519697386602,0.05459322193937917
100,0.054256323024850825,0.05430279276876828
101,0.054212740793254464,0.054507924022878664
102,0.05420090489632696,0.05379513904785104
103,0.05432117748497502,0.05390908096919285
104,0.05418882474664726,0.05473431395574776
105,0.05418424150844987,0.05394722800840515
106,0.054231183356995755,0.05449811157680327
107,0.054303358832272136,0.05432657553969187
108,0.0542204334229135,0.05396364075004611
109,0.054147726617884355,0.054193976284848254
110,0.05425644489323081,0.05418155997732733
111,0.054133177091708354,0.05404592709749863
112,0.05417387139534965,0.05410777528772579
113,0.054061669849185784,0.05405175524299257
114,0.05398985315563645,0.05471957784062875
115,0.05409157087830701,0.05364284210886908
116,0.054107191568517524,0.05435590322127117
117,0.053945300728703856,0.054157639677560064
118,0.05398682869158404,0.05545810237896649
119,0.05402037318144594,0.054904131794685763
120,0.05399975135549316,0.05386001451805271
121,0.05401417598717179,0.05408953262063173
122,0.05411186864147316,0.05418726419174937
123,0.054017493567197386,0.05368152631275707
124,0.05399853711042939,0.05391525742655652
125,0.05390711540105308,0.05372517638962263
126,0.05401172617220881,0.05412271197876031
127,0.05396081195451213,0.05398149861221574
128,0.053995254031676945,0.054333797613015544
129,0.053976853785288,0.054228348807239944
130,0.05393565186747031,0.05444793785476211
131,0.053927398860102345,0.05384077398711931
132,0.05396283288128605,0.05443737639978565
133,0.05392396677003378,0.054317862717966285
134,0.05386794217888208,0.053973146174888756
135,0.05394269478426127,0.05447165840316943
