epoch,loss,val_loss
0,0.35138787450341213,0.34404106490665276
1,0.3439090558275857,0.34391519734936377
2,0.34293439344029775,0.3417770829153416
3,0.34201551600565966,0.34141939628508783
4,0.34150041333877557,0.3414765728762369
5,0.3411893301681677,0.3408974007992236
6,0.34093537651727834,0.3406740879154679
7,0.3407572035803783,0.34022154787338105
8,0.34061192615080377,0.3405119708394886
9,0.3405217921262452,0.34020803308960224
10,0.3403946441568397,0.3400227522140105
11,0.3403493477395263,0.3400479509132376
12,0.3402686496293273,0.3399474814127456
13,0.3402178872205258,0.34013856294433176
14,0.34014921574501655,0.34082150934056077
15,0.3401014018579561,0.3396728117028182
16,0.3400702000439725,0.33966068492338025
17,0.3400341011508373,0.34000070099499324
18,0.3400549601899412,0.33990928927071334
19,0.3399262000502179,0.33963249310962024
20,0.339929255352472,0.34045651592036924
21,0.339949152010963,0.3399629628539973
22,0.3398916628132114,0.3401656280971934
23,0.33988940904911347,0.3399488207720054
24,0.33985113235524356,0.33971009433417404
25,0.33993106881319923,0.340130122068798
26,0.33982785776851304,0.3396320276461523
27,0.3398177651444536,0.3396784014500696
28,0.33976690454666103,0.33955081989688257
29,0.3397805055545727,0.3395226606068481
30,0.3397551395587789,0.33945915994809817
31,0.3397659339417258,0.33953490130067165
32,0.3397548636057838,0.33957830500366076
33,0.3397469388519013,0.3395363374915963
34,0.3397856267019413,0.3401910466384651
35,0.3396991248753089,0.34030363982723605
36,0.33971294203988567,0.33977621242071204
37,0.3397053973414398,0.3395510479770878
38,0.33972148132798147,0.3393726597204989
39,0.33967584244525995,0.339355904884433
40,0.3396319190137331,0.3399180946959455
41,0.339686905296406,0.3395228893230334
42,0.3396329039548313,0.33937636712940394
43,0.33967539397554575,0.34096116287536715
44,0.3396092316567179,0.3397583288679052
45,0.3395862896265306,0.3394271623555839
46,0.3396286836945817,0.3393798078112212
47,0.33959276365876645,0.3395036823104688
48,0.339626172787885,0.33964975832709604
49,0.3396643797753766,0.3392964609059743
50,0.3396012853161584,0.33927653421539233
51,0.33958205957928994,0.33930356904827336
52,0.33958573664655073,0.3393533194331318
53,0.33958686349310246,0.33935811439755537
54,0.3395358811751803,0.3396801160819477
55,0.33952064032209817,0.3394456408455709
56,0.3396058518128092,0.3403276699352501
57,0.33952812936004007,0.33934345734918087
58,0.33951067229463017,0.3396418091233256
59,0.33953647500265444,0.3399613005647588
60,0.33954822645266763,0.34021425738228167
61,0.33954643109633553,0.34021212828366393
62,0.3395244382914738,0.3393278175932598
63,0.3395190868693879,0.33927349102112553
64,0.3395334733994831,0.3393220872352496
65,0.3395231769911338,0.3403736842033585
66,0.33952798379757926,0.33959307058277555
67,0.3395323098033994,0.33952153091395165
68,0.33954844606518897,0.3396403227491355
69,0.33949892394431724,0.33944607862172
70,0.3395071460079284,0.3393570009591266
71,0.3395379269619724,0.33918748966813383
72,0.339522674899642,0.3394914049220736
73,0.339494023595473,0.33932860798338804
74,0.33955007862395375,0.3395834399807838
75,0.3394801650387161,0.34054785360473555
76,0.3394840482843602,0.3393096928117293
77,0.33948500666482545,0.3405725253722804
78,0.3395348608239802,0.33990191977018164
79,0.33948211833658937,0.33950652525975156
80,0.3394715666926334,0.33929301056613403
81,0.3395209134854025,0.33968944230091486
82,0.33943608349802207,0.33937745875223696
83,0.3394644944912132,0.3394234048817353
84,0.3395024746290796,0.3401444843330099
85,0.3394731415407299,0.3404090043332973
86,0.3394701912961881,0.3394923866830452
87,0.3394864070982822,0.33978822562593974
88,0.3394599406804969,0.3393433790053091
89,0.33952207480335045,0.3396915318208652
90,0.33944263555837884,0.33962918836484773
91,0.33946140309336564,0.3393087272756449
