epoch,loss,val_loss
0,0.6755279194070067,0.6731358970956826
1,0.6719769608857552,0.6712098825066616
2,0.6716769988137593,0.6713680812206221
3,0.6714846049028635,0.6719167424194866
4,0.6713210846750784,0.6723697328390023
5,0.6712146014287914,0.6718359416235173
6,0.6711300369365167,0.6708843088327507
7,0.6710594821901711,0.6706845213106785
8,0.6710059238469985,0.6719217180022531
9,0.6709392402851143,0.6708260770766966
10,0.6708735214395632,0.6709646989039096
11,0.6708666376674982,0.6723538781809748
12,0.6707951531002109,0.6707843869850594
13,0.6707945072432089,0.6712999927198916
14,0.6707480706189611,0.6705491372136857
15,0.6707138843777506,0.6705802083311246
16,0.6706924123876115,0.670675520358547
17,0.6706724009893313,0.670613115922393
18,0.6706493329655377,0.6706897758668469
19,0.6706439465912649,0.6705863041558278
20,0.6706432492876789,0.6704902684126539
21,0.6705941382227961,0.6704134121130477
22,0.6705930917105044,0.6704134531411581
23,0.670590834197895,0.6708363036955557
24,0.6705494316138774,0.6705314063256786
25,0.6705659383590682,0.6709047890478564
26,0.6705593063904185,0.6706520470436986
27,0.6705495765342321,0.6708416846490676
28,0.6705273635102401,0.6704606716745248
29,0.6705356048666161,0.6704245954530115
30,0.670520819416259,0.670305511791712
31,0.6705206940430661,0.6704693147325634
32,0.6705356352483328,0.6709145872232044
33,0.6705034052165603,0.6719959049307679
34,0.6705062757251681,0.6704076630601812
35,0.670490213515411,0.6706073484704749
36,0.6704664509946822,0.6703676104545593
37,0.6704619555852533,0.6703860185578207
38,0.6704809685739832,0.6712365151634879
39,0.670483598359056,0.6707251813512286
40,0.6704724949037693,0.6704543286754239
41,0.6704636352906997,0.6708093303604694
42,0.6704423181861815,0.6707958420512102
43,0.6704787622673651,0.6714377234058996
44,0.6704387018373907,0.6704652949834876
45,0.670461162317566,0.670375226626621
46,0.6704402834149803,0.6705345881488128
47,0.6704511121774249,0.6703541505721308
48,0.6704511110998856,0.6704380244534306
49,0.6704537960477119,0.671048118517949
50,0.6704200281078769,0.6703464468714617
