epoch,loss,val_loss
0,0.4534671199850104,0.44836542201101337
1,0.44793993176063907,0.447298610609755
2,0.4474586050141645,0.44686812623854605
3,0.4471927255061161,0.4466985634627472
4,0.44701650403345833,0.4475362673438808
5,0.44688869578569423,0.447112134564899
6,0.44680303058350573,0.44696168109737616
7,0.44676494303288056,0.44737643845028086
8,0.44674187776643587,0.44888214705599744
9,0.44669458131081413,0.4469381019288198
10,0.4466615008315673,0.44649425844104945
11,0.446599951648461,0.4465992621541319
12,0.44655636550723504,0.446546109556856
13,0.4465488173698928,0.446573503171244
14,0.446529198805671,0.44641544631042196
15,0.4464881426887867,0.4464616801543508
16,0.4464867375412928,0.44652609189154197
17,0.44643686596560106,0.44629659791738163
18,0.4464300528370421,0.4469023486668655
19,0.4464374254060835,0.4465247463499642
20,0.44641740925708573,0.4470168752794526
21,0.446408711009466,0.44666894002824503
22,0.4463949827111147,0.44678426600863264
23,0.4463921604267277,0.4465382584567105
24,0.44637332746672753,0.4465455458714412
25,0.4463679547849339,0.44652921342968055
26,0.44635691385137843,0.44629535073086285
27,0.4463408781083839,0.4462756042740777
28,0.44634944684304056,0.44633068912674123
29,0.44635421393474894,0.4461846333135742
30,0.4463431729049564,0.4462391863389879
31,0.44635247157189273,0.44645302419922783
32,0.44633317665518885,0.4461921075585462
33,0.44631436058202756,0.4462258552942915
34,0.4463169792367351,0.4464110931598815
35,0.4463162980627129,0.44617292706487194
36,0.4463145163286543,0.4462763384465248
37,0.44631252949690703,0.4462259925328768
38,0.44630520882723695,0.4463460566683975
39,0.446310341240255,0.4463210385283525
40,0.4462985641825131,0.4462802570895581
41,0.44631115504863317,0.4463078994756893
42,0.446302990042935,0.44698191257031916
43,0.4462905143938452,0.4462124582111983
44,0.44631357902725527,0.44622352436813467
45,0.44629857911739673,0.4464499634045821
46,0.4462920999723711,0.44633256707238794
47,0.44631159091287337,0.4462063948362696
48,0.44628277259327287,0.4462158199427441
49,0.44628435839937575,0.4461807502114743
50,0.4462791330990807,0.446237045304651
51,0.44629586234390384,0.4465511090258511
52,0.44629119887069085,0.44617981483267793
53,0.4462753128879062,0.4462602500288421
54,0.4462766590342088,0.4462002344669834
55,0.44627077356323025,0.44616668712412455
56,0.4462741231323085,0.4464467344006001
57,0.44626661258262823,0.4462519193849256
58,0.4462878221430478,0.44615897224203827
59,0.4462644798594788,0.446162608657818
60,0.4462753240868996,0.4463108238600028
61,0.44626027975852167,0.44632434393868553
62,0.4462537227518179,0.4461887189383542
63,0.4462786776801847,0.446307347178755
64,0.44627269071739156,0.4462748013418307
65,0.44627445456871573,0.44612848665519034
66,0.4462498358219518,0.44633518898161706
67,0.44626252967550467,0.44617871352224137
68,0.44625354241307874,0.4462489427910845
69,0.4462761696207632,0.4463251836542456
70,0.44625932047800354,0.4464601460077035
71,0.44626407061227286,0.4465910385175615
72,0.44626723778732014,0.44642445343008114
73,0.4462672188025928,0.446199200037987
74,0.4462590237456969,0.4463140647257528
75,0.4462448027160888,0.4463521522712471
76,0.4462535838423338,0.4462501354755894
77,0.4462579512494056,0.4462101928205703
78,0.44625972522021184,0.44625358674721444
79,0.44625270627849706,0.44657221078576875
80,0.44625054759935134,0.4462157887205592
81,0.4462397596347048,0.44644571099032837
82,0.4462531708261069,0.4463349817260619
83,0.44625413865515584,0.4461936154673176
84,0.4462483109867441,0.4464641702973813
85,0.44625867618406445,0.447158228611532
