epoch,loss,val_loss
0,0.6722045403443095,0.6701475673218815
1,0.6691308840719792,0.6685932495753759
2,0.6688673617134254,0.668474903769292
3,0.668560336018121,0.6687406911447681
4,0.6682874251174942,0.6680149207931594
5,0.6681559283068764,0.6680016346368245
6,0.6680834023357487,0.6682710488144281
7,0.6680428749652543,0.6679233229485694
8,0.6679945715752162,0.6679475833109532
9,0.6679780091774098,0.6678432522281523
10,0.6679759689861703,0.6678636614501329
11,0.6679484874151681,0.6679284073283004
12,0.667923246547636,0.6679313436335429
13,0.6679053227554784,0.6681329760598781
14,0.6678939526604962,0.6680769681043128
15,0.6678754381811894,0.6678441821789327
16,0.6678607322967737,0.6680715789570111
17,0.6678764183759087,0.6687213169433934
18,0.6678491625036315,0.6678864423157855
19,0.6678534704685571,0.6680262157106518
20,0.6678496684083186,0.6681982581136244
21,0.6678507858338956,0.6677431019305
22,0.667846138338397,0.6677778905142034
23,0.667834557549779,0.6678231866424787
24,0.6678171639921358,0.6680045101542035
25,0.6678253427021456,0.6677708006674243
26,0.6678323373881832,0.6679734635885537
27,0.6678126861704196,0.6678779212476006
28,0.6678212914526682,0.6677846181185606
29,0.6678200817223638,0.6679535656353972
30,0.6678175986277761,0.6677831165547998
31,0.6678022158996103,0.6677197408735308
32,0.6678056213520365,0.6677961704157126
33,0.6678054528141667,0.6677653583640201
34,0.6678032999364577,0.6680071263691923
35,0.6678080268275108,0.6679893984392322
36,0.6678092073388312,0.6678845092025644
37,0.6677914002356573,0.6677212831104363
38,0.6677947413836005,0.6678653286349389
39,0.6677822518041997,0.6677164018302046
40,0.6677837634064206,0.6677355698852918
41,0.6677767452787765,0.6678887556563536
42,0.6677771921128556,0.6677084206351571
43,0.6677802225461186,0.6679404908315124
44,0.6677804948235689,0.6677094445926676
45,0.6677684313872845,0.6678364129871056
46,0.6677752149489863,0.6678650559030159
47,0.667768542761144,0.6676966946119114
48,0.6677641956332665,0.6677363205192699
49,0.6677698912021477,0.667871102772043
50,0.6677668535526846,0.6678291841417033
51,0.6677556072303629,0.6677032008360396
52,0.6677506154468686,0.6677156418192179
53,0.6677589599764465,0.6677772124411154
54,0.6677665668491449,0.6679962777322338
55,0.667749014823812,0.6677521940792169
56,0.6677602503549646,0.6676939104094399
57,0.6677524402051929,0.6678944773472864
58,0.6677741423438366,0.6678816541844503
59,0.6677555369733825,0.6677342162534557
60,0.6677557317248011,0.6677254804014864
61,0.6677544521887261,0.6678308959930174
62,0.6677523412466999,0.6678362385215002
63,0.6677531680940132,0.6676888641589332
64,0.6677438366654656,0.6677918677294521
65,0.6677554697786332,0.6680521747018799
66,0.6677459005389041,0.6676994487014657
67,0.667745401207522,0.6677164378887962
68,0.6677470304887059,0.6683239023383735
69,0.6677481834020842,0.6679473699174507
70,0.6677423381577922,0.6678984277005823
71,0.6677420453629214,0.6677261937640737
72,0.6677422597553723,0.6676986356231178
73,0.6677450697498165,0.6677024425998811
74,0.6677426926145716,0.6677093586614055
75,0.6677468786952914,0.6677119157450371
76,0.6677401307073733,0.6676861407147447
77,0.6677407938720541,0.6677058169918676
78,0.6677473916252822,0.6677515578920729
79,0.6677444711767522,0.6677149464711362
80,0.6677386180654769,0.667692397486779
81,0.6677334974142811,0.6676885839727321
82,0.6677401655152048,0.6676951185941105
83,0.6677384840995789,0.667676529606282
84,0.6677339778587505,0.6676920509811667
85,0.6677405735917897,0.6677273032683001
86,0.6677346374098095,0.6677777268158887
87,0.6677358228434177,0.6679697647875651
88,0.6677332222938942,0.6677518372500209
89,0.6677386805004372,0.6676918968373433
90,0.6677365606919824,0.6680778949195635
91,0.6677455502360938,0.6681162733002277
92,0.6677369574733368,0.6676911704297693
93,0.6677321010559106,0.6677032411246383
94,0.6677356217371995,0.6676858353555646
95,0.6677328466342025,0.6676910012590678
96,0.6677424715699328,0.6676941723444917
97,0.6677323292938735,0.6677104296814419
98,0.6677425294360003,0.6678786078102831
99,0.6677329529003996,0.6677257331665929
100,0.6677343422555536,0.6677412378580931
101,0.6677312876084214,0.6677078312147344
102,0.6677357952833394,0.667763780955937
103,0.6677370499334634,0.6677319057230322
