epoch,loss,val_loss
0,0.4515254530422211,0.45083282288191634
1,0.4476936478532359,0.4468671670474722
2,0.4471756469973693,0.44750381018920216
3,0.4469500003839517,0.4481471487517392
4,0.4131937980513022,0.3361635886853741
5,0.3360620017238554,0.33589410829189104
6,0.33601467696310716,0.33703675157674784
7,0.33594592144308455,0.33606563561015923
8,0.3358892972336712,0.3359048226187306
9,0.33588063899383824,0.3358702831469458
10,0.335838807006083,0.33562753750727725
11,0.33581188565571435,0.335627318700549
12,0.3357854159848017,0.3356103084519247
13,0.3357638425868582,0.33589681792200055
14,0.33574867811837344,0.336965257461846
15,0.3357625000340622,0.3355583254663879
16,0.3357029685637481,0.3358008173056335
17,0.33570328814564565,0.33559356506350024
18,0.3356682177594049,0.33579753862125405
19,0.33568869949766017,0.33563658824333775
20,0.3356638526442734,0.3357800690914798
21,0.3356657130367266,0.3355877654132417
22,0.33563147115552155,0.33562409679587957
23,0.3356412592071113,0.33563499329403673
24,0.33564200471440864,0.33551959152848787
25,0.3356228790648462,0.33554241462025985
26,0.3356159200559287,0.33558961969451334
27,0.33561139311033317,0.33551788866963633
28,0.3356309190980763,0.3356046111352982
29,0.33560429073031955,0.3355145776094337
30,0.33563779531987253,0.33607354211452284
31,0.3355827451180592,0.3355494931377193
32,0.3356122169794257,0.33550570139813957
33,0.33559942810363247,0.33555860383339026
34,0.3355580020192406,0.33582829083165816
35,0.3355746588981514,0.3358580984045791
36,0.33557871144880075,0.3356926653284589
37,0.33556969820119187,0.33573897831493216
38,0.33556366381681046,0.33566123053394537
39,0.3355622319607783,0.3358296797677838
40,0.3355525934489209,0.33576233515668447
41,0.33552890792097595,0.3354887287906618
42,0.33554488074427535,0.3354731300776413
43,0.33555952910103093,0.3354062735442784
44,0.335551079111044,0.3354387452377575
45,0.33552511913671546,0.3354318758690032
46,0.335549582777381,0.33556077154931
47,0.33551742756674846,0.33546673100876157
48,0.3355371886197622,0.3357329929880705
49,0.3355315394363434,0.335428236273323
50,0.3355441365038361,0.3355684490121032
51,0.33553260140690616,0.33592746898199133
52,0.33552275283799743,0.33544059772941076
53,0.3355140764519614,0.33544427316182895
54,0.3355308945850973,0.3354634918586788
55,0.3355402518083258,0.3354403219950702
56,0.33551456603697716,0.33553757541824514
57,0.3354988662566858,0.3358708629980868
58,0.3355152434920689,0.33536930190718206
59,0.33551479676448165,0.3366231745732925
60,0.33550831620429833,0.33538878841080677
61,0.33553964322463764,0.3356163686913237
62,0.3355071327037136,0.3356341551462415
63,0.33552131029176596,0.33552010267898996
64,0.33551185825770297,0.33541399984442566
65,0.33551294919285257,0.33544554000456933
66,0.3355106027966635,0.33547525862902033
67,0.33550665524101464,0.3354908059459762
68,0.3355001607801014,0.33535648022336934
69,0.33550868370237935,0.33537355711679007
70,0.33550317169933336,0.3354362361336464
71,0.3354995991691583,0.3355527340922107
72,0.33551892079242845,0.33553367604688733
73,0.33549540798314265,0.3365702519345816
74,0.335501739816481,0.3353902929917754
75,0.3354914309493798,0.33562807752831697
76,0.33549923871965126,0.33546140707160343
77,0.33549683975043165,0.33535804671625935
78,0.33548766465145485,0.33544511871953164
79,0.3355063942414406,0.33572985399745536
80,0.335506639906984,0.33539074570606126
81,0.3354815460012939,0.3354668070453568
82,0.3354993531230053,0.33540537629470635
83,0.3355057652219756,0.3359067093941473
84,0.3355023340186485,0.33544144427805916
85,0.3354777818458262,0.33534514478063465
86,0.33548495922170535,0.33627368430641685
87,0.33548802153506413,0.33587822812070917
88,0.33551033081778464,0.33551342025879893
89,0.3354973830554341,0.3354341620990715
90,0.3354866982028552,0.33542628736413144
91,0.33548867770560004,0.33538093211928904
92,0.3354928257797901,0.3354280929411611
93,0.3354843240840892,0.3353918291203142
94,0.33548674987346633,0.33552384691557874
95,0.3354974449074503,0.33537568719156324
96,0.335486791655722,0.3353743659947114
97,0.3354866916918675,0.33544382515083765
98,0.3354772041494936,0.3353928755146102
99,0.33548000503888875,0.33588060155399974
100,0.33548444785122783,0.33540117855994933
101,0.3354887411419776,0.3354109428508702
102,0.3354578044054152,0.33582173750063327
103,0.3354703676164031,0.33540244719230805
104,0.3354787000090709,0.3353805790911833
105,0.3354687588999695,0.3356716652809834
