epoch,loss,val_loss
0,0.6194237142292885,0.6149369525850263
1,0.6145611804527558,0.6161177659448855
2,0.6140625559214483,0.6134289769913364
3,0.6136224914599865,0.6134268166705338
4,0.6133457754092813,0.6130432506057228
5,0.6131029475039905,0.6129299630598158
6,0.6127498800118657,0.6125288609239659
7,0.6126240100379536,0.6127184805444097
8,0.6125431142923804,0.6122207418564827
9,0.6124649189659201,0.6129373617858508
10,0.6123825419122827,0.6120803791890961
11,0.6122229614220706,0.6119269381090074
12,0.6122228062138191,0.6125378898592209
13,0.6121581214904356,0.6119486781858628
14,0.612126851832497,0.6121796547035425
15,0.6120276164576898,0.6121121027333565
16,0.6120201374989998,0.6119816759679808
17,0.6119864730463201,0.6124551279077459
18,0.6119661417632324,0.6120589762408444
19,0.6119227809330224,0.6124187936558025
20,0.611903831810187,0.6114124223848726
21,0.6118192821825903,0.6120626949494885
22,0.6118716678601274,0.6124172193240883
23,0.6118132768511445,0.6117387628436975
24,0.6117370628764424,0.6116379006033204
25,0.6116517279569998,0.6117216268485001
26,0.6116570375861808,0.6113426640962548
27,0.611642364152578,0.6114377430000021
28,0.6116179914669548,0.6117065915102994
29,0.6116194497215159,0.6119040606927043
30,0.6116067736868025,0.611263709742733
31,0.6115599366999205,0.6118548623089755
32,0.6115725624933794,0.611276506401469
33,0.6115232924709448,0.6113696833106483
34,0.6115581488066916,0.6118948476190307
35,0.6114955075489733,0.6112137887081497
36,0.6115122491006991,0.6111564509921866
37,0.6114371457345209,0.6119733242183998
38,0.611553085118355,0.611162737048885
39,0.6115206962938958,0.6125889692945456
40,0.6114839792221611,0.6124026298227144
41,0.611412226539281,0.6136769537594419
42,0.6114196813898047,0.6112176905790571
43,0.6114819248714561,0.6112176272176927
44,0.6114392189989587,0.6112517411892231
45,0.6113927553597129,0.6114175758941593
46,0.6113803900712328,0.6118850931044548
47,0.6114395821344256,0.6113134703624338
48,0.6114117292186219,0.6111351110799141
49,0.61142123040299,0.6115489903809711
50,0.6114132416767213,0.6113478391401229
51,0.6113931111227918,0.6112040486880035
52,0.6114180419540359,0.6111252997412575
53,0.6113572678226026,0.6143267350516307
54,0.6113768855885303,0.6116808295545744
55,0.6113933819984945,0.6112779809286814
56,0.6113692764589945,0.6116802423231064
57,0.6113407503745912,0.6129506445995927
58,0.6113639070358501,0.6112659281595765
59,0.611317341180251,0.6113170829955165
60,0.6113917588796364,0.611166581415361
61,0.6113231041032249,0.6112129378851235
62,0.6113807525070091,0.6111081530379302
63,0.6113331401422737,0.6118969925875699
64,0.6113141736423428,0.6112554363222336
65,0.6112664785579309,0.6117592335338924
66,0.6113261747477923,0.6113317320423741
67,0.6113092973456581,0.6111541692139789
68,0.6112687086477181,0.6120174881542291
69,0.6113479375157685,0.6116783597924869
70,0.6113204647362562,0.6168994381764982
71,0.6113044382927569,0.6113443966243166
72,0.6113532089475234,0.6111148286398232
73,0.6112730573784944,0.611157566353346
74,0.6113133442573693,0.6115746361741948
75,0.6112926278904598,0.6109942604826935
76,0.6112748461370677,0.6111216085720299
77,0.6113049776705783,0.6119069167461348
78,0.6113011068347789,0.612301107789979
79,0.6113019505519712,0.6113745297155072
80,0.611273354356521,0.6112869940975464
81,0.6112676799613653,0.6115461316948789
82,0.6112705072958302,0.6111368662074541
83,0.6113387643174732,0.6110573929829278
84,0.6112893569742545,0.6109750801517118
85,0.6112655626605953,0.6110746848376158
86,0.611262008107814,0.6116902029543894
87,0.6113087093996867,0.6110576388262046
88,0.6112904807073014,0.6111920904284968
89,0.6112618847950403,0.6113030418568746
90,0.6112662915109971,0.6119786198914199
91,0.6112412635844722,0.6115507254825336
92,0.611252106939449,0.6109940349907792
93,0.6113069176396222,0.6112708018672082
94,0.6112495602479571,0.6111864226923391
95,0.6112058221638338,0.6111249053744465
96,0.6112080296560606,0.6114719984253346
97,0.6112598125608121,0.6110346873995683
98,0.6112278283878458,0.611237900162453
99,0.6112408666966258,0.6111220728670693
100,0.6112188662949545,0.6111888919515586
101,0.6112207167075482,0.6110129418503262
102,0.6112122195973053,0.6116502650322453
103,0.6112121963836702,0.6115663888140884
104,0.6112645423776288,0.6111419274848389
