epoch,loss,val_loss
0,0.3451123388090668,0.337248007609294
1,0.3374347941318482,0.3369752780379492
2,0.3370926731584361,0.3376656191520596
3,0.3367683662555227,0.3367163155569924
4,0.3365042031251476,0.33593298542884087
5,0.33633596674068306,0.3360868374408031
6,0.3362329505610066,0.3362238757663566
7,0.3360939382310911,0.3373052303459745
8,0.33602296931643505,0.33650182618692553
9,0.3359478471793019,0.335728758632693
10,0.3359530533828559,0.33589046168563974
11,0.3358938340735384,0.3358660491465339
12,0.33588140915635417,0.33641675124984816
13,0.33586118789704644,0.33573901434394327
14,0.33582776914225226,0.3358566305477625
15,0.3358049764044997,0.3357930238726121
16,0.33574431904014385,0.3360902593390226
17,0.3357463291028805,0.33554585086500677
18,0.33575306180488645,0.33573882244065145
19,0.3357519471981869,0.33858837831404903
20,0.33571336144499275,0.33603125676032036
21,0.3357361519736321,0.33589275106602806
22,0.33567649774903463,0.33572671703310225
23,0.3357150795671595,0.33575799744714874
24,0.3356743740098491,0.3354796566087614
25,0.3356668289300048,0.3356710602420731
26,0.3356640895818276,0.3356350603825401
27,0.33564871822501424,0.3361997892927591
28,0.3356317873916045,0.33580959749872574
29,0.335637385921606,0.33575992811998123
30,0.3356197128888498,0.33547682263715095
31,0.33563320214071474,0.3354421475093359
32,0.3356052272247474,0.3354915913813759
33,0.3355958373826855,0.3360387242757357
34,0.3356109311133992,0.33566477403747236
35,0.3355720188184766,0.3354494200303004
36,0.33560337693244996,0.3356758024941011
37,0.33559076316230985,0.33546280961474473
38,0.3355708621790684,0.33543203993707377
39,0.3355671668638457,0.3354265195560219
40,0.3355614174799241,0.33547204715146617
41,0.3355853380983821,0.33552036875530744
42,0.3355808245324954,0.3356287350577693
43,0.3355860866154533,0.3359693855121177
44,0.33555672128493563,0.3356362929267268
45,0.3355717883591736,0.3354355514936944
46,0.33556157103597506,0.33540191011452497
47,0.33554644503232917,0.335421293485845
48,0.33556175820912143,0.33546043777879947
49,0.33555569505617694,0.33551989298304613
50,0.33555609579942086,0.33548573891519023
51,0.3355542720567129,0.33543049724167096
52,0.3355350713548838,0.3356131535901621
53,0.33552846288621396,0.3354605981641017
54,0.33552342939540275,0.33572372871060524
55,0.33552221927620607,0.3359476729303081
56,0.33554681663192226,0.33549317065302847
57,0.33554478359141005,0.3355945425796745
58,0.3355086818352231,0.33598046713963925
59,0.33553455277451694,0.33706556381126196
60,0.3355344003192756,0.33539526722863056
61,0.33552497541380194,0.33538700605444516
62,0.33552017089101405,0.3361213468292511
63,0.3355129053612213,0.3357348702385763
64,0.33551088508276555,0.3353555689082844
65,0.33553057431849687,0.33610484495056475
66,0.3355116847356224,0.33545175336726546
67,0.33551973402930063,0.3360683250368085
68,0.33552280649053934,0.33547440131308126
69,0.33552355254449456,0.3358203202707892
70,0.3355082221976742,0.33581350717887687
71,0.3354944322015226,0.3353921666186737
72,0.3355011162963316,0.3354189627815417
73,0.33549775227749906,0.3353766497696008
74,0.3354902736248743,0.33541622636631757
75,0.3355079378558859,0.3354104070598375
76,0.335492706768102,0.3355910473514727
77,0.335522332029726,0.3355005718786131
78,0.33547988638808957,0.3354976210493604
79,0.3354859358899683,0.3354299194907432
80,0.3355100880985144,0.33578891674283123
81,0.335490476301255,0.3359719148640597
82,0.33547737275599154,0.3374402843545152
83,0.3354967390939861,0.33657576852933346
84,0.33548397414374537,0.3355777221784994
