epoch,loss,val_loss
0,0.4551127594403568,0.4491579928853672
1,0.44841729264631286,0.4477554812324846
2,0.44776697982728714,0.4471608168138168
3,0.44740363490720186,0.4469958056735046
4,0.4471576451254226,0.44724052748076676
5,0.4469271437069436,0.4465487251062843
6,0.4468202213937739,0.44655118859731235
7,0.446755799362001,0.44721165868839613
8,0.44667892297476564,0.4478674793509632
9,0.4466902615249041,0.44651422366019217
10,0.4465849289339747,0.4464184911168243
11,0.4465606868278103,0.44640400031068483
12,0.44652604651502226,0.4463297003995692
13,0.4465340542737425,0.44637359839219315
14,0.4464820028526733,0.4472477741927722
15,0.4464544026407323,0.4466603719271146
16,0.4464745229540945,0.4465396894710531
17,0.44642996393216405,0.44630513892280255
18,0.44642170317377056,0.44643445406894827
19,0.4464292416850428,0.4464629847713499
20,0.4463921765365709,0.4465476344300263
21,0.446391228294914,0.44681239988904436
22,0.4463823125015028,0.44632932743422743
23,0.4463872880347424,0.4463159664097258
24,0.44637241930542965,0.4462453889787641
25,0.44636073518229447,0.44624545943944094
26,0.4463510047557852,0.4462720914602871
27,0.44637437152891896,0.4464557177375623
28,0.44633859310747953,0.4462879156060609
29,0.44635700931575706,0.4462109022637455
30,0.44634502041190155,0.4461561476770169
31,0.44634185039588964,0.4462217794014857
32,0.4463132667834317,0.44644357451138367
33,0.44631734973630727,0.44731826375495115
34,0.4463252952375536,0.4461892214957301
35,0.44630991191185054,0.4469921124632246
36,0.446317287301347,0.44656039714517426
37,0.44630439981690606,0.44636795818066183
38,0.446289110996761,0.4462413063268212
39,0.44631051244949144,0.44621352686479726
40,0.4463061430608833,0.44621936457032896
41,0.44630908397201025,0.44618205090906127
42,0.44631427685975056,0.4462548795616065
43,0.446282649038329,0.44642663660179593
44,0.44630494101494844,0.44613612767484584
45,0.4463067220485276,0.4470789467874295
46,0.4462826511586991,0.4463779016996436
47,0.4462882908631642,0.44629755666474846
48,0.4462852874350389,0.44616332972611744
49,0.4462768507648099,0.446159288679104
50,0.4462790465768581,0.44648528204070725
51,0.44625447794276973,0.44615429815820074
52,0.4462863440305265,0.44613311372087255
53,0.4462606033346506,0.44644496776625775
54,0.44627146847153953,0.44614472236881775
55,0.4462558876023607,0.44617707942318974
56,0.44626067419192916,0.44628711425636897
57,0.44624033953186804,0.44634068736959037
58,0.4462489327829096,0.4462919874611327
59,0.4462394033632262,0.44654452265344247
60,0.44623228278455246,0.446257950250919
61,0.4462309201462194,0.44617851993286284
62,0.4462519298298095,0.44617719478701834
63,0.44623224975750053,0.4462653778918624
64,0.4462292757944736,0.44618515208104703
65,0.44624291067111677,0.44630630016326905
66,0.44623926334267766,0.44619235397864215
67,0.44622732096587925,0.44621235237228074
68,0.44623656798350286,0.4461620415114883
69,0.44624235434492787,0.44612921640535735
70,0.446218135810921,0.4461591110779689
71,0.44622473896328346,0.4462864331660732
72,0.44622815548849054,0.4461921154861119
73,0.44622390330594286,0.4461728790261905
74,0.4462129310189749,0.4461387699798082
75,0.4462242588493331,0.446201508704841
76,0.4462307923951041,0.4462305419202478
77,0.44623047896448853,0.4462076627882775
78,0.44621197181221217,0.44639866321021804
79,0.44623692756924305,0.44621417822672177
80,0.4462072767476145,0.44639811474395447
81,0.4462233636327053,0.4463267091338155
82,0.44620865925337366,0.446141298873253
83,0.44623466403984685,0.4463729657103347
84,0.446211759743649,0.44636084779024715
85,0.4462294850634856,0.44633605515690655
86,0.4462095465478002,0.4462955591252661
87,0.44621770176847947,0.44631584878299135
88,0.4462135122606957,0.4462911328665968
89,0.44622622927345457,0.44639146064706237
