epoch,loss,val_loss
0,0.23047069073385662,0.2267712109486262
1,0.22582741548286545,0.22525007726748783
2,0.22545721569326188,0.2256467744410038
3,0.22523614207903545,0.22499980952342352
4,0.22513375896877713,0.22503365748127302
5,0.2250586545964082,0.22537962113817533
6,0.2249972200791041,0.22496567862232525
7,0.22497028609779146,0.22507984454433122
8,0.22493432329098384,0.22526742803057034
9,0.2249036947886149,0.22526659820477168
10,0.22486769534481896,0.22470024610559144
11,0.22484288106693162,0.22491832811633747
12,0.22481718274619844,0.22469414321581524
13,0.2248145185245408,0.22462918348113695
14,0.22479304086168608,0.2246713849902153
15,0.22479430233769945,0.22466645076870917
16,0.22478805078731642,0.224624586135149
17,0.2247715317275789,0.2247789390385151
18,0.2247710322936376,0.22476371658841768
19,0.22476846660176913,0.224696327149868
20,0.2247648279964924,0.2246901650329431
21,0.2247527141571045,0.22462208332618078
22,0.2247495814959208,0.22464467551310857
23,0.22474298968248896,0.22462526226043703
24,0.2247446713447571,0.22476309069991113
25,0.224748955246475,0.22464117229978245
26,0.22474061368571388,0.22477321357528368
27,0.22472945177886222,0.2246701774597168
28,0.22472792599598568,0.2251091222067674
29,0.2247392486234506,0.22484258737166724
30,0.2247285761204031,0.22464533903201422
31,0.22472985649440025,0.2246544744273027
32,0.2247226214773125,0.2247055123746395
33,0.2247345354292128,0.22470147477587063
34,0.2247327478296227,0.2246331682105859
35,0.22471537405583594,0.22454755159219106
36,0.22471816621224086,0.22503853552540143
37,0.22470582005712722,0.22476695336898167
38,0.22471755337052876,0.22462211964527765
39,0.22470653486582967,0.22460277167956033
40,0.22470582305722767,0.22456205711762112
41,0.22469888469907973,0.22455928364396097
42,0.2247081958187951,0.22462241302927335
43,0.2246918158531189,0.2248895841141542
44,0.22470038725601302,0.22456201009949048
45,0.2247019136581156,0.22454252808292707
46,0.224700253304508,0.22454807398716609
47,0.22469209176301957,0.22464658475915592
48,0.22470398709840245,0.22457571017742156
49,0.2246895285513666,0.22464516500631967
50,0.22469248359402022,0.22456443949540456
51,0.22469403259621726,0.22461846002936364
52,0.22468302406867346,0.22478295559684436
53,0.22470646020438936,0.2246399647394816
54,0.22468135490351254,0.22478520397345225
55,0.22468478654490576,0.2247007690469424
56,0.22469035110208724,0.2245207984050115
57,0.22468724405434395,0.2245682784418265
58,0.2246933269765642,0.22482442291577656
59,0.22469125799006887,0.22519305657347044
60,0.2246765591568417,0.2245897123813629
61,0.22467953130602836,0.22453485466043155
62,0.22469292328092788,0.2245568344295025
63,0.224695622642835,0.2248107216755549
64,0.22468945719136132,0.22455965264638264
65,0.22468540727098782,0.2245922965904077
66,0.22467804548806614,0.2245934773584207
67,0.2246833526823256,0.22489231284459432
68,0.2246985087527169,0.2245588574806849
69,0.22467428697148958,0.22471324491500855
70,0.224686091389921,0.22460523693760237
71,0.22468743993176354,0.22465306475758554
72,0.22468414945403734,0.22472309891382852
73,0.22467962820993528,0.22474082828561465
74,0.22468584137161574,0.22458017295598984
75,0.2246855943467882,0.22509235901633898
76,0.22468512670199076,0.2245384659965833
