epoch,loss,val_loss
0,0.8798951931702074,0.562745849753535
1,0.5473490277310058,0.5389977943065555
2,0.5324682437788301,0.5338388422662897
3,0.5320897296417592,0.5320213691208714
4,0.5313289552079923,0.5316747801248417
5,0.5318840789856528,0.5329066764476688
6,0.5315617116538746,0.531451423038808
7,0.5320018817904075,0.5327856924182685
8,0.533163642544463,0.531968777493913
9,0.5313188144094876,0.5316055837527726
10,0.531492871985571,0.5314935455026553
11,0.5313762241555738,0.5318359094996785
12,0.5316259289588731,0.5318281479584154
13,0.5312670603278995,0.5324567427006803
14,0.5317400043940975,0.5338734660961831
15,0.5314433556194453,0.5316533483276071
16,0.5314599063045294,0.531481033609819
17,0.5329365782651483,0.5346243427705395
18,0.5317941830139752,0.5317381638889165
19,0.5313174866274654,0.5315703569456588
20,0.5317091968016415,0.5321472347244736
21,0.5315379170792356,0.5314745297727659
22,0.5318829158479853,0.5315436928771263
23,0.5323472836220912,0.5315100499825884
24,0.5316611004738229,0.5315072106760602
25,0.5312432030682724,0.5316296071969262
26,0.5313673162645147,0.5315412832785023
