epoch,loss,val_loss
0,0.22915920285714997,0.22631392483909926
1,0.22574281482895214,0.2252070586880048
2,0.22540974489516682,0.22507322214047115
3,0.2252541816532612,0.2250191715459029
4,0.22514665625492733,0.22623140473167103
5,0.2250888172354963,0.22488820282618205
6,0.22504233741429117,0.22536526280641556
7,0.2249891837173038,0.22591839135686556
8,0.22497147502501805,0.22481324408451717
9,0.2249423421820005,0.22481507541735968
10,0.22492950237459608,0.2248215976456801
11,0.2249057493706544,0.22641764319936433
12,0.22489874203006427,0.22477479937672615
13,0.22488319985734093,0.22510371341307958
14,0.22488357577721277,0.22554817734162014
15,0.22487235516640874,0.22498541726668675
16,0.22485030509697065,0.22473647140463193
17,0.2248443150586552,0.22501139732201894
18,0.22483789640665056,0.22473356280724208
19,0.22483064491550128,0.2247960541943709
20,0.22482848623394966,0.22474112009008726
21,0.22482482511136268,0.22469817040363949
22,0.2248182165986962,0.22467263060808182
23,0.2248027440243297,0.22484779357910156
24,0.22481795361638068,0.2247833464940389
25,0.22481288488374815,0.22578468691309292
26,0.22480072447657584,0.22476924817760785
27,0.2248063180645307,0.22473563398917515
28,0.22480865075190862,0.22464761444926262
29,0.2248030068245199,0.2246574532488982
30,0.2248023953371578,0.22467705607414246
31,0.22479599157969157,0.22476221427321433
32,0.2248013586435053,0.2246720942358176
33,0.22478918915987015,0.2248217894732952
34,0.22478444463676878,0.22469414979219438
35,0.22477804486619102,0.2250208680331707
36,0.2247798670662774,0.22482184371352196
37,0.22478241542312835,0.22473072218894957
38,0.2247750925189919,0.22465654664238294
39,0.22477159507407082,0.22467809469501177
40,0.2247771215935548,0.2247731664379438
41,0.2247732236550914,0.2246824268003305
42,0.22476945112811195,0.22474212308724723
43,0.22476498707466655,0.22466448692480723
44,0.22477073430683878,0.22468133890628814
45,0.22476749277114869,0.22469726677735646
46,0.22476088060273064,0.2255754765768846
47,0.22475760105914538,0.2246688262919585
48,0.22475064900186326,0.22464956319332122
