epoch,loss,val_loss
0,0.6799617225806607,0.6766477196151506
1,0.6757063897404066,0.6747180939312313
2,0.6751454211565899,0.6750860066035249
3,0.6745428133639718,0.6741563906444805
4,0.6741916274518301,0.6737609731648163
5,0.6738800276110029,0.6733403091986777
6,0.6736738851485927,0.6732125783972349
7,0.673526376642407,0.6736487791201021
8,0.6733595197109365,0.6739412953185089
9,0.6732702566567946,0.6729217578400454
10,0.6731457985653913,0.6728238738204351
11,0.6730559147192621,0.672807681353453
12,0.6729958376224243,0.673166900799233
13,0.6729772405599084,0.6727393101226011
14,0.6728499490316655,0.6726284571971846
15,0.6728324462505084,0.6736364398641562
16,0.6727635459410766,0.672927558954537
17,0.6727335935346651,0.672450376326038
18,0.6726929759080299,0.6728627413437325
19,0.6726445931145492,0.6727545254579549
20,0.6726057204531143,0.6732523475332236
21,0.6726314120191946,0.6725341235437701
22,0.672516892987517,0.6726159537696365
23,0.6725450703167909,0.6723878935608024
24,0.67254321028286,0.6732712461989807
25,0.6724804810944666,0.6724799993612038
26,0.6724839389574246,0.6724153395622007
27,0.6724495456535544,0.6731053181676652
28,0.6724611221304376,0.6724783240417689
29,0.6724532361569253,0.6738337693675872
30,0.6724344123504872,0.6724529433191266
31,0.6723924465305403,0.6725895123505415
32,0.6724086825128309,0.6725557291182336
33,0.6723696639923359,0.6725495082273081
34,0.6723664148801297,0.6723043089173272
35,0.6723512909443968,0.6722500967328661
36,0.6723238758739752,0.6722364798077283
37,0.672308249661376,0.6722548478590348
38,0.672317496387922,0.672579524179842
39,0.6723093019999524,0.6723548938263735
40,0.6722638677443836,0.6724951910321825
41,0.6722998958685891,0.6722094694083145
42,0.6722793548092727,0.6723260792845828
43,0.6722582222708238,0.6721449244998525
44,0.6722666134564321,0.6722669813532391
45,0.672269947922212,0.6722675587639915
46,0.6722275706589615,0.6722482835684461
47,0.6722732421230471,0.6722955685099656
48,0.6722661143656427,0.6726478811233274
49,0.6722028554112989,0.6721452521627062
50,0.6721917939697888,0.6720995667850409
51,0.6722167080936524,0.6721086476635992
52,0.672214682766302,0.672187094209212
53,0.6721823337145587,0.6722032091162045
54,0.672214125221768,0.6720803994103046
55,0.6721710429457141,0.6721565962429378
56,0.6721823931030645,0.6725567894893012
57,0.6721688123558098,0.6720516486440048
58,0.6721716137488718,0.6726854546785946
59,0.6721529556933735,0.6733223229720634
60,0.6721933178879838,0.6721265911168555
61,0.6721563026841669,0.6722865935590664
62,0.672134475091081,0.6721761817967625
63,0.6721630403108272,0.6722306485803192
64,0.6720945196636011,0.6723603526948404
65,0.6721371800293906,0.672745935999726
66,0.6721291995321773,0.6724327967717098
67,0.6721867917027683,0.6724402002010392
68,0.6721275374444191,0.6721281986674363
69,0.6721603185199927,0.6720723675439139
70,0.6721054704056998,0.6721427953272836
71,0.6721356272495509,0.6721618919159579
72,0.6720837290465198,0.672191858676172
73,0.6721215715748909,0.6724335430573589
74,0.6721289936006972,0.6720937072195426
75,0.6721126551622496,0.6721221908742085
76,0.6721581772727662,0.6728497483298441
77,0.6721176166602641,0.6721829473232809
