epoch,loss,val_loss
0,0.8308935150003557,0.5554190222607103
1,0.5529987185192354,0.5517620522846547
2,0.5512541204459908,0.5516788220220759
3,0.5512120480377237,0.5517940816953201
4,0.5513513214520398,0.551819130431774
5,0.5514040264356352,0.5520666712938354
6,0.5513023486125069,0.5514867412027462
7,0.5512817052291653,0.5520952893782032
8,0.5515757187700395,0.5515623268230941
9,0.5514520942702774,0.5533112278280332
10,0.5518923361788116,0.5535826327264771
11,0.5523522385331088,0.5517679642337238
12,0.5513388485255476,0.5519066610077555
13,0.551548238256489,0.5513790171275768
14,0.5513376593589783,0.5519266655278761
15,0.551339944511729,0.551622236421866
16,0.5512349616341504,0.5515428656755492
17,0.5513525089244202,0.551634058471798
18,0.5537049029532637,0.5529157325278881
19,0.5514430908885729,0.5514154267865558
20,0.551612677962281,0.5514611278393472
21,0.5515485583041682,0.5513757767603379
22,0.5513746572095294,0.5538356008455735
23,0.5516100743020228,0.5524870905765268
24,0.5512745475892257,0.5514935218086539
25,0.5512521345486012,0.5513835124267165
26,0.5512363374695297,0.5514302706533625
27,0.5512402855456645,0.5515361312747926
28,0.5516775928110423,0.5521047993223797
29,0.5524114159342547,0.5516204492066258
30,0.5515351081387325,0.5535335674766422
31,0.5520026007671996,0.5532551925311717
32,0.5517768793635898,0.5514944810275884
33,0.5512409373463278,0.5515553378319555
34,0.5513910517212033,0.5514221838278364
35,0.5512702240192305,0.5524117701737455
36,0.5519786096666518,0.5514305058375809
37,0.5514909823735555,0.5516048494235489
38,0.5515220992324888,0.5518573846003806
39,0.551397521674479,0.551644039246463
40,0.5513227886931841,0.5514587542807409
41,0.551268620546474,0.5514947300733521
