epoch,loss,val_loss
0,0.6047108971807692,0.5577170466184616
1,0.5575589960681068,0.5576566784381867
2,0.5573879627121819,0.5574457773764928
3,0.5573089262247085,0.5571706508398055
4,0.557248331003719,0.5571013352870942
5,0.5572099293735292,0.5570785912672679
6,0.5571742921272914,0.557036674062411
7,0.5571501901547115,0.5571202809810638
8,0.5571334023078283,0.5570481704076131
9,0.5571213599973255,0.5570663185119629
10,0.5571066489087211,0.5570421379804611
11,0.5570916945272022,0.5570245803594589
12,0.5570887155003018,0.556983794371287
13,0.5570822649929259,0.5571317229668299
14,0.5570693513949712,0.5572938832044602
15,0.557057893064287,0.5570170853932699
16,0.5570546259350246,0.5572054969072342
17,0.5570545811388228,0.556984036008517
18,0.5570471658441756,0.5570872380336126
19,0.5570464020172755,0.5570933525164922
20,0.5570460154215495,0.5570065267483393
21,0.5570413765774833,0.5570140515963237
22,0.5570406886736552,0.5571047727664312
23,0.557035701473554,0.556957744717598
24,0.5570293278031879,0.557023766318957
25,0.5570300198528502,0.5569904262622197
26,0.5570272774563896,0.5569794351259867
27,0.5570242533948686,0.5570019798278809
28,0.5570240637858709,0.556940478126208
29,0.5570222453276317,0.5569665277004242
30,0.5570157198905945,0.5569502971967062
31,0.5570239762862523,0.5572151873906454
32,0.5570179288254844,0.5569528645674388
33,0.5570149207380083,0.5570491950511932
34,0.5570157630708482,0.5569628795782725
35,0.5570114506615533,0.5570050491491954
36,0.557008845726649,0.5569808795849482
37,0.557011908782853,0.5569697898626328
38,0.5570136947234472,0.5569474778175354
39,0.5570083507564333,0.5569702420632044
40,0.5570084260702133,0.5570571406284968
41,0.5570015243821674,0.5572024836540223
42,0.5570028822422027,0.5570283981959026
43,0.5570046910974714,0.5569325676759084
44,0.5569984547032251,0.5569188771247864
45,0.5570036949978935,0.5576274251540502
46,0.5570018151866065,0.5569225137631099
47,0.557010021660063,0.5570482128063837
48,0.5569960443841087,0.5572945973475774
49,0.5570037696096632,0.5570595029989879
50,0.5569968603054682,0.5569211035172145
51,0.5569972375498877,0.5569595820903778
52,0.5569962890810437,0.5569277612368265
53,0.5569935868051317,0.5569188501437505
54,0.5569970868693458,0.5569258372783661
55,0.5569980193111631,0.5569873472452164
56,0.5569925054576662,0.5570005708932877
57,0.5569976397620308,0.5569946637948354
58,0.5569903041654163,0.5569366944233577
59,0.5569959001408683,0.5569252607425054
60,0.5569855297406514,0.5570701952377956
61,0.55699205382665,0.5569761263132096
62,0.5569901880158319,0.5571530879735946
63,0.5569916072156694,0.5569021566311518
64,0.5569904519584444,0.5569576728741328
65,0.556990807864401,0.5569265849987666
66,0.5569902542034785,0.5570079495112101
67,0.5569874326520496,0.5569223310947419
68,0.5569840222332213,0.5569293134609858
69,0.5569948163164986,0.5568875362873077
70,0.5569894564681583,0.557088917295138
71,0.556986376007398,0.5569276799758275
72,0.5569863939285278,0.5569022727012635
73,0.5569848579168319,0.5569402540922165
74,0.5569853486220042,0.5569931570688883
75,0.55698230293062,0.5569832057555516
76,0.5569853440125784,0.5569102644125621
77,0.5569877793524001,0.5571584385236105
78,0.5569860777457555,0.5569514394203822
79,0.556980849146843,0.5569496558904647
80,0.5569786543448766,0.5570503129959107
81,0.5569793998532825,0.5571722946166993
82,0.5569835552506976,0.55690997894605
83,0.5569913610882229,0.5569120704730351
84,0.556983412835333,0.5569573697249095
85,0.5569839284552468,0.5568945544958115
86,0.556979732685619,0.5570198447704315
87,0.5569824812147353,0.5571020733118057
88,0.556990722073449,0.5569424858490626
89,0.5569783369965023,0.5569763106107711
