epoch,loss,val_loss
0,0.780840963232115,0.7800682419582868
1,0.7793035216582077,0.7809414926592825
2,0.7790550377248362,0.7788940558066735
3,0.7789445000919022,0.7787456159556179
4,0.7395598996671771,0.6682449057735226
5,0.6682077272579704,0.6681298287571512
6,0.6681031000162799,0.6680902870358072
7,0.6680409647721071,0.6683950026928639
8,0.6680135687006118,0.6680483151606236
9,0.6680086005157009,0.6680215213198224
10,0.6679563275238445,0.6683493977444935
11,0.6679742362651607,0.6678428446980327
12,0.6679516941223388,0.6678387182817861
13,0.6679294390656382,0.66796358871105
14,0.6679160553645032,0.6681627692123204
15,0.6678950734859225,0.6681522939992011
16,0.6678934122445769,0.667959416592979
17,0.6679118464771835,0.6678621396533313
18,0.6679011438183865,0.6680679848117214
19,0.6678905554221377,0.6680032151804373
20,0.6678592539334051,0.66798232921004
21,0.667868708148578,0.6678019347616816
22,0.6678348203628691,0.6677880122703003
23,0.6678617182743921,0.6681897383469801
24,0.6678455055104697,0.6679299681121599
25,0.6678416185526003,0.6678108406126055
26,0.6678429684253272,0.6677964879916265
27,0.6678205167745055,0.6679359848978502
28,0.6678323425652624,0.6678386764550032
29,0.6678313160032238,0.6677744158740079
30,0.6678194798898616,0.6677983977362772
31,0.6678239563374391,0.6677433717339566
32,0.6678178947933097,0.6677748424539495
33,0.6678218276002383,0.6677516739954132
34,0.6678155009522619,0.6677587968539955
35,0.6678099295638653,0.6679295743369583
36,0.6678070587744347,0.6677963894590846
37,0.6678092339570487,0.6680569846636013
38,0.6678161220250719,0.6677843441738385
39,0.6678081345199092,0.6677197034542377
40,0.6678203495145373,0.6677266250177294
41,0.6677935031095491,0.6677367870920053
42,0.667806340417025,0.6677514837338374
43,0.6677941229194452,0.6677271495386033
44,0.6677974426491261,0.6677530571485571
45,0.6678012851872929,0.6679028268783324
46,0.6677966604684187,0.6679523990408658
47,0.6678016120051112,0.6677295985352016
48,0.6678089687340887,0.6677208951330067
49,0.6677980812970277,0.6677843203911414
50,0.6677976725838584,0.6677441928286114
51,0.6677908563228628,0.6677365091539198
52,0.6677949646629895,0.6680178069003463
53,0.6677813954909992,0.6677528339047586
54,0.6677953766679388,0.6678890929328597
55,0.6677911126454747,0.6677301229081734
56,0.6677929202728177,0.6677181180298476
57,0.667784217235039,0.6677529499785184
58,0.6677952807022598,0.6677225117943719
59,0.6677828435428569,0.6677490594073502
60,0.667799072407551,0.6677317627310457
61,0.667791003650721,0.6679012988400519
62,0.6677877489756986,0.667724010281764
63,0.6677815945020898,0.6678773529772132
64,0.6677744737920762,0.6677501340657842
65,0.6677937316094028,0.6678050536079975
66,0.6677794537683904,0.667724521491427
67,0.6677884220725148,0.6677807906721129
68,0.6677894613291651,0.6677687320460752
69,0.6677805131078168,0.6681575364569576
70,0.6677746603112841,0.6677537449831998
71,0.66778158800609,0.668122246425146
72,0.6677840434088651,0.668391536039395
73,0.6677791486890987,0.6677317231227979
74,0.667789482133719,0.6677291145691505
75,0.6677763498620948,0.6677745318590264
76,0.6677733143913751,0.6677085462929889
77,0.6677824726153454,0.6677248585017088
78,0.6677811520152428,0.6677548268296878
79,0.6677783617186266,0.6680235117008313
80,0.6677766872659869,0.6677306711821639
81,0.6677879962441409,0.6678650031610399
82,0.6677769131658632,0.6677306137368934
83,0.6677747096390755,0.6677245259580777
84,0.667773935180207,0.6682880643579564
85,0.6677727617154885,0.6677607595181051
86,0.667767490672626,0.6679125969522348
87,0.6677780709376341,0.6677085278051959
88,0.667772711979084,0.6677284915157347
89,0.6677735097273153,0.6678979110185325
90,0.6677815637385803,0.6678008712846647
91,0.6677746175378657,0.6678086384946005
92,0.6677690246570571,0.667753315859338
93,0.6677724164359359,0.6678137724511972
94,0.6677730745718372,0.6678637267046472
95,0.6677769092666855,0.6677589244345578
96,0.6677673188374544,0.6677311083223328
97,0.6677833356320076,0.6681720986555587
98,0.6677625243966793,0.6677478506606507
99,0.6677696170054784,0.6680363526415293
100,0.6677726978590599,0.6680139981487548
101,0.6677666447995663,0.6679508781906393
102,0.6677627395606042,0.6677392872628148
103,0.6677797264883734,0.6677674092370878
104,0.6677612214797376,0.6677023645666041
105,0.6677702072571945,0.6677781290806848
106,0.667769205442273,0.6677587962032252
107,0.667772507952624,0.6677144067754817
108,0.6677591694000689,0.6678864211657503
109,0.6677716127778042,0.6680464922346488
110,0.667782100696277,0.667763093535421
111,0.6677628198514787,0.6677234173412654
112,0.667764080532194,0.6677823257209645
113,0.6677703775281199,0.6677596056431754
114,0.6677629257287834,0.6683278272228856
115,0.6677679435680606,0.6677390600848139
116,0.667775266401092,0.6677234417747328
117,0.6677595484059695,0.6677176962715224
118,0.6677607094600545,0.6679884149182227
119,0.6677595546708428,0.6678668279801646
120,0.6677631736590525,0.6677544409228909
121,0.6677683083419236,0.6678145771878529
122,0.6677612850529768,0.6679198165093699
123,0.6677632387389535,0.6679501807127638
124,0.6677694822823054,0.6677181903836745
