epoch,loss,val_loss
0,0.5635150263220531,0.5608844640533031
1,0.5587427952483601,0.5581036992759326
2,0.5583135385531038,0.5589233084588725
3,0.557860094623359,0.5576843415241384
4,0.5576444833500884,0.5601870716949254
5,0.5575017632461983,0.5579604293809044
6,0.5574049875890563,0.5571478361527322
7,0.5573708062204372,0.5571384387335765
8,0.5573302261420227,0.5576555404118805
9,0.557303529000677,0.5580047290319249
10,0.5572719944739623,0.5573571928973233
11,0.5572471684030422,0.5573175133309944
12,0.5572183472669308,0.5571336155493857
13,0.5572021443404843,0.5571066923827747
14,0.5571817821124565,0.5570465107709539
15,0.557174349189778,0.5579236908231124
16,0.557163455490999,0.5571230660892894
17,0.5571452739492394,0.5574307492885637
18,0.5571275093583816,0.5570604350075828
19,0.5571277656936148,0.5570203717234117
20,0.5571139200618074,0.5569849184074118
21,0.5571070262029967,0.5573535535234967
22,0.5571014921451041,0.5572300543856088
23,0.5570983201739815,0.5570656472341002
24,0.5570920783810394,0.5573123463921749
25,0.5571019801086835,0.5573328852061894
26,0.5570715897038572,0.5571474373488509
27,0.5570700451696382,0.5575383780316147
28,0.5570926626510715,0.5572718103825306
29,0.5570622908050054,0.5571058382171555
30,0.5570654327067871,0.5570418723167911
31,0.55706285277171,0.5571748979630009
32,0.5570551925450412,0.5569619065182972
33,0.5570458878554018,0.5574085828979909
34,0.55705378765155,0.5570141171994931
35,0.5570531433698377,0.5573099680928971
36,0.5570501484543515,0.5569726381940818
37,0.5570640642153492,0.557228834634975
38,0.5570538861044041,0.5569673169635365
39,0.5570464602543589,0.5571442094393463
40,0.5570386416436163,0.5571452407032326
41,0.5570362265539044,0.5574249720159299
42,0.5570295616224923,0.5569690236382686
43,0.5570328378238464,0.5569510500425144
44,0.5570432865501809,0.5569636743062779
45,0.557027040263428,0.5569271960270316
46,0.5570235545800782,0.5570293721726751
47,0.5570250678301611,0.5570222209464232
48,0.5570132272354661,0.556957995891571
49,0.557009327413387,0.5569708042937532
50,0.5570284228330822,0.5569984077815678
51,0.5570141650496035,0.5574647759089695
52,0.5570108060796657,0.5570787761702432
53,0.5570082222446221,0.5571681331464138
54,0.5570058771720866,0.5574259881050356
55,0.5570098384470349,0.5570576485569956
56,0.5569871692713256,0.5570048142011941
57,0.5569926695476521,0.556921978180225
58,0.5569911013170352,0.5569647291753783
59,0.5569998032488769,0.556938384513997
60,0.5569937199086364,0.5569468155688151
61,0.5569877506171718,0.5569054669541106
62,0.5570006986264255,0.5571830107911349
63,0.5569880963140145,0.5569234616111585
64,0.5569847052876777,0.5570700191682385
65,0.5569744936073614,0.5569226797402053
66,0.5569855400224838,0.55693293951877
67,0.5569882739092092,0.5569004067416227
68,0.5569949537329082,0.5570093999429613
69,0.5569911376283732,0.5568968532694777
70,0.5569848503129465,0.5569736455569492
71,0.556978572595981,0.5569165759879365
72,0.5570034797552809,0.5570349647152808
73,0.5569863910812999,0.55701614656756
74,0.5569812902991079,0.5569175351050593
75,0.5569676350091696,0.5569061805237612
76,0.5569886629064075,0.5569061176652648
77,0.5569928915144311,0.5574598841868322
78,0.5569797158619909,0.5569329794819834
79,0.5569863562671578,0.5570215184694485
80,0.5569845896099719,0.5574550758224563
81,0.5569760462239137,0.5568981592175978
82,0.5569893693911645,0.5569361814789974
83,0.5569737530980793,0.5570381600271088
84,0.5569796967952254,0.5568957580526177
85,0.5569716433463948,0.5569395373831908
86,0.5569818065295558,0.5569492303703913
87,0.5569676010911362,0.5569351649461846
88,0.5569771641653843,0.5569468431082316
89,0.5569765278106064,0.5574221753305004
90,0.5569622791806896,0.5569923138204342
91,0.5570005969401648,0.5569737613349044
92,0.5569680101853095,0.5578051216844885
93,0.5569743991396672,0.5576246182912632
94,0.556958960142811,0.5569290998851691
95,0.5569821658052864,0.5569516767934889
96,0.5569659491358757,0.5570406839510348
97,0.556974970428743,0.5569244266147945
98,0.5569631398166685,0.5573692771104666
99,0.5569552823458841,0.5570126032415158
100,0.556973001113714,0.5569114306132787
101,0.5569771254126232,0.5568893182662226
102,0.5569590239597981,0.5569316474438897
103,0.5569594277080829,0.5570706318684903
104,0.5569698371949493,0.5568967245944381
105,0.5569564795432866,0.5569563032379813
106,0.5569662207451886,0.5568900575117202
107,0.5569660353035201,0.5570346327040983
108,0.5569553343517472,0.5580169262720397
109,0.5569613927768501,0.5571995891944942
110,0.5569530342006092,0.5569798873021052
111,0.5569703562099605,0.5569195859189661
112,0.5569667317283514,0.5569620889410487
113,0.5569480171525266,0.5571021680796413
114,0.5569702843248389,0.5569914083327017
115,0.5569528205031158,0.5569263552613649
116,0.5569422144899676,0.5569471608320478
117,0.5569581477760163,0.556905522180846
118,0.5569504351853564,0.5570187086207103
119,0.5569592339931847,0.5570920559076162
120,0.556947131189642,0.5569253272809107
121,0.5569626154242157,0.5568932122095643
