epoch,loss,val_loss
0,0.6717907189652372,0.6705449550678357
1,0.6689617369065184,0.6684475586372924
2,0.6685872693985137,0.6682477793385906
3,0.6683837374800798,0.6690647475772696
4,0.6682276629815985,0.6680266740895974
5,0.6681562688897461,0.6681346425643334
6,0.6680538990407631,0.6680538091706875
7,0.6680193317987054,0.6678248392441136
8,0.5878885023202107,0.5571053879728388
9,0.5572587273166664,0.5572904390673483
10,0.557256516448255,0.5576432384273254
11,0.5572057869919612,0.5570953522367453
12,0.5572102699513152,0.557407546487103
13,0.5572070421690225,0.5570449690960773
14,0.5571672283858938,0.557077054794018
15,0.557173019810018,0.557198533645043
16,0.5571484775618373,0.5570002552001707
17,0.5571362798764655,0.5571915463537496
18,0.5571620606440233,0.5570368125184298
19,0.5571213764071605,0.5570601775983427
20,0.5571550213702626,0.5572592107592977
21,0.5570985895256682,0.5570212192334253
22,0.557118818719404,0.5569624223720938
23,0.5571359219922277,0.5572029326453103
24,0.5570898255264602,0.5570092931278882
25,0.5570897628643176,0.5572490732959718
26,0.5570727547225924,0.5570335502068399
27,0.557057656207636,0.5571798986595854
28,0.5570889881072719,0.5570104357918202
29,0.5570624679237479,0.5571698825649233
30,0.5570579528015033,0.5569936578977789
31,0.5570696378227192,0.5570549154104133
32,0.5570439401014128,0.5581935562507686
33,0.5570610643381338,0.55705274810862
34,0.5570599199164906,0.5570219285139079
35,0.5570617949823309,0.5569775540538816
36,0.5570347937406291,0.5570022467643984
37,0.5570574923869586,0.5571759849860709
38,0.5570298923189787,0.5577934788711018
39,0.557032671078983,0.5570015206230485
40,0.5570369653309198,0.5569773815405872
41,0.5570444629122652,0.557823529610267
42,0.557021910289861,0.556945064345897
43,0.5570262722626956,0.5574266476903305
44,0.5570242206839328,0.5570798083807044
45,0.5570338465504803,0.5569442991287478
46,0.5570180539795434,0.5569943140221588
47,0.5570321676906577,0.5570602202829593
48,0.55702381648996,0.5576920747756958
49,0.5570151703203812,0.5570131449486423
50,0.5570309099577931,0.5569371778083498
51,0.5570291754130129,0.5569093504259663
52,0.5570229873637221,0.5571069297660374
53,0.5570222354629726,0.5570720165598185
54,0.5570121648219764,0.5572442209750192
55,0.5570189952700464,0.5570052104315746
56,0.5570151717016193,0.5569180855384239
57,0.5570074344379922,0.5570295923105245
58,0.5570165825917822,0.5570204454379402
59,0.5570184996201254,0.5570683489070637
60,0.5570089047032508,0.5572258832436933
61,0.5570066030288856,0.5571334188688482
62,0.5570143513163863,0.5570540162233206
63,0.5570101597927523,0.5569512345654792
64,0.5570120238260419,0.5569409605882896
65,0.5570071147590687,0.5570036607403909
66,0.5570049596316219,0.5569094189343322
67,0.5570109672080725,0.55691827707196
68,0.5570093401403406,0.5570024876973173
69,0.5570134172199961,0.5570597441261519
70,0.5570128189309098,0.5573696704715416
71,0.5569964045322544,0.5579206851812509
