epoch,loss,val_loss
0,0.7818167907217541,0.7792698133967946
1,0.7793127096225774,0.7789479117535479
2,0.7790606476372337,0.7790274593729535
3,0.7789693761019556,0.7788502814751996
4,0.7789166559715325,0.7799036116517212
5,0.7788254558614891,0.7787829943685318
6,0.7787740531450917,0.7787903733643942
7,0.7787334782437564,0.7786218844335665
8,0.7786668982621093,0.7785939926249218
9,0.7786519127065569,0.7785347358464603
10,0.7786337133254484,0.778618764729417
11,0.7786226005548899,0.7788265099596445
12,0.7786171589807886,0.7788433372234884
13,0.7786067872496046,0.7785436427327007
14,0.7785937751330749,0.7785266307092482
15,0.7785865939656933,0.7785325840152523
16,0.7785993327453765,0.7785551854457808
17,0.7785903491537624,0.778533478528631
18,0.7785708813882427,0.7786939858798649
19,0.7785717953655706,0.7786431984925093
20,0.7785785406935601,0.7785293663997508
21,0.7785638232046933,0.778584260384439
22,0.7785707473190082,0.7787239167885508
23,0.7785643612004878,0.7785005510001265
24,0.7785496364867438,0.778696971111203
25,0.778549023735282,0.778490014082149
26,0.7785542315630333,0.7784813458511315
27,0.7785367329863302,0.7785184878865188
28,0.778552436583761,0.7786420435231022
29,0.7785392161006387,0.7785558339088193
30,0.7785398663719232,0.7785915712269009
31,0.7785376350349987,0.7786807834954179
32,0.7785321012318976,0.778474506817148
33,0.7785296892777777,0.7785146441116523
34,0.7785373325864489,0.778499466343494
35,0.7785286262221818,0.7785210143839455
36,0.7785368152839836,0.7784943677651379
37,0.7785282674023937,0.7784780344655436
38,0.7785244289550898,0.7784850787879811
39,0.778522179000243,0.7784855384980479
40,0.7785280804296097,0.7785266457657068
41,0.7785219197029601,0.7786361087344716
42,0.7785277185089382,0.7784791556244749
43,0.7785228811338238,0.7786176265321357
44,0.7785164621219579,0.778478324502041
45,0.77852180470128,0.7786149238830169
46,0.7785083312677862,0.7785611256476371
47,0.7785073761609578,0.7785192912920533
48,0.7785171156960659,0.7789259463326806
49,0.7785081503295376,0.7784699874835334
50,0.7785042396239963,0.7784581787237163
51,0.7785086937911224,0.7788703622948148
52,0.7785107945320228,0.7784878713025645
53,0.7785045967414932,0.7784818403182491
54,0.778505418532418,0.7785163292222225
55,0.7785066525294431,0.7784547457919819
56,0.7784974864006257,0.7786751409618198
57,0.7784955581441024,0.7784518846211304
58,0.7785025645300394,0.7785130597817395
59,0.7785021498951371,0.7786420986315157
60,0.778497862741076,0.7784716274543081
61,0.7784998043303729,0.7784985280806018
62,0.7784903436665298,0.7784460660837424
63,0.7784927228653491,0.7786298256949811
64,0.7785050329303361,0.7785281691598537
65,0.7784927368552166,0.7784604147705192
66,0.7784957639675131,0.7784778774228345
67,0.7784999860527166,0.7784714044175728
68,0.7784936496106497,0.7784444409327826
69,0.7784974123067853,0.7784529218011104
70,0.7784882890413125,0.7784615949424857
71,0.7784927419944321,0.7786041667680291
72,0.7784916926565579,0.7784483902803426
73,0.7784893276842545,0.7785293589158921
74,0.7784976890261269,0.7785130226582511
75,0.7784951274991437,0.7784751530320709
76,0.7784930626704343,0.7784899192471658
77,0.7784913888780438,0.7785143008598915
78,0.7784881106959421,0.778549362560064
79,0.7784912598675643,0.7784583180181441
80,0.7784884978196734,0.7791122853312243
81,0.7784897930242423,0.7784628976959153
82,0.7784858829111109,0.778499093747908
83,0.7784836213731113,0.778525485885942
84,0.7784898229736811,0.7785835376152626
85,0.7784850786384819,0.7784558174332081
86,0.778499820543947,0.7787052807086159
87,0.7784877363961903,0.7784598156772832
88,0.7784841358547272,0.7785054578378834
