epoch,loss,val_loss
0,0.5596874664492077,0.5575290235678355
1,0.557607083691491,0.5574573982159297
2,0.5573642914030287,0.5571808944543203
3,0.5572798865768644,0.5572056504885355
4,0.5572102644443512,0.557223321557045
5,0.557170017613305,0.5572503430843353
6,0.5571477561394373,0.5571155993143717
7,0.5571115134424633,0.5572849872112274
8,0.5570975631607903,0.5570454912980397
9,0.5570828504694832,0.5569914345343908
10,0.5570611251857546,0.5570023314555486
11,0.5570401982731289,0.5570009497006734
12,0.557028373003006,0.5569747196038564
13,0.5570158156951268,0.5570013001362483
14,0.5570147245989906,0.5571331114371617
15,0.5569960108995438,0.556989764213562
16,0.5569948285420736,0.5570174846251805
17,0.5569842401478026,0.5569114705324173
18,0.5569821461704042,0.5568895442088445
19,0.5569723292059369,0.5568996637662251
20,0.5569747189945645,0.5569970523516337
21,0.5569738388856252,0.5568764930566152
22,0.5569689735439088,0.5570410046577453
23,0.5569696244531208,0.5569234159787496
24,0.5569724622567495,0.5569252831935882
25,0.5569513087537553,0.5568714426755905
26,0.5569634603526857,0.5569499203761419
27,0.5569586786958907,0.5570116805632909
28,0.5569512601428561,0.5571722919940949
29,0.5569569710360633,0.5570423581997553
30,0.5569525063170327,0.5569053186575572
31,0.556954234374894,0.5572031716505687
32,0.5569584195481406,0.557455664952596
33,0.5569510466920005,0.5569183833201726
34,0.5569523119529088,0.5568755003213882
35,0.5569460702074899,0.5573975252310435
36,0.5569499969747331,0.5568852228323619
37,0.556953121556176,0.5569165451526642
38,0.5569441820780436,0.5569143415292104
39,0.5569460019138124,0.5571092782815298
40,0.5569531807237201,0.5570047974586487
41,0.5569424125353495,0.5570111352205277
42,0.5569407676723268,0.5568997079928716
43,0.5569488954014248,0.5568947275876999
44,0.5569447778993183,0.5568709751764933
45,0.5569400312105814,0.5569287100632986
46,0.5569417367776235,0.556888198852539
47,0.5569394731654062,0.5569287816683451
48,0.5569432770411173,0.5568694555362066
49,0.5569418383836746,0.5568874276081721
50,0.5569363742536969,0.5568767900466919
51,0.5569416317277485,0.556995549360911
52,0.5569357408682505,0.5568478861252467
53,0.5569391428099738,0.5568852976560593
54,0.5569344580968221,0.5568482313950857
55,0.5569350842237473,0.5568734862407049
56,0.5569387283987469,0.5568489910761515
57,0.5569347643587325,0.5585152638753256
58,0.5569395043849945,0.5569702391227086
59,0.5569331442117691,0.5568739567995071
60,0.5569384837283029,0.5569135177930196
61,0.5569306232796775,0.5569037607510885
62,0.5569383787843916,0.5568642427523931
63,0.5569294339153502,0.5569276371796926
64,0.5569311329523723,0.5568651479880015
65,0.5569365712404251,0.557028871178627
66,0.5569331284364064,0.5570276667277019
67,0.5569319669670529,0.5569381200869878
68,0.5569314142465591,0.5569676478703817
69,0.5569352521631453,0.5568707752227783
70,0.5569325218465593,0.5568949704567592
71,0.5569286994669173,0.5568661046822866
72,0.5569315244754155,0.556895454843839
