epoch,loss,val_loss
0,0.08521353338445767,0.07162034371613568
1,0.06794210993306375,0.0670007111860564
2,0.06348045725553443,0.06427003957016889
3,0.06159972787798504,0.061246833968768934
4,0.06030735731654576,0.06259010082512872
5,0.05967466379259026,0.05938463801929436
6,0.058991896809482525,0.05805222503563606
7,0.0584065908180898,0.05665760964672855
8,0.057762607422507765,0.05665478618727724
9,0.057255274453449065,0.05571926167747815
10,0.05700993088820494,0.05657081651517534
11,0.05656038992562167,0.055720496432804884
12,0.0562881956783384,0.05588679677684313
13,0.056104208459637796,0.05578108052018262
14,0.05581256129489804,0.055399378335505504
15,0.05573728613133803,0.05520722656037021
16,0.055297134420773164,0.05491911737853777
17,0.05525497183267001,0.05516164336658589
18,0.0551749881559289,0.05579311423761673
19,0.05514281844177851,0.05489964849562858
20,0.05504402548021082,0.055077622512877726
21,0.05502931540583566,0.05447452603365588
22,0.054902956441930856,0.054493488105148
23,0.054819550840725054,0.05383258524625828
24,0.05476696360605595,0.05390822497697977
25,0.05472133323587496,0.054393581099456946
26,0.05449361899577439,0.05484799287159449
27,0.05454466310058514,0.055097147127239045
28,0.054546950869241016,0.05410375635765918
29,0.054591084431599365,0.0539335343422872
30,0.054433330630343744,0.054542311891062976
31,0.05438985045546156,0.053795811458127965
32,0.05434361643048659,0.05327065391073156
33,0.05425656025136267,0.05379008960450258
34,0.054202379453180606,0.0548506074097405
35,0.05416897345780522,0.05395269986824421
36,0.05419192399333502,0.05421540581484882
37,0.05420881280705185,0.05383511853240264
38,0.054012447365110586,0.05415983075650395
39,0.05411981186211867,0.05409892592995102
40,0.05404649511013375,0.05360636924099981
41,0.053999975173306694,0.05412335286919887
42,0.05391068350703612,0.0539732231839419
43,0.053836939994775415,0.05378536853948539
44,0.053921464216361695,0.053382848634872186
45,0.05380208301746484,0.053782059035954934
46,0.0539485418006804,0.054007663740487606
47,0.05388488818185185,0.05383354302486474
48,0.05382771925967362,0.05368764824222394
49,0.05383350931296232,0.05403860415107855
50,0.053891418392802495,0.05372788744329223
51,0.05374309538052006,0.053781029515467565
52,0.05372011570434679,0.054383853464283365
