epoch,loss,val_loss
0,0.7622249794868844,0.5865875676620839
1,0.5826982543141959,0.5813272965046786
2,0.5810538849165273,0.5813411839248598
3,0.5810306178506954,0.5812993483950001
4,0.5810493421800993,0.5813243305960367
5,0.5811570323714914,0.581295882084573
6,0.5810672405154206,0.5812906835430353
7,0.5810748486555823,0.5813198034153428
8,0.5811112045625692,0.5813879347586817
9,0.5811112731002098,0.5813214626423148
10,0.5812669510373157,0.5812944538833559
11,0.5810956911831248,0.5813071381214053
12,0.5810695586278457,0.5816202034321867
13,0.5810718060463897,0.5815301620683004
14,0.5816360916894228,0.5833639442458634
15,0.5812694445752974,0.5813639598299366
16,0.5823367961925437,0.5817104088243588
17,0.5817357443407832,0.584013815998107
18,0.5837521683954146,0.5815456361733666
19,0.5810918462984938,0.5813135684922685
20,0.5812899613565252,0.5812905601752821
21,0.5811843319148672,0.581313202085421
22,0.5812209676710518,0.581403699032096
23,0.58783713114046,0.5885443142218183
24,0.5772594241208808,0.5717511398847713
25,0.571326295842804,0.5713921032210653
26,0.5710775992358994,0.5713225367457367
27,0.5711905854616979,0.5718494247096454
28,0.5713690679510742,0.5713174190632132
29,0.5711912309476571,0.571359283702318
30,0.5711213207060053,0.5713309987570888
31,0.5712219140942398,0.5713308180949485
32,0.5712016300329559,0.5713653716930124
33,0.571109838263933,0.5714179919671643
34,0.571545159323887,0.5719894808392192
35,0.571488478387049,0.5714690056882163
36,0.5734834356825481,0.5628232771112013
37,0.5623610055107787,0.5620966858642046
38,0.5613664782940572,0.5613620780235113
39,0.5614161743982202,0.5619486856830213
40,0.5612370504273309,0.561370619507723
41,0.5612443640866637,0.5615504370179287
42,0.5612914686979249,0.5614176674406658
43,0.56115687771361,0.5622410862020744
44,0.5618015287458434,0.5614417735920396
45,0.5612744758295458,0.5617359557817149
46,0.5612489790571444,0.5613527635271235
47,0.5613155050795208,0.5616592921951945
48,0.5621668850420674,0.5617018425187399
49,0.5613586673132825,0.5613470336263494
50,0.5612702731630291,0.5621797239133554
51,0.5615892288604756,0.5613680200059284
52,0.5612775554028593,0.5622664204863614
53,0.5614898555962614,0.5613666832909103
54,0.5612331454760037,0.561393515084141
55,0.5611726851118319,0.563019219294999
56,0.5624089453571527,0.5613651904024819
57,0.5616286991486562,0.5619979260503783
58,0.5619746879397745,0.5614403564800587
59,0.5611137539841408,0.5614432738732922
60,0.5611506130652218,0.5619763339212699
61,0.5613557104916536,0.5622533264086228
62,0.5614462924558062,0.5614582087642462
63,0.561384896437327,0.561528228512106
64,0.5613840548875104,0.5614431093829547
65,0.5614630740126282,0.5616762832153676
66,0.5612633428524323,0.5617118616436803
67,0.561342372758752,0.5660425133483354
68,0.5626336946043857,0.5614371928133706
69,0.5619563438787633,0.5628925414048425
