epoch,loss,val_loss
0,0.4527276239578181,0.4489456227192512
1,0.4480898618576641,0.44771201511470615
2,0.4475030021397638,0.44702218831620794
3,0.44728445747999823,0.44743703399639273
4,0.44702334670954813,0.4468006612201482
5,0.446853215032506,0.4466209713193974
6,0.4467824407418727,0.4468340571553772
7,0.4467251396228422,0.44651282264044506
8,0.44669984101703275,0.44711381865494304
9,0.446646790326985,0.4467277001506342
10,0.446616810916619,0.44656280175627905
11,0.44659913770677084,0.4463471625046458
12,0.44657156261861236,0.4463455442015645
13,0.4465535239162788,0.4465627554776355
14,0.4465301694200722,0.44638181340605687
15,0.44653243252823416,0.4463109330415134
16,0.4465083212902395,0.4463616819890498
17,0.4465035287016329,0.4466878189194587
18,0.4464487970459857,0.44635508791092904
19,0.4464398441535916,0.44635520719416977
20,0.44644189547204116,0.4464175755421518
21,0.4464234044386795,0.44636989821571277
22,0.44640486567766424,0.4470097546985664
23,0.4464112570931658,0.44642433995940256
24,0.44640183797177463,0.4464807118730569
25,0.44640138068493357,0.4464462892293338
26,0.4463833151450883,0.4462562369057913
27,0.44638015787220087,0.4462660099081603
28,0.44637250565568765,0.44633231838938614
29,0.44636823703474987,0.4465565844445903
30,0.44634908180689226,0.4464956848556291
31,0.44635519468085905,0.44634606168228697
32,0.44637671214575847,0.446296267104208
33,0.4463421956754422,0.4462377291903011
34,0.4463533130641953,0.4463946511520641
35,0.4463389444322167,0.4462117131235582
36,0.4463417976445839,0.44633776067800024
37,0.4463290159751303,0.44617183680274053
38,0.446321896585615,0.4462129204503952
39,0.44635565419140666,0.44630860655242693
40,0.44631150016174304,0.4468605071971789
41,0.44633044262844634,0.4462319608361786
42,0.4463368172316533,0.44623602062241907
43,0.4463266876383732,0.44673481067416093
44,0.44634976889870326,0.44656286755803204
45,0.4463180552377899,0.4463132186356017
46,0.44630166075546784,0.4462440688911798
47,0.44630123896865503,0.4465835192215354
48,0.44630701247020893,0.4464984652718007
49,0.44629483371316336,0.446295255792348
50,0.44631538656703834,0.446705995673873
51,0.44630373267692575,0.4465277052103142
52,0.4463048403533755,0.446971309495623
53,0.4463031753942827,0.44616755699697264
54,0.4462917027536114,0.44652602066177294
55,0.44628848973029367,0.44637652548311957
56,0.4463049508863441,0.4466225417169093
57,0.4462774057440747,0.44622754037528123
58,0.4463013434891754,0.44624554930490534
59,0.4462867323655035,0.4467706354321085
60,0.4462964951229238,0.44620267553601606
61,0.4462878672549472,0.4471773281582532
62,0.4463038433767315,0.44623815186562077
63,0.4462762910155012,0.4462767959380564
64,0.44627381848213926,0.44627587919495537
65,0.4462838567740814,0.4466524096191965
66,0.4462747426925405,0.44645018028857986
67,0.44627464169689884,0.44615692372061777
68,0.44627586705388916,0.4462577600485042
69,0.44625729076003556,0.4462338574766817
70,0.4462825988937059,0.4464675859689121
71,0.446266872532272,0.4468583410933947
72,0.4462744822743328,0.44618607428174456
73,0.44625228393713806,0.44624101348017936
74,0.4462436134144617,0.4461448345231655
75,0.44628296179173554,0.44622730568384117
76,0.44626272892008845,0.4464319507182384
77,0.4462612198239746,0.4462106025396446
78,0.44627018766624005,0.44618330421873714
79,0.446255504118677,0.4463747463510291
80,0.44626058511508654,0.44641793442719035
81,0.4462577591847358,0.446607946255071
82,0.4462573805716715,0.44615823280426764
83,0.44626200688082335,0.4463766726459522
84,0.44625651555809087,0.4461407855781669
85,0.44626513712214727,0.4461437092969199
86,0.4462553333322524,0.4461272561224755
87,0.4462343784438218,0.44622416306961854
88,0.4462476099176869,0.4463349664329595
89,0.44625640530949484,0.4461289593067122
90,0.44626121711316663,0.44618322540157784
91,0.44625369304573254,0.446197506423032
92,0.44624823779650635,0.4462602335968917
93,0.4462741938570639,0.44618792170034743
94,0.4462618173096394,0.446408152314037
95,0.4462482525905841,0.4461554487792789
96,0.44624126520594,0.4462372442924651
97,0.4462307178330941,0.446226314989568
98,0.44625097542227726,0.44622055858595494
99,0.44625025975595495,0.4466258414182119
100,0.4462413167318011,0.4462456617994285
101,0.44624990162718037,0.44663603203764035
102,0.4462640151158451,0.4462212427674097
103,0.4462610239050904,0.4462830375796808
104,0.44623343529602283,0.4461496401661383
105,0.44625255615582066,0.44641481957423773
106,0.446257028846604,0.44615337898950125
