epoch,loss,val_loss
0,0.6713898420796116,0.6694835936461134
1,0.6686899296411746,0.66833008607623
2,0.6683347042046974,0.6680419111665957
3,0.6681938909548448,0.6679721970120376
4,0.6681073827221389,0.6689278239056136
5,0.668066757974752,0.6679380626891446
6,0.6680230841122846,0.6680186792875342
7,0.6679989240892124,0.6679777813016925
8,0.6679711332873157,0.6682387858998983
9,0.6679671598809792,0.6679352690505035
10,0.6679341367037878,0.6678364887426864
11,0.6679052953752529,0.668125846900656
12,0.6678976307224693,0.6681445802115921
13,0.667888172130089,0.6678364730946184
14,0.6678874789173658,0.6680031518486534
15,0.6678608643205767,0.6678064448957703
16,0.6678660719424439,0.6681812420672282
17,0.6678693591298078,0.6678230808923026
18,0.6678467240054439,0.6677867570526842
19,0.6678487813465964,0.6678110293655775
20,0.6678398853377843,0.66775920027243
21,0.6678375988183858,0.6677619413761584
22,0.6678269531555787,0.6678680749744103
23,0.667818431949002,0.6677580068779938
24,0.6678112652968474,0.6677499310550263
25,0.667823035080016,0.667747405592916
26,0.6678106532979278,0.66778844251822
27,0.6678252996242396,0.6677700892275675
28,0.6677994652518641,0.667779290114088
29,0.6677911819250969,0.6677542375571675
30,0.6678074723523072,0.6677623573662921
31,0.6677900943495664,0.6679117676046291
32,0.6677973448170798,0.6677986096803367
33,0.6678055165357056,0.6677941926064029
34,0.6678022475576509,0.6690604682004185
35,0.6678035276419615,0.6678513732204958
36,0.6677873570188172,0.6678692801418731
37,0.6677893974506492,0.6677590208668862
38,0.6677929250191967,0.6677662790265332
39,0.667791210601367,0.6677117038601386
40,0.6677875700678938,0.6677135157525983
41,0.6677914281901497,0.6677191214880931
42,0.6677801714505632,0.667717167875607
43,0.6677899769932342,0.6677154532437289
44,0.6677726190993009,0.6677274457574186
45,0.6677708062917234,0.6677105128913009
46,0.6677788619547946,0.6677214935163115
47,0.6677739444260619,0.6677302897420178
48,0.66777471330476,0.6677230535902398
49,0.6677794968510293,0.6677334937800841
50,0.6677753220324093,0.66802248579101
51,0.6677649875315481,0.6679977696231814
52,0.6677660779515929,0.6677080412360634
53,0.667767356660976,0.6678046427944457
54,0.667761107806444,0.6679295313269565
55,0.6677653065044703,0.6677166892636207
56,0.667759455371576,0.6679380247669835
57,0.667755220581506,0.6676989775437575
58,0.6677706497621846,0.6677014154772605
59,0.6677654052704892,0.6677071140066861
60,0.6677617853049214,0.6680183606763039
61,0.6677634885166582,0.6679414907696821
62,0.6677594410267359,0.6678328652535716
63,0.6677541011901693,0.6677178689918802
64,0.6677680345475567,0.6679518830687473
65,0.667760754123505,0.6678028150468547
66,0.6677647376307863,0.6678521757681968
67,0.6677547920490292,0.6677970588946757
68,0.6677611050873534,0.6677532243077867
69,0.6677541174518619,0.6676952328043008
70,0.6677466595982693,0.667903129811914
71,0.6677528940653643,0.6677377906685728
72,0.6677585668134468,0.6677263161384734
73,0.6677583633155016,0.667719072650739
74,0.6677621957385249,0.6677001302946294
75,0.6677565020880738,0.6678242550298534
76,0.6677535512586159,0.6677467084995866
77,0.6677492275423695,0.6682482311210917
78,0.6677571103148172,0.6676915308086215
79,0.6677482665824362,0.6677678196956739
80,0.6677502227003702,0.6677657600076263
81,0.667744448119305,0.6676860394607999
82,0.667749025014683,0.6677310303186365
83,0.6677543759989693,0.6677096185258246
84,0.6677581070559959,0.667769073404686
85,0.6677530351102062,0.6677200897160003
86,0.66774580827914,0.6677536766523167
87,0.6677449294393736,0.6678007603874869
88,0.6677494353780808,0.6677880547774341
89,0.6677413067444604,0.6677019637216706
90,0.6677429759577034,0.6677565653921652
91,0.6677513513178411,0.6678574115111869
92,0.6677503967813355,0.6677354021640333
93,0.6677466378715752,0.6677760143138043
94,0.6677449775996994,0.6678480442936899
95,0.6677628488259258,0.667697697123582
96,0.6677371354448027,0.6679016918757418
97,0.6677449830181601,0.6676894218395129
98,0.6677484807800467,0.6677012152766472
99,0.6677443509435637,0.6676966374624456
100,0.6677410661755357,0.6679998232472327
101,0.6677468396577633,0.6677741362498357
