epoch,loss,val_loss
0,0.6045581066608429,0.6045863123337428
1,0.6022927069531546,0.6031292316118876
2,0.6018488932715522,0.6015316052834193
3,0.6015929998159408,0.60173581802845
4,0.6014871592786577,0.6014712699254354
5,0.6014319950871997,0.6016143311659495
6,0.6013975785043505,0.6013471121390661
7,0.6013836595217387,0.6013647742668787
8,0.6013583872848087,0.6012581527630488
9,0.6013270565271378,0.6014591468969981
10,0.6013162184291416,0.6013797957102458
11,0.6013025887277391,0.6012845265070598
12,0.6012916535668903,0.601248598297437
13,0.6012765772607591,0.601531357884407
14,0.6012576426135169,0.6017620684305827
15,0.6012596185207367,0.6012835366328557
16,0.6012479286723666,0.6011427597602208
17,0.6012483851114909,0.6011965503692627
18,0.6012288615703583,0.6011659250656763
19,0.6012255942026774,0.601270569562912
20,0.6012185399664773,0.6010876080989838
21,0.6012243243190978,0.6012846629222234
22,0.60121450275845,0.60113445353508
23,0.601209517677625,0.6010788244009018
24,0.6012090717156728,0.6011067392428716
25,0.6012052560912238,0.6011542494694392
26,0.6011982808245553,0.6014776256879171
27,0.6011975606812371,0.6012352395057678
28,0.6012055442995495,0.6011184184948604
29,0.6011952112913131,0.6012331206003825
30,0.6011967894898521,0.6013769013484319
31,0.6011887712213728,0.6014714268843333
32,0.6011906557348039,0.6010388425588608
33,0.601194218913714,0.6013524719079335
34,0.6011975187195672,0.6011491561333339
35,0.6011874201695124,0.6012608714501063
36,0.6011853258477317,0.6010956368048985
37,0.6011873841947979,0.6013342349529266
38,0.6011901772154702,0.6010843619902929
39,0.601185891787211,0.6011009793281555
40,0.601188198407491,0.6010659023125966
41,0.6011872267723084,0.6011077940861385
42,0.601181992093722,0.6010847877264023
43,0.6011801739268833,0.6010870362122853
44,0.601181148343616,0.6010597494443257
45,0.6011800179349052,0.6010748118956883
46,0.6011800824403762,0.6011353805462519
47,0.6011782474120458,0.6011127907037735
48,0.6011810287369622,0.6012090714772542
49,0.6011826510826747,0.601169734398524
50,0.6011831026739545,0.6011293167670568
51,0.6011929366191229,0.6011133838494619
52,0.6011834414005279,0.6011662918726604
