epoch,loss,val_loss
0,0.4288741730400957,0.4285557100997669
1,0.4225975062667411,0.42065151361910347
2,0.4215613135150259,0.4220614870192099
3,0.4204926103962081,0.41983806505688365
4,0.41979505942858314,0.42395938195602473
5,0.4194213867434403,0.41882542708967224
6,0.41919614603733024,0.419472778642148
7,0.41901438602031965,0.4186847609858359
8,0.41884933942818353,0.4188341916199062
9,0.4186533519466991,0.4180017345596484
10,0.4185008233219172,0.4196601379598045
11,0.4186068249539027,0.4178625594149748
12,0.418372368863756,0.4185408802689157
13,0.4183386597799678,0.4181883530196718
14,0.4183338089576998,0.41756788495160807
15,0.4182212688075649,0.41890433362636614
16,0.41817799490661284,0.41780822978126203
17,0.4181247281486431,0.41834862461456884
18,0.41806472013264273,0.4180350775902088
19,0.4181839170959647,0.41788890020131475
20,0.418010689086166,0.4176082350627956
21,0.41809439961594813,0.41783975140924196
22,0.41800672189579535,0.41758503113727713
23,0.41795643528132126,0.41810554791029275
24,0.41794666244740997,0.41763299486181577
25,0.41787917215411946,0.41790696963778795
26,0.41786917753407093,0.4177249784505101
27,0.417852715423144,0.41781680830950774
28,0.41783607626446906,0.4197728773500428
29,0.4177388142754387,0.4175746939909961
30,0.41780495930749173,0.41736000458300854
31,0.41775588338884767,0.4174892553324735
32,0.4177273465400953,0.42015372026646997
33,0.41762931872434295,0.41762841042158916
34,0.4177015034988927,0.41857020054798266
35,0.4176469361171048,0.41916331557127146
36,0.41766718120848895,0.4178860923048876
37,0.417695542167493,0.4202378831785311
38,0.41766377268476035,0.41754897408390756
39,0.4176040010186372,0.41711935591756855
40,0.4176640923179317,0.41876694336718423
41,0.41767129953833554,0.4171805440492133
42,0.41756470547155194,0.4173830388201673
43,0.4175956123908042,0.4171378046200234
44,0.41764639138945076,0.41723431254143156
45,0.4175111561837323,0.417647349257623
46,0.41752098162301604,0.4184732950946533
47,0.4175969028651649,0.4183919882951836
48,0.4175455885574726,0.4170529130374823
49,0.41754019393797337,0.41703731654299697
50,0.41751374330621727,0.41754761327880785
51,0.41756181607248166,0.41728594328274504
52,0.41750537300680657,0.4173678718488802
53,0.4175466360916911,0.418798899162496
54,0.41744255105734857,0.41790902099893346
55,0.41754957972190876,0.41708697797938554
56,0.4175081301284656,0.4170126539601877
57,0.4174681021836182,0.41740162223207744
58,0.4175553140163365,0.4202694381436994
59,0.4175420032561695,0.4172191523440718
60,0.41739505414589745,0.41776056007179374
61,0.4174673282161896,0.4176339799505901
62,0.4174803457799722,0.41693669843022935
63,0.4174716486426281,0.4170096936799752
64,0.4174147784336026,0.417869111059913
65,0.4175271974441854,0.41734852157810487
66,0.41741437810331017,0.4170889215345122
67,0.41738407472752853,0.41812981469163824
68,0.4174465610089107,0.41706808894207104
69,0.41738976290785074,0.41957359593500276
70,0.4174463972399015,0.41766137640470313
71,0.4174260748764882,0.417495984341903
72,0.4174237707058762,0.4175383491936156
73,0.4173580857558768,0.417485145008002
74,0.41739540539096304,0.4170907673853503
75,0.4174546402701709,0.4172054781807268
76,0.4174994510292551,0.4171898216526798
77,0.4173837423981679,0.421210995102047
78,0.41742529675745693,0.4197154620888807
79,0.41746161408499854,0.41903691244480334
80,0.41735213034147717,0.4179638688972511
81,0.41737201978258487,0.41717160351518956
82,0.4174400440841435,0.41765844832283094
