epoch,loss,val_loss
0,0.5386334594925676,0.5307288001547972
1,0.5312926979226872,0.5291186206394035
2,0.5303394737439724,0.5316808610636898
3,0.5298637005587723,0.5290471409153997
4,0.5293114006340254,0.5282981185995911
5,0.5289915257901455,0.5288698262671383
6,0.5288531021784642,0.5280121319347221
7,0.5285622687825133,0.5283985330212501
8,0.5286358392425885,0.5280510424384408
9,0.5285109385752006,0.5282517193268902
10,0.528439712162973,0.5277807653393994
11,0.5283176691178961,0.5282048832689858
12,0.5283560330553719,0.5279625754202566
13,0.5282324854704527,0.5277352346971668
14,0.5281887647437042,0.5277232210926027
15,0.5281870730882999,0.5296566310946462
16,0.5281052192612273,0.5276613475371236
17,0.5281491869187996,0.5275785699375806
18,0.5279152827906499,0.5279666705699476
19,0.5280414120358135,0.528038477956805
20,0.5280165260715376,0.5274265000601265
21,0.5279823330519265,0.5277847476691822
22,0.5279387055930648,0.527116795302029
23,0.5278942365799774,0.5276663515467206
24,0.5278748392205265,0.529109890585206
25,0.5278478827566554,0.5274561617865456
26,0.5277441634995652,0.5285851303164479
27,0.5278563728550046,0.5274328249264
28,0.5277616595228316,0.5270059462812343
29,0.5278261395192756,0.5273463735805256
30,0.5277332073397947,0.5275222428087561
31,0.5278189951104975,0.5272914085435513
32,0.5277315897750756,0.527713801961383
33,0.527767736808027,0.5280740305448585
34,0.5277333151662938,0.5275429677135004
35,0.5276558855419207,0.5271499104890279
36,0.5276701329704522,0.5271571138064856
37,0.5276763022148683,0.5276440260723861
38,0.5275590103299317,0.5292723120294197
39,0.5276250904398493,0.5271819312282591
40,0.5276061909279948,0.5282448608585386
41,0.5276516626939203,0.5271423593348368
42,0.5276347275582417,0.5272777227550819
43,0.5275756871638285,0.5275048863207437
44,0.5275815991634926,0.5296351470367489
45,0.5276900492021364,0.5271615462031022
46,0.5276125901970694,0.5279019341871105
47,0.5275734338422632,0.5273315972193299
48,0.5275967620815355,0.529492474046002
