epoch,loss,val_loss
0,0.5626477178398817,0.5584684013137154
1,0.5585295695720943,0.5594406955295402
2,0.5581355139344358,0.5580115980900843
3,0.5577282227320495,0.5582926502298776
4,0.5575434805884293,0.5573169144744021
5,0.5574734561349711,0.5581505132372266
6,0.5574217448155865,0.5582628321115196
7,0.5573651217140823,0.5587173332351609
8,0.5573563780910946,0.5571411581844018
9,0.5572974472025957,0.5573450218655039
10,0.5572684473685077,0.5571338267835139
11,0.5572702473173973,0.5572683403568883
12,0.5572359451184469,0.5570699895286086
13,0.5572242217444056,0.5570440987203612
14,0.5572050243450056,0.5570446558980728
15,0.5571717658603733,0.5571179827152943
16,0.5571762590358408,0.5571629342311073
17,0.5571589470801044,0.557081820828743
18,0.5571316733542794,0.5570641233666659
19,0.5571352780118479,0.5571565121338327
20,0.5571103514631518,0.5576632089117917
21,0.5571164013618111,0.5570169486419735
22,0.5571111724707702,0.5570607113187426
23,0.5570881630103683,0.5571054583743548
24,0.5570995948840057,0.5573858973701894
25,0.5570865452934054,0.5569747394722685
26,0.5570757215447525,0.5570054382603459
27,0.5570667721141308,0.5571766361705127
28,0.5570741909120522,0.5570175614013861
29,0.5570646398776883,0.5571045632989472
30,0.5570616598410789,0.5570039355133662
31,0.5570787321618632,0.5569840538886286
32,0.5570738452286196,0.5571534531583857
33,0.5570596438408327,0.5579377093326957
34,0.5570562409560422,0.5572578053912217
35,0.5570440241415876,0.5569391666215939
36,0.5570526284906525,0.5572131949677952
37,0.5570429947626436,0.5570253801700791
38,0.5570434067005424,0.5569674371489816
39,0.557040840001213,0.5571458933666977
40,0.5570262125263166,0.556953121533169
41,0.5570301761440845,0.5573445396447004
42,0.5570289379828355,0.5570814109617664
43,0.5570316192815427,0.5570145094365103
44,0.5570212715457225,0.5569701200975082
45,0.5570295232744,0.5569311958388714
46,0.5570207434110689,0.5570230250323085
47,0.5570242856967834,0.5569385836201329
48,0.5570201834811186,0.557086522318885
49,0.5570130383347861,0.5569842922184662
50,0.5570214964382652,0.5569533994120937
51,0.5570205852005373,0.5574547357358057
52,0.5570224139061577,0.5575138463867509
53,0.5570232375129649,0.5570030622979252
54,0.5570276587591364,0.5570288987964318
55,0.5570150732645418,0.557057907622742
56,0.5570230898238233,0.5572423155195364
57,0.5570327941622076,0.5569242552255579
58,0.557007639943505,0.5569276830102906
59,0.5570079819786073,0.556979204791947
60,0.5570154299276736,0.557112244400138
61,0.55702579005204,0.556904775658553
62,0.5570039984097976,0.5569661214688871
63,0.5570188788823952,0.5570866802785888
64,0.5570200609492848,0.5569123684324638
65,0.5570059102137319,0.5570535324643326
66,0.5570306561775744,0.5570382884359242
67,0.5569981451249801,0.5571304824157033
68,0.55700332046721,0.5569075304284581
69,0.5570096594800679,0.5569146448270262
70,0.5569932369343952,0.5569198301057366
71,0.5569920801510259,0.5569743433602099
72,0.5570048007663629,0.5569283687743005
73,0.5570005492342041,0.5572738885287907
74,0.5569923722359513,0.5572124474693468
75,0.5569996587986638,0.5571510861292667
76,0.5570156962778691,0.5572556417278262
77,0.5569946959990828,0.5569061619472268
78,0.5570059143889994,0.5570022808410985
79,0.5569932487778612,0.5571879904560061
80,0.5569956763357911,0.5572329886202185
81,0.5570070429630847,0.5569197122571486
