epoch,loss,val_loss
0,0.561588338270007,0.5579361681015261
1,0.5582628351423383,0.5583869104349879
2,0.5578857511110397,0.5574458964113562
3,0.5576736619484147,0.5580459414581507
4,0.5575649523947714,0.5572815809888816
5,0.5574874519998909,0.558536140498689
6,0.5574199437662815,0.5577389419522534
7,0.5573903335101412,0.557249991059599
8,0.5573387503784883,0.5571545209837315
9,0.5573006367006912,0.5572620972806112
10,0.557268975311476,0.5571029844710016
11,0.5572720893360705,0.557096954788227
12,0.5572277348568881,0.5570806929846259
13,0.5572313193985498,0.5571047776094441
14,0.557184782190823,0.5570654143766494
15,0.5572004444473475,0.5570222524496226
16,0.5571777362348991,0.557100887807368
17,0.5571597970818907,0.5578875237895596
18,0.5571558942228232,0.557731269961847
19,0.5571518070035705,0.5570818782148527
20,0.557153961264884,0.5574030656080979
21,0.5571282731877907,0.5570280214101446
22,0.5571361190612234,0.5570821121963615
23,0.5571391308410669,0.5570314088471179
24,0.5571196409481284,0.5572665863238256
25,0.5571066667978981,0.5570944135597267
26,0.55710509316933,0.557239281687488
27,0.5571010414505,0.5571149050745715
28,0.5570796642285987,0.5569889534200095
29,0.5571023634523502,0.557055690122893
30,0.55709655856924,0.5569890550289202
31,0.5570841016165609,0.5574407968272642
32,0.5570740673294994,0.5570819024708371
33,0.5570724399683233,0.5571628281851264
34,0.5570794362919682,0.5571750753570727
35,0.5570669542490316,0.5570583718290399
36,0.5570655148490413,0.5572418538275783
37,0.5570721116398991,0.5570665582238001
38,0.5570573800475734,0.5573624969711967
39,0.5570686417417897,0.5569958905132474
40,0.5570567305122657,0.5574298156106442
41,0.5570523155680424,0.5576252940570746
42,0.5570660048517415,0.5575905434546932
43,0.5570372684381412,0.5569721553816689
44,0.5570642831672268,0.5572722910947303
45,0.5570442765697549,0.5569408293397492
46,0.5570331860662376,0.556936807046753
47,0.557040137496094,0.5569654465609094
48,0.5570481955508924,0.557048651065779
49,0.5570341511533199,0.557073699037727
50,0.5570349982829829,0.5569932662227906
51,0.5570391266128041,0.557070147902439
52,0.5570376062419693,0.5572692880263695
53,0.5570357364999303,0.5572360474773436
54,0.5570391453987468,0.5571346566931485
55,0.5570314030945076,0.5570008609490122
56,0.5570368396398293,0.557129299167368
57,0.557016225902619,0.5569535219639762
58,0.5570318984714941,0.5569656939719511
59,0.557025243790904,0.5570533015000317
60,0.5570299666455234,0.556978303386319
61,0.5570227832102608,0.5569448573121953
62,0.5570161537563953,0.5571335573941839
63,0.5570160113949992,0.5569291670624139
64,0.5570294483183704,0.5569722206361832
65,0.5570273065371072,0.5570482092814765
66,0.5570108049555855,0.556962403706818
67,0.5570228091887387,0.5572724703227911
68,0.5570114079247892,0.5569436601018787
69,0.5570147411883949,0.5570617496227804
70,0.5570079792255971,0.556994752996317
71,0.5570019002089239,0.5570811369283027
72,0.5570065345010167,0.5571303009395268
73,0.5570107729338951,0.556958097589223
74,0.5570251380374452,0.5571838300813812
75,0.5570103256154756,0.5569658864520619
76,0.5570119698607295,0.5572159092124579
77,0.5570159520072822,0.5570148525403688
78,0.5570009692165725,0.5569201063577354
79,0.5570037532080852,0.5569795790144587
80,0.5570212269564218,0.5569522046273755
81,0.5570079674105289,0.5569287259584621
82,0.5570080508835362,0.5570339845368644
83,0.5570123555172405,0.5569384506855058
84,0.5570052005074007,0.5569414255045188
85,0.5570240036567958,0.5569509410680672
86,0.5570014258928605,0.5574688367453166
87,0.5570052519484628,0.557158380465827
88,0.5569936108144904,0.5571473741945498
89,0.5569923395382351,0.5570347230132697
90,0.5569971733983312,0.5571495299895407
91,0.5570019435069129,0.5571081282187337
92,0.557005291536593,0.556973194395638
93,0.556991467753748,0.5569243877756389
94,0.5569949036983267,0.5573316771990017
95,0.557004982928084,0.5571601088526231
96,0.5569908325711685,0.5573659358486053
97,0.557012022540252,0.5569397852379394
98,0.5569872211257337,0.5570841881240863
