epoch,loss,val_loss
0,0.3536083158639303,0.3503118098669549
1,0.34770189332382406,0.3474081728801538
2,0.3466916869481215,0.34762017048026433
3,0.34583051774593965,0.3452962078764184
4,0.3454384635396601,0.3446895741499387
5,0.34493366462393227,0.34469055631024664
6,0.3445801302950182,0.3444208009071445
7,0.34433231768714934,0.34513955653157485
8,0.34411762815603686,0.3444233616291737
9,0.34391949232156177,0.34340826363184906
10,0.34384454868283165,0.34356573033273663
11,0.34375462390559236,0.3439093028345416
12,0.34367930383333023,0.3460831447215589
13,0.3434847510346437,0.34343506503046
14,0.3435291519943423,0.3430120056971131
15,0.34342257579846075,0.34311937444263296
16,0.3433816151017807,0.3450376648908809
17,0.3433670352717109,0.3429602168629838
18,0.34322769244133283,0.3435120504636031
19,0.343267221509952,0.34347599568792964
20,0.34314514868858403,0.3430833570270917
21,0.3432211049243334,0.34313413880894855
22,0.3431596390410866,0.34303986121052255
23,0.34310667192225525,0.34288509464441397
24,0.34307003999663244,0.34280336584997534
25,0.34304095076819846,0.3429542546828391
26,0.3429535113092536,0.343601159644186
27,0.3430037605332728,0.3425818134921952
28,0.34297807461638535,0.3473015911969594
29,0.3429311981084236,0.3432596165400285
30,0.34297795331591235,0.3430061570172274
31,0.3428919515310018,0.34253510118418234
32,0.3429104029079997,0.342555549467172
33,0.34286760352110685,0.3436894586896778
34,0.34279673099928015,0.34253054811404304
35,0.34280707939811034,0.3428609927150215
36,0.3428192670661532,0.34246431816896195
37,0.34273319412775916,0.3437962413425777
38,0.3428173250646936,0.342543960076112
39,0.34278067785197547,0.3439260597412403
40,0.3427191292896769,0.3426240331038056
41,0.3427642693683479,0.3443805129741025
42,0.34274589359579644,0.34274172018242827
43,0.3426867322476002,0.34252014921853324
44,0.34268429760678226,0.34253782492417556
45,0.342689497940666,0.34244964538377803
46,0.3426986614628007,0.3424314861114208
47,0.34266821534698544,0.34251958177639885
48,0.3426055774508584,0.3432773859565962
49,0.34266284936470937,0.34283305646172235
50,0.3425900197925538,0.3427805075278649
51,0.34266817452315596,0.3426091316911778
52,0.3426271267489183,0.342330687232408
53,0.34253710756196365,0.3431971109830416
54,0.34262870158912645,0.34237694045154393
55,0.3425966918084316,0.3424639298513569
56,0.3426278683499386,0.3444340663719414
57,0.3426187341292204,0.34277607334162996
58,0.3425261909607422,0.3427187552966788
59,0.34258253721156484,0.3451842866227881
60,0.342562854785787,0.34341775252860474
61,0.34256593732785523,0.3422656474722822
62,0.3425454370868466,0.34299596006757865
63,0.3425213723873471,0.34238102672709425
64,0.3425744138244405,0.34305060214499383
65,0.3424691224024529,0.34226923099818357
66,0.3425591601418571,0.3427030792898931
67,0.3425041785318078,0.3432818062252206
68,0.34253523197036945,0.3430974061376699
69,0.342517084544639,0.34244035052010796
70,0.34247108249726405,0.3426877026966133
71,0.342520017690936,0.3424198602920135
72,0.34251119843076555,0.3422740314054134
73,0.34243417039526014,0.34214860084039106
74,0.34244452256271685,0.3426428064371161
75,0.3424840957295912,0.34253480758323857
76,0.34240354511290433,0.34337318604696476
77,0.3424854772942783,0.3421478459616157
78,0.3425354406501268,0.34410299975286346
79,0.34245695532519155,0.3426455343479554
80,0.34242065887477613,0.34221337921270367
81,0.3424699068743117,0.3422760690116409
82,0.3424200212984977,0.3429047426278183
83,0.3424720247110905,0.34242834799342947
84,0.3423888520355082,0.3420642220648583
85,0.3424624215726544,0.3455951131455064
86,0.34241604083530436,0.3425818530412821
87,0.3424483785732798,0.34224758952782114
88,0.34240909085491966,0.34234108365794863
89,0.3424179195262045,0.34224360330820675
90,0.34243514261058805,0.34209729777672154
91,0.3423753886508963,0.34232866898659736
92,0.34245585403785556,0.34225419415137903
93,0.3424226215218408,0.3428490563598519
94,0.3423968935501575,0.3427263125296562
95,0.34240064992699065,0.34234161084106485
96,0.3424154969201434,0.3423890345149833
97,0.34242157105791443,0.3428019628335465
98,0.3423236333559193,0.3422711514065934
99,0.3423507973387871,0.3423412214437726
100,0.3423971793887472,0.3422322987622718
101,0.34239766284535694,0.34230267266481745
102,0.3423864000026069,0.34287441445343547
103,0.3423535071118245,0.34335300382550243
104,0.3423376884602565,0.34230806701828176
