epoch,loss,val_loss
0,0.7204742516676301,0.717746837914138
1,0.7175718980763109,0.717294288657735
2,0.717172855279269,0.717424134462702
3,0.7169490813131445,0.7169541188564253
4,0.6959043253253151,0.4337472659038847
5,0.43364074664254676,0.4332443614899373
6,0.4334387713435739,0.43325014359897773
7,0.43336032161766475,0.43327409735980166
8,0.43324894334436265,0.432995160948254
9,0.4331531840568106,0.432809327583455
10,0.4330755868115803,0.43310891342518054
11,0.43295902757683086,0.43318586685225624
12,0.432966683326111,0.4326105563279713
13,0.43288561451282215,0.43286331520778665
14,0.432864376052894,0.4325160880094722
15,0.4328034975732992,0.43317064950543066
16,0.43277659102884075,0.4328127759414039
17,0.43271879124380475,0.4324979126601302
18,0.4327294445858539,0.43243049973293807
19,0.43267913739992453,0.4326807710875944
20,0.43267081382122824,0.433106829007861
21,0.43268313763036276,0.43260492025770564
22,0.43265584272844576,0.4327259327282681
23,0.432640835786973,0.4333244092411202
24,0.4326498616723979,0.43256763567403883
25,0.432586137579612,0.4323720686045237
26,0.4326328365440472,0.43238145158841057
27,0.4325947099610213,0.4324399624213983
28,0.4325731669842358,0.4323914666033856
29,0.4325751049129756,0.4324429942123943
30,0.4325425654345641,0.4322946018379912
31,0.43253984173121585,0.43223279875797904
32,0.43253289728998245,0.4345756805564275
33,0.4325446822131299,0.4324762400267438
34,0.4325013966292383,0.43253734895668317
35,0.43253299547700147,0.43248695354012046
36,0.4325392534511757,0.43283004013835347
37,0.4325351749595179,0.4323000666373421
38,0.4325432066749494,0.43261400150601975
39,0.43247725550648874,0.4325400514726899
40,0.43251847614650196,0.43225732281545254
41,0.43252752320762444,0.4323420919792232
42,0.43247173422958446,0.4323743161877095
43,0.4325093644693094,0.4324047385463052
44,0.4325059396109216,0.4323051739567267
45,0.43247670507166297,0.4323956313263394
46,0.4324747052005862,0.43253123093183815
47,0.43247724708732577,0.43311546745134644
48,0.4324847955520317,0.4326592484567656
49,0.43245442672717743,0.432229005358651
50,0.4324657583608706,0.4322312842527631
51,0.4324877164482217,0.43236230125202435
52,0.43244876483968114,0.43224675460133893
53,0.43242495530124403,0.43227601829296897
54,0.4324435351152433,0.4330683817342848
55,0.4324213423235105,0.4322439127613238
56,0.43243810925854326,0.43233139966025247
57,0.4324092897750268,0.43221913978420473
58,0.4324158217987539,0.4323242485966931
59,0.4324339958494068,0.43223190039913945
60,0.43243366803095995,0.4323085075572466
61,0.432444794677006,0.4324938575328136
62,0.43238262489951385,0.43228308170959906
63,0.43239482745313856,0.43457531698288454
64,0.43241324048993246,0.43221775584717836
65,0.4323722296718998,0.4323944729995491
66,0.4323773929584689,0.43258172708468756
67,0.43238546172437037,0.4322829577230638
68,0.43239900886793975,0.43229120505358976
69,0.43236841354448874,0.43220754002519046
70,0.4324069861187308,0.4328629041871717
71,0.43236672073384563,0.4332407742368968
72,0.43238350975251727,0.4323237036357151
73,0.432382695393537,0.4323004049639548
74,0.43239040928576333,0.43231622345985904
75,0.4323966220170928,0.43261012596172965
76,0.4323838140666457,0.4322214431117841
77,0.43235388677178993,0.4324263055034666
78,0.43240102631686894,0.43245208778097377
79,0.43234440139632696,0.4323797785762522
80,0.43238950418078015,0.4324374368409661
81,0.4323496727578761,0.4322185562355051
82,0.43239253372818914,0.43367951479798217
83,0.4323170961520839,0.43221230648883224
84,0.4323647609727088,0.4322180128718724
85,0.4323447739310758,0.43236983051666844
86,0.4323544579535852,0.4322522581806845
87,0.43237255705964645,0.432645175282476
88,0.4323172464759115,0.4321287624889213
89,0.43235748634851623,0.43224337010762237
90,0.4323322489486727,0.4322313380300555
91,0.43232433788569186,0.4325550824921421
92,0.43230830428752115,0.4321959755113048
93,0.43236789908259365,0.4331633978239064
94,0.4323164556583245,0.4322093490335545
95,0.43232184357041786,0.43267269078318593
96,0.4323201088765491,0.43217442188014465
97,0.43229171406537886,0.4326542247761568
98,0.4323432747809019,0.43216627701636284
99,0.4323201781076584,0.4339753870336944
100,0.4323339664508205,0.4321413905241945
101,0.43229926771584115,0.4321915577866008
102,0.4323268884199602,0.4322176801655488
103,0.4323127380867096,0.4322046125053472
104,0.4323045461713219,0.43272814320275566
105,0.4323078768452048,0.4325320762085264
106,0.4323075070374349,0.43218817937167053
107,0.43231971863379126,0.43216603902670053
108,0.43230189619974196,0.43224851681340126
