epoch,loss,val_loss
0,0.506369887193044,0.5028646389643351
1,0.5029835393958622,0.5021659446557363
2,0.5023399511973063,0.5019311978419622
3,0.5020349508788851,0.5021363722483317
4,0.5018867132796182,0.5021012049516042
5,0.5018019778463576,0.5015445570151011
6,0.5017420769135157,0.5016109100580215
7,0.5017379897700416,0.5016124033133189
8,0.5016920313570234,0.5022611703077952
9,0.5016694717009862,0.5016583029826482
10,0.5016705536047618,0.5015714535315832
11,0.5016482756005393,0.5014925345182418
12,0.5016308964358436,0.5016121295293172
13,0.5016242937511868,0.5019816046555837
14,0.5016196854511896,0.5016646116574606
15,0.5016062856515249,0.5015433871348699
16,0.5016121236880621,0.5014653004805247
17,0.5015962318181991,0.5016763973236084
18,0.5015977329545551,0.5015706632137299
19,0.5016054279936685,0.5016104435920715
20,0.5016004520257314,0.501531991203626
21,0.5015770324733522,0.5016090740760167
22,0.5015957041581471,0.5014202363888423
23,0.5015756331152386,0.5015352568626403
24,0.5015772492090861,0.5014509375890096
25,0.5015667481952243,0.5015310644308726
26,0.5015732514593336,0.5014234845240911
27,0.5015639051993688,0.501823556860288
28,0.5015650356610616,0.5014285650253296
29,0.5015614532364739,0.5014101931254069
30,0.5015716909964879,0.5019847388664881
31,0.5015706106821696,0.5015854680538178
32,0.5015629081858529,0.5016902474164963
33,0.5015643276506,0.5013944115638733
34,0.5015391527546776,0.50163414645195
35,0.50155849606461,0.501415675163269
36,0.5015499799251556,0.5015116957028707
37,0.5015485601425171,0.5014705429077149
38,0.5015476122432285,0.5020174057483673
39,0.5015491240554386,0.501447053194046
40,0.5015513538651997,0.5014772094090779
41,0.5015493571493361,0.5014081112543742
42,0.5015500059922536,0.5015962365865707
43,0.5015411107010311,0.5013754860560099
44,0.5015435631540086,0.5014473336935044
45,0.5015373100969527,0.5015951071977616
46,0.5015406235721376,0.501425342520078
47,0.5015498963859346,0.5014638679027558
48,0.501522695766555,0.5014977754354477
49,0.5015334999031491,0.5014006326198578
50,0.5015357084406746,0.5014405821164449
51,0.5015327680508296,0.5015180689096451
52,0.5015447045564652,0.5019949298699696
53,0.5015184445248709,0.5013572376171748
54,0.5015353444019953,0.5016490010420481
55,0.5015226746930016,0.5013916713794072
56,0.5015182433525721,0.5014504518111547
57,0.5015408662425147,0.5014796941280365
58,0.5015249463717143,0.5015729235013326
59,0.5015238351821899,0.5015609254837036
60,0.5015238103336758,0.5014489047129949
61,0.5015231950415505,0.5013775667349497
62,0.5015279898908404,0.5014192532698314
63,0.501523252858056,0.501635400891304
64,0.5015226915942298,0.5014392967621485
65,0.5015145532422596,0.5014121260643005
66,0.5015093751748403,0.5014304005304973
67,0.501530417336358,0.5014540882905324
68,0.5015153932703866,0.5015741237799327
69,0.50153059261375,0.5013792169888814
70,0.5015209936565823,0.5014242721001307
71,0.5015137621826595,0.501654466509819
72,0.5015252640512254,0.5013434090614319
73,0.5015202138821284,0.5018758614857991
74,0.5015137842231326,0.5015194002787272
75,0.501522043188413,0.5018742285966873
76,0.5015165788729986,0.5015144064029058
77,0.5015231321122912,0.5014994005362193
78,0.5015114422506757,0.5013859373728434
79,0.5015162714454863,0.5014202191034953
80,0.5015117024183273,0.5015056460301082
81,0.5015139294730292,0.5015523619254431
82,0.5015144891606437,0.501550819158554
83,0.5015096416473389,0.5013575305541357
84,0.501517357521587,0.5015202789306641
85,0.5015091744926241,0.5014274684985479
86,0.50151866710186,0.5014755954345067
87,0.5015134675767686,0.5013718562920888
88,0.5015115157498253,0.5015794847806295
89,0.5015253248214722,0.5013385651906331
90,0.5015000349680583,0.501458582441012
91,0.5015089879698224,0.501535873691241
92,0.5015020248095194,0.5013854382435481
93,0.5015044678846995,0.5014948827823004
94,0.5015103043052885,0.5014102677504222
95,0.5015019984377755,0.5014491169055303
96,0.5015216758648554,0.5014589919646582
97,0.5015003541178173,0.5013696230252583
98,0.5014966295560201,0.5014186161359151
99,0.5015106756687164,0.501721616824468
100,0.5015142950746748,0.5014907157421112
101,0.5015062036116918,0.5014485587676366
102,0.5015179586145613,0.5015367136796316
103,0.5014970936510298,0.5014157461325327
104,0.5015201145675448,0.501455409526825
105,0.5015102442635431,0.5013476837078731
106,0.5015009182426664,0.5015329261223476
107,0.5015067522525787,0.5013633093833924
108,0.5015013550387488,0.5014315121173859
109,0.501515781574779,0.5016246211131413
