epoch,loss,val_loss
0,0.5023796053859922,0.4891865679423014
1,0.48665845040480293,0.48633916666110355
2,0.4749792177610927,0.4695132327278455
3,0.46853173083729216,0.4686336731115977
4,0.468418067044682,0.4682381064891815
5,0.46836468984683355,0.4684383180538813
6,0.46833139095703763,0.468199299633503
7,0.4683027385539479,0.468145694176356
8,0.46829318082994886,0.46812327216068905
9,0.46827543385161297,0.4682210469841957
10,0.46823800313472747,0.4680857102870941
11,0.4682281449900733,0.46808236922820406
12,0.46823920059866375,0.4681186250050863
13,0.4682267384396659,0.468075842499733
14,0.46821324102083844,0.46821066361665725
15,0.46821027707391316,0.46828344496091207
16,0.46820375894837907,0.4682356107036273
17,0.4681874276995659,0.46806816599766415
18,0.4681789072089725,0.4680519460241
19,0.4681989966498481,0.46805196076631544
20,0.4681890252828598,0.46812370042006174
21,0.4681738511191474,0.46817344242334363
22,0.4681765036914084,0.4686252124110858
23,0.46816460365719265,0.4681301647822062
24,0.46816912342442407,0.46808019320170086
25,0.4681517297691769,0.46836027717590334
26,0.46816115376684403,0.4680153120358785
27,0.4681645641856723,0.4680608979066213
28,0.4681534202694893,0.46812210776408514
29,0.46815468088123535,0.46834726160764695
30,0.4681347611414062,0.4681902796228727
31,0.4681463903983434,0.46803902196884156
32,0.4681383645799425,0.46838685222466786
33,0.4681463978687922,0.4680915810863177
34,0.46813196275631586,0.46813306790590287
35,0.4681397528913286,0.4680969966252645
36,0.4681432600683636,0.4692703618605932
37,0.46812194612291125,0.4682630154887835
38,0.4681147834592395,0.46806679491202036
39,0.4681087537076738,0.46804806476831434
40,0.46811686276727255,0.4680689839919408
41,0.46812060417731605,0.469005584915479
42,0.4681163058082263,0.46829341928164164
43,0.4681124818192588,0.46822019096215567
44,0.46810912428299584,0.468017404794693
45,0.46811144796344967,0.4682495230833689
46,0.4681126365065575,0.46802460594971973
