epoch,loss,val_loss
0,0.5962247215509414,0.5919683770736058
1,0.5922439877324635,0.5918880469799042
2,0.5868496639861001,0.5738209015925725
3,0.5572746220032374,0.555988822499911
4,0.5562136204772525,0.5566269740660985
5,0.5561691479153104,0.5560157234668732
6,0.5561426425774892,0.5560598936080933
7,0.5561010917954975,0.5564805268843969
8,0.556103088511361,0.5565878959496816
9,0.5560968945953582,0.5560511445999146
10,0.5560566956864463,0.5562134234905243
11,0.5560491937531366,0.5559042737483978
12,0.5560309408373303,0.5558900897502899
13,0.5560132000313864,0.5558884116411209
14,0.5560176297956043,0.5560590840975443
15,0.5559894473287794,0.5559675908883412
16,0.5559842522144318,0.5560522745052974
17,0.5559817147254944,0.5558622036774953
18,0.5559788162178464,0.5560719867547353
19,0.5559658910698361,0.5562027117411296
20,0.5559584228595098,0.5566821776628494
21,0.5559546342690785,0.5560033196210861
22,0.5559517933924993,0.5558887087504069
23,0.5559511947764291,0.5559077316125234
24,0.555946367210812,0.5558776571750641
25,0.555943200773663,0.5559161276817322
26,0.5559487386279636,0.5559973120292028
27,0.5559324478970633,0.5558609714110693
28,0.5559375080929863,0.5560805978775024
29,0.5559396558735106,0.5558483113050461
30,0.5559325765901142,0.5559239958922069
31,0.5559292165835699,0.5560507641633352
32,0.5559304605457518,0.5558635735909144
33,0.5559230575826433,0.5561295634110769
34,0.5559199725389481,0.555910582502683
35,0.5559204275608063,0.5559476909240086
36,0.5559274549616707,0.555876208225886
37,0.5559204864899318,0.5560680799881618
38,0.555923794137107,0.5559612849553426
39,0.5559191106557846,0.5558465472062428
40,0.5559244623449113,0.5558474748531977
41,0.5559145480659273,0.555867235938708
42,0.5559257450766033,0.555844074289004
43,0.5559146605597602,0.5559133754173915
44,0.555912633061409,0.5558229198058446
45,0.5559145580132803,0.5558375174204508
46,0.5559106095234553,0.5560621247688929
47,0.5559052661789788,0.5558259803851445
48,0.5559143670532438,0.5558450674215952
49,0.5558985307349099,0.5558721428314845
50,0.5559101028442383,0.5560314265092214
51,0.5558999914328258,0.555869143207868
52,0.5559042454030778,0.5559141574700673
53,0.5559135046005249,0.5559005757172902
54,0.555910331606865,0.5562397207419078
55,0.5559077509906557,0.5558914604981741
56,0.5559081775082482,0.55588430138429
57,0.5559060271051195,0.5560648297866185
58,0.5559047665463553,0.5558744993209839
59,0.5559061659839418,0.5558253416617711
60,0.5558954561683866,0.555823899547259
61,0.5559074691534043,0.5561303024689357
62,0.5559008525742425,0.555853405157725
63,0.555911087234815,0.5561031042337418
64,0.5559004524813758,0.5559313443899154
