epoch,loss,val_loss
0,0.6682843813101451,0.6668414843082427
1,0.6669188132153617,0.6670165734291077
2,0.6668633727894889,0.6668685422341029
3,0.6668428527116775,0.6667709172566731
4,0.6668261180983649,0.6668330573240916
5,0.666815334531996,0.6668176924387614
6,0.6668104025390413,0.6667807474533717
7,0.6668010852866703,0.6668037420511246
8,0.6667981643146939,0.6667654999494552
9,0.6667906896273295,0.6667544819116592
10,0.6667872547573513,0.6667756435871124
11,0.6667847579850091,0.6667531940142314
12,0.666786456545194,0.6667637823820114
13,0.6667829294866986,0.6667585846583048
14,0.6667805137766732,0.6667584548393886
15,0.6667809720171822,0.6667860877116522
16,0.6667786650657653,0.6667699151436488
17,0.666775677230623,0.6667478844324748
18,0.6667755183246401,0.6667535426616669
19,0.6667730245457755,0.6667730468511581
20,0.6667744510571162,0.6667524623076121
21,0.666774281832907,0.6667937273184459
22,0.6667731972932815,0.6667543673515319
23,0.6667717771795061,0.6667546153465906
24,0.6667718505329556,0.6667791512409846
25,0.6667702186769909,0.6667478624184926
26,0.6667713551653756,0.6667597580750784
27,0.6667704273197386,0.6667924448649089
28,0.6667693893114726,0.6667701314687728
29,0.6667687331173155,0.6667553775707881
30,0.666768559495608,0.6667704441547394
31,0.6667686489025751,0.6667542055050532
32,0.666768096195327,0.6667843230168025
33,0.6667681574953926,0.6667502045234044
34,0.6667673665285111,0.6668355177640914
35,0.6667671171956592,0.6667775853474935
36,0.666766717950503,0.666760746439298
37,0.6667676586177614,0.6667493645747503
38,0.666765842239062,0.6667459329764048
39,0.6667651652362612,0.6667565807501475
40,0.6667657550705803,0.6667461998860041
41,0.6667649278640747,0.6667866586446762
42,0.6667630295091205,0.6667555324236552
43,0.6667633852296405,0.666748142838478
44,0.6667631718715032,0.6667591331799825
45,0.666762523399459,0.6668262147506078
46,0.6667632191313637,0.6667487010161082
47,0.6667621408171124,0.6667803169886272
48,0.6667622375355826,0.6667551267544428
49,0.6667624788416756,0.6667638563315074
50,0.666762146724595,0.6668113939762116
51,0.6667625455458959,0.6667744683027268
52,0.6667610215346018,0.6667545959949494
53,0.666762061993281,0.6667527200380962
54,0.6667616871860292,0.6667512184381486
55,0.666761944466167,0.6667596961657206
56,0.6667617849641376,0.666752454996109
57,0.6667611160145865,0.666747877518336
58,0.666761088291804,0.6667515737215678
