epoch,loss,val_loss
0,0.5576702817016178,0.5580356415907541
1,0.5558946609364616,0.5557779627243677
2,0.5558237247069677,0.555705864350001
3,0.5557952357927958,0.5558789450724919
4,0.5557724842892753,0.555732330997785
5,0.5557604884836409,0.5557021242777507
6,0.5557486003902223,0.5557239082654317
7,0.5557401056024763,0.5557574295997619
8,0.5557377754847209,0.5556740687688192
9,0.5557301076120801,0.5557155286471049
10,0.555723581009441,0.5557119790712992
11,0.5557227427032259,0.5557116139729817
12,0.5557192609972424,0.5557235482533773
13,0.5557134739425448,0.5556770608027776
14,0.5557139905691146,0.5557194137175878
15,0.5557124366230435,0.5557381822268168
16,0.5557074363231659,0.555690846602122
17,0.555706857363383,0.5557018570502599
18,0.5557037911017736,0.555673369050026
19,0.5557046607732773,0.5556769751707713
20,0.5557009867164824,0.5557186713616054
21,0.5557018413411247,0.5557014851967493
22,0.5557012784481049,0.5556989747683208
23,0.5556975322431988,0.5556735125780106
24,0.555696237511105,0.5557035592397054
25,0.5556929044061237,0.5558309831619263
26,0.5556926649676429,0.5556695754528046
27,0.5556924654112921,0.5556711993217468
28,0.5556910244226456,0.5556898739337921
29,0.5556919094589021,0.5556758797566096
30,0.555689003639751,0.5556761268377304
31,0.5556906458536783,0.5556869836648305
32,0.5556882146199544,0.5556671389738719
33,0.5556886913246578,0.555667132973671
34,0.5556890545950995,0.555662577867508
35,0.5556888154745102,0.5556644938786824
36,0.5556860736343596,0.5556588909626007
37,0.5556877226432164,0.5557476912339528
38,0.5556842733224233,0.5557215357621511
39,0.555684878481759,0.5556657658020655
40,0.5556857006417381,0.5556747262875239
41,0.5556860292752583,0.5557031324704488
42,0.5556836228503121,0.5557946081161499
43,0.5556845067739486,0.5556607577800751
44,0.5556838665538364,0.5556957410971324
45,0.5556822325521045,0.5557627484798432
46,0.5556840823888779,0.5556685247421265
47,0.5556847497092353,0.5556585737069448
48,0.5556830531093809,0.555665201942126
49,0.5556840330892139,0.5556726406415303
50,0.5556836977005005,0.555660605430603
51,0.5556831574042638,0.5556875922679901
52,0.5556820087432861,0.555719907840093
53,0.5556831933392419,0.5557916047573089
54,0.5556822445392609,0.555678061167399
55,0.555683712085088,0.5556685613791148
56,0.5556819903188281,0.555667904694875
57,0.5556814180877474,0.5557177106539408
58,0.5556823383304808,0.5556883732477824
59,0.5556827746232351,0.5556667203903198
60,0.5556824667718675,0.5556601117451986
61,0.5556833509604137,0.5556866285800934
62,0.5556820625331667,0.5556705029010772
63,0.5556823127004835,0.5557274006605148
64,0.5556816080146366,0.5556728903055191
65,0.5556811577081681,0.555690157254537
66,0.5556826073328655,0.5556713207960129
67,0.5556818281147216,0.5556732060511907
