epoch,loss,val_loss
0,0.44740515177779727,0.4454828162789345
1,0.4449085149301423,0.4447468800942103
2,0.4448081372645166,0.44465657204389575
3,0.4447582262158394,0.4447440883517265
4,0.44472888078954487,0.44461002824703855
5,0.444704210029708,0.4446175403594971
6,0.44468822430902055,0.44459579118092857
7,0.4446774532198906,0.4447905062834422
8,0.4446693981356091,0.44463309715191524
9,0.44466223811440997,0.44461524101098376
10,0.444657000111209,0.4445990830659866
11,0.44465332282914055,0.4446489105025927
12,0.4446487297680643,0.44463427301247915
13,0.4446437070171038,0.44459795955816905
14,0.4446408403052224,0.44472855641444525
15,0.4446399985684289,0.4447094626625379
16,0.4446354687809944,0.444671408812205
17,0.44463327138291464,0.4446120257973671
18,0.4446294922232628,0.4446775562763214
19,0.44462647257910837,0.4446900905370712
20,0.4446252014901903,0.4447071404854457
21,0.44462409545315634,0.4445784533818563
22,0.44462205129199556,0.4446793937285741
23,0.4446218476957745,0.44460798501968385
24,0.4446179142859247,0.44459159711996715
25,0.4446178465021981,0.44459146352608997
26,0.4446170580652025,0.4445861468911171
27,0.44461693956454595,0.44461651291449866
28,0.4446139105161031,0.4445884992281596
29,0.4446126469042566,0.44459115811189015
30,0.4446131352186203,0.4445790618459384
31,0.444613431625896,0.4445954791903496
32,0.44460818978150685,0.4446012981335322
33,0.4446098865005705,0.44458552640676496
34,0.44460951409074995,0.4445939246416092
35,0.44460947518878513,0.4445858741402626
36,0.44460739856958387,0.4446114934682846
37,0.44460737822453184,0.4446567410826683
38,0.4446094347834587,0.4445985358158747
39,0.4446062920490901,0.44459189158678053
40,0.44460747830735314,0.4446962887247404
41,0.44460675698518753,0.4446201886733373
