epoch,loss,val_loss
0,0.4470747366083993,0.4446565532485644
1,0.44486900397141776,0.4447759581605593
2,0.44479625622431435,0.44463404929637906
3,0.44473031233416666,0.4446680311957995
4,0.4447145949403445,0.44469346169630686
5,0.4446959569255511,0.4446435576677322
6,0.4446891290810373,0.44463549480835596
7,0.44467541221115325,0.4447519150177638
8,0.4446696063876152,0.44463899997870127
9,0.444658505598704,0.4446548477212588
10,0.4446525766319699,0.4446948449412982
11,0.4446510119173262,0.4446286492149035
12,0.4446445339189635,0.44460046269496284
13,0.4446385702689489,0.44462747861941654
14,0.44463780899180305,0.4446231013337771
15,0.44463400653335783,0.4446169342796008
16,0.4446356493698226,0.4446731799642245
17,0.44462865169843035,0.4448020255366961
18,0.4446279144287109,0.4446005433996518
19,0.4446309507952796,0.4445913297931353
20,0.44462535536289216,0.4446443749864896
21,0.44462435423665575,0.44463109703858694
22,0.44462578223811255,0.4447187067071597
23,0.44461888339122135,0.4446066255569458
24,0.4446211593283547,0.4446370743314425
25,0.44461973622772427,0.4446103249589602
26,0.4446226032177607,0.44461328452825544
27,0.4446188024812274,0.4445876550277074
28,0.44461543448103796,0.4446082577904065
29,0.4446176491379738,0.4445823362270991
30,0.4446138392819299,0.44460204609235127
31,0.4446149356762568,0.44465010223786033
32,0.4446125917368465,0.44459504330158234
33,0.44461223276456197,0.444685503979524
34,0.4446103521519237,0.4445934024055799
35,0.44461082718107436,0.44459997687737146
36,0.4446098200149006,0.44458138483762744
37,0.4446087224351035,0.44458274958531063
38,0.4446064275039567,0.4446082038283348
39,0.4446095989677641,0.4445931884646416
40,0.444609154370096,0.4446325391530991
41,0.44460600764221614,0.4446743939320246
42,0.44460768732759687,0.44461085363229114
43,0.44460751415623556,0.4445896314581235
44,0.444607658498817,0.44458336448669433
45,0.44460818230443533,0.44458230499426526
46,0.4446046336955494,0.44465542687972387
47,0.44460653656721116,0.44458045132954915
48,0.44460618600580426,0.444584497988224
49,0.4446074694328838,0.4445905844569206
50,0.444603192600939,0.44463206801811855
51,0.4446067377527555,0.4446005476911863
52,0.44460606040557227,0.4445956918199857
53,0.44460252024730046,0.44457822340726855
54,0.44460527339246536,0.44462049782276153
55,0.4446037816405296,0.4446788847843806
56,0.4446020080513424,0.44458864742517473
57,0.44460249812735453,0.4445797618031502
58,0.4446034870346387,0.4445920712153117
59,0.44460487829976614,0.44466550747553507
60,0.44460020871957145,0.44464055840174355
61,0.4446038024293052,0.4445808340907097
62,0.4446018314626482,0.4445896654725075
63,0.44460051077604296,0.4445923813978831
64,0.44460398579968347,0.4445727134346962
65,0.4446011871496836,0.44461147755384445
66,0.4446016721394327,0.4445774417122205
67,0.44459976763195463,0.44465268711249034
68,0.4446016941865285,0.4445834472179413
69,0.4446011945936415,0.4445951981743177
70,0.4446006317138672,0.44459851551055907
71,0.4446030840410127,0.44458362030982973
72,0.44460149092144435,0.44461922605832416
73,0.4445993378692203,0.4445824174682299
74,0.4446006433566411,0.4445720138748487
75,0.44460091969039706,0.44466990848382315
76,0.44460193447934254,0.4445827827254931
77,0.4446006233890851,0.4446341499686241
78,0.4446012105014589,0.4446092900832494
79,0.44460059638818106,0.44457945148150124
80,0.444600240945816,0.444602344930172
81,0.44459859063890245,0.4445878347357114
82,0.4446012909611066,0.44458699371417365
83,0.44460044832362067,0.44459151208400727
84,0.4445990707741843,0.4445895444949468
85,0.44459873195489247,0.4445811551411947
86,0.44459980551401773,0.4446052556037903
87,0.4446006003220876,0.4445907573103905
88,0.4445985570086373,0.44460851862033207
89,0.44459844462076825,0.4445854695041974
90,0.44459944955507913,0.4445838998556137
91,0.44459909897380406,0.44457767925659814
92,0.44459915549225276,0.444599984784921
93,0.44460032290882534,0.4445722418824832
94,0.4445991708106465,0.4446343207557996
