epoch,loss,val_loss
0,0.22719810977578164,0.22270974705616634
1,0.22295219743582936,0.22430105661352476
2,0.22280183901058304,0.22269546309113503
3,0.22273094972305826,0.22260062544544537
4,0.22270367293225393,0.22260635645190874
5,0.22266978512538804,0.22272179538011552
6,0.22265619840886858,0.2226445801158746
7,0.22265714788768026,0.22255341299374898
8,0.2226427484287156,0.22257759708166122
9,0.22263413969344564,0.22262161075075468
10,0.2226294534007708,0.22275219190120696
11,0.22261768714586894,0.2226040702064832
12,0.22261403964294327,0.22255808422962825
13,0.22261169195837444,0.22278139760096868
14,0.2226018152733644,0.22284871019919714
15,0.22260041395492025,0.22257519872983297
16,0.2225922026766671,0.22257807116707165
17,0.22259230231576496,0.22278809454043708
18,0.22258779640661347,0.22253380885720253
19,0.2225842813220289,0.22254947904745737
20,0.22258326496018305,0.22256308217843374
21,0.2225800810125139,0.22259837161501247
22,0.22257551068398687,0.22257366444667182
23,0.22257697476943333,0.22258673103650412
24,0.22257448202371596,0.22252981454133988
25,0.2225713475048542,0.22253054414192835
26,0.22257500607768693,0.22252578895290692
27,0.22257046460443072,0.22256709175308545
28,0.22257078539994027,0.22260353281100592
29,0.2225726063615746,0.2225235345462958
30,0.22256990123788517,0.22253732735912005
31,0.2225695806278123,0.22254364851117134
32,0.22257074275281694,0.22253700737158458
33,0.22256794431474475,0.22260034403204917
34,0.222564826067951,0.2226719990968704
35,0.22256273865037493,0.222577443977197
36,0.22256475025084282,0.22255556949973107
37,0.2225615414811505,0.22253552441795668
38,0.22256409488783943,0.22255665573477745
39,0.22256326383021144,0.22259137684106828
40,0.22256067583958308,0.22252153475085895
41,0.22256195998854109,0.2225218986372153
42,0.22255937126278877,0.2226420235534509
43,0.22255870487954882,0.22252831423282624
44,0.22255634214811854,0.22254946904381115
45,0.22255794730451373,0.22252233603596688
46,0.22255733692314889,0.22254561759034794
47,0.2225552990105417,0.22257798931996028
48,0.22255367630389003,0.22259015289942424
49,0.2225551060901748,0.2225659005244573
50,0.2225579047964679,0.22253998653093973
51,0.22255562617381414,0.22259038245677948
52,0.2225521239903238,0.22252864905198416
53,0.22255514313115013,0.2225254232287407
54,0.22255398028757836,0.22254949019352596
55,0.2225528210500876,0.2226309280693531
56,0.22255518118871584,0.2225276397963365
57,0.22255732089943356,0.22252532041072845
58,0.22255204910371038,0.22254243363936743
59,0.22255684982405768,0.22261465201775232
60,0.22255458021826213,0.22261557283004124
