epoch,loss,val_loss
0,0.6688999522924424,0.6668810133934021
1,0.6669422032833099,0.6668173467318217
2,0.6668779510524537,0.6668533100684484
3,0.6668474040163888,0.6667859845558802
4,0.6668363612625334,0.6668324356079102
5,0.6668282816939883,0.6667995973825455
6,0.6668188570472929,0.6667705674568812
7,0.6668148476945029,0.6667717388073603
8,0.6668097240527471,0.6667816763718923
9,0.6668018881612354,0.6667809013128281
10,0.6668030342658361,0.6668344246149063
11,0.666797175831265,0.6667971349557241
12,0.6667949064837562,0.6667944672107696
13,0.6667903948757383,0.6667702784140904
14,0.6667909420728684,0.6667824968894323
15,0.6667893787754906,0.666848006606102
16,0.6667882054381901,0.6667777948776881
17,0.666786201066441,0.6667946364084879
18,0.6667850379943847,0.6667874390681585
19,0.66678410771158,0.6667719113826752
20,0.6667819990317027,0.6668205267190933
21,0.6667817419634925,0.666771773537
22,0.6667819806204902,0.6668120485544204
23,0.6667822048664093,0.6667725312312444
24,0.6667829813692305,0.6667753289143244
25,0.6667809722026189,0.6667612399260203
26,0.666781475689676,0.6667538514534632
27,0.6667807072136137,0.6668011919260025
28,0.6667791730165482,0.6667701900402705
29,0.6667806105216344,0.6667672138214111
30,0.6667801197634803,0.6667683719396591
31,0.6667789676056968,0.6668057451248169
32,0.6667788236671024,0.6667958575487137
33,0.6667787171734704,0.6667683024803798
34,0.6667790692779753,0.666763188123703
35,0.6667768846750259,0.6667997636000316
36,0.6667765409151714,0.6667665878136952
37,0.6667755503786935,0.6667597666581472
38,0.6667761919895808,0.6667541340192159
39,0.6667757770750258,0.666790466427803
40,0.6667745815780428,0.6667713255882263
41,0.666774397359954,0.6667591255108516
42,0.666775769299931,0.6667546719710032
43,0.6667741640408834,0.6668021705150604
44,0.6667735549476411,0.6667913874785105
45,0.6667733327150345,0.6667835553487141
46,0.6667722219228744,0.6667831368048985
