epoch,loss,val_loss
0,0.4470430939859814,0.44976147172848385
1,0.4448508591188325,0.4446717626253764
2,0.4447831868794229,0.4447479672630628
3,0.44474234270387225,0.44468035966157915
4,0.44472104809681573,0.44463841102520624
5,0.4446960711677869,0.44462435714403786
6,0.4446801614430216,0.4446303357084592
7,0.4446678753031625,0.44464064621925353
8,0.4446572062969208,0.44485712188482285
9,0.4446540418134795,0.44459912995497386
10,0.4446448993881543,0.4446203225453695
11,0.4446424370540513,0.4448208446105321
12,0.4446412591735522,0.4445917165080706
13,0.444635885781712,0.4446021385391553
14,0.44463518443372513,0.4446500221292178
15,0.4446294665402836,0.44459705517689385
16,0.4446274729304843,0.4445931656559308
17,0.4446252418491575,0.444633106191953
18,0.44462585956520506,0.44459646940231323
19,0.4446261654297511,0.4445837968587875
20,0.44462344293461903,0.44459591815869015
21,0.44462317801846396,0.44457787783940633
22,0.4446185571418868,0.4446004093090693
23,0.44461806406577425,0.4446118376851082
24,0.4446174862980843,0.4445833057761192
25,0.4446121252046691,0.44458221089839933
26,0.44461618841356704,0.444696752289931
27,0.44461576167080136,0.4445908246835073
28,0.44461497051848303,0.4445842806696892
29,0.44461427785290614,0.44459440926710764
30,0.4446130045917299,0.4445903217792511
31,0.4446091822716925,0.4445849525531133
32,0.4446107502248552,0.44461912421385447
33,0.44460980646477805,0.4445899226665497
34,0.44461022769080266,0.44460871495803195
35,0.44461055460241106,0.4446251114010811
36,0.4446098693344328,0.4446031591097514
37,0.44460847316847907,0.44458661472797395
38,0.4446105031702254,0.4445779057939847
39,0.44460933566093447,0.44458343782027565
40,0.44460860170258415,0.44459522050619127
41,0.444607828564114,0.4445811615784963
