epoch,loss,val_loss
0,0.7792026080952751,0.7779281028111775
1,0.7779561490747664,0.7778943295081456
2,0.7779192823966344,0.7778704558213552
3,0.7779031686650382,0.7779651611248652
4,0.7778840482897229,0.7778619633515675
5,0.7778690492709478,0.7778417977492015
6,0.7778653869893816,0.7778520753383636
7,0.77786183766524,0.7778419090509414
8,0.7778571260902617,0.7778461109399796
9,0.7778543920384513,0.7778370521068573
10,0.7778531919452879,0.7778645360469818
11,0.7778520022763147,0.7778432136774063
12,0.7778511307107078,0.7778450267314911
13,0.777849776506424,0.7778375929991405
14,0.7778496075073879,0.7778462371826171
15,0.77784866227044,0.777842428723971
16,0.7778472527927822,0.7778464705149333
17,0.7778466872109308,0.7778394882678985
18,0.7778460816012488,0.7778324833313625
19,0.7778467651870515,0.7778539234002432
20,0.7778461232715183,0.7778331486781438
21,0.7778451956775453,0.7778354675769806
22,0.7778443816900253,0.7778341780900955
23,0.7778434055116441,0.7778299450476964
24,0.7778428971767426,0.7778423164288203
25,0.7778438494337929,0.7778494582970937
26,0.7778434980048073,0.7778475517034531
27,0.777843167119556,0.7778396329879761
28,0.7778427046934764,0.7778422892888387
29,0.7778422997527652,0.7778351137638092
30,0.777842788444625,0.7778438876072565
31,0.7778413362767961,0.7778523098627727
32,0.7778417935371399,0.7778409259319305
33,0.7778418735530641,0.7778442252874375
34,0.77784189997779,0.7778558487097422
35,0.777841278605991,0.7778378487825394
36,0.7778418120410707,0.7778523639043172
37,0.7778416634135776,0.7778392667373022
38,0.7778410539891984,0.7778361792167028
39,0.7778404092656241,0.7778316775957743
40,0.7778415127197902,0.7778311768770217
41,0.7778402583334181,0.7778404027223587
42,0.7778413199053871,0.7778558353185654
43,0.7778407712247637,0.7778353574673335
