epoch,loss,val_loss
0,0.7788030760553148,0.7778467075427373
1,0.7779063311947717,0.7780387287139893
2,0.7778798071278467,0.7778478946685791
3,0.7778626723686854,0.7780724935928981
4,0.7778531762626436,0.7778506431579589
5,0.7778471267223358,0.7779435923099518
6,0.7778435526953803,0.7778278685808182
7,0.7778419007990095,0.7778252613941828
8,0.7778387378321754,0.7778206316630045
9,0.7778379896481832,0.7778527217308681
10,0.7778359265327454,0.7778694905440012
11,0.7778340535693699,0.7778481228748957
12,0.7778323954078886,0.777816944917043
13,0.7778318163024055,0.7778169612089793
14,0.7778309758504232,0.7778186533848445
15,0.7778298099305895,0.7778294253746668
16,0.7778295244905684,0.7778221731980641
17,0.7778271902667152,0.7778205438454946
18,0.7778286609914568,0.7778130914370219
19,0.777826979080836,0.7778199038505554
20,0.7778249273035261,0.7778157130877177
21,0.7778221125072903,0.777814310948054
22,0.77782008989652,0.7778096476395925
23,0.777818803495831,0.777812805334727
24,0.7778186110390557,0.7778068494399388
25,0.7778181862698661,0.7778249077796936
26,0.7778183485137091,0.7778128591775895
27,0.7778176896704568,0.7778206039667129
28,0.7778170959552129,0.7778124151627223
29,0.7778162852923075,0.7778459119002025
30,0.7778163681560093,0.7778055454095205
31,0.777816584388415,0.7778113164107004
32,0.777815742969513,0.7778099531332652
33,0.7778158373435339,0.777808658361435
34,0.7778157409164641,0.7779029571612676
35,0.7778150218460295,0.7778042545318603
36,0.7778149561749564,0.7778390911022822
37,0.7778144346343147,0.7778419661124547
38,0.7778146598339081,0.7778076662619908
39,0.7778140382634269,0.7778375257651011
40,0.7778142335679796,0.777810843427976
41,0.7778144631120893,0.7778146446148555
42,0.7778137668768564,0.7778063853184383
43,0.7778134504291746,0.7778102615674337
44,0.7778131488031811,0.7778075323502223
45,0.7778140354686314,0.7778036482731501
46,0.7778133943213357,0.7778151383797328
47,0.7778136485550139,0.7778036833206813
48,0.7778130985233519,0.7778062065839767
49,0.7778139342202081,0.7778112360636393
50,0.7778134104278353,0.7778083508809408
51,0.7778128259049522,0.7778148555358251
52,0.7778130578332477,0.7778076161146164
53,0.7778127187358008,0.7778048140207926
54,0.7778125992748472,0.7778255364100138
55,0.7778123772144317,0.7778057117859523
56,0.7778125219874912,0.7778442247708639
57,0.7778122214873632,0.7778045792977015
58,0.7778127699163225,0.777827096025149
59,0.7778121881352531,0.7778049316008886
60,0.7778128802643882,0.7778122289975484
61,0.7778127269479963,0.7778040825128555
62,0.7778124209774865,0.7778279638290405
63,0.7778127654261059,0.7778112539450328
64,0.7778127131594552,0.7778181294600169
65,0.7778120821979311,0.7778026880820592
66,0.7778124770323436,0.7778198805650075
67,0.7778122415410148,0.7778096081018447
68,0.7778124381701151,0.7778141522804896
69,0.7778124410443836,0.7778399914900462
70,0.7778121280802621,0.7778081213235855
71,0.7778122783634398,0.7778040401538213
72,0.7778124441968071,0.7778054081201553
73,0.7778119920889537,0.7778190596103668
74,0.7778120726082061,0.7778218021790186
75,0.7778124340905084,0.7778153994083404
76,0.7778118769195345,0.7778068226178487
77,0.7778123481803471,0.7778034724791845
78,0.7778117026752895,0.7778120160500208
79,0.7778120692968369,0.7778111282587051
80,0.7778122349182764,0.7778078580300013
81,0.7778122574223413,0.7778151539564133
82,0.7778120638132096,0.7778059989213943
83,0.7778112210300233,0.7778036444981893
84,0.7778121430211598,0.7778117688099543
85,0.7778116730186674,0.7778083942333858
