epoch,loss,val_loss
0,0.5104135666057456,0.4219158548441287
1,0.4203872064130007,0.3577483124448826
2,0.27579655024788075,0.21082181238290731
3,0.2262967760673911,0.20490835743479213
4,0.23187916753270166,0.2090111807541482
5,0.23461186638672193,0.2049244662721795
6,0.2341363025928954,0.21056092006537325
7,0.23561413138866616,0.22248413935362493
8,0.23322479210073332,0.20359285060542723
9,0.22850856687620485,0.2156811118972706
10,0.22786740828856386,0.20854058635921674
11,0.22595516573801505,0.21048882270809602
12,0.2209814548921242,0.2189039259607997
13,0.22104143073780835,0.20366335986586379
14,0.21606276304030017,0.20494381415392343
15,0.2122644867590196,0.1951501946469979
16,0.20490571219834397,0.1904658995445262
17,0.2025045288576306,0.17598686561917543
18,0.19797716934165413,0.17365655179511116
19,0.1925468283007852,0.18926849557879222
20,0.19678452931386198,0.17759752345301547
21,0.24913514772955653,0.27922086725812684
22,0.27772745384062697,0.2509190814647509
23,0.26159662463301,0.2470445221417893
24,0.24998008195373367,0.24690631530655588
25,0.2440171757762095,0.22866530126018042
26,0.23460578589106826,0.217290614661779
27,0.22933961637467026,0.2068505503219606
28,0.21824599999032146,0.18312015821356048
29,0.21821132053335984,0.19731512240001134
30,0.21356394464711395,0.2091224623319194
31,0.20457771073857087,0.1790441182554474
32,0.20732717644229687,0.20291380873560058
33,0.21147220650856063,0.19510894763300338
34,0.20905843319938622,0.19482131880996917
35,0.2128567315524907,0.1865283700548577
36,0.21440769142384153,0.1943130393548565
37,0.20664779916941692,0.17149404489862327
38,0.20424726026521312,0.17539381299935275
39,0.20401808225827442,0.17337929341580421
40,0.20534737945365297,0.1718860520160189
41,0.208042884997422,0.18739390901297967
42,0.20380052297616558,0.16955795247863387
43,0.20839581886331718,0.18160795445694355
44,0.20935174800771222,0.16979406327126811
45,0.2058593161898456,0.18421269965011863
46,0.21126497659585078,0.18206644540427705
47,0.21130697175467328,0.1907767261824649
48,0.21199388450069678,0.1981855134090854
49,0.21206380011771414,0.19872362044917002
50,0.20904015199386244,0.18139030449768645
51,0.21012877456718784,0.18065269708915688
52,0.21157159109552987,0.17628768974387374
53,0.21266625162294442,0.19690673725992652
54,0.2191858606444274,0.20579146899006548
55,0.21664372816098204,0.1907526181735857
56,0.21686813567610955,0.1907944864025244
57,0.216932649008757,0.20006094549524567
58,0.21967645984092396,0.21106912379153808
59,0.22594848914231233,0.2123793065547943
60,0.22413409247601346,0.21207925534991645
61,0.2295240267194051,0.19035332073070163
62,0.22274373534271757,0.2057398551194425
63,0.22070260163691405,0.19000360048607567
64,0.22337310433649807,0.19703901600865933
65,0.2212313769592179,0.20092869097780033
66,0.21799280314589387,0.203718502830123
67,0.21758538568548733,0.18402042134643637
68,0.2173525164072081,0.20071490046633636
69,0.21921889246891824,0.20014962103532447
70,0.22068776265918302,0.2053097158835079
71,0.22104741581719367,0.2011972300373106
72,0.22391049567458154,0.17767105898992602
73,0.21117928206658573,0.20053851438631856
74,0.22016396593871257,0.1962999377014511
75,0.22272763956341146,0.20122695413742275
76,0.22581959961296366,0.2177190833916886
77,0.2267323787644994,0.2080726665757073
78,0.2295878530501557,0.20627328932238265
79,0.22842317774927587,0.23627417947988202
80,0.22764165674468023,0.21466198390689345
81,0.23115051830772587,0.22469930562478121
82,0.2439140421297434,0.23322378712887828
83,0.24504819564181837,0.18860959874990896
84,0.23604507735974306,0.2169316253186025
85,0.23558485951664732,0.1986408595763141
86,0.23792843085279664,0.23442627045001774
87,0.24882394062291138,0.2400133725617378
88,0.2485015073911749,0.19560029064235296
89,0.24998288086468845,0.26750775669490434
90,0.2787883485750043,0.2517369784467693
91,0.258521817344651,0.21144199657129695
92,0.2563019881097914,0.25498677355008703
93,0.24889411491979893,0.2133214519474576
94,0.23541609016206147,0.21316366840886053
95,0.23387176629236275,0.21259046382996258
96,0.235817066753368,0.2076693227207369
97,0.24069509644516937,0.23189521526245968
98,0.2397417135352044,0.19797548343557586
99,0.24841822216288745,0.21796753934357424
100,0.24163494257332324,0.22526570512444932
101,0.25014496720928275,0.29184292376794113
102,0.24796219657269788,0.23734087241194618
103,0.2325486873181985,0.17650201670890167
104,0.20621982649218837,0.18270768873223
105,0.20388642412652785,0.18042424948034835
106,0.20141720338810168,0.18761564862944521
107,0.20466200589276046,0.17617814386323766
108,0.20615392349821202,0.19396205578108142
109,0.21093566170770772,0.18701716514205782
110,0.21002966808162624,0.1757245265600149
111,0.20850776100782847,0.19317400014438119
112,0.2091152196426948,0.1849898231034215
113,0.2130000815927077,0.18770815005148125
114,0.21155144929361763,0.16821109946308496
115,0.21781243195088743,0.17630521884892245
116,0.22097305829624098,0.19300915093852858
117,0.22833376843556702,0.19513885799175
118,0.2331173116985938,0.2108930236444571
119,0.23027987482784082,0.19721576557351364
120,0.2437542916761695,0.22131435290837534
121,0.23429307932381055,0.1756652678997383
122,0.23429047412199558,0.26061892923446933
123,0.23714105905793745,0.21771308211661175
124,0.24010064463011271,0.25568500435201785
125,0.27221662553546905,0.2216269273807801
126,0.24228818730699073,0.22623086114426533
127,0.24708335522076877,0.21008705304848838
128,0.2739952500763652,0.253667631872357
129,0.25047384370431053,0.21287863878584698
130,0.2870164542234868,0.19977169291608055
131,0.23456830091232495,0.19987722572700753
132,0.21337809132562457,0.21662310952498579
133,0.2152484507917119,0.18100379897838703
134,0.21407624407947587,0.19899445751001257
135,0.20978210237529352,0.17516500681003624
136,0.2115435731842173,0.206968907540298
137,0.21411193786955757,0.1912360694832753
138,0.20940647680434488,0.1813538579157044
139,0.21335868763147023,0.18159246042476646
140,0.2126947609211901,0.17859058506675093
141,0.2094995965548366,0.19645246117719065
142,0.2099237122969757,0.17715111477175563
143,0.20456193049224636,0.1730749241437325
144,0.20852738838020465,0.18443130714129347
145,0.20660689159882345,0.17669515439912664
146,0.2027791294631817,0.1708033189306884
147,0.2087259948146429,0.17569434720414215
148,0.2013844933560331,0.16722188638295352
149,0.20592601927850457,0.16528773165492439
150,0.2054458765043534,0.17846686786427307
151,0.20266236674537857,0.1927657580060477
152,0.2077124166152746,0.19344015934614092
153,0.20696461659898574,0.19101607150323954
154,0.2078893482625532,0.18717799023464146
155,0.20684176683425903,0.19254191917232763
156,0.20166897336594303,0.17203038329906886
157,0.20309188611192003,0.18706177319705064
158,0.20383510256199527,0.17282001548332782
159,0.20605663037438282,0.17816214958513074
160,0.20408979640733138,0.1861730466795984
161,0.20368750885331469,0.1796457340915841
162,0.20405464315061853,0.1751337077148147
163,0.20199431325320147,0.18494748754019613
164,0.20267285746064403,0.20650889175843326
165,0.20572745508189014,0.1954628304881944
166,0.2021162284971427,0.19235701454419646
167,0.20666870048982824,0.17451570202444328
168,0.20089244933055936,0.17719529623249525
169,0.20378300998446278,0.17107988371798252
170,0.20322428179158866,0.19754037081066228
171,0.206063519362256,0.17273057843157882
172,0.20462755754077844,0.18117610580966334
173,0.20595333526293627,0.18885408203105053
174,0.20214556924683108,0.18034948783778917
175,0.20050047744783184,0.19686613485346466
176,0.20252643834105688,0.17349648241603477
177,0.20135744296603922,0.18240374630139208
178,0.20320174516700537,0.1825678497435262
179,0.20356153786706505,0.16037161881140866
180,0.1967509322219806,0.17740802722082613
181,0.20151310082938936,0.17207452496065337
182,0.2024791357781199,0.17185035457315648
183,0.19967324197959366,0.1852637837628445
184,0.2030236745278517,0.1648040025508959
185,0.20190984257262387,0.18177238323129624
186,0.19933928175271748,0.18314947485453328
187,0.2013933551873711,0.18321257289837173
188,0.2041715323913107,0.17184697001019894
189,0.20209053829967452,0.1893813555270739
190,0.20261283436243674,0.18138480480486893
191,0.2030124419229589,0.18023522122929955
192,0.2009229204363579,0.17242580090062112
193,0.2054382424762876,0.17991265969758158
194,0.20132062758068195,0.17235056318536743
195,0.2000966114010647,0.1623245547301391
196,0.20227829530704125,0.17172700864128362
197,0.20752823452273908,0.1994969407309673
198,0.20296127082918475,0.17981520920827243
199,0.20425428542420923,0.19522979259255746
200,0.20118791639185446,0.1694819447014778
201,0.20277934438056894,0.18433964047830878
202,0.19969784554770048,0.17062343439438632
203,0.20118603139496344,0.18333438499856392
204,0.20395752250981464,0.18506997600256597
205,0.20229799216456837,0.1624876748250052
206,0.20032610382131344,0.1784693438445101
207,0.20127848173074014,0.165308440705407
208,0.20094084905253518,0.16973534126449213
209,0.20732583250287626,0.2008612614239683
210,0.20409824077388367,0.18039423815359162
211,0.20128976478636693,0.17993554752834595
212,0.20223882076718347,0.18644081245469785
213,0.20094116734896156,0.17295919390484962
214,0.20197093598753046,0.18200155056501433
215,0.20106707049383343,0.16020306021610206
216,0.19832196220052806,0.18373969940567167
217,0.2028579902734688,0.17649846541053588
218,0.20184567200837375,0.16909338886707714
219,0.20171743061998004,0.18750211808186587
220,0.20105749084580715,0.16503989797647112
221,0.20286360038794296,0.17001750878254634
222,0.20454992686244225,0.16888521848086213
223,0.1994426366713026,0.1863167757887302
224,0.2058090851080122,0.19783268481986957
225,0.20639546622904084,0.17441597346866233
226,0.20165901618014329,0.1924871453146532
227,0.20114378974758845,0.17836519742962312
228,0.20535755201542882,0.18381218402848623
229,0.2038542350752653,0.1641787930958461
230,0.20393902552332716,0.17242923424812218
231,0.2041637612511214,0.16393628638846344
232,0.20861229787079646,0.19800164958060776
233,0.20426015193156488,0.19480649039043435
234,0.2036900947407948,0.15712671862781377
235,0.20472316709544353,0.18274523514222232
236,0.20534712368612,0.16211256829414578
237,0.20737279912860368,0.18073249731180513
238,0.20485583886944894,0.17461615172821232
239,0.2052198567991253,0.17523947770941795
240,0.20472326064162213,0.1910473462885162
241,0.20816985646383368,0.19153957015995726
242,0.20278396924956144,0.17939971889580153
243,0.20573083675212617,0.18558575639879035
244,0.20806702193644025,0.20270026905054922
245,0.20939781310723174,0.16875202548061663
246,0.20087003373770976,0.1882620722102479
247,0.2054827039559587,0.19009104893258358
248,0.20419523444512097,0.16519972854885606
249,0.20896408891530155,0.20732999540683125
250,0.20272115981288188,0.15771473098572728
251,0.2048148295576338,0.16376454016780326
252,0.20772319886800672,0.1705826519038043
253,0.20544322471109797,0.1833041906121592
254,0.20695977286993267,0.19378751111764464
255,0.20585943473805246,0.18812691936035653
256,0.20828670306767014,0.1816096636095476
257,0.20940964573697982,0.17504718599821886
258,0.2031512965949224,0.18236317887208361
259,0.20586451611144366,0.1966992871513871
260,0.20279137012984255,0.19252690420013388
261,0.20648508934642104,0.184021452831394
262,0.20578858579138962,0.17769374489643108
263,0.20183880631919865,0.18052220991397336
264,0.20366333860406677,0.18373724432469543
265,0.20718594348664096,0.1999857659615582
266,0.20648715849950922,0.17054616779253629
267,0.20458452863920984,0.17562029149086342
268,0.21121912435900203,0.16246493562950143
269,0.2020995669978128,0.16374398689149586
270,0.20588088379822952,0.20206679097996422
271,0.20399301913049486,0.17166006894401423
272,0.2014421948509441,0.18176533855738938
273,0.19854084831133162,0.17308319994522628
274,0.20317602713259575,0.17139190919961908
275,0.20575405869314328,0.19520473740142258
276,0.2039795945123803,0.17765560200483477
277,0.2055928245020046,0.18168056870927562
278,0.20526246968909895,0.191274947200879
279,0.20467792758100228,0.18652587107014448
280,0.20116756064928978,0.17850015656441898
281,0.20539072649679976,0.19422427265542458
282,0.2038386078368274,0.18803372942705088
283,0.2046919843549732,0.18167129655287034
284,0.20517435762807906,0.19670203789163032
285,0.20700212616881403,0.16536921994274023
286,0.20690456540774194,0.18617537847022514
287,0.20170873470848602,0.17479643242135232
288,0.20259503161997722,0.1637040481218317
289,0.20384530359201675,0.1691540205393989
290,0.20304660014897513,0.16934304482699758
291,0.20693481677203632,0.20626367368656723
292,0.20497453491464793,0.19129047730398066
293,0.20580037327693235,0.19114362787758166
294,0.20469016875985332,0.17141225788192477
295,0.20303684895296845,0.17116254960916696
296,0.20339745053236813,0.1753383318481242
297,0.20170366176241022,0.16435133859268208
298,0.20569028114553073,0.17666038963723202
299,0.20226924632378906,0.1810740293977575
300,0.20473377861017042,0.1899170217522506
301,0.20349654556511879,0.19665813730660628
302,0.20670635133481427,0.17126989041197083
303,0.20897737512295003,0.18528915023182732
304,0.20384505794321794,0.18593414749982512
305,0.2048370142956432,0.16987553494081972
306,0.20590124383485384,0.17392380381533737
307,0.20450499725880192,0.17390086561229723
308,0.203338413543219,0.17072918427771439
309,0.2018889434796443,0.19115652314489434
310,0.20257457178368937,0.19718503653297484
311,0.204712144941163,0.1710426163842759
312,0.20261816889476433,0.18181097301659663
313,0.20749621943151542,0.18146453683735728
314,0.20621205633468956,0.18102459315484024
315,0.20830780204585034,0.18571600325011606
316,0.20581420905274644,0.17070910877944356
317,0.20333359576315044,0.18399623185749023
318,0.20542090716693612,0.19605383569787785
319,0.20860369649412724,0.22068809957229535
320,0.20575583364656694,0.18184871955141838
321,0.20013024004624425,0.17282569190838626
322,0.20299519229826216,0.17680869321467468
323,0.20316388534842064,0.19299141113552976
324,0.20604620606517143,0.18883758661026265
325,0.20205753894565964,0.18740280040766935
326,0.20401523889993115,0.16830679468498894
327,0.20235617236077166,0.16638781705425779
328,0.20735464196839778,0.21097325144928086
329,0.19905873577443245,0.18903235290214218
330,0.20530542901618112,0.17967453061499367
331,0.20497603883607973,0.18402841088568592
332,0.20548193871403198,0.18209889836921028
333,0.20682814121127224,0.2134824716607322
334,0.2038963886557056,0.16745813210930707
335,0.20691585806395701,0.19216133578847314
336,0.20480946136369027,0.18045448234867842
337,0.20489255970807002,0.19045326450064884
338,0.20451740136177993,0.18060048790126687
339,0.2058833068568739,0.18780056412472157
340,0.20489532783996764,0.2015844855660421
341,0.20918263875537638,0.21348782870462774
342,0.20620711600418382,0.19177519103722396
343,0.20153044990831903,0.1901931860664273
344,0.2029273426539892,0.17425814114552177
345,0.2060630856860551,0.18485618133947618
346,0.20103863538574163,0.18968046454811247
347,0.2056145400380631,0.19498446186226753
348,0.20390073666207606,0.19694258870105624
349,0.20806429137309773,0.18690321847925812
350,0.20922867851934845,0.19160384133799205
351,0.20432501860993277,0.1544493386829191
352,0.20349279065712464,0.18675685920344626
353,0.20577182640417588,0.19526727886866094
354,0.2052935348878757,0.17825743795946628
355,0.20963830263208713,0.18201858627344553
356,0.20407944339975942,0.18090035230650522
357,0.20273553876043987,0.19073572698407223
358,0.20182622190144994,0.16423905610850031
359,0.2059275148500451,0.18667315520587266
360,0.20700458151926335,0.16992962530916284
361,0.20179487726718878,0.18520129953629405
362,0.2063367182223631,0.18704353269386592
363,0.2035061236348846,0.19588898134071617
364,0.20695254591991194,0.19436910452105063
365,0.20281837501828906,0.18411881393725796
366,0.20586188194706,0.18468887046649876
367,0.20622108729003813,0.16658344012174253
368,0.20682518339033226,0.1807851100189063
369,0.20232376229348514,0.17284394494877525
370,0.20088830858850173,0.18185769975326527
371,0.20754142208612986,0.19026812862813614
372,0.2040471183083993,0.18861397441062008
373,0.20382067793421893,0.1692063804560039
374,0.21075264089327636,0.18139912856076773
375,0.2003862812614841,0.20445606031329405
376,0.20519860363978562,0.19011259768172897
377,0.20572806164610397,0.19212866653912444
378,0.20278176346080576,0.17279713653210307
379,0.2032064772683749,0.1765290456276384
380,0.20327453264634576,0.18127121843968025
381,0.20871081302086894,0.1933886609800989
382,0.20422855262561954,0.19273593924181048
383,0.2049268308005554,0.16810576842352454
384,0.20823474604782347,0.17812968363607598
385,0.21009466636905091,0.19318479498305843
386,0.20385673187143036,0.19683457615813968
387,0.2030774322059229,0.1837145675917545
388,0.20360699623561115,0.17214802566154228
389,0.20646554340632986,0.17155958599195578
390,0.20246061487354153,0.17455886011530117
391,0.20582445642406896,0.18641040334808798
392,0.20629398763584766,0.18413626260896696
393,0.20404953623918606,0.17888969121811046
394,0.20602826328038407,0.18335148529829523
395,0.20144839488940655,0.17477594386571585
396,0.20603382963833097,0.17914998944151939
397,0.20507821643190513,0.18811241468530804
398,0.20924034266830158,0.1687857433506703
399,0.20437746877959972,0.19055352471151404
400,0.20649175210107718,0.1968296304780287
401,0.20891464671952356,0.20254009228196782
402,0.20983396340116894,0.1844152864877314
403,0.20871270577208126,0.18404962042465678
404,0.2047788978135176,0.18933151029608997
405,0.20918713633319458,0.17655289907011348
406,0.20640876076871353,0.19981193871787897
407,0.208412007968441,0.19083386797225654
408,0.20874580904710396,0.1884876585608876
409,0.20705133425198394,0.16680045408250407
410,0.20796289234805546,0.18000110640427966
411,0.2036338614867174,0.20499286565991395
412,0.20768310146914015,0.21460316299027876
413,0.20632841848998332,0.19181509346546108
414,0.20502075890628554,0.19299011793349236
415,0.20513027404947914,0.1693095504273179
416,0.2034882547365104,0.18965455962619918
417,0.200491445962426,0.17694916786080567
418,0.2064647882593145,0.18884878441538505
419,0.19920423037285429,0.17622407759233263
420,0.20501262440884427,0.18239726204992565
421,0.20794194990949189,0.18386163657212126
422,0.2068964807952432,0.19526736027816194
423,0.20463073014808025,0.17334405922616855
424,0.21016346903846894,0.1718959356963211
425,0.2043285799219454,0.16828463899872861
426,0.20628689101440825,0.18097101313068628
427,0.2016987771236544,0.1675158298994108
428,0.20497118622112237,0.18527573298871658
429,0.2087539449441347,0.17416493745186992
430,0.20463750980121437,0.18836483134702142
431,0.20631426146371568,0.20349255544093056
432,0.2088285410802046,0.19728367769210095
433,0.20559204099990194,0.1737156764507858
434,0.20594722000981788,0.19962467286138905
435,0.20656661557660497,0.18179678914578956
436,0.20495161108023446,0.18949081871626222
437,0.20089014876279518,0.17110448864001218
438,0.20455809173990877,0.19494422369334485
439,0.20547042669152185,0.16353912986726768
440,0.20608044129243192,0.18802431992592544
441,0.2071622770002706,0.19835657539947257
442,0.20776068845646178,0.1920888895534961
443,0.20778603928028155,0.1967211724880086
444,0.20474341849414565,0.1892791976703841
445,0.2093147924073118,0.18583599262192388
446,0.2051647552590576,0.1812014704674553
447,0.20730061105472578,0.17581065467190535
448,0.20555356260445667,0.16247137778842177
449,0.20631830565196624,0.17730942470827907
450,0.20188245473862837,0.19510665337166264
451,0.2074186766831328,0.17075339146693486
452,0.20154935763560705,0.19490319316370242
453,0.2038744736930354,0.18790992791011
454,0.20716806345706362,0.1805228563209359
455,0.2056085738561136,0.16576255034675913
456,0.20129331374625795,0.16561067107867894
457,0.20507633474042758,0.18195297407323013
458,0.20504644746593625,0.19244965596893404
459,0.20688931717813538,0.17995202629558665
460,0.20683074160088166,0.18711459335607153
461,0.2048526543209688,0.17196876034081782
462,0.20057195883622464,0.18443522107770524
463,0.20670596660255527,0.18727569239715375
464,0.2065031406202381,0.1834407579668319
465,0.2059019837769673,0.16164620499396382
466,0.20343947271220117,0.17743550539722383
467,0.20691577601823494,0.1892528449021274
468,0.20545417181760384,0.1780761149965503
469,0.20362966953755188,0.1774252172333101
470,0.20935584559476825,0.18826862821545107
471,0.20583797252173427,0.18374685056348813
472,0.2059168018561473,0.20139945798862988
473,0.20364372241053935,0.18098835890558448
474,0.20511972489688607,0.21258041780109752
475,0.2083819027391555,0.197591834705273
476,0.20480661203178,0.16772358135953133
477,0.20755278026099971,0.18521270180604735
478,0.2048367905399973,0.16449734740306188
479,0.20779455569889144,0.19037446791295848
480,0.20585162129452664,0.171782201178072
481,0.20666113036642259,0.17012778431435882
482,0.20102082898648238,0.17184952603566336
483,0.20570633138159958,0.17612770886616907
484,0.20577992439913234,0.18740069510998836
485,0.20793265776096773,0.191521448936628
486,0.2052480906641169,0.15966410188102872
487,0.20190068550532955,0.17184918847202596
488,0.2047071856893986,0.16611892627089064
489,0.20781705825687122,0.18875394820367244
490,0.20777780541794286,0.198993547809999
491,0.21024857735414682,0.16053411415127572
492,0.20720386640321342,0.1845603864684101
493,0.20032007829677,0.16467575835918194
494,0.2057648942613011,0.18257866074178947
495,0.20199739604259281,0.18608748368277922
496,0.20809738237937864,0.1814465175346775
497,0.20631748841677924,0.18486187315965696
498,0.20614986513539565,0.19668671332340873
499,0.20907995916551633,0.17871652013124587
500,0.2071318444457176,0.1712920981993709
