epoch,loss,val_loss
0,0.8894203388028674,0.8889900234142939
1,0.8889571701023313,0.8889368577400844
2,0.8889430321322547,0.8889646824995676
3,0.8889327515231239,0.8891346138715744
4,0.8889287306202782,0.8889094771941503
5,0.8889259468846851,0.8889170125325521
6,0.8889238843917847,0.8889133853117624
7,0.8889223939312829,0.8889089886744818
8,0.8889209955400891,0.8889292085170746
9,0.8889195107883877,0.8889164309104284
10,0.888919106721878,0.8889391713142395
11,0.8889181367821164,0.8889147797028224
12,0.8889171064164904,0.888943988998731
13,0.8889165721204546,0.8889143243630727
14,0.888915394504865,0.8889071767727534
15,0.88891524526808,0.8889067180951437
16,0.8889151952001784,0.8889110753933589
17,0.8889141022894118,0.8889059975147248
18,0.8889140306578742,0.8889084409872691
19,0.8889137696027756,0.8889065368970235
20,0.8889136691490809,0.8889232255617777
21,0.8889127256075541,0.8889228401581446
22,0.8889128997060988,0.8889324115514755
23,0.8889123705095715,0.8889058401187261
24,0.8889119960599475,0.888922492424647
25,0.888911924759547,0.8889070031642914
26,0.888911925289366,0.8889065030813217
27,0.8889114950762854,0.8889101711908977
28,0.888911319481002,0.8889070265293121
29,0.888911479168468,0.8889157942136129
30,0.8889110181596545,0.8889226334095002
31,0.8889107383622064,0.8889062075217565
32,0.8889111177391477,0.8889115057786305
33,0.8889107398192088,0.8889090159336726
34,0.8889108307626512,0.8889095955689749
35,0.8889107276466157,0.8889125940799714
36,0.8889108333587646,0.8889130268494289
37,0.8889107560184267,0.8889055912892023
38,0.8889103228118684,0.8889138137896856
39,0.8889106505446964,0.8889079976876577
40,0.8889101203415128,0.8889065379699072
41,0.88891046889623,0.8889052236874898
42,0.8889103702969021,0.8889066073099772
43,0.8889097392426597,0.8889054763714472
44,0.8889102279742559,0.8889063922564189
45,0.8889096814393997,0.8889071726004283
46,0.8889096437162823,0.8889061131079992
47,0.8889096985525555,0.8889053310950598
48,0.8889093538655175,0.8889117044607798
49,0.8889093615876303,0.8889052379131317
50,0.8889089779986276,0.888903748512268
51,0.8889092659817801,0.8889046187003453
52,0.8889089957343207,0.8889292179346084
53,0.8889088890022702,0.8889059538046519
54,0.8889091007444594,0.8889065667390823
55,0.8889088068273332,0.8889069328308106
56,0.8889084257947074,0.888909498890241
57,0.8889084265099632,0.8889048600594203
58,0.8889083633555306,0.8889051617781322
59,0.8889084998501672,0.8889120834668477
60,0.8889082124233246,0.8889060382843017
61,0.88890833791097,0.8889055101076762
62,0.8889080164035161,0.8889037282466888
63,0.8889084095689985,0.8889070356289546
64,0.8889081175724666,0.8889051996072134
65,0.8889081889390945,0.888904353539149
66,0.8889081025388506,0.8889163712263107
67,0.8889081708987554,0.8889172066847484
68,0.8889078777366214,0.8889042528470358
69,0.8889079974889755,0.8889082713524501
70,0.8889078964789708,0.8889047405719757
71,0.8889072781801224,0.8889270188808441
72,0.8889063901901245,0.8889037473599116
73,0.8889062398407195,0.888904830733935
74,0.8889059936735365,0.8889029438893
75,0.8889061355988185,0.8889259550174078
76,0.8889061643017663,0.8889032847483953
77,0.8889060784578323,0.8889020106395086
78,0.8889058549933964,0.8889106293519338
79,0.8889061171876059,0.8889029752413432
80,0.8889059176047643,0.8889052874247233
81,0.8889057562351227,0.8889022529125213
82,0.8889060233301587,0.8889234966437022
83,0.888905682404836,0.8889034156401953
84,0.8889058558808433,0.8889033726453781
85,0.8889056142701043,0.8889104202588399
86,0.8889057950178783,0.8889014994303386
87,0.888905633436309,0.8889058938821157
88,0.8889057499567667,0.8889062995910645
89,0.8889057209889094,0.8889026279052099
90,0.8889055432346132,0.8889039847453435
91,0.8889057324462467,0.8889042374690374
92,0.8889058494832781,0.8889082692861557
93,0.8889056613180373,0.8889019410212835
94,0.8889058322774039,0.8889025774796804
95,0.8889056819279989,0.888902613679568
96,0.8889055322276221,0.8889016847610474
97,0.8889056996769376,0.8889036208788554
98,0.8889057420757082,0.8889084407091141
99,0.8889055647320218,0.8889025822877884
100,0.88890590247843,0.8889059709310532
101,0.8889058035877015,0.8889079025586446
102,0.8889055829048157,0.8889016573031744
103,0.8889055718183517,0.8889019209543864
104,0.8889056344827017,0.888907362262408
105,0.8889054350323147,0.8889016702969869
106,0.8889055634737015,0.8889092848698298
