epoch,loss,val_loss
0,0.6684132552411821,0.6674334840377172
1,0.6670489123264949,0.6669402876297633
2,0.6668637951480018,0.6670810796817144
3,0.6668204213380814,0.6667725756963094
4,0.6667987066639794,0.6667490218083064
5,0.6667810305886799,0.6667631891965866
6,0.6667710196177165,0.6667500041325887
7,0.6667658592859904,0.6667352904081345
8,0.6667580700715383,0.6667593784332275
9,0.6667541335291333,0.6668007193009059
10,0.6667515138520135,0.6667208967208862
11,0.6667488717370563,0.6667311599651973
12,0.6667472882535722,0.6667277398109436
13,0.6667453390227424,0.6667223324775696
14,0.6667442966037327,0.6667246183156967
15,0.6667440020375781,0.666776031255722
16,0.5848658732440737,0.5556409134467443
17,0.5556511528227064,0.5556385618448257
18,0.555647808710734,0.5556456932624181
19,0.5556460478040907,0.5556321420669555
20,0.5556458719968795,0.5556220518747965
21,0.5556428702010049,0.5556233306328455
22,0.5556455592711766,0.5556193200747171
23,0.555641925877995,0.555615359266599
24,0.555641816827986,0.5556680156787237
25,0.5556398794915941,0.5556391270160675
26,0.5556398840215471,0.555618086496989
27,0.5556401439640257,0.5556442155440648
28,0.5556382463375727,0.5556251651843389
29,0.5556386284033458,0.5556224908828735
30,0.5556390576627519,0.5557530929247538
31,0.5556371070279016,0.5556205189228058
32,0.555637288345231,0.5556435108979543
33,0.5556386602322261,0.5556172493298849
34,0.5556370302703646,0.5556170616149902
35,0.5556366162697474,0.5557868488629659
36,0.5556357877651851,0.5556337217489878
37,0.5556365070343018,0.5556540079514185
38,0.5556353174183104,0.5556287967363993
39,0.5556356303559409,0.5556308918396632
40,0.5556352002223333,0.5556274571021398
41,0.5556363990704218,0.5556175644795099
42,0.55563390689426,0.5556723908980687
43,0.5556340710586972,0.5556207008759181
