epoch,loss,val_loss
0,0.44715276835362117,0.4448039578795433
1,0.4449005925324228,0.4446273998618126
2,0.4447241209348043,0.4445903477271398
3,0.4446632725530201,0.4446108224391937
4,0.44462665936019685,0.44454863502581915
5,0.44460549562507207,0.44455971841017405
6,0.444593963821729,0.44458637871344886
7,0.4445879740052753,0.4445394445061684
8,0.44458145190609827,0.4445693197449048
9,0.44457762724823424,0.4445303772886594
10,0.444573948111799,0.4445406286716461
11,0.44456694685088266,0.444548302034537
12,0.44456058354510203,0.4445975693464279
13,0.4445582635998726,0.4445599559545517
14,0.44455639735195374,0.4445343914628029
15,0.44455591595835153,0.4448512556354205
16,0.4445548603799608,0.44452932467063266
17,0.4445549468861686,0.4445307493607203
18,0.44455328610870576,0.4445316175421079
19,0.444551593237453,0.4445714119871457
20,0.4445505090819465,0.4445891242027283
21,0.4445488153828515,0.4445602503021558
22,0.4445466629730331,0.4445260894099871
23,0.44454737874534395,0.4445506281057994
24,0.44454580311642755,0.4445192437370618
25,0.444546017256048,0.4445350701610247
26,0.44454605974753697,0.44465455949306487
27,0.44454464430941476,0.4445365219314893
28,0.44454452994796967,0.4445631780227025
29,0.44454275606738197,0.4445289512872696
30,0.4445437028143141,0.44453685196240744
31,0.4445413647294045,0.4445517949660619
32,0.4445399350457721,0.4445298674901326
33,0.4445390708910094,0.444545020878315
34,0.44453895103269153,0.44453798661629357
35,0.44454061208168666,0.4445483219027519
36,0.44453786656591626,0.44453900676965713
37,0.4445392295387056,0.44452398480971655
38,0.44453680437803267,0.4445178558429082
39,0.4445371749334865,0.444516741057237
40,0.44453614480627907,0.44453070894877117
41,0.44453534685903123,0.4445761868953705
42,0.44453617302576703,0.44452636677026747
43,0.4445363060898251,0.44455326624711355
44,0.44453597966167663,0.4445290089249611
45,0.44453548355234995,0.4445281207561493
46,0.4445347547928492,0.4445161062677701
47,0.44453407005469003,0.4445122137069702
48,0.4445338530672921,0.4445321866671244
49,0.44453521115250055,0.4446258563399315
50,0.44453467722733814,0.4445967530409495
51,0.4445339277850257,0.44451910519599913
52,0.44453381216526033,0.4445217049121857
53,0.44453476435608336,0.44452835168441135
54,0.4445341089169184,0.4445311481356621
55,0.44453390040662555,0.44451573431491853
56,0.4445339328514205,0.444549134572347
57,0.44453273412254124,0.44452189511060713
58,0.444534375972218,0.4445161741177241
59,0.44453277598487007,0.4445943161646525
60,0.4445333063205083,0.4445125826597214
61,0.44453487616115145,0.44461265071233114
62,0.44453421935107973,0.4445206023057302
63,0.4445341826147503,0.4445243634780248
64,0.4445342411266433,0.4445191084345182
65,0.4445343168311649,0.4445313720504443
66,0.444533282412423,0.44453107309341433
67,0.44453315146101846,0.44451766576369606
