epoch,loss,val_loss
0,0.44745425348149404,0.4453532303373019
1,0.44528213657273186,0.4451520243883133
2,0.44512418835692935,0.4449625863631566
3,0.4450438698728879,0.44493287698427836
4,0.4449872809979651,0.44490127565463383
5,0.44495396753814487,0.44490340316295623
6,0.4449456873204973,0.4448780477643013
7,0.44493583915630974,0.44499342795213065
8,0.44491718296872246,0.44502320768435794
9,0.4449057990047667,0.4448564717968305
10,0.4448939317266146,0.44488231045007703
11,0.44489220231109194,0.4452097818652789
12,0.44488184732198716,0.4448403006792068
13,0.44487539930476083,0.4451080829103788
14,0.444873903632164,0.444835716287295
15,0.4448689493073357,0.44482581893603007
16,0.44486604698499044,0.444807663778464
17,0.4448599942591455,0.44482984258731206
18,0.4448587503168318,0.4450348661144575
19,0.4448533703751034,0.4447997253537178
20,0.4448423500392172,0.44486709747711817
21,0.4448448565867212,0.44513064259290697
22,0.4448378848367267,0.4448350995580355
23,0.4448365704152319,0.4450201356808344
24,0.444833328432507,0.44479222971200943
25,0.4448265745772256,0.44519075359900795
26,0.444827715324031,0.4447762658397357
27,0.4448245160314772,0.4447832773327827
28,0.44482239759630626,0.4448159249822299
29,0.4448183632757929,0.44479428790013
30,0.4448202196094725,0.4448200006286303
31,0.444815286371443,0.444782365322113
32,0.4448125482135349,0.4448940382798513
33,0.4448127733535237,0.44476414688428245
34,0.44480974230501386,0.44478931230306623
35,0.4448074494269159,0.44481291755040486
36,0.44481231664948995,0.44477354929844537
37,0.444808085223039,0.44480075186491014
38,0.4448064847588539,0.4448104065060616
39,0.444807481944561,0.4451929319500923
40,0.44480546047290165,0.4447832359472911
41,0.44480386286973955,0.44478373287121453
42,0.4448059767219755,0.44484768829743065
43,0.4448003207974964,0.4448820046583811
44,0.4447982326348623,0.44476059567928317
45,0.4448014970024427,0.4447718047499657
46,0.44480570554071003,0.4448124295473099
47,0.44480461392800014,0.44479095085461934
48,0.4448041496939129,0.44481566538413364
49,0.44479969166384803,0.44477065481742223
50,0.44480141445000965,0.4447620197335879
51,0.44479701793193815,0.44476855782667796
52,0.44479763531684874,0.44487557315826415
53,0.44479674030674826,0.4447920414209366
54,0.44479879341522854,0.44477808904647825
55,0.44479277342557905,0.44477049801747004
56,0.4447918450103866,0.4447460083961487
57,0.4447913165026241,0.44475108297665916
58,0.4447933174305492,0.4447451275189718
59,0.4447945509486728,0.4447343694368998
60,0.44479019663068986,0.44474105616410575
61,0.4447918480568462,0.4447401751279831
62,0.4447867242164082,0.44479326325654983
63,0.4447882397837109,0.44478170937299727
64,0.4447903022567431,0.44510037076473236
65,0.4447850885854827,0.4447592434287071
66,0.4447900530960825,0.44478099612394967
67,0.4447883144815763,0.44485033319393796
68,0.4447902990182241,0.4448403276006381
69,0.444786303182443,0.4447735711336136
70,0.4447861011160745,0.44474500230948133
71,0.44478664754496683,0.4447803961833318
72,0.4447855562965075,0.44478208603461583
73,0.4447892114917437,0.4448014232714971
74,0.44478062423732545,0.4448277714451154
75,0.4447830017937554,0.4447896325985591
76,0.4447871380183432,0.44497784610589347
77,0.4447855194211006,0.44481511737902957
78,0.44478262374136185,0.44476198546091716
79,0.4447815841966205,0.4448722548484802
