epoch,loss,val_loss
0,0.33648426773813034,0.3350089598496755
1,0.33429409489366746,0.33402981106440227
2,0.3341186882654826,0.3341223220427831
3,0.3340498294764095,0.33410960346460344
4,0.33399806773662566,0.3339585645198822
5,0.3339579025440746,0.33396145153045653
6,0.3339364706012938,0.3339088934659958
7,0.3339267687863774,0.33387970113754273
8,0.33392079204320907,0.3339710662563642
9,0.3338992446064949,0.33382688856124876
10,0.3338893076181412,0.3338143162528674
11,0.33387430814901986,0.3338478337128957
12,0.33387881402836905,0.33385935469468436
13,0.33386418099535836,0.33379642218351363
14,0.33385823783609603,0.3338480018774668
15,0.3338495982951588,0.3337910016377767
16,0.33384802622265286,0.33383309402068456
17,0.33382882877190906,0.33384387063980103
18,0.3338328428533342,0.33383511586984
19,0.3338233948217498,0.33376522620519
20,0.33381590483585993,0.33375912096103033
21,0.33381176898214554,0.33388892873128256
22,0.33380022873481113,0.33384870207309725
23,0.3337905518876182,0.3337896664142609
24,0.3337884046236674,0.33383337422211967
25,0.33378892401191923,0.33374439336856204
26,0.33378561117913985,0.3338483372529348
27,0.3337829448050923,0.33379715716838837
28,0.3337799396779802,0.3338039171695709
29,0.3337764092418883,0.3338421728014946
30,0.33377029875251985,0.3338091519276301
31,0.33377289404471716,0.3338163134256999
32,0.3337703961332639,0.33382775956392285
33,0.3337672218746609,0.33377527465422946
34,0.3337650018864208,0.3338136396209399
35,0.3337658478948805,0.33377029353380205
36,0.3337674861285422,0.33374930691719057
37,0.33376140218310885,0.33371797641118367
38,0.33375725602441364,0.33378754256169
39,0.3337620384030872,0.3337906543413798
40,0.3337557225955857,0.3338045521577199
41,0.33375688930352526,0.33405334945519766
42,0.33375956408845053,0.3337129777868589
43,0.33375164224704107,0.33370142537355424
44,0.3337554328110483,0.3337518624663353
45,0.3337580594950252,0.3337841687599818
46,0.3337567161851459,0.3337062324086825
47,0.33375087787707647,0.33370407070716224
48,0.33375469241539635,0.3337090584039688
49,0.3337503926820225,0.33371950592597327
50,0.3337514520022604,0.3337138428290685
51,0.33375086160500844,0.333895780702432
52,0.33375363689661025,0.3338833672006925
53,0.33375190491808787,0.33370455489555995
54,0.3337498396899965,0.3338174311319987
55,0.3337485045724445,0.33371680158376693
56,0.3337478616833687,0.3337085353533427
57,0.33374288148350184,0.33370698740084964
58,0.33374450603458616,0.33391335608561834
59,0.3337439892027113,0.33376688955227535
60,0.33374065874682535,0.33368326210975646
61,0.3337444386548466,0.3338145955602328
62,0.333744155784448,0.3337840463320414
63,0.3337399132119285,0.33373583070437113
64,0.3337430189516809,0.3337389722665151
65,0.3337409656114048,0.333728900829951
66,0.33373905172612933,0.33387179736296335
67,0.3337374029954274,0.33371488012870154
68,0.33374280866649414,0.33368072007099786
69,0.3337407362262408,0.3337602985898654
70,0.33374125315745673,0.3337115058302879
71,0.3337497974170579,0.3336908733248711
72,0.3337428752647506,0.33392989106973014
73,0.3337356401350763,0.3338956725994746
74,0.33374193552467557,0.33375684984525045
75,0.3337383230593469,0.33385667655865353
76,0.33374037736654283,0.33368833031256995
77,0.3337384780976507,0.33376499940951665
78,0.33373799261781906,0.33380282229185104
79,0.33374394946628144,0.3336950120329857
80,0.33373847954803043,0.3337671672105789
81,0.3337362308104833,0.33381899261474607
82,0.3337359916435348,0.3337312680681547
83,0.3337328528695636,0.33374391412734983
84,0.33373806760046215,0.3337604243357976
85,0.33373661751217315,0.33366442314783734
86,0.33373963340785767,0.33368230229616164
87,0.33373509838183724,0.333808499276638
88,0.33373982374535666,0.33368892735242844
89,0.3337334854536586,0.33379704189300535
90,0.333730215118991,0.33367986472447714
91,0.33373666161298754,0.33385496576627094
92,0.33373362989558114,0.33368678510189054
93,0.33372976722982195,0.33369952591260277
94,0.3337375822133488,0.3339155590335528
95,0.3337309783233537,0.3336989604830742
96,0.33373585269848505,0.33370041038592657
97,0.33373556152979533,0.3337071297764778
98,0.3337347663111157,0.33379072684049604
99,0.3337276891271273,0.33368219769001006
100,0.33373157046900853,0.3336928464968999
101,0.33373463551865684,0.33369462203979494
102,0.33373991913927925,0.3336622028152148
103,0.33373080222474205,0.3337170518040657
104,0.3337326252129343,0.33373967788616815
105,0.3337364745007621,0.3337733648220698
106,0.33372418335411286,0.33380159552892047
107,0.3337344756192631,0.33367937378088636
108,0.33373244387573664,0.33371207070350645
109,0.3337305873632431,0.333799151301384
110,0.33373113226890566,0.333846407353878
111,0.33373231232828565,0.33367138882478076
112,0.3337258418864674,0.33374013121922813
113,0.33373298946354124,0.33378957909345625
114,0.3337301637132963,0.33428602133194607
115,0.33373171948062047,0.33367308205366136
116,0.33372948288255266,0.33368444520235063
117,0.3337317096922133,0.33368270989259086
118,0.33373007004790833,0.33371187835931776
119,0.333729698240757,0.333672674993674
120,0.3337292132112715,0.3336826181809108
121,0.3337254286143515,0.3336619926691055
122,0.33372676042053434,0.33368668699264525
123,0.3337311293217871,0.3337761669357618
124,0.33372705843051276,0.33370461195707324
125,0.3337273993359672,0.3336898016730944
126,0.3337304151058197,0.3338162425160408
127,0.333725580977069,0.33368321760495506
128,0.3337290471725994,0.3336997714837392
129,0.3337296422984865,0.33367674134174985
130,0.3337296843131383,0.33382943630218503
131,0.33372539291116926,0.33367721873521805
132,0.33374851930141447,0.33374171948432924
133,0.33372823531097834,0.3336853482921918
134,0.3337307459513346,0.33368676418066023
135,0.3337341368926896,0.3337195116678874
136,0.33373031432761086,0.33372739171981813
137,0.33372676249345146,0.33370836877822874
138,0.33373212081856196,0.33367370438575744
139,0.33372468878825506,0.3337026237050692
140,0.3337301110890177,0.33367223527034123
141,0.33372987241215174,0.33379492223262786
