epoch,loss,val_loss
0,0.5574923504590988,0.556329747080803
1,0.5562104622655445,0.556026508251826
2,0.5560742977062861,0.5561321233908335
3,0.5560178670485815,0.5559763321081798
4,0.5559949273003473,0.5559316810766856
5,0.5559770913124085,0.5560029449860255
6,0.5559629056453704,0.5559219515721003
7,0.5559542760186725,0.5560121965010961
8,0.5559409435590108,0.5559280994733174
9,0.5559385632806354,0.5560475498040517
10,0.5559276695516374,0.5560151329835256
11,0.5559219359291925,0.5560555307070414
12,0.5559151858356264,0.5559589662949245
13,0.5559133251508077,0.5558988052606583
14,0.5559083811706966,0.5558802668253581
15,0.5559037755727768,0.5559258975187937
16,0.5558953655825721,0.5559120939572653
17,0.5558906766706043,0.5558752221266429
18,0.5558827445109685,0.555844521800677
19,0.5558750574853685,0.555852077404658
20,0.5558706387413873,0.5558680010239283
21,0.5558650483555264,0.5558642114400864
22,0.5558672501643499,0.55587813103199
23,0.5558644902308781,0.555923458814621
24,0.5558610792689853,0.5558283267418543
25,0.5558573404153188,0.5558634967009226
26,0.5558611687289344,0.5559403109550476
27,0.5558561361365848,0.5558250982364019
28,0.555854879087872,0.5559273021618525
29,0.5558602525525623,0.5558244264125825
30,0.5558572565714518,0.5558358290195465
31,0.5558511534002092,0.5558616568247478
32,0.5558506281375885,0.5558451823790869
33,0.5558491653998693,0.5558281323115031
34,0.5558490247858895,0.5558142231305441
35,0.555847305642234,0.5558825535376867
36,0.5558449626498753,0.5559181509017944
37,0.5558466316329108,0.5558383843898773
38,0.5558456845283508,0.555821719010671
39,0.5558473996188905,0.5559165122509002
40,0.5558431800206503,0.5558394135634105
41,0.5558454639779197,0.5558317152659098
42,0.5558487523529264,0.5558146264155706
43,0.5558443556096818,0.5558578018744786
44,0.5558442652225495,0.5558411323229472
45,0.5558458264668783,0.555841824332873
46,0.5558422879113092,0.5558259999752044
47,0.555845016254319,0.5558246312141418
48,0.5558434465991127,0.5558200778563818
49,0.5558434465858672,0.5558126584688823
50,0.555840554356575,0.5558240098953247
51,0.5558399003479216,0.5558567753632864
52,0.555839309586419,0.5558254996538162
53,0.5558365731901592,0.5558781245152156
54,0.5558397791120742,0.5559345702330272
55,0.5558382648097144,0.5558113053242365
56,0.5558369662231869,0.5558053927818934
57,0.5558338457213507,0.5558036397695542
58,0.5558350444634755,0.5558058098157247
59,0.5558358260393143,0.5558006519873937
60,0.5558342272705502,0.5558037742773692
61,0.5558387456337611,0.5558292165199915
62,0.5558358739084668,0.5558370263973872
63,0.5558349551624722,0.5558456470171611
64,0.5558317495319578,0.5558566080729167
65,0.5558359233140946,0.5558027531305949
66,0.5558309273587333,0.5558203822771708
67,0.5558353244860967,0.5558190543254217
68,0.5558319155904982,0.5558022278547287
69,0.5558324635558658,0.5558350916306177
70,0.5558340850671133,0.5558711976607641
71,0.5558319306638506,0.5558241676092148
72,0.5558299538294474,0.5558327177365621
73,0.5558309693866306,0.5558393952449163
74,0.5558313083383772,0.5558293172121048
75,0.5558331622812483,0.555791307648023
76,0.5558293733861711,0.555956084171931
77,0.555831889046563,0.5558332767486572
78,0.555828677588039,0.5558143861293793
79,0.555830879078971,0.5558170772790909
80,0.5558294235335456,0.5558095865249634
81,0.5558307146761152,0.5559783229033153
82,0.5558281742069456,0.5558232936064402
83,0.5558322822915183,0.5557991961240768
84,0.5558296613693238,0.5558194674650828
85,0.5558274372021357,0.5558717606862386
86,0.5558269571463267,0.555850882490476
87,0.5558292234871123,0.555942999402682
88,0.5558314917484919,0.5557974831263224
89,0.5558319744533963,0.5558021037578583
90,0.5558282275597255,0.5558060377438863
91,0.5558288297653198,0.5558090259234111
92,0.5558270142475764,0.5558123839298884
93,0.555829181154569,0.5558031645615895
94,0.5558278412951363,0.5558376679817836
95,0.5558286852836609,0.5558970902760824
