epoch,loss,val_loss
0,0.5575967615180545,0.5562344753344853
1,0.5561619726949268,0.5560589131911595
2,0.5560577952994241,0.555980225721995
3,0.556014123307334,0.5562394027312597
4,0.5559889760679669,0.5559513088464737
5,0.5559705417421129,0.5559091354608536
6,0.5559612038267984,0.5562483320236206
7,0.5559524098634719,0.5559458203315735
8,0.5559442303313149,0.5558875589370728
9,0.555936300807529,0.5558859578768413
10,0.5559311205016242,0.5559160582224528
11,0.5559231962627835,0.555889217098554
12,0.5559213545322418,0.5560293750762939
13,0.5559134594069587,0.5559382310311
14,0.5559068373574151,0.555864944934845
15,0.555901025361485,0.5558704123099645
16,0.5559006266329024,0.5559021955728531
17,0.5558971998956468,0.5558949512243271
18,0.5558934223784341,0.5558855152130127
19,0.555891113003095,0.5558762528498967
20,0.5558903306457732,0.5558707715670268
21,0.5558867458369997,0.5558777687152227
22,0.5558855767117606,0.5558926654259364
23,0.5558833643992742,0.5558322046200435
24,0.5558805800014072,0.5558483126163483
25,0.5558811560206943,0.5558641971349716
26,0.5558781603309844,0.5558400259415308
27,0.5558723494344288,0.5558376004695892
28,0.5558655002779431,0.5558709578514099
29,0.5558641502327389,0.5558231435616812
30,0.5558629867235819,0.5558257426420847
31,0.5558586498631372,0.5558267830212911
32,0.5558589604695638,0.5560144424438477
33,0.5558571261564891,0.5558212296168009
34,0.5558539543416765,0.5559766709804534
35,0.5558539671500524,0.5558670106331507
36,0.5558455764849981,0.5558291200002035
37,0.5558486619525486,0.5559117015600205
38,0.5558453959623972,0.5558164287010828
39,0.5558443313042323,0.5558303252855936
40,0.5558420187764698,0.5558364457686742
41,0.555840385278066,0.5558735392491023
42,0.5558386856185066,0.5558094223340352
43,0.5558386598693,0.5562259661753972
44,0.5558386489152908,0.5558254590431849
45,0.5558368554115295,0.5558200101852417
46,0.5558375168508953,0.5558197656472524
47,0.5558333231210708,0.5558405955632527
48,0.5558371429575815,0.5557990662654241
49,0.5558362679349051,0.5558639505306879
50,0.555834815674358,0.5558014368216196
51,0.5558376686308119,0.5558403715292612
52,0.5558333481682671,0.5558024943669637
53,0.5558360858096016,0.5558225520451864
54,0.5558330085012648,0.5558147738377254
55,0.5558351837264167,0.5558288077910741
56,0.5558382010327445,0.555931688785553
57,0.5558324471314748,0.5558232130209605
58,0.555829422182507,0.5558138204415639
59,0.5558302611907323,0.5557972240447998
60,0.5558311035368177,0.5558146463632584
61,0.5558288454082277,0.5557985562086105
62,0.5558303114573161,0.5558248456319174
63,0.5558295004632738,0.5558171536922455
64,0.5558307678699493,0.5558197027842203
65,0.5558292958868875,0.5558421597083409
66,0.5558294361962213,0.5559338245391846
67,0.5558276410897572,0.5560100036064783
68,0.5558320964707268,0.5558415284951528
69,0.5558290140628814,0.555788341720899
70,0.5558297080198924,0.5557902334133784
71,0.5558293015824424,0.5557902583281199
72,0.5558280294206407,0.5558033808072408
73,0.5558259906768799,0.5558046658833822
74,0.5558282265795602,0.5557897665103276
75,0.5558280305200153,0.5558123418490092
76,0.5558286788331138,0.5557949914932251
77,0.5558296459648344,0.5558308026790619
78,0.5558271875249015,0.5557979385455449
79,0.5558261878755357,0.5557937941551209
80,0.5558271295891868,0.5559570642709732
81,0.5558268032338884,0.5559045578638713
82,0.5558230841424731,0.5557917610406876
83,0.5558260715007782,0.5558090807596843
84,0.555828164100647,0.5559213351408641
85,0.5558238894277149,0.5558593788146973
86,0.5558274241950777,0.5557913022041321
87,0.5558242210812039,0.5557849001884461
88,0.5558247413370344,0.5557971500555674
89,0.5558252525462044,0.5559807272752126
90,0.5558246466848585,0.5558063216606776
91,0.5558267252047857,0.555856608192126
92,0.5558251549800237,0.5558078759113948
93,0.5558236673275629,0.5557925392389298
94,0.5558219437069363,0.5558105434179306
95,0.5558235865698921,0.5558319835662842
96,0.5558237572511037,0.5557836189270019
97,0.5558265538480547,0.5558607821464538
98,0.5558248432477315,0.5559076814254125
99,0.5558258577055402,0.5557929959694544
100,0.5558266185124715,0.5558117821216583
101,0.5558223848342896,0.555788849512736
102,0.5558218134906557,0.5558300078312556
103,0.555825710799959,0.5558004887501399
104,0.5558221228255166,0.5557905855178833
105,0.5558240655130811,0.5558145739237468
106,0.5558251107798682,0.5557900373538335
107,0.5558237797816594,0.5558768900235495
108,0.5558194804853863,0.5557851513226827
109,0.5558228936062919,0.5557933288415273
110,0.555823478990131,0.5557869683504104
111,0.5558221122688717,0.5557888839642207
112,0.5558202284971873,0.5558444539705912
113,0.5558243775897556,0.5558649026552837
114,0.5558224365446303,0.5558226036230723
115,0.5558211045530107,0.5558734174569447
116,0.5558201061884562,0.5559373527765274
