epoch,loss,val_loss
0,0.5577811893754535,0.5561853001117706
1,0.5562543981870015,0.5566683791081111
2,0.5561445215543112,0.5568873955806096
3,0.5560892015960481,0.5560120259126028
4,0.5560583508676953,0.5559869383573532
5,0.556039116885927,0.5559842530886332
6,0.5560149288707309,0.5559683686892192
7,0.5560011811786227,0.5559620285431544
8,0.5559837953382069,0.5559222500324249
9,0.5559710295200347,0.5559821980396906
10,0.5559649214479658,0.5559423969984054
11,0.555950934237904,0.5559263207117716
12,0.5559388651582929,0.5560041833321253
13,0.5559346853229734,0.5559224514166514
14,0.5559302735858493,0.5559153433243433
15,0.5559259662893083,0.555868842681249
16,0.5559215987523397,0.5558630765279134
17,0.5559163872533375,0.5559575859308242
18,0.5559092064566082,0.5559091703097025
19,0.5559045310682721,0.5559055981636047
20,0.5558934763405058,0.5558912263711293
21,0.5558873425987032,0.5558813201189041
22,0.5558852876027425,0.555844571352005
23,0.5558755599657694,0.5559254359006882
24,0.5558727748129103,0.5558295437494913
25,0.5558685922490226,0.5558496560653051
26,0.5558668336206012,0.5558586107889811
27,0.5558633443514506,0.5558427903652191
28,0.5558626925283008,0.5558338931401571
29,0.5558599944114685,0.5558208287556966
30,0.5558590679036246,0.5558410153786342
31,0.5558555086188847,0.5558249152501424
32,0.5558541185193592,0.5559563352664312
33,0.5558513128889931,0.5558237589995066
34,0.5558482728666729,0.5559195754528046
35,0.5558518920739491,0.5558511929512024
36,0.5558545154862934,0.5558132429122925
37,0.5558481437895033,0.5558237059911092
38,0.5558465691142612,0.5558279316027959
39,0.555847707801395,0.5558322784900666
40,0.5558463428417841,0.556007269581159
41,0.5558460538917117,0.5558193958600363
42,0.5558433603313234,0.5558548898299535
43,0.5558440618250106,0.5558931866486867
44,0.5558420924478107,0.5558211608727773
45,0.5558416831493378,0.5558318976958593
46,0.5558418284522163,0.555857753276825
47,0.5558395857016245,0.5558061051766078
48,0.5558381083276537,0.5558066467046737
49,0.5558383276065191,0.5558215283552805
50,0.5558377129104403,0.5558352276086808
51,0.5558382598559062,0.5557989044189453
52,0.555837422715293,0.5558305594523748
53,0.5558409950335821,0.5558175268570582
54,0.555835926135381,0.5558192974328995
55,0.5558354420264562,0.5558206558227539
56,0.5558381685150994,0.5558030017217
57,0.5558396144310633,0.5558050587177277
58,0.5558365806208716,0.5558651543855667
59,0.5558348035150104,0.555837960600853
60,0.5558345782756805,0.5558311206499735
61,0.5558374877903196,0.5558899400234223
62,0.5558365311755075,0.5559569060405095
63,0.5558330356942283,0.5558110316197078
64,0.5558346371650695,0.5558091532786688
65,0.5558325953086217,0.5558087963660558
66,0.5558350239197413,0.5558351997931799
67,0.555834551665518,0.5558196067412694
68,0.5558314704497656,0.555865890065829
69,0.5558302257325914,0.5558184118668238
70,0.5558368555572298,0.5558704473177591
71,0.555833473470476,0.5558881437778473
