epoch,loss,val_loss
0,0.6226684223877059,0.5834010677735011
1,0.5834052944050895,0.5834305027325948
2,0.5836098053587807,0.5833629679282506
3,0.5833703654872047,0.5833371935685475
4,0.5833833153247834,0.5833647787570954
5,0.5833724340995152,0.5833368621667226
6,0.5833669992950228,0.5834360531171163
7,0.5833882097668118,0.5833412644863128
8,0.5833597957293193,0.5833471395174662
9,0.5833573415809208,0.5833403953313827
10,0.5833662267128626,0.5835366371472677
11,0.58335690469212,0.5833334981997808
12,0.5833625763522254,0.5833343866666159
13,0.5833535735342238,0.5833345847129822
14,0.5833531713883082,0.5833482704559962
15,0.5833537217908435,0.5833351723750433
16,0.5833584267828199,0.5833424818913142
17,0.5833520767158932,0.5833819405635198
18,0.5833522271315257,0.5833497134447098
19,0.5833508265283373,0.5833482213417689
20,0.5833594307237201,0.5833346546093623
21,0.5833493442402946,0.5833336505889892
22,0.5833489577240414,0.5833334763844807
23,0.5833553862969081,0.58334288418293
24,0.5833737487395605,0.5833335241874059
25,0.5833586693472332,0.5833664218187332
26,0.5833446403609381,0.58334015361468
27,0.5833482053014967,0.5833356173038483
28,0.5833468647135629,0.5833345135450363
29,0.5833456415335337,0.583335261464119
30,0.5833453060388565,0.5833377350171407
31,0.5833453162776099,0.5833833576440811
32,0.5833446247180303,0.5833342844247817
33,0.5833507534265518,0.5833342320521673
34,0.5833434261083603,0.5833339855670929
35,0.5833441968758901,0.5833387098709742
36,0.5833434271415074,0.5833335515260697
37,0.583343263996972,0.583333379705747
38,0.5833428474929597,0.5833444124460221
39,0.5833424131340451,0.5834118390083313
40,0.5833422153393427,0.5833333784739176
41,0.5833430958721373,0.5833395984570185
42,0.583343919939465,0.5833650890588761
43,0.583351882259051,0.5833367456197739
44,0.5833397537999683,0.5833638762633006
45,0.5833452648586697,0.583346145749092
46,0.5833411900599798,0.5833342496951421
47,0.583343267414305,0.5833333739439647
48,0.5833436766597959,0.5833435472647349
49,0.5833415867620044,0.5833338698546092
50,0.5833406810892953,0.5833369216521581
51,0.583340632226732,0.5833348927100499
52,0.5833403420050939,0.5834645790259043
53,0.5833457891013887,0.5833336131572724
54,0.583339840637313,0.5833717495600382
55,0.5833449792994393,0.5833345437844595
56,0.5833401048580805,0.5833336135149002
57,0.5833424492412144,0.5833362138668696
58,0.5833400344981088,0.5833383892774582
59,0.5833396293189791,0.5833336254755656
60,0.5833395236995486,0.5833335038026174
61,0.5833403540849685,0.583333392182986
62,0.5833408280081219,0.5833347395658494
63,0.5833393024603526,0.583340216199557
64,0.5833397183418274,0.5833339336713155
65,0.5833445712857777,0.5833335440158844
66,0.5833387614091238,0.5833334950606028
67,0.5833407887220383,0.5833357054392497
