epoch,loss,val_loss
0,0.7511306023995081,0.7500333786408107
1,0.7500918722682529,0.750093514641126
2,0.7500794716013802,0.7500449141263962
3,0.7500475320021311,0.7500040884017944
4,0.750031466378106,0.7500037398735682
5,0.7500164263115989,0.7500031280120214
6,0.7500235205888748,0.7500156017144521
7,0.7500238899654812,0.7500000779231389
8,0.7500130237870746,0.7500017197132111
9,0.7500107876459757,0.7500028551022212
10,0.750015175289578,0.7500001881519953
11,0.7500215155416065,0.7500002716779709
12,0.7500084941254722,0.7500012079874675
13,0.7500087206761042,0.7500108623504639
14,0.7500089909103181,0.7500011016925175
15,0.7500084135929743,0.7500001869599024
16,0.7500096339782079,0.7500010584990183
17,0.7500087025165558,0.7500111437241236
18,0.7500077614386876,0.7500012923876445
19,0.7500100951194764,0.7500326951742172
20,0.7500115684800678,0.7500009438594182
21,0.7500073344310124,0.750010503967603
22,0.750008473806911,0.7500003685951233
23,0.7500079995393754,0.7500002822478612
24,0.7500071967442831,0.7500117162068685
25,0.7500098216798571,0.7500033390124639
26,0.7500108473963207,0.7500015398263932
27,0.7500056890514162,0.7500000596443812
28,0.7500088718864653,0.7500354943275451
29,0.7500080856349733,0.7500011343558629
30,0.7500083017216789,0.7500061472654342
31,0.7500045032633675,0.7500078881581624
32,0.7500060779915916,0.7500002147754034
33,0.7500049621926413,0.7500002545118332
34,0.7500076220697827,0.7500313546260198
35,0.7500060049295425,0.750010687828064
36,0.7500071014033424,0.750005889972051
37,0.7500059091515011,0.7500003331502278
38,0.7500062194665273,0.7500000022649765
39,0.7500079153378805,0.7500013896624247
40,0.7500050385528141,0.75
41,0.7500049865643184,0.7500022389491399
42,0.7500049649609459,0.7500000004768371
43,0.7500073340071572,0.7500006119807561
44,0.7500052045186361,0.7500000051657358
45,0.7500047139989006,0.7500000501473745
46,0.7500049181514317,0.7500002971887588
47,0.7500081607368257,0.7500002033313116
48,0.750003263009919,0.7500001912514369
49,0.7500054522090488,0.7500001795291901
50,0.7500044072998895,0.7500032449563344
51,0.7500046632157432,0.7500000007152557
52,0.7500052715142568,0.7500001404285431
53,0.7500055722528034,0.7500002849499384
54,0.7500048560963737,0.7500009663899739
55,0.7500045521391763,0.7500083614587784
56,0.75000424015522,0.75000652551651
57,0.7500054384867351,0.7500007160504659
58,0.7500052103731367,0.7500001797676087
59,0.7500050051079856,0.7500002953608831
60,0.7500036246114307,0.7500024187962214
