epoch,loss,val_loss
0,0.5160320247049996,0.4709920144284149
1,0.4656020052868238,0.467662288687235
2,0.4642745987165442,0.46066894641467837
3,0.4634280066975982,0.4583340895340294
4,0.4629588532772324,0.45881747073113965
5,0.46326285499253206,0.46082061280202596
6,0.4631589881008009,0.45973924222943846
7,0.4633405319660353,0.463933289389444
8,0.4631636547173759,0.45777046155948903
9,0.46273694079431943,0.45927342380920466
10,0.46244554280089417,0.45968331644328164
11,0.46282286461207084,0.4586358542666625
12,0.4632453832319014,0.45778961710492866
13,0.46296096615212934,0.4565125653295138
14,0.462965291533306,0.45744593686817725
15,0.4631390690660362,0.4584537796005425
16,0.46395945316367,0.46090617270751977
17,0.46595449918646925,0.46190700950123675
18,0.46523302875823075,0.46059498983674774
19,0.4631568304389071,0.4635594240892059
20,0.46222098065529754,0.458617590470519
21,0.4620455383085269,0.45819476123563857
22,0.46250187662289177,0.45886622032109836
23,0.46229920244579603,0.4622269550282493
24,0.4627946888307651,0.46239180358947046
25,0.46314104726975014,0.46434352507653126
26,0.46420284342154966,0.46029715693200013
27,0.4639370618484992,0.45994764774288477
28,0.4641897879523025,0.4598605118190382
29,0.46407177829570634,0.4607297522888276
30,0.46472978896146017,0.46426622234798504
31,0.46415155743054143,0.46371581763730046
32,0.46142839376118966,0.45545471263241205
33,0.4613782252618272,0.45858075615360017
34,0.46609410111478466,0.41170816702370905
35,0.29194394352915193,0.17766659228857803
36,0.20513284213548666,0.21358154245198305
37,0.20637411312807838,0.1850698025533076
38,0.20224276221423648,0.18386041855821741
39,0.1994323944740051,0.20946522892149888
40,0.20097404254303636,0.17556192553681468
41,0.18836819304166744,0.1708790199938385
42,0.18557588414276383,0.16787872479779878
43,0.18386323828760198,0.17027645720665957
44,0.18089974851155874,0.16410592800219273
45,0.1773821239690002,0.16092587525851343
46,0.1851692992427332,0.16936966836065756
47,0.17186733196564824,0.172321660022666
48,0.20918074872097175,0.2269511990859464
49,0.1881895365597631,0.18268591697295314
50,0.2222322175164429,0.21903067158908257
51,0.2001262574230699,0.1994066821276803
52,0.20764677932827447,0.18897660282068104
53,0.20931773377452687,0.17466933264518694
54,0.20863407251952265,0.20247526501893803
55,0.20856064403529545,0.19000977008253794
56,0.20205535661515664,0.16569352983848312
57,0.19390167971794084,0.17706622171237618
58,0.18430617342503955,0.1690874625864497
59,0.18002737266383617,0.150970955538682
60,0.1829705914143947,0.17336495375352862
61,0.17942169528183124,0.17180526049298575
62,0.1684779150365256,0.16095269285293487
63,0.16854015185987598,0.20910740913845907
64,0.15956359979114215,0.1250106567352261
65,0.14818487564523855,0.14218107223607424
66,0.15860077675232132,0.19828338947657734
67,0.15745023414015388,0.15399070047839133
68,0.16511497047660445,0.1321557142196974
69,0.1671505952544743,0.5088072072318774
70,0.1763516114659315,0.1726404081271706
71,0.19438694184832425,0.13165358749474343
72,0.2415913986750514,0.43923717130516376
73,0.19909431828593044,0.15110342311525576
74,0.14144099994396286,0.11779913766685773
75,0.12442588430640696,0.11348157513218977
76,0.11733088919444024,0.12048165501372561
77,0.11876062038328478,0.10507863536416663
78,0.11887107681545665,0.10223026613539443
79,0.12306238389950547,0.13018614276699778
80,0.12773898330101785,0.10084202060806781
81,0.13111219783011582,0.12628420308800317
82,0.13515474201978636,0.12764874568990064
83,0.14137841813308033,0.12372126426043205
84,0.14519613107638038,0.11496458156072117
85,0.15289864287054758,0.1460094491181486
86,0.16001318038416634,0.13752008269375549
87,0.16058494538677226,0.15282707739944681
88,0.1651120678849035,0.14356979956761282
89,0.16591088242643923,0.1578093526668889
90,0.16881611768761762,0.14179151279236954
91,0.17273146932045397,0.15148249429870406
92,0.16606856473356937,0.1475754549057621
93,0.1641078377254397,0.15023610286493178
94,0.1593574524176321,0.1418582364397134
95,0.15649851286609331,0.1309975364939623
96,0.15145320234726295,0.13117269097260123
97,0.15283002331852913,0.1287411354173999
98,0.14949251857218598,0.12723953494407836
99,0.14170306053659837,0.13803530439118109
100,0.1431936541344043,0.1327363323157431
101,0.1407800083540028,0.1294993278778189
102,0.14620768246624927,0.12446113974943648
103,0.15297218240958582,0.128559956071779
104,0.1582563760890972,0.20043122675345376
105,0.24962550186939103,0.179881353858807
106,0.16911131289419984,0.15383572514498997
107,0.16762534080384922,0.1774089593811917
108,0.16689773721156642,0.16054379620981332
109,0.16319591296110467,0.14412814101381025
110,0.16220424587639262,0.13541883099083965
111,0.1633384241144642,0.14415218598917065
112,0.1628590770531073,0.15010314039577824
113,0.15966856192120368,0.13921173638985201
114,0.1523117107586015,0.13143226562335253
115,0.1509201909520561,0.14519573077378192
116,0.1569736801457701,0.14326707538389521
117,0.15801220173068387,0.1522546028907185
118,0.14305743452808778,0.12684412783998256
119,0.14784719307330535,0.12756769723483247
120,0.14880699227997263,0.1549042491642615
121,0.14820114721516497,0.12410213952371964
122,0.1430969633925572,0.10900136947462642
123,0.1364439887354811,0.1265205972482785
124,0.13579273987725507,0.11065058413189016
125,0.13763217693321508,0.11942465759856084
126,0.14392742701322198,0.11272176206474467
127,0.13970200032341756,0.13369785919362515
128,0.1531671784859929,0.15605193982618376
129,0.14785713349894775,0.1673507393131581
130,0.1356195319858525,0.13065216443762
131,0.15202758669423713,0.15671384539409855
132,0.1733351265154093,0.15409785824535538
133,0.16392526841812652,0.24918078558046647
134,0.3183364611330798,0.33645054843013883
135,0.310296175627111,0.20813835418910778
136,0.20269101377937487,0.1898685682501526
137,0.19528209326790275,0.1770510920425401
138,0.19254366041208096,0.16765506333533284
139,0.19407980741144085,0.17952349089502997
140,0.19123298189848112,0.1777060843055459
141,0.18873847361871773,0.1792263858932745
142,0.18316822866495366,0.1586620194017162
143,0.17868520072501023,0.1589239757970302
144,0.1696339915182182,0.15988907758191845
145,0.16416229108114352,0.15388062393892518
146,0.15903231532598516,0.14452312768883369
147,0.1485135734403391,0.10772038456611487
148,0.1453254867443521,0.12807408987944047
149,0.14017142389145634,0.1283174492690685
150,0.13293828320703666,0.11814635368449264
151,0.1275438776998829,0.10876018513486527
152,0.1261705967863862,0.10438938374840333
153,0.12628537913362345,0.10557722691250157
154,0.1275252671099549,0.1373046095039626
155,0.12352729050235284,0.13663717196153027
156,0.1271668745367359,0.10083109278772676
157,0.12350154677637107,0.11607747647642412
158,0.1253859818464904,0.09979588305162204
159,0.12666418886869502,0.134225934441749
160,0.12809403140464717,0.12286722687256597
161,0.1316462184180967,0.14351924001832175
162,0.1312819281973249,0.11320393912596907
163,0.12840505718612213,0.10972295652558334
164,0.12739073412360144,0.10144965997795119
165,0.131320159906168,0.11785757094500805
166,0.13204257659393373,0.12983960447423554
167,0.13471991896891805,0.1375082221489463
168,0.13156327134888587,0.11432066220799211
169,0.13457261558302983,0.09952542545924994
170,0.14493737940052398,0.16098587008288306
171,0.14804762303888847,0.1312740149953843
172,0.15057790910510468,0.16454604500715847
173,0.17094510995907436,0.11849233115942422
174,0.17025315282259396,0.14807034091720325
175,0.16826388579580762,0.18800724263318844
176,0.19295008958066054,0.21538832949267495
177,0.21012148338320066,0.17608819827014416
178,0.21374675169515553,0.2349525900121056
179,0.2097345808173438,0.42827259558830816
180,0.20680422511539334,0.13986992457124728
181,0.20850322381246558,0.22799213988357506
182,0.2198258020502744,0.20708121201031013
183,0.27099768633695487,0.1894355760366087
184,0.23008594799748033,0.19915002868461687
185,0.2795508937347976,0.22870355727270378
186,0.28910748760183874,0.2062711823378166
187,0.24086788373352816,0.1635073081976209
188,0.28461318722574874,0.32514557090118856
189,0.36920565641742403,0.3993250702274397
190,0.39588607505286,0.3807069287489607
191,0.38416585149623755,0.3781510239099934
192,0.3856846142211277,0.37792666180290446
193,0.3877516406430923,0.3750367836795584
194,0.3862964423825208,0.3832267706266575
195,0.3907386124420395,0.3848125552705701
196,0.3866800730041354,0.381163394436639
197,0.38608357068106497,0.3784518409384428
198,0.38426017145618047,0.3724575571093439
199,0.3841094909499797,0.3730740169635751
200,0.383440488500534,0.3774531373190667
201,0.3827786530085427,0.3847814526194397
202,0.383467185296852,0.3754145728555619
203,0.3828672352220842,0.37562104854173806
204,0.38135937087721017,0.37216617238299204
205,0.3811266725186446,0.376850689753032
206,0.3797673463010139,0.37009258211770873
207,0.37915863116995824,0.37211726580513077
208,0.3775874009792856,0.3726789002870991
209,0.37738406390930007,0.37652051492329064
210,0.3764778296526572,0.3696833565190664
211,0.3758425559636781,0.3756885060622068
212,0.3761375829446211,0.37489949540210177
213,0.3761165955956217,0.3666080595609722
214,0.37612762979214626,0.3693026926153961
215,0.3771333288225391,0.3712949361969375
216,0.37790701021138334,0.36666341436557043
217,0.37647455101541943,0.3676197919435648
218,0.3763711101728215,0.37357550218930985
219,0.37582561716115215,0.3714958854013599
220,0.3776820092033252,0.37084167647052374
221,0.3774041963802327,0.3675983784310912
222,0.37726151017402054,0.37244485201433436
223,0.37823201266167356,0.37448659370028675
224,0.3783833963261116,0.37219841893088595
225,0.3786638154207563,0.37234251286958353
226,0.3781089617119874,0.3738894078514968
227,0.3792322005530755,0.38315000042428066
228,0.3780793638063298,0.37153501529473165
229,0.3788676101436989,0.3724366696694955
230,0.3780370746449149,0.3752089551523847
231,0.37891836896288195,0.36948050799064297
232,0.38037042975950663,0.37488052560755225
233,0.38033375572308814,0.375904449967959
234,0.3787022342173169,0.3685565097778673
235,0.3791107444929256,0.3717686236388105
236,0.37899914196579815,0.3634663099258389
237,0.3787097324243634,0.37442700234932913
238,0.38161347645392313,0.37699398311385274
239,0.3833362952626353,0.38546543769592784
240,0.3907097314981769,0.38025065449225837
241,0.38819811090504863,0.37011151824264343
242,0.38450408856376256,0.38769382702463157
243,0.4053490093772749,0.3909871595377663
244,0.3919487070259426,0.38977328856496046
245,0.3646382749963513,0.25267370301393216
246,0.2191486932080779,0.19674571438572414
247,0.20888958576085379,0.2076574553465901
248,0.20792498971052986,0.20550516763791163
249,0.20508845759521396,0.18475818130076657
250,0.20341733951655458,0.20761377320285745
251,0.20244741837104097,0.18502599096404568
252,0.20237087287169825,0.19399715278415494
253,0.19898597181463737,0.20432105815130236
254,0.1971476286578121,0.187186455035345
255,0.19532310054767982,0.17061443941098156
256,0.1930267371839767,0.1756538326964568
257,0.19164691911376505,0.1761407221199919
258,0.18609438878927734,0.17571276605177583
259,0.18237432170572807,0.17581092124534445
260,0.17480914658599134,0.16025098494804688
261,0.16891002826529852,0.14605579968762417
262,0.162468759574181,0.1430054609418302
263,0.161495757750791,0.13881433886284764
264,0.14815515038177812,0.13729881620924356
265,0.13951677987105948,0.10490716020942992
266,0.12620831311369438,0.10117375251247161
267,0.12197308843020346,0.10266266673779159
268,0.12095883773793403,0.11934092495853303
269,0.12161224126648769,0.10984181861082713
270,0.12261649429368629,0.10640984241883153
271,0.12456538339404223,0.11692641341314022
272,0.12504900633405933,0.1320315696063413
273,0.1320806951034632,0.1188180792807856
274,0.1407560985490644,0.13138963175757765
275,0.1367225755271528,0.11313238157456422
276,0.14066185155887906,0.1174098580519745
277,0.13825016415672745,0.14780477074255136
278,0.14157076579055564,0.11897868944055552
279,0.1414032808875589,0.12692124775436384
280,0.14546978534508745,0.12724162723388696
281,0.13972668282037454,0.11401273660053592
282,0.13366452383520222,0.11698725318652484
283,0.12911432676369233,0.13482762006657548
284,0.1277779802005944,0.11165038745212826
285,0.12990387033423584,0.12061619561011484
286,0.1358624087531773,0.11927518796625895
287,0.1397055559922114,0.12108475725798712
288,0.13648037413795822,0.1116982427488375
289,0.1336762258190933,0.10762581596602681
290,0.13489768389848064,0.12248096888807858
291,0.1409401301297548,0.12306383521645801
292,0.14711611737326397,0.1320817558108455
293,0.15367719149284118,0.13291400745329776
294,0.14824821704251467,0.12149044914233037
295,0.14546581868640035,0.13074070486539954
296,0.1422675484366375,0.12643713799561318
297,0.14211544107266957,0.12245544775510743
298,0.1394560073254059,0.11805045587786406
299,0.13571334098748344,0.12444753529139872
300,0.13540104107619572,0.11005880547096743
301,0.13568073912882347,0.10449999947303307
302,0.13828080591914937,0.12720670508763118
303,0.14517052924697452,0.12534668610793057
304,0.1445972548456217,0.11671568849105131
305,0.13827359668308015,0.12442135514158209
306,0.13685520687360492,0.12708139698725837
307,0.13586124181270218,0.11914895741995621
308,0.1512049902841938,0.1314855977614914
309,0.15716680810690595,0.13143702691295528
310,0.15734382907601238,0.1445523999867068
311,0.153216240454832,0.1445801487163809
312,0.15666088604743333,0.15822403563756046
313,0.14837810659618544,0.13791419015192735
314,0.15238448125634602,0.13692993482171473
315,0.15656476791760174,0.16351025572706795
316,0.14940643314126018,0.1400401501856678
317,0.15075705701811873,0.13991454550022045
318,0.15390634421614097,0.13746921030467638
319,0.1633514932948079,0.12385270064160385
320,0.15925677019574816,0.1367269594340139
321,0.15525098896926168,0.12650894284828446
322,0.14955770618634953,0.12623800301058738
323,0.1468547075074181,0.12975843174614177
324,0.14514147046449377,0.1243468693428086
325,0.13991657123446846,0.12289530937374847
326,0.13647858878139785,0.12518237035084043
327,0.1403587561986559,0.12478808389141226
328,0.15077198352262056,0.1421700689128909
329,0.15341097398924294,0.1460349221818832
330,0.16030198111951208,0.1522742926844812
331,0.15925818350646284,0.13213027588304038
332,0.1480579796411974,0.12584216465504305
333,0.14963555786373903,0.14214917902577145
334,0.14867799701072199,0.13773893734737808
335,0.14875639732584084,0.1298410182294571
336,0.15079414583533834,0.13094159036222167
337,0.15499853156656146,0.14631045481004273
338,0.1559944785176944,0.14311016160641274
339,0.1655703349273094,0.13624392935684418
340,0.161628373390775,0.14803735598837178
341,0.15904591550485336,0.14002776789476692
342,0.15465923734575962,0.13126275516194438
343,0.1562809652959804,0.13681067960202356
344,0.1542309853192374,0.12468487169934982
345,0.1500668842181432,0.14576725675048427
346,0.14560089245724908,0.12203345203051602
347,0.13860564025415717,0.11499963715273678
348,0.1392855423929884,0.14964608742952926
349,0.13455213751312825,0.13801982104536584
350,0.14020316987585507,0.14103211516277248
351,0.14037684599657932,0.12649276100298493
352,0.15523134548667433,0.14977746840569417
353,0.1539449028020577,0.1494213331004322
354,0.15758397305806318,0.1605830131233077
355,0.15946268439412212,0.14024786500672645
356,0.1558485469751782,0.11810495017363787
357,0.15877791477726688,0.15447202940008453
358,0.15408946601770895,0.11974498700268947
359,0.15083636144836776,0.1522721153081962
360,0.16295776090877737,0.15052272688177476
361,0.14930431207446598,0.12211697257372392
362,0.141142604832319,0.12280074572862887
363,0.13299541711640225,0.11872463328922463
364,0.13335753236416342,0.12351785745813125
365,0.13351249696912051,0.10693889517950413
366,0.13809152901339664,0.14485053788184732
367,0.15149402366078693,0.1359474568084692
368,0.15533571743113314,0.1331215147034772
369,0.1537388153046107,0.12708392432933888
370,0.14711398284754054,0.13366450060578933
371,0.1501372132131202,0.14482488985938555
372,0.15642950059868413,0.124744932811529
373,0.13350430793994614,0.1494804876527937
374,0.14069631270724264,0.13006772306979622
375,0.13438715284363664,0.1071285116218109
376,0.1416012039385718,0.12402848241320491
377,0.15168633074272242,0.144498079972884
378,0.15275039633302043,0.13697459800085784
379,0.15299786396437973,0.13388769463949443
380,0.14591030563840016,0.15268214477191394
381,0.14259276155522577,0.13685175611517436
382,0.1544332939496128,0.1712949523839734
383,0.15819149591726622,0.12106256872198007
384,0.14674732694514186,0.1110918214129222
385,0.13350003944028369,0.10076734180723083
386,0.13132828810484148,0.10368423650323716
387,0.1416919835305529,0.13001901988130415
388,0.1403239902207334,0.10616972136091432
389,0.14520910537068704,0.14604939060513797
390,0.1486918842188829,0.11737675143032662
391,0.16002472974449466,0.16126754709548904
392,0.1620748841268621,0.13576856938954399
393,0.14878193854247693,0.1168816740241654
394,0.1456763249925607,0.12487974786482878
395,0.1477703931446883,0.12203085442456596
396,0.1432367031118744,0.1203910873875034
397,0.13963578970099183,0.13665411048489476
398,0.1408132204742695,0.141144674129343
399,0.14848296979279685,0.16491169922978338
400,0.15198216695574115,0.12938933521025758
401,0.15209656888194042,0.13898786251634868
402,0.15774284588028376,0.15794697849250672
403,0.15680880183644824,0.08219793456132975
404,0.14811822254840043,0.14797239206785703
405,0.17750916518778015,0.14809865577619247
406,0.17238225275165944,0.12099721230149559
407,0.17660061958685125,0.19064306371693485
408,0.18848552396767038,0.12911914777847586
409,0.2193652077960529,0.508542628425558
410,0.46264562134841997,0.39426276174775005
411,0.2589500696779347,0.18785308170927703
412,0.20062802647284453,0.16474649628559362
413,0.23154154532045437,0.506556844430925
414,0.310501924746508,0.2152529493252243
415,0.22511678098367632,0.20546586062254601
416,0.21738392261980627,0.1942519137797468
417,0.21102625092236493,0.21389591430418875
418,0.21317827149784213,0.20767171094790765
419,0.20970997084275161,0.1963596512221362
420,0.20471286483174614,0.18264605033620043
421,0.197585759137133,0.19180690769683223
422,0.20417626529597968,0.21524882041044768
423,0.200869664585619,0.16531870729272577
424,0.1961789267828123,0.17246958744521076
425,0.18805335345771237,0.15857326097345315
426,0.18815077909285588,0.18588581692128286
427,0.1916963406790009,0.18832460947377064
428,0.20679317645018724,0.17750341606546202
429,0.19665910867307546,0.1776852033434123
430,0.18752887091331716,0.15388160085929475
431,0.17012003180477694,0.1565666575126791
432,0.16676806023208687,0.15859307164427525
433,0.14174827873957357,0.11879907711578981
434,0.12898092330683222,0.11950757199806211
435,0.14390081648317407,0.11782616302552304
436,0.13288984508563081,0.10350248725164836
437,0.12214913144946289,0.10258974101083218
438,0.12480082019889135,0.10924387757046283
439,0.12435290836591163,0.09468835759046884
440,0.12768036945520925,0.09962919019676279
441,0.13386829199494601,0.13127729360736295
442,0.1451413209756629,0.11070472861293458
443,0.14100099636243285,0.1399706233253541
444,0.12964244108733605,0.10868261638494013
445,0.12368829175531626,0.0948790629233467
446,0.12107905425173078,0.12632312371855525
447,0.1253967296549852,0.10137193694118553
448,0.1273128910152744,0.0999120388418702
449,0.12369597177084586,0.09046744376372634
450,0.12047532698910556,0.09357248704702217
451,0.12950014792162004,0.12761913534232686
452,0.12904770859331488,0.12786091224192994
453,0.12764687444850673,0.11107651000451191
454,0.12624370701628937,0.11891791877689539
455,0.1260959961063104,0.10554466006215375
456,0.12359590586826646,0.11374128597206153
457,0.12059713209016595,0.120213926509204
458,0.12407698128536475,0.1212141600596837
459,0.12113397538339835,0.11677773527662055
460,0.12323166013324709,0.10240667511536064
461,0.12201622499524353,0.12537243973164663
462,0.11819920063412505,0.08608867238907919
463,0.11748640360333043,0.09864440509582668
464,0.1232227304543229,0.10811585777069821
465,0.12326764660157424,0.09183375080571557
466,0.12463376478100414,0.14321023407063635
467,0.12732943507422917,0.1101740965950518
468,0.1234483396868595,0.08668250692683512
469,0.12447706039389483,0.11379203944794067
470,0.12977817986276838,0.1134075888909176
471,0.13173513806121553,0.12382881617700774
472,0.1340397249361436,0.10734210751304178
473,0.14536742957307397,0.1114994213166318
474,0.13686343628444894,0.11304378699864784
475,0.1340918171020438,0.13488050946619873
476,0.136685398600405,0.1328785518805186
477,0.140511428151396,0.10880129555329403
478,0.13112655448748933,0.13797588242763248
479,0.13695067566356436,0.11896244475779645
480,0.13284151579996792,0.1391119357781592
481,0.14293056412982502,0.1138862182430784
482,0.1462624367770908,0.08695480146498963
483,0.1927777556202906,0.11930030894322988
484,0.1225737851378534,0.1571217310907197
485,0.12245450383298295,0.10386819977370686
486,0.12002574896113313,0.11822116032955807
487,0.1189070102140558,0.09355734411962421
488,0.11508341864037742,0.09749493870615282
489,0.12069793055065162,0.13152609465210205
490,0.12242229166533873,0.10119111931430355
491,0.11707459008686537,0.10218141100460788
492,0.12264985711670953,0.09958330220984717
493,0.11716904933806703,0.11033363233034145
494,0.12438078256572982,0.10440309099182306
495,0.12289246595542941,0.1063166630770845
496,0.12533500601199743,0.1267715137684529
497,0.12644659051353976,0.1318100722928117
498,0.12730483888828154,0.13098849113260164
499,0.13004115728841867,0.1116567101610548
500,0.12876710515794418,0.11629777090489526
501,0.12726976212749394,0.10657141674899127
502,0.1289498964496094,0.10773188103857509
503,0.13835104186538222,0.12009877676487163
