epoch,loss,val_loss
0,0.7368420643011729,0.833345671415329
1,0.8333869238959418,0.833355611483256
2,0.8333949192762374,0.8335975722471873
3,0.8334423338704638,0.8333425084352494
4,0.8333465200795067,0.8333359237114588
5,0.8333450221220652,0.8333359278440475
6,0.8333562798500062,0.8333534196615219
7,0.8333417551517487,0.8333425056934357
8,0.8333483797576693,0.8334026913245519
9,0.8333450706137551,0.8333350698550542
10,0.833345465540886,0.8333336780865988
11,0.8333398360941145,0.8333647020260493
12,0.8333413897752762,0.8333340531984965
13,0.8333402364916271,0.8333335726261138
14,0.8333385824229982,0.8333337904214859
15,0.8333432355986701,0.8333336954116821
16,0.8333376185099284,0.8333350708087285
17,0.8333455654647616,0.8333377906878789
18,0.8333375764025582,0.8333523964087168
19,0.8333378970093197,0.8333532932202021
20,0.8333374311129252,0.8333333846330643
21,0.833339708606402,0.8333387111028036
22,0.8333371541102728,0.8333374179204305
23,0.8333374831941393,0.833334528764089
24,0.8333371920850542,0.833336911201477
25,0.833337118294504,0.8333337912162145
26,0.8333404650555717,0.8333333730697632
27,0.8333390824132495,0.8333333756128947
28,0.833335790461964,0.8333486673434576
29,0.8333369528717465,0.8333541406393051
30,0.8333363227976693,0.8333333733479182
31,0.8333363058567047,0.8333340698480606
32,0.8333364463249843,0.8333358670075734
33,0.8333414953284793,0.8333340074221293
34,0.8333361902104484,0.8333333730697632
35,0.8333372979296578,0.8333394617636999
36,0.8333377966350979,0.8333340386549631
37,0.8333356223768658,0.8333336157004039
38,0.8333371736076143,0.833365065574646
39,0.8333355071412193,0.8333335271279018
40,0.8333358906639947,0.8333417820135752
41,0.8333358815643522,0.8333339758316676
42,0.833337251133389,0.8333342000246048
43,0.8333360124958886,0.8333333737452825
44,0.8333355007833905,0.83333349498113
45,0.8333355328639348,0.8333334291776021
46,0.8333354730870989,0.8333333730697632
