epoch,loss,val_loss
0,0.42861510693364674,0.4167139056722323
1,0.4174054297208786,0.41682171763976417
2,0.416826763941182,0.41671699823935826
3,0.4167178861366378,0.41667430488268536
4,0.4167809843089845,0.4166996727784475
5,0.41671965973244773,0.4167185880939166
6,0.4167180483672354,0.4167057458758354
7,0.41671157056093217,0.41670224847396214
8,0.41670903193950654,0.4168643700281779
9,0.4167080862455898,0.4167208876013756
10,0.4167072096334563,0.4166989394625028
11,0.4167065651284324,0.41671769338846204
12,0.41670584079292083,0.41670111020406086
13,0.4167063395116064,0.4166980289022128
14,0.4167045171989335,0.41689336679379146
15,0.416703488945961,0.41671283106009166
16,0.4167036497725381,0.41669797027111055
17,0.41670143298308054,0.41669969723622
18,0.41670904414521326,0.416697797815005
19,0.41669884883032904,0.41675365694363914
20,0.416700630194611,0.416741584499677
21,0.41669986197021275,0.41669893900553384
22,0.41669882609446846,0.41669780045747756
23,0.416699765821298,0.4166978009144465
