epoch,loss,val_loss
0,0.7064655239582062,0.750179866830508
1,0.7500515907870399,0.7500157274405161
2,0.7503441520531973,0.7500067381858826
3,0.7500658131043116,0.7500079489946365
4,0.7500543558597564,0.7501112508773804
5,0.7500131460958057,0.7500803517500559
6,0.7500181717077891,0.7500006777445475
7,0.7500208625396093,0.750001666545868
8,0.7500117523537742,0.7500000511407852
9,0.750011928571595,0.75
10,0.7500168827639686,0.7500006220340729
11,0.9090486367808448,0.9166967132091522
12,0.9166721789704428,0.9166727931896845
13,0.8937442147069508,0.7500000090996425
14,0.7500063882668813,0.7500000087022781
15,0.7500092245870167,0.7500158793926239
16,0.7500091983609729,0.7500054219961166
17,0.7500075307422214,0.7500001775026321
18,0.7500096134477191,0.7500096743106842
19,0.7500081133974923,0.7501924888292948
20,0.7500087285041809,0.7500655148824056
21,0.7500096606943343,0.750000252922376
22,0.7500065365897285,0.7500134594440461
23,0.7500063738425573,0.7500109395583471
24,0.7500060068898731,0.7500018771092097
25,0.7500058441691928,0.7500082576672236
26,0.7500055696699355,0.750000047604243
27,0.7500060828261905,0.7500016278823217
28,0.7500109954012765,0.7500017312765122
29,0.7500073856115341,0.7500000050067902
