epoch,loss,val_loss
0,1.2292001358800464,0.7500292377869288
1,0.7500373953713311,0.7500337813695271
2,0.7500425769488017,0.7501632233460744
3,0.7500387840270996,0.7500139154195785
4,0.7500330013699001,0.7500137749910355
5,0.7500279579824871,0.7500275845925013
6,0.7500254312091403,0.7500142830610276
7,0.7500226063463423,0.7500180627504984
8,0.7500216258234448,0.750016320904096
9,0.7500210055775113,0.7502664487361907
10,0.7500185116661919,0.7500173426866531
11,0.7500175370640225,0.7500618917147318
12,0.7500175896088283,0.7500135368506113
13,0.7500167506138483,0.7500147697925568
14,0.7500163982444339,0.7500138886769613
15,0.7500249361197153,0.7500154166618983
16,0.7500169275336795,0.7500133377710978
17,0.7500138784249624,0.7500155407985052
18,0.7500138298008177,0.7500133809248606
19,0.750013311624527,0.7500375756025315
20,0.7500131014585495,0.7501019139289856
21,0.7500131798320346,0.750013342221578
22,0.7500129367642933,0.7500219027996063
23,0.7500128450923496,0.7500138399600983
24,0.7500127354198032,0.7500151302019755
25,0.7500126113626692,0.7500299178361892
26,0.7500127454863654,0.7500145890315374
27,0.7500123423470391,0.7500135162671407
28,0.7500121849775314,0.7500147437651952
29,0.7500121573872036,0.7500137579043706
30,0.7500119118558036,0.7500136283238729
31,0.7500119968917635,0.7500142589410146
32,0.7500119972229004,0.7500147184530894
33,0.7500118322239981,0.7500177502234777
34,0.7500117063787248,0.7500137281417847
35,0.7500116883648766,0.7500133333206177
36,0.750011699769232,0.7500359376271566
37,0.7500117195314832,0.7500136299133301
38,0.750011455403434,0.7500135128100713
39,0.750011506623692,0.7500133333206177
40,0.7500114834308624,0.7500134674310684
41,0.7500112325747808,0.7500133333206177
42,0.7500113222201665,0.7500133333206177
43,0.7500113018088871,0.7500133333206177
44,0.7500112043751611,0.7500136054754257
45,0.7500112546814812,0.7500133333206177
46,0.7500111552211973,0.7500141496658326
47,0.7500108850267199,0.7500133335192998
48,0.7500110173357858,0.7500146531661351
49,0.7500110104481379,0.7500222608645757
50,0.7500109944343567,0.750013958175977
51,0.7500110674964057,0.7500138847827912
52,0.7500108849340015,0.7500159406661987
53,0.7500109812815984,0.750016205628713
54,0.7500109735329946,0.7500138210455577
55,0.7500109098884794,0.7500212696790696
