epoch,loss,val_loss
0,0.458006301091777,0.4555502228339513
1,0.45595146090454525,0.45539644072453184
2,0.455686588022444,0.4550013004342715
3,0.45544214756621254,0.45503315683205925
4,0.45530325912104713,0.45557228275140127
5,0.4552863216665056,0.4548867110212644
6,0.4551357915401459,0.45566478808720906
7,0.45500739811526403,0.45464305293560026
8,0.4549404851926698,0.45490824431180954
9,0.45490593183702893,0.4549727159142494
10,0.4549010338319672,0.45494115618864694
11,0.4548812959856457,0.4550065645376841
12,0.4548713869518704,0.4549776799082756
13,0.4548432821830114,0.4548526093959808
14,0.4548557242817349,0.4552258654236794
15,0.45482147972451314,0.45510469933350883
16,0.4548243870337804,0.4546911392807961
17,0.45480612140231663,0.4546037334799767
18,0.454843534025881,0.4548735851248105
19,0.45478869273265204,0.4550220364133517
20,0.4547572623093923,0.45459809511899946
21,0.4547719307343165,0.4546333649555842
22,0.4547904979056782,0.45481757762034736
23,0.45474382613102593,0.4551400296290716
24,0.4547331878145536,0.45461016496022544
25,0.454750729865498,0.4546335214575132
26,0.45470442930195065,0.4549968734383583
27,0.4547173525293668,0.455380487481753
28,0.4547561757630772,0.45447182629505795
29,0.45472357341978287,0.45457635871569313
30,0.4547385323776139,0.454803968111674
31,0.4547538219491641,0.4545976861913999
32,0.4547167329788208,0.45458256312211354
33,0.45471140081352657,0.45461961422363917
34,0.4546995338863797,0.45489785861968995
35,0.45472118364440073,0.4545220945080121
36,0.4547093852890862,0.4546471461256345
37,0.4547161344157325,0.45460076332092286
38,0.454673389395078,0.4545797690550486
39,0.45468854570388795,0.45470967576901117
40,0.4546713340746032,0.454603891313076
41,0.45469390414158506,0.4544456960161527
42,0.45467884971698125,0.4544569975535075
43,0.4546608754727576,0.4546062373916308
44,0.4546843037141694,0.4546740692853928
45,0.454690656569269,0.45457389106353124
46,0.4546845280792978,0.4546729352871577
47,0.45467871072557237,0.45446800710757573
48,0.4546923922697703,0.454588316043218
49,0.4546476979123221,0.4557334061861038
50,0.4546831393639247,0.4549348114728928
51,0.45467677487929664,0.4562821650107702
52,0.4546879455447197,0.45508176265160244
53,0.4546640333599514,0.45445184379816056
54,0.454654374923971,0.45455924556652705
55,0.4546601598130332,0.45446820376316704
56,0.45463413897487853,0.4547288253903389
57,0.4546693008078469,0.45471725406249364
58,0.45467026733689836,0.4548521132469177
59,0.4546506686674224,0.4548568143248558
60,0.45464262171586356,0.4545664108395576
61,0.4546330031553904,0.4544957223534584
