epoch,loss,val_loss
0,0.45805696464247175,0.45597378800312677
1,0.45576892049445045,0.45504844627777735
2,0.4554664116038217,0.4556168303688367
3,0.45524615163935556,0.45491429845492043
4,0.45506970284382503,0.45496371706326805
5,0.4550033169719908,0.4546183271209399
6,0.4549727866186036,0.4547963736454646
7,0.4549588694837358,0.45488776250680285
8,0.4548965276479721,0.4549503525296847
9,0.45485290787617366,0.4550354770024618
10,0.4548497730758455,0.4548199820717176
11,0.4548463246160083,0.4546600871483485
12,0.4548122568991449,0.4547323192358017
13,0.4548009599910842,0.45448984662691755
14,0.45476696454816395,0.454504730463028
15,0.45477651947074466,0.45453261299928027
16,0.4547644952336947,0.45449773637453716
17,0.45476854128307764,0.45454319300254187
18,0.45474924882915285,0.45452842275301614
19,0.45469221948915056,0.45473246224721275
20,0.4547398327257898,0.45471929158767066
21,0.4546864880455865,0.45482470323642094
22,0.454683860845036,0.45459055942296983
23,0.4546667922006713,0.45450686717033384
24,0.45467458676629596,0.4544905117352804
25,0.454640456908279,0.4552276633381844
26,0.4546531503664123,0.45489455910523735
27,0.4546518568661478,0.45484271593888603
28,0.4546498041682773,0.45505358403921126
29,0.4546435139046775,0.4550689824024836
30,0.45465572287638983,0.4544919178088506
31,0.454638426747587,0.45444645402828854
32,0.45462720445129606,0.4545577888290087
33,0.45461509946319795,0.45446139345566433
34,0.45462936590777503,0.4544977125922839
35,0.45462192605601415,0.4547763111591339
36,0.4546138718658023,0.45465547281503677
37,0.45464557244380316,0.4546015828450521
38,0.45463711796866524,0.454583135108153
39,0.45461348022354975,0.45588098831971485
40,0.45460542456971276,0.454425625026226
41,0.4546021039750841,0.45665479999780656
42,0.45458394512203004,0.4544517640471458
43,0.4545872609482871,0.4545986499985059
44,0.454633699297905,0.45445069708426794
45,0.45458702258931266,0.4544594570994377
46,0.4546111308866077,0.45482490785916646
47,0.45458423914512,0.4545996930003166
48,0.45460838880141574,0.454569666047891
49,0.4546062206692166,0.4544063583215078
50,0.45457259735133915,0.45452082727352777
51,0.4546182194683287,0.4544570944706599
52,0.45455696643061105,0.4544791189432144
53,0.4546123617622587,0.454968567053477
54,0.4545703687734074,0.45454885709285736
55,0.4545867612030771,0.45455665105581283
56,0.45461037097374596,0.4546678544084231
57,0.454579794201586,0.4544218783179919
58,0.45458193782965345,0.454421066403389
59,0.4545962000886599,0.454970322171847
60,0.45456749654478495,0.45450066069761913
61,0.45455885428852505,0.4545997133453687
62,0.4545886339015431,0.4552726169625918
63,0.4545753981471062,0.45445053521792095
64,0.4545669508708848,0.4546520453890165
65,0.45457807936933303,0.45445287770032883
66,0.45456409262948566,0.45451560080051423
67,0.4545743400388294,0.4543976046641668
68,0.45457578612036176,0.45518780648708346
69,0.4545516658094194,0.45462637025117875
70,0.45456285832325616,0.454562666674455
71,0.4545643043253157,0.4546076791485151
72,0.4545776820513937,0.4547576007843018
73,0.4545394677453571,0.4577793529232343
74,0.45458465112580193,0.4544185564716657
75,0.4545913842055533,0.4545394915143649
76,0.454547783182727,0.4559881963729858
77,0.45458049107260173,0.45452027237415316
78,0.4545703743232621,0.4546754665374756
79,0.45459144828716913,0.4545692251722018
80,0.45456691027349894,0.45448961863915127
81,0.45455616296662227,0.45453815533717473
82,0.454577726079358,0.4546119978030523
83,0.4545675454603301,0.4546839786569277
84,0.45453271589014266,0.4545820810397466
85,0.4545652306344774,0.45453067316611606
86,0.4545666942795118,0.454559170126915
87,0.45454509540398913,0.45509095619122186
