epoch,loss,val_loss
0,0.7831969579325782,0.7828286700248718
1,0.7823939943975873,0.7821418353319168
2,0.782240588678254,0.782276625752449
3,0.7821633213626014,0.7820700306097667
4,0.7821009257899391,0.7821425293286641
5,0.7820475487841501,0.7819648036956787
6,0.7820253438287311,0.7819260598818462
7,0.781988216969702,0.7819090021848678
8,0.781982455889384,0.7818721104860306
9,0.7819682276513842,0.7819885069529215
10,0.7819458921882841,0.7826003070672353
11,0.7819382132026884,0.7818534198999405
12,0.7819447092612585,0.7824806626240413
13,0.7819160799715255,0.7819067003329595
14,0.781917681031757,0.7819000703096389
15,0.7819090590344535,0.7819154080152512
16,0.7819054242107604,0.7818511432011922
17,0.7819099797672695,0.7819979609648386
18,0.781913168920411,0.7818659442663193
19,0.7819050417343776,0.7818175231218338
20,0.7818994037840101,0.7820138514836629
21,0.7819002978669273,0.7824394641717275
22,0.7819006426599291,0.781842873096466
23,0.7818820784754223,0.7818289887905121
24,0.7818907190693749,0.7818010858297348
25,0.7818913312885496,0.7820230170488357
26,0.7818863308297264,0.7818103025754293
27,0.7818867124848896,0.781933292110761
28,0.7818748947646883,0.7819710983435313
29,0.7818712030251821,0.7820504768689474
30,0.7818832705285814,0.7818742057879766
31,0.7818714651134279,0.781932621439298
32,0.7818763511048423,0.7819370302756627
33,0.7818879113064872,0.7818907591104507
34,0.7818828232950634,0.781836809317271
35,0.7818688897159365,0.7819385799566905
36,0.7818665560881297,0.7818407691319783
37,0.7818628369039959,0.7820341432094574
38,0.7818795081774393,0.7817991939783097
39,0.7818619645569059,0.7818775126139323
40,0.7818551941182879,0.7819633057117462
41,0.7818631795512305,0.7818028825124105
42,0.7818549111286799,0.7818153102000555
43,0.7818553079499139,0.7819011223713557
44,0.7818579541444779,0.7819088973601659
45,0.7818485908375846,0.7819936956564585
46,0.7818655140399933,0.7819125841458638
47,0.7818525165054533,0.7817880040804545
48,0.781854670630561,0.782077471057574
49,0.7818701070812013,0.7818462456067403
50,0.7818459646966722,0.7817799485127132
51,0.7818566983011034,0.781908238252004
52,0.7818431782060199,0.7818001690705617
53,0.7818571658266915,0.7818031288385391
54,0.7818466572496626,0.7818214437166849
55,0.7818524316019482,0.7818616575400035
56,0.7818499724997414,0.7818113284111023
57,0.7818449189927843,0.7820210095246632
58,0.7818424484597312,0.781904663125674
59,0.7818486715555191,0.7818331040143967
60,0.7818561652898789,0.7818513464530309
61,0.7818497000402874,0.7818858553965886
62,0.7818407835165659,0.78177754620711
63,0.7818467873997158,0.7817859830458959
64,0.7818500736686919,0.7818746182521185
65,0.781841857181655,0.7817711583773295
66,0.781846653951539,0.7819276431798935
67,0.7818539662758509,0.7819013519287109
68,0.7818490751319461,0.7826988010803858
69,0.7818444553348753,0.7817991443872452
70,0.7818487507104873,0.7820405938625336
71,0.7818557635015911,0.7818438174724579
72,0.7818540689680311,0.7817783128817876
73,0.7818340585099326,0.7818286372423172
74,0.781849064456092,0.7818257722059886
75,0.7818339938190249,0.7817919228474299
76,0.7818506382968691,0.7819890694220861
77,0.7818420945538415,0.781938449382782
78,0.7818440148565504,0.7818257705767949
79,0.781846478872829,0.7819147009849549
80,0.7818333397838805,0.7819264838695527
81,0.7818430527846019,0.7818921107053757
82,0.7818397830989626,0.7821778439680735
83,0.7818380362855063,0.781795863032341
84,0.7818316048781077,0.7818047426144282
85,0.7818379451433818,0.7818059748013815
