epoch,loss,val_loss
0,0.5576577410565482,0.556263925353686
1,0.5560024992889828,0.5558711949984233
2,0.5559270946184794,0.5559229862292607
3,0.5558926919963625,0.5558609935442607
4,0.5558736219538583,0.555816907286644
5,0.5558672168519762,0.5558087790409724
6,0.5558498475816515,0.5557947606245677
7,0.555850205871794,0.5558179412285487
8,0.5558396286567052,0.5557787883281707
9,0.555832156141599,0.555783424894015
10,0.5558225009971195,0.5557907193899154
11,0.5558227057986789,0.5557943835258484
12,0.5558194174104266,0.555776660323143
13,0.5558151826593611,0.5558104680776597
14,0.5558107564316855,0.555792703350385
15,0.5558071863518821,0.5557939131657282
16,0.5558068471484714,0.5557931034564972
17,0.5558009296920564,0.5558322134415309
18,0.5558002933926053,0.5558157178560893
19,0.5557971896065605,0.555807377854983
20,0.5557958001030816,0.5557857202291488
21,0.5557939498821894,0.5558207464615504
22,0.555794468720754,0.5558641325235367
23,0.555792770160569,0.5557625452677409
24,0.5557921795580122,0.5557902791897456
25,0.5557913235823313,0.5557900759379069
26,0.5557942880524529,0.5557573476235071
27,0.5557936979399787,0.5557652390400568
28,0.5557907252444161,0.5557683982054392
29,0.5557888327042262,0.5557607062657675
30,0.555789723833402,0.5557919266621272
31,0.5557879016796747,0.5558099871079127
32,0.5557870465781953,0.5557673015991846
33,0.5557861896620856,0.5557832319339117
34,0.5557806808153788,0.5557920090754827
35,0.5557790213161045,0.5557688437700271
36,0.5557763976256053,0.5557578523556391
37,0.55577411558893,0.5557586768865586
38,0.5557744592560662,0.5557488836844762
39,0.5557749105427,0.5557939114173254
40,0.5557737645175722,0.555789289355278
41,0.5557740069362852,0.555745389064153
42,0.5557731760607826,0.5557857558329901
43,0.5557729801734288,0.5557619281609854
44,0.5557717918290033,0.5557736818790435
45,0.5557656235297521,0.5557769746780395
46,0.5557644647889667,0.555795849442482
47,0.5557639031145307,0.5557427304983139
48,0.555763307041592,0.5557808340787888
49,0.5557636626693937,0.5557962473233541
50,0.5557626866367128,0.5557812029123306
51,0.555761008143425,0.5557536166906357
52,0.5557610378265381,0.5557307654619217
53,0.5557614199982749,0.555733592192332
54,0.5557628900607426,0.5557664753198623
55,0.5557622148593266,0.5557320960362753
56,0.555759917418162,0.5557697849671046
57,0.5557603097624249,0.5557447085380555
58,0.5557624107599258,0.5560326534112294
59,0.5557636921670702,0.555757247765859
60,0.5557591870095995,0.5557335237264633
61,0.5557611099349128,0.5557889458735784
62,0.5557589293453429,0.5557429616053899
63,0.5557614940669802,0.5557378058036169
64,0.5557615489959716,0.5557451275587082
65,0.5557607200543085,0.5557476561466853
66,0.5557621468967862,0.5557942572434743
67,0.5557605819437239,0.555736006339391
68,0.555759085284339,0.5557361860275268
69,0.5557624632517497,0.5557544289827346
70,0.5557613342603047,0.5557287026246389
71,0.5557596962716844,0.5557414747873942
72,0.5557610898812612,0.5559333899021148
73,0.5557604407072068,0.5557474383115768
74,0.5557593064440621,0.5557314447164535
75,0.5557599358558655,0.5557532458305359
76,0.5557591642008888,0.5557419534524282
77,0.555760711868604,0.5557523353497187
78,0.5557603685590956,0.5557321370442708
79,0.555759144478374,0.555751476208369
80,0.5557586184210247,0.5557351203362147
81,0.5557586458126704,0.5557384945551554
82,0.5557575602134068,0.5557767392794292
83,0.555760007513894,0.5557370027303695
84,0.555758316675822,0.5557456683317821
85,0.5557577850951089,0.5558040527502696
86,0.5557613317569097,0.5557782284418742
87,0.5557585727373759,0.5557582605282466
88,0.5557591431008445,0.5557301220099131
89,0.5557581201261944,0.555737686196963
90,0.5557592164410485,0.5557464239994685
