epoch,loss,val_loss
0,0.7787329330576791,0.777947383483251
1,0.7779888871775733,0.7779434300263722
2,0.7779561002386941,0.778071092526118
3,0.77793954261144,0.7779262122313182
4,0.7779204099840588,0.7778915476401647
5,0.7779114553928376,0.7778897791703542
6,0.7779084331327014,0.7778742394844691
7,0.7779051839643054,0.7778856742779414
8,0.7779026653766632,0.7778972268104554
9,0.7778986777464548,0.7779216583967209
10,0.777895907772912,0.7778773569266001
11,0.7778936291403241,0.7780166615645091
12,0.7778924596574571,0.777952846844991
13,0.7778914832406574,0.7778774118026097
14,0.7778874376482434,0.7779648466110229
15,0.7778886873722076,0.7778789935111999
16,0.777885044309828,0.7778662635485332
17,0.7778842277261946,0.777867564757665
18,0.7778841069936753,0.777891014178594
19,0.7778823272387186,0.7778641308148702
20,0.7778823490540187,0.7778671474059423
21,0.777880885190434,0.7778633440732956
22,0.777881930563185,0.7778725924491883
23,0.777881198088328,0.7778710358142853
24,0.7778802868392732,0.7778820501565933
25,0.7778806446128421,0.7778707117636998
26,0.7778796828455395,0.7778941676219304
27,0.777879515422715,0.7778649030129114
28,0.7778810348643197,0.7778655021588008
29,0.7778790559106403,0.7778631062110265
30,0.7778775418069628,0.7778696139653524
31,0.7778788387907876,0.7778681849241257
32,0.7778788647121854,0.7778696441253027
33,0.7778778267966376,0.7778657527367274
34,0.7778776415056653,0.7778636179367702
35,0.7778781437211566,0.7778866924047471
36,0.7778777384890451,0.7778682875633239
37,0.7778786669704649,0.7778652926286062
38,0.777877159277598,0.7778700545628866
39,0.7778771507872475,0.7778636034329732
40,0.7778765254418055,0.7778637581268947
41,0.7778776616122988,0.7778713648716609
42,0.7778777809407976,0.777864522099495
43,0.7778772275315391,0.7778625373442968
44,0.7778760585520003,0.7778908715645472
45,0.777876800192727,0.7778772152264913
46,0.777876317580541,0.7778762384255727
47,0.7778765289253659,0.7778687729040782
48,0.7778764457172818,0.7778936319351196
49,0.7778769688208897,0.7778584929307302
50,0.7778770371013217,0.7778737394809723
51,0.777876440498564,0.7778647109270096
52,0.7778755429585775,0.7778734686772029
53,0.7778764371474584,0.7778961541255315
54,0.7778769821061028,0.7778661019802093
55,0.7778760852283901,0.7778631638685862
56,0.7778760388162401,0.7779082768360773
57,0.7778766752084096,0.7778843426704407
58,0.7778759297794766,0.7778637574116389
59,0.7778760961161719,0.7778690053224564
60,0.7778752945396635,0.7778748838504156
61,0.7778749668598175,0.7778708882729213
62,0.7778769275082482,0.7778631091117859
63,0.777877350502544,0.7778791892131169
64,0.7778758855925666,0.7779213515122732
65,0.7778756042983797,0.7778661357561747
66,0.7778762890365388,0.7779241155385971
67,0.7778760186698702,0.7778798001607259
68,0.777875987344318,0.7778640103737513
69,0.777876512673166,0.7778866577545802
