epoch,loss,val_loss
0,0.4464434349735578,0.44484072520335516
1,0.44495902446243496,0.4448714716831843
2,0.44487256413698195,0.44525287503004074
3,0.4448445534971025,0.4447670198480288
4,0.4448022640413708,0.4450132774511973
5,0.44476820362938774,0.44471880398193997
6,0.44474994359413783,0.44467291700839995
7,0.4447146575980716,0.4446930565834045
8,0.4447015139526791,0.4448345292607943
9,0.4446820811894205,0.4446404874523481
10,0.4446742650601599,0.4446264637708664
11,0.44467152902815077,0.4447796126008034
12,0.44465963747766285,0.44475451310475667
13,0.4446626677049531,0.4446441250046094
14,0.44465248100625143,0.4446134908000628
15,0.4446531844139099,0.44475292044878006
16,0.4446519706050555,0.4446626813014348
17,0.4446507642467817,0.44463431572914125
18,0.4446496581104067,0.44462252551317216
19,0.4446515723400646,0.44461253203948337
20,0.444652289642228,0.44464895377556485
21,0.4446562465230624,0.44460808285077413
22,0.44464371857378215,0.4446098804275195
23,0.444641668551498,0.4446418066422145
24,0.44463663664129044,0.4446121269265811
25,0.44463654893636706,0.4446401309967041
26,0.4446354772382312,0.4446137022773425
27,0.44463521485196217,0.44468832447131473
28,0.4446356390449736,0.44460887769858043
29,0.4446351854933633,0.44463633304834366
30,0.4446314559446441,0.44463928933938346
31,0.44463436820109686,0.4446805348594983
32,0.44463411162959204,0.444735487361749
33,0.44463219034671786,0.44465692218144737
34,0.4446312948796484,0.44465287107229234
35,0.4446326130827268,0.44467291913429896
36,0.44462952269448175,0.44462640764315925
37,0.444629328681363,0.4446066286365191
38,0.44462978106074863,0.44464382567008337
39,0.44463038735257254,0.44459488703807193
40,0.4446281039516131,0.44463741211096447
41,0.444632985273997,0.4446527616182963
42,0.444627358396848,0.44460982114076614
43,0.4446269364688131,0.44461884224414827
44,0.4446254798637496,0.4446001914540927
45,0.44462848990493353,0.44462015507618585
46,0.44462782399521933,0.44461658140023547
47,0.4446242373784383,0.4446240620215734
48,0.4446239436864853,0.4445964698592822
49,0.44462325692839094,0.4445966583689054
50,0.44462658856974707,0.44461908413966494
51,0.4446256891422802,0.4446817456682523
52,0.44462728594409096,0.44461092140277225
53,0.4446266856392225,0.4446572302977244
54,0.4446267309122615,0.4445987116098404
55,0.4446233807073699,0.4446692891518275
56,0.44462805187039905,0.44461080423990884
57,0.4446237016386456,0.44462968450784685
58,0.4446259475482835,0.44460347306728365
59,0.444625030875206,0.4446481277346611
