epoch,loss,val_loss
0,0.7786651035679711,0.7780733193159104
1,0.7779975494411256,0.7779261023600896
2,0.7779625655677583,0.7779295919338862
3,0.7779529587162866,0.777925662557284
4,0.777944333076477,0.7779074892997742
5,0.7779388624429703,0.7779838692347208
6,0.7779360971318351,0.7779024676879247
7,0.7779335562388102,0.7779146059354146
8,0.7779304022126727,0.777951761841774
9,0.7779281112882827,0.7779829033613205
10,0.7779233794742161,0.7779997418721517
11,0.7779227197302713,0.7779394174814225
12,0.7779197812212838,0.7779793634017309
13,0.777917636540201,0.7779322338104248
14,0.7779155649609036,0.7779014923175176
15,0.7779153175486458,0.7778959468603134
16,0.7779144754807155,0.7779111389319102
17,0.7779140595992406,0.7779384520848592
18,0.7779117865959804,0.7779544881184896
19,0.7779115982055664,0.7778969122171402
20,0.7779114593929715,0.7779015931685765
21,0.7779107724428177,0.7779600576957066
22,0.7779106099208196,0.77789521920681
23,0.7779102930890189,0.777942672252655
24,0.7779104365507762,0.7778933820724487
25,0.7779096115165287,0.7778939303954442
26,0.7779088034497367,0.7779105902910233
27,0.7779099742041694,0.777892927090327
28,0.777909658352534,0.7779110381603241
29,0.777909420437283,0.7779233018557231
30,0.7779086634450488,0.7779553714593251
31,0.7779095003075069,0.7778979554573695
32,0.7779092557430267,0.7778944827715556
33,0.777908219271236,0.7778937708934148
34,0.7779080273707708,0.7779228051900864
35,0.7779073435995314,0.7778913733561834
36,0.777907549434238,0.7778911153475444
37,0.7779070129262077,0.7779014300902685
38,0.7779058774974611,0.7779088503519694
39,0.7779055747058656,0.7778967747688293
40,0.7779058007134332,0.777893629471461
41,0.7779056775569916,0.777890511194865
42,0.7779061064720154,0.777893249909083
43,0.7779049553606245,0.7778907403151194
44,0.7779048192898432,0.777936372756958
45,0.7779058489667044,0.7779318395853042
46,0.7779048758612739,0.7780501120090485
47,0.7779049449894163,0.7778897519906361
48,0.7779054691261715,0.7778926875988642
49,0.7779050396283468,0.7778975104093552
50,0.7779046320517858,0.777893922607104
51,0.7779045075707965,0.7778911435206731
52,0.7779044646686978,0.7779345906972885
53,0.7779047925869624,0.7778893910646438
54,0.7779041823678546,0.7778884848753611
55,0.7779044235944748,0.7779072402318319
56,0.7779044784837299,0.7778922613064448
57,0.7779053602615992,0.7779364003340403
58,0.7779032929870817,0.7779023647705714
59,0.7779042982392841,0.777914739926656
60,0.7779053939978282,0.7778968005577723
61,0.7779043082793554,0.777902311484019
62,0.7779033833609686,0.7778960096041362
63,0.7779049981170231,0.777897150238355
64,0.7779048099252913,0.777912405927976
65,0.7779037490023507,0.7778891332149506
66,0.7779032513697942,0.7778881301085154
67,0.7779032931195365,0.7778903158505758
68,0.7779031981097327,0.7778890393177669
69,0.7779034016794628,0.7778887359301249
70,0.7779042593903012,0.7778906239668528
71,0.777904092113177,0.7778872411251068
72,0.7779022259977129,0.7779148917198181
73,0.7779032803906335,0.7779203772147496
74,0.7779035349289576,0.7778861325184504
75,0.7779033697048823,0.7779026132027308
76,0.7779036073552238,0.7779231296380361
77,0.7779035366508695,0.7778896136283875
78,0.7779027652740479,0.7778918636639913
79,0.7779039762417476,0.7778919567664464
80,0.777903066251013,0.7778901229699453
81,0.7779020570516586,0.7779082663059235
82,0.7779034842782551,0.7778887370030085
83,0.7779040794637468,0.7778924697240194
84,0.7779024351040522,0.7779866552352905
85,0.7779024736218982,0.7779098538557688
86,0.7779033360746171,0.7778915184736251
87,0.7779021870030297,0.7778865994612376
88,0.7779024642308553,0.777903310418129
89,0.7779030995368957,0.7779066475232442
90,0.7779032173819012,0.7778893877267837
91,0.7779021040333642,0.7779717908700308
92,0.7779028262429767,0.7779094914197922
93,0.7779027396970325,0.7778979393641154
94,0.7779023095501794,0.7779271895885468
