epoch,loss,val_loss
0,0.22504775281416045,0.22279250555237134
1,0.22295788188444243,0.22273498059312502
2,0.22285639764534101,0.223254629055659
3,0.22279552820656034,0.2226231681307157
4,0.2227813654144605,0.22269408977031707
5,0.2227581532796224,0.2227031782766183
6,0.22273249319526883,0.222608589053154
7,0.22272848396168815,0.22275860123833022
8,0.2227114676833153,0.222898814201355
9,0.2227043419016732,0.22300385746359824
10,0.22269899895124964,0.22270108690857887
11,0.22268976180752117,0.22260276405016582
12,0.22267753485507435,0.22260327075918515
13,0.22267068407932916,0.2226252118249734
14,0.2226651253302892,0.22266464191675187
15,0.22266268972886932,0.22266854935884475
16,0.22265537659658327,0.22283596580227216
17,0.2226544864045249,0.22258498467008273
18,0.22265332357419862,0.2226359906097253
19,0.22264739384916094,0.2225981160501639
20,0.22265137117769984,0.22261603104074795
21,0.2226495152082708,0.22261513469616573
22,0.22263715749316745,0.22297786110639572
23,0.22264254964391392,0.22284850551684698
24,0.22263808833890492,0.22297416043281554
25,0.2226413515475061,0.22272912490367888
26,0.22263783286015193,0.2225928716758887
27,0.22263885305987463,0.22271930994590122
28,0.22263425799210868,0.22263774519165358
29,0.22263840769728024,0.2225784803132216
30,0.2226370897061295,0.22257400095462798
31,0.22263527474800746,0.22257542126377425
32,0.2226334976553917,0.22263841234644255
33,0.22263337144255638,0.2225898940761884
34,0.22263214896122616,0.2226096087594827
35,0.2226278967526224,0.22257379951079687
36,0.22262555760476324,0.2225893248518308
37,0.22260204171472125,0.22255008365710577
38,0.22258923325604862,0.22265818988283476
39,0.2225908554924859,0.22258238990108173
40,0.2225886784493923,0.22258996540308
41,0.2225896204345756,0.22257841421167054
42,0.22258849656913016,0.22265644053618114
43,0.2225871575242943,0.22262416861454645
44,0.2225857214762105,0.22265573458870253
45,0.222586252513859,0.22280055304368337
46,0.2225871414442857,0.2225342068771521
47,0.22258744988838833,0.22254681638876597
48,0.22258595594101482,0.22269389711817106
49,0.22258373744620216,0.22260719524820646
50,0.22258653129471673,0.22261179836591086
51,0.22258527370956208,0.2225407794912656
52,0.22258190618952114,0.22252931985259056
53,0.22258404772811466,0.22254752930998803
54,0.22258778054184383,0.22256420079867045
55,0.22258366482456526,0.22254109178980191
56,0.22258574882149695,0.2225564203063647
57,0.22258230946130222,0.22253534203767777
58,0.22258527819646728,0.2226085830728213
59,0.2225859852068954,0.22254363825917245
60,0.22258480523029964,0.2225362105667591
61,0.22258545898397764,0.2225544767677784
62,0.2225829127397802,0.22258759901920955
63,0.22258397377199596,0.2225598373711109
64,0.22258679649564955,0.2225349824229876
65,0.22258259863654772,0.22253943353891373
66,0.2225836535029941,0.22255533948540687
67,0.222581252945794,0.22253148771325748
68,0.22258696943190362,0.22257978877425194
69,0.22258229160971113,0.22289662861824036
70,0.2225803723765744,0.22267600260178247
71,0.22258606117963792,0.22260969655712445
72,0.22258380142185424,0.22254624976714452
