epoch,loss,val_loss
0,0.3355359589987331,0.33396570559342703
1,0.3339588250120481,0.3337765205701192
2,0.33385463060273063,0.3338363734483719
3,0.3337927843398518,0.33382115081946057
4,0.33374903356366686,0.3340238749583562
5,0.3337493755949868,0.3337315159837405
6,0.3337262905240059,0.33366027794281644
7,0.3337178961634636,0.3337140217622121
8,0.3337032146453857,0.3336710261503855
9,0.3337049293319384,0.33363289936383567
10,0.33369533834854764,0.33364076018333433
11,0.33369731334845226,0.33373436733086903
12,0.3336879599955347,0.3336364718079567
13,0.33368279851807486,0.3336732184489568
14,0.3336758283906513,0.33363973766565325
15,0.3336729578574498,0.33374760987361274
16,0.3336736677951283,0.3336558857361476
17,0.33366816836595536,0.3336112293601036
18,0.3336484921574593,0.3335982750058174
19,0.33364412556091944,0.33362328380346296
20,0.3336400620010164,0.3337527755300204
21,0.3336362695362833,0.33371106042464577
22,0.3336355836258994,0.3337163981199264
23,0.33363918737570447,0.3335980231364568
24,0.3336324252022637,0.33359894450505573
25,0.33362263862291974,0.33358538514375685
26,0.3336224221388499,0.333573970357577
27,0.3336202225950029,0.33357316237688067
28,0.33361783990595073,0.33356553159157437
29,0.33361952387624316,0.3335773248275121
30,0.3336167743007342,0.3335994374950727
31,0.33361701991822984,0.3335998981197675
32,0.33361706044276557,0.33357045763731
33,0.33361392531130046,0.33358701449632644
34,0.3336140092743768,0.33361675719420114
35,0.3336135426627265,0.33358057006200154
36,0.3336110349694888,0.3337027035156886
37,0.33360972632302177,0.33357340743144354
38,0.33361442163917754,0.33362720773617427
39,0.3336114899582333,0.3336053160230319
40,0.3336382699476348,0.33360941503445307
41,0.33362382237116495,0.33357895561059314
42,0.33361394259002475,0.3335889584024747
43,0.33361584364705615,0.33372936058044433
44,0.3336152923504512,0.33372929886976876
45,0.33361354449060227,0.333591438015302
46,0.333614667766624,0.33362275471289954
47,0.3336121967633565,0.33357598884900413
48,0.3336130826936828,0.3335778073469798
