epoch,loss,val_loss
0,0.4468427032298512,0.44519884943962096
1,0.44500847305854163,0.44498010305563607
2,0.44491178043021096,0.44479255632559456
3,0.4448716680341297,0.44476907833417256
4,0.4448608552283711,0.4447676752010981
5,0.44484677040576937,0.44483499763409295
6,0.4448443183104197,0.4448241962591807
7,0.44483204181989033,0.4448107496102651
8,0.4448249956038263,0.44480160280068715
9,0.44481088242928185,0.4450012832482656
10,0.4448045126729541,0.4447804107864698
11,0.4448034336765607,0.44475813712676365
12,0.4448005462421311,0.4447731047868729
13,0.4447978765567144,0.44489785432815554
14,0.4447930484281646,0.4447472156882286
15,0.4447898897793558,0.44484277719259263
16,0.44478315713008243,0.4447814728220304
17,0.44478569688399633,0.4447902435262998
18,0.44478164870209164,0.44474279403686523
19,0.44477781781223086,0.4448435340921084
20,0.4447524660097228,0.4447558293541273
21,0.4447483420901828,0.44471703432003656
22,0.44474429816669886,0.4447672083377838
23,0.44474353154500323,0.44474264697233834
24,0.4447433781557613,0.44477567793925604
25,0.4447397960358196,0.44474938440322875
26,0.44474047497246,0.44471335369348525
27,0.44473679031266106,0.44482147818803786
28,0.444737085474862,0.444703815082709
29,0.4447366193797853,0.44471421438455583
30,0.44473347389035756,0.4447028625210126
31,0.44473426340023675,0.44469618872801464
32,0.4447325825161404,0.4447184560696284
33,0.4447347493502829,0.44469271977742514
34,0.44473029039303463,0.4446920599937439
35,0.44472606158918804,0.44469732731580736
36,0.44472830546564524,0.44468448505798974
37,0.4447255562610096,0.4447033689220746
38,0.44472472772333355,0.44470306746164956
39,0.4447247436377737,0.4447411795457204
40,0.4447244419720438,0.4447091908653577
41,0.4447254683176676,0.44472741732994714
42,0.4447249797715081,0.4446896990537643
43,0.4447224851316876,0.4446966257691383
44,0.44472379619545405,0.4447012699643771
45,0.44472332118617164,0.44468701142072675
46,0.444723671456178,0.4447669469515483
47,0.44472115261024897,0.44469541108608246
48,0.4447222380373213,0.444704144736131
49,0.44472157929341,0.4447252666950226
50,0.444720981531673,0.44474193263053896
51,0.44472079000870385,0.44470822660128273
52,0.4447209572990735,0.4447929781675339
53,0.44472220268514423,0.444694255232811
54,0.4447206331425243,0.44474123203754423
55,0.4447222487197982,0.44477162009477617
56,0.44471823304229313,0.44468814188241956
