epoch,loss,val_loss
0,0.5009384840859307,0.5000129342079163
1,0.5001232014629576,0.5000371336936951
2,0.6218705385128657,0.625
3,0.625,0.625
4,0.625,0.625
5,0.625,0.625
6,0.625,0.625
7,0.625,0.625
8,0.625,0.625
9,0.625,0.625
10,0.625,0.625
11,0.625,0.625
12,0.625,0.625
13,0.625,0.625
14,0.625,0.625
15,0.625,0.625
16,0.625,0.625
17,0.625,0.625
18,0.625,0.625
19,0.625,0.625
20,0.625,0.625
