epoch,loss,val_loss
0,0.7090256004201041,0.708333432674408
1,0.708333432674408,0.708333432674408
2,0.708333432674408,0.708333432674408
3,0.708333432674408,0.708333432674408
4,0.708333432674408,0.708333432674408
5,0.708333432674408,0.708333432674408
6,0.708333432674408,0.708333432674408
7,0.708333432674408,0.708333432674408
8,0.708333432674408,0.708333432674408
9,0.708333432674408,0.708333432674408
10,0.708333432674408,0.708333432674408
11,0.708333432674408,0.708333432674408
12,0.708333432674408,0.708333432674408
13,0.708333432674408,0.708333432674408
14,0.708333432674408,0.708333432674408
15,0.708333432674408,0.708333432674408
16,0.708333432674408,0.708333432674408
17,0.708333432674408,0.708333432674408
18,0.708333432674408,0.708333432674408
19,0.708333432674408,0.708333432674408
20,0.708333432674408,0.708333432674408
