epoch,loss,val_loss
0,0.5032273398770226,0.5019916296005249
1,0.48019067129161624,0.4583333730697632
2,0.4583333730697632,0.4583333730697632
3,0.4583333730697632,0.4583333730697632
4,0.4583333730697632,0.4583333730697632
5,0.4583333730697632,0.4583333730697632
6,0.4583333730697632,0.4583333730697632
7,0.4583333730697632,0.4583333730697632
8,0.4583333730697632,0.4583333730697632
9,0.4583333730697632,0.4583333730697632
10,0.4583333730697632,0.4583333730697632
11,0.4583333730697632,0.4583333730697632
12,0.4583333730697632,0.4583333730697632
13,0.4583333730697632,0.4583333730697632
14,0.4583333730697632,0.4583333730697632
15,0.4583333730697632,0.4583333730697632
16,0.4583333730697632,0.4583333730697632
17,0.4583333730697632,0.4583333730697632
18,0.4583333730697632,0.4583333730697632
19,0.4583333730697632,0.4583333730697632
20,0.4583333730697632,0.4583333730697632
21,0.4583333730697632,0.4583333730697632
