epoch,loss,val_loss
0,0.12841723697864516,0.05738667522200524
1,0.05734720169731636,0.05757075727571048
2,0.05545637693579324,0.047865929458429025
3,0.04650612723653548,0.04522639105503902
4,0.04571672165828675,0.04566839390547656
5,0.04571250476180625,0.045105120338600285
6,0.04570573721078345,0.045528318561857815
7,0.04554513156667957,0.04537503810533552
8,0.04558351898266984,0.04586028376537951
9,0.04552075667700735,0.0457105225655553
10,0.04557641641703484,0.046386189616638374
11,0.045509402822866224,0.045215960171133704
12,0.04557243930130403,0.04556758992703762
13,0.04552105545251716,0.04537293659517955
14,0.04548283112180274,0.0458781499236927
15,0.045453569958487296,0.04511596382307353
16,0.04542831345050213,0.045171953369967696
17,0.04541296686815254,0.04562479352872114
18,0.0453906548642579,0.046459215668163426
19,0.04534541950770374,0.04517062945464934
20,0.045324269204249173,0.04553256388446604
21,0.04534320439804809,0.04508225697279528
22,0.04538885879555173,0.04578419385750794
23,0.045213051943310226,0.04521860656105803
24,0.04527516306165617,0.04511352538010945
25,0.04528617587798126,0.0453631083147573
26,0.04528596652919021,0.04477912799810056
27,0.0452099543236732,0.044774512502110037
28,0.04520614453619028,0.04536611033915083
29,0.04519659726050557,0.0446647117012716
30,0.04525903765790875,0.046041138140354626
31,0.04514098385609956,0.045130446425580964
32,0.045138938704415044,0.04494778079707482
33,0.04508874604210624,0.04530922794870854
34,0.04517915790363198,0.04478310546343537
35,0.045061516768955916,0.04533712910069075
36,0.04508684620986395,0.04480648958121633
37,0.04507904534951214,0.045298548162419565
38,0.045094401794035406,0.04501145551504526
39,0.045054924066884106,0.045209342196713465
40,0.0450490663702549,0.044844438524229875
41,0.045023351669934604,0.04494416307789746
42,0.0449975401630412,0.04529633839045615
43,0.04501936501995847,0.04529193610264805
44,0.04502601490533555,0.044589403978783373
45,0.04492214770011651,0.046380829664954965
46,0.04493357218866319,0.045208449030937056
47,0.04506932738927333,0.04456299284356107
48,0.044960740743747604,0.0448634570626986
49,0.04490458996981705,0.04509452224856925
50,0.044893349199381045,0.04508129728240069
51,0.0449904304259356,0.04544940824836222
52,0.04495978768457719,0.0444464023399406
53,0.04488363207828347,0.044841110479320545
54,0.04485699294007279,0.04518218499189683
55,0.04489312281151186,0.044454333881113924
56,0.04495585934840527,0.04460347776742285
57,0.04485064438773621,0.044518826511788755
58,0.0449147747825632,0.04503219892364185
59,0.04484069874197378,0.044816152134865034
60,0.044801791130779506,0.04518201893944501
61,0.04494651743142908,0.045385416902106304
62,0.04486772377561558,0.045320756325629666
63,0.04484805422205308,0.04605551313793114
64,0.044797908974890055,0.04480146267352159
65,0.044805007939264466,0.04455191753066388
66,0.04489789371259283,0.04490853901341858
67,0.044742452862933914,0.044243529544541915
68,0.044869801619739115,0.04437894094545635
69,0.04480543019368761,0.044775376660439854
70,0.044810070930757076,0.04569680755776837
71,0.044771714858317976,0.04446048235165717
72,0.0448310118715341,0.04478008713925805
73,0.04475682729450703,0.04516179555556822
74,0.04478212746966352,0.044614371524340224
75,0.04473628218007729,0.04482385971081281
76,0.04479840558961281,0.04436326837524217
77,0.04474370334242994,0.04444510773980721
78,0.04473395475858156,0.04487658193178653
79,0.04479712534186376,0.04450466681170362
80,0.044797773533836786,0.04514987097998243
81,0.04473111635018258,0.044756395225834904
82,0.04480072391562481,0.04517442087281808
83,0.04471858409661307,0.04413455990433781
84,0.044752490653632425,0.04518452029351637
85,0.044718860567819436,0.04472361840024814
86,0.04470240560098846,0.044386298215776755
87,0.04467905429319648,0.04467419563349496
88,0.04471924068603611,0.044395898015637335
89,0.0447011281236389,0.044719627932622096
90,0.04471744703358061,0.04448941013678994
91,0.04472396883964594,0.044558175709246924
92,0.04468694311226583,0.044589547702263276
93,0.0447358878869374,0.04450509652280105
94,0.04469028958752215,0.04429025283098154
95,0.04467179996107533,0.04511257220328042
96,0.044648552022563674,0.045212744407260565
97,0.044792752350708544,0.04505824020564015
98,0.04465275360913693,0.04469648085618752
99,0.04459170034618722,0.04453542249307939
100,0.04468536121476061,0.04418804267102931
101,0.044659976907608694,0.04464991430517898
102,0.044649814497837746,0.0447334122070727
103,0.044648283716445664,0.045611920678730385
104,0.044679621471598534,0.04454016067732107
105,0.04459359349522887,0.04467192288349461
106,0.044686306138599446,0.04441344733866614
107,0.044609621126558446,0.044744749753773044
108,0.04460713067955918,0.044181371877388416
109,0.04464012812524196,0.04457841748773643
110,0.04463125088619925,0.04436506826039331
111,0.04463149381444016,0.04448784633182026
112,0.044626755983838716,0.04469113334789831
113,0.04459469582002202,0.0444002121950514
114,0.044604959599762586,0.04472278713059439
115,0.04462691427482267,0.04595180348135913
116,0.04466331878505413,0.04445073830598945
117,0.044566830501616896,0.04539101855951142
118,0.044628879554992874,0.04432215302793444
119,0.044602849895354894,0.04448756179595506
120,0.044584109234574856,0.04503667612849374
121,0.04464108178765565,0.045218554680232406
122,0.04463135605563549,0.044289674191071736
123,0.044547005731161604,0.04444582973749886
124,0.044649590263497026,0.045070497952863935
125,0.044524490028641846,0.044525734656584395
126,0.04461142649119692,0.04616070950273055
127,0.04461795667970449,0.04427180874828476
128,0.04458069197811285,0.04422339649981736
129,0.04453671642967637,0.044999874150544364
130,0.044642213964107065,0.04487457200001624
131,0.04458093812819382,0.04478759794756646
132,0.04453393046445673,0.045139658485442144
133,0.04457249003765991,0.044503293923894266
134,0.044495882945347114,0.044077974876102904
135,0.04461530798734834,0.04440643647273374
136,0.044527227359118925,0.04426717377852722
137,0.04462664160239291,0.0442028212226316
138,0.04458425295430976,0.04430663808324664
139,0.04450428921242264,0.04440801488768615
140,0.044582784027175144,0.04438722270048753
141,0.04454457582713763,0.044513135627505515
142,0.04455795661801788,0.044377188890162254
143,0.044566407973517616,0.04455205773240241
144,0.04452309594438422,0.04514865814441662
145,0.04458768560106545,0.044524143269010594
146,0.04449184926447582,0.044215501495330815
147,0.044575678968094355,0.045724877925145666
148,0.04449775075886117,0.04488551842090509
149,0.04449434457114565,0.044809249299591306
150,0.044560540960687,0.0443578560583557
151,0.044542505895644194,0.044617358498533335
152,0.044556634314707556,0.0447078854657032
153,0.04454210735211463,0.04477553246989584
154,0.04450489651892279,0.04441658154704059
155,0.04452065562108787,0.04407724245187639
156,0.044501058374520806,0.04423231861493194
157,0.04449881053576924,0.045017433592369656
158,0.04451732823545381,0.044585810717216665
159,0.04447925301562685,0.04450843666265642
160,0.04453495491212993,0.045009977719500716
161,0.04450845202194193,0.04423024469566005
162,0.044539805860764614,0.04494009212978704
163,0.044520169465830706,0.04405118423529766
164,0.04449874250469393,0.04477576406510103
165,0.04451922772199993,0.044278903419793944
166,0.04447113955493701,0.044628731414446635
167,0.044505170373171164,0.04451701340768752
168,0.044512378792217124,0.04426385321455833
169,0.04450426444882901,0.044351263485461125
170,0.04452337987540011,0.04409318061548596
171,0.04456615276598985,0.04513913320433014
172,0.04439373644741297,0.044628866978029695
173,0.04456850167084686,0.04468427848600087
174,0.044431268603216154,0.04477668416695499
175,0.04448874798406465,0.045189271348949976
176,0.04448128754621039,0.04479695090882247
177,0.04447187545920693,0.04419652790598438
178,0.04451089147996282,0.04434656544451714
179,0.04453848890263477,0.044301319106996535
180,0.044429765637945984,0.04553735247846113
181,0.04446824725657534,0.04490411803567933
182,0.04449573266557877,0.04495254572143509
183,0.044468400174605814,0.04524670456140919
184,0.044469407188600076,0.0441400550566662
185,0.04446166849111374,0.04444629082066038
186,0.044470077897400345,0.04403489769529051
187,0.04443403629880693,0.04439841909394438
188,0.04447099747372263,0.04474975483136324
189,0.044420192791611975,0.04454971242445578
190,0.044552890196301494,0.04403791565238977
191,0.04443387530306091,0.04532342153313448
192,0.04448542957126463,0.0445093869753106
193,0.04444446855005957,0.04461297171839323
194,0.044443791051451756,0.04438562435430053
195,0.04447939194512368,0.045297994749466344
196,0.04446779674735496,0.0445464950425412
197,0.04443448873411047,0.044180400252126946
198,0.04450383737234098,0.044190852491419325
199,0.04451217797732602,0.04508500638400477
200,0.044461866014818545,0.04471512296645702
201,0.04443561291090398,0.04447738008491197
202,0.044440343504914895,0.04452822055818748
203,0.044462090048106924,0.04474588871004957
204,0.04446000436734089,0.045192515479953094
205,0.04445756503050341,0.04444969747478398
206,0.04441564602456118,0.0442708541017635
207,0.044502108720167896,0.04438387277372392
208,0.044453323498081565,0.04416662321573806
209,0.04445500439441529,0.04489478806027176
210,0.04448014682818264,0.044597503456098544
211,0.04444360494149959,0.04404429073015459
212,0.04443658308117256,0.044461765441271436
213,0.044450126148547965,0.04438438157013311
214,0.04446783672028653,0.044182692882302164
215,0.044441573406259566,0.04425833535031006
216,0.04445102907677035,0.04454597299130211
217,0.0445426303109905,0.04540759097535669
218,0.044396450761062634,0.04412986838178936
219,0.044409458035677904,0.04434900669438637
220,0.04451432462732246,0.04436655229626485
221,0.0444527573911824,0.04450940256922813
222,0.04439396599191605,0.04431404232368864
223,0.04445372713666215,0.04428729135767357
224,0.04439479654353799,0.04440358620268765
225,0.04441556331045483,0.04486007620822856
226,0.044420053067910956,0.04419525987692046
227,0.044457384926073526,0.04490763855024076
228,0.04444745103855239,0.04482460018384675
229,0.044419753825435296,0.04435045283703831
230,0.044503132610569894,0.0444530520873128
231,0.044356260990871414,0.04453653765897173
232,0.044420989236614646,0.044814226717297775
233,0.04445443081106006,0.04460050930721183
234,0.04443638205246389,0.04433209263443792
235,0.04440075311617351,0.04412320309155936
236,0.044415187193964645,0.044517355939816004
237,0.04443561012256416,0.04523232193316303
238,0.04442512487163724,0.044993041199481054
239,0.044432610952764594,0.044625682390951674
240,0.04439795247835926,0.044276957567294765
241,0.04444171751619644,0.044125778375289734
242,0.044419029995604827,0.04468071621907024
243,0.04440952645488514,0.04468923530524628
244,0.04445853177339452,0.04490179588401024
245,0.04446898608158118,0.04441075824624765
246,0.04436452179851846,0.044601095817220014
247,0.0444221298935763,0.04419285320966834
248,0.04449162572497752,0.0441739457440522
249,0.04435931736502163,0.04649855270443592
250,0.0444492693610186,0.04449547238745917
251,0.04440707276113369,0.04410553173163596
252,0.044476874942568786,0.044321002915796916
253,0.04439585366803868,0.0443860720591228
254,0.04442535628046737,0.04482448420512011
255,0.04438326389650792,0.04446789573248083
256,0.044399494423547015,0.04471388117381435
257,0.04441893667997659,0.04438362273836626
258,0.044387760480946004,0.044806605653782465
259,0.04440681253980385,0.044092613004477824
260,0.04441701490577358,0.04423029998092767
261,0.044427800505610925,0.04411296285019581
262,0.044440520422350346,0.04426738179862709
263,0.04437919852397424,0.04413118062374945
264,0.044423578350805244,0.04434532668647843
265,0.04443036725072318,0.04404701639306967
266,0.044377149995196895,0.04420138790632182
267,0.04438082781980618,0.04403932559852314
268,0.044411393988167944,0.04431663492563743
269,0.04442137575314311,0.04484586068191867
270,0.04437164199276087,0.044737758170478675
271,0.044409478719918655,0.043987424802335244
272,0.044432651120193394,0.0445834482469908
273,0.04437758005072689,0.0444646488063025
274,0.04438478037610076,0.044287617438909056
275,0.044368669473911146,0.04465622921388201
276,0.04437018270440844,0.04410061225844304
277,0.044433192620390485,0.04438623282758256
278,0.0443964758878615,0.0441149939407042
279,0.04442426466802934,0.044093246606046965
280,0.04432967252362967,0.04430489439898828
281,0.04443301402829512,0.044251612338435324
282,0.04444321366267855,0.04462714833925887
283,0.04437094140910067,0.04421342731179032
284,0.04440934886529144,0.04429522166168343
285,0.04432946279265804,0.04534038828948423
286,0.044438516184860465,0.044178999868653
287,0.044305551678469446,0.04511039783571976
288,0.04441911714985425,0.044130063580377035
289,0.044315779561267504,0.04459271739922004
290,0.04447920450258522,0.044226129658162805
291,0.04436122976859849,0.044332981262108336
292,0.04437374119302467,0.04417892000985534
293,0.04440120241407725,0.04514356322102159
294,0.04434758239861483,0.04453934154539312
295,0.04437531671938731,0.04621922730251382
296,0.04441723698158323,0.04418611144714277
297,0.04436198525981706,0.04420351419148676
298,0.044414100601021286,0.044208312081112686
299,0.044331933679877894,0.04410374592103038
300,0.04440757366160926,0.04404289619025974
301,0.04432210758271857,0.0442793124599807
302,0.0444208808208429,0.04393803384234385
303,0.044359399198586,0.044087180563847785
304,0.044405546589368954,0.04564719531456725
305,0.04439268762841816,0.04415011417467763
306,0.044377053455658566,0.04489328619489451
307,0.0443706183666336,0.04476932923089224
308,0.044331710789422434,0.04440063633166832
309,0.044371593847064544,0.04425176298464861
310,0.044381224463128054,0.04511879525621924
311,0.044418325306457535,0.04417766114532296
312,0.04430587470403121,0.04610113737196321
313,0.044402255299745966,0.04423083694091791
314,0.044359680302707635,0.04440430654783804
315,0.04437614937295931,0.044220074115638094
316,0.04438412829599452,0.04406446296460188
317,0.04435249840126664,0.0459591489789618
318,0.044381376865460564,0.044196356497780885
319,0.044376543185419365,0.044355939899849484
320,0.04432888625932762,0.04514333012507434
321,0.04440972393839673,0.04493267053455683
322,0.04432324331428599,0.044401329546852185
323,0.04438965616086662,0.04434582587813841
324,0.04439231179293549,0.044399367820986954
325,0.044334227261271605,0.044201678289216104
326,0.044356018113777665,0.04425867893675297
327,0.04438513665654784,0.04422497455183169
328,0.0443653757797677,0.044101603267771995
329,0.04434731937031485,0.044287747541171
330,0.044377486337910305,0.04423263379353509
331,0.04434522210484562,0.04409480936636216
332,0.044379183740028895,0.04491190387791319
333,0.0443444632493857,0.04417728635931505
334,0.044378890703782856,0.04410081423624486
335,0.04435647905356938,0.04451379331339728
336,0.04439132696551132,0.0443887821384703
337,0.04437058378968466,0.04432936837083544
338,0.0443244011567809,0.04417453325938507
339,0.044426957239390594,0.04418107825772125
340,0.04434918539868077,0.04444074772669554
341,0.04438463414696353,0.04422124346487388
342,0.044284960809494844,0.04404699864843351
343,0.04437621135590407,0.0441509841476067
344,0.044366704732554316,0.04439771107695879
345,0.04439672932455888,0.044053722606983245
346,0.04437812764364657,0.044415027528979155
347,0.04437717448511438,0.04435045403418198
348,0.04432851818605237,0.04441142172396879
349,0.04438519126947095,0.045037826840928094
350,0.04433575032030448,0.04410510591694792
351,0.044340615387971384,0.04434384556170149
352,0.04436726585497694,0.044456436293095127
353,0.044336004421138726,0.04435050214900752
354,0.04438720172776696,0.04455045660208013
355,0.04436348392708671,0.04448228749006871
356,0.044307462526931025,0.044073790050304734
357,0.04434370189677118,0.044179547259318074
358,0.044342143537397696,0.045526278737375615
359,0.04435813559910935,0.04508661024257262
360,0.04435775804713478,0.04424796095226601
361,0.04437421682455883,0.04453773797041378
362,0.04434051040130216,0.044067493111866675
363,0.04436335689366114,0.044432820444869695
364,0.0443710323676468,0.04428046575783138
365,0.04430635656698045,0.044219490349055396
366,0.044392772919634296,0.04438636867475412
367,0.044377399761201204,0.04425726138616982
368,0.04432022257306232,0.044295265248752914
369,0.04435542176829582,0.04432147591933539
370,0.04436248412268624,0.044182837831215585
371,0.044379346780022685,0.04526987853114153
372,0.044359070004141535,0.044048831215951816
373,0.0443372830076831,0.04455811664210931
374,0.04427225277890776,0.044023466391196
375,0.044391138889541534,0.04448388991689413
376,0.04434971906930799,0.04403414752987783
377,0.04431963030538082,0.04397700302569176
378,0.04440470154188181,0.04436912213385403
379,0.04431097835018758,0.04429579792248582
380,0.044360753797750764,0.04458035283573117
381,0.044318922243712026,0.04413616384432523
382,0.04437239722367229,0.044348095288556426
383,0.04437738667416867,0.04415268444558452
384,0.04434208762949396,0.04420314620953287
385,0.04433954932125595,0.04476631781012841
386,0.0443517616756233,0.044117929681978266
387,0.04434573847720883,0.04443687978931148
388,0.044344969988141816,0.04405930428485403
389,0.044352928313360324,0.044263335270867524
390,0.04432697365521592,0.04531186829288484
391,0.04434488404831409,0.04482367311716963
392,0.044383406888969835,0.04473787940973749
393,0.04434041493990809,0.04467876957376526
394,0.04438043746586041,0.04403746330458205
395,0.04431835681543999,0.044374940007135676
396,0.044407764410428034,0.04489505758181637
397,0.04435681677233987,0.04470586665850985
398,0.04435181478190449,0.043968918001730146
399,0.044312158268936856,0.04434382205145583
400,0.04438699444237152,0.04456585638154699
401,0.04430760017567873,0.04428353732005714
402,0.04434831709501817,0.0443391261370806
403,0.04439393182043561,0.04544104289061318
404,0.04431680806095184,0.044248167306714686
405,0.04439864286449979,0.044024653242879234
406,0.04432329323866158,0.04412465642811325
407,0.044274909263573116,0.0440302723820319
408,0.04435467562251795,0.04473272429727077
409,0.0444157869909744,0.04464623870496773
410,0.04430439672522865,0.044488107989476465
411,0.04433587670977605,0.04421425480716404
412,0.04435084574308361,0.04454813501965803
413,0.04435364670830871,0.04429352104285731
414,0.044309534266601766,0.044037734920955585
415,0.044343436153445194,0.04468431851958915
416,0.04431806179031967,0.04433227280559507
417,0.044370916253321284,0.04433733762375932
418,0.044332488250029715,0.04425055598162196
419,0.044363072658349816,0.044009241722434464
420,0.044377008445292,0.04420417183873874
421,0.0443468862413837,0.04449718175543902
422,0.04429523316910744,0.04395992623700392
423,0.04434412040977498,0.044538596689502365
424,0.04431339187961529,0.04452783830917904
425,0.044351762206070275,0.044103785105923145
426,0.044359246144968105,0.04504256577450581
427,0.04430482493204312,0.04512296043368131
428,0.04440867750425702,0.044399639395960706
429,0.04436279614074012,0.045295511172460966
430,0.0443033337532185,0.044225063954658875
431,0.04433693826415587,0.04493699047199044
432,0.04437098539833524,0.04411762644445196
433,0.04429334365755202,0.044676228129525916
434,0.044383587863246504,0.044167948910557
435,0.04427255725745571,0.04403560589719512
436,0.04437362439981327,0.04409467632057579
437,0.04434768493815534,0.04414490544466448
438,0.04431644969891007,0.044199557686171106
439,0.04435322608300467,0.04421235702395064
440,0.04432382110136881,0.04459421834828214
441,0.044342889343775754,0.044186192389924696
442,0.04436224205333816,0.04448602248171586
443,0.04434563324170391,0.04402582690390222
444,0.044322146435242626,0.0441104070657623
445,0.04436857044368707,0.0449526127877004
446,0.04433500081511534,0.045337857981785995
447,0.044316468292585974,0.044323031762437175
448,0.04439240364030375,0.04398393337594997
449,0.044307488222645054,0.04423940006335105
450,0.0443439035750402,0.04410254132816098
451,0.04437417505690519,0.04417853767390736
452,0.04432066665956171,0.04453093656598362
453,0.04431813629129555,0.044470850216125776
454,0.04436128752263021,0.044443093888167653
455,0.0443327654242724,0.04421840855621656
456,0.04438183863412958,0.04425258035294589
457,0.044325635773152294,0.04417422468749698
458,0.04427050177042156,0.044460221119038724
459,0.04438064014274977,0.0446862712975817
460,0.04432646396234454,0.044247109360839726
461,0.04437827685303329,0.044144829242847475
462,0.044282510149123835,0.04503050801789436
463,0.04430657558551799,0.044424807390287466
464,0.04437427713051488,0.044429221728881835
465,0.04432365507319039,0.04429319826877433
466,0.04432746515125474,0.04435054888384036
467,0.04436934600124035,0.0440891120023232
468,0.04436162356889708,0.044158959043320734
469,0.04428365705716591,0.044501366677836676
470,0.044351252490859736,0.04452335122633939
471,0.04438759826750073,0.04436535541065469
472,0.04439926195735925,0.04458400391347211
473,0.04426681481996799,0.04433975485140559
474,0.04437050934882611,0.0445588984397147
475,0.044338545983561115,0.044123325260243255
476,0.0442857368887837,0.04459261864970229
477,0.04435441729880826,0.044303676022061776
478,0.04433660790160678,0.04438320020668086
479,0.0443377923258778,0.044501476311356876
480,0.04434837980092335,0.04443918871168053
481,0.04435304732099377,0.04422592591466032
482,0.044368735518958466,0.0445699215640479
483,0.04430270654753912,0.04449039015171704
484,0.04436421346883922,0.04433991119560875
485,0.04437090416301155,0.044185954681351836
486,0.044271444013562505,0.04432970466056694
487,0.044328598746544004,0.044623591070661814
488,0.04435099229273157,0.04408791285559499
489,0.04432013104361724,0.04514586524756711
490,0.044349047530595403,0.04485426064505469
491,0.04438632291168032,0.04419999090382999
492,0.04427504133477868,0.04435813278898219
493,0.04441033615709464,0.04396622266622468
494,0.04434535495291882,0.04399902833641889
495,0.04427158017464363,0.04408708134582251
496,0.04439314515894521,0.0440643417750228
497,0.044335528539647596,0.04430298442077937
498,0.044320513512792155,0.044820758063366155
499,0.04435438994594338,0.04430163944194241
500,0.0443293325952672,0.04434143258305275
