epoch,loss,val_loss
0,0.5393428025033545,0.5012136497725423
1,0.5008367925079159,0.5002613322649604
2,0.5005360302083693,0.5001421468989632
3,0.5002039595962295,0.500222197725367
4,0.5003517542065553,0.5001674320636402
5,0.5004342507334191,0.50032129160098
6,0.5002122431109342,0.5006586098300018
7,0.5003020895089386,0.5007708953318496
8,0.5002999466177203,0.5000336994548974
9,0.5002440489244142,0.5002663174499559
10,0.5002339038120072,0.5002261201062231
11,0.5002136001070082,0.500033828092297
12,0.5002192780561785,0.5006856305507802
13,0.5001955814111031,0.5000951619010476
14,0.5001801684316163,0.5003725252100264
15,0.5001965704124832,0.5000190196666128
16,0.5001766896754245,0.5000157151471291
17,0.5001812194665033,0.5000315245643194
18,0.4790308164388426,0.40038802872037066
19,0.40004116388862543,0.4000212898639026
20,0.40007232610056115,0.40012470008068823
21,0.400122300596783,0.40002966666248113
22,0.4001500790136762,0.40005410346836484
23,0.4001475865696358,0.400021318523591
24,0.40017311874078665,0.4001269600064164
25,0.4001624539402052,0.4000397849566496
26,0.400101168674637,0.40029701397891043
27,0.4001448154302259,0.40007511814074687
28,0.4001402210396946,0.4000862011988531
29,0.4001725893242834,0.4000580618504706
30,0.4001004316658633,0.4004630770456307
31,0.40013903179979204,0.4002348777927233
32,0.40013233273397997,0.40005055156586944
33,0.4001159018432134,0.4005341113750792
34,0.40010594045950637,0.4002281730098622
35,0.4001285717909295,0.40002424421299826
36,0.4001281634568837,0.4000172086127667
37,0.40009453171501375,0.4000787094061541
38,0.40013273393692333,0.40007434975529055
39,0.4001296559439037,0.4000228991341118
40,0.40010443726985256,0.40021844984624405
41,0.40012108075505765,0.400022790191968
42,0.4001114348989423,0.4000274222147511
43,0.40010299050800224,0.40007031136120796
44,0.40008849311385736,0.4002785298377855
45,0.4000987849129769,0.4000584330961072
46,0.4001222171138474,0.400089646554872
47,0.4000788439024162,0.4000484137970952
48,0.4001010286019738,0.40004866550224405
49,0.40010124052019497,0.40002628952226144
50,0.40007712039288623,0.40002738365223506
51,0.4001115427707818,0.40002380873146137
52,0.40008134744930063,0.4000805268344625
53,0.4001058654536676,0.40026564309057827
54,0.40007338915831575,0.40012698056830764
55,0.40008884099407666,0.40008096173640245
56,0.40007966039754334,0.4000541537552989
