epoch,loss,val_loss
0,0.538089092280944,0.5007522319351927
1,0.5005751185656676,0.5002043110106825
2,0.5003653087771414,0.5016144588934667
3,0.5003075970899907,0.5011759398270148
4,0.500352749401534,0.5001326739335418
5,0.5003235123912877,0.500122038738267
6,0.5003104848856248,0.5000927634074922
7,0.500310001343335,0.5001115580248952
8,0.5002563534387819,0.5000327345529604
9,0.5002295392129942,0.5020285926056827
10,0.5002781146671464,0.5004312595982842
11,0.5001595573798749,0.5001198534370241
12,0.500188540375303,0.5000586465765622
13,0.5001867259637677,0.500116941729703
14,0.5001442898340284,0.5000216297406491
15,0.50015820581746,0.5001860827643643
16,0.500178936634185,0.5000307813112902
17,0.5001369795938215,0.5000637981886774
18,0.5001365523551322,0.5001320081367429
19,0.5001563640536248,0.5000298491096603
20,0.5000999285863217,0.5000378739880199
21,0.5001450176260064,0.5000278519069427
22,0.5001072291644414,0.5000579167149821
23,0.500168273528287,0.5001789659101624
24,0.5000785125489476,0.5000571872729199
25,0.5001021664147687,0.5000942166391666
26,0.500112329005783,0.5000746890910799
27,0.5000955537474469,0.5001343923335738
28,0.5001183243888337,0.5003041841184945
29,0.5001012651449929,0.5000626628852416
30,0.5000994400832651,0.5000906897862988
31,0.5001198867231206,0.5006743680549829
32,0.5000852699635724,0.500029826091382
33,0.5001006726038348,0.5000326359000421
34,0.5000831905042967,0.500024000921389
