epoch,loss,val_loss
0,0.56366443955641,0.518344193485278
1,0.5009576850514904,0.49080705078173176
2,0.492818307426336,0.49329144654070756
3,0.49204114012771566,0.4908752183370357
4,0.4933755526439749,0.49200543502511807
5,0.49104412689769295,0.4938209773333127
6,0.4926982264605453,0.4895211067271214
7,0.491864930132596,0.48636012994217515
8,0.4924741131986836,0.49282121804161344
9,0.4926307139922675,0.48757611717308424
10,0.4914365795542963,0.492396278440623
11,0.49288788286568547,0.4892339993388801
12,0.49368769237749294,0.49334490193376035
13,0.4941229350584969,0.48742052296436766
14,0.49282500324108236,0.5021612633140236
15,0.49346210187573514,0.4979037611900396
16,0.49336738840376826,0.4935245610356049
17,0.494953934451659,0.4955793002880551
18,0.4965724024198038,0.49078094223021707
19,0.4970252422644175,0.4944221225420885
20,0.49704835503745515,0.4929884735203768
21,0.4961102890382282,0.4933392166291623
22,0.4957669539917573,0.4919017265655906
23,0.49541259995943826,0.49377699665601743
24,0.4956445260752115,0.491520370661789
25,0.49547500973887487,0.49275943498114666
26,0.49435564082303496,0.49056317520216874
27,0.49457198670870967,0.4976881762235863
28,0.4943269785288141,0.4902547210948902
29,0.49479237674094506,0.4889070723785033
30,0.49526497889622795,0.49208828583418524
31,0.49536892811028505,0.49253587049579844
32,0.49604135498011426,0.49569817681244815
33,0.49611756798746487,0.4939125930124507
34,0.4967394984430737,0.49208872240174917
35,0.4964886265788242,0.4938802684068492
36,0.4973415502851053,0.49304012724895974
37,0.49768213529905064,0.5020301872665899
38,0.4984007324698827,0.49364008904444295
39,0.49825953473623613,0.500381175537418
40,0.4984821081876183,0.49945513164329075
41,0.49879815842179087,0.4991190025160984
42,0.49965714237434594,0.4986034535759532
43,0.4996053736558635,0.4964966680839858
44,0.4997445328368081,0.49714054064950136
45,0.499946077331174,0.49736096869327934
46,0.500423842649475,0.49680210935759
47,0.5004996631404669,0.49602180023125614
48,0.4998718463688446,0.49490913640540135
49,0.5000701777273707,0.4950688676327914
50,0.5004007972830491,0.49957803592685646
51,0.5006885989178285,0.501863256061557
52,0.5003850693396813,0.5006277864621018
53,0.5001416644937605,0.503855852814481
54,0.5008189609582475,0.49920002343434466
55,0.5002350555025606,0.49644232440766334
56,0.5008539132696452,0.49879391426727726
57,0.5003111740286879,0.49527768253245125
58,0.500978549928974,0.4975850115447131
59,0.5010526301406271,0.4987861096811934
60,0.5010786468533875,0.4982858045231007
61,0.5007018268489533,0.4975143357723269
62,0.501049569673199,0.4995294414642954
63,0.5013280995339036,0.4963674817907594
64,0.501169788013164,0.5045443893702085
65,0.5014394194745332,0.5007087904915813
66,0.5005697054590443,0.5033938556838995
67,0.4999794429011768,0.49798288056957696
68,0.5012297960613176,0.4980267142816708
69,0.5013067215252266,0.4975204452484164
70,0.5009898369094069,0.49795844584068355
71,0.5011609163668326,0.4970913717101292
72,0.500761354403149,0.49676046311714184
73,0.5010060065155693,0.49751484462287165
74,0.5010528812924926,0.4992308772823993
75,0.5007907529886392,0.4968302744340031
76,0.500834613788328,0.49757588707092903
77,0.5002066597854682,0.4963827488125076
78,0.4999032948943351,0.5015813621979769
79,0.49730033232725496,0.4880371718022799
80,0.49168285912127613,0.488785813503032
81,0.490308466467926,0.4867539058168196
82,0.49054005271572765,0.487129497946767
83,0.4846221773291854,0.4780915875367132
84,0.4839789869426061,0.4795267043757269
85,0.4851521584127161,0.48401808606985525
86,0.4863714658909088,0.4809276954386304
87,0.48166102123298615,0.47569586904668015
88,0.478921676866061,0.4776682566495608
89,0.4787180214095935,0.47416038628911633
90,0.47851270814831975,0.4759365583181193
91,0.4789942727624465,0.47276278542267963
92,0.4780790073027332,0.48073619651154637
93,0.4783967772690798,0.4740486535013616
94,0.4782567102131512,0.4737151757694175
95,0.47857257149678817,0.47416807310075015
96,0.478369987625584,0.4734377081740439
97,0.47877363832019787,0.475361438040293
98,0.47871532963572455,0.4801393322993567
99,0.4784674349543955,0.4762655328415281
100,0.4786103156616362,0.47656744925544875
101,0.47844960480380494,0.4794226985986344
102,0.47868042005051814,0.474606041491455
103,0.47833223856515067,0.47503446728202803
104,0.47848315352349163,0.47395950097123185
105,0.4783154082574623,0.47561807854023147
106,0.478696328916138,0.4720983477257892
107,0.47809961545381613,0.47433160599424035
108,0.4783605731648507,0.4739153911113363
109,0.47822248067358414,0.4773009443198402
110,0.4782404398722805,0.47422127351576454
111,0.4781990654701047,0.47378773136974417
112,0.4790064168395661,0.47578150085699117
113,0.4783774707481253,0.4754864819518393
114,0.4788982281439024,0.47247781813285816
115,0.47856451899742336,0.47835244096068763
116,0.47829112698801224,0.47384927006057614
117,0.4784845214167373,0.4800162165533772
118,0.47901466702052253,0.4745341199020184
119,0.47807851720818706,0.4779476966317846
120,0.47697406456910735,0.47220220482057723
121,0.4773629771695911,0.4727328409570921
122,0.4774101174992623,0.47269892041007644
123,0.4771414526479898,0.4751881814981504
124,0.47813746273565255,0.47269946529626283
125,0.4776034509773544,0.47377305253810925
126,0.47808905634329285,0.4735492824237932
127,0.4779530235355516,0.47650344607485684
128,0.4780781427018648,0.4735963356805393
129,0.4787096966870969,0.47653003901407864
130,0.4791734662773512,0.4774909566826207
131,0.47862275255669795,0.47634907467871457
132,0.478695118694092,0.4737231840556686
133,0.4789979566129849,0.47713094693332936
134,0.4784964573659676,0.47442811746341373
135,0.4786262522450835,0.4740159827936514
136,0.4788392462032876,0.48095572436994327
137,0.4792650251580085,0.47652306496485447
138,0.47860186466638993,0.4760403782482117
139,0.47929811219183754,0.47938248298727065
140,0.4786395665815027,0.47429864728366095
141,0.47925725766270755,0.4778259675053037
142,0.4792366048081411,0.4785475219999041
143,0.47964065217619223,0.4773232597907698
144,0.47979598909878524,0.47590976069080804
145,0.4798172098412502,0.47646093686076724
146,0.48046662032508924,0.4791247977595115
147,0.48009829329167436,0.48177117410379783
148,0.48051734830883386,0.4798369020482359
149,0.4794920435388216,0.4771313629662228
150,0.48060882074846256,0.4757762160843154
151,0.47973058515077205,0.4794147865171967
152,0.47975912923626096,0.4772807166815369
153,0.4795664225717624,0.4760531750643639
154,0.4797075341621653,0.47547628045458445
155,0.47884263380540076,0.4775265679410243
156,0.4789140312958488,0.4760439352859356
157,0.47928775601583323,0.474019448754349
158,0.4794052088503643,0.4739193828348673
159,0.47847857632987695,0.4762948536694097
160,0.47880714885193665,0.4769424360712965
161,0.4786624667122305,0.48554937413290156
162,0.47893957978339313,0.473258399808134
163,0.4781155070836405,0.474536971445618
164,0.4784716634894256,0.47484659537049667
165,0.47829711256172064,0.4789565933578675
166,0.47821494972677253,0.4732556222175743
167,0.47855303425201884,0.47441535251951633
168,0.47856164493149134,0.4767652054706143
169,0.47828913802246775,0.47740899507417955
170,0.47830662437432486,0.4732544742283524
171,0.47755412691883997,0.47449599245258833
172,0.47850358635068035,0.4753473443879607
173,0.47761744874225054,0.4723804856296967
174,0.47805367382786734,0.47599558234685224
175,0.4787073130254075,0.47495136587000686
176,0.47786202129843136,0.47262823946285926
177,0.47750272956207024,0.4712034309813613
178,0.47766626961559033,0.47296937688561813
179,0.4776679299694362,0.47212811490636974
180,0.47731958621506876,0.471860517336801
181,0.47709259995930103,0.47451955279969005
182,0.47744869287732505,0.47233024110169325
183,0.47776758562413146,0.4747662371599307
184,0.4774826889177211,0.47271077072610984
185,0.47739227387687855,0.4752931287416625
186,0.4778472965450691,0.47187728720004857
187,0.4777557505168122,0.4739023012821375
188,0.47787436289038304,0.473954667843696
189,0.47795999601638195,0.4747182269122719
190,0.47695701855787936,0.47275333065354364
191,0.47751130356634264,0.47515118369081405
192,0.4775079645627408,0.4806096590261527
193,0.4779511658455447,0.4761901317897893
194,0.47817746299109776,0.4717565758452231
195,0.4771851049743587,0.4729071196694965
196,0.47802209276423085,0.4774585808697138
197,0.4783084859831823,0.47371960196705815
198,0.478289498020705,0.47534240510582265
199,0.4780143679355641,0.477601817817131
200,0.477860517508025,0.47390167835009034
201,0.4779606135271722,0.47983010373156937
202,0.4779333598631844,0.4753614625501746
203,0.4779666907114567,0.47562560349726357
204,0.47811385320959615,0.47659181259519584
205,0.47853491914501006,0.474152096374447
206,0.47893515704490014,0.47781616663405907
207,0.47883778166094365,0.47984411632723006
208,0.47913970091312436,0.4762307107448578
209,0.4795710179302618,0.4761672236595741
210,0.4804239426013663,0.47767378501564667
211,0.4799923432125843,0.4775860828260032
212,0.4818821934749373,0.48002266309914293
213,0.483272188882843,0.4829895182820691
214,0.4831132476183055,0.4811210117193311
215,0.484739752886869,0.48483576060470485
216,0.4847798397858366,0.48336272855489953
217,0.4866271989999248,0.48471363231057524
218,0.48707823650680665,0.48302743631549583
219,0.4874392040222764,0.4830630805046425
220,0.48668836025025347,0.4859091650574059
221,0.4863523026760057,0.48346854608738243
222,0.48523804799115344,0.47938087377947153
223,0.48494862855004844,0.4832604118661798
224,0.48407649146995957,0.47957907550054546
225,0.4835438616603589,0.4834425295772944
226,0.4832229207007052,0.47780186187214235
227,0.48238831127194953,0.47618315818748236
228,0.48228460742081763,0.481826666427957
229,0.4822021378673238,0.4806174492167975
230,0.48232838774708914,0.4775590174482296
231,0.48198616939435285,0.4846423763690638
232,0.4822360871435641,0.47817899485507537
233,0.48182910346060537,0.47766046678822344
234,0.48100628297058323,0.47621045125782163
235,0.48048336878954934,0.4790500318712387
236,0.48084503445598625,0.47561585564451514
237,0.48009889349520063,0.4837222884702419
238,0.47952874494399383,0.4773304759279987
239,0.4802062199008074,0.47671833641433115
240,0.479978024745159,0.47697324967327887
241,0.47940469342027064,0.4787118651308031
242,0.4801140336943664,0.4760419345316025
243,0.4796358345033263,0.4757042399239333
244,0.4797402219377833,0.4783544441848264
245,0.48077426138494034,0.47994702416983004
246,0.48149592587225537,0.48584927403277645
247,0.48091392593084575,0.48125000788456074
248,0.4820254827670151,0.48131615182218723
249,0.4822768851531019,0.4811735615875181
250,0.48220560971876797,0.48124348141117745
251,0.482775668279349,0.4840878807566913
252,0.4838322418080055,0.4837139824665524
253,0.48326018125080855,0.48107759117045173
254,0.4840186703309929,0.48826997982956993
255,0.48421115587226493,0.47750273177542835
256,0.4833617900653804,0.48146318561370294
257,0.4830051758449426,0.48104445183474714
258,0.482565817787207,0.4790873185988007
259,0.48304246239763177,0.4848627365049454
260,0.48328391672800675,0.4794072695341088
261,0.48298438679543043,0.479747294626936
262,0.4829843453794932,0.4814190425878448
263,0.4824437819105639,0.48481203675646434
264,0.482795368531625,0.48124551307336494
265,0.4825319413372653,0.4785812582758909
266,0.48201774083357823,0.48434282372387355
267,0.482387061980512,0.4781021012879773
268,0.48237417458439713,0.4845997932725002
269,0.4822864044817994,0.4800033690944467
270,0.4823179684406657,0.47733574211832663
271,0.48253299199419913,0.48449231130265774
272,0.4820956854487685,0.4790640354815109
273,0.48268442899346065,0.47780940348272166
274,0.48212530453809255,0.47980277916532665
275,0.4808026939916382,0.47326386562933015
276,0.4781397987160084,0.47379753082967124
277,0.47761090046210253,0.4730495977514639
278,0.47750717458679237,0.47594552187818
279,0.47732271743621185,0.4749488138315145
280,0.4772975117230206,0.48452041413996666
281,0.4779164706655353,0.4725935230503519
282,0.4776533437337426,0.474852096309978
283,0.4770261667353167,0.47534345035112646
284,0.4780122745546887,0.4707197913195829
285,0.47785357472231443,0.4719309669455488
286,0.47798188971720346,0.4762010811677389
287,0.4777615613264622,0.47822094116515784
288,0.4781155792548121,0.47435518788745673
289,0.47813649289756655,0.4737988858356566
290,0.47846441770152603,0.4795663471803387
291,0.4791786846497076,0.4740853426770705
292,0.4797782565621163,0.47637116965479803
293,0.48007674665330985,0.4760536795868682
294,0.4810790651612621,0.47662538812211297
295,0.4820642159830371,0.47813112091717047
296,0.48257945151590137,0.48522206882180996
297,0.4828961598668262,0.4790381142824018
298,0.4822687027122763,0.48043030587443236
299,0.4829096207253748,0.4808230479119232
300,0.48401104187746224,0.48008513810508535
301,0.4839969115029517,0.47834514249660126
302,0.4827722813680971,0.48511018998621014
303,0.4816227593153215,0.4758093275935422
304,0.4804042496865125,0.4846908642301055
305,0.48007788670529944,0.47792464393560774
306,0.47968058317875883,0.48020534773651974
307,0.4800691061811767,0.4776515918589052
308,0.48062877664320186,0.47679847547080256
309,0.4808393184253447,0.4804718290715116
310,0.4801127964096199,0.48297802585264593
311,0.480927671102597,0.4779197069821437
312,0.4787860459965958,0.47547016458052205
313,0.47777255345210373,0.475900272990929
314,0.47840158188705156,0.47301724917698584
315,0.47927024925974826,0.4779351643435863
316,0.47980679161876416,0.47511773021934345
317,0.4802434294939422,0.48797465857315364
318,0.4808436643353088,0.4774054642869623
319,0.4806264038685319,0.47596617065364205
320,0.48002204813545557,0.4772796438214529
321,0.480089284342637,0.47506202899666405
322,0.47859190896355946,0.47646295161066604
323,0.4791666136728488,0.47526360129689077
324,0.4791934485558412,0.4782905603311339
325,0.4794600659923302,0.4825703456774413
326,0.47948516445527734,0.47629849444530853
327,0.47879668449659907,0.4797621404174377
328,0.4782978684591542,0.47422620955187217
329,0.47869614559969453,0.47547459781122847
330,0.4782635686423281,0.4788972802442552
331,0.4783136461326163,0.4752038980245402
332,0.47776701669994115,0.4798897041423921
333,0.47785053062114974,0.4705593990075278
334,0.47783280454045957,0.4726325428288286
335,0.47762007220424146,0.47302013562717304
336,0.4775399734243024,0.4708068312955072
337,0.4769728998843429,0.47188167242243617
338,0.47664998687333243,0.4737626347093951
339,0.4780748522491287,0.4741662341304529
340,0.4790070364110285,0.48002980335453127
341,0.4815116471809735,0.4796970733856722
342,0.4817619881779551,0.47941273733114953
343,0.48125932381736286,0.48696721517484587
344,0.4809231959777675,0.4805238703949393
345,0.4814144411056543,0.4780222029787589
346,0.48124410315669125,0.48278833957478673
347,0.4819151239215041,0.47778100344545743
348,0.4823584612920511,0.48255415010282915
349,0.4824183264391409,0.48006108732513303
350,0.48207454921768533,0.4773414729614378
351,0.48154828222773727,0.48263635866832055
352,0.48203998961322886,0.47618075349054284
353,0.48142148647234023,0.4768095945596883
354,0.4804706315366294,0.4825121473165225
355,0.48026849384264025,0.47812110477295466
356,0.48028812481821487,0.4780039041646372
357,0.4801859675670604,0.47636896070760354
358,0.4800306276785289,0.4805915492109737
359,0.4797479441340307,0.4752294241488215
360,0.4799304064348352,0.48072567361024016
361,0.4798212191707892,0.4787332225758538
362,0.4805301833186123,0.48159903304352947
363,0.48062339553730093,0.47804871116836145
364,0.4807728780187863,0.4759030685052217
365,0.4812573372936554,0.48534254747389244
366,0.4816059155239285,0.48112810354300534
367,0.48126229826066136,0.47737288976054354
368,0.4817565395582399,0.47989351813399894
369,0.4815007309309489,0.4772712396135835
370,0.4811956418646897,0.4825611091450433
371,0.4809932253010077,0.4813114004334598
372,0.48075726195919716,0.48114694973664107
373,0.4811396959731333,0.47669701053574975
374,0.4810185161687964,0.4806678905530341
375,0.4809271932053242,0.48174968446533606
376,0.4815927043521433,0.47815350389612316
377,0.4816638230562782,0.48050005271760327
378,0.4819841625259744,0.47659089926103954
379,0.48094606118427097,0.4769321834137803
380,0.4806054710722465,0.4840928317292431
381,0.48108999772990446,0.4800020480071266
382,0.4802578446938456,0.47828615831406734
383,0.48010846220856185,0.47632118389186845
384,0.4798615072056544,0.4812729130510091
385,0.47970375871296217,0.47493653805028196
386,0.4792172692948394,0.4784074010299526
387,0.47903286777049614,0.47560004985228993
388,0.4785884294649966,0.47879793840124557
389,0.4781140681984518,0.47455927976587203
390,0.47753629847157963,0.4739346583480428
391,0.4771881326854372,0.4735233882984592
392,0.4783769723036878,0.47612335906314773
393,0.4768361252346199,0.47719762413729433
394,0.47726716759869997,0.47850061683741346
395,0.47748815740565126,0.48284591116957903
396,0.4776565861716259,0.47622051479878535
397,0.477647542739086,0.47623637179831585
398,0.4780463699004252,0.4802495235519891
399,0.4774915887226018,0.47545305082623
400,0.47738030444470336,0.4727039145454235
401,0.4771486691219344,0.4774892934448811
402,0.47800605264689616,0.475680291346894
403,0.47736374846846463,0.4733473040639837
404,0.477396578716336,0.47825308206425754
405,0.477613627553272,0.48003783466878047
406,0.4775139734708815,0.47677703847448566
407,0.4780155896997566,0.4779560094097983
408,0.47793920769346515,0.4748525078501773
409,0.47770032061518525,0.48021942560561737
410,0.47873910563550504,0.4742754329210581
411,0.477798726382873,0.47708586867437086
412,0.478033964332345,0.47279922394839063
413,0.47777494421298744,0.4728012847307637
414,0.47793895349228127,0.4734201272971628
415,0.4777259689559944,0.4780531716374967
416,0.47781473582835315,0.47391555569448524
417,0.4772698363716559,0.47171750116649347
418,0.4775746919983011,0.47723495273394384
419,0.47755380609719683,0.4739319452782174
420,0.47766505565336476,0.4757471790488724
421,0.4773129493855744,0.4733817723198208
422,0.4776290450617373,0.47650699257474294
423,0.47868584190531793,0.4830396850464752
424,0.4816684605096646,0.47931693881256143
425,0.482978548029725,0.48209692969412526
426,0.48285928447183657,0.485007422546185
427,0.4845296393552844,0.48216131517712113
428,0.4854007757944073,0.48352239488520393
429,0.4881169686405112,0.4892846198183585
430,0.49040523289347726,0.4904693277830577
431,0.4897328791715544,0.487561966291825
432,0.489431999891782,0.49086462465815406
433,0.48945002924862335,0.48455993957000165
434,0.4882426079300096,0.4847141670352752
435,0.4886285960674286,0.48313605420779504
436,0.4881975881153826,0.48963688707953845
437,0.48779081904011473,0.4866511372006965
438,0.4880373214932083,0.48848900932821593
439,0.4876565049520785,0.4834121916834162
440,0.4871423547978786,0.4891232516743013
441,0.4868389477523015,0.48422637748831165
442,0.48723258416382054,0.48243527548371473
443,0.48649382027838345,0.4816340884780357
444,0.48565112503407765,0.4842896230736396
445,0.48599858835732623,0.478923629495979
446,0.4856615740713551,0.4832235084524659
447,0.4857333310240274,0.48512209962462477
448,0.48502255911878545,0.4827514055825258
449,0.48533984206372693,0.48237172912309373
450,0.48507880935851905,0.4810073995505531
451,0.4852471864051956,0.48113152311839924
452,0.48445142034908756,0.4803510708374213
453,0.4853943972993526,0.481279022856406
454,0.4850868007166685,0.4799223755322391
455,0.4842578309307472,0.47905011283382243
456,0.48396126702010966,0.4842469515345091
457,0.4830377666379432,0.48034300252313017
458,0.4837137824959225,0.4806438522161982
459,0.4829946549700128,0.47975636267153976
460,0.4828368696115381,0.4791825075693364
461,0.48257159691253343,0.4829930774132473
462,0.48276886852572765,0.48120331131480487
463,0.48236213466055766,0.4782622482424753
464,0.4823880978792215,0.4796771009371049
465,0.4825318393995055,0.47938536833192574
466,0.48204452985768126,0.47888830760471823
467,0.4820063381577186,0.4777994747225845
468,0.4820997069517581,0.4766114918895848
469,0.4807357779033274,0.47642945594080055
470,0.48091684466452717,0.47966450459861154
471,0.48020947455978696,0.47541417065058156
472,0.48047822208808577,0.4878318845143728
473,0.4804003913816121,0.47814237617467836
474,0.4806007882364267,0.47753210089389225
475,0.48059636003060113,0.47808282784147343
476,0.4809611159429657,0.47757419482779107
477,0.4817245522086664,0.4770691651195264
478,0.4812759046050475,0.4768095545488356
479,0.4805385726128074,0.4811571206788708
480,0.48117458982338057,0.4791549476894132
481,0.48110334889637196,0.4769915518275188
482,0.4815560756779784,0.47554014838391057
483,0.48098226200095373,0.48323363470297304
484,0.48142524436414,0.4771237896950864
485,0.48145479150860904,0.481030753610072
486,0.48142687534447387,0.4764912775537586
487,0.4817440046561803,0.48490498359032097
488,0.48115906271812536,0.4802736099912317
489,0.48124150411307004,0.4762926150139806
490,0.48107685065336175,0.4797289792768769
491,0.4809274459890515,0.47658833390911826
492,0.4813518668774316,0.47687608697514133
493,0.4808687159864546,0.48244207652892857
494,0.48056154964353254,0.48244954209301355
495,0.4808681017989449,0.4814710660110615
496,0.4815393605297037,0.48076216005018213
497,0.4807348781876522,0.4763779071907218
498,0.48155971015576454,0.478034852029963
499,0.4808085711001397,0.47994928999312203
500,0.4808635244862162,0.4778820127131154
