epoch,loss,val_loss
0,0.6503481552998225,0.6383243747552236
1,0.6384740654230118,0.6382097826004028
2,0.6382647788921992,0.6380473105510076
3,0.6381642664935854,0.6382439024448395
4,0.6380861353211933,0.6381413481235504
5,0.6380296143690745,0.6382051837444306
6,0.6380092310243183,0.6380313491821289
7,0.6379594579140345,0.6379466276566188
8,0.6379391202794181,0.6377934499581654
9,0.6379126660558913,0.6380509354273478
10,0.637891268465254,0.6380166574319204
11,0.6378787563244501,0.6378924387296041
12,0.6378690050707922,0.6377538117567698
13,0.6378597262567944,0.6377355162302653
14,0.6378570797046026,0.6380062119960785
15,0.6378500136137009,0.6377080480655034
16,0.6378440866735247,0.6377927818695704
17,0.6378334115876092,0.637687793970108
18,0.6378325366179148,0.6378225795030594
19,0.6378120098908743,0.6382581197420756
20,0.6378134288125568,0.6378009832302729
21,0.6378153866794374,0.6376585182348887
22,0.6377989775472217,0.6377200331290563
23,0.637796209163136,0.6376393801768621
24,0.6377785365581512,0.6376954076687494
25,0.6377613402869966,0.6377765508890152
26,0.6377341142892837,0.6378702811002731
27,0.6377265734805001,0.6376685496171316
28,0.6377161911593543,0.6375801834662755
29,0.6377257707383898,0.6376562972863515
30,0.6377152101596196,0.6377212326526642
31,0.6377116727431615,0.6376129382451375
32,0.6377127887275484,0.6376043121417363
33,0.6376974739366108,0.6376253602107366
34,0.6377139123280843,0.6375805353720982
35,0.6376949617465337,0.6378206863800685
36,0.6377021860414082,0.6376202497084935
37,0.6376963116592831,0.6376635984579722
38,0.6376908875306447,0.6375981348752976
39,0.6376953040891223,0.6376479554573695
40,0.6376961606608497,0.6375580943425496
41,0.637697076731258,0.6376552276611328
42,0.6376901313066482,0.6381056569814682
43,0.6376936977174547,0.6377174098491669
44,0.6376883824004067,0.6378123441139857
45,0.6376884242296219,0.6375473813215892
46,0.6376893333991369,0.6376462974945705
47,0.6376859672466914,0.6376118769248327
48,0.6376855574713813,0.6375292599201202
49,0.6376909138758977,0.6375373109976451
50,0.6376783825953801,0.6377723329464594
51,0.6376825137535731,0.6375920187234878
52,0.6376697018676334,0.637656413157781
53,0.6376795576413472,0.6375736871957779
54,0.6376844887865915,0.6376188637812933
55,0.6376818532943725,0.6379786583979925
56,0.6376808488898807,0.6376538495620092
57,0.6376739182207319,0.6375260225137075
58,0.6376697160800298,0.6376114072402318
59,0.6376866536007987,0.6376672443548839
60,0.6376697883870867,0.6376125995318095
61,0.6376739561027951,0.637620119690895
62,0.6376699752807617,0.6375968315203985
63,0.6376720634433958,0.6376967764298122
64,0.6376677096022499,0.6376134519179663
65,0.6376853942341275,0.6375832965373993
66,0.637659951488177,0.6375740543206533
67,0.6376624193721347,0.638615822950999
68,0.6376625912586847,0.6375980228583018
69,0.6376651803387536,0.6380660146474838
70,0.6376611279116736,0.6376818694670995
71,0.6376670001877679,0.6375285503864289
72,0.6376508595413631,0.6376128008365631
73,0.6376541923284531,0.6376381670633952
74,0.6376551894611783,0.6376750765244166
75,0.6376492974228329,0.6379093329111735
76,0.6376407714817259,0.6377496761480967
77,0.6376290365722445,0.6377284374237061
