epoch,loss,val_loss
0,0.6130028382361584,0.6086522733011553
1,0.6089640932281851,0.6137348655139838
2,0.6085673880389977,0.6086938077107849
3,0.6084521610206344,0.6079863237388081
4,0.6082117056643417,0.6096197878160784
5,0.607962471274565,0.6079906376952273
6,0.6078665887554886,0.6077340367710028
7,0.6077046262006444,0.6073792517628919
8,0.6075871124648866,0.6081859705170094
9,0.6074771507703817,0.6073151893414576
10,0.6074091552176655,0.6079761159627076
11,0.6074182995511607,0.6071149334422412
12,0.607300929916954,0.6078463019567447
13,0.6072171603283962,0.6080533189749895
14,0.6071649181994416,0.6069795352945256
15,0.6071932442188799,0.6068568258959958
16,0.6071275428450837,0.607225350883995
17,0.6071489352677037,0.6068215217543004
18,0.6071036624000664,0.6076209908087851
19,0.6070948243101733,0.6069221343946812
20,0.6070225883225328,0.6068389727814913
21,0.6070180057673127,0.6069033454724636
22,0.6069738343783021,0.607073038121311
23,0.6069935574023045,0.6067228931351276
24,0.6069833225375396,0.6081302560292757
25,0.6069400541942763,0.6067155903089727
26,0.6069711511848297,0.6067649826222554
27,0.606934652907207,0.6067414077872378
28,0.6068945014669723,0.6066598896648985
29,0.6068944365779677,0.6066886407861639
30,0.6068751607288181,0.6072690800756734
31,0.6069091836218593,0.6070566998226176
32,0.6068497162876133,0.6067545065513024
33,0.6068361793132222,0.6069606011913669
34,0.6068583848938316,0.6067566657776277
35,0.6068864898583762,0.606601903367575
36,0.6068219817567737,0.6088564963849543
37,0.6068382314496865,0.6082259413030544
38,0.6068410971843065,0.6068190088047283
39,0.6068414441882374,0.6067132317102872
40,0.6068295647942403,0.6070353206274823
41,0.6067923466785777,0.606645462767362
42,0.6068187826326081,0.6071902469724935
43,0.6068294900267406,0.6070023173138166
44,0.6067811898172578,0.6067633165910877
45,0.6068032274263759,0.6065334370059352
46,0.6067716617843343,0.6066806765998859
47,0.6067640045875544,0.6069191182813337
48,0.6067681002180818,0.6077351256872229
49,0.6068114632727872,0.6070307260707354
50,0.6067722725274395,0.6068649160359101
51,0.6067689432347948,0.6065470452344152
52,0.6067435806763197,0.6067319868516093
53,0.6067052813131061,0.6071592864564276
54,0.6067576281889746,0.6068209812599731
55,0.6067624219166491,0.6066142858701663
56,0.6067371693855038,0.6068641076904373
57,0.6067267608681073,0.606579576532539
58,0.6067157923757972,0.6067559136646261
59,0.6067078398472752,0.6068238230556176
60,0.6067478437624447,0.6065808805875091
61,0.6067170103438341,0.6069489360447261
62,0.6067238808572754,0.6071830692125609
63,0.6067130037294096,0.6065819768692661
64,0.6067333364158226,0.6089949418238315
65,0.6067154678763449,0.6075731943322175
