epoch,loss,val_loss
0,0.23325097501917663,0.2274116646119442
1,0.22707866428602388,0.22579518594309947
2,0.22621136261045352,0.22585690751412962
3,0.2259198230928038,0.22649855653642129
4,0.22580570113612206,0.22591609455663572
5,0.2256224596627477,0.22683434021236287
6,0.22551127838153048,0.22515101722688888
7,0.22538519103359428,0.2266527325654444
8,0.22537641330443775,0.22528095164015038
9,0.22532372011289084,0.22560855437153327
10,0.22523043439699578,0.225339301274373
11,0.22518007198441797,0.22495234551707805
12,0.2251169931469555,0.22484791039976826
13,0.22514618866998432,0.22633805406596466
14,0.2250886533210523,0.2250542494558519
15,0.22511539339535674,0.22481822683556796
16,0.22505166169314,0.22482209145726992
17,0.2250128591056773,0.22489754333537507
18,0.22501471562735073,0.22512994052162832
19,0.22499691348097575,0.2248011338207917
20,0.2249444668976219,0.22523585967627116
21,0.22491571739795396,0.22472749407918519
22,0.2249583824123079,0.2249921247400066
23,0.22493721068527023,0.22488109428001102
24,0.22492919103141573,0.22485797977624994
25,0.2249233455705904,0.22468429078387267
26,0.22493537512177506,0.22476460549878718
27,0.2249046549376723,0.2248035567865774
28,0.2248726570801151,0.22474245924511854
29,0.2249004568119409,0.22502204484442623
30,0.2248677089687117,0.22473632430764048
31,0.22484718647012766,0.22537984443509548
32,0.2249041256795302,0.22476866140998622
33,0.22484674457805706,0.22505710527263859
34,0.2248444629781853,0.22512555767969222
35,0.22487231198159857,0.22472046402192886
36,0.22484329670146627,0.22517265262586011
37,0.2248403650886513,0.22470739191726183
38,0.22486991433820191,0.22471489525462499
39,0.2248308598307745,0.22463241661009067
40,0.22484276152474647,0.22489106189228464
41,0.22486267212932495,0.22477447982905224
42,0.22480310111860477,0.2248141930283743
43,0.22484992089838365,0.22480553565338882
44,0.22483238590759774,0.2246578913468581
45,0.22484336652044973,0.22458809928474
46,0.22481446833140614,0.22467825676016417
47,0.22482526188568905,0.22458895423424155
48,0.22482844465192497,0.22563132368601285
49,0.22479617328319024,0.22483186536923827
50,0.22480307485851522,0.22488181157680068
51,0.22482160038417714,0.22583912300412767
52,0.22477417822070225,0.225052822900765
53,0.22479759767434432,0.22474723451634496
54,0.22480188716984456,0.22503726520106454
55,0.22476635427787572,0.22465991404452929
56,0.22478829134039263,0.225264418339611
57,0.22479633535878257,0.2246128715962985
58,0.22476237076901687,0.22563272125224026
59,0.22479059939243354,0.22482310422596802
60,0.22478337068356177,0.22469922000214124
61,0.22476573304690564,0.22465920037134704
62,0.2247834810078853,0.22475707661868916
63,0.2247717363283842,0.22463206126731325
64,0.22478860762991865,0.22466611888805038
65,0.22475327215698795,0.22459914219882293
