epoch,loss,val_loss
0,0.4081355127692223,0.40570698618888856
1,0.4031521712872717,0.40283544290065765
2,0.3752140441271994,0.3026609567006429
3,0.30269531413581635,0.30244303860267
4,0.30257151358657414,0.3023908080458641
5,0.302514043463601,0.3025508777697881
6,0.30246101693974603,0.3022364476323128
7,0.3024135034283002,0.30233880843718847
8,0.30240201395087773,0.3026742949287097
9,0.3024016868538327,0.3024035865664482
10,0.3023735724223985,0.30212782182296116
11,0.30234247646066875,0.3026063429514567
12,0.30235089597437115,0.30215240106980007
13,0.30232914657062954,0.30236184773842495
14,0.3023237788279851,0.30209082943201065
15,0.30230687014924157,0.3021773318648338
16,0.30230687452024885,0.30306377037366233
17,0.30229801035589643,0.3020526765187581
18,0.30229604327016407,0.3023727135459582
19,0.3022911360462507,0.30217904470364254
20,0.3022952483693759,0.3021578835447629
21,0.3022691626018948,0.3030123872558276
22,0.30226095871130626,0.3021575102806091
23,0.30227842199802396,0.3024265300830205
24,0.30226166181431874,0.3021751330693563
25,0.3022621804277102,0.302031174103419
26,0.30226048313909104,0.3021898871064186
27,0.30224703527159164,0.30221612844864526
28,0.3022483802371555,0.3021054500142733
29,0.30225134176015855,0.30228177199761075
30,0.302251353694333,0.302151644051075
31,0.3022302640610271,0.3021788717706998
32,0.3022540509237183,0.30210645707448325
33,0.30223470458719465,0.3024197003642718
34,0.30222279001606833,0.30210789694388707
35,0.30223351254065833,0.30237052094936373
36,0.30224718895223407,0.30209998844067254
37,0.3022249709831344,0.3027147285938263
38,0.3022358569635285,0.3024534869591395
39,0.30221986283858615,0.3020942344069481
40,0.3021966143316693,0.30201844694217045
41,0.3022087406052483,0.302269766608874
42,0.3022204090754191,0.30277807571490606
43,0.3022071018748813,0.3021889429092407
44,0.3021929731501473,0.30207136245568594
45,0.30220155747731525,0.30211100429296495
46,0.30220168780618245,0.3021612408558528
47,0.30218958823548425,0.30210728851954144
48,0.3021853381196658,0.3020165563821793
49,0.30218258113331264,0.30218343768517175
50,0.30218066299623914,0.30200912457704543
51,0.302189020925098,0.30222255633274714
52,0.30217549088928436,0.30211962687969207
53,0.3021722523437606,0.3020572011669477
54,0.30216893080208035,0.3019830951690674
55,0.3021727973421415,0.30220332902669905
56,0.3021739948524369,0.30204031081994376
57,0.30216948284043205,0.30200718557834627
58,0.30217296498351626,0.30201890428860984
59,0.30215678602457047,0.30234887290000917
60,0.30216303024689356,0.3022837559183439
61,0.3021643354627821,0.30198634360233945
62,0.3021684342622757,0.3022328586578369
63,0.3021661759614944,0.3020199539065361
64,0.30216156266795263,0.3019713310798009
65,0.3021581145922343,0.3019637758334478
66,0.3021606890691651,0.3020277252793312
67,0.30215631636646056,0.3021091077129046
68,0.30216447043418887,0.3024449331363042
69,0.30214850512478086,0.3021609215537707
70,0.3021569866604275,0.3021556941072146
71,0.3021582160592079,0.3019910762310028
72,0.30215786472294065,0.30195786885420484
73,0.3021489479475551,0.30202190883954366
74,0.30216004290183385,0.3020366611679395
75,0.3021408290266991,0.30205198387304943
76,0.302169885635376,0.30209549667437874
77,0.3021475628481971,0.3019348633090655
78,0.30215418446726267,0.3019937243660291
79,0.3021484112739563,0.30193432641029355
80,0.3021443493300014,0.30244641536474226
81,0.3021440192858378,0.30204216023286184
82,0.3021540711058511,0.30193937561909356
83,0.30215529654423395,0.30208578526973723
84,0.3021630521880256,0.30230665677785873
85,0.30213903239038253,0.3019741220474243
86,0.3021453430255254,0.3020543252627055
87,0.30216613099972406,0.3020985973676046
88,0.3021396238870091,0.3020281451145808
89,0.30214878851837584,0.3020144251982371
90,0.30213757736815344,0.3019946263233821
91,0.30213916815651787,0.30201214907566704
92,0.3021463195814027,0.3020014864206314
93,0.3021394925845994,0.30204497520128887
94,0.3021574199464586,0.30200722082455955
95,0.30215103146102695,0.30194113792975746
96,0.30214958281649484,0.3026503761212031
97,0.30214929585324396,0.30190959850947063
98,0.3021295830541187,0.3021966254313787
99,0.302157986190584,0.30195672847827276
100,0.3021518264081743,0.3021639579931895
101,0.302137285636531,0.30232830286026
102,0.30216524866554473,0.30196083972851434
103,0.3021428640352355,0.3025226674079895
104,0.3021361123257213,0.3019852449496587
105,0.3021556477944056,0.3022643820246061
106,0.3021432672540347,0.30207036119699476
107,0.30214544790320924,0.3021511109471321
108,0.30214696570237476,0.3021764789422353
109,0.3021398288740052,0.302706959048907
110,0.30214182083474267,0.30203734811147054
111,0.30214118038945725,0.30205615069468816
112,0.302147378636731,0.30193800566593804
113,0.3021440383659469,0.30211990922689436
114,0.3021439758605427,0.3019486668308576
115,0.30215647985537847,0.30206740540266036
116,0.3021434421737989,0.3019979999065399
117,0.3021342762377527,0.30231960747639336
