epoch,loss,val_loss
0,0.5596646984418233,0.5576732839743296
1,0.5311732765833537,0.4467909317413966
2,0.4467183355424139,0.4466839309533437
3,0.44656435941325295,0.4464589631756147
4,0.4464892107182079,0.44634615699450175
5,0.44643172597885133,0.446461167037487
6,0.44639926710393696,0.4463948492606481
7,0.44637151333358555,0.44625537610054017
8,0.4463533390098148,0.4463823680679003
9,0.4463357181880209,0.4464113986492157
10,0.4463299417760637,0.44620177380243936
11,0.44633853706386356,0.44615433569749197
12,0.4463104764421781,0.44633773891131084
13,0.44630933707952497,0.44627318596839904
14,0.4463023487461938,0.4462249367038409
15,0.446306582695908,0.4462154265642166
16,0.4462917611334059,0.44623271727561953
17,0.4462915341589186,0.4461853554844856
18,0.44628882379002044,0.4468673383394877
19,0.4462840672930082,0.44624348513285317
20,0.44627740132808685,0.44617856790622074
21,0.44627369189924665,0.44616357521216077
22,0.4462742847601573,0.44616250586509704
23,0.44627026828130084,0.44630597613255185
24,0.4462663369377454,0.4462026758591334
25,0.44627262522114647,0.4466505767504374
26,0.446255516105228,0.44630851034323377
27,0.44625984173350863,0.44651840937137605
28,0.4462523402372996,0.4463337532480558
29,0.4462602311372757,0.4463018520871798
30,0.44624413114123873,0.4461517640153567
31,0.4462483457658026,0.44619920194149015
32,0.4462338777250714,0.44621464745203654
33,0.44624070608615873,0.44613758822282157
34,0.44623896199464796,0.4462551450530688
35,0.4462401158279843,0.4461568733652433
36,0.4462352073523733,0.4461688887079557
37,0.44624253998862373,0.44613741427659986
38,0.44623150531450906,0.44616823665301003
39,0.446228484067652,0.4469199235637983
40,0.4462341744436158,0.44635484647750856
41,0.4462393894394239,0.44645775693655015
42,0.4462192876736323,0.4461628947854042
43,0.4462318819363912,0.4462449609835943
44,0.4462249095572366,0.44620076751708987
45,0.4462202152278688,0.446165868639946
46,0.44622647119230696,0.44621568620204927
47,0.44621768401728734,0.44637685384353004
48,0.44622506170802645,0.4461446124315262
49,0.4462301419377327,0.4462063391407331
50,0.44620899093813365,0.44640526829163235
51,0.4462239522536596,0.446287045776844
52,0.4462098618812031,0.4461931164065997
53,0.44621718843777974,0.4461259484489759
54,0.446214040643639,0.44617429904143013
55,0.4462200482024087,0.44612400952974957
56,0.4462122043967247,0.4461092200477918
57,0.44621600349081886,0.44617771039406456
58,0.4462148008214103,0.4466203760703405
59,0.4462101041542159,0.44631586652994154
60,0.4462127435538504,0.44636849967638653
61,0.44620568798647986,0.446292274137338
62,0.4462187832858827,0.4461208370923996
63,0.44620451613267265,0.446137209713459
64,0.44620826321178014,0.4462390724023183
65,0.4462144824332661,0.4462307782371839
66,0.4462106430331866,0.4463977087934812
67,0.44621910610463883,0.4463004587292671
68,0.44621055950721106,0.4461031122803688
69,0.44621595914496315,0.44608752346038816
70,0.44622230062882107,0.4461263048648834
71,0.446204138689571,0.4466323524514834
72,0.4462043379015393,0.4461118357578913
73,0.44621466107500923,0.44611271625757215
74,0.44620081316100224,0.44621690118312834
75,0.44620631294118035,0.4464835075537364
76,0.446214722805553,0.4462310393452644
77,0.44620982789993285,0.4461359808842341
78,0.44620340065161385,0.4460863414605459
79,0.4462069381409221,0.4462247567772865
80,0.44620439422130587,0.4461092725992203
81,0.44619699396027457,0.446129136244456
82,0.44619887999031277,0.44618569618463516
83,0.44620323238107895,0.44624113619327543
84,0.4462054500116242,0.4461557148893674
85,0.4461991296079424,0.44619328806797665
86,0.4462008988989724,0.4461299075484276
87,0.4462001679937045,0.4461659542520841
88,0.4462064613501231,0.446117326438427
89,0.4461962997582224,0.44608168319861097
90,0.44619825604226854,0.44615662519137067
91,0.4461997718214989,0.446295501947403
92,0.4461896701918708,0.4461225414077441
93,0.4461975100636482,0.4460898293455442
94,0.4461938375896878,0.44609122172991433
95,0.44621013881100546,0.4461159826914469
96,0.44619450396299365,0.4462048000693321
97,0.4461937777664926,0.44612343776226043
98,0.4461959633363618,0.44617884161074955
99,0.4461912958688206,0.4460953628023466
100,0.44619135179784564,0.44647843050956726
101,0.4461978576713138,0.44621846785147984
102,0.4461957394414478,0.44613809925317766
103,0.4461878463625908,0.44608023528258006
104,0.4461879142191675,0.44614710358778636
105,0.4461867529352506,0.4464014039635658
106,0.44618543536133237,0.44628518156210584
107,0.4461762353512976,0.4461342156926791
108,0.44618303914202584,0.4460879461367925
109,0.44618887501955035,0.44642522650957106
110,0.4461786573595471,0.4460754080017408
111,0.44618494651052687,0.446188214858373
112,0.4461926051709387,0.4461083666086197
113,0.4461939434144232,0.4463456715941429
114,0.4461759164068434,0.4461698793768883
115,0.4461876811848746,0.44645150635639824
116,0.4461859697898229,0.4461020073692004
117,0.4461856220960617,0.44613975862662
118,0.44617924237251283,0.4461670981446902
119,0.4461765385005209,0.44610548875729245
120,0.4461760125491354,0.44608462129036586
121,0.44617623618576263,0.4461263599594434
122,0.44617616911066904,0.4462044219772021
123,0.446171891702546,0.4461300715605418
124,0.44617466693454316,0.44616348123550414
125,0.44617735664049785,0.4460997488896052
126,0.4461751440366109,0.4465780985355377
127,0.44617614983850057,0.4461700563629468
128,0.4461693503724204,0.4460994365413984
129,0.44617860472864573,0.4462880854209264
130,0.4461738982929124,0.44626627506812416
