epoch,loss,val_loss
0,0.5513819902340571,0.548147908727328
1,0.5481491694053015,0.5475639199415843
2,0.5478574886322022,0.5475619836648306
3,0.5477086011966069,0.5475094712177913
4,0.5476144171158472,0.5475850551525752
5,0.5474885141717063,0.5472312759160995
6,0.5472755731609132,0.5480697307586669
7,0.5471947024001016,0.5470092660983403
8,0.5471024259328842,0.5470288319985072
9,0.5471071107519998,0.5474849752187729
10,0.5470505043268203,0.5471610106229782
11,0.5470266158183416,0.5469157427151998
12,0.5470292038652632,0.5469797935088475
13,0.547028519100613,0.5470516868829727
14,0.5469963922235701,0.5470189498662948
15,0.5470047015878889,0.5470767362117768
16,0.5469718812439177,0.5474119435548782
17,0.5469597772359848,0.5469067647059759
18,0.5468896880812115,0.5468894720077515
19,0.5468208147419824,0.5469614831606547
20,0.5467831955088509,0.5466841955184937
21,0.5467734455929862,0.5468436386187872
22,0.5467681407796012,0.546591404835383
23,0.5467540281878578,0.5466560010115306
24,0.5467483941051695,0.5465933242241542
25,0.5467448802789052,0.5466769002278646
26,0.5467355490790473,0.5468196850617727
27,0.5467383012109333,0.5468105239073435
28,0.546728878127204,0.5466066248019537
29,0.5467239041195976,0.5465935095151265
30,0.5467326314581765,0.546611482143402
31,0.5467125000423855,0.5471019721428553
32,0.5467257288297017,0.5467756042083104
33,0.546711963362164,0.5466153349479039
34,0.5467110086679459,0.5465922978321711
35,0.5467104726764891,0.5465828241109848
36,0.5467055594126383,0.5467531515757242
37,0.5467058564424515,0.5469311040639877
38,0.5466998682816824,0.5470245987574259
39,0.5466952152517107,0.5466368803183238
40,0.5466964746316274,0.5467719521125157
41,0.5466966183582942,0.5465918877124787
42,0.546696072379748,0.5466866340637208
43,0.5467011745108499,0.5466802359422048
44,0.5466939713292651,0.5465707418123881
45,0.5466946944263247,0.5465574687321981
46,0.5466989671256807,0.5465666440327962
47,0.5466935516330931,0.5465872015953064
48,0.5466918186081781,0.546660350481669
49,0.5466858381960127,0.546639659523964
50,0.5466889365646574,0.5466141292651494
51,0.5466794322994021,0.5466192482312521
52,0.5466883782015907,0.546608117500941
53,0.5466908359660043,0.5466222837766012
54,0.5466804378827413,0.5465604757070541
55,0.5466862520111931,0.5465882975260417
56,0.5466870515214073,0.5468333617051443
57,0.546677663339509,0.5466225918531418
58,0.5466767779588699,0.546605053782463
59,0.546680616789394,0.546985987106959
60,0.546680925488472,0.5468322761456171
61,0.546678684340583,0.5467507381836574
62,0.5466808824804094,0.5467072362105052
63,0.5466758811871211,0.5465886948506037
64,0.5466722901132371,0.5465877229770024
65,0.5466703380346298,0.546744438012441
