epoch,loss,val_loss
0,0.6745606435001392,0.6712577558924483
1,0.6713019014793183,0.671725828742271
2,0.6710407118213191,0.6705748556269605
3,0.6707298146047236,0.67059982420493
4,0.6664586190927404,0.5067241212274537
5,0.5057387410962539,0.5055981138503877
6,0.5055879483529216,0.5052472344699036
7,0.5054552870039649,0.5066057874606206
8,0.5053521230053847,0.5053142414791116
9,0.5052534874066048,0.5060856108334165
10,0.5051713214433836,0.5050273351278849
11,0.5051039123402318,0.5050308747563705
12,0.5051149317072253,0.5048069185122072
13,0.505045910168315,0.5052769127022244
14,0.5049905760672461,0.5049874589993404
15,0.5049391880995688,0.5052117080605651
16,0.5049417529112324,0.5052686019807536
17,0.5049382672704794,0.5048495550901068
18,0.5048688128494938,0.5062590665616113
19,0.5049120625077844,0.5048352127335504
20,0.504851121625177,0.5047884442374369
21,0.5048184062936977,0.505210610063141
22,0.5048415373038423,0.505103762481112
23,0.5048016829923002,0.5048658941874729
24,0.5048381902586198,0.5048736808613571
25,0.5047670560927463,0.505124433490242
26,0.504801682888175,0.5046804600850524
27,0.5047816133524704,0.5048418791654979
28,0.504766370129354,0.5046440292824587
29,0.5047301099989536,0.5053616066132822
30,0.5047644882795915,0.5048636241231308
31,0.5047407357541043,0.5046115235714403
32,0.504730961800057,0.5045738963276222
33,0.504747740304438,0.5046206313682253
34,0.5047293444159796,0.5045514026291613
35,0.5047300480980301,0.5046075666512804
36,0.5047099043872357,0.5045941992965585
37,0.5047131183965887,0.5047538289065396
38,0.5046886857552922,0.5045834632428645
39,0.5047403362654915,0.5054470721012901
40,0.5046768335096053,0.5046142812106509
41,0.5046847633466964,0.5054591363771973
42,0.5046770076189685,0.5044815809200183
43,0.5046780581022211,0.50456361084363
44,0.5046504527490925,0.5049558559659101
45,0.5046573299115663,0.5045790261725338
46,0.504655430318692,0.5046107625842982
47,0.5046448051172988,0.5045813567585152
48,0.5046355514064682,0.5052659513636795
49,0.5046352615428829,0.5046906270401058
50,0.5046736122501327,0.5047808775239192
51,0.5046183297463138,0.5045212171213799
52,0.5046262402326613,0.5047580059645489
53,0.5046410028393438,0.5044046751914486
54,0.5046319575881875,0.5044825535554153
55,0.5046297233846615,0.5049569106575277
56,0.504609015303603,0.5045756983106249
57,0.5046241767993889,0.5045021089667422
58,0.5045959375786574,0.5044294170942851
59,0.5045994565158471,0.5055907827157241
60,0.5045866261516366,0.5045190556765194
61,0.5046304048580439,0.5050047221018126
62,0.5045644537601833,0.5045461443458538
63,0.5045782197929186,0.5046113514131115
64,0.5045898011266169,0.5044903993606568
65,0.5045932236642722,0.5047459034706759
66,0.5045918751743611,0.5044430124848416
67,0.5045613589569646,0.504554286517813
68,0.504597824757743,0.5044555036660755
69,0.504597952002825,0.504449631144332
70,0.5045524686419143,0.5048651456832886
71,0.5045910660212523,0.5057980303137237
72,0.5045863110171522,0.5044164199095506
73,0.5045622570914678,0.5045684393818858
