epoch,loss,val_loss
0,0.5513154488272137,0.5480506362517675
1,0.5481423850854238,0.5477749042510986
2,0.547859249300427,0.5478591808080673
3,0.5477043401532703,0.5475303183396657
4,0.5476334723763996,0.5474387094577153
5,0.5475768177244398,0.5474385874668757
6,0.5475112287071016,0.5475856157143911
7,0.5474767229027219,0.5472144514322281
8,0.5474453960127301,0.5473915608723958
9,0.5474131455951267,0.5471582317352295
10,0.5474140818383959,0.5472559200922648
11,0.5473997961945004,0.5474166528781255
12,0.5473701574405034,0.5474580810070038
13,0.5473499784866969,0.5473019311030706
14,0.5473396251731448,0.5471908595164617
15,0.5473013068305121,0.5472200894355774
16,0.5472857853704028,0.5471413197120031
17,0.5472647385862138,0.5474810743331909
18,0.5472314002381431,0.5473589981794358
19,0.5472277570300632,0.5470740398565929
20,0.5472223029666476,0.547531130750974
21,0.5472055643929375,0.5474077594280243
22,0.5472042818201913,0.5471492958863576
23,0.5472111413081487,0.5478942246039709
24,0.5471786879036161,0.5470469708045324
25,0.5471793526940876,0.5470894169807434
26,0.5471784230470658,0.5470741837819417
27,0.5471777592102687,0.5470947303374608
28,0.5471648048957188,0.5470801953872045
29,0.5471671971612506,0.5473521265586218
30,0.5471552846431732,0.5471282946666082
31,0.5471621873643663,0.5471164335807165
32,0.5471675534115897,0.5471003669102986
33,0.5471493456761042,0.5469521902402242
34,0.5471504869990879,0.5469625019232432
35,0.5471509178082148,0.547021315296491
36,0.5471464354859458,0.5470653944412868
37,0.5471312095986473,0.547328331510226
38,0.5471349167161518,0.5469749909639359
39,0.5471333828104867,0.547253407796224
40,0.5471271175543467,0.5470264124075571
41,0.5471155924134784,0.5470796738465628
42,0.5471041225459841,0.5469814932743708
43,0.547105794231097,0.5469725510676702
44,0.5470893739064534,0.547075981259346
45,0.547099763499366,0.5470372694333394
46,0.5470853582223256,0.5472604597012202
47,0.5470810404618581,0.547152323126793
48,0.5470770685540305,0.5469639435609182
49,0.5470671674013138,0.5481319395701091
50,0.5470588305791219,0.5470761700471243
51,0.547042992260721,0.5469228092432022
52,0.547058634519577,0.5469865535100301
53,0.5470544651349386,0.5470701293945313
54,0.5470648178259532,0.5469594279925029
55,0.5470316121843126,0.5472972140709559
56,0.547064292523596,0.5468739775816599
57,0.5470482498142455,0.547318894982338
58,0.5470450777610143,0.546993646979332
59,0.5470406619442834,0.5469807150761287
60,0.5470503364536498,0.5468425317605337
61,0.5470543840063943,0.5469055432875951
62,0.5470345183875825,0.5469565246502558
63,0.5470379458665848,0.5470677797794342
64,0.5470506641599867,0.5468648335536321
65,0.547032330473264,0.5469916591246923
66,0.5470398466322157,0.5470394870837529
67,0.5470422489775552,0.5469384315808614
68,0.547031278318829,0.5473762627442678
69,0.5470373080703947,0.5469673110644022
70,0.5470369068119261,0.5469357687632243
71,0.5470179495943918,0.5470117813746135
72,0.5470279380612904,0.546945832212766
73,0.5470307282209397,0.5472833815813064
74,0.5470238355000814,0.5469478042125702
75,0.5470298461119334,0.5468747197786967
76,0.5470286973582373,0.5471930227677028
77,0.5470241587559382,0.5471286366383235
78,0.5470279349221123,0.5469352419773738
79,0.547017522626453,0.5469564651648203
80,0.5470208026303185,0.5473279338677725
