epoch,loss,val_loss
0,0.2331239260524384,0.22713998701820895
1,0.22700259150722416,0.22906592229459777
2,0.22621016419450865,0.2280607776147852
3,0.2258808655329492,0.22562227810434904
4,0.22563377281301375,0.225189459508761
5,0.22558626923438702,0.2253078653705919
6,0.225488072392283,0.22628574887517072
7,0.2253548141697922,0.22563440168909635
8,0.22524474888716178,0.22508669562138636
9,0.2251680204564807,0.2250131146118008
10,0.2251373765473283,0.225431104851124
11,0.22511113774354277,0.2258544411611912
12,0.2250690150769483,0.22518624215208863
13,0.2250336599470114,0.22483415103727772
14,0.22503026840990845,0.22482630141615573
15,0.22498968553056226,0.22507612518134248
16,0.22497671517676474,0.22533364989621468
17,0.22495413350379148,0.22524108390506384
18,0.22495965603769344,0.22499115784322063
19,0.2249065075759447,0.2249128974031278
20,0.22493504284151894,0.22484067251013762
21,0.22487836897754204,0.22590063083408488
22,0.22488661645108324,0.224809608292343
23,0.22482791528176926,0.22508709820417258
24,0.22488516974299438,0.22468700074676248
25,0.22482966408422414,0.22470058978491325
26,0.22482742280530393,0.22482767835000608
27,0.2248281912258901,0.224653537589918
28,0.22479881210764222,0.2246502295469232
29,0.22481296088552086,0.2247454926852257
30,0.22483657709854354,0.22466199148825322
31,0.22478806946058197,0.2251178705736662
32,0.2247946318315145,0.22479546231312433
33,0.22479713515579772,0.22463810968931497
34,0.22476324794672223,0.2246454614859361
35,0.22477711136897124,0.2247107560004549
36,0.22476059543097424,0.22569440760772222
37,0.22480522950300208,0.22503682471090747
38,0.2248046233834159,0.2247893265769736
39,0.22476913612298696,0.22535975216044385
40,0.22474550045055955,0.22475428308357967
41,0.22477355220706702,0.22478492826445226
42,0.22474820885379682,0.22457748763910299
43,0.22476854707462826,0.2246683522282404
44,0.22474950676010202,0.22474985045771445
45,0.22473692686520128,0.22463111875962383
46,0.22473210922558148,0.22512867464764835
47,0.22472252568005932,0.2252983024265275
48,0.22474164315341785,0.22495581216315183
49,0.22473463647009273,0.22458339615288206
50,0.2247363826504828,0.22503806175872054
51,0.2247208023539932,0.22459208286429752
52,0.2247375535737941,0.22468872291426506
53,0.22475069650682536,0.2246243912883787
54,0.2247283639885797,0.2246089516369344
55,0.22473072834894972,0.2250053626210163
56,0.2247424752740474,0.22515304684638976
57,0.22472699397628101,0.22456550975295508
58,0.22471921144969392,0.22469033783777773
59,0.22471813765933,0.22465601825240825
60,0.2247292130423918,0.22500980350722746
61,0.22474127896348492,0.22463795094572878
62,0.22468901889263385,0.22457729761417095
63,0.22469400545211352,0.2247624889496834
64,0.22471399498940164,0.2246761604884718
65,0.224705627805665,0.22458102775566632
66,0.22470211192242348,0.22464677050302992
67,0.2246992712074609,0.224936230957656
68,0.22472259506873699,0.2246980919287755
69,0.22470405183368564,0.22491415038741847
70,0.22470457914026687,0.2246274360504103
71,0.22470659291128472,0.22454483226570243
72,0.22472756044088385,0.22460377152741104
73,0.22469730595233314,0.22615003645715878
74,0.22470086899704678,0.22457842096945194
75,0.22469872313872521,0.22464241054158648
76,0.2247080834439054,0.22460386237642604
77,0.22468834909962723,0.224726672274599
78,0.22466996058612046,0.22456109991884113
79,0.22469136538959572,0.2247094537868689
80,0.22467206585765542,0.2245624571890748
81,0.22469968725022424,0.22499648643190748
82,0.22469139865802906,0.2245488616136404
83,0.22466984435820697,0.22497200123577496
84,0.22466830181597627,0.22612772801377934
85,0.22470701850162975,0.22485570245729783
86,0.22465887465701775,0.2247894757364879
87,0.22467802178518778,0.22453521639478413
88,0.2246799684206184,0.22492619233007172
89,0.22466832032642073,0.22457114929153074
90,0.22468534785438668,0.22454155945304605
91,0.22467244097423886,0.22464796967305262
92,0.22467597135456432,0.22492747407397323
93,0.2246437090307305,0.2246005988964076
94,0.2247072587759271,0.22455160211096922
95,0.22466097302295376,0.22506243820225927
96,0.22467182817130607,0.22453641405620292
97,0.22466467031517706,0.22457540885686283
98,0.22467540984123865,0.22681754691429232
99,0.22468470966420273,0.22470661375865747
100,0.22466559710051068,0.22463193761355824
101,0.22464844394692693,0.22478365480308202
102,0.22469858523973002,0.22474108331700413
103,0.22465183282193205,0.22453653149805944
104,0.22465858135986058,0.22459103745355205
105,0.22464464164175732,0.2247955035039272
106,0.22468859705356117,0.22460417768203886
107,0.22464562362159465,0.22470555529553007
