epoch,loss,val_loss
0,0.44964038399855294,0.4472062149047852
1,0.446924201561345,0.44675031491120654
2,0.44668936838706336,0.4466580264767011
3,0.446572200636069,0.4464417737722397
4,0.4464955224659708,0.44641064568360644
5,0.44643981278604933,0.44641587281227113
6,0.4464247339632776,0.4466305796702703
7,0.4463957034945488,0.44664174324274064
8,0.44636845167477923,0.4465338114500046
9,0.44635894949568644,0.4462881722052892
10,0.44633927680386437,0.44622487729787824
11,0.4463372982144356,0.44645516681671144
12,0.44632974368333816,0.4462383916576703
13,0.4463229074411922,0.4462314621806145
14,0.44630846449401645,0.44636372903982796
15,0.4463047965897454,0.4462089456717173
16,0.4463021130826738,0.44625165474414824
17,0.44630499792761275,0.4462127777338028
18,0.44628703239891265,0.4463335959513982
19,0.4462804192437066,0.4462250113487244
20,0.4462760187122557,0.44629822464783986
21,0.44627293212546243,0.4461668585340182
22,0.4462828846507602,0.4462138794064522
23,0.44627479047907725,0.4462282413045565
24,0.4462636874318123,0.4461786367893219
25,0.4462579146491157,0.4464952485760053
26,0.4462544352412224,0.44622125977277755
27,0.44625207134750156,0.4461816025575002
28,0.4462590242160691,0.4461706092556318
29,0.4462515606549051,0.4462154174844424
30,0.44624564184082877,0.4463845714330673
31,0.4462579432924588,0.44630810966094336
32,0.4462483631571134,0.4462617391347885
33,0.446245448562834,0.44622813429435093
34,0.4462452289793227,0.4463170171181361
35,0.44623622199561863,0.44619009232521056
36,0.44624215702878106,0.4461633202433586
37,0.4462466216948297,0.4462682834068934
38,0.4462348474793964,0.4462974494496981
39,0.4462474802798695,0.44628123492002486
40,0.4462423137492604,0.4462020344932874
41,0.4462399301926295,0.44649650979042055
42,0.4462370269364781,0.4462277390360832
43,0.4462356285651525,0.44650817092259726
44,0.44623701977067526,0.44618910948435464
45,0.4462308917509185,0.446247187991937
46,0.4462329445679982,0.4461506659984589
47,0.4462273581624031,0.44613730106751126
48,0.4462343113952213,0.4461508119106293
49,0.44623003285461,0.44678918598095574
50,0.4462250367071893,0.44619221703211465
51,0.4462290738754802,0.4461401507059733
52,0.44623512715763514,0.4461418466965357
53,0.4462241953081555,0.44616199656327565
54,0.4462311714688937,0.4461677949627241
55,0.44621298925744163,0.4462526371479034
56,0.4462197961542341,0.44625979028145474
57,0.44623084942499797,0.4461856627861659
58,0.4462224470112059,0.4464796177546183
59,0.44622159875101514,0.4461512294014295
60,0.44622443348831603,0.44645752930641175
61,0.44622697387139004,0.4461615980466207
62,0.4462207706835535,0.4461153954466184
63,0.4462206259965897,0.4461644002596537
64,0.4462368437780274,0.4461217751900355
65,0.44621272484461466,0.44613931041955945
66,0.44621824798981347,0.4461888714234034
67,0.4462226054734654,0.44622084192434947
68,0.44622052515215344,0.4461507679025332
69,0.4462198138369454,0.446134373207887
70,0.44622452586889266,0.4461837746302287
71,0.44622519056002297,0.446166930437088
72,0.4462257111867269,0.44621377396583556
73,0.4462165478600396,0.4462043569684029
74,0.44621643165747327,0.44629840391874315
75,0.44621761194202636,0.4461102020740509
76,0.4462203999294175,0.4461177566051483
77,0.44621123894717957,0.4465143696864446
78,0.44621298087305494,0.4462340748508771
79,0.4462137138975991,0.4461594608624776
80,0.4462126492129432,0.44613666743040087
81,0.44621730526950626,0.44617265671491624
82,0.44621296158764095,0.4462091783682505
83,0.44621550621589023,0.4462235801815987
84,0.44621487935384113,0.44630895235141116
85,0.4462221976849768,0.44666828113794327
86,0.44621631754106944,0.4461702030301094
87,0.4462133123146163,0.4461455890138944
88,0.4462122728294796,0.4461145016551018
89,0.44620687661568326,0.4462371166149775
90,0.44620032286643985,0.44613015464941663
91,0.4462048795024554,0.44620519689718885
92,0.4462105130155881,0.4461375966866811
93,0.446204644507832,0.4461957346200943
94,0.4462092527416017,0.4461326196392377
95,0.4462132774591446,0.4461703279217084
