epoch,loss,val_loss
0,0.443940643446301,0.43900241930194883
1,0.4366195984288769,0.43822964545219173
2,0.4358182751550734,0.4348768785928674
3,0.4352747584079191,0.4362497674176474
4,0.43497694565641154,0.434281511830337
5,0.4346250216929764,0.434297149752269
6,0.434414177448308,0.4358188742295684
7,0.43429342083405864,0.4338059575770688
8,0.43413129700684633,0.4340001118833906
9,0.4340585637088015,0.43356908664809857
10,0.433917135098438,0.4345658689367564
11,0.4338702002278414,0.4334436191666511
12,0.4336905045520445,0.433483272361992
13,0.4336795129383922,0.43377356131378536
14,0.4335669869248468,0.4333832368365588
15,0.4335200462019341,0.4334155415926619
16,0.4334356081517144,0.4335182133590613
17,0.43342476475414077,0.4331584522948963
18,0.4333860157273215,0.4331353767929834
19,0.4333736414008426,0.43307648869069576
20,0.43329448308873836,0.433271577177805
21,0.4333511004901702,0.4331866559408439
22,0.433268988170025,0.4335319603347305
23,0.4332678942684871,0.43309681545711926
24,0.4332017295137579,0.43300265150685463
25,0.4332020270356815,0.4330345085329808
26,0.433181611404776,0.43361429339898727
27,0.43320317093078187,0.4335854248728409
28,0.43313764245549763,0.43346793672287137
29,0.43313199885540465,0.4330805900079145
30,0.43312251921511685,0.4330294276437452
31,0.43312333239992634,0.4329882552398937
32,0.43307944821181166,0.4334814379883759
33,0.4331159887516919,0.43278023192367837
34,0.4330685026811062,0.4332959081043972
35,0.4330508019222233,0.4330530054811804
36,0.4330412856960853,0.4330183787026417
37,0.4330239654856566,0.4329937677525409
38,0.4330457536775646,0.4330125958097188
39,0.4329890961239904,0.4330082072513571
40,0.43302938692215803,0.4335549365941703
41,0.43300184540218756,0.432821540294155
42,0.43305869358555316,0.4327869021271358
43,0.43295680755485755,0.43386655134835256
44,0.4329945185149739,0.4329498238066586
45,0.43297406608050165,0.43315507602455006
46,0.43295515100033444,0.43353448936128736
47,0.4329754640965945,0.433167530673905
48,0.43297608854953323,0.4327982161388208
49,0.432970851279954,0.4332259900516671
50,0.43292938473972103,0.43278957416046937
51,0.432930000953744,0.43433384266739744
52,0.4329592264502709,0.43406978671071544
53,0.4329585481744035,0.4334979936887254
