epoch,loss,val_loss
0,0.6699918027321498,0.6685602218310038
1,0.6682001908222834,0.6679496031602223
2,0.6680439752340317,0.6679184655745825
3,0.6679655175738864,0.6681991116205851
4,0.6679188397592969,0.6678281238476436
5,0.6678903387255138,0.6678268572886785
6,0.66786522784498,0.6678387463490169
7,0.6678455618752374,0.6677732690572739
8,0.6678354379468494,0.6677493133544922
9,0.6678228444125918,0.6677531373898188
10,0.6678128972450892,0.6679586095015208
11,0.6678144571781158,0.6679125547409057
12,0.6677998711135652,0.6677536198695501
13,0.6677938202619552,0.6677560946941375
14,0.6677909121116002,0.6677836451927821
15,0.6677821006377538,0.6678070329030354
16,0.6677816093100442,0.6677115776538849
17,0.6677702375253042,0.6679480372667312
18,0.6677666841745377,0.6677184784412384
19,0.667763277331988,0.667720788637797
20,0.6677649904357063,0.66776424853007
21,0.6677626875241598,0.6677824298143387
22,0.6677609974410799,0.6678107305367788
23,0.6677574044598473,0.6678014139731725
24,0.6677590711514155,0.6678086639245351
25,0.667750830743048,0.6678208109935124
26,0.6677495586342281,0.6678194547096888
27,0.6677489009168412,0.667695587515831
28,0.6677473692364163,0.6677180279890697
29,0.6677508955266741,0.6679105128447215
30,0.667751536183887,0.6677136415243149
31,0.6677454778353373,0.6678041438659033
32,0.6677471510834164,0.6677998343308766
33,0.6677475999593735,0.6677993646462759
34,0.6677455513079961,0.6676996981700262
35,0.6677496554586623,0.6677997244596481
36,0.6677395966317918,0.6678181799252828
37,0.667739730834961,0.6676676886479059
38,0.66774068611198,0.6676969138383866
39,0.6677392157978481,0.6678370624780655
40,0.6677419777578778,0.6677332287232081
41,0.6677396235863368,0.6676567246516546
42,0.6677382496065564,0.6677096655368805
43,0.6677360595464706,0.6676911422411601
44,0.6677326284646988,0.6676703715721766
45,0.667738129986657,0.6678702726364135
46,0.6677429319752587,0.6677288963794709
47,0.667739281601376,0.6678037621180216
48,0.6677365068727069,0.6682346192598343
49,0.6677371189726724,0.6676729209025701
50,0.6677375067207548,0.6677577530145645
51,0.6677270589934455,0.6677171781460444
52,0.6677374467584822,0.6678243468602498
53,0.6677283199495739,0.6677152034044266
54,0.6677281495200263,0.6678317058881124
55,0.6677328852944904,0.667715284427007
56,0.6677293303675121,0.6676608228286107
57,0.6677334775394863,0.6677224887212118
58,0.6677231205966737,0.6677199111382166
59,0.6677270920938916,0.6678538181384405
60,0.667721715092659,0.6680341113805771
61,0.6677223128080368,0.6676764671802521
