epoch,loss,val_loss
0,0.6724714134398017,0.6686945166540501
1,0.6687758038911087,0.6699664227719934
2,0.6684553816635905,0.6693315152199037
3,0.6682538072561612,0.6683809496628735
4,0.6681807439699977,0.6681286161649908
5,0.6681600530001998,0.668070661962476
6,0.5739073481211218,0.5576802351930301
7,0.5574185393894727,0.5574966521476102
8,0.5574128490552552,0.5572956996283519
9,0.5573535372258602,0.5575314052643314
10,0.5573132932521379,0.5572499873916209
11,0.5573165900884479,0.557329277394723
12,0.5572749795787926,0.5573182495592841
13,0.5572625948977609,0.5581593958083216
14,0.5572522892049041,0.5573107291687807
15,0.5572357454321194,0.558018813150988
16,0.5572314443844278,0.5575814279669863
17,0.5572076749748627,0.5576050518464214
18,0.5572021873063766,0.557092167307662
19,0.5571915682270787,0.5572925330687397
20,0.557185997106095,0.5570658016441478
21,0.5571660179929738,0.557303674670662
22,0.5571747871897705,0.5573278350806413
23,0.5571559791638397,0.5570435959707123
24,0.5571435737871123,0.5570875356274266
25,0.5571416215888655,0.5570651733254085
26,0.5571299618803564,0.5572623494245278
27,0.5571419718522345,0.5571858265263863
28,0.5571360575152725,0.5572114721125467
29,0.557133346512452,0.5573874497827762
30,0.5571352939706304,0.5571354696235941
31,0.557121811441159,0.5570872509449942
32,0.5571120603852157,0.5570917490694126
33,0.5571373759382094,0.557323123592301
34,0.557109119626727,0.5570780644937425
35,0.5571212759254404,0.5570727722520568
36,0.5571014421286656,0.5570430690538203
37,0.5570989215323982,0.5570994525925989
38,0.5570787175306785,0.5570247898030813
39,0.5570935771663802,0.5577534033110361
40,0.5570902782799059,0.5576306120041878
41,0.5570910597206924,0.5571803539030014
42,0.5570832921676415,0.5570925204392994
43,0.5570819859881065,0.5570227607308191
44,0.557074316491918,0.5575361459485946
45,0.5570963252062606,0.5571148464756627
46,0.5570676674751142,0.5571470501109329
47,0.5570803562438806,0.5572096630893925
48,0.5570649547763131,0.5577568550559486
49,0.5570663454779968,0.5570127153219123
50,0.5570749726439164,0.5570293364394687
51,0.5570541693781189,0.5569763404855658
52,0.5570614250645195,0.5569987510333286
53,0.5570501157029951,0.557006572671327
54,0.5570542333236851,0.5571737139455734
55,0.5570451860909925,0.5574298685596836
56,0.5570621172359894,0.556992508430339
57,0.5570554916994446,0.5569874714680996
58,0.5570552355030453,0.5570846020731678
59,0.5570514275755029,0.556995990613554
60,0.5570701340626838,0.557072511145258
61,0.5570344755013171,0.5570561800346185
62,0.5570535482863771,0.5571332534844468
63,0.5570441409772932,0.5569704961244285
64,0.5570430894693528,0.5569904885280221
65,0.5570493979876916,0.5572307616842
66,0.5570377426571788,0.55767335347443
67,0.5570433587989523,0.5572022839160474
68,0.5570414470084281,0.557976194587594
69,0.5570433811993055,0.5571239968387424
70,0.5570444464967511,0.5572234783811546
71,0.5570425341816562,0.556962810941133
72,0.5570372344901324,0.5571373809951706
73,0.5570317512248852,0.5569758539755942
74,0.5570403714688377,0.5570155771139538
75,0.5570360295551144,0.5569812325330881
76,0.5570293583927487,0.5575562021868401
77,0.5570362208301672,0.5569484905628649
78,0.557037393637003,0.5571326937036538
79,0.5570149879133346,0.5569700241088867
80,0.5570352198214281,0.5570171575096642
81,0.5570416585516317,0.5569777388430707
82,0.5570263147229492,0.5569610175068858
83,0.5570205537381261,0.5571068707530019
84,0.5570307893854085,0.5570045830594103
85,0.5570159448289459,0.5582937939587065
86,0.557032008709441,0.5569695343154831
87,0.5570182660204975,0.5569741439286887
88,0.5570271115734938,0.5569805049127148
89,0.5570250042032816,0.5569456173527625
90,0.5570276576847525,0.5570465794568026
91,0.5570112110719325,0.5569465680986125
92,0.5570220633217356,0.5570162838800965
93,0.5570190775290472,0.5571957410417183
94,0.557019074206503,0.5569805743972361
95,0.5570019286800988,0.5570300102529692
96,0.5570121220312039,0.5570207135848905
97,0.5570219075084529,0.5578295306295674
98,0.5570167491465381,0.5572140843341723
99,0.5570137202901425,0.556961785120053
100,0.5570152230440779,0.5572414838942346
101,0.5570230369818024,0.557143041395372
102,0.5570051455568421,0.5570137514369955
103,0.5570075188646927,0.5573879137524305
104,0.5569987657584129,0.556936914867562
105,0.5570073825236331,0.5571755069361135
106,0.5569995631887463,0.5569157154625166
107,0.5570004189797426,0.5607202110456178
108,0.5570081469202096,0.5569343252158342
109,0.5570080729226062,0.5569996397785159
110,0.5570041368286306,0.557061447842837
111,0.5569997758126445,0.557004415604376
112,0.5570062224910807,0.556949775242628
113,0.5569993920453771,0.5569477737097823
114,0.55701216232218,0.5569360461779327
115,0.556989656095493,0.5569618766124432
116,0.5570078567174281,0.556955564702415
117,0.5569922103928661,0.557537842240582
118,0.5570013905975332,0.5570076846898934
119,0.5569907560863899,0.5569632980722943
120,0.5569945015947486,0.5571583555590722
121,0.5569921504387704,0.5570001873721556
122,0.5569836743894507,0.5569293293408661
123,0.5569984540671634,0.5574563284369911
124,0.5569979908593782,0.5570039610117304
125,0.5569955151655762,0.5569374340639517
126,0.5569862609932812,0.5576638789094116
