epoch,loss,val_loss
0,0.4493835764924685,0.44716346488396325
1,0.44702364533477357,0.44670809296766917
2,0.4467599632740021,0.4469000366131465
3,0.4466403078304397,0.44655941808223726
4,0.44657415682077406,0.4464023621082306
5,0.44652588266796533,0.446477231880029
6,0.44648182140456305,0.44640434062480927
7,0.44644476793209714,0.4463856978813807
8,0.4464260328080919,0.4463199932575226
9,0.4464015960825814,0.44627668863534925
10,0.446398350947433,0.4462437083125114
11,0.44638528225157,0.44645735224088035
12,0.44637437843614153,0.44631960888703665
13,0.446364519516627,0.4462869461576144
14,0.44635868478483626,0.4462466688156128
15,0.44634436257680254,0.44631775188446043
16,0.44635245015223823,0.4464533106684685
17,0.4463346251381768,0.44670831044514975
18,0.4463319218688541,0.4468534875512123
19,0.4463189465734694,0.44625056129693985
20,0.44632462762461766,0.44631673039992653
21,0.4463013629184829,0.4462809772292773
22,0.4463167903886901,0.44638684022426606
23,0.4463012332055304,0.4462131420969963
24,0.44629731945859064,0.4462468008597692
25,0.44628079730934567,0.4462027406096458
26,0.44627758436732823,0.4461911640564601
27,0.4462797099285656,0.4462595993081729
28,0.44627029483185876,0.4462257338563601
29,0.4462748217450248,0.44620538103580476
30,0.4462700987723139,0.44621478794018427
31,0.4462705379062229,0.4462037188212077
32,0.44626528231965173,0.4462884470025698
33,0.44626544062958823,0.4461767836411794
34,0.4462616239587466,0.44630456441640853
35,0.44626112355126274,0.44627411546309786
36,0.44626003243525825,0.4462304551800092
37,0.4462635029885504,0.44617842183510464
38,0.4462590401040183,0.44635447494188946
39,0.44625478478272756,0.4461680479248365
40,0.44625643101003437,0.44617946368455885
41,0.44625294595956805,0.4464809975028038
42,0.44625676423311234,0.4462170526981354
43,0.4462596240374777,0.4462208031614621
44,0.4462554384999805,0.44617103185256324
45,0.4462493863304456,0.4461950101653735
46,0.44625663176510066,0.4463105599880218
47,0.4462481375336647,0.4461498976747195
48,0.4462539512779978,0.44615763950347903
49,0.4462546317047543,0.4461489552458127
50,0.4462472645110554,0.44626878084739047
51,0.446244418905841,0.4461649739146233
52,0.4462552848921882,0.44615297293663025
53,0.4462460848291715,0.4466432700355848
54,0.4462490740749571,0.4461643840273221
55,0.44624466115236283,0.446157411356767
56,0.44624728173679773,0.44620370878775917
57,0.4462443038754993,0.44617597601811093
58,0.4462422330048349,0.4462284294565519
59,0.4462441063258383,0.44631989912192027
60,0.44624631812175114,0.4462280707557996
61,0.446237591445446,0.44622410452365874
62,0.4462367897497283,0.4462564698457718
63,0.446242879304621,0.44614421675602595
64,0.4462388599117597,0.44615011956294376
65,0.44623224492867786,0.44627878497044243
66,0.44623473780685,0.44624322108427683
67,0.44623025443818837,0.4461677398085594
68,0.4462335609661208,0.4461918416619301
69,0.44623497700028947,0.4461916499535243
70,0.44623258922497433,0.44632546240091325
71,0.4462315795752737,0.44620287424325944
72,0.44624550563759274,0.4461540165742238
73,0.4462380566596985,0.4463665818770727
74,0.446239432560073,0.4465215015610059
75,0.44623333999183445,0.4462693439126015
76,0.4462374436325497,0.44633418705066047
77,0.446234786676036,0.4461727417310079
78,0.44623284199502733,0.44614284408092497
79,0.44623108739323086,0.44613941739002866
80,0.4462313880390591,0.44614619435866676
81,0.446238586684068,0.44618029248714447
82,0.44623002008597057,0.4466044221719106
83,0.4462294583916664,0.44624274150530496
84,0.44623159348302416,0.44617135562499366
85,0.44622819732957414,0.4461770867506663
86,0.44623926707108813,0.446129641354084
87,0.4462353083425098,0.4461305919686953
88,0.44622117935286626,0.4462760221163432
89,0.4462261511683464,0.44614803355932237
90,0.4462259521550602,0.44616928114493687
91,0.446225106007523,0.44625491960843405
92,0.446230409151978,0.44646491859356563
93,0.44622168436315324,0.44621521520614627
94,0.4462314313318994,0.44613859242200854
95,0.4462290501263407,0.44618905943632126
96,0.44622868462403614,0.446291162331899
97,0.4462275402678384,0.44616998279094694
98,0.4462291442884339,0.4461219427982966
99,0.4462289729449484,0.44624780923128127
100,0.4462262189719412,0.4461472408970197
101,0.446212868531545,0.4462005222638448
102,0.4462285209496816,0.4461960490345955
103,0.4462279629574882,0.4461475124955177
104,0.4462322555780411,0.44620172546307246
105,0.4462253579033746,0.44627021000782646
106,0.4462221762537956,0.4461579549709956
107,0.4462217051916652,0.4461753379305204
108,0.446234015862147,0.4466956499218941
109,0.4462207665377193,0.44619187792142234
110,0.4462209895319409,0.44632028381029765
111,0.4462269229690234,0.44641157497962314
112,0.4462215816842185,0.44617463459571205
113,0.44621869261397257,0.4462846956650416
114,0.4462229699757364,0.446112147351106
115,0.44622301995754243,0.44613107526302337
116,0.44621788744131724,0.4462875267068545
117,0.4462236804962158,0.4461229203939438
118,0.4462248261041111,0.4461757727265358
119,0.4462212675346269,0.4461402085423469
120,0.4462287396589915,0.4461324914693832
121,0.4462156911624802,0.44612554003794985
122,0.4462194755673409,0.44623075075944263
123,0.44622014282809364,0.4462279178301493
124,0.4462173320783509,0.4466829803586006
125,0.4462263553937276,0.44614836885531745
126,0.4462197862399949,0.4461839178005854
127,0.44622411330540973,0.44616804252068204
128,0.44622021433379916,0.4461295975844065
129,0.44622148148881063,0.44612960024674736
130,0.446220771378941,0.4461293547550837
131,0.44622086136870914,0.446105763455232
132,0.44622110364172196,0.4461280764142672
133,0.4462222497926818,0.4463203796346982
134,0.44621998231278526,0.44641438327232996
135,0.44622087431616253,0.44616871027151744
136,0.44621691728300517,0.4462483613888423
137,0.4462199805378914,0.44673859111467995
138,0.44621852089299097,0.44614301149050395
139,0.44622222367922465,0.4464771717786789
140,0.44622100565168593,0.44614721794923146
141,0.4462180473605792,0.44619332438707354
142,0.4462173380388154,0.4461306643883387
143,0.4462214184800784,0.4461466234326363
144,0.4462180908123652,0.4466415099700292
145,0.44622440875238845,0.4461460705200831
146,0.446220716714859,0.44612888544797896
147,0.44621166547139485,0.4461620572010676
148,0.4462158980237113,0.44613245062033335
149,0.44622313039832645,0.44628050140539804
150,0.4462142151792844,0.446117973725001
151,0.44621727873881656,0.44613178324699404
