epoch,loss,val_loss
0,0.0926838965659529,0.07667276621900185
1,0.07490562456615663,0.07191572095782822
2,0.07089363451816821,0.07989314067970138
3,0.06774600753883958,0.06558383730408868
4,0.06573114829186409,0.06527254203376048
5,0.06411331507267544,0.06374099079158999
6,0.06189453004630147,0.06198607862143599
7,0.060519011445788494,0.059158121759335394
8,0.05978943785941353,0.06001440156482289
9,0.059233109342454134,0.06047854251216718
10,0.058590130175238016,0.05789666072865278
11,0.05838537881710984,0.05777258749117627
12,0.05802592205613139,0.05649898171831597
13,0.057467512730776014,0.05902744602994351
14,0.057247898374763274,0.05620808786627081
15,0.05687353278720261,0.05788546631634975
16,0.056825885602211704,0.055693085062740455
17,0.056699059532773835,0.05632876025018266
18,0.05646543553673229,0.056681148073735366
19,0.056344809678441875,0.05614893469709912
20,0.05638833892972586,0.0556177751708859
21,0.05614942232430911,0.05639478962119696
22,0.05610779455603033,0.055832654729522486
23,0.05590605777384564,0.05613867766951805
24,0.05583658864920169,0.05510049082764029
25,0.0557936570519726,0.056731051970134595
26,0.055636859570910954,0.0558321793917243
27,0.05554839978457875,0.05486185973320646
28,0.0554314081645185,0.05483225600669165
29,0.05546554223224001,0.05435942387943232
30,0.055108480815446,0.05445363853431813
31,0.05517875489988682,0.05499642103281861
32,0.05516045025685815,0.05546867239194236
33,0.055040115936169726,0.05551142182487708
34,0.05497688818421976,0.05460329282261597
35,0.05511482588943763,0.054440859050741856
36,0.054852210320064446,0.05462592666964081
37,0.05480605296810222,0.05457176966199804
38,0.05481443208740057,0.053961711763300314
39,0.05485860408777762,0.05457266902102726
40,0.05468546441817927,0.05452774117513567
41,0.05468766172762052,0.05435827602412801
42,0.054579936415582196,0.05388641603309523
43,0.05459889331867902,0.053986447635418724
44,0.05442884130928784,0.05430873704718301
45,0.054399359665663255,0.0539929993062398
46,0.054477512903605294,0.055286616404949876
47,0.05449080633060452,0.05402891232676009
48,0.05456797951182296,0.05426780281047667
49,0.054476384066273156,0.05490750196960664
50,0.05437968679510891,0.054590423593745926
51,0.054407673126948115,0.05404300420145243
52,0.054243439151961004,0.053730079564947644
53,0.05419713748260463,0.05442369433845539
54,0.05433717469696772,0.05425862611893093
55,0.05438419246157178,0.053954352747196004
56,0.05424627296733947,0.05346107039572879
57,0.0541367704991575,0.05392702874119761
58,0.05409020934702035,0.053572719388874826
59,0.054169818472521315,0.05514633886830387
60,0.05420841108546379,0.05476529926949044
61,0.054135199684758516,0.05413167685196358
62,0.0540484335889579,0.05373229747707436
63,0.05414750646321625,0.053702836566912035
64,0.0539930026323872,0.054068320383209155
65,0.054054176615491535,0.05405959352555109
66,0.05406959753901268,0.05371303932912296
67,0.0539407241523082,0.05384570299358877
68,0.05394881835821372,0.053922640371411375
69,0.05395008872144969,0.05375005582684914
70,0.05395196505582425,0.05392351553361706
71,0.05395935535870877,0.05356052809628305
72,0.05385180903323489,0.0537412094862822
73,0.05391192787867996,0.053229538970638444
74,0.053780964738909066,0.053694287445349966
75,0.05386228477710643,0.053031439166839604
76,0.05380164353003828,0.0553254259486796
77,0.05378352655931165,0.05355302289350157
78,0.05376882182865567,0.0534452050314204
79,0.05375344863182669,0.053533537367881086
80,0.053696245939594364,0.053290214502338146
81,0.05362593852684323,0.05359792987222115
82,0.053665444402139544,0.052937887209668646
83,0.053644799396643766,0.05365896817694231
84,0.053587032184837,0.05316547529018546
85,0.05362886125488941,0.052924142101266544
86,0.053625048694904386,0.05396416489561793
87,0.05353632464980664,0.054122098050919124
88,0.05362585221834378,0.05367571402794078
89,0.05358525147194112,0.05307231316569425
90,0.053648722693780626,0.05364306075105596
91,0.05352153802631406,0.053235044167665925
92,0.05356152033809318,0.053101495790200556
93,0.053440185012733024,0.0533244549322217
94,0.053466734693253616,0.054308756886433725
95,0.05334303836075801,0.05332176955994542
96,0.05338490860579168,0.054841114558445904
97,0.05345692430377587,0.053080822039330865
98,0.053425792585999464,0.052956135081076446
99,0.0533964943945202,0.05341570799241291
100,0.053475848108974156,0.053660164632956975
101,0.053427236923659686,0.053100993371483114
102,0.05348123410421508,0.053045634161819594
103,0.05344880102689028,0.053411551211815025
104,0.05347002184329611,0.05309101182311108
105,0.05337128447873172,0.053706789242274705
