epoch,loss,val_loss
0,0.7941484403548623,0.5455146025317584
1,0.5419287338121301,0.5414955967156462
2,0.5411893957961129,0.5415364531583564
3,0.5413021258913577,0.5417544315027636
4,0.5412766995048031,0.541435740252798
5,0.5412533263211411,0.5414318146631699
6,0.5411827377878726,0.5416108434514482
7,0.5412557282189067,0.5421299310617669
8,0.5417413132443293,0.5419138295705929
9,0.5446412563323975,0.5441498271254606
10,0.541857536603006,0.5420938665552657
11,0.5412887274756912,0.5414153115693913
12,0.5412320811927165,0.5419524053270502
13,0.5413812263375413,0.5414803822835287
14,0.5412109586619591,0.5416361477023871
15,0.5412125019140022,0.541419061117394
16,0.5412752503572509,0.5424880570219469
17,0.5413514115397629,0.5415088072303653
18,0.5415702673199873,0.5416129878325056
19,0.5422576091394252,0.5421181944913642
20,0.5497240133063738,0.5414443787678268
21,0.5414004288902579,0.5414482290430587
22,0.5413451739983965,0.5417311020599779
23,0.5414821770456102,0.5423460076021593
24,0.5414395226064579,0.5419568668964297
25,0.5413500509520833,0.5414228083551392
26,0.54118973663611,0.5416508908419646
27,0.5413121909134148,0.5414960860281952
28,0.5412806565139336,0.5418898112090059
29,0.541307033186427,0.5416827215704807
30,0.5413927873283702,0.5414147256880768
31,0.5414749802853094,0.5415610107340554
32,0.5412742484755603,0.5417236311491146
33,0.5412325689650938,0.5414172951565233
34,0.541575085285098,0.5430842707323473
35,0.542152548637193,0.5421487180761588
36,0.5413159053455028,0.5415076793626298
37,0.5412452197814173,0.5418042425037355
38,0.5413141737304609,0.541737999102866
39,0.5413113572184738,0.541412818339444
40,0.54165021516864,0.5419042535530504
41,0.5416161750638208,0.5439477798550628
42,0.5420158319078983,0.5414247984109923
43,0.54127884172962,0.5416090211202932
44,0.5412085156416092,0.5416254613750665
45,0.541897792070719,0.5414266267488169
46,0.5429175175745666,0.5415555354236632
47,0.5412277104934673,0.5414258509643318
48,0.5414562841410476,0.5414229146269864
49,0.5413132628729177,0.5414106850476228
50,0.5412751881343142,0.5414121723914331
51,0.5413254014281339,0.5421338515688282
52,0.5421659663050058,0.5424703281055125
53,0.5413071571702489,0.5415350670038268
54,0.5412199008988472,0.5417045548904774
55,0.5413404854077085,0.5414158983748089
56,0.5413268579685103,0.5416345166605573
57,0.5413135829205968,0.5415825206179952
58,0.5413453315579614,0.5414892435073853
59,0.5414317667638301,0.5417137612668119
60,0.5417483778578982,0.5416929957478546
61,0.5413674154638936,0.541663718315982
62,0.5413393754059647,0.5417378521704859
63,0.5414329651714296,0.541417637536692
64,0.5415300518967384,0.5416036659432936
65,0.5414764577720208,0.5414093862208285
66,0.5414718696005276,0.5452512895414071
67,0.5323327062049885,0.5116563240687052
68,0.5115605780628608,0.5124229844226393
69,0.5114797570908717,0.5115657490353251
70,0.5113151025710488,0.5121834379758021
71,0.5113047479967122,0.5115650374759999
72,0.5113343032755593,0.5115250570829525
73,0.511384941502751,0.5117058365844017
74,0.5113215691359468,0.5121288525965787
75,0.5112690032298559,0.5115095852881439
76,0.5116222554707096,0.5115859915119733
77,0.511728236841601,0.5115276233170384
78,0.5113856168680413,0.5117416686789934
79,0.5114189209248052,0.5118905610816423
80,0.511569069183458,0.5115227375843728
81,0.5112835073347856,0.5115218892578006
82,0.5113062672220767,0.5118395898693292
83,0.5113383074139439,0.5115041072054427
84,0.5114392414881586,0.5115341497946155
85,0.5112548322640649,0.5114985819934874
86,0.5114492944968764,0.5115657698276431
87,0.5113143201638254,0.5117340272711229
88,0.5115457092452727,0.5114960037460623
89,0.5113875262188973,0.5116256632546122
90,0.511338710630895,0.5123856936314309
91,0.5115017245598233,0.5115600131278815
92,0.511652800617908,0.5138107917105504
93,0.5118682815739043,0.5121909181276957
94,0.5053251385688782,0.5021646115206932
95,0.5013767765781985,0.5021925346795902
96,0.50148451251269,0.5017691300820935
97,0.5014347722055992,0.5015313283417576
98,0.5013155610678424,0.5015506000481835
99,0.5016418562995063,0.5021141809086467
100,0.5014736339719412,0.5016787306282872
101,0.5014469648208421,0.5021458365196405
102,0.501630603034983,0.5017100152119186
103,0.5020126643414953,0.5015210763428563
104,0.5016857656705596,0.5021266636922378
105,0.5013423833120085,0.5015466689139374
106,0.5012585574650333,0.50152428760085
107,0.5014739974524624,0.5015203476876251
108,0.5016074835176,0.5024651778760807
109,0.5013618316761282,0.5015777303266895
110,0.5013641653442875,0.5015612877616586
111,0.5016128567146084,0.5015229906222617
112,0.5017436802849289,0.5016501786172852
113,0.5016028378977024,0.5015657507171927
114,0.5015340279547127,0.501551093519196
115,0.501362564489823,0.5018432879632757
116,0.5014247241254308,0.5015899012255114
117,0.5013461253131699,0.5018089640048123
118,0.5014584172295662,0.5021365215612013
119,0.5013225674629211,0.5015214986579363
120,0.5015153379711378,0.5017595429753148
121,0.5014367525583706,0.5021381216455799
122,0.5016179593034493,0.5031131469002066
123,0.5015913687011068,0.5016611163006273
124,0.501737875377793,0.5017194161119387
125,0.5019764484361161,0.5018371745597484
126,0.5014848193148926,0.5015739738479141
127,0.5013147837431856,0.5015346994695737
