epoch,loss,val_loss
0,0.08486914155386312,0.006591563936063024
1,0.0035541544978817305,0.003136819981168522
2,0.002448139391094687,0.003135916414172497
3,0.002447048660899568,0.003090593754494375
4,0.002461689681678683,0.003080805903932354
5,0.0024564831420774416,0.003099509343403832
6,0.0024580493920124125,0.0031328359871467416
7,0.0024483072510090216,0.003108257371860073
8,0.002450779293367798,0.003080188650493474
9,0.002448295916007105,0.0031974957245149353
10,0.002465892675030707,0.0030925326658929014
11,0.0024775937745571425,0.003215864348557395
12,0.002487646430268768,0.0030789021113815235
13,0.0024460770321518993,0.0030823667188961956
14,0.0024563957953907417,0.0030793681932079005
15,0.002505403657886621,0.0031167981413359096
16,0.0024634884653531148,0.0030883568006950294
17,0.0025093416194250993,0.003077454628087147
18,0.0024564412336144357,0.0030790958779163716
19,0.002499181705344112,0.00309841902006071
20,0.0024497338708427564,0.003103680436250342
21,0.0024493065929203956,0.003078896795984271
22,0.002449304197983484,0.0030919160159636836
23,0.0024436870568795297,0.0030847624162674064
24,0.0024575629866879327,0.0030885728530932305
25,0.002475384557234648,0.003076747200603402
26,0.002452374022340917,0.0035018251023017045
27,0.002553672493057619,0.0032702209554294976
28,0.0025156482558418305,0.0032052549807889056
29,0.0024675217593083934,0.0030743449226079524
30,0.0024637072563691194,0.0030717723551675563
31,0.002494206731761168,0.0031281587037857075
32,0.002511158056415194,0.0030847028838181796
33,0.002434161657441013,0.0030782272508584484
34,0.002471745790894449,0.0031340272543056644
35,0.0024446734589421088,0.0030983013765121152
36,0.002562595794557351,0.00307744043489355
37,0.0024491395686695337,0.0031825741798104357
38,0.00246427060394892,0.0030672023489768077
39,0.002472070945506237,0.0031494720633206672
40,0.0024813446966066082,0.0032795437028660447
41,0.002551046119478245,0.0031776539466971923
42,0.0024663191282693346,0.0030720562628080506
43,0.002441651515875647,0.0031403424606348076
44,0.0024584897665080713,0.0031138021018818135
45,0.0024901707191922694,0.0033311534568291994
46,0.0024852315917519674,0.0031375201002066563
47,0.002541596765415767,0.003070079338874004
48,0.0025057309585110855,0.0031746782185581995
49,0.002556495875955225,0.003090074395060597
50,0.002521078885612331,0.003332316998190196
51,0.002451467431253857,0.0030597963482285884
52,0.002470358839807238,0.003244020783003102
53,0.0024842751006059136,0.0030578108984514957
54,0.002518563036799662,0.0030878811276900445
55,0.0025359518484282246,0.0030851068540093626
56,0.0025249173006196856,0.003205162128289194
57,0.002553892103793913,0.003069359993258881
58,0.002449975839036322,0.0030874261224656833
59,0.002474806300973284,0.003249098082946599
60,0.0025566365331885447,0.0030973777951051793
61,0.0026517259203696513,0.003377056348520194
62,0.0025849003227155667,0.0030527497387252923
63,0.0024469951799413726,0.0030786159589106955
64,0.002459511189728744,0.0030620454299776245
65,0.0025047601350445966,0.0030813301451388716
66,0.00247708366262108,0.003103463872617414
67,0.0024584087570864487,0.0030506497209299675
68,0.0024999490029416803,0.003659059750204978
69,0.002532704190341443,0.0030481627683855536
70,0.002429417059853076,0.0030695227202201304
71,0.0025267381387556968,0.0034503885328249877
72,0.00255314457634565,0.0033705943776655566
73,0.002527706534421259,0.0030597953681740188
74,0.002595340988889953,0.0030880764112338538
75,0.002437637306964001,0.0030426279706663862
76,0.002501864317450817,0.0030526412748406793
77,0.0024820191088404495,0.0030631650827622923
78,0.002493028143644622,0.0032072523139532686
79,0.002520316034358101,0.0030396794710784805
80,0.002480797003954649,0.003087132976051102
81,0.002531245427244663,0.003751660706186595
82,0.002536902695837688,0.0030377022127888
83,0.00245223789252052,0.003104510040260678
84,0.0024324353281661233,0.003041912713124193
85,0.0025550616569383895,0.003049640997507891
86,0.0025106806006313853,0.0030545307821485887
87,0.0025135827102176172,0.0032726229265938665
88,0.0025252097196641165,0.003080095940579971
89,0.0025807089913511307,0.003803611543506037
90,0.002635064280052845,0.0030338893023629985
91,0.002465643388915865,0.003068694769036631
92,0.002409650549805153,0.0030635785529852027
93,0.002596610877602734,0.0030454041620413233
94,0.002722768614475329,0.0030861375095366044
95,0.0025903145326614304,0.0030306426405747847
96,0.002569054839687388,0.003051088414923829
97,0.0024427638439707055,0.003198249397308443
98,0.0025324443904490472,0.003030108085782953
99,0.0024038084891855774,0.0032155110334703163
100,0.002514947990306896,0.0030273753705672745
101,0.0026161992102404167,0.003106237463147719
102,0.0024989398103989467,0.0030365886609791956
103,0.00247022830995488,0.0030851092039744636
104,0.0024681743062931554,0.0030289551526553526
105,0.0024549444215083423,0.0031354478912341385
106,0.0024630876729693214,0.003037580191482638
107,0.002474827396512532,0.0031714563063064286
108,0.002482758307930573,0.0030832214248474946
109,0.0024711077997355076,0.0032318455542531587
110,0.0026085994733772446,0.0030475943150764058
111,0.0026005943307595312,0.003067125599694171
112,0.0024879045012281865,0.003389923840530159
113,0.0025183693775052843,0.0030369978125546447
114,0.0024710404587360893,0.0030340725283477775
115,0.0025072838357247853,0.003062656600490328
116,0.0025032141976279883,0.003154179931423345
117,0.002700593763359555,0.003187694779936542
118,0.0024730545536010918,0.00318397062310819
119,0.002591916359660218,0.003018159533908605
120,0.0024365577099240776,0.0030723171157026013
121,0.0024226090223444215,0.0035190616189249495
122,0.0025909419032535694,0.003042316482070285
123,0.0024781300787373567,0.003078337894146179
124,0.002556595944400001,0.003347308582503551
125,0.0025211500108617453,0.003479953330053493
126,0.0024528612836338675,0.0030617578146444964
127,0.0025098448649628776,0.0030248337696024844
128,0.0024245678112079275,0.0030394400562008105
129,0.002463536195635064,0.0032040430625445795
130,0.002452534360531958,0.0030385575820367004
131,0.002439422623762134,0.003193544546979689
132,0.002595043528640946,0.003161488698304508
133,0.0025737474230900213,0.003233477180867001
134,0.002539710119157279,0.0030429271706777024
135,0.002455978621536197,0.0030144001555795124
136,0.0024814912894420634,0.0031856179324000382
137,0.0024452672083681635,0.0032181784550320038
138,0.002434569855283185,0.0030149797279055614
139,0.00243027033843822,0.0030123383138877476
140,0.0025003883387238867,0.0030151162614193996
141,0.002589084184548074,0.0031086054121598947
142,0.0028184365444438825,0.0030081538256084505
143,0.002541227832025047,0.0030793547549090067
144,0.0025187312570901094,0.0034661408506564853
145,0.0025813900426424827,0.00305342714233656
146,0.0025635350135200744,0.0030780203095384577
147,0.0026466675431802097,0.00301182830377749
148,0.002465953901067174,0.0034513805140993854
149,0.0025106792113183006,0.0030315398624845484
150,0.002550706011664305,0.003134243105458774
151,0.0024604166699068028,0.003194896529551393
152,0.002439757494992295,0.0031330962430743516
153,0.002434685767041062,0.0030114098195737414
154,0.002413167670707264,0.003126661110914839
155,0.0024803654475436,0.003011724361139097
156,0.0024976064730796587,0.003025676660752285
157,0.0024541515763127067,0.0033737797675430486
158,0.002506412696562592,0.003511489116290743
159,0.0024545872334309055,0.0032198697611935034
160,0.0025864587016812784,0.003199359222474082
161,0.0024935013935865127,0.003022714911476355
162,0.0025063738300891,0.0031059185420199073
