epoch,loss,val_loss
0,0.33997829484939573,0.3362587176561356
1,0.33642752333482107,0.3359307926098506
2,0.33609512307246525,0.3356952796975772
3,0.3359365554584397,0.3356608267426491
4,0.33585918955008187,0.33622878468036654
5,0.3357819575733609,0.3358804000020027
6,0.33573145818710326,0.33591349426905315
7,0.33570204449362223,0.3355713866551717
8,0.3356788074109289,0.3356285733779271
9,0.3356609811319245,0.3355318765838941
10,0.3356458124849531,0.3357166597644488
11,0.33562774322430294,0.3355172434647878
12,0.3356171233654022,0.3355232456525167
13,0.33559412747621536,0.3354407470623652
14,0.33559345175160304,0.33548837955792743
15,0.335575634876887,0.33550656819343566
16,0.3355690109994676,0.3355151595870654
17,0.3355576113594903,0.3354716201821963
18,0.3355562576254209,0.33548512766758604
19,0.3355511693822013,0.3356331120332082
20,0.33553614004453025,0.335521726667881
21,0.3355538006424904,0.33546395683288577
22,0.3355465865333875,0.3358065191109975
23,0.33554154740439524,0.33543467144171396
24,0.3355430184006691,0.3358726814190547
25,0.3355468735032611,0.33546050159136453
26,0.3355262812773387,0.33560606157779693
27,0.33553057825565336,0.335440344174703
28,0.3355363547272152,0.3354568332831065
29,0.3355243754121992,0.33597503022352854
30,0.3355300554500686,0.3354328136444092
31,0.3355205121371481,0.33558980333805083
32,0.33553166063626605,0.3356609869201978
33,0.33550825601816175,0.33549438043435414
34,0.33551523350344764,0.335386616786321
35,0.3355176786515448,0.3354585883021355
36,0.3355037595497237,0.33575421833992003
37,0.33550643863280616,0.33541669114430744
38,0.33550881422228285,0.3353808992107709
39,0.3354988106555409,0.3353729331890742
40,0.3354996717174848,0.3354346977670987
41,0.3355015546679497,0.3353963268597921
42,0.3355162988636229,0.3354012095928192
43,0.3355101277165943,0.3354839166601499
44,0.33549975352817113,0.3354275694489479
45,0.3354939391811689,0.3353630975484848
46,0.3354991831117206,0.33540314084291456
47,0.3354942444761594,0.33538906117280326
48,0.3355084580845303,0.3354073718190193
49,0.33550108053949146,0.3354828216234843
50,0.3354847607877519,0.3355329828461011
51,0.3355003998014662,0.3353837750355403
52,0.33550939613580705,0.33565966407457987
53,0.3354944486618042,0.33562922368446985
54,0.33550087595648237,0.3355570704539617
55,0.33550609756178323,0.3353813719153404
56,0.3354956731862492,0.3359620544910431
57,0.33549679730998144,0.33546726646025976
58,0.3354919815858205,0.3354388156533241
59,0.33549605707327523,0.3355216670632362
60,0.33549242506424587,0.33535703162352243
61,0.33549665613306895,0.3353693040013313
62,0.335498977707492,0.33555151494344077
63,0.33548897758457397,0.335371449192365
64,0.33549631692965826,0.33725830308596294
65,0.3354877702328894,0.3353636952439944
66,0.3354877534972297,0.33545828636487324
67,0.3354844436049461,0.33541490987936656
68,0.3354889349275165,0.3354180865287781
69,0.3354916940199004,0.3353897330959638
70,0.33548111496369043,0.3353822764356931
71,0.3354866424004237,0.3354179928302765
72,0.3354866040216552,0.3354213263392448
73,0.33548126669062506,0.33545754686991375
74,0.3354794252448612,0.33537298371394475
75,0.33548116288582486,0.33546300184726713
76,0.33549037882354527,0.3354851366678874
77,0.3354940009845628,0.3354104993343353
78,0.33547652672396766,0.3361519835392634
79,0.33548296885357964,0.33552671887477237
80,0.3354860348237885,0.3353875083724658
