epoch,loss,val_loss
0,0.5615529950781956,0.5648956634862251
1,0.5579939966120627,0.5582298773689838
2,0.5577010729311288,0.5593387867913353
3,0.5575556188789845,0.5576941303224776
4,0.5574785372288009,0.5573167613067342
5,0.5574185342778663,0.5578298022078522
6,0.5573405402264334,0.5577236183523836
7,0.5573053449130823,0.5572117368577432
8,0.5572986916437057,0.5572029559843001
9,0.5572662974583702,0.5573894698329954
10,0.5572355462561637,0.5571083682642385
11,0.5572415292030327,0.5571774807224794
12,0.5571898285367723,0.557133810514256
13,0.5571911563207331,0.5570739330783967
14,0.5571737963837349,0.5570778215789322
15,0.5571669988794953,0.5571855887585775
16,0.5571577615565698,0.5570555228749221
17,0.5571571004175998,0.5572622634636853
18,0.5571620834072376,0.5570431640367058
19,0.55714386324524,0.557853452828031
20,0.557116006378196,0.5570776881414371
21,0.5571040870008659,0.5579541744724397
22,0.557128648858526,0.5570105166944026
23,0.5571169063759113,0.5570226290681521
24,0.5570896016593943,0.55706546173498
25,0.5570909919627197,0.5572763654197712
26,0.5570558896892839,0.5571454536234475
27,0.5570688970357697,0.5570649953101469
28,0.5570689741800087,0.5569830515840213
29,0.5570410899753359,0.5572841558207945
30,0.5570622562038468,0.556982099684533
31,0.5570421135729582,0.5569697705451075
32,0.5570493510295399,0.5569543607477515
33,0.5570285793397449,0.5569715122726951
34,0.5570417631589231,0.5570251819513572
35,0.5570486899852292,0.5570908081738588
36,0.5570307710057123,0.5569610215002491
37,0.5570360713764171,0.5569860088913967
38,0.5570213586386622,0.5569997223967654
39,0.557034079145141,0.5578379092382142
40,0.557024045154679,0.557088049440171
41,0.5570328035760829,0.5570474413133437
42,0.5570238754083243,0.556913811781862
43,0.5570234618872474,0.5572154510405756
44,0.5570132908954765,0.5569267908337691
45,0.5570075178321167,0.5569234581502437
46,0.557025021966903,0.5569347140510975
47,0.5570152078331044,0.5569196499606812
48,0.5570012593112844,0.5569796419321159
49,0.557012391353704,0.5569136156337728
50,0.5569943053705879,0.5575956399919969
51,0.5570105111975555,0.5570584033026589
52,0.55700216617496,0.5571909693571238
53,0.557003900973743,0.5568837944094656
54,0.5570016874532914,0.5569024049910363
55,0.5569961073846298,0.5574112597825214
56,0.557004897649449,0.5570514972689135
57,0.5570064913189854,0.5573680310923763
58,0.5569881721669417,0.5569307004251788
59,0.5569834624407894,0.5574255066237438
60,0.5569876975282476,0.557129430327167
61,0.5569987249625868,0.5569182752083904
62,0.5569782339780822,0.5571600744801183
63,0.5569839020302706,0.5568989219499877
64,0.5569837635443873,0.5569761735038189
65,0.5569862068070971,0.5569353810019292
66,0.5569731454818889,0.5569161980382857
67,0.5569709809650204,0.5570991824637571
68,0.5569795309843345,0.5569585940678126
69,0.5569790712608034,0.5569677008588616
70,0.5569793461618961,0.5570996458122216
71,0.5569834921409585,0.5568879663204732
72,0.556975032391984,0.556975437393851
73,0.5569854081083279,0.5570984616764721
