epoch,loss,val_loss
0,0.6723579983826034,0.6714762604561988
1,0.6689363663004184,0.6693826259513647
2,0.6685362418243366,0.6684627564610086
3,0.6683643318931513,0.6686124396383318
4,0.6682203625244668,0.6697232426839785
5,0.5656818290118437,0.5575741299624478
6,0.5574014616289295,0.557535404307079
7,0.5573416041844487,0.5572126023822623
8,0.5573084375312469,0.5574104260865868
9,0.5572777548505987,0.5574457833843847
10,0.5572617782066102,0.5571266162780023
11,0.5572159522726162,0.5577221575800894
12,0.5572284699011688,0.5571956563528359
13,0.557181950390802,0.5570273763784404
14,0.5571833863175819,0.5572504516866603
15,0.5571667113287542,0.5574644677988058
16,0.5571501905755528,0.5573091002019405
17,0.5571475908038138,0.5571007491637104
18,0.5571237773310963,0.5570111164088285
19,0.5571354104560964,0.5569711884553025
20,0.557094419802878,0.5570554334827451
21,0.5571000149846984,0.5570041873910587
22,0.5571177363272634,0.5569923583390399
23,0.5570838739252559,0.5570349111154712
24,0.5570817976640599,0.5577128287876214
25,0.557076884363446,0.5573089649600368
26,0.5570877079188361,0.5570569233030599
27,0.5570719242324708,0.5569469243066186
28,0.5570599899454995,0.556976187761605
29,0.5570591161487117,0.5569568304210976
30,0.5570734793275212,0.5570556984350048
31,0.5570585144045581,0.5572022000554182
32,0.5570560036749533,0.55725146739122
33,0.5570661294992124,0.5570536731490426
34,0.5570452225119776,0.5569715930273752
35,0.5570514309658864,0.557043501697758
36,0.5570446430608967,0.5575127286295737
37,0.5570391764004823,0.5570097082010274
38,0.5570299065557494,0.5571137448694214
39,0.5570308941930623,0.5569529295855066
40,0.5570355302568631,0.5570951519178102
41,0.5570292909558291,0.5569653349833807
42,0.557015018250088,0.5571290666057217
43,0.5570212531431503,0.5571718359999266
44,0.5570392153898919,0.5569637099211624
45,0.5570224275434189,0.557302387979427
46,0.5570294893555778,0.5570906353055987
47,0.5570203721254294,0.5573943929104296
