epoch,loss,val_loss
0,0.08845055074618238,0.07733116193163779
1,0.07402525403709795,0.07130193006681745
2,0.07086948167895396,0.07346931732359063
3,0.06951930211378907,0.06799235067355722
4,0.06787739765906793,0.06790930693483826
5,0.06712259538715742,0.06614009310900426
6,0.06433796524634523,0.061877116315048324
7,0.06290094980371773,0.062155571450518615
8,0.06165789127696149,0.06266550544103973
9,0.060562774449979505,0.05972297731833186
10,0.059516315246231494,0.058254492031433444
11,0.05874406871045826,0.05780749226418825
12,0.05806343026384377,0.05757750175320185
13,0.057458616121616395,0.05686568425917448
14,0.05733749415233488,0.0573029908460216
15,0.056973482740981865,0.05663319027823195
16,0.05663738858933232,0.05563114296376853
17,0.05638324462016476,0.0552304077588447
18,0.0561852139798693,0.056469984245359456
19,0.055976596541342946,0.056017510552264324
20,0.0560346304839055,0.055653056537469034
21,0.055694290403636534,0.05619770615516466
22,0.055661642086634704,0.05610928063837825
23,0.055634026677031684,0.056091291361278106
24,0.05564120119247196,0.055524985268527165
25,0.055472159732893725,0.05516496301806594
26,0.05535981933303073,0.054604155403878495
27,0.05521398981421126,0.05465684359518825
28,0.0550932063646194,0.054979509385140894
29,0.05508577214648784,0.054373084411727585
30,0.055044365144243636,0.054826843487121926
31,0.055019757880106226,0.05407525772233459
32,0.05478083879505745,0.05453601190566129
33,0.05481910808040115,0.05428149888370528
34,0.05484469219709146,0.054437697654770266
35,0.05456188032575035,0.05413167024812391
36,0.054532137311210836,0.05393055829568477
37,0.05455648292627278,0.05398904410359581
38,0.054508448356251245,0.05481970593259293
39,0.054294690592637106,0.054583779935061784
40,0.05423123385318965,0.054028977498079354
41,0.05429886963032928,0.054485239369549764
42,0.05419177529469066,0.05410792680443369
43,0.05420469515180128,0.05355623567444515
44,0.05412626973698451,0.05365790017226494
45,0.05399043252396432,0.053839510557225564
46,0.05401830220165165,0.05377429837994185
47,0.05409603327621402,0.053675852762188565
48,0.05409635215363873,0.05516888101402642
49,0.05398100935028891,0.05463925825418077
50,0.05393274867364428,0.05412076864918467
51,0.05385367869163345,0.054119996595249575
52,0.05390241317039528,0.05436799490348281
53,0.05391306369825063,0.053153894111403165
54,0.05385830736726972,0.0534523480879166
55,0.05380755321424519,0.05353376216835183
56,0.053723635125038895,0.05405750485419044
57,0.05370197416766236,0.053270955465123906
58,0.053746245035841786,0.05429992355572674
59,0.05355351201846684,0.053333079530198876
60,0.05353214295137243,0.05336118395216116
61,0.053475093484598134,0.05352693214162112
62,0.053496734723587784,0.053635731330210754
63,0.05333528774190032,0.05345189550304531
64,0.053429258522515205,0.05338849666766434
65,0.05345904266093471,0.052944931337984266
66,0.05335864515366512,0.05316232976043787
67,0.05335189787100869,0.05389602100361074
68,0.05342873146219626,0.05282997943035722
69,0.05328612234470296,0.05305836399273008
70,0.05323495591172401,0.05290133818780666
71,0.053260761384862125,0.05310339342719568
72,0.05313500249188311,0.05326558696314064
73,0.05316943568664561,0.053543631362707976
74,0.05328117376296075,0.05276852844204412
75,0.05306072996229474,0.053278700892741865
76,0.05301636482503322,0.0545794477145518
77,0.05318935962256796,0.05283905114821406
78,0.053014135887230994,0.052497125479852594
79,0.053082245418320004,0.05432253888352929
80,0.05297217096359015,0.053200275818851984
81,0.05298725924912162,0.05302911150470265
82,0.05287445021867421,0.05409781977201514
83,0.05297003264567699,0.05390151585302045
84,0.05277751567906697,0.05314542900946537
85,0.05289457742072487,0.05363082185609465
86,0.05287420976610169,0.05319165923348432
87,0.05277884333775188,0.05249653173883263
88,0.05278064477668866,0.05325515718377258
89,0.052698521063005266,0.053170512367049165
90,0.05280966450660063,0.0528062488504734
91,0.052637415823218583,0.05285604375023996
92,0.05272861790705793,0.05268130747060622
93,0.052549137697356425,0.0529094985563761
94,0.052733516004956335,0.054151328462672885
95,0.05258093226196516,0.05276602310482089
96,0.052591567908774436,0.053611571535874834
97,0.05256562393419826,0.052628489666925765
98,0.05249630769256231,0.052751391053791376
99,0.052502840784942,0.05273695794805404
100,0.052625683883834616,0.053732505141209724
101,0.05251815680981063,0.05307372443877142
102,0.052510441467101855,0.05275275268159788
103,0.052590421912679555,0.052890927534984894
104,0.05249114092854287,0.052528454171073054
105,0.05237803824064105,0.05245482782941894
106,0.05246876755488996,0.05304240635584661
107,0.05240284854103731,0.05309749450673241
108,0.05245592783655792,0.053849146483701746
109,0.05241535503705521,0.054357609450447354
110,0.052505236046977384,0.052717107721135276
111,0.05235078263304035,0.05265386545702482
112,0.05242562150212834,0.05344276834954103
113,0.052331613412800876,0.05294611266081593
114,0.052370770074609246,0.052911443584979914
115,0.0522851554643094,0.05293957107138841
116,0.0524073216061936,0.052637095009866484
117,0.052292261305577764,0.05235184185003525
118,0.052324622363556915,0.05277761424852364
119,0.052290747111341504,0.05416523279164624
120,0.052329661798829225,0.052314951850411025
121,0.05231133305374768,0.05238817041698224
122,0.05224284233451418,0.052757152789283925
123,0.052293884174007654,0.053032470781069534
124,0.05225302522085237,0.052473357800514465
125,0.052271804357554026,0.05283863698837183
126,0.0522883415234592,0.05252680678854214
127,0.05231569923917116,0.05242763314738167
128,0.05214378805996112,0.052954958643644086
129,0.0522030527241864,0.052673314739175824
130,0.05217777505856005,0.05260197153273351
131,0.052046349548443636,0.05337906868079164
132,0.05222824574855093,0.05280185991311192
133,0.05224693610473823,0.05318031945166458
134,0.052144888841707586,0.05253321997654941
135,0.05224629699399182,0.05257601962787638
136,0.05207335991037935,0.05322842760654005
137,0.05191803595808173,0.052232320536454914
138,0.05200733507328129,0.052475070724120505
139,0.051987581059252455,0.05312375211094508
140,0.05207575952831151,0.052752367900707586
141,0.05204971034382848,0.053038623758936046
142,0.05195425574820427,0.053315295768952546
143,0.052008413908250624,0.05363185233794726
144,0.05209356807134336,0.052494628764411654
145,0.05196696093159741,0.05260186166532578
146,0.05198431934497405,0.05283536082018102
147,0.0519798961822952,0.05268680844502177
148,0.05202759437592249,0.0532339108567084
149,0.05189375971675904,0.05266428201577208
150,0.051949686852677736,0.05274696885873899
151,0.052011753628587405,0.05259795716360544
152,0.05191862091626782,0.05390589122773696
153,0.05202897870614256,0.052587527635671365
154,0.05197054074896707,0.052544591812504725
155,0.05186117899483685,0.053147827048159714
156,0.05196375233740187,0.05332364909554238
157,0.0518067135506747,0.052857652162351915
