epoch,loss,val_loss
0,0.829932039868308,0.5686812262202419
1,0.5080895605629421,0.4737396808557732
2,0.46455215298852254,0.46189156151557154
3,0.4614922616062854,0.46185242344242655
4,0.46150447162546854,0.4616693965224333
5,0.4613896168633641,0.4621505222117254
6,0.4615299392886248,0.4619250172792479
7,0.4615533164767332,0.4616682892159898
8,0.4617073580584169,0.4616559792396634
9,0.4616380058979803,0.4617960589338643
10,0.4615305542791845,0.46170193765514583
11,0.4616019485532775,0.46176590244899424
12,0.46255075916147353,0.46232161364814106
13,0.4616062179092289,0.4620189615922381
14,0.461855660729322,0.46250984211300694
15,0.4617031277458181,0.461727546167004
16,0.4615385195851634,0.46412144797716953
17,0.4630578633888747,0.46245771484781606
18,0.4614815265325305,0.46183622923008233
19,0.46226847887963285,0.4616563853829406
20,0.4614457446475362,0.4616852689159009
21,0.46142617276164605,0.4616598207359166
22,0.461775389521621,0.46624102749565777
23,0.4667748842744556,0.46204613507256026
24,0.4614122112592061,0.46195483762164447
25,0.46144218877612464,0.4625146643135899
26,0.46150709615505325,0.46172053384226425
27,0.46150103557941524,0.46187892071036407
28,0.46152179031717067,0.4618657293707825
