epoch,loss,val_loss
0,0.5616282033119785,0.5602705399392557
1,0.5583239704261246,0.5577099021551922
2,0.5578013844284704,0.5574244474950558
3,0.5576370415649256,0.5574869455829743
4,0.557545832347861,0.5576644922604336
5,0.5574521104149224,0.5576019044845335
6,0.5573731078664047,0.5571366695553138
7,0.5573747290739323,0.5575336183566905
8,0.5573025393400198,0.5572789123868824
9,0.5572763058284824,0.5572671500684014
10,0.5572861084706323,0.5574310506543806
11,0.557230635911289,0.5570833423001594
12,0.5572399827961356,0.5571867512710041
13,0.557202908983964,0.5570692120059844
14,0.5571893987808231,0.5570873847374549
15,0.5571937358235324,0.5570546637693646
16,0.5571968875801444,0.5574573583697563
17,0.557161521857823,0.5570760061663966
18,0.5571670095633839,0.5570091962222722
19,0.5571554849961268,0.5570139867496254
20,0.5571637538731398,0.5570326965145083
21,0.5571431214517457,0.5570587897419043
22,0.5571308608194643,0.5570221050797266
23,0.5571454533532173,0.5570900656745097
24,0.5571260682363794,0.557057585935143
25,0.5571046966435559,0.557224613561228
26,0.5571254206116135,0.5571004517025154
27,0.5571220126696457,0.5570072545011345
28,0.5570923405236254,0.5574008669510077
29,0.5571191295524084,0.5575092610295298
30,0.5570843651340744,0.5571057293906105
31,0.5570912478767187,0.5571579406042548
32,0.5570699658340346,0.557071903532847
33,0.5570811969698366,0.5570339049062422
34,0.5570905174581264,0.5576300709478317
35,0.5570775149148153,0.5569837633492634
36,0.557068978167535,0.5571254755072204
37,0.5570683193721734,0.5571256536703844
38,0.5570742473889934,0.5570445899336273
39,0.5570583960740232,0.5570486142380954
40,0.5570616234169385,0.5572074580725014
41,0.5570596259028803,0.557104262288096
42,0.5570630993073309,0.5573336841746536
43,0.5570591677467507,0.5569870453022846
44,0.557049880098166,0.5571618766110233
45,0.5570601260680538,0.5572085554487356
46,0.5570595790259779,0.5571332824733062
47,0.557046533959307,0.5569926777489428
48,0.5570489124047955,0.5569555493205712
49,0.5570513792045599,0.5569601394994087
50,0.5570387955211148,0.5569948110627773
51,0.5570367903751441,0.5571219161189815
52,0.5570364681404174,0.5575031921822143
53,0.5570467435919688,0.5569984933578642
54,0.5570202163855077,0.5570358200049578
55,0.557028961180694,0.556959566170761
56,0.55703366811755,0.5569829492060185
57,0.5570350720234283,0.5569717508391766
58,0.5570141602937585,0.5571899986444573
59,0.5570240267560509,0.5569593231080484
60,0.5570145231381478,0.556963965466833
61,0.5570327704997292,0.5572289378116504
62,0.5570230487558516,0.5569541653983351
63,0.5570157308001448,0.5569501478086334
64,0.5570229661489776,0.5570751824094995
65,0.5570296877505937,0.5573090043316408
66,0.5570234109802219,0.5570376988380186
67,0.5570229393019999,0.5570004014164284
68,0.5570158643053671,0.5569409276060667
69,0.557043039757402,0.5569683781924378
70,0.5570325395710736,0.5569310106651363
71,0.5570170116117549,0.5571289586961713
72,0.5570157333701469,0.5569493303819566
73,0.5570081056219001,0.5569409472770785
74,0.5570116696705948,0.5569308853326896
75,0.5570299827817923,0.5569897330428472
76,0.5570171091795438,0.5570171572730204
77,0.5570236965099854,0.5569917718175031
78,0.557014263450395,0.5569908455051205
79,0.5570102708589687,0.5569130109498281
80,0.5570124786880251,0.5569520591210491
81,0.557013097810063,0.5569532291764953
82,0.5570067570586279,0.557290022663088
83,0.5570171917280445,0.5572914305750845
84,0.5570168606379329,0.5569867083511637
85,0.5570026480195994,0.556949292548537
86,0.5570122621507504,0.5570863931409774
87,0.5570129969307736,0.556945011101053
88,0.5570221677081553,0.5569370880020463
89,0.5570104453319816,0.5570367653967429
90,0.5569974869591034,0.5569204528633478
91,0.557019042352833,0.5571823844247066
92,0.5570040540994882,0.5569247413509832
93,0.5570135875011761,0.5571943940063269
94,0.5570094939705094,0.556975768162654
95,0.5570180084176175,0.5570729287623176
96,0.5570167545563216,0.556990601762057
97,0.55700449619271,0.5569264529656536
98,0.5570098116544864,0.5570478933916494
99,0.5569980763162884,0.5570048734804537
