epoch,loss,val_loss
0,0.5626399951356559,0.5590118862263322
1,0.5587657942733543,0.5583434427346544
2,0.5583150399999509,0.5580797398948196
3,0.5579839251301757,0.5576041927112835
4,0.5577135935280417,0.5574000743719247
5,0.5575184216230937,0.557336628229979
6,0.5574003559395379,0.5572592969863646
7,0.5573341681987505,0.5576003991344727
8,0.5572941460135319,0.5573848597465023
9,0.5572234745450718,0.557160852594352
10,0.5572150984607899,0.5570510533843975
11,0.5571752833011561,0.5570627763904353
12,0.5571770397248742,0.5570964188197115
13,0.5571676037292653,0.557004764417265
14,0.5571319371163297,0.5569892323046701
15,0.5571043441738346,0.557482574713733
16,0.5571082031440808,0.5571259564856441
17,0.5570798996701403,0.5570420242420793
18,0.5570669116049812,0.5569688126112037
19,0.5570706038477182,0.5571025102960856
20,0.5570614736965646,0.5571190809789426
21,0.5570651285780333,0.5570799511360471
22,0.5570226714072789,0.5572008791691612
23,0.5570450711863383,0.5569790190857634
24,0.5570414443406112,0.5569904098143944
25,0.5570333916506333,0.5570407843471461
26,0.5570426205607064,0.5569672372737534
27,0.5570236084925391,0.5569188638597209
28,0.5570165579685111,0.557101664235515
29,0.5570031796266746,0.5570011256350477
30,0.5570152484829973,0.557109227813503
31,0.5570076182452087,0.5569712156693338
32,0.5570089229693558,0.5570413745662415
33,0.5569940522222205,0.5569478469806037
34,0.5569945162117345,0.5573200293865157
35,0.556987132761203,0.5568795043244847
36,0.5570101899409757,0.5571125041166547
37,0.5569922630061268,0.5569889051151039
38,0.5569762016388383,0.5574226098084273
39,0.557008627250299,0.5569823420373146
40,0.5569762276401922,0.5569428633223692
41,0.5569653276094895,0.5569510617267996
42,0.5569946826923405,0.5570447195256614
43,0.5569688971389622,0.556992390078883
44,0.5569677396701013,0.5572958662847135
45,0.5569629641391148,0.5569234637113718
46,0.5569643010932029,0.5569435002786054
47,0.556967245866827,0.5568497928732974
48,0.5569629077521002,0.5568734826284366
49,0.5569690572663463,0.5568683986332517
50,0.5569564413505935,0.5568985875723675
51,0.5569598265869316,0.5572603716447987
52,0.5569717248418099,0.556999172052142
53,0.5569565763569558,0.5569008054567626
54,0.5569613553343326,0.5571210668341398
55,0.5569476778499249,0.5568742226134459
56,0.5569508928808105,0.5569268881535115
57,0.5569483228707692,0.5569352916097523
58,0.5569436447458619,0.5570626880335748
59,0.5569425134621517,0.5570249104913944
60,0.5569368213838353,0.556886958898445
61,0.5569428734170635,0.5569460425424221
62,0.5569300909686421,0.55697398880871
63,0.5569423615456801,0.557034512252429
64,0.5569438371757591,0.556904225018125
65,0.5569285371704251,0.5569072574303109
66,0.5569311851577079,0.556981745251355
67,0.556938221325852,0.5568832622568306
