epoch,loss,val_loss
0,0.6691509864189912,0.6667934045602311
1,0.6668818498507817,0.6667401780561537
2,0.6668396312871363,0.6667308999941899
3,0.6667941704796116,0.6669017992007821
4,0.6667783235181841,0.6668156957803826
5,0.6667547971244885,0.6667077893358898
6,0.6667587123776241,0.6667343273352156
7,0.6667435991754761,0.6667229019678556
8,0.6667356975981539,0.6667002907757723
9,0.6667360196325182,0.6668363528571117
10,0.6667303803662471,0.6667179409090993
11,0.6667301016133064,0.6666929739580557
12,0.6667278062416782,0.6667457772839454
13,0.6667212009156998,0.6666914756777269
14,0.66672234094357,0.6667009430842719
15,0.6667232970309118,0.6667221618645245
16,0.6667214988568855,0.666715322386834
17,0.666721367725247,0.6666924745805802
18,0.666713220535233,0.6666969875248135
19,0.6667144556003314,0.6666990401135485
20,0.6667119788242571,0.6666918905438028
21,0.6667144778965595,0.6666963634656617
22,0.6667099821021824,0.6666935260479266
23,0.6667089214753884,0.6667077229277372
24,0.6667109523836982,0.6667103141472298
25,0.6667092477173622,0.6667460783539576
26,0.6667084994057807,0.6666936047319739
27,0.6667075575149795,0.666781126299212
28,0.6667092578072632,0.6668337789421933
29,0.6667090538170892,0.6667033311155238
30,0.666707233672621,0.6667099504257846
31,0.6667049128699616,0.6666996647051487
32,0.6667052706445523,0.6666928094610682
33,0.6667086347434509,0.6666898825919954
34,0.6667057810384606,0.6666984901830517
35,0.6667033244051134,0.6667327021842558
36,0.6667046749988292,0.6666866202212445
37,0.6667046750082952,0.6667245351942834
38,0.6667059171562817,0.6667161729436358
39,0.6667035304422965,0.6666990921160127
40,0.6667044334020614,0.6666910211738226
41,0.6667015338661549,0.6666890370047122
42,0.6667044951586295,0.6666952074017773
43,0.6667023474808758,0.6667516329448218
44,0.6667021772138946,0.6666953351894028
45,0.666702376230507,0.6667197094661722
46,0.6667019640977676,0.666769740303456
47,0.6667007347232755,0.6666956418501236
48,0.6667007101276133,0.666703207469164
49,0.6667009577746932,0.6666993899025929
50,0.6667004068018866,0.6668000082520043
51,0.666703022473246,0.666689333193947
52,0.6666989244005066,0.666689095662782
53,0.666701253328096,0.6666849614077112
54,0.666698938827385,0.6667416734967575
55,0.6667018581865433,0.6666907841751061
56,0.6666990304103345,0.6666878102730877
57,0.6667001305085121,0.6667022130033811
58,0.6666979749834958,0.6666868215754961
59,0.6666987876003491,0.6666933424123759
60,0.6666995300099182,0.6666883181401577
61,0.6666989010235841,0.6668070843734457
62,0.6666967945234492,0.6667550152347934
63,0.6666976405377092,0.6666929738693143
64,0.6666974032510985,0.666686600254428
65,0.6666960167601795,0.6667517454689253
66,0.6666968061413104,0.6667391839157559
67,0.6666968675365951,0.6667192307950249
68,0.6666965791804603,0.6668204901236162
69,0.6666986839088871,0.6667590696225982
70,0.6666949368583694,0.6667244596457659
71,0.6666954967496671,0.6666890621185303
72,0.6666952954241547,0.6666896867988719
73,0.6666955714785143,0.6666853793501558
