epoch,loss,val_loss
0,0.9202389736354197,0.5036730599957843
1,0.47591398852740147,0.47190678997557295
2,0.47139100618756713,0.47171040260514546
3,0.4713066217973251,0.47162401999614034
4,0.47132147914063405,0.47161793731903845
5,0.4713548127686947,0.4717662244342094
6,0.471366090521948,0.47178167959516365
7,0.4714235627990052,0.47169023590494497
8,0.47142628143308085,0.47163628538449603
9,0.47132467407280776,0.4716931209545727
10,0.4714131821187584,0.4716169951960098
11,0.47150211340389203,0.4717282911603765
12,0.4719210805356965,0.47162214868752533
13,0.47181403575325503,0.4717335322106531
14,0.47154992510798055,0.47212626120840856
15,0.47164652329082635,0.47211476559786836
16,0.47156622451405195,0.4719710437826408
17,0.47173488840884326,0.4721457858880361
18,0.47154046367921265,0.4722814338151799
19,0.4713828346525976,0.4716654607029848
20,0.4718175280925839,0.4716152444828388
21,0.4719119915204455,0.472694398127785
22,0.4798951884418803,0.48089652237041974
23,0.47274987857779177,0.4716760987459227
24,0.47149854143768627,0.47163305287213286
25,0.471503015020405,0.4716550372829733
26,0.47132431783109363,0.4716762745565222
27,0.4713412719641545,0.47163388225459313
28,0.4714439692269308,0.47169835576715397
29,0.4716546634062932,0.4716693941474885
30,0.4719742777581671,0.47209118179572646
31,0.4719947047473848,0.4723658397678257
32,0.47173360128735387,0.4722057169722032
33,0.4717726000519686,0.4719669516234435
34,0.4717127456683521,0.4721383567928344
35,0.4720803612424422,0.47161477919696837
36,0.4719320966907866,0.47343589700469674
37,0.4718000158783077,0.47177832579427914
38,0.4714392301956197,0.4718156748039778
39,0.47153914575428924,0.4727690887543582
40,0.47246158646674735,0.4718507542166599
41,0.47218900133473,0.47174989114436067
42,0.47177810424058014,0.47203801768694736
43,0.4714454557236467,0.47165621274201447
44,0.47141440154970154,0.4716398230818815
45,0.47159358027369475,0.4723874875741412
46,0.47200961722884066,0.4717403899791629
47,0.471444483182227,0.47164211254711297
48,0.4719965173754581,0.4729788134726443
49,0.4718845143952727,0.4718284006266631
50,0.47301851263033945,0.4719231336615806
51,0.4715999190813503,0.4716396724530893
52,0.4714743135357396,0.4718892297079397
53,0.47162973195391417,0.47200837662053663
54,0.4714436831400376,0.4717042265936386
55,0.47142937633110266,0.4719418393549069
