epoch,loss,val_loss
0,0.4570091257392914,0.4507736431753665
1,0.4480656368106975,0.44887067228925437
2,0.44739368251588574,0.44702163180405685
3,0.44715217645270755,0.44801103231628836
4,0.4470310140131888,0.4467657263906067
5,0.4468724469786354,0.44667566977718626
6,0.4467745039903083,0.44647365281954593
7,0.4466868669476574,0.44724529842584954
8,0.4466398233110673,0.44661173682946426
9,0.44660921356389327,0.44637523330470763
10,0.44656152825621775,0.4466109793771881
11,0.44656318404873285,0.44679489396050315
12,0.4465182326743236,0.44640394857444476
13,0.4465158032188676,0.44630661173434766
14,0.4464827511192916,0.44632386985251093
15,0.4464615730406095,0.4463027609784905
16,0.4464489366247905,0.4465388767476709
17,0.4464401617669685,0.44651227034351076
18,0.4464128096466119,0.4463058048678983
19,0.4464035551063285,0.44626462174112685
20,0.4463828529943328,0.4462296230029823
21,0.446394390649038,0.4462072086097585
22,0.44636378454585574,0.44657738106718137
23,0.4463549210655562,0.446267657200101
24,0.44636348801509473,0.4462866799855055
25,0.44633473930405776,0.4463093480756206
26,0.44634249246809415,0.4463075316721393
27,0.4463468338130723,0.4462761179980806
28,0.4463120250606235,0.44621691751125137
29,0.4463325870294079,0.4465173942575384
30,0.4463323187856304,0.44624165919223435
31,0.4463248057748062,0.4462473466289842
32,0.44630256408203794,0.4463806101613246
33,0.4462921023467439,0.44660431859511
34,0.44629910381512605,0.4461909828055881
35,0.44629593111670396,0.4461882198862639
36,0.4463033723855788,0.4463653050492478
37,0.4462847455609708,0.446290656059019
38,0.4462804558171869,0.4471709776161326
39,0.44626821024994573,0.4471612437339338
40,0.4462778975638406,0.4464251687153989
41,0.4462812822144737,0.4462301298938969
42,0.446264109768914,0.44627051013279195
43,0.4462674175174784,0.4465336871206317
44,0.44626702440062516,0.44628547539486185
45,0.4462745533710207,0.44623642241392775
46,0.4462891629055982,0.44626238236652116
47,0.4462505137814992,0.4461621665777107
48,0.44626610118493615,0.44648362776777584
49,0.446262035217503,0.4462262639336787
50,0.4462599549502431,0.4464875731811334
51,0.446270225187246,0.4462066718721508
52,0.4462470835894498,0.4461681260364523
53,0.4462489336269557,0.44623538276397856
54,0.4462540593424283,0.44617230596376706
55,0.4462506482774897,0.4462261106033183
56,0.4462594542865303,0.44634566089651423
57,0.4462252633300994,0.44626662098148623
58,0.4462488597283502,0.44623039286426514
59,0.44624730882473823,0.44651178723529317
60,0.44625375519829225,0.44649534868839064
61,0.4462328480738013,0.44624748833422034
62,0.44625876937425146,0.4461485839954973
63,0.4462370325867251,0.4461531480547808
64,0.4462461820827063,0.4464047786024013
65,0.4462666621884816,0.44621346810319584
66,0.44624642702134454,0.4461820749136118
67,0.44624228143354083,0.4462688791248994
68,0.4462488364902614,0.4461558837009127
69,0.446241080900184,0.4461412878841088
70,0.44623547831166155,0.4462910588266832
71,0.44623400176338657,0.44649153492290977
72,0.4462492131955447,0.446146033242086
73,0.44622616329547266,0.4461444462055604
74,0.44623599313917844,0.44616611358841357
75,0.4462158685397184,0.4462251840247114
76,0.4462252927727161,0.44614265145498233
77,0.44622175028821687,0.4464412350364714
78,0.44621724512177247,0.4463620895043792
79,0.4462393673208786,0.4462468915778413
80,0.4462238217710863,0.4461505804405023
81,0.4462233856559988,0.44626262841686126
82,0.44622733528153274,0.4463222530876141
83,0.44621567269380086,0.4465893099089118
84,0.446238336893582,0.44654943502274697
85,0.4462142325945143,0.4461708408135634
86,0.44621414181971913,0.4462931142699334
87,0.4462382086344614,0.44619955473738926
88,0.44621052472942996,0.44653849292629705
89,0.44621942152864785,0.4463757558732707
