epoch,loss,val_loss
0,0.5151145336876,0.5152539050312847
1,0.5095317427641983,0.5092849581176531
2,0.5091092453923208,0.5089206200971201
3,0.5087124906844455,0.5093727843045597
4,0.50854824974381,0.5091262457684311
5,0.5082368050788921,0.5095187947708679
6,0.5080680889378164,0.5111257072713772
7,0.5079391174895659,0.5077956355830872
8,0.5078915843389545,0.5086293298020848
9,0.507788301231266,0.5077932925141478
10,0.5076484830960285,0.5078115047059639
11,0.5076693659948177,0.507286828031611
12,0.5075265922285253,0.507391992721605
13,0.507458915259839,0.5075684180922307
14,0.507423598934726,0.5076697465503778
15,0.5073763840778558,0.5072559436260914
16,0.5073394038554127,0.5080548429015849
17,0.5072612799581313,0.5083226132925331
18,0.5072903141748725,0.5073097207114359
19,0.5072671700047077,0.5078066536273909
20,0.5072358830848424,0.5075535919766864
21,0.5072174229968152,0.508525300528808
22,0.5071462300869084,0.5074663298893212
23,0.5071471846581225,0.5072026467500786
24,0.5071306860165634,0.5071785306516415
25,0.5070846932454132,0.5074532554108215
26,0.5071256469546533,0.5073891838194419
27,0.5070982238302961,0.5083019718047112
28,0.5070677961880476,0.507269346477376
29,0.5070069541148445,0.5070787978527268
30,0.5070213050297426,0.5074194084030227
31,0.507043908683807,0.5079543991361007
32,0.5070274449360617,0.5073669889428776
33,0.5070078589252004,0.507062247491652
34,0.5070298169494453,0.5071627896121951
35,0.5069949194747322,0.5069226001391636
36,0.506976357857421,0.5076015227781632
37,0.5069792888375958,0.5070580076343073
38,0.5069688578275531,0.508037018273072
39,0.5069332851971823,0.5071991248402938
40,0.5069460360593464,0.5072846135193894
41,0.5069646062614745,0.5069675231394046
42,0.5069243235689107,0.5098052010938489
43,0.5069566047964198,0.5070714715988406
44,0.5069055596952698,0.5068263307102856
45,0.5068839991820455,0.5071025913465703
46,0.5069320049708826,0.5082702982218626
47,0.5068583273627005,0.506932630195807
48,0.5068495686052558,0.507017122486389
49,0.5068590515321961,0.5071968976380512
50,0.5068915527630908,0.5069870591755244
51,0.5068506683460942,0.5067727488560357
52,0.5068605269579686,0.5071831383421167
53,0.5068457480335868,0.5068920400539048
54,0.5068366551332654,0.5068128147137076
55,0.5068696872534018,0.5074000171337175
56,0.5068470898926084,0.5072147042224779
57,0.5068295403363077,0.5077788124900894
58,0.5068279902400613,0.5072820628251391
59,0.5067917947462406,0.5072333652683286
60,0.506762721920305,0.5066981809015014
61,0.5067817833793701,0.5070361849096218
62,0.5068005706867292,0.5074750883703492
63,0.5068079117890208,0.5069976391626647
64,0.5067503416133254,0.5067205765998689
65,0.5068285839791866,0.5067464248714021
66,0.5067746543480082,0.5069603723568596
67,0.5067593644238981,0.506860033661201
68,0.5067680204443631,0.5072387190078091
69,0.5067285975066569,0.5068919532352286
70,0.5067696603644722,0.5067182799131048
71,0.5067416531870107,0.5071909031560344
72,0.5067675708099441,0.5068291019565119
73,0.5067639887089168,0.507249905128337
74,0.5067470377162145,0.5072244979015946
75,0.5068046553517563,0.5067919467282355
76,0.5067097893971103,0.5069536625599447
77,0.5067693608527296,0.506809429021982
78,0.5067587235909427,0.5068180609281838
79,0.5067871788038685,0.5068131211082042
80,0.5067410203125425,0.5067252107057028
