epoch,loss,val_loss
0,0.5390105019218576,0.4481269925167188
1,0.44777861536807345,0.4482325765838102
2,0.44721018728792955,0.44672773505558744
3,0.44694414256455556,0.44678262427782006
4,0.4468706271599531,0.4465612018818299
5,0.44674317722002754,0.4469381576436329
6,0.4467345571918196,0.4464758059670848
7,0.4466616694688295,0.4467323754324807
8,0.44662352118435206,0.4466636776036719
9,0.4465581070816575,0.44648914776428167
10,0.446548345888089,0.4466429290937135
11,0.4465312272922782,0.4466852517193068
12,0.4465530511131878,0.4469731930023979
13,0.4464861850436814,0.446298447007281
14,0.44648140102174866,0.4469636232178501
15,0.4464492800888551,0.44682864159271674
16,0.44645675602751655,0.44633845772695896
17,0.44642782758829336,0.4464206595278851
18,0.4464251895512891,0.4464195375554911
19,0.4464214253875388,0.4467562228367287
20,0.44641229406458083,0.44637085944783894
21,0.44639807409555216,0.44630330394278683
22,0.4464030659531962,0.4462866306452834
23,0.4463934274425221,0.44663702558642876
24,0.44640458254041665,0.44627561937490706
25,0.44638768791895245,0.4464298389833559
26,0.44637633900163987,0.4463222603644094
27,0.4463683479432007,0.4462755808167659
28,0.44636630086430806,0.4462469789289659
29,0.446357123427639,0.44628121663559756
30,0.44634432770718374,0.44640261001385767
31,0.4463381501130215,0.44625660117447524
32,0.4463376124252645,0.44631095376263186
33,0.44634337890940307,0.44630720835761456
34,0.4463123116568826,0.44622299790973996
35,0.44632608571949417,0.44629483128303926
36,0.4463222337500979,0.4463476898060839
37,0.44632575378296996,0.4467872048430052
38,0.4463010550458751,0.44622852358569576
39,0.4463055310954888,0.44620855901732337
40,0.4462969636343952,0.44639270138503895
41,0.4463010717844143,0.44690876937385826
42,0.4463047473742,0.44620080791395295
43,0.4462977095313736,0.44680593386477335
44,0.4462993813623429,0.4462251546069351
45,0.44628320229400426,0.4464205597973343
46,0.446289893032324,0.44619560635119454
47,0.4462843816658624,0.44665137167012425
48,0.44627467777750457,0.44624415826856645
49,0.44626891153356424,0.4467928947497242
50,0.4462903016886977,0.4461753521900319
51,0.446259758578966,0.44617279451479097
52,0.4462775786516582,0.4461954957350312
53,0.44626889593251523,0.4463375968169929
54,0.44627118635700763,0.4462535214779099
55,0.4462529538324951,0.446174341957859
56,0.44626520115803425,0.4465462189158494
57,0.4462713615652084,0.446367205919758
58,0.4462584314722143,0.4466316372525899
59,0.44626641244824633,0.44634040619244353
60,0.44625856565937855,0.4463352609361076
61,0.4462646771994369,0.4463633724832653
62,0.44624219926880504,0.44622925796520624
63,0.4462533548131763,0.446193169955876
64,0.4462514264769814,0.4463625284489568
65,0.44623782311244564,0.4462336320439284
66,0.4462419328535312,0.4467209063895583
67,0.4462500630679633,0.4461860690016309
68,0.4462591294581366,0.4462492289673306
69,0.4462523827477257,0.44617361769486896
70,0.4462378838332823,0.4461717032765041
71,0.4462580282970131,0.4462927181874552
72,0.44624070448085085,0.44622113777153544
73,0.44623310232692254,0.44694763398347953
74,0.44624156317039615,0.4461869873864479
75,0.4462458554640671,0.4461649355018701
76,0.44624860560775215,0.44626289577992917
77,0.4462389155372973,0.44614250026920593
78,0.44624766729625864,0.4465322239966901
79,0.44622566618424747,0.44615487709234725
80,0.4462334796293488,0.4461186720478919
81,0.4462515436676597,0.4462715141086957
82,0.4462223128871673,0.44621816080793847
83,0.4462424996202552,0.44614019367298474
84,0.44625158541244603,0.44720040894027974
85,0.44624272173060087,0.4461468575462218
86,0.44622104180456934,0.4461784990342616
87,0.44624091243015335,0.4461452779935548
88,0.44625482523462295,0.44612480511440533
89,0.4462278420267163,0.4461962320224819
90,0.4462384941247834,0.4462179784443479
91,0.44623532851319353,0.44621724765886445
92,0.4462371578467211,0.4461433066179971
93,0.4462351603744707,0.44638116180748855
94,0.4462143634453299,0.4462593780853612
95,0.4462317514638219,0.4462232688964153
96,0.4462262332625586,0.44611627360431494
97,0.446215778727688,0.4461519096092906
98,0.44622808710734363,0.4462491503128639
99,0.4462299920922529,0.4463223176026167
100,0.4462354052985157,0.4461351162002933
101,0.4462280456978093,0.4464387478366975
102,0.4462310858841437,0.4461720638920001
103,0.44624393868459916,0.44613157476739906
104,0.4462190971577745,0.4461640514747676
105,0.44621737632046127,0.44617821554983816
106,0.4462271334259278,0.4461955926702277
107,0.446252815795455,0.44617513388617164
108,0.4462219648076691,0.4461636390490804
109,0.44622654444106974,0.44628072323337675
110,0.44621643202649497,0.4465237952195681
111,0.4462337084932468,0.4461505775859871
112,0.44622253349203445,0.44616044350060874
113,0.4462088708612612,0.44635083222803346
114,0.4462352001310157,0.4461901743861641
115,0.44620972764499767,0.4463955398824611
116,0.44622402132055217,0.4462085752570008
