epoch,loss,val_loss
0,0.8210284977489047,0.8197538551489512
1,0.8192880905071894,0.8191245997746786
2,0.7826247971985075,0.7285698237419128
3,0.7286751933230294,0.7284283066590627
4,0.7285098711914486,0.7283651120265325
5,0.7284388910002179,0.728345521012942
6,0.728323251273897,0.7283798431952795
7,0.7282659360700183,0.7281421820322672
8,0.7282314322127236,0.7282540312210719
9,0.7282101111412048,0.7281729926665624
10,0.7281985656287935,0.7280789682865143
11,0.7281853659682803,0.7280429960091909
12,0.7281820794079039,0.7281616395711898
13,0.7281736908753713,0.7281004943052928
14,0.7281554469664892,0.7280302515029907
15,0.7281449013153712,0.7284052508672079
16,0.7281414742867152,0.7280704940160115
17,0.728144867459933,0.7281358938614527
18,0.7281360208855735,0.7281291041374206
19,0.7281214605702294,0.7282071206967036
20,0.7281284426318274,0.7282376918792725
21,0.7281207814613978,0.7281986031532287
22,0.7281248170932134,0.7279961418310801
23,0.7281196018854778,0.7280809891223907
24,0.7281181195047166,0.7280819050073624
25,0.7281198114818996,0.7281147586107254
26,0.7281128036843406,0.7281302005847295
27,0.7281116377909979,0.7280724798043569
28,0.7281042813857397,0.728428746620814
29,0.728110961622662,0.728168239792188
30,0.7281125378476249,0.7282233227888744
31,0.7281047426859538,0.7280812897284825
32,0.7281029062800938,0.7280312105019887
33,0.7281088021861183,0.728136060555776
34,0.7281038530535168,0.7280426150163015
35,0.7281153784460491,0.7281157466173171
36,0.7281090069214503,0.7283042931954066
37,0.7281001753807068,0.728061858534813
38,0.7281084752082825,0.7280568703810374
39,0.7281021852625741,0.7281063511371613
40,0.7280920883682039,0.7280445810953776
41,0.7281044303708606,0.7281153701146443
42,0.7281006901131736,0.7280043169260025
