epoch,loss,val_loss
0,0.5597298675434044,0.5556238000209515
1,0.555808693436777,0.5556433934136005
2,0.5559625895074052,0.5556513703490605
3,0.5556867225978748,0.5556647601553584
4,0.5557084299743376,0.5556905695581554
5,0.5556892784342515,0.555657733314978
6,0.5556748412089313,0.555621257579652
7,0.5556606078073423,0.5556267687168074
8,0.5556555924789052,0.555602483773054
9,0.555648871639297,0.5559083884762179
10,0.5556439311974727,0.5556002887543614
11,0.5556406256367231,0.5556269174474049
12,0.5556304973599973,0.5555997135621442
13,0.5556334837742823,0.555606650596221
14,0.5556307773916284,0.5556189568403637
15,0.5556277983434207,0.5556166239175252
16,0.5556235851561988,0.555743790649007
17,0.5556218278111293,0.5556175754028869
18,0.5556203064100851,0.5559133738205392
19,0.5556213377887084,0.5555992780489011
20,0.5556199057650502,0.5555976878620554
21,0.5556156438984535,0.5557200050235682
22,0.555617202541653,0.5556455803272446
23,0.5556154058017163,0.555615376390831
24,0.5556157471347617,0.555663224869863
25,0.55561687500679,0.5556297196348016
26,0.5556130470603665,0.5555886457930723
27,0.5556119208527657,0.5556220095151707
28,0.5556130647403722,0.5555947022165909
29,0.5556120590696586,0.5555863481301527
30,0.5556111001086158,0.5556855164153995
31,0.5556084583609638,0.5556342455352802
32,0.5556106064197216,0.5555917968820994
33,0.5556079102381934,0.555625613599498
34,0.5556098154751333,0.5556018373214873
35,0.555607645283435,0.5555915781641125
36,0.5556104991943095,0.5556198118638164
37,0.5556091008291602,0.555586966539435
38,0.5556059101115364,0.5555869608304045
39,0.5556070519292577,0.5555959394492819
40,0.5556061347816295,0.5555864542944555
41,0.555605117514353,0.5555875582079733
42,0.5556026162151889,0.5556648988285964
43,0.5556066861157193,0.5555872278237165
44,0.5555995012305904,0.5555912132002876
45,0.5556038329913064,0.5556568577330994
46,0.5556005709517843,0.5556226871741321
47,0.5556014095455378,0.5556399167323527
48,0.5555998901591606,0.5555929559040306
49,0.555600460293392,0.5556013120611015
