epoch,loss,val_loss
0,0.561337055099441,0.5580496648405089
1,0.5580403793585581,0.5581792857451711
2,0.5577284746206582,0.5602122382549731
3,0.5576164148854117,0.5573191569697472
4,0.5575265304855251,0.5572531948610215
5,0.5574069467495004,0.5576246283190422
6,0.5573636430612137,0.5574069197952896
7,0.5573221003473948,0.5572559099339374
8,0.5573080507672212,0.5578151452630092
9,0.5572838434491676,0.5576829900220961
10,0.557273320572986,0.5571581850276691
11,0.5572283259431845,0.5570503688331869
12,0.557191352112616,0.5570303616097784
13,0.5572015313105662,0.5572557954575229
14,0.5571749234259159,0.5570531371213662
15,0.5571526582248852,0.5573720776709374
16,0.5571525051015065,0.5570965529967182
17,0.5571309943586062,0.5571635116418597
18,0.557138392198941,0.5569811157198166
19,0.5571268784528286,0.5575509118383043
20,0.5571407335994814,0.5571846367111869
21,0.5571104350663157,0.557001822343831
22,0.5571112090392661,0.5570723433648387
23,0.557100478452008,0.5574960881959712
24,0.5571075351904242,0.5575480536846605
25,0.5570888668951477,0.5570299372187915
26,0.5570834848420755,0.5570998553306826
27,0.5570927252051447,0.5570349451330104
28,0.5570680789247283,0.5569734544967008
29,0.5570759696020229,0.5571771487704578
30,0.5570820921762096,0.5570512240932833
31,0.5570711262105161,0.5570654989472098
32,0.5570851510751257,0.5571550614780587
33,0.5570615284286177,0.5572637887509821
34,0.5570704291080814,0.5570974976785721
35,0.5570499095167235,0.557070113204549
36,0.5570515035412326,0.5570327446419311
37,0.5570351355572262,0.5569824599450635
38,0.5570486104934377,0.557055144333662
39,0.5570685594528134,0.5569330339100461
40,0.5570303771343449,0.5574088693848319
41,0.5570359727697415,0.5569757886323384
42,0.5570383270534234,0.5571711313044168
43,0.5570282637461625,0.5573133515365071
44,0.5570299306410397,0.5569407407758253
45,0.5570372141856955,0.5570217665608408
46,0.5570379680174964,0.5569643281529618
47,0.5570275163709202,0.5569576445939227
48,0.557029929069694,0.5569947505707185
49,0.5570352078967128,0.557516250066071
50,0.5570043507533063,0.5573807639756214
51,0.5570225877709841,0.5569608931210142
52,0.5570170960668532,0.5570858273257688
53,0.5570094844217445,0.5571249836727644
54,0.5570069534026905,0.5577481587826466
55,0.5570077543937942,0.5569927962778816
56,0.5569942223945423,0.5569016009347315
57,0.557012640197436,0.5571061680393834
58,0.5570033553089612,0.5569684745951858
59,0.5570071326859776,0.5570023094749924
60,0.556999753743599,0.5569152813987164
61,0.5569965016646101,0.5569710916680083
62,0.5569999544909005,0.5569639685136213
63,0.5569836272680116,0.5569199757008044
64,0.5569993946682307,0.5569360260336333
65,0.5569959390297681,0.5569931204206594
66,0.5569928549206927,0.5569219980583001
67,0.5570084222788227,0.5570207566540532
68,0.5569937932735997,0.5569420817176403
69,0.5569865724920565,0.5576315440551814
70,0.5569949843323415,0.5569283365315894
71,0.5569865598668619,0.5569013925994892
72,0.556993369537987,0.5569312838407663
73,0.5569839191707178,0.5571362218549175
74,0.5569857108881856,0.5569083025970175
75,0.5570099349238745,0.5569287585857192
76,0.5569783539651564,0.556914403687044
77,0.5569966928039845,0.5569365445792527
78,0.5569770247526279,0.5569863539475661
79,0.5569845525050727,0.5569532238520108
80,0.5569906972295543,0.5570754147049215
81,0.5569865014707017,0.5571151235559146
82,0.5569748796456652,0.5569177029150592
83,0.5569776290123545,0.557230032880608
84,0.5569838572398188,0.556916568829463
85,0.5569817716933264,0.5569376926564106
86,0.5569849839191389,0.5568899467032837
87,0.5569804125297815,0.5569234257004693
88,0.5569850139908461,0.5569075494486996
89,0.5569858182784628,0.5569155394883073
90,0.5569779610096185,0.5569381758533696
91,0.5569848909336528,0.5568972996979138
92,0.5569672259796802,0.5569281542271598
93,0.5569729065584598,0.5575836600204259
94,0.5569722701847499,0.5569844488174684
95,0.5569677862156959,0.5569943957529944
96,0.5569729572383028,0.5569102547600606
97,0.5569622046908574,0.5569637985738276
98,0.5569846356025979,0.55692399417792
99,0.5569646648321234,0.5571171653477784
100,0.556964696953995,0.5570514318073357
101,0.5569769500048489,0.5569312430492998
102,0.556979967850781,0.5569251908557883
103,0.5569750694527088,0.5570340113663496
104,0.556967098937327,0.5569540419590384
105,0.5569694094221139,0.5569272556316763
106,0.5569644063331346,0.5569320185012913
