epoch,loss,val_loss
0,0.34285820940990697,0.3371658406245797
1,0.3373488848327011,0.3365052672680791
2,0.3368878309234581,0.33635491716950466
3,0.3366002884243356,0.33621143334852555
4,0.3364291627046958,0.3360703853312556
5,0.33630158164535867,0.335908063573222
6,0.3361261103293514,0.33592580584970955
7,0.3360916363512362,0.3358131234462445
8,0.3359899884630298,0.3361452648272881
9,0.3359172320381209,0.33622909216372016
10,0.33587959981607085,0.3363392525068288
11,0.3358295893474603,0.33581566902307364
12,0.33583437415388273,0.33566098828469554
13,0.3357940196882109,0.33612097865594526
14,0.33577273374082733,0.3359984601253907
15,0.335747460687923,0.33563554745454055
16,0.3357212529907872,0.33552685776360275
17,0.3357185966296991,0.33566496147411334
18,0.3357104281732721,0.335512911267671
19,0.33570247753636007,0.3355280177173188
20,0.3356565803518568,0.3359765015819824
21,0.33567827465901456,0.3355041473882074
22,0.3356553777466428,0.33548499765822076
23,0.33564477876786974,0.33598743876807446
24,0.33565803555365287,0.3355266818485544
25,0.3356333525114776,0.3362771654986862
26,0.33564292386092753,0.3355201906513044
27,0.3356383986550925,0.33591094957687717
28,0.3356319394398104,0.3354658734561788
29,0.33561234348222047,0.3355299878800773
30,0.33560011514180316,0.3361633252269281
31,0.33561006308965025,0.335737161097988
32,0.3356219699778584,0.3354649166611229
33,0.33558750760261663,0.33549922820060485
34,0.3355922079188378,0.33636880931132485
35,0.3356132984371994,0.33583233177513994
36,0.335593018566776,0.3357880945241185
37,0.3356122206399828,0.3355040269069577
38,0.3356028899971081,0.33571550920051024
39,0.3355798820918809,0.3355697720429442
40,0.33560823472717016,0.3354566245309768
41,0.33557600756515443,0.33542301478811887
42,0.3355856844511354,0.33548676497291396
43,0.3355781205372299,0.3355155821769468
44,0.33558950923001934,0.33573366953776435
45,0.33556737580509965,0.33737438520781754
46,0.33557231832311973,0.33550859723730064
47,0.3355814978000929,0.3355480094553519
48,0.33558616800832075,0.33561192660710354
49,0.3355738032625543,0.3355313026579675
50,0.335566064285198,0.3354258449438488
51,0.3355736924661171,0.33542660702546834
52,0.33557658476097557,0.3354241952706803
53,0.3355800940377813,0.3354969774818894
54,0.33556459469123207,0.33575526944756806
55,0.3355782804579409,0.33555689235183206
56,0.3355546122743552,0.335489969942765
57,0.3355661919223276,0.33565965889405375
58,0.335555833674189,0.3358520208606057
59,0.3355607802672954,0.3360876561246498
60,0.3355571346924213,0.33549600042421235
61,0.33556185846326464,0.335801673763739
