epoch,loss,val_loss
0,0.7694957718144475,0.7657898096529485
1,0.7651687977117135,0.7642673357544703
2,0.7648917355263659,0.7640923642638895
3,0.7647225973204155,0.766954023193189
4,0.7645215973636853,0.7640519361342153
5,0.7643544445506595,0.763966154164771
6,0.7643020736297309,0.7636845649619848
7,0.7641605775607551,0.7636879960893106
8,0.7640361930764852,0.7635976125525482
9,0.7640131405618422,0.7641397740054071
10,0.7638913836752248,0.7641443014144897
11,0.7639240790217425,0.7636163949079017
12,0.7638500295426105,0.7634510005082445
13,0.76381046634258,0.7634144462663541
14,0.7637439709580205,0.7634060913812434
15,0.7637643389137295,0.7633639501578755
16,0.7636689014459804,0.7649925974403362
17,0.7636731981361852,0.76362785423364
18,0.7637519120406459,0.7635612999239275
19,0.7636527440404408,0.7644285611420056
20,0.7636457598316189,0.7634148860096044
21,0.7636251440182129,0.7635560664290529
22,0.7636260227017913,0.7632824010352047
23,0.763594682600709,0.7633086175835754
24,0.7635682579931827,0.7635924073366018
25,0.7635805624314584,0.7637332246262146
26,0.7635790988310089,0.763299043095733
27,0.7635504937628195,0.7635233577368573
28,0.7635512453141181,0.7634921619081616
29,0.7635336980209654,0.7633010438594865
30,0.7635059974617994,0.7633742743922818
31,0.763493488228745,0.7632364746950401
32,0.7634943852888642,0.7633967938257507
33,0.7634898851054472,0.7633316793453605
34,0.7635026172637068,0.7637921338045863
35,0.763521494692317,0.7631678342227605
36,0.7634746769591528,0.7633483919257266
37,0.7635056869782458,0.7633158584978089
38,0.7634556955669349,0.7631607263318954
39,0.7634663653970704,0.7633133512868479
40,0.7634400946914963,0.7635905066435745
41,0.7634883815571619,0.7640559641066615
42,0.7634545157529387,0.7633344102734075
43,0.7634314121198642,0.7634925416918014
44,0.7634401060679761,0.7633695946437845
45,0.7634055782704817,0.7633211600573424
46,0.7634375957761709,0.7634429634061108
47,0.7634436067895458,0.7630324201607527
48,0.7634326883278731,0.7633891522440662
49,0.7633950510636335,0.7631638874782818
50,0.7633863100508782,0.7631289102303479
51,0.7634189890560318,0.7643354469138398
52,0.7634095250223147,0.7636184871048844
53,0.7634120539509741,0.7640294844104397
54,0.7633662212117597,0.7631818572877359
55,0.7633725721225126,0.7634378694127274
56,0.763384235461209,0.7645501980118953
57,0.763395812191306,0.7631534170867788
58,0.7633813200327815,0.7634226404999385
59,0.763418496219072,0.7635408174311257
60,0.7634198964734648,0.7636183310974917
61,0.7633562536919026,0.7631614624418632
62,0.7634214009888534,0.763064880199527
63,0.7633740889546643,0.7634250399492515
64,0.7633509668172588,0.7630170970045899
65,0.7633519166444603,0.7630878648746102
66,0.7633591242407407,0.7660303291256907
67,0.7633744502198195,0.7631737841861715
68,0.7633664133174485,0.7639937990060811
69,0.7633681078646968,0.7632337877531501
70,0.7633499990907575,0.7634752411996165
71,0.7633496384030244,0.7632372228146782
72,0.7634161425727632,0.7629825468986265
73,0.7633442922613544,0.7632863480163271
74,0.7633555630846789,0.7636333598096673
75,0.7633750188773647,0.7631510471587737
76,0.7633235218257962,0.7633212253414372
77,0.7633723557572025,0.7631370585254641
78,0.7633746858577795,0.7632836335350207
79,0.7633238801991075,0.7630871533755925
80,0.7633524156208696,0.7632343427714876
81,0.7633459269751977,0.7634316023762705
82,0.7633610912784229,0.7632075083167026
83,0.7633195240265264,0.763029860237396
84,0.7633116241743714,0.7629981887251804
85,0.7633180822324426,0.7641315108789108
86,0.7633427842869542,0.7630390590532837
87,0.7633205306966852,0.7632467072004124
88,0.7633373399866629,0.7633389738002427
89,0.7633126121958436,0.7630291748579323
90,0.7633370757978566,0.7630377212469986
91,0.763305509044356,0.7630219787581091
92,0.7632707575951458,0.7631301425231006
