epoch,loss,val_loss
0,0.41738847416727004,0.4013572896240575
1,0.402942091617664,0.4014289872772127
2,0.401520068413734,0.40117482467493126
3,0.40149030676713604,0.40113991810259375
4,0.4015390858010746,0.4021695775298713
5,0.40142717075929024,0.40145521479276425
6,0.40136694633816994,0.4014749151338034
7,0.4012848846124621,0.4019877002514114
8,0.4012293724935855,0.4011063670408961
9,0.4011984153366762,0.401039548158688
10,0.4012580226131653,0.40098726568350807
11,0.4018338110831691,0.4019075465426815
12,0.4013302261680227,0.4014124811585112
13,0.4013764416861998,0.401030373824259
14,0.4012005151957319,0.40114308163843987
15,0.40112200335533277,0.4009150732239137
16,0.40200134784044644,0.40102649411673996
17,0.4010826515674783,0.4013575528734932
18,0.40105712101342433,0.4009918723262676
19,0.4010701154853256,0.40142556920655564
20,0.4010301764801123,0.4015551693572056
21,0.40106384163866626,0.4010375100695064
22,0.4010416594002754,0.4012697622892085
23,0.4010057044524235,0.40121465066352224
24,0.4013936762668059,0.40187424815745143
25,0.4011083254115671,0.4009280823638372
26,0.4009733228748191,0.4012393939344725
27,0.4010537115767749,0.40090545144168366
28,0.40098690242440005,0.4009728936789874
29,0.42140358087958174,0.457644334338575
30,0.4514424708423975,0.45099875542702017
31,0.45102210313058444,0.4511278683422598
32,0.4509999314839942,0.4509701199537061
33,0.4509538184304046,0.4509765697978364
34,0.45095827945340383,0.45131949557570206
35,0.4509804914164645,0.4509235505186065
36,0.45096925399184673,0.4508568573578316
37,0.45093480203701597,0.4513134025970431
38,0.4509910762127898,0.45095064722002876
39,0.4509443105280838,0.4508336242847575
40,0.4508831194724454,0.45104793543755467
41,0.45092043861583364,0.4508731023554566
42,0.450894598693526,0.45082466192854553
43,0.4508863158560568,0.45095278318196425
44,0.45089498444995274,0.45085474689914484
45,0.45086299444706496,0.45080698791776846
46,0.4508681331476404,0.45086745676636
47,0.4508897700226623,0.4509061535492441
