epoch,loss,val_loss
0,0.6557288188963354,0.6508992650640606
1,0.6513246832029008,0.6507191207146725
2,0.6509759539701369,0.651093491061074
3,0.6157460861077632,0.6010538478011157
4,0.6009676011008457,0.6009414145187917
5,0.6008901868587244,0.6012019789182901
6,0.6011714815986143,0.6007353626065873
7,0.6008665639130861,0.6009043021933989
8,0.6008318611703395,0.6018533603847291
9,0.6008403015153096,0.6007966400039918
10,0.6007541502095564,0.6011997641117667
11,0.6008008482652908,0.6007723427089923
12,0.6008174182125283,0.6007560138953136
13,0.6007784942941674,0.6006751844272624
14,0.6012618138461053,0.6007496191608607
15,0.6007572162986313,0.6006449114516057
16,0.5955182008292959,0.5511991116076809
17,0.5508294223787479,0.5508343373126005
18,0.5508184791144951,0.5510764384612793
19,0.5508199503455273,0.5507185877396595
20,0.550766418316613,0.5508559045157989
21,0.5235950799691677,0.5008560704452188
22,0.5008565889277491,0.5009062444471216
23,0.5008396858414168,0.5011027008480364
24,0.500828739658842,0.5008872234179635
25,0.5008742386837833,0.5007754647619539
26,0.5008081520038865,0.5007424687996155
27,0.500886069815391,0.5008057711772035
28,0.5008121107620644,0.5006986521746977
29,0.5007666661503455,0.5007408490441878
30,0.5007953908607962,0.5011367861596449
31,0.5007867012343684,0.5012975807278041
32,0.5008114121691412,0.500879180486428
33,0.5007967821097564,0.5012321314817636
34,0.5007947694713971,0.5007562138594198
35,0.5007612123345256,0.5006986327229777
36,0.5007429220442222,0.5006836580433882
37,0.5007585284185677,0.5006941262878137
38,0.5007362116373429,0.5007189276756752
39,0.5007365238102636,0.500720117036647
40,0.5007457278124784,0.5006943474359762
41,0.5007373154675867,0.5006591910302777
42,0.5007033440447611,0.500680280888053
43,0.5007313763420154,0.5008074089548562
44,0.5107378314194089,0.5010289959827904
45,0.5007724354160215,0.5007465449991564
46,0.5007695971198403,0.5010605694705924
47,0.5007715014004935,0.5009291635925169
48,0.5007615600228748,0.5006878006985608
49,0.5008015744067787,0.5007831934057897
50,0.5007524422784654,0.5007015500044946
51,0.500753233475521,0.5007032941259824
52,0.500748596551262,0.5006814323727032
53,0.5007298002702293,0.5007039117948647
54,0.5007262775618826,0.5006629935715419
55,0.5007695649392336,0.5006971326851044
56,0.5007109633585864,0.5006912291886476
57,0.5007195506559655,0.5008697493352905
58,0.5007518317618278,0.5006829983473544
59,0.5007144284403092,0.5007034023334552
60,0.5007039164820262,0.500649219318274
61,0.5007073797127958,0.5006507400997072
62,0.5006962787419692,0.501041688881371
63,0.5007607272083164,0.5007050182345409
64,0.48388352174869825,0.45091617767606246
65,0.4508012780002798,0.45074699428094644
66,0.45077821744720303,0.45079285491950816
67,0.4507498737048439,0.4507229263934134
68,0.4507726308420838,0.45073859020074913
69,0.4507691362284105,0.4506875021638953
70,0.4507479924086238,0.45076032354302675
71,0.45078269341195454,0.45073936553762955
72,0.4507610426449009,0.45078000182748834
73,0.4507775923537799,0.45075777727898114
74,0.4507543825970778,0.4507550728069061
75,0.45080684970812046,0.45081545852771937
76,0.45072383463000104,0.4511046315154379
77,0.45073781112996913,0.4506922317485145
78,0.4508707611848616,0.4507578243887812
79,0.45073974823503876,0.4508896947574141
80,0.45074016761640856,0.4508517071946219
81,0.4507416510487658,0.4508397379063823
82,0.45072541501714813,0.45070747586672333
83,0.45077942116961883,0.45072927283740927
84,0.45073361241286897,0.45128981277497504
85,0.45075184814452807,0.4506923300660002
86,0.45071838916323653,0.450836026397474
87,0.4507365300402528,0.4506866758152231
88,0.4507089439010672,0.4506923938585357
89,0.4507328093399229,0.4509506436198193
90,0.45075437253966755,0.4513069534676603
91,0.45070363345505243,0.45072440342700676
92,0.4507125116302138,0.45071693901736987
93,0.45070382585605595,0.4507584517782292
94,0.45072307863988165,0.45066418594186525
95,0.4507225611488176,0.4506732302028431
96,0.4507462606082848,0.45067078327281285
97,0.45071720304958324,0.4506794251203749
98,0.4507143158436239,0.4507323801993985
99,0.4508203213652044,0.4508710058264039
100,0.45071620598516937,0.4508159044983756
101,0.4507285589909716,0.4506743188267767
102,0.4507049411732218,0.4506674345803104
103,0.45070780583666126,0.4507576746835995
104,0.45072243637113807,0.4509749895811801
105,0.4507114320543745,0.45066058915257345
106,0.4507179473784154,0.4506808036776499
107,0.4506993941885243,0.4508187143083448
108,0.45071804686679445,0.4507445638801133
109,0.4507098459089418,0.45069200078448685
110,0.4507283151882507,0.45066042299761105
111,0.49775692940345634,0.5009027152041132
112,0.5007939900281059,0.5007233694235456
113,0.5007922773472235,0.5012405901739623
114,0.5011045117743286,0.5007153149819286
115,0.5006987836802167,0.5007253203241243
116,0.5007011147375812,0.5006542373537953
117,0.5007245769566695,0.5010166881372036
118,0.5006962606362307,0.500836275815752
119,0.5007177478007682,0.5008807257916411
120,0.5006872481095429,0.5008450982455865
121,0.500853407154808,0.5009987693015923
122,0.5025097028818389,0.5008081906556363
123,0.5007733895167206,0.5010300578963462
124,0.5007383749158988,0.500675497617957
125,0.5007240210198541,0.5009495637772201
126,0.5007152190599126,0.5007245800045756
127,0.5007790160331055,0.5006654875107781
128,0.5006717359333236,0.5006268500731118
129,0.5007571634655666,0.5007633481722019
130,0.5006590536710513,0.5009553571178553
