epoch,loss,val_loss
0,0.5196325966273123,0.5013823987302951
1,0.5017443241435349,0.5010504838013695
2,0.5011657706798951,0.5010555984389826
3,0.5011947449132319,0.5020627694012196
4,0.5010696553149346,0.5011726556397772
5,0.5011662926613913,0.5010481289255193
6,0.5010495963873596,0.5014139730122611
7,0.5013195305373003,0.5013561072157254
8,0.5010528546042424,0.5008948812753274
9,0.5009917760896618,0.5008724012919569
10,0.5015103936288556,0.5053276205003568
11,0.5018143903345924,0.5009899573547206
12,0.5010333118751703,0.5009407995119466
13,0.5009987935641631,0.5008520237462181
14,0.5009567278384834,0.5008655318169383
15,0.5009388712359635,0.5009705043004237
16,2.070044485318129,1.0
17,1.0,1.0
18,1.0,1.0
19,1.0,1.0
20,1.0,1.0
21,1.0,1.0
22,1.0,1.0
23,1.0,1.0
24,1.0,1.0
25,1.0,1.0
26,1.0,1.0
27,1.0,1.0
28,1.0,1.0
29,1.0,1.0
30,1.0,1.0
31,1.0,1.0
32,1.0,1.0
33,1.0,1.0
