epoch,loss,val_loss
0,0.7047290426841563,0.7012574430743719
1,0.7012080730587597,0.7006256217472844
2,0.7007568589641479,0.7009738324526721
3,0.7011584331311198,0.7007150467260839
4,0.7007499433471328,0.7005999677451048
5,0.7006817844072895,0.7006939753564431
6,0.6616580218142357,0.6506757446812744
7,0.6508342508375496,0.6509328069981684
8,0.6508292820279307,0.6506151125367104
9,0.6507289456708983,0.6506786273372472
10,0.6507090775722166,0.6509720468144155
11,0.650691776118692,0.6505984131979421
12,0.6506755179956449,0.6505354722813871
13,0.6506434946268911,0.6506882637109145
14,0.6506424640822501,0.6507815276248604
15,0.6506382815281643,0.6505257134264751
16,0.6207521200338182,0.6007367295743644
17,0.6006772222739624,0.601069617025762
18,0.6006983249922825,0.6008233915512124
19,0.6006928065851157,0.6005889917694881
20,0.6006433294975857,0.6008687663573866
21,0.6006540941046209,0.6006266327009339
22,0.6006706252241981,0.600780548422941
23,0.6006576808268623,0.6007367535475241
24,0.6006230172209741,0.6006519804735297
25,0.6006386481476272,0.6005811419256586
26,0.6006303473018382,0.6006407686799559
27,0.6006278871648458,0.6006662674813399
28,0.6006560415275896,0.6006478627445135
29,0.6006030166767818,0.6008062885548383
30,0.6006230438529568,0.6005969786330552
31,0.6006081710603379,0.6006655883865302
32,0.6006204907645138,0.600770934052907
33,0.6006322575857354,0.6007857912068343
34,0.6006177219786123,0.6006349216538438
35,0.60060405853045,0.6005516500366287
36,0.600587217392456,0.600566390935556
37,0.6006122719917665,0.6005312427679839
38,0.6005739386418227,0.6005890860843879
39,0.6005748426439547,0.60059549769747
40,0.6005690419600785,0.6009024056030391
41,0.6005515942840784,0.6005359137856657
42,0.6005685781134771,0.600539162413522
43,0.6005744867371478,0.600695768900336
44,0.6005752809824167,0.600552203060573
45,0.6005641540361241,0.6009114320270967
46,0.6006614176739702,0.6007272401951329
47,0.6005471512030417,0.6005659545266325
48,0.6005300513071619,0.6005775923732332
49,0.6005703576715136,0.6005174381882455
50,0.6005488724129919,0.6006352524389741
51,0.6005393727693671,0.601016945802079
52,0.6005495742150812,0.6005000896681729
53,0.6005833585080959,0.6008320122528381
54,0.600562873120067,0.6008486379779111
55,0.6005484829560707,0.6006855377826498
56,0.6005589696631737,0.6006502355049338
57,0.6007823912127206,0.6006148656597567
58,0.6006294490954063,0.6008824781470198
59,0.600590381593343,0.6008488105338343
60,0.6005816617389161,0.6007893828817108
61,0.6005680035174727,0.6005468639181316
62,0.6005803145753961,0.6006535592183357
63,0.6005459638653027,0.6005477501944086
64,0.6005362507973198,0.6005238520885195
65,0.6005310091210623,0.600511622272179
66,0.600545033500854,0.600502433859872
67,0.6005304229689544,0.6005011073944517
68,0.6005474063790296,0.6005627839280225
69,0.6005419269520044,0.6005153558058983
70,0.6005376067496906,0.6005691180836563
71,0.6005386660426977,0.6005203586781844
72,0.6005364172207394,0.6006862584281124
