epoch,loss,val_loss
0,0.5207383977281693,0.5012808845551023
1,0.5019024084289615,0.502094009573156
2,0.5013550727727201,0.5010917544004908
3,0.5012048167484574,0.5009839426647348
4,0.4887988437764396,0.4511061673753955
5,0.4512672147266416,0.4511184378317479
6,0.4511963371594683,0.45112849263976323
7,0.4511264203456954,0.45190977224830964
8,0.45153270842725923,0.45084480920912084
9,0.40402999042174215,0.400955724232276
10,0.40140337426949846,0.40133022532981505
11,0.40109476067525884,0.4012476463399617
12,0.40110660594668024,0.400971267956742
13,0.40105655448057287,0.40100529419314823
14,0.40103816912384704,0.40110629227301603
15,0.4010964125535302,0.4010383929626453
16,0.40101368681426175,0.4010328132362047
17,0.40100420463044795,0.40099398683519005
18,0.40189432921779966,0.40211493805048204
19,0.40473298994708207,0.4014177748959576
20,0.40120900573739393,0.4010902262534526
21,0.4012045987322953,0.4018447662325307
22,0.40311438360701496,0.40098147307879806
23,0.4009409502336053,0.40115353103470985
24,0.4009629145706186,0.40094895360948013
25,0.4009493094112442,0.400864980009653
26,0.4013599615052488,0.40131521069848913
27,0.4009989421023772,0.4009239378662045
28,0.40097122937197327,0.4013830164140019
29,0.4010003661319861,0.40106512779536396
30,0.40092963304081297,0.40091608524280153
31,0.4009275426899525,0.4008130040817223
32,0.40093906963131615,0.40082449021655386
33,0.40093171820025103,0.4008600101798778
34,0.40095653712493934,0.4008559413713552
35,0.40087539239333203,0.40082712412981736
36,0.40100734423737733,0.40102194686684817
37,0.400880573241565,0.4011821018842635
38,0.401062803946466,0.4008527203804012
39,0.4009541671926171,0.40079211651865937
40,0.4008679379378755,0.4009253286641918
41,0.40092672634619475,0.40095686240144557
42,0.40087480282239657,0.4012694127776945
43,0.40089265525356566,0.40177939969071447
44,0.4008638498572292,0.40079399087243106
45,0.40085819720019017,0.4009858955920198
46,0.40087858765380596,0.4014610034954825
47,0.40085395678793473,0.4007688570634619
48,0.40084008170918695,0.40178028589286946
49,0.4009890267764652,0.40085530325010627
50,0.4008788281499423,0.4010445345706045
51,0.400829153795421,0.40090564065387013
52,0.4008353862681241,0.40080429198771983
53,0.40082623424225516,0.40078379141541054
54,0.40087279342144044,0.4008546881172538
55,0.4008622614528148,0.4008385307370801
56,0.4008174444864624,0.40079608478603745
57,0.4008365229241961,0.40077546820756615
58,0.40078462097720313,0.400758535675817
59,0.4008232983644167,0.40092661650677647
60,0.4008792837434952,0.4007862010938614
61,0.400809781167673,0.4008276991626894
62,0.40080996404918634,0.4007656864330853
63,0.4008226665476992,0.4012232179973366
64,0.4008023084914111,0.4007512551204077
65,0.4008100951343664,0.4010851218181979
66,0.4008416716228835,0.4007694064236636
67,0.40078452855237756,0.4011798277801721
68,0.40078309438982374,0.4008078589058617
69,0.4007982319520436,0.4007643818124655
70,0.40077221388926054,0.400841326813309
71,0.4008107693281693,0.4007748894633017
72,0.40082049906178985,0.401017590173927
73,0.40077124090276817,0.40090180595955854
74,0.4008129961292914,0.4008018631540367
75,0.4007838433509803,0.4008388838488036
76,0.4007692340022224,0.4010949757874679
77,0.4007720739171052,0.4008397532676291
78,0.4007904526168942,0.4007850055754725
79,0.4007591377431689,0.4008402703688949
80,0.40078736654218433,0.40075854643938447
81,0.40078095182330653,0.400718325889011
82,0.4007774308656707,0.4008016974491005
83,0.40080030327663047,0.40078548204202086
84,0.40076004542955884,0.40073786359058644
85,0.40079249856958654,0.40082677135164263
86,0.4007890405365927,0.4008533019995389
87,0.4007752948163158,0.40077126125688767
88,0.40078908749446945,0.40078144329524756
89,0.40077431660381035,0.4007264492216956
90,0.400748447865367,0.40076827715971813
91,0.40078628128782967,0.4007469331112694
92,0.40075880341175524,0.40076218960784554
93,0.4007791226149695,0.400822781599485
94,0.40076431364282006,0.40074808309759713
95,0.40074208382039095,0.40080219128665967
96,0.40076382235947366,0.4008147365025293
97,0.4007770682348635,0.40106571016631004
98,0.40078119921992617,0.4009850107717099
99,0.40076681155069277,0.4007896327606038
100,0.40076434841702,0.4008663241478664
101,0.40077720848445003,0.4007382135838932
