epoch,loss,val_loss
0,0.5511069830587442,0.49328497729625115
1,0.4805532310196726,0.48170571667807444
2,0.4756956699845507,0.46977941681290575
3,0.4739343437264196,0.47054328333701123
4,0.4736379228121371,0.47127905466844455
5,0.47447416915310375,0.47507977010513164
6,0.4743007559189312,0.4730285419990627
7,0.4744297105917256,0.4739388156896891
8,0.4748652292479523,0.4721562942135682
9,0.4753007113600044,0.4741285472473199
10,0.47455848250791227,0.47505435274638996
11,0.47409962974101616,0.47445351388761164
12,0.47420801611827146,0.47101057344943215
13,0.4740604903105256,0.4822877486484109
14,0.4737313564994829,0.47104073601062596
15,0.47350449943475775,0.4698926650969739
16,0.473869900218398,0.47589771391937086
17,0.47409757770460953,0.4720275296690714
18,0.4735175103401776,0.46944393983203403
19,0.4735668266324593,0.4709808332250169
20,0.4732198709016033,0.4731868354702146
21,0.4735129753367411,0.476076159476293
22,0.47351520566298044,0.4686055243156421
23,0.4736843875272097,0.46955827019679425
24,0.4736814950938991,0.47560760943364605
25,0.47314332852022445,0.4717761925476785
26,0.47381516496578663,0.4698612745248528
27,0.47391829326998985,0.46921658807602473
28,0.4737917250223297,0.4678258536928925
29,0.4733176174209558,0.47015432819383013
30,0.47313352670076847,0.4705501206530862
31,0.4729051369724037,0.47183893408094135
32,0.47367683618808154,0.46968510963357896
33,0.4736828187124716,0.471606554670793
34,0.4740457322171552,0.4704071794943068
35,0.4734685439333546,0.4729808293982764
36,0.4734205410396643,0.470366256554106
37,0.47392207519899454,0.470924938840008
38,0.4734972741702001,0.4787392591573915
39,0.4741017190124586,0.4705209975272723
40,0.4741974330420117,0.4698057439775098
41,0.47375291070158626,0.47070010560369907
42,0.4736488503541687,0.4789262301073172
43,0.47336883471309427,0.4710042140054816
44,0.4734505039158104,0.46836746454050715
45,0.4739684494469854,0.4709438216338124
46,0.47323512452111827,0.47120721032512214
47,0.4741715612671644,0.4727815009988756
48,0.4739349444897817,0.47059884886150766
49,0.4738688507049585,0.47289887051838253
50,0.4739355175114936,0.4720152819495363
51,0.4737863841531374,0.4714460355988994
52,0.4742981921926105,0.4717062907653619
53,0.4736169182020221,0.4800177077515067
54,0.4738009244108276,0.47322998939768574
55,0.47501514460161914,0.47047077527456427
56,0.4741985961782942,0.47216868461730827
57,0.47401736814865203,0.47452526456649224
58,0.47447357531026496,0.474605961822579
59,0.4746958826728862,0.47015147380407346
60,0.4745177865909825,0.4698941613523247
61,0.47425586037593875,0.47285551176169016
62,0.47456447049963485,0.47304821339007336
63,0.4741003655558296,0.4701464620743009
64,0.47447144452759404,0.46975374435851586
65,0.4742919977882402,0.4744878062227154
66,0.4743208955708358,0.47315123677253723
67,0.47463479988294827,0.47084941846136985
68,0.4743882865190125,0.47093390943313457
69,0.4740034273202471,0.4693785586880245
70,0.4743202573937668,0.4690636924711286
71,0.4744652756374422,0.4714100625962842
72,0.47442719620242296,0.472091596547129
73,0.47409172656295967,0.4697716471569314
74,0.4737183306571677,0.4713175883421111
75,0.4743859177227501,0.47056464859135244
76,0.4743212218479001,0.4730184805045094
77,0.473836173637689,0.46957748314481884
78,0.47405123693956364,0.4735216190472492
79,0.47406840387532273,0.47045086290108096
80,0.4738654539310675,0.472364498224424
81,0.47396528620799955,0.47096513135280776
82,0.4737931521390554,0.4707792035076876
83,0.47353750535195394,0.47138437553475765
84,0.4737789476399037,0.46923852952428
85,0.4739687551411508,0.47186460375974004
86,0.4734592952078385,0.47075305558041314
87,0.4736619856622484,0.4705759117522387
88,0.4739942532434738,0.47034074070892096
89,0.47356573827594495,0.47430731550200117
90,0.4734774113749619,0.4695573935568944
91,0.4731550414404042,0.4724343114700859
92,0.472971891458753,0.4737394191706943
93,0.4735958680308027,0.4704936422178288
94,0.47315616237459707,0.4705865937090334
95,0.47358041970754605,0.47134226094857856
96,0.47361267100182847,0.4707623218680896
97,0.4734313693359125,0.46910776511928465
98,0.4731848639764374,0.47095000294596545
99,0.4732063174438324,0.4757182930244078
100,0.47262265546906956,0.4696529757205012
101,0.4728058175288802,0.46975997565483235
102,0.47315898474505386,0.4695272265970942
103,0.4734492710263704,0.47758892806571773
104,0.4731450472161067,0.46920748543061885
105,0.47343223926117667,0.47367948761772904
106,0.47299168105843925,0.4742592247151538
107,0.47314480010220566,0.4711811978137672
108,0.4736471537896674,0.47067272975958513
109,0.473458725473673,0.4695936661822267
110,0.47363515703274095,0.4690695849571439
111,0.4735593318367462,0.4725464688762493
112,0.47354617463551363,0.47213886046654235
113,0.4733538741259266,0.47114660171608147
114,0.47333089286665453,0.4741353867274151
115,0.47330292892589465,0.4714976605836481
116,0.4736064128595576,0.4728287138285934
117,0.4735662321702277,0.4725266063222757
118,0.4734680021671559,0.47199306691737275
119,0.4736601198724896,0.4689352955983771
120,0.4732300472869385,0.4703444421244307
121,0.47361180092171606,0.47168820249629756
122,0.4736529314141575,0.4714860893791834
123,0.4734617010723773,0.4705696288016996
124,0.47348634122039296,0.4757044244772257
125,0.473880493490816,0.47648963155761515
126,0.4739789456057606,0.4697604744379786
127,0.47366938642937123,0.47001786004302065
128,0.4743115231692553,0.47265335562291255
129,0.47404618197970155,0.47217107367214484
130,0.47426954439456326,0.475620806570023
131,0.47406197803245365,0.4706533901928538
132,0.47404161481548557,0.47357150394801745
133,0.4745403743809838,0.4712221920255045
134,0.4743611213090799,0.476855177388195
135,0.474479568411978,0.4713566487900554
136,0.47446165663256445,0.4738489566539909
137,0.4740712471621976,0.471611614079577
138,0.4741638637275147,0.4767896828212979
139,0.4741924917883724,0.47129892406730833
140,0.474562173457645,0.4720684460936895
141,0.4741781241983342,0.4700552455628116
142,0.47455812510636025,0.4713644277136817
143,0.4743780285524998,0.47127424950851826
144,0.4740183223351586,0.47351159252984937
145,0.4741401256178971,0.4726768067810793
146,0.4744374780870265,0.47366238889396894
147,0.47481392898100266,0.46985810559945684
148,0.47488747466858816,0.47043973016945884
149,0.47441797561163335,0.4710297202772293
150,0.47491629751656744,0.4728069349641205
151,0.4747803932923874,0.47270009495559034
152,0.4744190466847065,0.471131751150622
153,0.47448619203173,0.47084909929190455
154,0.47485538005685923,0.47118753390041224
155,0.4744541936283775,0.47728565598719686
156,0.47505167492335554,0.4712387145318285
157,0.4745536952091159,0.47112480986748706
158,0.4745495618342591,0.4749986534289892
159,0.4749787791932134,0.4750684670980464
160,0.4745276591641535,0.4744322028278646
161,0.47519743387742963,0.4716317687527627
162,0.47491318822431144,0.4736692163072991
163,0.4748769164514199,0.4769314700633217
164,0.47436394666929804,0.4715890227666311
165,0.4746921435891867,0.473490450828209
166,0.4745831298027679,0.4770433305753152
167,0.4750854476488275,0.4702955704791017
168,0.47448717106541666,0.4731170692214273
169,0.47457067256303526,0.47169430515101884
170,0.47467070804844846,0.4771129290419671
171,0.47483080806587336,0.47107948803864036
172,0.47489807488535235,0.47736316674698404
173,0.4751835226964989,0.47202355582222943
174,0.47493091746152255,0.4719624791026774
175,0.4747778426686065,0.47396108383443664
176,0.4745090392639311,0.4740837543567712
177,0.47455811516034135,0.47192252350305136
178,0.4748741521013917,0.47383578990798536
179,0.47465069240612756,0.47124314221135255
180,0.4745658667777463,0.47433996576912874
181,0.4745406700814847,0.4715628713110628
182,0.4748333503040288,0.47085593580823293
183,0.47456098385423207,0.47677373794372757
184,0.47499368447575163,0.47378619566806773
185,0.4749696351927247,0.47203784484795536
186,0.47445535844416736,0.47727386384096876
187,0.4747359079660939,0.4759317087957778
188,0.4750276838751624,0.4724101142894591
189,0.47472324567161306,0.4711649448455744
190,0.4748970640839623,0.47201220873499256
191,0.47467538908564694,0.4723239569985782
192,0.474217633668372,0.4732626228701344
193,0.4749362194757286,0.4739248271334708
194,0.47488759199587655,0.4714403276426546
195,0.47446404678596676,0.47303099832670276
196,0.47476808612438126,0.47046660647772387
197,0.4743903466909052,0.47173917928641484
198,0.4747736495580795,0.4736099357951224
199,0.47480365762607657,0.47186694419468683
200,0.4746805735581594,0.4749126179348133
201,0.4749081208051252,0.4813291373314967
202,0.4750971869408465,0.4724538565246534
203,0.47428655924556923,0.4740890861733654
204,0.4745774404417506,0.4717878288844484
205,0.47525591376445275,0.47490806170778194
206,0.47439984914114913,0.4720946063935145
207,0.4748241635535261,0.47183102108214725
208,0.474528894840861,0.4736460873294084
209,0.4748246546486299,0.4721856849016688
210,0.47493740289712505,0.47209723687774097
211,0.4748534937318471,0.4711160520069601
212,0.4746432538083989,0.4777499634446172
213,0.47508120037716545,0.47255522760708873
214,0.47520766355436767,0.4746513012928951
215,0.4749232018165451,0.47401740911821727
216,0.47445259310549304,0.4701284809712829
217,0.47463212021106155,0.47471742083824986
218,0.47450516836868106,0.46978690349971014
219,0.4748089522313919,0.4746743808511495
220,0.4746555772712,0.47310668921602367
221,0.47517817409680807,0.4733774625323566
222,0.47445981608306187,0.4719803105589905
223,0.4748118898327307,0.4718982142167667
224,0.4743109885737193,0.4723945944536927
225,0.4748355831435735,0.4721160559505577
226,0.4748586183853096,0.4704922642544112
227,0.474788304903715,0.4719019199132731
228,0.4750037088001565,0.47200947249603725
229,0.47443898534365025,0.4729074192686916
230,0.4744295648200144,0.4746867209649406
231,0.47451250676771434,0.4715864231196933
232,0.474706433636012,0.4710871163041176
233,0.4746786300226939,0.4713621653010738
234,0.4749053714158152,0.47064220277267643
235,0.47470429436051303,0.47262041128425025
236,0.4746994529601386,0.4738443103613774
237,0.4747408710414176,0.47146404972674816
238,0.47491069027274063,0.47040089320364953
239,0.4744900268473499,0.4708967991673109
240,0.4749507495729948,0.47420557853548945
241,0.47485218453797984,0.47218604125935165
242,0.4749389105706478,0.474527130375345
243,0.47484485286888745,0.47318236446324163
244,0.4752884404026538,0.47220414836950536
245,0.47484415153757653,0.47232851320208763
246,0.474870561636228,0.4713366767413614
247,0.4748740702105178,0.47189737610583615
248,0.47458157075537766,0.47284748797446796
249,0.47497372013582984,0.47163460397212265
250,0.475181936908016,0.47039371848859085
251,0.4747309087396716,0.47289090179606696
252,0.4748413577544794,0.4739562872835474
253,0.4747144238268443,0.474518364470308
254,0.4746065684240594,0.4738680800303946
255,0.4749941337499306,0.4745949818425604
256,0.474829968312185,0.4747738495010415
257,0.47501476698642153,0.4715230304515541
258,0.47494789983014124,0.47090434644668233
259,0.4748943188636423,0.4725871990775159
260,0.47519478781951324,0.47061663823703564
261,0.4749251370974105,0.4724434751549761
262,0.4750987253576922,0.471168487040942
263,0.4746220942786176,0.47167529705573746
264,0.47488171670981927,0.47153411762114106
265,0.4746088984606268,0.47168904251250676
266,0.4746819976851237,0.47440826601180486
267,0.474625279041503,0.47247654792353594
268,0.47479273656384646,0.4722507147216947
269,0.47493720211856943,0.4719569623799614
270,0.4744931678001067,0.471588634842479
271,0.474614999825053,0.4717648075195213
272,0.4749395233049667,0.4729733235410752
273,0.4749356660244467,0.4755094072766067
274,0.47475376090319227,0.47161674727674724
275,0.47477757846184676,0.4734590096603535
276,0.4747406391145514,0.4712884798234339
277,0.47480287995460413,0.47303423932338196
278,0.47544556210557526,0.47300743339281903
279,0.4748331886782444,0.47191493466037787
280,0.47494786602558847,0.4719798019201434
281,0.4748283553180649,0.47055966487623335
282,0.47543617707791086,0.4775082455343775
283,0.4752998806828027,0.472021244625078
284,0.47478002285976395,0.4705454685270269
285,0.4750487577024219,0.474576381406355
286,0.47468887467226156,0.47097719703590013
287,0.47493261842133044,0.4708477280557673
288,0.4752974128075164,0.4721810612371801
289,0.47488239144297434,0.47079998953378194
290,0.47474813918701464,0.47921169324004
291,0.47483517439197676,0.472823916783743
292,0.47478061205715677,0.4744621400722106
293,0.4747736259020394,0.47177301555425044
294,0.4752076223409243,0.4706660199795733
295,0.47474075939586696,0.47335302721541417
296,0.47484772143175275,0.47332554015947687
297,0.4756658454474023,0.4724025713381282
298,0.4742841544173223,0.4749878192380741
299,0.47463422360942426,0.47198769118528056
300,0.4746290365164038,0.47318525183078525
301,0.47464787038110146,0.47079994947588527
302,0.47445945808593987,0.4718144603996834
303,0.47539705221506234,0.4716392107243226
304,0.47455932260703126,0.4708139503340883
305,0.4750626528386971,0.4748438447596242
306,0.4744117460328993,0.4733896762626606
307,0.4747178436969396,0.47664978159348986
308,0.47481621513597305,0.4750947586033602
309,0.4748685725158353,0.4748955784628687
310,0.47483806637265413,0.4717760670109819
311,0.4749323105831131,0.47264243600024136
312,0.4748814221170785,0.4747300944463795
313,0.47492526587155415,0.47371724946534627
314,0.474687454380768,0.4707850585702657
315,0.4750725568579636,0.47077223555065084
316,0.4749913566547046,0.47421105814055375
317,0.4747616888569604,0.47253793722640464
318,0.4744749132225172,0.47389814615155545
319,0.4746080788729383,0.47274747159223246
320,0.4748110043273555,0.4784583453127222
321,0.4750747409560602,0.4755053266400696
322,0.47488750794903933,0.4724433422794282
323,0.4745295887990154,0.4751639596665103
324,0.47470747379900263,0.4717810696612782
325,0.4748505008020561,0.47403939558750263
326,0.4751541738411029,0.471971397712274
327,0.47460674795267777,0.47039652444663344
328,0.47502309331695713,0.4721138030172994
329,0.4747267615952366,0.4724478702095426
330,0.4747996499403108,0.47301627273341285
331,0.47485348886008455,0.47303024249558573
332,0.4746633700424914,0.47171136847423023
333,0.47460477393594,0.47464610190493156
334,0.47483431606841603,0.47440262377591425
335,0.47488196879077393,0.473596336456764
336,0.4749784778228862,0.4737902061856442
337,0.47483689556543013,0.4718939648336939
338,0.4747352063250866,0.47094141470228673
339,0.47476443106369626,0.47521776831234736
340,0.4750017376302434,0.47495293069186884
341,0.47476294165034943,0.4711062622616022
342,0.47477846265696794,0.4723991330157327
343,0.4750655028197786,0.4735097883955738
344,0.474689783928968,0.47158440293622184
345,0.47484419771807374,0.47237832784276357
346,0.4746919359973104,0.46991019728339933
347,0.4745389810688109,0.4711971855248253
348,0.474752001065335,0.47488633136911096
349,0.47440905805876693,0.4747014079586953
350,0.4749781135484564,0.4718802752650998
351,0.47506904082713747,0.4728091428293049
352,0.47470719427418273,0.47048495805160023
353,0.47504117099834764,0.473539084007915
354,0.47472937266937165,0.47485658225339517
355,0.4747441169812525,0.47250259054299876
356,0.4749316761104895,0.4731735644278417
357,0.47470548501212917,0.47104770831922516
358,0.47461853564071427,0.47292089666921316
359,0.4744899674332876,0.4732394905756474
360,0.4744632293185075,0.47146537060237065
361,0.474490037603344,0.4729288401054226
362,0.474720196496192,0.4716815603654405
363,0.474796022025706,0.4733594925787473
364,0.4746204425009797,0.4723442867692286
365,0.47475132870254855,0.4752523340196617
366,0.4744729487587222,0.47131543241341284
367,0.4750010443510388,0.474409949737171
368,0.4747269455787185,0.4714904404006422
369,0.47418678750237114,0.4713216930651345
370,0.47488339459724566,0.47181870437270557
371,0.4746338957004982,0.47155916662600067
372,0.47473351664537433,0.47063226375696504
373,0.4749576471072974,0.47324612927229837
374,0.47477573542286167,0.4709432716198389
375,0.4749008084444119,0.4736704360620187
376,0.4747113570106401,0.47031617470397286
377,0.47486891264585757,0.4726461553394842
378,0.47537163948174194,0.47208654567681624
379,0.47465136630548466,0.474779691038493
380,0.47464023098099434,0.47163572258241737
381,0.474698267656741,0.47518081818402236
382,0.47526012592130806,0.4736016136318469
383,0.4748414014693168,0.47294608478293987
384,0.4747363401593255,0.4733794026470787
385,0.475004195654802,0.47312404978623424
386,0.4746145154956243,0.4705515797672633
387,0.47484269968087345,0.47391744815371784
388,0.47474460040541483,0.4711197327231458
389,0.47443268240260467,0.47440287609597126
390,0.4745911227332221,0.47180349836691965
391,0.47480057301424106,0.4722360079694942
392,0.4743896837857702,0.4712205345036011
393,0.4752033238621543,0.4712274116423531
394,0.47480711224172517,0.4745240691570005
395,0.4744664399886875,0.4710206054474485
396,0.4748323305690889,0.47107535269002604
397,0.4744702965545235,0.4706713934300354
398,0.47450985246710925,0.4723647362431298
399,0.4749661468082576,0.47333437646573795
400,0.47506516863354487,0.4733299512560196
401,0.4746680969385792,0.4723560661195109
402,0.4750902201417539,0.4740936586775927
403,0.4749397485138034,0.4761310120737261
404,0.4752861992965976,0.4707218852443966
405,0.47448955763348766,0.47069292449066746
406,0.4747039996963039,0.474745044298029
407,0.4747937447447285,0.4719356948828829
408,0.4752935066068773,0.47614310762970674
409,0.4745230880215299,0.47306461391151655
410,0.4744957273455261,0.4737128457311767
411,0.4750445459981998,0.4718674420604766
412,0.4748581498980427,0.47491593373132296
413,0.4748837216485509,0.47646607972546273
414,0.4746327876901741,0.4752852745948105
415,0.47502136513960064,0.4733320044878438
416,0.47432154526622844,0.4710461783804288
417,0.47475439161181354,0.47128109933827556
418,0.4748314038145361,0.47175169205138695
419,0.47522046267509843,0.47120182504311453
420,0.47448566748941545,0.4728271077962588
421,0.47444342030323955,0.47281888498973923
422,0.47508754597293384,0.4728312781220265
423,0.4748375401270094,0.47519454164775976
424,0.4750736604491584,0.4726621369818768
425,0.47512948511839864,0.4716464237331309
426,0.4746998779350619,0.4722737041908451
427,0.47478043660223723,0.4717610563785896
428,0.4754437665811641,0.4708057300914623
429,0.47511221152796546,0.47211155575283326
430,0.4749811306703005,0.47414433934976474
431,0.4746145998402465,0.4725215865479931
432,0.4745262777157348,0.47186157528396283
433,0.4751339927017927,0.4715410751109059
434,0.4746597584465044,0.4719651152321741
435,0.47454539236786075,0.47445187050240567
436,0.47469010996780425,0.47073689785263345
437,0.4746728862265793,0.4760454815489717
438,0.4748280848339974,0.4724597242185236
439,0.4745280471780031,0.4730040268956345
440,0.4746656459298351,0.47255910282635555
441,0.4745384581583581,0.4706896796834309
442,0.47506797547153623,0.4777805862599879
443,0.47489374442447385,0.4724327577505887
444,0.47521229189553327,0.4705885278491778
445,0.4750173343933648,0.47292195177021795
446,0.4746801121105298,0.47438459414709433
447,0.4747191925081227,0.47346832757873053
448,0.47518955769060517,0.4733224394242408
449,0.47472291929925753,0.47133684729908804
450,0.47487298368835906,0.47468423083624506
451,0.47535513815500563,0.47421686463028595
452,0.474591346607982,0.4733062299481507
453,0.47462837284893916,0.471706377914221
454,0.4747511781067204,0.47273126202205457
455,0.47491102114760525,0.47136331218476357
456,0.47450380284580396,0.4726610104446818
457,0.47516421130378184,0.47117431448873986
458,0.47524475630858154,0.4733500718223644
459,0.47494849007573725,0.47140018240899295
460,0.47512609637279113,0.4712137900286993
461,0.4748445953206002,0.47260421782661444
462,0.47495258825240755,0.4724483100937028
463,0.47517689480055436,0.4710929529960455
464,0.4752481136438277,0.47173867530491564
465,0.47471457080160684,0.47228829375664455
466,0.47479760290669215,0.47200606301156384
467,0.4744473388917345,0.47247698173903063
468,0.47469408306286487,0.4714934152463523
469,0.4748105556011009,0.470425299024055
470,0.47474896837529135,0.4713308598784452
471,0.4751114165254062,0.4758353536770677
472,0.47512980368878727,0.47561227677841306
473,0.4749108563652999,0.4714979313684432
474,0.4748257706515032,0.47345404972593524
475,0.4748972991435267,0.4710191062048089
476,0.47440748922020604,0.47651975128532115
477,0.4747753904687224,0.47185898088242184
478,0.47490002038619883,0.4720810127239483
479,0.47497583814948013,0.47956527775446073
480,0.47528802942362525,0.47253945382825013
481,0.47484990554176076,0.47471963968818925
482,0.475044990722224,0.472210442516497
483,0.47481277459959903,0.47146303026151165
484,0.4749106105973871,0.47627720326161704
485,0.4756664538340603,0.4711419341360949
486,0.4748366033311466,0.4727376396014357
487,0.47498637885689066,0.47508244958559925
488,0.4749413535630198,0.47353377714811956
489,0.4749594356397168,0.47117748722469327
490,0.4751084218565509,0.4726080673128578
491,0.47508334763330234,0.4730230526559073
492,0.4749519351384432,0.4753419470391879
493,0.4749027155905509,0.47874166623004893
494,0.4750498428071241,0.472890039081167
495,0.47470153263099285,0.47514627486961325
496,0.4749975479263768,0.4736868311263674
497,0.4750779583561811,0.4711511107580626
498,0.4751852482176132,0.47254371478412693
499,0.474900208907924,0.4731378098266183
500,0.47469011133761524,0.4709665399418163
