epoch,loss,val_loss
0,0.6720157806343503,0.5618626726865769
1,0.5617706376579072,0.5615297666788102
2,0.5613629619148043,0.5610053203105927
3,0.5611700728601879,0.5613882185618083
4,0.486339208331373,0.45103536609808603
5,0.386616416712602,0.34123634882767995
6,0.34141425172487894,0.342105118393898
7,0.3413660593761338,0.3418415337403615
8,0.3412646853791343,0.3410547068913778
9,0.3412186078098085,0.34122735450665154
10,0.34117444309923384,0.34107691593964895
11,0.34112312996387484,0.34125282675027846
12,0.34109642393721473,0.3407569125890732
13,0.3411028392646048,0.3411576838493347
14,0.34106961623165344,0.34090235286951065
15,0.3410359368655417,0.34110793884595236
16,0.3410475502808889,0.6507110222578049
17,0.584317975587315,0.560693457643191
18,0.5608438459502326,0.5606033447186152
19,0.560778943710857,0.5607062406539917
20,0.5606835464371576,0.5604712328116099
21,0.5606585403945711,0.5604524207909902
22,0.5606471385690901,0.5604844739039739
23,0.5605965375900268,0.5603761511246363
24,0.5606188722319073,0.5605560021003088
25,0.5605869047111935,0.5604438984791438
26,0.5605770583550135,0.5605263979832331
27,0.5218773709668053,0.45056771230697634
28,0.4510713777012295,0.4509307808279991
29,0.45075723083813984,0.450492533882459
30,0.45074626883533264,0.4505117884874344
31,0.4507222123344739,0.4506120074590047
32,0.4507103593879276,0.45037838178873063
