epoch,loss,val_loss
0,0.7822698717514673,0.780791558265686
1,0.6727688552406099,0.6709732466141383
2,0.6709729684723749,0.6708440737724304
3,0.6712395097812017,0.6708607831001282
4,0.6708339042796029,0.6706949312289556
5,0.6707266190316942,0.6706645782391231
6,0.6706602675649855,0.6704681560993194
7,0.6706174459589852,0.6705208802223206
8,0.6705686302185059,0.6704842661221823
9,0.6705407521459792,0.6703745285669963
10,0.6705331031216516,0.670413145105044
11,0.6705033639536964,0.6706913700103759
12,0.6707162242068184,0.6705030032793681
13,0.6705088950660494,0.670506961385409
14,0.670473342233234,0.6703570977449417
15,0.6704653196864658,0.6703329744338989
16,0.6131637336015702,0.5607798078854879
17,0.5606136880053414,0.5603938421408335
18,0.5605796076721615,0.5607028081814448
19,0.5605774222612381,0.5603789846897125
20,0.5605674722592036,0.5612225557963053
21,0.5607690959506565,0.560965548714002
22,0.5605684414969551,0.5602902198235193
23,0.5605505557722515,0.5603429867426555
24,0.5605371180772781,0.5603992360830307
25,0.5605555007192824,0.5675275121927261
26,0.560665126045545,0.5604752441644668
27,0.5605115935140186,0.5602898989915848
28,0.5605219264560276,0.5609979263941447
29,0.5605234370628993,0.5603302198251089
30,0.5604834848244985,0.5603596491416295
31,0.560504547490014,0.5607374934752782
32,0.5604794578552246,0.5602401481072108
33,0.5604780822330051,0.5611049619515737
34,0.5604540130959617,0.560436640103658
35,0.5604656221336789,0.5603605517546336
36,0.5604581514729394,0.560419268488884
37,0.5604655834171507,0.5604435476064682
38,0.5604393616252475,0.5602524911165238
39,0.5604707518286175,0.5604563026825587
40,0.5604692947864532,0.5603801200389862
41,0.5604651156398985,0.560592645963033
42,0.5607367211315367,0.5602514375050862
43,0.5604242227607303,0.5602246572176616
44,0.5604339277346929,0.5602718399763107
45,0.5604420699675878,0.5601685410737991
46,0.5604376918739743,0.5602205595572789
47,0.560434183663792,0.5604910601774852
48,0.5604228956964281,0.5602418833971023
49,0.5604396139250861,0.5603582454125087
50,0.5604355347686344,0.5607187281449636
51,0.5604293672111299,0.56023590362072
52,0.5604293380975723,0.5604242870807647
53,0.560423746559355,0.5608231526215871
54,0.5604315108855565,0.560235717455546
55,0.5604222742981381,0.5604761850833893
56,0.5604114297893312,0.5604341265757878
57,0.5604225898053911,0.5602866003115972
58,0.5604144878122541,0.560518128712972
59,0.5604206540452109,0.5602726826270421
60,0.5604199602868822,0.5602596698204676
61,0.5604085847669178,0.560294660449028
62,0.5604038909276327,0.5603619310855865
63,0.5603977506160736,0.560213237841924
64,0.5604232289658653,0.5603558803796769
65,0.5604162797000674,0.5602209075689316
