epoch,loss,val_loss
0,0.49752662345778953,0.43712262513187006
1,0.4089088038719588,0.39315964060398206
2,0.399443374766265,0.3939740007134443
3,0.4025292924946074,0.3981276628744863
4,0.4032065050185824,0.4025669596297704
5,0.4026129421851843,0.39547675903599533
6,0.40382701264704773,0.39072780928665896
7,0.4040134318405576,0.40193560692902414
8,0.39123346203799436,0.3702834538106307
9,0.3748309254598579,0.3651778352811679
10,0.3733258021054409,0.36216030119399373
11,0.3733206259741413,0.36949699413747394
12,0.37286220308396223,0.36837592991695883
13,0.3727440218075072,0.3726388451440104
14,0.3732358892623475,0.3652886698039102
15,0.372839302361441,0.3718950334401606
16,0.3726141247346556,0.37570432722810215
17,0.37270366935562,0.36865164244068604
18,0.37261688041152524,0.3658498452624362
19,0.37308946751756034,0.3681375545790209
20,0.37198840254683607,0.36153748699154975
21,0.37227061456494376,0.36785420823754666
22,0.3714186699391366,0.3650131727367132
23,0.3724024292227743,0.372904973961141
24,0.37071187605707046,0.36261608780928967
25,0.3709838738958773,0.36385222638610504
26,0.3702079524174989,0.3603957311128661
27,0.3642242468291039,0.3120455544166998
28,0.27433957594981473,0.24486310493627023
29,0.21509280211454015,0.1804727705049012
30,0.22234844771908033,0.24138022014162738
31,0.21406373295715278,0.20070868816350595
32,0.21247583575803247,0.23258825741400105
33,0.3234884033234621,0.41381764022779965
34,0.4122547014557523,0.38807930019650144
35,0.4008780947153429,0.2698867235450559
36,0.29897004618847056,0.29682816888922514
37,0.29089828839509174,0.2898129477480612
38,0.28398222112364535,0.27988493838932876
39,0.28913021402014455,0.2314327938568273
40,0.250837697809319,0.28171922161341295
41,0.21634755526677527,0.19757768492435693
42,0.1737337011584432,0.1905697223768907
43,0.17097024813151246,0.2691881627883741
44,0.2337911679082102,0.43929780443219374
45,0.29606271523824207,0.24141497458032932
46,0.2730660781538706,0.1965801108081652
47,0.26104131309364775,0.1518350384785021
48,0.2609540022569623,0.21362718412862594
49,0.28972251715662006,0.30160599807994887
50,0.39939632002499886,0.40039542508338005
51,0.3888944988851074,0.39071423030441016
52,0.39623421176468687,0.3951413187425695
53,0.4007286811657578,0.39247629295397074
54,0.40131195264162306,0.39755183023257845
55,0.3992483700342995,0.3922824272515807
56,0.3986588396650968,0.3958296727960127
57,0.397894379840172,0.3971509177899419
58,0.396965588005282,0.3914239915859767
59,0.39695488564294273,0.3858339892638377
60,0.395971165324231,0.3919458907257708
61,0.3974097079282002,0.3896584078874998
62,0.3966060793929524,0.4017436369975601
63,0.39731518598534377,0.3893840552488189
64,0.3949701203237637,0.3880953206488106
65,0.39465513046356654,0.3940863471541672
66,0.39637185040238,0.39201058371223674
67,0.4001676934518463,0.3921318560572823
68,0.4050719243488472,0.39867344875695354
69,0.40766523368030283,0.40642852475753377
70,0.41267933969119724,0.4102932227305639
71,0.41266726763893646,0.40939618747406437
72,0.41143545682569616,0.4100543540953043
73,0.4095885016209035,0.4030617129628676
74,0.4083011636049677,0.40676297393641814
75,0.40638809123212954,0.3996072815427525
76,0.40301905331418836,0.3964605442605556
77,0.4018451503341536,0.3994613768410509
78,0.4005997693949074,0.3963270958902772
79,0.3990014856748337,0.39703629211207664
80,0.40045200248925183,0.3993807738859868
81,0.398380584734454,0.39387435230992235
82,0.3938772809968365,0.3944619466933601
83,0.39221782871395994,0.3911129374477018
84,0.3877495894010206,0.38696704305774876
85,0.3835028221575712,0.3835744208808073
86,0.3776456925203745,0.36883241039703074
87,0.3762098731065961,0.3740485634198541
88,0.37360935464346284,0.36986663222119565
89,0.37029300476189514,0.3740379981944354
90,0.36875843229868394,0.36009812449306755
91,0.36726180136537817,0.36065154549849293
92,0.3693604543148946,0.36027037476197743
93,0.36877826100783506,0.36247005140210975
94,0.37034577985493256,0.3683892057759918
95,0.370602071869841,0.3690821446496495
96,0.3703367422111899,0.3674233928745777
97,0.3726757187142765,0.3667416259803524
98,0.3718551672082409,0.3641582937232866
99,0.371437438625732,0.3640628299718936
100,0.3727078831988015,0.37247611353867244
101,0.3730315896417734,0.3707029212081906
102,0.37369366528226244,0.37298502046116366
103,0.3757035166406937,0.3691495095242936
104,0.37590652760312115,0.3681652487194451
105,0.3763224291052219,0.37230904377386614
106,0.376421489591022,0.37018185510735924
107,0.3763883611242517,0.3727191310777765
108,0.37603178419906486,0.3706897718821322
109,0.37564927831089334,0.3680632334362658
110,0.3749018075515787,0.37796870920586567
111,0.37621667185385194,0.3631218656329536
112,0.3763411299551459,0.3760959872944222
113,0.3768705186889685,0.3688967175969049
114,0.3757163319495127,0.37751291966592987
115,0.3747627580161091,0.36677416484721387
116,0.37552137993830886,0.3661752735707978
117,0.37618536130488633,0.3664478393270055
118,0.37543111938157014,0.36407052337011475
119,0.3765577381018928,0.3702471664738868
120,0.37587009477701255,0.36881680260899585
121,0.3769350718912647,0.37099666401610953
122,0.37698645562864097,0.3672350677695588
123,0.37549673675822676,0.3678036543139576
124,0.37610211655843534,0.3775460092835763
125,0.3749890600303538,0.3664565681202665
126,0.37493860351743463,0.3668969259064853
127,0.3757232356849339,0.3687418007019179
128,0.37632362299961886,0.37127514796245414
129,0.3761664862103993,0.3685817103606361
130,0.3767823817087613,0.3682182826168249
131,0.37691610060137115,0.3750667377690039
132,0.3765771484928574,0.3668246729192169
133,0.3763836212903619,0.37336932397043426
134,0.37577552656778057,0.368632921119676
135,0.3740394315760645,0.3699261048946164
136,0.37539497418724316,0.3643616672124886
137,0.37582479491293,0.3714828559130261
138,0.3746910302327861,0.3798099043208801
139,0.37519358407506187,0.3767447460016775
140,0.375015162820335,0.376291931110577
141,0.3762001830091278,0.36143826805085355
142,0.37550325830093473,0.3763029332191888
143,0.3754853909019473,0.37645382696984747
144,0.3773773521590557,0.3811518720805113
145,0.36996063182027555,0.36201195069569836
146,0.36480040745653086,0.3603276281896299
147,0.3649565633460939,0.3734233586505865
148,0.368212078789695,0.3686749291004249
149,0.3716563635153041,0.3672846893614516
150,0.3773428260254039,0.3767499277626511
151,0.37688152395409524,0.3768706776848288
152,0.388086773127055,0.4700168863555231
153,0.3991366378587184,0.38096441392577574
154,0.386773686429517,0.3890819055513937
155,0.3983153342556438,0.3862404004162342
156,0.3809729066130827,0.37450917453081356
157,0.3862751989936332,0.38388851881994046
158,0.3900913386892757,0.39105546114315176
159,0.39214598295018616,0.3902868627776775
160,0.39383158603126855,0.39006677707423065
161,0.3931458074393704,0.3894330016597924
162,0.39342563281400955,0.3877511741374434
163,0.3943842229268568,0.388255498366731
164,0.3947915159839931,0.3941055625217868
165,0.3950094004169858,0.39632146052007067
166,0.3947454229462519,0.3878485041958282
167,0.3940252257261971,0.38477245229390805
168,0.39348778641634313,0.3886888022357047
169,0.39299843802129486,0.38778705683454495
170,0.3928049410983407,0.3886180324517704
171,0.3894515932322121,0.38749231534669387
172,0.3899651252335792,0.3858175006032667
173,0.39075444779508683,0.38536065067591363
174,0.3897851993910688,0.3832112007622591
175,0.3888730834110724,0.38591499963816067
176,0.3855307935666236,0.3830454303110313
177,0.38701663319591145,0.3818643399350351
178,0.38754361018454964,0.38398016470772217
179,0.38740776497139945,0.3822481193536679
180,0.3876957144615076,0.3821728424820973
181,0.38714624341246223,0.38281827377093486
182,0.38667329206907625,0.3894217871159726
183,0.38480459916009435,0.38234532950181643
184,0.3848116861714469,0.3825165301633867
185,0.3848369317927105,0.37856286918836596
186,0.38447789899151835,0.3821721817793541
187,0.3845980818912065,0.38598054536261023
188,0.38564847093567645,0.3838954184805583
189,0.3849308545991265,0.3769841010456441
190,0.386342895124033,0.3800049831445683
191,0.38614279312119665,0.383296666499182
192,0.38762130690298624,0.3899065293824876
193,0.3889863087927656,0.3844731949686714
194,0.38995795915897985,0.38231678168075606
195,0.3941345462162462,0.38475949993388786
196,0.3943099062546813,0.39335116664278535
197,0.39303813459541054,0.38913175120454246
198,0.3950114956825041,0.39190847694342057
199,0.3967127967730248,0.39404471282638
200,0.39451259781447673,0.38889976035552787
201,0.3956756016628756,0.39538107102998177
202,0.3961342613013675,0.40135681012831176
203,0.3940458791651088,0.39216186271773446
204,0.39701380719653695,0.38750499390240906
205,0.392729710707004,0.39071055695668333
206,0.3951238375768555,0.3799792798862937
207,0.39532960160337893,0.3672229193712963
208,0.3971176874265373,0.3669241891096785
209,0.3901295458988918,0.3700021695336576
210,0.3483745797848205,0.22473815963312754
211,0.23894801938696036,0.22068301383451244
212,0.23272860946179963,0.21484189185057823
213,0.2301756082187661,0.2163882232954709
214,0.22689013078128747,0.22354354007835806
215,0.2216396455207856,0.21551897233565068
216,0.21930635205691484,0.21921518370086163
217,0.2150836101381945,0.22256994035943967
218,0.1936570283970993,0.19155257999510275
219,0.16168452041436904,0.13829339313149355
220,0.15859472507937514,0.15507288430632368
221,0.19142695357076067,0.17141928865188327
222,0.18470655879776796,0.2044024136693905
223,0.1695597455311146,0.16776217302701768
224,0.18430855520385755,0.14978464770781152
225,0.1741443228176396,0.17944424267667924
226,0.16598961590300854,0.14882869526006687
227,0.1632796945818383,0.1294339977367951
228,0.156222339797082,0.1413739872650702
229,0.1466170552136709,0.15161772273535276
230,0.1417475676714324,0.13832821826913544
231,0.14298817325678703,0.12868746530207212
232,0.14771585858123507,0.1296090822718246
233,0.14244980885206557,0.14265149265576066
234,0.14703015435197717,0.15638234425828598
235,0.15488677682150737,0.12727654460041096
236,0.15516303292064784,0.1294695432422515
237,0.161671699736837,0.1642831079933765
238,0.15868170824859312,0.1469717896924885
239,0.1620480579057868,0.12957612814839448
240,0.1644175234463236,0.159805486587519
241,0.16346337917365963,0.1536094472476939
242,0.15594413285975078,0.18171070008527335
243,0.1653680138176589,0.13187293559071114
244,0.16934500694322624,0.1671541298332489
245,0.164699862705912,0.15834850178002732
246,0.1747215102859933,0.17877801236396676
247,0.17406474719281861,0.1839401528227165
248,0.1791188601461098,0.18393840164018663
249,0.2031034089153628,0.5015945377286043
250,0.4597358242381182,0.3708013416980208
251,0.37349113685975943,0.35343527752794296
252,0.36419094702880606,0.3519259245532949
253,0.35869810108044703,0.34976243549793207
254,0.36130754709291496,0.35944353388463784
255,0.36007416130209846,0.35051395614168457
256,0.34493809261376424,0.32980712629486075
257,0.3432306881376607,0.3344765715693809
258,0.3450416117023715,0.3333919250858768
259,0.216607339733882,0.1525213881082295
260,0.14271867455089923,0.12274230215985506
261,0.12832364894515327,0.10881677274769723
262,0.12454597492686646,0.12490746244147649
263,0.12858971224141846,0.12209017198934656
264,0.13224196243431685,0.1256840997658797
265,0.13866518586098528,0.12726821734691576
266,0.14270147626952615,0.13736853422861417
267,0.1425664615396073,0.1457075005199304
268,0.1455098271035881,0.13151554429763135
269,0.14710548065835424,0.13740110629376415
270,0.15679000180253416,0.14986765843310784
271,0.1742280094061879,0.1816688232661647
272,0.18849079912189867,0.17692129191884354
273,0.18418179889074604,0.17316847335054733
274,0.18414285813001177,0.171521597631753
275,0.18372049544146768,0.1674246698231206
276,0.1825200993600514,0.1702170084379402
277,0.18485520822439697,0.1675240882435951
278,0.18530831278396473,0.17589079219446083
279,0.18569147438288117,0.17596487784327672
280,0.18686142422443777,0.17972568020720067
281,0.1871621956268819,0.17320894865078937
282,0.18764667987847347,0.18425517680919568
283,0.18983056220271474,0.18053046382498375
284,0.18999424481315552,0.1838164544163539
285,0.18998218902212988,0.18531264438439654
286,0.19136897871215597,0.18998983205089895
287,0.19339024240942934,0.1755364193835591
288,0.19318348465799046,0.18690927929735146
289,0.19414234760286714,0.17902662624987953
290,0.19246765417609815,0.18802955338167932
291,0.19378882498026276,0.1892774853513962
292,0.1969285536769202,0.1878378996980548
293,0.199085382614926,0.19215531134789104
294,0.21044573866075472,0.22216600849197246
295,0.23611621401780505,0.22388722176534415
296,0.22291406730206323,0.20796940485974783
297,0.21749566447100133,0.21607952471293768
298,0.21955289601611558,0.2027974974089102
299,0.2128828502505469,0.20326621477572973
300,0.20964278379757945,0.18257265670311132
301,0.19813947827578354,0.18859617442303525
302,0.19216624821563832,0.17994398213409352
303,0.17619152585740944,0.15350795586178773
304,0.1682492284875235,0.1500688254688198
305,0.16547948758515288,0.1497259491575702
306,0.15415637774931326,0.12947060122469625
307,0.14755216727347922,0.12866266430125234
308,0.1385343904980571,0.13361996820759986
309,0.12956274060414638,0.11345229611489605
310,0.12988170999004614,0.11909820375675509
311,0.12665440953128618,0.1148354053642338
312,0.12266556462876982,0.11934802907202559
313,0.12362368923542594,0.12743754139274285
314,0.12614090588268898,0.0920843596888188
315,0.12359766295557026,0.1290017993937927
316,0.11940448662882046,0.09555136560426915
317,0.1183735959953647,0.11725274568902508
318,0.11936987965428132,0.08995627563534378
319,0.11621780159642355,0.08471023357516368
320,0.1181270558926895,0.09387497849828909
321,0.11933440435603201,0.1069477470433045
322,0.11902071781355061,0.10742182945658885
323,0.11805510588342233,0.0873775287695223
324,0.11582400143337403,0.1091119736759332
325,0.12072507735547588,0.11731443725169817
326,0.11790566038402965,0.07964981482979831
327,0.1201109146987132,0.10606931770539148
328,0.11703397298725345,0.09976757857389597
329,0.11644100035138852,0.10494247096419237
330,0.11753945344920345,0.09488804133824962
331,0.11993674051055343,0.11236936942842658
332,0.12166827948714753,0.11311255110199628
333,0.12142235171005095,0.108443823572783
334,0.12411444405730578,0.0917506491386204
335,0.12660310593984717,0.11536776788671715
336,0.1302715561914148,0.11381688422771943
337,0.1315300264675394,0.11228403791676472
338,0.13127336247538546,0.1325859075226343
339,0.13145232476813015,0.11269562020716586
340,0.13236287538949446,0.11455096218006841
341,0.13552071472959484,0.11595616402030474
342,0.13437411494499402,0.11586110414718093
343,0.1311751792253591,0.14341193268986513
344,0.13261033424897323,0.11375221056563044
345,0.13274949496750643,0.1190496124901234
346,0.13491415982250216,0.1148896007364297
347,0.13546014389841912,0.12056623251817135
348,0.13439640350896326,0.11740320487686608
349,0.13663625679582095,0.10455923431401125
350,0.1380745841233467,0.12857608307403756
351,0.14099420881789146,0.11981503690826342
352,0.14322411455661416,0.13080176925596337
353,0.14337792700593524,0.13628709832899763
354,0.14124327234691195,0.11609582344956836
355,0.14159688433770945,0.1114945718165055
356,0.13648546354068194,0.12333758779637521
357,0.13651992478150668,0.10738044572935197
358,0.1369622064600762,0.11148755627609518
359,0.13650030941904498,0.12660778962855213
360,0.1374388498017748,0.11678576262158682
361,0.13242410940287397,0.1047686962569427
362,0.13345666503827508,0.11992527291311642
363,0.12793102893259548,0.13376175020636336
364,0.13380980961698832,0.11062983483897895
365,0.1332505696518026,0.11251268214383747
366,0.1363291164265097,0.1162382921284036
367,0.13786815325494667,0.13150202051493953
368,0.14268232028695751,0.15475443545774242
369,0.14101441123122402,0.1147370513253645
370,0.13908780890228367,0.12771705458271532
371,0.13647386083920732,0.1084632152587248
372,0.13377342752521756,0.10888960147208541
373,0.13234541181018583,0.12284589353389887
374,0.13140798530416836,0.10544564169495452
375,0.13262937342326006,0.10773294377960234
376,0.13360637150185886,0.11732060105116118
377,0.1351325289190436,0.10916681981072228
378,0.13627560864433086,0.12038584170139426
379,0.1344788997047085,0.12490545895437061
380,0.13594214860543763,0.12036427224035294
381,0.1373916396750413,0.12584573791845002
382,0.13752945331189992,0.12368284551984202
383,0.13791955693709174,0.11405380206773268
384,0.13895107205327842,0.13478943226377071
385,0.14221423755797316,0.10778728622976397
386,0.14094454245127325,0.11713730516659952
387,0.13873061913552526,0.12433383018624367
388,0.13988557177557767,0.11684820433626887
389,0.13980035730499663,0.11978673626761657
390,0.13757730298955217,0.12138891583255704
391,0.14122350946414747,0.14023625364848877
392,0.1419802745781821,0.12968095729772577
393,0.14159003317690164,0.12903135914630456
394,0.13927121211090882,0.1229923319763414
395,0.14168482952959258,0.12093027890187787
396,0.14081030733603014,0.1365682648831717
397,0.13735411430092406,0.1295866532566967
398,0.13822006562753045,0.11831202438978866
399,0.13764094886443823,0.1289406146035384
400,0.13572737109587132,0.1233374856696415
401,0.13842239197764136,0.12001519291892056
402,0.14020046588179585,0.1315863261547692
403,0.1434545995379754,0.1346710197089749
404,0.145535373987199,0.13811043122993286
405,0.14381258844064654,0.12991690135350192
406,0.14267601732543414,0.151436418373461
407,0.14643851093786825,0.13165646465759595
408,0.1473482752515613,0.11840058044988937
409,0.14693411721216382,0.12853997889588928
410,0.14461802347921868,0.13590369688381726
411,0.14435959180848326,0.13751835983310012
412,0.14209176335421153,0.127556274872385
413,0.14465219872273666,0.13209855535943046
414,0.14512830734360305,0.11585458164425855
415,0.14331605902211583,0.12943273715052483
416,0.14303984528510355,0.11944079130815473
417,0.14236230992550272,0.137633110037782
418,0.14373922091517286,0.1339026151250652
419,0.14470758472231504,0.1389742549705196
420,0.14412273243487214,0.12972818930774613
421,0.14095750568304852,0.13744531968866822
422,0.1415855875305885,0.12042129314704726
423,0.14013637651840719,0.13448651900570854
424,0.1390180344416725,0.12649976325562015
425,0.1358313477897138,0.11615018580420078
426,0.1343977632250091,0.1231436828772227
427,0.1354602321660261,0.1487453604375359
428,0.13367171230926525,0.10995669261116568
429,0.13428696572446555,0.11640778099944316
430,0.1334733270060978,0.11417420671320697
431,0.13121993820651995,0.11687302832935074
432,0.13138557917433227,0.11984734380404735
433,0.13468672377202776,0.12744868637363987
434,0.135830782807236,0.11581298770550684
435,0.13480127146773285,0.12185471031787622
436,0.1341027162277145,0.11557821350569467
437,0.1321831489916894,0.12190982966479111
438,0.1327039945462019,0.11713939607264255
439,0.1346371003103743,0.10876307583928398
440,0.12967861702052758,0.10406889640163428
441,0.131406016731329,0.11042712347858434
442,0.130981073245776,0.1209917487357558
443,0.1321386134742593,0.12284575029301237
444,0.12860144508646143,0.10734646847745025
445,0.1305621677936555,0.126514516867522
446,0.1306655001464942,0.1125414590052928
447,0.12813776517935616,0.10627567021830335
448,0.12622870550788431,0.09704882985725696
449,0.12618794112956172,0.119460801954252
450,0.1252817349721662,0.10627672734873525
451,0.1266896466555311,0.10084186201282178
452,0.12565085207454388,0.11045927532011188
453,0.1235173581372365,0.11226520364664477
454,0.12303533959534285,0.11632335828337743
455,0.12182512586478522,0.102982526290059
456,0.12363171480220256,0.10484463285839084
457,0.1230063669389491,0.11791345128443603
458,0.126589733239314,0.09204331549173048
459,0.12435160172257641,0.12228978391425549
460,0.12454189268873633,0.11145796541000708
461,0.12847831267252074,0.11378175901235456
462,0.12887045449679427,0.10134788887199114
463,0.12626690629294055,0.13576753210919906
464,0.12757607199866072,0.10818542631317325
465,0.12798537266216248,0.1132934161878077
466,0.12798091550890783,0.10700115598949686
467,0.12761730783349806,0.11517337035306179
468,0.12923390032936805,0.1051941695838369
469,0.12899628161990329,0.11022813561986543
470,0.12788640622428363,0.10686885746194402
471,0.1272707229541291,0.11006733100779735
472,0.12789150794223847,0.12362374306716091
473,0.129866558533487,0.12531219879036887
474,0.12574592599267956,0.10499551335148762
475,0.12714534077504044,0.11105505040478919
476,0.1261287695371074,0.10567993630820527
477,0.12393847184540559,0.11512851448003006
478,0.12618365816420035,0.11939359355388574
479,0.12790190769408682,0.12672355383731249
480,0.1294672688166555,0.11750228185771638
481,0.12694291138739658,0.11973713820578118
482,0.12616300630905897,0.11285682577286324
483,0.12972837979133556,0.11141089082295974
484,0.1283250620500673,0.11683267319313607
485,0.1292087794471684,0.11469075054727912
486,0.13134056551037454,0.11780677132145331
487,0.13074936783067984,0.10481351464140831
488,0.12970378506985353,0.11755412469549287
489,0.12992515517555303,0.12000971424052702
490,0.1308401209370101,0.10429645529725352
491,0.1290359685870053,0.11004481899694804
492,0.12831135889033587,0.11934382843105945
493,0.12998569575104835,0.11880420916997023
494,0.13199183307856535,0.10275234555748547
495,0.12786178053129282,0.10694745862184263
496,0.12664519336590585,0.10237146631813784
497,0.12439168516018564,0.1144415211455182
498,0.1272797616984579,0.10382326494748285
499,0.12964457113913194,0.11537941656432689
500,0.13303846183171072,0.1269154756330709
