epoch,loss,val_loss
0,0.3841694200436274,0.3440951401988665
1,0.34269198528263306,0.34177874779701234
2,0.34199489853779474,0.34158695298433306
3,0.3415780232946078,0.3409472564458847
4,0.34139943442079757,0.34097138251860937
5,0.3412342167430454,0.34127293330430986
6,0.3411270226173931,0.3409871898094813
7,0.3410827362537384,0.34083937710523604
8,0.341038316918744,0.34100091286500295
9,0.34097628622584875,0.3407189986109734
10,0.34099248610602484,0.3406929712891579
11,0.3409212895168198,0.34065628045797347
12,0.3409204225871298,0.34131856401761373
13,0.34088614083660973,0.3414676571091016
14,0.340879357278347,0.34051629875103634
15,0.34087513011693954,0.3405448995828629
16,0.340823303507434,0.34077660405635835
17,0.3408257401254442,0.3404699374039968
18,0.3407936958604389,0.3405646665096283
19,0.3407623654007912,0.3405934360424678
20,0.3408096563882298,0.34277657000223793
21,0.34077665066056784,0.3406334205468496
22,0.34077246033483083,0.34046220521132153
23,0.34075177221165764,0.34092643028497693
24,0.3407663145528899,0.3412562951644262
25,0.34076378247472977,0.34160915585358936
26,0.34071690085199147,0.3403912938833237
27,0.34074055598841774,0.34305606738726296
28,0.34072452465693154,0.34050384716192883
29,0.340736393140422,0.3404445497194926
30,0.34070169821712704,0.34062517003218334
31,0.34072302932209436,0.34071835402647654
32,0.34070243556631935,0.34108644592761994
33,0.3407264522843891,0.3403372876842817
34,0.3407155797812674,0.3407505396405856
35,0.3407175857755873,0.3406780360539754
36,0.3406984041929245,0.3408376298944155
37,0.340675080133809,0.34050342309474946
38,0.34072164304388897,0.3408796824415525
39,0.3406926450530688,0.34043372195959093
40,0.34069487724701564,0.34042668565114337
41,0.3406649383306503,0.34051391369104383
42,0.3406535319487254,0.3417059121330579
43,0.3406546692384614,0.3405912744005521
44,0.3406579624215762,0.3404552022218704
45,0.3406708628402816,0.3404347025156021
46,0.3406394450863202,0.3404154149889946
47,0.3406613464421696,0.34048904325564705
48,0.3406518220835262,0.34056247760852176
49,0.3406341607703103,0.34063072951634726
50,0.3406398488746749,0.34067980031172435
51,0.34064528471893735,0.3403290886680285
52,0.3406637061039607,0.34029426298538845
53,0.3406290435526106,0.34037847820917766
54,0.34065671822097565,0.34036084278424583
55,0.34065023806360034,0.34107678550481796
56,0.3406079615354538,0.34039938511451084
57,0.34065156229337057,0.3403648167053858
58,0.3406168361968464,0.34030263948440553
59,0.3406166806287236,0.3403380418221156
60,0.34062503761053087,0.3403757063945134
61,0.3406384423242675,0.3408885162274043
62,0.3406427269644207,0.3409674836993217
63,0.3406248621477021,0.34065344409147896
64,0.3406024329529868,0.3406957852244377
65,0.3406090831094318,0.3403531651099523
66,0.3406015852093697,0.34083371726671857
67,0.3405921255350113,0.3403097190260887
68,0.34060250056452224,0.34076757059494656
69,0.3406046552989218,0.34229502046108246
70,0.3405894099275271,0.3409795353015264
71,0.3406124809119436,0.3412809442679087
72,0.34058533680438996,0.34027812514702477
73,0.34061088696453307,0.34130893876155216
74,0.3406036432584127,0.34045095974206924
75,0.34059286006291706,0.3402661268313726
76,0.34061285050710044,0.3403160215417544
77,0.34060329263077843,0.34024285463492077
78,0.34060475139485463,0.34022180956602094
79,0.3405607807503806,0.34043625702460606
80,0.34063167736265393,0.34020925670862195
81,0.34057608530256483,0.3402754062215487
82,0.3405924849311511,0.3402967079281807
83,0.3405909865167406,0.3406052576303482
84,0.34058961741129556,0.34035614383220675
85,0.34057008197572497,0.3402675118645032
86,0.3405775789353583,0.340541572034359
87,0.3405792885555161,0.3401835802793503
88,0.34058264730374016,0.3402759260336558
89,0.34055811743603814,0.34019948679208756
90,0.3405667110482852,0.3403648508191109
91,0.3405391629073355,0.3404098130663236
92,0.34057940201626885,0.34069426673650743
93,0.34059118107292385,0.580339991192023
94,0.7910617875523037,1.0
95,1.0,1.0
96,1.0,1.0
97,1.0,1.0
98,1.0,1.0
99,1.0,1.0
100,1.0,1.0
101,1.0,1.0
102,1.0,1.0
103,1.0,1.0
104,1.0,1.0
105,1.0,1.0
106,1.0,1.0
107,1.0,1.0
