epoch,loss,val_loss
0,0.6735049274497562,0.6720530175367991
1,0.6713796699841817,0.6709912880659104
2,0.6710025356345707,0.6709264117876689
3,0.6708523680501514,0.6709447701772054
4,0.6707557142178218,0.6706918044487635
5,0.6707041935655805,0.6716790643930435
6,0.6706628435452779,0.6705159103075663
7,0.6706383200883865,0.6704815444151561
8,0.670600858065817,0.6707310221592585
9,0.6705772046115663,0.6705865265925726
10,0.6705490321185854,0.6703635297218958
11,0.6705345840056737,0.6707266960541407
12,0.6704990955591201,0.6704448542992274
13,0.6704929008086522,0.6705035710334778
14,0.670485594007704,0.6712285813887914
15,0.6704605976078245,0.6703862901926041
16,0.6704523955053754,0.6707702964544296
17,0.6704462803602219,0.6704426067272822
18,0.6704370527929729,0.6705288539727529
19,0.6704308959907955,0.6704022749662399
20,0.6704193481604258,0.6713825899759929
21,0.6704247061014176,0.6703898027737936
22,0.6704042670726776,0.6704961394866308
23,0.6704014708333546,0.6713710904121399
24,0.6704096809360716,0.6702846687634786
25,0.6703811054494646,0.6705920813878378
26,0.6703660040431553,0.6702783621549606
27,0.670377718369166,0.6704959040880203
28,0.6703571973774168,0.670396830201149
29,0.6703647787703408,0.6702384371360143
30,0.670369288166364,0.6702170960108439
31,0.6703858026266099,0.6702489153146743
32,0.6703848696417278,0.6702431354125341
33,0.6324296757247713,0.561520393649737
34,0.5616602834463119,0.5605052810907364
35,0.5643379608127805,0.5607260005474091
36,0.5605733494493697,0.5609520919322968
37,0.5605487998856439,0.5604957917133967
38,0.560515613993009,0.5607553386290868
39,0.5604936034679413,0.5604792588949203
40,0.5604813283019595,0.5604946049054463
41,0.5604752731190787,0.5603569078048071
42,0.560457241402732,0.5602701100111007
43,0.5604748122427199,0.5605411231517792
44,0.5604668291542265,0.5604227083126704
45,0.5604419271283679,0.5602528710365295
46,0.5604651179843478,0.5605686191320419
47,0.5604520862632327,0.5610590984423955
48,0.5604518107970555,0.5602538128296535
49,0.5604601978460948,0.5606104654868443
50,0.5604494604931938,0.5605586712757746
51,0.5604352161486944,0.5603999923467636
52,0.5604481208589341,0.5602797106107076
53,0.5604154043992361,0.5602485457658768
54,0.5605442683564292,0.5602197305361429
55,0.5604579030275345,0.5602511065006256
56,0.5604422324895859,0.5602460316419602
57,0.5604302940633562,0.560391372958819
58,0.5604317302438948,0.5608496196269989
59,0.5604104826052984,0.5602474595308304
60,0.5604179743528366,0.5602000660896301
61,0.5604164894024531,0.5602774881124496
62,0.560407317188051,0.5603305619955062
63,0.5604047192864948,0.560197338740031
64,0.5604262846840753,0.560613470117251
65,0.5604129940668742,0.560239310503006
66,0.5604147324297163,0.560242933789889
67,0.5605547478861279,0.5604489682515462
68,0.5604101293881735,0.5604892514149348
69,0.5604046362770928,0.560335393389066
70,0.5604122114446428,0.5602670756975809
71,0.5603801225423812,0.5602553574641546
72,0.5604105770587922,0.5615157711903255
73,0.560412850883272,0.56102454662323
74,0.5603872313102086,0.5611783663034439
75,0.560379512310028,0.5603003410895665
76,0.5604158954752816,0.5602559472322464
77,0.5604042975770103,0.5605706522862116
78,0.5604036738607618,0.5604385673205058
79,0.5603860061036215,0.5613155295451482
80,0.5604019289016724,0.5614110994736353
81,0.5603911870585547,0.5605893883307775
82,0.5604045289754868,0.5606307940085729
83,0.560379126018948,0.5601828442811966
84,0.5603831438091066,0.5609069265127182
85,0.5603858548667696,0.5601823159853617
86,0.5603845747974184,0.5602324773073196
87,0.5603839969635009,0.5605059663454691
88,0.5603942150010003,0.5603752071460089
89,0.5603663969172372,0.560244890888532
90,0.5603820170958836,0.5603174755573272
91,0.5603654913769828,0.5604151275157928
92,0.5603759600851271,0.5607465467453003
93,0.5603618442482419,0.5602941275437673
94,0.5603683735926946,0.5601292401949565
95,0.5603591207398309,0.5601479602257411
96,0.5603579810857773,0.5602704190413157
97,0.5603509765863418,0.5602849893569947
98,0.5604002795881695,0.5604362056255341
99,0.5604049681160185,0.560407742301623
100,0.5603603866100312,0.5601579033931097
101,0.5603643168873257,0.560207190155983
102,0.5603462012476391,0.5603991594711939
103,0.5603548891941706,0.5601722707351049
104,0.5603542135821449,0.5603414298693339
105,0.5603422625859579,0.5601494685808818
106,0.5603636243873172,0.5604117085933685
107,0.5603305214246114,0.5684896617730458
108,0.8618656601508459,0.8901313916842143
109,0.8901107930607266,0.8900749890406926
110,0.8900932213200463,0.8900944149891535
111,0.8900881430572933,0.8900662173430125
112,0.8900980180766848,0.8900421168406805
113,0.890084672914611,0.8901443629264831
114,0.8900865649117364,0.8900443188349406
