epoch,loss,val_loss
0,0.5191170585150686,0.5007863189700146
1,0.5008881101135697,0.5011560851355644
2,0.5009108100237432,0.5004432102697403
3,0.5008724760681099,0.500764172281332
4,0.5007676533832474,0.5003593751985621
5,0.500515390411547,0.5004485018364722
6,0.5005910328961781,0.5003109488760012
7,0.5013391178473768,0.5004906412932097
8,0.49976424945127335,0.48269981135799356
9,0.48262949046356823,0.4825298136007851
10,0.4826340750613392,0.4826857744429712
11,0.4826190973524317,0.48259344962249323
12,0.48257357901037284,0.4826331611244224
13,0.4825583437210737,0.4824157826619666
14,0.4825347209639192,0.48255567359318635
15,0.4825816795134258,0.4824916564204761
16,0.48251994489313266,0.4826510342161955
17,0.4825347811968433,0.48242701612033057
18,0.4824899696054555,0.48248295016622517
19,0.48252221269477313,0.48261787900282577
20,0.4825077960385686,0.48252557201397356
21,0.48248382007762,0.4824248802219282
22,0.48249346227781637,0.4825821170842463
23,0.4824818054838296,0.48379317138308975
24,0.48249482886857925,0.48312539840108826
25,0.4824511555759668,0.482447047707115
26,0.48249201934123637,0.4823757818037885
27,0.4824511884738001,0.482347943718638
28,0.4824559190413229,0.4823580926191872
29,0.4824561563565306,0.48241634266396405
30,0.4824645632064492,0.48240454448097486
31,0.4824362445592592,0.48261186018848234
32,0.4824443729635603,0.4824964232460858
33,0.48244207935799505,0.48246997771667194
34,0.4824264553508853,0.48241220152299724
35,0.48243134325719145,0.48261713290176417
36,0.48242070019396216,0.48241758243845756
37,0.48241608888514415,0.48239375179943556
38,0.4824205829182198,0.4823612604646959
39,0.48242661117191526,0.48235827685990795
40,0.48240501810772624,0.4825567424636176
41,0.4823997004788555,0.48239931049641716
42,0.4824065633055854,0.482383390968319
43,0.48239825983584783,0.48236668835759566
44,0.48239304822381335,0.4824073898483072
45,0.48238757855770703,0.48256023376677126
46,0.4823782243536794,0.48230678603373406
47,0.48238301444537074,0.48242934730362563
48,0.4823649669306574,0.4823640792910721
49,0.4823772588571233,0.4823108450581579
50,0.4823704645763702,0.4823281403533687
51,0.48237180565617005,0.4823856246759422
52,0.48236105964126036,0.4823721670716879
53,0.48237680657509646,0.4824186643331761
54,0.48236033176840415,0.48265195936944055
55,0.48236703034386663,0.48254512443934694
56,0.4823620532233127,0.48247945364806216
57,0.482357254369596,0.48234738712095626
58,0.4823652071797176,0.4825241596253182
59,0.482337743483695,0.482322130502488
60,0.4823537031267804,0.4823103138366587
61,0.4823530668111596,0.48235375780812756
62,0.4823569692522171,0.48237128207136754
63,0.4823511253631976,0.4826508037498438
64,0.4823544347707242,0.4823692913990627
65,0.48233880736384693,0.4822844069991787
66,0.4823491602799333,0.4823171050759483
67,0.4823371163473053,0.4823407010077837
68,0.4823517017762704,0.4823666441967907
69,0.482344382493339,0.48232219499918216
70,0.4823284970860407,0.4823633922546239
71,0.4823462654527344,0.48230151577706576
72,0.4823356400582719,0.4823271923017324
73,0.4823330547475723,0.4823113271632697
74,0.482335562415658,0.48236121179833463
75,0.4823331285372105,0.48231822930489493
76,0.4823314530518742,0.48234188197709077
77,0.4823329597898635,0.4822972589899579
78,0.48232760990343965,0.4822986757835755
79,0.48232663336893405,0.48228596030426907
80,0.48233465314868684,0.48234545442261306
81,0.48232481596660026,0.4822801304162131
82,0.48232792534411856,0.4823017814566429
83,0.48232319789610834,0.4822846702592033
84,0.48232507820049425,0.4823179199092446
85,0.4823245707950777,0.482334673695887
86,0.48232581078826886,0.4823416090547393
87,0.48232630880902827,0.48232632511715456
88,0.482320207838005,0.4825274815015544
89,0.48232783750431996,0.482276901589509
90,0.48231829891302647,0.48232315519623103
91,0.48232965928413674,0.4823096429429145
92,0.48232368909403694,0.48235227685136467
93,0.4823153624570299,0.4822848186672507
94,0.4823080985713898,0.48234552076706183
95,0.48232545002535715,0.48229016414711967
96,0.48231983077442225,0.4823971703571798
97,0.4823197665974573,0.48238246224663106
98,0.4823073336858239,0.48227430902571045
99,0.4823160635101255,0.4822890395369744
100,0.4823204640030034,0.48228893178482213
101,0.48231426746575806,0.4822729796960058
102,0.4823124249350763,0.48235506540421463
103,0.48231072797105934,0.48228470927912087
104,0.48230439125764435,0.4822932605496476
105,0.48230669187734787,0.4823262175820737
106,0.482308436354104,0.48232558692596506
107,0.48231323036583457,0.48232870766696806
108,0.4823105678946725,0.48228505096547364
109,0.48230884963975273,0.48235041068806955
110,0.48231077126656197,0.48235811581406635
111,0.48230561442495135,0.48230059102619705
112,0.4823089782471122,0.48237926211571436
113,0.4823037487672382,0.4823396216332118
114,0.4823037196948493,0.4823524008521095
115,0.4823075552312214,0.4824313889983112
116,0.48230364672903353,0.48229410649828386
117,0.48230606745597177,0.48230013841633096
118,0.4823046749059792,0.4822916874751716
119,0.4823057324659238,0.482323263043683
120,0.482295087048412,0.4822983723706262
121,0.48230493984853345,0.4822957663589863
