epoch,loss,val_loss
0,0.5167859134752685,0.5013625024690321
1,0.5011326030521839,0.5008655431893647
2,0.5012239267399302,0.5012593231122391
3,0.5009860635710188,0.5009613530126298
4,0.5007530634052578,0.5006434084742674
5,0.5007813786060888,0.5004678695975707
6,0.5005760954049105,0.5005708902274806
7,0.5005454767105278,0.5003222118878495
8,0.5005196078471346,0.5004785068718318
9,0.5005513341202589,0.500367391160293
10,0.48001680116240386,0.46462501370265147
11,0.46479187259331384,0.46467098076975905
12,0.4647112165380468,0.464607518659347
13,0.4647158189987158,0.4650030223889977
14,0.4647298344760017,0.464661882383867
15,0.464693954062546,0.46475306292011376
16,0.4647090267051607,0.46462333255306315
17,0.4646813749693812,0.46468168364195483
18,0.46466964194393817,0.4649360922338442
19,0.46469761563685297,0.46456880697265446
20,0.46467178278445215,0.4648502263321422
21,0.4646820613941583,0.4645912333076092
22,0.44942731743658904,0.4467850281747922
23,0.4468360188357949,0.4466888025008588
24,0.44680488049655015,0.44689227078625526
25,0.4467956262559936,0.4466942333374593
26,0.44679662602695,0.44707048384561743
27,0.4468311904416564,0.44676346586364307
28,0.44675469604983586,0.44674914488150314
29,0.44679859734782756,0.44672204954604267
30,0.44678535853316753,0.4467791027911795
31,0.4291086377441469,0.42896755171258405
32,0.4289403100848935,0.42887214950186087
33,0.42889919153119255,0.42889843112114884
34,0.4289293943985721,0.4288559112969841
35,0.4289043461279401,0.4294346419918662
36,0.42890922514162344,0.42891541184276094
37,0.42890105929470024,0.4291384350207331
38,0.42890921450958475,0.4288434601471762
39,0.4288897201954326,0.4289056274475393
40,0.428904956630459,0.4288683959922733
41,0.4288904843503591,0.42885035842387076
42,0.42890495174894067,0.42889131050504614
43,0.42891515423308035,0.4288011552343404
44,0.42887365031827446,0.42879809338852914
45,0.42888867558015925,0.42890755818165055
46,0.4288911470565339,0.42894037694485454
47,0.4288894556234925,0.4289272405534088
48,0.4288750626633004,0.428868566726914
49,0.42889562695897293,0.42904498930150226
50,0.428872133904784,0.4288820188726153
51,0.428881446459542,0.4288577349354518
52,0.4288849390408377,0.4287968272901509
53,0.428868601367749,0.4292949157808195
