epoch,loss,val_loss
0,0.6281661053074556,0.6078136022846109
1,0.6077276242435279,0.6075393068237698
2,0.6076366624587731,0.6075214624066064
3,0.5971521481140613,0.5716840494778169
4,0.5718441056169457,0.5718757730009798
5,0.571805041679838,0.5717737053782886
6,0.5338333989826329,0.5182007231409924
7,0.5182789325090068,0.5181776075935804
8,0.5182957719005256,0.5180913598526009
9,0.5182713631582099,0.5185521284181497
10,0.5182507130113486,0.518156073109933
11,0.5182230566848948,0.5184002022354403
12,0.518236595392086,0.5181846346942416
13,0.5182099111944174,0.5181150345866687
14,0.5182131257197699,0.5184433794631524
15,0.5182024625579565,0.5181196191252009
16,0.5182061311908756,0.5181189610069059
17,0.5181838960337198,0.5188520231791639
18,0.5182054075373737,0.5181445799705762
19,0.5181628446338172,0.5180776037486244
20,0.5181731100454225,0.5184156065364993
21,0.5181638231978767,0.5181880844679199
22,0.518189507375395,0.5180778532219644
23,0.5181533327126268,0.5184174315038679
24,0.518158886054946,0.5180840303661091
25,0.518149636134692,0.518617570336705
26,0.5181639743336374,0.5180906324620399
27,0.5181294619792827,0.5181768612701529
28,0.5181416333996623,0.5182336848907518
29,0.518139734056296,0.5181092387682423
30,0.5181273721755193,0.5180651472461523
31,0.5181356263578052,0.5181073194542073
32,0.5181248409158992,0.518064153853054
33,0.5181379449879465,0.5180688022953046
34,0.5181168950366158,0.5181624002875136
35,0.518135603395256,0.5181336415493799
36,0.5181140648021757,0.518085743546973
37,0.5181085051657687,0.5180679566272729
38,0.5181126295779005,0.5180769433113711
39,0.5181105256738556,0.5182790169497328
40,0.5181267960815277,0.5181616824057412
41,0.5181132068352677,0.5180697054290331
42,0.518115955421637,0.5180447092063051
43,0.5181005822673889,0.5181724281945519
44,0.5181126646796528,0.5180857775054196
45,0.5181003336692733,0.5180515817097352
46,0.5181046524385456,0.5182503462155434
47,0.5181015214009222,0.5181099723003372
48,0.5181095154275773,0.5180462916254426
49,0.5180995986248561,0.5181719097961518
50,0.5180858378004626,0.5180486152747699
51,0.5181025673899389,0.5181044888636172
52,0.5180809759423336,0.5180659593263471
53,0.5180943489108591,0.5180797673792288
54,0.5181009811174385,0.5182489876023701
55,0.5180911897757386,0.5180371863038529
56,0.5180846046830471,0.5181333683887793
57,0.5180989183522746,0.5180702175376555
58,0.5180777927617645,0.5183290027771565
59,0.5180984314612358,0.5180396215067301
60,0.5180879267768739,0.5180783027187083
61,0.5181041263160535,0.5181709403020913
62,0.5180771400247584,0.5181794132892393
63,0.518091629891737,0.5181711653575399
64,0.5180730703830504,0.5180507746804224
65,0.5180851632868727,0.5183976165120397
66,0.5180835628985602,0.5180796825201733
67,0.5180755563797361,0.5180686645343473
68,0.5180768358133364,0.5180293329868801
69,0.5180836283412609,0.5180344955178683
70,0.5180719173338304,0.5180331912360917
71,0.5180847596689597,0.5180295803636276
72,0.5180805115408699,0.5180307331718842
73,0.5180749540674378,0.5180674807325225
74,0.5180717480993905,0.5180435454491761
75,0.5180792319900849,0.5180895752711118
76,0.5180839299859148,0.5180541664271948
77,0.518079840513171,0.5185424402755877
78,0.5180771047564061,0.5180663725774524
79,0.5180660392770063,0.5180454992616891
80,0.5180738305854649,0.5181097484943731
81,0.5180714210115429,0.5181848089443809
82,0.5180785324836857,0.5181142305645898
83,0.5180699445354375,0.5180616614280236
84,0.5180760566806552,0.51802834486703
85,0.518071937757849,0.5180379091729743
86,0.5180589343799121,0.518043037385495
87,0.5180803174901037,0.5181802812573922
88,0.5180677340145144,0.5180653088002587
89,0.5180694550889258,0.5180232948531772
90,0.5180658186747338,0.5181560517522196
91,0.5180676419737157,0.5180516539786463
92,0.5180700183504893,0.5180426754479638
93,0.518065723270876,0.5180212201901028
94,0.518063534533596,0.518040309496175
95,0.5180657493578794,0.5181094716276744
96,0.518074791681948,0.5180682611626405
97,0.5180589617545351,0.5180432104073276
98,0.518064297658568,0.5180813596883534
99,0.5180648388569394,0.5180428101910984
100,0.5180646853125395,0.5181624128141249
101,0.5180617200361716,0.5180514315386441
102,0.5180584558188686,0.5180459941104836
103,0.5180635219976593,0.5180237670841851
104,0.5180540015403416,0.5180253005828288
105,0.5180556481996592,0.5180205558879186
106,0.5180578214756212,0.5180879359686643
107,0.5180559384322199,0.5182637648634132
108,0.5180618483209202,0.5180720036968836
109,0.5180606596320279,0.5180329416780409
110,0.5180624162981081,0.5180318045201067
111,0.5180564606466735,0.5180303286459925
112,0.5180505565522613,0.5180251090622727
113,0.518056726674245,0.5184536635250959
114,0.5180620072642865,0.5180233096563915
115,0.5180594574174823,0.5181271275421043
116,0.5180606284750223,0.5180622493316446
117,0.5180549404931565,0.5180514413439204
118,0.518063442734226,0.518250864010379
119,0.5180666611718525,0.5180280667084914
120,0.5180531743859444,0.5180537779751796
121,0.5180538289273121,0.5180434465810702
122,0.5180570946609567,0.518034512576508
123,0.5180522789905329,0.5180234382791701
124,0.5180565738301294,0.5180821559382154
125,0.5180433842160914,0.5180263791102926
