epoch,loss,val_loss
0,0.5470498420360541,0.47266898082032904
1,0.4727812708062251,0.475575219848699
2,0.47331601922764516,0.4732743821016778
3,0.4721859993373552,0.4724371111552679
4,0.47214123157650684,0.4715270660277528
5,0.4718825152476439,0.47184150762395216
6,0.47198585270121607,0.471249539330588
7,0.4717644886765749,0.4724342951174722
8,0.4715115704226218,0.47167748089207706
9,0.45995658950214396,0.4585275245021299
10,0.4589609718981989,0.45840135485256545
11,0.45885688027650373,0.4592219063624874
12,0.45899111113796515,0.4585642983419433
13,0.45857566861798,0.45872032875357516
14,0.458673503895947,0.4582330339883397
15,0.458638493791373,0.4583369102756306
16,0.4585459270178014,0.45886666311170227
17,0.45856987570246155,0.46003872378197563
18,0.4584274041497351,0.45844190130323026
19,0.4585923755753038,0.4588649002187382
20,0.4582202690668031,0.4579984342358401
21,0.45830405454697754,0.4584095581865547
22,0.4581689952367408,0.4579609313521348
23,0.4469016170934879,0.44562986964019075
24,0.4457317751639114,0.44580304086109895
25,0.445872406248668,0.4472732314999595
26,0.4457379755400923,0.4455779591466904
27,0.44588190988239446,0.4456614898495509
28,0.44577993036971847,0.44599831341647034
29,0.44571929859766474,0.4470084919297689
30,0.44577810712828214,0.4457152979945804
31,0.4455952439722668,0.44589769512081306
32,0.4456798626959867,0.44547354326726846
33,0.44561656554948376,0.445552437431026
34,0.4455735729146443,0.4456657490056028
35,0.4455568335461326,0.44542369085137923
36,0.44545266800840644,0.44564276138430975
37,0.44551398053026026,0.44590947477177406
38,0.4454608333415633,0.4456037835891935
39,0.44557493186736463,0.4457287672879084
40,0.44554296182209313,0.4453116840978438
41,0.44549860653362705,0.4457088781400741
42,0.44543664063591765,0.445328712944679
43,0.4454412355188595,0.44525513795673966
44,0.44546934993812387,0.4457373963920189
45,0.445473022031997,0.44558641647041164
46,0.44543842929302313,0.4452897731722725
47,0.44557131259618,0.44569429404080557
48,0.4453266339359819,0.4453897763663726
49,0.445476171202402,0.44521754779910183
50,0.4454147364449018,0.44535614947459745
51,0.4453966050087629,0.4452755206122182
52,0.44537151264380104,0.44534125020031884
53,0.44541429371988983,0.4456327867072577
54,0.44535413683427033,0.4455915564111579
55,0.4453259749558969,0.44546000980788314
56,0.43380007698731793,0.4332623371762472
57,0.43309648261599976,0.4329424415909712
58,0.4331189160402553,0.4329308971371601
59,0.4330427092357886,0.43293958787503295
60,0.43295668698621687,0.4330868033296057
61,0.43297247333855354,0.4335095599816029
62,0.4329735746626213,0.4329360061051496
63,0.4330126531624959,0.4329536205301549
64,0.43298480684198487,0.43290845033859504
65,0.4329829811995172,0.433725173625624
66,0.43292924822663914,0.43299013304587874
67,0.43294714832696785,0.4329278761803677
68,0.4329330621545538,0.4328622831392997
69,0.43289747478152923,0.4330089873328168
70,0.43295195083986576,0.43291196507649765
71,0.4329796031216799,0.4328322158229091
72,0.43292427390418214,0.4330472780227836
73,0.4328103178158706,0.4330816159479814
74,0.4329090116785638,0.43287418556554663
75,0.4329235358978985,0.43300706766180697
76,0.4328960474513755,0.43315357241111624
77,0.4328765129907391,0.4327911213409531
78,0.4328494808349637,0.43288372994388086
79,0.43286937843289675,0.4328982322330671
80,0.43284364385860674,0.43286257581352905
81,0.4329173493499806,0.43297046772447895
82,0.4328850706090196,0.4328422881109077
83,0.4328583365749159,0.4328450420062943
84,0.4328134368959024,0.43295596228496463
85,0.43282420462976284,0.43280098018328583
86,0.4328367540473463,0.43305074964604
87,0.4328272247406338,0.4330672221208717
88,0.4328319348712547,0.4328153599706521
89,0.4328198934550124,0.432796552112768
90,0.4328053228285011,0.4328601655664302
91,0.4328164903641535,0.43284029658944656
92,0.4327942745349542,0.43285591795611195
93,0.4327991283664778,0.4327731845651904
94,0.4327846541239624,0.43279708141710893
95,0.43281971270676206,0.43312984009820793
96,0.43281037330211775,0.4328626441854931
97,0.4328132115708744,0.43281817876498485
98,0.43277262013870227,0.43287537480345734
99,0.43279542649580577,0.4327960336486185
100,0.4327615532494688,0.43280046849562326
101,0.4328097084844456,0.4328572032735597
102,0.4327766726182828,0.4329739317727277
103,0.4327476625359517,0.4329957920469304
104,0.4327529413901229,0.43280969601986624
105,0.4327674574000088,0.4328308205994844
106,0.432765055657702,0.4328280821002324
107,0.43285415998188925,0.43274558466669616
108,0.4327541548972276,0.43283820649990795
109,0.4327966771815219,0.43308881785502495
110,0.4327563634722825,0.43284170542053835
111,0.43276304815488903,0.43279319298247676
112,0.4328360749310497,0.4327358174682823
113,0.43271244976391754,0.43296916887046527
114,0.43273670349805415,0.4327619633317584
115,0.4327969506110388,0.43280632433748656
116,0.43276702413509666,0.43284925030861277
117,0.43273307255716464,0.43291041327739205
118,0.43273516935208906,0.43279531455341885
119,0.43271282627005425,0.43298953095583287
120,0.4327861869973991,0.4328325751243895
121,0.4327523608674272,0.4329264215054392
122,0.43277674863270943,0.4329088606797658
123,0.43272337504152847,0.43292314921700426
124,0.4327383902872594,0.43290315238920607
125,0.43277028818673635,0.4329426114242828
126,0.432736889834126,0.43286870301568325
127,0.4328426215260986,0.4331760143966801
128,0.43275615959427965,0.4328860427441127
129,0.432729601922032,0.4329958358288336
130,0.432732706749017,0.4329309716292927
131,0.432706924031953,0.43291078420117657
132,0.43270738901709566,0.4327681685373485
