epoch,loss,val_loss
0,0.578651964591535,0.5212304391627313
1,0.5215434537077123,0.5216531105206896
2,0.5210055990555151,0.5203378096285775
3,0.5205556818591117,0.5201278270592622
4,0.5207089411889317,0.5198682392599562
5,0.5205839209916242,0.5211942735823563
6,0.5200368425324983,0.5198166300056396
7,0.5200189592065728,0.5197168406728736
8,0.5202511775608113,0.5201529600375682
9,0.520076577121011,0.5203281969275031
10,0.5200673398704947,0.5195515174606695
11,0.5200921162054095,0.5202210673850093
12,0.5200509425404678,0.5197112878039685
13,0.5198500601204118,0.5201458580057694
14,0.5200849924348885,0.519912176174644
15,0.5199205519854494,0.5199174634752678
16,0.5199242315759366,0.519659062015133
17,0.5197476953178719,0.5201565686289947
18,0.5198635899044144,0.5196901197870142
19,0.5197776616542151,0.5196950721027523
20,0.519762590134655,0.5195583509707543
21,0.5197058421993588,0.519709044682868
22,0.5196978381491439,0.5200391458270528
23,0.5199028254175154,0.5198215063197128
24,0.5105001008907297,0.4949854930664863
25,0.4949380062862792,0.49487186700603375
26,0.49505182294704986,0.494768699810557
27,0.49514065177249433,0.4954391520960569
28,0.4950638988054206,0.49480738586122824
29,0.4948584735101827,0.4948266111594599
30,0.4950466901711122,0.49485848989261794
31,0.4949603027915885,0.49479575116364405
32,0.48608564247944713,0.48235016705180817
33,0.48263681093516275,0.4825684648464526
34,0.4825345050007325,0.48256989938334643
35,0.48254743686778,0.4824938009060464
36,0.4825951396460022,0.48268800078017665
37,0.4825124847343473,0.48257740542831323
38,0.4825199720414252,0.4824967082049086
39,0.4825548717587222,0.48235996649733026
40,0.4824408279206473,0.4823750727251924
41,0.48255982442631984,0.4825559119212122
42,0.48242800878721503,0.4826622851005627
43,0.48242854599289964,0.48258461284843096
44,0.4824439759534339,0.48235659537829045
45,0.4824302334931164,0.48263563694571504
46,0.47361859071763013,0.47004827108267666
47,0.4701136132734022,0.47008119364094575
48,0.47014171593362947,0.4702333675642411
49,0.47010574632809055,0.4700964850435609
50,0.46999906970359734,0.4705789489557074
51,0.4701078972601632,0.47090905193758353
52,0.4701098727328176,0.47002556010503727
53,0.4700561933319248,0.4702647433661172
54,0.46999168188891194,0.4701061434626776
55,0.4701274778180482,0.4702298906904379
56,0.47007940937935005,0.4703212467590195
57,0.47004535086710475,0.4699234699060948
58,0.4701067773404089,0.4706228891465178
59,0.47005956221401285,0.4700085302245007
60,0.47011536674090554,0.47023280387428795
61,0.4700392939074219,0.4699306135101917
62,0.4700082354846916,0.46994826781200605
63,0.4700233722915196,0.4711278268319135
64,0.4700075525271096,0.46992890426031403
65,0.47003787053523244,0.47095986358461783
66,0.4700218519300629,0.4700194051679635
67,0.47000802147203957,0.4698524558286007
68,0.470047314460397,0.4699691955726898
69,0.46997738829802216,0.46992513588818524
70,0.4699637831285648,0.470008751053748
71,0.46993876329589607,0.4699053996242412
72,0.46992099600523163,0.4699644719620192
73,0.4700110225587939,0.46986900920560765
74,0.46994187856928143,0.4699999981461194
75,0.47000823230701694,0.4699994182286951
76,0.46996064538174526,0.46988248639116376
77,0.46993241640575917,0.4698282566545731
78,0.4699762004766653,0.47014859172702383
79,0.4699417856783577,0.4699435425441316
80,0.46993491500060025,0.469930444666827
81,0.46997284540460915,0.4699262975771332
82,0.46997037918084755,0.46992057764786144
83,0.46995752815945896,0.47008858737890424
84,0.46995956104356096,0.470058065004186
85,0.4698969753260947,0.46993660116265684
86,0.4699169577586437,0.4698597768300782
87,0.46993952544740253,0.4701754099941184
88,0.4699282621530799,0.47017626164921666
89,0.46987977686472066,0.4700928774366118
90,0.46992096969780445,0.47008090400765806
91,0.46989738613215765,0.46996899493617034
92,0.4699904518024764,0.4703573629951932
93,0.4699005555827997,0.469863768919255
94,0.46989837765234244,0.4698338062801718
95,0.46985273691516494,0.47020924866341696
96,0.46990522810273294,0.47000693864156445
97,0.4698832685877265,0.4698405123715183
