epoch,loss,val_loss
0,0.5230341675471565,0.4843814841080727
1,0.48430875664042605,0.48449514836625324
2,0.4842405231704754,0.4843797991802592
3,0.48359456126380856,0.483993502368969
4,0.48354434474984564,0.4828026874456127
5,0.48315533898092156,0.48365788746151406
6,0.4832581380857213,0.4838935584240079
7,0.4830298739383292,0.48281263566756605
8,0.483116708939729,0.48252857343431654
9,0.48289825815727727,0.4827684798433619
10,0.4829089370329256,0.4886463350780646
11,0.4831761477492654,0.4825808647346619
12,0.45604290035789424,0.4454294707845561
13,0.4458719144966753,0.4459883305627855
14,0.44585299584131516,0.44561854521710625
15,0.4457777645829738,0.4453568672735684
16,0.4459052001867716,0.44601985465979266
17,0.4457157581648987,0.4454190141346547
18,0.44569693263017374,0.4456751580729706
19,0.4457444359988271,0.4456359665751304
20,0.44561494799639506,0.44539061507559147
21,0.44545594507155745,0.44596225975478193
22,0.4456498396373301,0.4459254822833404
23,0.445745201477503,0.44596897508927846
24,0.44554647645607864,0.4453724032094619
25,0.4457473514178058,0.4454841941272388
26,0.4336125121562497,0.4334606569958381
27,0.4332809263999042,0.4337715573552815
28,0.43322904752089414,0.4337781562807801
29,0.4332673499990678,0.43314037736587996
30,0.43316785601138225,0.43305616434899397
31,0.43323991970052744,0.4331062365112053
32,0.433170048173009,0.4332941920303559
33,0.433122229226439,0.4329136510653591
34,0.43301480011108084,0.43301418659927254
35,0.43315589134245536,0.433296264432115
36,0.4330949097709524,0.4339464445369225
37,0.4332105816139857,0.43299671962165376
38,0.43314663616715565,0.4333598614559412
39,0.43311194734135233,0.432973930990615
40,0.43306395527076347,0.4330669286809376
41,0.43301101522707625,0.433169658741047
42,0.433066809230998,0.4331257993922493
43,0.43308589167789474,0.43309239666053717
44,0.4330051030585137,0.43353249009846984
45,0.43303613072725994,0.432898861620487
46,0.43307539796788386,0.43580715318057794
47,0.43297434205373597,0.4334573922331868
48,0.43297448141564504,0.4328920467990673
49,0.4330059011398036,0.43301137088963604
50,0.4329619448965403,0.4328653191640675
51,0.4329698230776574,0.4335446950820066
52,0.43297404139612317,0.4328611339805629
53,0.43298744684061435,0.43408907564063975
54,0.432937428124594,0.4330714880807572
55,0.432937537706058,0.4332295924200883
56,0.4329775923226903,0.43298499089005804
57,0.43298536641354035,0.4332353234520788
58,0.4328973327287149,0.4330281215176536
59,0.4329607086607664,0.43343574423421566
60,0.432908395829533,0.4328510906416728
61,0.4329102258930339,0.4329153371034445
62,0.4329512552864407,0.43315514075491357
63,0.4328957322089105,0.43318234700460045
64,0.432883316366696,0.4328429916841784
65,0.43298287347944503,0.4330341792485105
66,0.43290594451331343,0.43284956885819303
67,0.43290321805385695,0.4329957092578399
68,0.4329570409277641,0.43302994542634693
69,0.43281659026127556,0.4329531641373133
70,0.4328607529932303,0.4331767867849297
71,0.4329467083967781,0.4328643681314325
72,0.43285328315151295,0.4329017135260805
73,0.43283547808061196,0.4329251873206602
74,0.4328830938820679,0.433056585716313
75,0.4328363233730685,0.4328175297700543
76,0.4328531917938218,0.4328773438843002
77,0.4328601163370847,0.4328185435576622
78,0.4328106113159672,0.4329407879640737
79,0.43286223792078854,0.4329996339759382
80,0.43279356469202024,0.43281173555101465
81,0.4328146928686275,0.4329464062569797
82,0.43283422417893586,0.4329781148614829
83,0.43284613578087794,0.4330213580586141
84,0.4328356703162565,0.4328219093003608
85,0.4328386200515693,0.4327855120724244
86,0.4328353513108996,0.4329768310535674
87,0.43279685188799727,0.4331104362868545
88,0.4328129237625164,0.43289431505716053
89,0.4328177301513388,0.4328224122261734
90,0.4327673338316716,0.43283478354812654
91,0.43280988660195324,0.4328210238393982
92,0.43288325480585793,0.4328329849733215
93,0.43274941039011006,0.4330968836739121
94,0.4328120568662475,0.4327789668501747
95,0.4328066910243715,0.4328018890638749
96,0.4327858885566838,0.43282346563900165
97,0.4327615397511881,0.4329418880958298
98,0.4327650256329606,0.43275727045866386
99,0.4328288677260585,0.43283644153407175
100,0.43276277384481177,0.43305255828986233
101,0.4327992947468256,0.4329808275674238
102,0.43276853668454185,0.43279639054906766
103,0.43275413889035236,0.43285027221269096
104,0.4327608695371206,0.43304340032442573
105,0.4328029554353443,0.4330987488540909
106,0.42093147263874325,0.4206739665609168
107,0.42041819796012636,0.42055865846592083
108,0.42038755126959715,0.42062859043306683
109,0.4204227907027412,0.42072318322309815
110,0.4204010433863958,0.42055543696558745
111,0.42041923053302394,0.42041992478292783
112,0.4203953033026814,0.4204247081951387
113,0.4203973507771049,0.42052625536721744
114,0.42039636595136726,0.42042979197691155
115,0.41662779184972254,0.4083001473000737
116,0.40804392019346114,0.4083085121102542
117,0.40809381824899915,0.4084050658591889
118,0.408097919217744,0.4081462542329016
119,0.40804160341338774,0.4080769351795849
120,0.40806209441791025,0.408232387719318
121,0.4080430877684905,0.4082423522398436
122,0.40808708762775436,0.40819979539856516
123,0.4080346082958481,0.40817955706202236
124,0.4080550630916519,0.408157501795638
125,0.4080713856761343,0.4080677308890115
126,0.4080103416194783,0.4082818980511448
127,0.4080923902060108,0.4081169104582674
128,0.4080387732793324,0.4085300153746564
129,0.4080401137712761,0.40817497222986676
130,0.4080628590451954,0.40848590275260765
131,0.40811833768997335,0.4081691124774399
132,0.4080138841579323,0.40822611597945524
133,0.4080135865540229,0.40823261409992473
134,0.4080427873934592,0.4081311837470429
135,0.4080053534778738,0.4080974808754801
136,0.408065714307128,0.40822604446810173
137,0.40808041643248993,0.40807662855859067
138,0.40798740634139674,0.40807322908112886
139,0.4080098934069156,0.4080655971816492
140,0.4080395318520808,0.4081446316881472
141,0.40800817180366816,0.4081730704216547
142,0.40800318737026237,0.40807922707607736
143,0.4080336262065934,0.408166340675501
144,0.40811967587021797,0.4082089844078597
145,0.40801193437831823,0.4081816832271929
146,0.4080033835037087,0.40817722771709875
147,0.40800257192049183,0.4081140210003257
148,0.4080012213030146,0.4082234062980481
149,0.4080890297849601,0.4083302919034193
150,0.40798497646126375,0.4080988534176365
151,0.4080210394043875,0.4080946542764283
152,0.40800449919932524,0.40817403598080254
153,0.4080342841766774,0.40810155972447343
154,0.4080106901828613,0.40808677204072225
155,0.40800518658705615,0.40807247113735223
156,0.40802044654655306,0.40809449929778874
157,0.4080063251371361,0.4082076338578373
158,0.4079987068216232,0.40819524215173014
159,0.4079783747555277,0.4081151139289879
