epoch,loss,val_loss
0,0.6787807435269472,0.6195669040633551
1,0.6193991490895722,0.6191657955525315
2,0.619456674426661,0.6210798281642314
3,0.6194420074033921,0.6194066746691254
4,0.6193149067170249,0.6201918091352193
5,0.619058282129435,0.6186199994191355
6,0.6189086634740703,0.6196354379411531
7,0.618951930623175,0.6185739335608627
8,0.6189383822653631,0.6186286548689585
9,0.6187553523388551,0.6184585474350842
10,0.6003729376346902,0.5939075848250722
11,0.594189771065298,0.594737941441262
12,0.5941848437479966,0.5938790395820353
13,0.5940454325275173,0.5942519113522623
14,0.5942682633853844,0.5939942158828374
15,0.5941778671568655,0.5942820327875701
16,0.5940882127832081,0.5944046057852327
17,0.5941279704814192,0.5941200200560597
18,0.5940491209381938,0.593879341794758
19,0.5940217043038369,0.5938006755430166
20,0.5940772269802836,0.5939969270683074
21,0.5940148365412268,0.5936959369245156
22,0.5940423548283573,0.593633235047817
23,0.5937958264880321,0.5940497547557626
24,0.5938374339174173,0.5941689135853709
25,0.5938225261930399,0.59397229704863
26,0.5936741838872619,0.5940697571075735
27,0.5937470284858566,0.5937427653700174
28,0.5937252482442074,0.5936106883357218
29,0.5938115590951885,0.5934870630300336
30,0.5937132805963244,0.5935520736049744
31,0.5937010100137686,0.5935585575161516
32,0.5936470220065185,0.5936592703216512
33,0.5936613399449959,0.5939894260715226
34,0.5936485336389411,0.5934123788257983
35,0.5936166315572579,0.5935646657944601
36,0.5936518008901328,0.5940655158033806
37,0.59361101973638,0.5935719204421523
38,0.593589338864975,0.5933671831909637
39,0.5935011027551627,0.5938394606430655
40,0.5936966202758887,0.5959698971443645
41,0.5935907290639182,0.5933706924486082
42,0.593500153543811,0.5936994556550215
43,0.5936028963674892,0.59340262267541
44,0.5935617902814602,0.5935128654421175
45,0.5935097378372395,0.593520104349108
46,0.5935791971457874,0.5935775530209212
47,0.5935017016565952,0.5934707315761379
48,0.5935621639818359,0.5933438514674294
49,0.5935227429421224,0.5936361294773702
50,0.5912309528862933,0.5811541499971665
51,0.5811933713848382,0.581499745406499
52,0.5811886713797509,0.5811151030589121
53,0.5812369367759396,0.5810070592540189
54,0.5811680706223924,0.5813047068122111
55,0.5811337058300737,0.5812118708551378
56,0.5666915058994859,0.5565968461595865
57,0.5565721473978544,0.5565856898524473
58,0.5566174474529384,0.5564571466002252
59,0.5564921334000285,0.556490584718435
60,0.5565169003277136,0.556537089828702
61,0.556571044575193,0.5565363520940612
62,0.5565919650543893,0.5564074020447873
63,0.556542978524768,0.5566312387615722
64,0.5565142395438466,0.55638221369509
65,0.5565139793500832,0.5566042703671245
66,0.5565448129090314,0.556468173295429
67,0.5564913726249674,0.5564017859724251
68,0.5564498101388043,0.5563707156211088
69,0.556561398609717,0.5567962149454488
70,0.5564738094183169,0.5570236626273449
71,0.5565899440678805,0.5566963561742015
72,0.5565022639326345,0.5564932977525351
73,0.5564367735124097,0.5564779403516406
74,0.5565056364244734,0.5564350657100786
75,0.5565143869274245,0.5564506366550868
76,0.5564878393059631,0.5564275357149614
77,0.5564620157203201,0.5564181377065578
78,0.5564763944484615,0.556555109016172
79,0.556513348022878,0.55655504223578
80,0.5565052871573714,0.55652755226514
81,0.556518857264844,0.5565543238734691
82,0.5565199256052685,0.5563803139159955
83,0.556471996400862,0.5564585054854906
84,0.5565475012692077,0.5563423638825986
85,0.5564898118598239,0.5564644020354995
86,0.5564402183414694,0.5566195560871166
87,0.5564907829448077,0.556807365345723
88,0.5564501735021662,0.5564526706731611
89,0.5564677641429238,0.5563505636615301
90,0.5564674663895196,0.5564452192940434
91,0.5543478597535514,0.5441546258324329
92,0.5441297520451818,0.5441705161966431
93,0.5441327191036528,0.5442638443268468
94,0.5441533696208809,0.5442657914046171
95,0.5441299865440818,0.5441437001227457
96,0.5441260431719576,0.544683137559567
97,0.5441260559337033,0.5442049918119612
98,0.5441272286688537,0.5443715729457913
99,0.5441453819458089,0.5440583716928248
100,0.5441201941102275,0.5450092169818014
101,0.5441193291154587,0.5440302903684132
102,0.5441199829397985,0.544251098810456
103,0.5441304446834595,0.5443762603495663
104,0.5441582089623538,0.5442997620923516
105,0.5441308432874704,0.5440438827761249
106,0.5441425980657891,0.5440887188031971
107,0.544094622590939,0.5440011728267141
108,0.5441359675586162,0.5440629881048317
109,0.5441244534704673,0.5440461791027662
110,0.544135879776037,0.5440799832825355
111,0.5440919780473049,0.5446349908330284
112,0.5441141071586191,0.5443131058976112
113,0.5441324599016593,0.544121238611711
114,0.5441197480689847,0.5445948552595277
115,0.5440876490443958,0.5440349603141201
116,0.544084109625277,0.5451392523409752
117,0.5441157122872369,0.5440566376122362
118,0.5441684701752355,0.5441812228272652
119,0.5441221560681931,0.544030709471434
120,0.5440787990435829,0.5441943601000788
121,0.5441054454336635,0.5441528703121116
122,0.5441015824824144,0.5440440699909341
123,0.5441360215371542,0.5440521803136746
124,0.5440866772155846,0.5440079480557294
125,0.5441965715027719,0.5440615649659998
126,0.5440737777633712,0.5440431220156488
127,0.5440711065732121,0.5440261155602079
