epoch,loss,val_loss
0,0.5398525564287833,0.49263208381837686
1,0.45143294605233364,0.41625283115875017
2,0.4194767960340524,0.38783738720446026
3,0.4102640353721843,0.3923375333167631
4,0.40709861332746006,0.3887169269749718
5,0.4070920253081547,0.38899902038620626
6,0.4056050481559564,0.41672045125385077
7,0.40464495982619836,0.3957709862948044
8,0.40556089779297955,0.38996960153834953
9,0.40614954791992924,0.3908594774455436
10,0.4060377128082242,0.39301176957743783
11,0.405213940515816,0.3847493615125314
12,0.4054298186607605,0.3899009073302694
13,0.4044004574095945,0.38654071121610284
14,0.404052558770363,0.39641489461970736
15,0.404128212264006,0.39684955566662267
16,0.4047986038739057,0.3867477596482898
17,0.40507897605792914,0.4071417446554142
18,0.4054054845276597,0.40371632723429296
19,0.40540795467251106,0.3867815304653295
20,0.40229129595600005,0.38251468138006384
21,0.4029857252028773,0.3820361196027958
22,0.40343272521364104,0.39079158229259386
23,0.40341647605212616,0.3987600340992091
24,0.4045624456303515,0.38297095981827617
25,0.4065581996790212,0.3935234384718506
26,0.4082273817997727,0.39171612833151465
27,0.4080278469000557,0.39268299671371876
28,0.40923040798657223,0.39611133611598637
29,0.4107661198935001,0.39556989736027187
30,0.41254739379816,0.3964074905916432
31,0.41365122283287675,0.40174934981029786
32,0.4153399833256574,0.403002966083556
33,0.4179317861604538,0.40464582070043587
34,0.41592640642694134,0.40802150002747944
35,0.4221280779692533,0.4182302361808941
36,0.42306145090308545,0.4092315901418285
37,0.4235345583805759,0.4119368951831131
38,0.423991062146745,0.40963499299994544
39,0.4221176044453231,0.40593158884543473
40,0.4230301459972337,0.40431316746799134
41,0.42026444973708915,0.41647626337537125
42,0.4194364149490292,0.39981696314185206
43,0.4172712394459139,0.4009881341302675
44,0.41461235110620387,0.398371163293393
45,0.4145591007389003,0.4152283790579484
46,0.4121766832349203,0.39074212252271917
47,0.41152381047522957,0.392829187087479
48,0.41057131583209605,0.3945042932072212
49,0.4094328260521969,0.4064161658577095
50,0.4105951139170996,0.3895127357309269
51,0.40853268394859626,0.3868356894305926
52,0.4084578940064741,0.39117150009886964
53,0.4090907402259049,0.3990176088521854
54,0.4080420025140405,0.39562161212419944
55,0.41004027977430696,0.4038680181064358
56,0.4081753050569919,0.39553536642690257
57,0.4082565071990339,0.39318310339472107
58,0.40666539234529026,0.3894538891963232
59,0.40723184769968684,0.39698406275654846
60,0.4064053147434711,0.39655574643795605
61,0.4080097290207807,0.39536823277925925
62,0.40782924122911535,0.3885430747043381
63,0.4069364481181312,0.3900570301678929
64,0.40785333187318595,0.40146002197594344
65,0.408668308352546,0.3896918420567323
66,0.4079950268360211,0.39760866485662993
67,0.40626374243783225,0.40250944080917406
68,0.40744672127491577,0.39205209520514767
69,0.4068086671771957,0.3949641057464618
70,0.40700086864163343,0.3907936453239181
71,0.40550165496366897,0.397501621803228
72,0.40716403284914693,0.3930285563579151
73,0.4071753840980003,0.3951411980105336
74,0.4067195629457935,0.3945075094168107
75,0.40892746037631345,0.39174171506343386
76,0.4051563532902204,0.38825713860630895
77,0.4071272412140528,0.38845344140388477
78,0.40650035440921783,0.39558986196746115
79,0.4065732390666791,0.4017432107252506
80,0.4063468343907113,0.40198686520742
81,0.4060202677122014,0.3975795475525868
82,0.40772995390922573,0.39145038907158597
83,0.40678097659631,0.387688199727398
84,0.4071617941793391,0.3909775075009463
85,0.40687851898903077,0.3998415680165612
86,0.40714492241414285,0.3916363843504433
87,0.40694791465114843,0.3981939799787548
88,0.4079437246195692,0.39213252374532254
89,0.4072536162202887,0.3940425106933807
90,0.4061733129813826,0.3882733571606734
91,0.4063729170420534,0.390652571305548
92,0.40536136550603624,0.3902949729491711
93,0.4073597717347195,0.38844454138625084
94,0.40619301978495714,0.38297519631629445
95,0.4093386617610701,0.3906270711042972
96,0.40464469380050394,0.385646687396058
97,0.4050340168923736,0.387070478072325
98,0.40429355397379046,0.3901859431467884
99,0.40366028100132845,0.38168044488602115
100,0.40409667705229707,0.39872883684443733
101,0.405040391272693,0.39343336055361927
102,0.4061856265422151,0.3883921850143365
103,0.40627786783192804,0.39126764478377957
104,0.40459669625358263,0.38525196068768375
105,0.4051155697545402,0.39070038783869315
106,0.40453002564280965,0.3914420129995663
107,0.4058596532257964,0.3937330961904193
108,0.4046250187677799,0.3858248028731984
109,0.4053926717361705,0.3927895837891711
110,0.4063260939428575,0.38943686370721986
111,0.40598904437499583,0.39763906448233544
112,0.407474934851961,0.39821019674449654
113,0.40631750050642856,0.38656780902003235
114,0.40664957009190267,0.39594452630574395
115,0.40702749589522236,0.3887709020263087
116,0.40729897459141245,0.3884498981422075
117,0.4072526076180731,0.3985493499287144
118,0.406925156056356,0.38897137753574806
119,0.4070834990283601,0.3942051629467119
120,0.4087093695461321,0.3922076550133327
121,0.40830523700261706,0.40062514878054123
122,0.4073643210270197,0.39410699501524876
123,0.4064480028121924,0.39483611784808925
124,0.40825227303825634,0.3965197871926347
125,0.40788554574987046,0.3934187147545795
126,0.4073383781292421,0.39231934176647654
127,0.4079213079998644,0.3974877087594239
128,0.4101932992855962,0.3935984522466822
129,0.40851262759408347,0.40093645869187
130,0.40847947427613723,0.38786545768078035
131,0.4071392899183773,0.3933705247376667
132,0.40688578581647744,0.3895914604629043
133,0.40806525469637567,0.3971543648043785
134,0.4074542932838703,0.3944022280117988
135,0.4081046036164984,0.39407275872122244
136,0.40629349108502044,0.39382933059651387
137,0.40761047420356633,0.3889504734665421
138,0.408482545549818,0.3913637484995601
139,0.4084645639762008,0.3908938774227226
140,0.4072695301235724,0.38875060700732134
141,0.40857444880149957,0.3993043452863856
142,0.40749461124475905,0.3857726822852702
143,0.4072031825542259,0.3868078956348763
144,0.4091103755778747,0.3967943584300209
145,0.4076196510520718,0.39182262019906117
146,0.4072399025229667,0.3917701551803997
147,0.40765199332451035,0.3944541968810104
148,0.4074445232999525,0.3957898052649486
149,0.4075296780197405,0.39147246261002666
150,0.4068274879164463,0.3873267202771783
151,0.4074283694867805,0.3883290964224816
152,0.4077158152484436,0.39187881703407706
153,0.4066724474784181,0.3965854758618812
154,0.4081819169014525,0.39399731118120224
155,0.40669118479979904,0.3970023594730189
156,0.4052784405439925,0.3880349083200085
157,0.4064090265881261,0.40101645153321
158,0.4067731494780442,0.39788291426277317
159,0.40659267958208883,0.3893732007015844
160,0.4059894419102978,0.3902245799603737
161,0.4083325376240514,0.3956897934809605
162,0.4068979332573992,0.3893218327129361
163,0.40834433782854684,0.40193897021657937
164,0.40646101459204625,0.38365849076686404
165,0.40674563563519045,0.39325998381493255
166,0.40772279482588375,0.4013408518910698
167,0.4082089066147518,0.39115596721545526
168,0.407827187600949,0.39571381209830586
169,0.40749134397726233,0.3930642381975154
170,0.4091092327459036,0.3881084950639287
171,0.4067141303928305,0.3964195350080801
172,0.4074732498276988,0.3989032388023506
173,0.40773707446906926,0.38949367952656183
174,0.40707229139854473,0.39288572649209363
175,0.40803638592159586,0.39380809703399183
176,0.40783637809791595,0.3981923895063965
177,0.4068062633538456,0.39020177535863787
178,0.40742613304797126,0.3999600661352023
179,0.4069408608065117,0.3956389502597261
180,0.40562122476826296,0.39441163778691785
181,0.4080830421731222,0.3978043102386611
182,0.4057344192500302,0.39155456926507476
183,0.40808746083866987,0.38983361561996416
184,0.4073031331726415,0.3875082107887748
185,0.4052605532926975,0.38800494144432734
186,0.40315510084430534,0.39380595472317254
187,0.40292246203073223,0.3900697465989035
188,0.4025896953119098,0.38232911089911076
189,0.4037144215370389,0.39807453642796425
190,0.40351887555528965,0.3849884891597024
191,0.4029357475314358,0.38860858325443903
192,0.4033457815790291,0.3881947484232987
193,0.40512157393227205,0.3907450073536875
194,0.40472271099531526,0.3955821299446567
195,0.40281704155276354,0.38597256037053884
196,0.4030062912749328,0.3812689635440381
197,0.40185845064057457,0.3824587906654154
198,0.40205992069885765,0.3878214840277945
199,0.40200247453917876,0.38506918507480853
200,0.4030959621203051,0.39503582093837486
201,0.40253696148637963,0.3877996678576659
202,0.4021120666383838,0.39471383413355815
203,0.4028812643644617,0.3831549784997954
204,0.40390456080723036,0.38415400527979626
205,0.40102732403455876,0.3998366197433688
206,0.4021221292529515,0.40036861645624294
207,0.4017369845230356,0.3973691188167578
208,0.4015795808371971,0.38100502948788056
209,0.4016806482194995,0.38220090053474043
210,0.4020734895721639,0.38951544590530024
211,0.40272921870191924,0.3832010202357562
212,0.4010771652213853,0.39191106660329317
213,0.40204472201551983,0.3861309058378116
214,0.4015481273373,0.39042245038911183
215,0.39976274895610764,0.3830057915303152
216,0.4018523885523252,0.3910435296274836
217,0.40095808586661963,0.3834271589044817
218,0.40169383395758507,0.3889509547994278
219,0.40053379912678005,0.38477509077834776
220,0.4016665255216907,0.39026052189956134
221,0.4008115844143401,0.3851366475019045
222,0.4011061093609652,0.3878091622298071
223,0.4014307428971589,0.3888078101118309
224,0.4002056504078538,0.39190849067230876
225,0.3997544857313196,0.38789495122403705
226,0.40071656753579743,0.395400476354172
227,0.40116308504242815,0.3942188793870364
228,0.4005254862354315,0.38137117673590815
229,0.40089409481629645,0.3922069673845658
230,0.4001487604587721,0.39253291134803353
231,0.39943278320223163,0.3875078335102264
232,0.39922248427155876,0.3864631742021463
233,0.4004335352379957,0.3915924453097248
234,0.40071354162177625,0.3887201268694213
235,0.4019212637117522,0.38685310102050513
236,0.4005628144554943,0.3925591975281322
237,0.3998611226403494,0.38090570185209616
238,0.4008232310378523,0.3826717490939135
239,0.40104514956951526,0.3849323670601129
240,0.3994439178056198,0.3893455498990061
241,0.4006209454124121,0.3802277011931281
242,0.3990563472167695,0.39070325666873895
243,0.3993454782413043,0.38773227963424367
244,0.3986087296011927,0.39157104840243817
245,0.4009432422818901,0.3881856932788966
246,0.4017051510375628,0.390250923859812
247,0.40243784589372317,0.390314106040144
248,0.40102693749915325,0.38583362233029667
249,0.39925842761420743,0.3847565943887344
250,0.3999842588809894,0.38422872477784353
251,0.39965616487521377,0.38159792592925745
252,0.40089086186084105,0.3869532169071717
253,0.40004471450256673,0.3893949294467332
254,0.4002845159428324,0.37999522905956895
255,0.39930425101132083,0.39385105658621683
256,0.39878186636013063,0.388776633184515
257,0.3969673521524434,0.3896555836763405
258,0.3989935004300743,0.38161277345593925
259,0.39853718076303923,0.3891916590208748
260,0.3985504222164353,0.38267553394051557
261,0.3994791456539217,0.38887896232264657
262,0.4002505474752956,0.38567544136797616
263,0.39885636716723155,0.3962128663681816
264,0.3991333996538547,0.3855743270189126
265,0.39869466995458014,0.38788039483196446
266,0.4002786304852407,0.37871166292671643
267,0.3998781758083927,0.3826216514624915
268,0.4000682974334141,0.3825459745678588
269,0.39875830878153906,0.37996271629693157
270,0.3986872841683839,0.38347572646581923
271,0.4008177284410803,0.3931893482502166
272,0.39845106245471157,0.38096819724963144
273,0.3981112884678203,0.3893481965772717
274,0.40065075041915627,0.3875217564397968
275,0.3981528343249551,0.38079232666324236
276,0.39780056866719493,0.3838070227136867
277,0.3977108672798109,0.3805008775706419
278,0.399443918366352,0.38957677567672266
279,0.39835069782501037,0.3851238581482608
280,0.39656235346849483,0.38192194738914015
281,0.39862253046255286,0.381389725019752
282,0.39897035341486153,0.3845911362697125
283,0.39703114080228646,0.3844823988829796
284,0.39777751412508106,0.38553663742609945
285,0.39793250892904874,0.3879550664480972
286,0.3986184280261314,0.3846588048234957
287,0.39866061433493566,0.37923140617182655
288,0.3981236464815964,0.38675452786930575
289,0.39812868881263763,0.3969414110408019
290,0.39940970767441514,0.38313538077780607
291,0.39949831290183974,0.3845996105709602
292,0.3980461275987953,0.38062148010063634
293,0.39793657928442744,0.38218350390641553
294,0.39866284517835293,0.39063334247491655
295,0.3984526374680792,0.3814850649211045
296,0.3967565854279111,0.3889354903429191
297,0.3984864309155722,0.3803011061501329
298,0.3980051405411706,0.37811848352038563
299,0.399805329149489,0.38433653447363114
300,0.39825876573737473,0.379000333466379
301,0.39823130703716875,0.3776529686342674
302,0.3999382438208219,0.38812729194216483
303,0.39848295744177437,0.3834176957848975
304,0.3983577081114889,0.398938296098392
305,0.39778121003062367,0.37616195593147095
306,0.3980856797903227,0.39247881152817415
307,0.39871576435571676,0.38855423384919363
308,0.3979912345484794,0.3933569426132428
309,0.39764518881913086,0.3810314539720252
310,0.3973093216804813,0.37879776850717395
311,0.39829817439337745,0.38349047100166916
312,0.3976358787907516,0.3832724324736475
313,0.3969988051393301,0.3877051775279513
314,0.39765891840784334,0.38660717489075486
315,0.3989352443821436,0.378432448352147
316,0.398413595208843,0.38999318194312
317,0.398920709534203,0.3852117786974029
318,0.3984198073466555,0.3891611633171227
319,0.39913228824675034,0.3817050634412773
320,0.3976391286755486,0.3859099323248728
321,0.398298800075121,0.3862804593782742
322,0.39712649595747,0.38917787690909045
323,0.39804735056775586,0.3878809501268181
324,0.3976965783427867,0.38290715234509737
325,0.3993767065057953,0.38126513719655397
326,0.3979208275043459,0.38305130429318157
327,0.3980581684409379,0.3898690214799075
328,0.39947941315899477,0.3901885455928967
