epoch,loss,val_loss
0,0.35508853031556775,0.34300091587897835
1,0.33403873019832664,0.23399454002101672
2,0.23233457768987292,0.23077649990191657
3,0.23121933481556148,0.23140341622947186
4,0.23082522369417702,0.23036485837617296
5,0.23043928410458447,0.2308612642771695
6,0.23017602389449857,0.2297226994393202
7,0.22997824679792336,0.22932852761511227
8,0.22947385517569402,0.2290446602958285
9,0.22947305063193907,0.23055249943119485
10,0.22921111858804277,0.2289351902294591
11,0.229277343935533,0.22978730052894886
12,0.2291810922625561,0.22897481962278696
13,0.22882204677380252,0.22918155389646164
14,0.22887418142309193,0.22977491476265147
15,0.22869868210642194,0.2301243067576589
16,0.2286783712466155,0.2285542320000128
17,0.22855323509847006,0.22833829090531288
18,0.22858007486585694,0.2291364685921331
19,0.22839594820888598,0.2288025154840207
20,0.2284547058897592,0.22896177240535365
21,0.22847376901583238,0.22835946000211085
22,0.2283046735156296,0.22869381960828852
23,0.22831155173661405,0.2289855956295325
24,0.22829546826426855,0.228609456571683
25,0.22832203088989392,0.22839196797987774
26,0.22828554815708058,0.2282347330553194
27,0.22825074196426562,0.2281776745607595
28,0.2281574218407064,0.2280700239502615
29,0.22831402632050046,0.22951753968549973
30,0.22817597033473924,0.2280201012959254
31,0.22818463861590738,0.22836787243691192
32,0.22817161385211995,0.228129150505747
33,0.22814510507814825,0.22811146427808254
34,0.22811587099943773,0.2290748947863046
35,0.22815849383554423,0.22852520481596453
36,0.2281615579490691,0.22793313736738965
37,0.22811861477594073,0.2282228396414948
38,0.22813230383248467,0.22851459995153045
39,0.22810641920316377,0.22812063284158748
40,0.22814314038738204,0.2282810457187132
41,0.22798502756783942,0.2280710051211779
42,0.22809696916077735,0.22803840716464585
43,0.2282267034358765,0.22808116133862352
44,0.22807797142481295,0.22810222436424935
45,0.22798483019884097,0.22796725459909076
46,0.22799575159403274,0.2278525839480483
47,0.22810464115193876,0.22862781550378522
48,0.22796601677884326,0.2318417443636574
49,0.22807628646763684,0.2283100662053129
50,0.2278817553781482,0.2289681183622624
51,0.2279341477737232,0.22805134468951982
52,0.2279704608220651,0.22914039673041145
53,0.22794893937606803,0.22893863608526238
54,0.22791220304043575,0.228016363296358
55,0.2279958892457903,0.22791449751041143
56,0.2279072222885687,0.22812089972299926
57,0.22802308019482972,0.22902577252207143
58,0.22787644390535566,0.22966587010074158
59,0.22787946610841606,0.22786316306833732
60,0.2279556261441154,0.2279821488272341
61,0.22793139851318908,0.22802360781790584
62,0.22790841027047043,0.22783709245573927
63,0.22791309670560847,0.22780446831033038
64,0.22789297686070842,0.22787633230110577
65,0.22788486980660844,0.2280318853480923
66,0.22791908798895016,0.22854613970854626
67,0.22793986739121627,0.22833848489836575
68,0.22789649399042913,0.22791950492266758
69,0.227954221389974,0.22844866214912046
70,0.2278793420514929,0.22815781460072648
71,0.22790470451189274,0.22895460013418642
72,0.22811777377433845,0.22845107814646842
73,0.227983433326428,0.2292717951115801
74,0.22791089181907986,0.22799817739932443
75,0.22788072071298343,0.22804521832950672
76,0.22783401534661935,0.22788630537112964
77,0.2278840700977803,0.22845661770410108
78,0.22794817852278454,0.22787505792224572
79,0.22780223746776332,0.22780341579173297
80,0.227854891696616,0.22795921552189716
81,0.22783875065059148,0.22803470341736565
82,0.2279139992948179,0.22840396546358155
83,0.22774157219894642,0.22842796881206506
84,0.22781284520651876,0.22777510677535615
85,0.22790870301050078,0.22828502023880806
86,0.22786747801993418,0.22791099884800597
87,0.22783299380896213,0.22833745984195455
88,0.22781812297989248,0.22784861705192644
89,0.22786303922037365,0.22782424065820658
90,0.22786531266876253,0.22794565197353697
91,0.22785744944279696,0.22833789711916377
92,0.2277925470125405,0.2285974648906698
93,0.22783054869702205,0.2277765648337278
94,0.22782158548778797,0.2280302385672686
95,0.22781754291503453,0.22783033095523886
96,0.2279241691094932,0.228501086281955
97,0.22770897614302774,0.22787371012823135
98,0.2278845189390956,0.2283849936355217
99,0.22777202372762237,0.23050712122599934
100,0.22787314859352206,0.22770024905685082
101,0.22777404938265797,0.22773803723686478
102,0.2277847400172187,0.22831429123116082
103,0.22780754046160914,0.22774906912320544
104,0.22777823311812073,0.22913854146569168
105,0.22780121983073223,0.2278592166828207
106,0.22778220664297982,0.2279603928062839
107,0.22784023944803028,0.22847753562275397
108,0.2277650357335386,0.22967808490209077
109,0.22782080802498836,0.22784414052497348
110,0.22775501146187935,0.22812760062879728
111,0.2278485538720644,0.2293033573619636
112,0.2277920709720263,0.22866806301337445
113,0.2277696646094692,0.22793179569637867
114,0.22780662699363785,0.22780037879795603
115,0.2278200519226258,0.2279584378475278
116,0.22780824656776452,0.2279397201545498
117,0.2277698605210715,0.2282734761723703
118,0.22779876511988462,0.22794623254437835
119,0.22783848660986508,0.22788513267436275
120,0.2277903883994878,0.22789339440863007
