epoch,loss,val_loss
0,0.5702503460223387,0.5623717457453128
1,0.5634381072935225,0.5616266993121792
2,0.5618593545635119,0.5618923280204797
3,0.5610417226835025,0.5618939391354045
4,0.5609092484696986,0.5601864712321752
5,0.5605915761963626,0.5602975942394326
6,0.5604418974209959,0.5601869049832968
7,0.560200590983654,0.5596818093360688
8,0.559819847026977,0.5614025061878943
9,0.5595656085941091,0.5607909460456572
10,0.5596701434917587,0.5594612610744613
11,0.5594256861885814,0.5608455928101762
12,0.5592903459015921,0.5591539280265067
13,0.559309561631764,0.5598642122239367
14,0.5592923719441842,0.5592540755939432
15,0.5596463465889968,0.5595300390000749
16,0.5593101101972396,0.5592486798223244
17,0.5591181919762629,0.5592224281006585
18,0.5590831420350838,0.5590844762687426
19,0.5591404143038141,0.559206328228537
20,0.5591319163661047,0.5600408161802558
21,0.5591129189933423,0.5592841269025838
22,0.5590913166405027,0.5590615412188923
23,0.5590440208511435,0.559083493168008
24,0.5589926008586082,0.5590088351896546
25,0.5590047525157215,0.5590633223272382
26,0.558984483622854,0.5588771566380657
27,0.5589855681783362,0.5589943573072084
28,0.5589895769277798,0.559045398281912
29,0.5589953160699344,0.5596956537192997
30,0.558982464648051,0.5589354200036175
31,0.5589367507247659,0.5592092097832692
32,0.5589728209872817,0.5590740135305198
33,0.5589126196098928,0.5595773951921312
34,0.5588943581893758,0.5596469180434439
35,0.5589263112134387,0.5589039415084017
36,0.5588822668880188,0.5588661694446198
37,0.5588882638774072,0.5591244714195297
38,0.5588686810923534,0.5592659870352875
39,0.5589008585137781,0.5592282935301943
40,0.5588961136906687,0.5592315734692843
41,0.5588718523539702,0.5593494068434786
42,0.5588420653107702,0.559009751379437
43,0.5588536079845297,0.5588731152864349
44,0.5588553674122152,0.5588515981049706
45,0.5589216808289318,0.5599108659198216
46,0.5588689598521106,0.5589256145154039
47,0.5588848761361594,0.558839584841231
48,0.5588652643683701,0.5591036190591033
49,0.5588100565477451,0.55935749175981
50,0.5588300899488267,0.5591034040630637
51,0.5588041329809104,0.5587751631479234
52,0.5588065669603061,0.5595381502085245
53,0.5588202953993727,0.5589532185604653
54,0.5588135412981394,0.5588693010868453
55,0.5588142863004305,0.5593640381054379
56,0.5588565027580779,0.5590850525034493
57,0.5587991501952538,0.5588169115583772
58,0.5587594373882343,0.5588230895390411
59,0.5588067577891995,0.5591394606799676
60,0.5588196868974645,0.5592873514937473
61,0.5588094100525879,0.5589371641568719
62,0.5587996564302354,0.5588759242545904
63,0.5588162632991175,0.5587997426146363
64,0.5587905842367809,0.5589782827847972
65,0.5587931590396857,0.5588775618522327
66,0.5588013468248512,0.5588019180306323
67,0.5587900073507338,0.5590197691317667
68,0.5587891132528249,0.5588511438750102
69,0.5587913231864128,0.5588223451321959
70,0.5587760708142703,0.5590301750713903
71,0.5587805552149067,0.5591165985131819
