epoch,loss,val_loss
0,0.6791764438444569,0.6724368323121789
1,0.6142961387652124,0.5617932433513622
2,0.5623053246367606,0.561434680158873
3,0.5611656123657682,0.5604396149010488
4,0.5607349992061007,0.5623804427925574
5,0.5605238313236346,0.5600582681745847
6,0.5599359234957206,0.5596112222098863
7,0.5596892998474197,0.5601978321803105
8,0.5596232366496379,0.5607150524859954
9,0.5595331895915309,0.5593659492237019
10,0.5595055277630445,0.5593197800736589
11,0.5594002794549633,0.561060092243341
12,0.5594083536698223,0.5599025370151752
13,0.5592710252657205,0.5595200776333791
14,0.5592028270167714,0.5592004887628649
15,0.5592092982567839,0.5591500977742183
16,0.5592192483710144,0.5591071340389289
17,0.5591603561173052,0.5591513952897188
18,0.5591224911601635,0.559619833858044
19,0.5591429251351802,0.5591575591766214
20,0.5591259165544011,0.5590580999586505
21,0.559050317051133,0.5599665830478001
22,0.559100509076731,0.5597040201931911
23,0.5590482423458388,0.5590230985419706
24,0.5590098270230955,0.5593946134881029
25,0.5590473062449884,0.5589580111063952
26,0.5590514376839653,0.5590939361050786
27,0.5590051740628901,0.559820908512394
28,0.5590530462540272,0.5589593065147143
29,0.5589715241722288,0.5590956864210445
30,0.5589964696415439,0.5589099414375286
31,0.5589554676251807,0.5589402192522904
32,0.5590031413930102,0.5589908635474412
33,0.5589471064208117,0.5591519937821912
34,0.5589567851367417,0.5589754814512037
35,0.5589093948485294,0.5589509500684652
36,0.5589144245405296,0.5588932736429488
37,0.5589086505860549,0.5589455574417351
38,0.5589154666864536,0.5589593193166357
39,0.5588895793897695,0.5589302089439232
40,0.5589399279783317,0.5588388320586042
41,0.5588933018796365,0.558856686916375
42,0.5589484581390036,0.5592168357681901
43,0.5588785239303654,0.5589990087037485
44,0.5588687782215085,0.5589670985963591
45,0.5588593787411336,0.5590015731965019
46,0.5589060078146253,0.5592159655869674
47,0.5588481240254224,0.5590547161746944
48,0.5589067475026619,0.5592609223982309
49,0.5588520489638201,0.558957599485973
50,0.5588581484290909,0.5589554285067059
51,0.5588577712553828,0.558935759609261
52,0.5588841525193661,0.5588565053811059
53,0.55885378404533,0.5589484366563311
54,0.5588156735481694,0.5590160064681171
55,0.5588145564506436,0.5588068868491721
56,0.5588337309812244,0.5590051993063233
57,0.5588447184269242,0.5592114023532044
58,0.5588351458986658,0.5590604477082037
59,0.5588379040306447,0.5594562183775049
60,0.5588422160949769,0.5589030829960933
61,0.5588138651965872,0.5588958860078995
62,0.558814560813302,0.5588593040039536
63,0.5588480784250525,0.5588652501205373
64,0.5588060830793605,0.5588071874348981
65,0.5588088841898787,0.5588410176187197
66,0.5587997313606594,0.5589155734464233
67,0.5588660045562064,0.5588885122070645
68,0.5588039473801478,0.5588852315373437
69,0.5588036471360625,0.5590915383655577
70,0.5587990522514535,0.5588144331000419
71,0.5588124941499828,0.5593854072971144
72,0.5588169620289916,0.5589761506136706
73,0.5587911975051406,0.5588747797162267
74,0.558745092782252,0.5589020369128703
75,0.5588756450035741,0.5589267081531586
