epoch,loss,val_loss
0,0.5683994521779485,0.561254757042358
1,0.5614442654481889,0.5604670453630686
2,0.5610321464505141,0.5608017526356529
3,0.5605793075607042,0.5599234513839156
4,0.47828030111503544,0.4494574794677799
5,0.44975826007408864,0.44981020737719335
6,0.449480182604214,0.44935408372780766
7,0.4495126000932745,0.44978090409678534
8,0.4492952969371475,0.431595383613354
9,0.33977763334553346,0.33938135195316355
10,0.3391618695847164,0.33883633584361195
11,0.3391296114124601,0.3399809957620072
12,0.33887188417220787,0.3524792135651274
13,0.3406085023897343,0.33949020301116084
14,0.33908751389090674,0.33872454969364957
15,0.345220310666502,0.3390963873085575
16,0.33889256223372993,0.3389363224075624
17,0.3387711941193469,0.3390292470176471
18,0.3386582244924145,0.33848384481209975
19,0.33864758861557087,0.3390250742954309
20,0.33867050866563153,0.3384845357187732
21,0.3386214092883178,0.3395118327203494
22,0.3386202999045086,0.33850405294150987
23,0.33852411358987355,0.3389697661406618
24,0.33855701421935713,0.33867064301572447
25,0.33851672232519525,0.33870119333987253
26,0.33849329086002544,0.3389168988432167
27,0.3385446243872113,0.33902222255361
28,0.3384831100162248,0.3393337531916984
29,0.3384772473473019,0.34015714947506853
30,0.3384964552578674,0.3392828078713843
31,0.33845568961146927,0.33924293493182606
32,0.33842368099316017,0.3382786066531288
33,0.3384937764196768,0.33830237592446233
34,0.3384355009802226,0.3382652547414952
35,0.3384324225218108,0.3384772917107846
36,0.33842307749277867,0.338710171372879
37,0.33845129533079116,0.33911533948370903
38,0.3383349506658536,0.3396511585986896
39,0.33831258831390804,0.33843162981437563
40,0.33830644620612155,0.3392409574955855
41,0.3384206669411412,0.3386613390366928
42,0.33829338778385937,0.33890906084831196
43,0.3383815193419392,0.33835719889805826
44,0.3382932841855454,0.33875782123084686
45,0.3383182780231889,0.33864928550884554
46,0.33835365211624524,0.33828340960789965
47,0.33837673052586664,0.3387187551511797
48,0.3383228608271872,0.33893769758169934
49,0.3382598769059922,0.33827003554968327
50,0.33831321703158496,0.33822977303039714
51,0.3382588197540762,0.33828582268537183
52,0.33825363394596647,0.33820742661479863
53,0.3382503393743023,0.3382118155137115
54,0.338271452870789,0.33830448906742294
55,0.3383837613530677,0.3384524156238707
56,0.33827601129684476,0.33827691424759143
57,0.3382776979591991,0.33825035974301293
58,0.33826691781248736,0.3385519116275114
59,0.33822997816249906,0.3383090432424235
60,0.33829030629841206,0.33830248349660413
61,0.3383054174157211,0.3412915470386657
62,0.33822232808981384,0.33859531377301716
63,0.33824239427224995,0.3383076669193962
64,0.33822809705476276,0.3383295296627329
65,0.3382766197938115,0.33843207190951224
66,0.33818667964907406,0.33866567394305214
67,0.3382787842202125,0.3383755615442001
68,0.33826607395080244,0.33823134559131385
69,0.3381972760720959,0.3383930840867517
70,0.33821534274085646,0.3383620669848543
71,0.3381993582440306,0.3382326710931487
72,0.3384240542496527,0.33831372997925535
