epoch,loss,val_loss
0,0.5295198693168726,0.4395910650844544
1,0.4194602463885749,0.37002521847398995
2,0.3767770358460317,0.38397226120979655
3,0.38531475429007,0.38418392167847837
4,0.39011677109794934,0.39067969838746813
5,0.3896011582119383,0.3813897587929359
6,0.3883218252830368,0.3767724968875217
7,0.3802724485393527,0.36862118809168604
8,0.3737935886608897,0.3644148187319312
9,0.374451723709095,0.3698863717591377
10,0.3784842437310375,0.3672413818226523
11,0.3817462003964791,0.3970795603323472
12,0.3852444737196731,0.3834238360270611
13,0.38857651070105753,0.3904728046438312
14,0.3897967270786147,0.3943419526106933
15,0.3924176337764703,0.39137852194277245
16,0.39363757153447393,0.5576249848883643
17,0.3967096065993694,0.3966111269821402
18,0.3995596596377073,0.39971949088357056
19,0.40065493298282057,0.3955853952134606
20,0.40339790886159327,0.3986577616729601
21,0.4054671510589494,0.41005281717079123
22,0.4083072212721995,0.4030757383888127
23,0.4096248596668434,0.42002004326189607
24,0.408901789431854,0.40904128967821834
25,0.40856072334029214,0.4062555799262206
26,0.40954276210636636,0.4038891291279631
27,0.40920631395731805,0.4046555446327062
28,0.4092347892306501,0.41146688587851854
29,0.41039869574000604,0.40167950428934107
30,0.4096503607708392,0.4035697317349224
31,0.4091136354646332,0.3999459587784385
32,0.40910159780395977,0.40177544692697353
33,0.4102893954963326,0.4119084186693205
34,0.4094285261835888,0.40717510111047794
35,0.4100520262639109,0.4028038546948708
36,0.4096277726354073,0.4096868048056713
37,0.4108445769091018,0.40294569773098193
38,0.4104846541425116,0.4080809181660484
39,0.410765372425151,0.40858764011462845
40,0.4107646998241365,0.40233101558760576
41,0.41017068591382766,0.40701125829165247
42,0.4112089263330356,0.4068499471648246
43,0.41074535967730025,0.4113177500235912
44,0.4110112271363215,0.40998817607466403
45,0.41122053550492277,0.4072857503591792
46,0.41135905014811086,0.4161154580050411
47,0.41166659848962567,0.40707267607961384
48,0.4115324479451092,0.4164376157235234
49,0.4103753870839981,0.4065204906764704
50,0.4118543635907886,0.4039296891478544
51,0.4111063226187925,0.4098838267828784
52,0.4107065496923064,0.41114795871296544
53,0.4088314318304344,0.4021155062677734
54,0.37809607639110726,0.3250709944525947
55,0.32008144402389616,0.3204130532003898
56,0.3092312583510729,0.22886812565782075
57,0.21703842647379631,0.18809311717583987
58,0.20624767268280522,0.23567551361498348
59,0.25765813925831343,0.256570849570592
60,0.2740974668249619,0.2739284088880694
61,0.2761770413278771,0.26271921244538854
62,0.27323457127590356,0.2666363726239931
63,0.26837996425602934,0.25974639780942904
64,0.2657451923909805,0.26126324237804294
65,0.2655000077794305,0.25448297762739064
66,0.26520854753436895,0.29343089965872626
67,0.3246429639516307,0.32719586230961467
68,0.32632494852435195,0.3076772632660975
69,0.34486597678739483,0.3554278706695117
70,0.3576990658168694,0.3505670081327163
71,0.35160550640689003,0.33854121734236015
72,0.28775822745262386,0.22157722041187272
73,0.2367084827497423,0.18538909876497128
74,0.19955405178997251,0.1617489627017783
75,0.15611025355130934,0.1358331679568671
76,0.15146505978288982,0.11910373109503816
77,0.12026625225464885,0.11816113421600827
78,0.12833628787411203,0.12992467574816383
79,0.1312518074816699,0.12872208485522418
80,0.13425342041215926,0.1380972770684426
81,0.14090584559465866,0.1457998344546806
82,0.14131739327935672,0.11231887979166848
83,0.14013955021183266,0.13052806244676474
84,0.13930915670691252,0.13966593586184797
85,0.14271969144209493,0.15555801291398016
86,0.13739661740170395,0.14411249662725212
87,0.1376593513764161,0.13134645234908093
88,0.13731628946429916,0.11349193942339851
89,0.1359308619323156,0.13380520642038962
90,0.13514474868702947,0.10539155142365617
91,0.1325025083623725,0.11616401888882916
92,0.13476418834819878,0.11432445675558055
93,0.1320785187470684,0.11809224140813432
94,0.1340492674611884,0.1286131894332081
95,0.13207462904967374,0.12883037236984451
96,0.13094516607116072,0.12754585432813406
97,0.13483124039322733,0.13345488804174205
98,0.13550031116659597,0.12249822747594462
99,0.14046376424251225,0.1231057668117999
100,0.13973108671611542,0.12687268275135413
101,0.140923984744828,0.14031301027174153
102,0.1401154092973847,0.11572604665228393
103,0.13459398648697884,0.1255157755389398
104,0.13558603883933107,0.12295595759374472
105,0.13620440024051736,0.13097346698734452
106,0.1362403062679213,0.12553680087744767
107,0.13564315714615044,0.11532271752206001
108,0.14555026677777347,0.1176457422496582
109,0.14392344356119205,0.12483210501796915
110,0.1414604049881728,0.12818885915093095
111,0.13927052212919264,0.13501687567231216
112,0.14421258569895315,0.12001750398877105
113,0.14334146291922797,0.12794990677624682
114,0.14114137147244313,0.13730662907661184
115,0.14066271889183543,0.12641248007576203
116,0.14209829908992938,0.12643868120382787
117,0.13646651644834415,0.12302898251596359
118,0.13461990558879552,0.1263717840577828
119,0.13548642457972804,0.11439952491867138
120,0.13780643866895487,0.12677254737152674
121,0.1353447550534011,0.12804497453224592
122,0.13481630633870284,0.1194277072903107
123,0.13064911135499901,0.11236126609764047
124,0.13021949312979464,0.12889774043139454
125,0.12944412846073544,0.13001047568167864
126,0.12861290580625062,0.11789992550460014
127,0.13039908155227165,0.1174636402276904
128,0.1348682920620453,0.10599990106160563
129,0.13460977764116774,0.1179991279035548
130,0.1363865982988279,0.11972778429289738
131,0.1344327287529584,0.12120511405164083
132,0.13867687460163133,0.15407037599734086
133,0.141375137241386,0.1342503832978062
134,0.142329752364819,0.14298924629671328
135,0.14392698571669588,0.13354753682885287
136,0.14526168591410613,0.13817602835283943
137,0.14745630496304385,0.14749812242452234
138,0.15034651692560633,0.12874643657512333
139,0.1525767883248657,0.1379476500338424
140,0.14951794080847172,0.12658171856154019
141,0.14539239538325777,0.12506585341202714
142,0.14776081184474685,0.14235961238464787
143,0.1414228157578803,0.13926865406857764
144,0.1432332745124158,0.13291033983653985
145,0.14162684736742104,0.12339749748229792
146,0.14410134356358736,0.1384500702100658
147,0.14892120596220929,0.1308349060290144
148,0.14384707569968785,0.13010924075448616
149,0.14045089644065006,0.1147978608015022
150,0.13756371294851782,0.15449790731248841
151,0.14296998042794917,0.13899062149338395
152,0.1459385071524518,0.13685712194762648
153,0.14178960662570408,0.1392612126733058
154,0.14033941890326718,0.13226481500627868
155,0.13748117794485973,0.11319812195524044
156,0.13313799685568548,0.10703983658890887
157,0.13332547736968353,0.10763339409582617
158,0.1329826310300808,0.11380247602381853
159,0.13426309512208978,0.1180271167475686
160,0.13829253688097287,0.13598441250251803
161,0.14394992299312406,0.14097562741014838
162,0.1438751954564469,0.15548934789864022
163,0.14207337035847414,0.11811169474470211
164,0.14207947001957016,0.1282398933581508
165,0.14365487382542505,0.12855649817714376
166,0.1482762926780015,0.14270680536528507
167,0.14923713283001375,0.18470700891966318
168,0.14676241180915342,0.12425198243679544
169,0.1396941263064873,0.1244134501375452
170,0.13912481601408822,0.13433254739503364
171,0.1394450854090192,0.12132605398698594
172,0.134436231160121,0.12077207161788406
173,0.13033553739364961,0.11581976212496445
174,0.13005022300209262,0.12793913658270237
175,0.13347600295329742,0.1174268539886166
176,0.13415880940205377,0.13627473022068404
177,0.13531891083557734,0.12037220342641942
178,0.13671881707309247,0.13238200240113554
179,0.13465590928372242,0.12456499153620254
180,0.13572493171710953,0.11509288984461855
181,0.13270831732250613,0.14319048553775782
182,0.13272619647957343,0.1353063831883523
183,0.13154459519268608,0.13130132827522628
184,0.13204229511409926,0.11504799395141022
185,0.1342886021103171,0.11677719115175972
186,0.13107054300016638,0.11447276342028036
187,0.13091779072626794,0.11195804545069268
188,0.12507559753638758,0.12191147920576342
189,0.1254299959208039,0.10445341343190977
190,0.12917586525293182,0.1172605496143956
191,0.13158571175474534,0.12164525236660981
192,0.13118417750445488,0.1269647741915207
193,0.13161692336547098,0.11326848752590833
194,0.13199099899529457,0.1310935741806463
195,0.12892692304736705,0.13259229941356812
196,0.13269759134220468,0.11021002974205349
197,0.13122443741352724,0.11166059440435532
198,0.13097437926166824,0.11988005161450054
199,0.13243088051438523,0.1139290051236337
200,0.13199007832448928,0.1298598461588161
201,0.1362686367909447,0.1121874519204096
202,0.1332250728691034,0.12344673928093891
203,0.1307984127117385,0.11169922649389943
204,0.12532977535308218,0.12938101442079425
205,0.1294607367309973,0.114971509878101
206,0.12767348188659747,0.10929980170755002
207,0.12426771011819943,0.11563060225679259
208,0.1252220726425318,0.10064010974828333
209,0.12735144601915951,0.10382578712494804
210,0.1275987803912182,0.11765235500158808
211,0.12762817016822828,0.11363863097040693
212,0.1296379821543261,0.12877480693943594
213,0.13334116299184773,0.13187933757301382
214,0.13399360117187603,0.13548595541184025
215,0.13625867946220815,0.12113499132756088
216,0.1369078682659627,0.11897528315611307
217,0.13633134648156203,0.1312907809228434
218,0.13442491755770933,0.11874626219954751
219,0.1314116106402102,0.13131490551470393
220,0.13134214962474544,0.12589818960748136
221,0.13193821843019682,0.1136463328772581
222,0.12762979708379693,0.11826004645983441
223,0.1241874682019464,0.10699820119208393
224,0.12339887080146826,0.10966900293292638
225,0.12763492637377183,0.12774069012740322
226,0.1309179796380915,0.11653570967249355
227,0.13128744428165906,0.11237768478391673
228,0.13000617002685674,0.11685309844310583
229,0.12853510949989969,0.10560800387408664
230,0.12987336667952873,0.11938279342044501
231,0.1272500115070793,0.1222130680822818
232,0.12668178984217887,0.10886683249765244
233,0.12695135058258936,0.11946553399973059
234,0.1261793304157319,0.10014369256423981
235,0.12776206674978888,0.12033286985324515
236,0.12690281028525055,0.13025254396914307
237,0.12752458025856936,0.09681797595055158
238,0.12684584327703186,0.10625680528387087
239,0.12542722928974268,0.11365281591146315
240,0.12714849060161604,0.11995401654477748
241,0.13030693719355607,0.12956161979929895
242,0.12946206615935507,0.13096758061115818
243,0.13368169148024514,0.11314773344932434
244,0.13359921298129,0.1216263621986712
245,0.1323127908874854,0.11142280127415059
246,0.13133256864562023,0.11514736045131367
247,0.1291908647546427,0.09983441117789299
248,0.13045973957871362,0.12498539448631214
249,0.12718343696624732,0.11693460881804141
250,0.13007344475550522,0.11781121533431684
251,0.12981153781608426,0.11868893852620588
252,0.1275578121171533,0.1219048887644119
253,0.12596088328914676,0.13154092272883244
254,0.131126390327867,0.12792904187514262
255,0.13269297167253818,0.11987793814293869
256,0.1334662563878474,0.13108206777329887
257,0.13200286650459925,0.11924658569300749
258,0.1352998733038096,0.1169115072491137
259,0.13411759175985552,0.11769046003459097
260,0.13618362454666222,0.13512730466726736
261,0.13649481790755197,0.14431231073158976
262,0.1344437843812503,0.12138919919235272
263,0.13613872651716502,0.12186874601557769
264,0.13234504683316944,0.1147773251431423
265,0.13516035431818807,0.1203068223353343
266,0.13182057657961746,0.12763897358971313
267,0.13289094150816794,0.12104906125292593
268,0.1252724819069953,0.1089663654624616
269,0.127717635670988,0.11865757054104613
270,0.12451697352061646,0.10502794509622744
271,0.12444599137770282,0.10644107337250142
272,0.12344333768295918,0.1121502821028656
273,0.11940254110524313,0.09421185372895675
274,0.12236846536457491,0.11164731597020669
275,0.12212210217956826,0.10137901298742927
276,0.1242591672086363,0.10952770368923045
277,0.12316057860827465,0.10564485155251803
278,0.12135971438505952,0.10779070039151123
279,0.12212808870023294,0.12522599489178918
280,0.12636340306781466,0.1104844360661582
281,0.12545751294286417,0.12440978785669513
282,0.1301765969271759,0.1182880701927943
283,0.13085333842763322,0.11914988044405322
284,0.13409394223234064,0.11351463731434182
285,0.13773212098270107,0.11711454836044523
286,0.13685367268612153,0.12318997801338112
287,0.13470479872801322,0.12101429836690755
288,0.134655585907084,0.1415619764362345
289,0.13677218382497677,0.11370808253066221
290,0.13667298216137477,0.1142715825666192
291,0.13524686480812032,0.12367792798010684
292,0.13381322912222665,0.11461549878543818
293,0.13227774979446907,0.11113923674577225
294,0.13067356274306155,0.12399887459995056
295,0.13501006139994715,0.1170526540587526
296,0.131262663168182,0.13287292483197297
297,0.13045411510206908,0.11321120865601861
298,0.13116729175515598,0.11438221142178176
299,0.12974192434959084,0.12396853429507156
300,0.13266010605078712,0.11860131055422439
301,0.1302482208592905,0.11257430614099412
302,0.13624734690280366,0.1248479437468178
303,0.13852411456447805,0.1313046022790948
304,0.13670102302595485,0.11185236406330998
305,0.13463826628802397,0.14148696806008362
306,0.1349458869108908,0.1149024550098082
307,0.13253905192958557,0.11726066601281102
308,0.12954831736789144,0.11999674086130409
309,0.12908992344300618,0.116484416594351
310,0.12738913963202664,0.1031346909507768
311,0.13067008997741744,0.1103803048405764
312,0.1279519033892978,0.10476912487512888
313,0.1280090608459106,0.1331277762340483
314,0.12617538318180924,0.12489543225389818
315,0.12689662921569234,0.12050265133757242
316,0.12601000996087666,0.11195863806293438
317,0.12556705498795429,0.11130492685578805
318,0.12618921000620634,0.10698872075460987
319,0.12744965202373854,0.13299607250901216
320,0.12894250244664537,0.10675715528657893
321,0.13046925415178473,0.11845687295779904
322,0.1277125654436892,0.11267602503088016
323,0.12491451632037914,0.12317897758689939
324,0.12703511928566258,0.12801283577364453
325,0.1277114860594368,0.1074952570972898
326,0.12739337626978647,0.11304014580707994
327,0.12952166152515,0.11327009809798111
328,0.13429751862689174,0.13130155471524763
329,0.1346100903809261,0.12657995363249022
330,0.13340754785852657,0.11479832241407227
331,0.1332203243180907,0.11841885480903318
332,0.13430234322921455,0.1207546995395549
333,0.1321429238348699,0.12115232135450736
334,0.131281004922329,0.13262561491698663
335,0.13256265480610296,0.12585591711838978
336,0.13712683972194611,0.11493032469745687
337,0.13608238176642942,0.10787837733033141
338,0.13550283906044816,0.11699395894933706
339,0.13620908705176685,0.12070394642562873
340,0.14057698499539392,0.12437854236213824
341,0.13866944656038074,0.12679210331088084
342,0.13725821915373718,0.13421261783956823
343,0.13491378569726845,0.12447526936890482
344,0.13646209428159833,0.13636137555693678
345,0.13552754323223798,0.1461799106639299
346,0.13776819455883296,0.12707807758753942
347,0.14241197771674913,0.14655106435893742
348,0.13915241422127192,0.13238926462376316
349,0.13950663800243374,0.1296490370262864
350,0.14083339542531662,0.13692127862664405
351,0.1399491720711537,0.12061679048056478
352,0.13962064009252118,0.130882462538079
353,0.14044836828176924,0.14081657994259222
354,0.14569876428773934,0.14234584843373807
355,0.14472949571556135,0.1384034822117934
356,0.14564731334753744,0.1372781075131451
357,0.1433899627565194,0.11813416550760676
358,0.13884558726390966,0.12201893928254225
359,0.13594753707913185,0.11574332869443352
360,0.141181846769403,0.1320294908644086
361,0.14242541765887962,0.12512309047751477
362,0.14731313795637455,0.12917464875102325
363,0.14771623923171529,0.13180201174287035
364,0.1477590764758827,0.12187044384235836
365,0.14653800505337763,0.13413026140327988
366,0.1446706687660812,0.12329155740040725
367,0.14498149130127128,0.13211353583042323
368,0.14094529637722947,0.12527609156075667
369,0.13937783035204757,0.1306290454991991
370,0.13853927908076658,0.12919254562190507
371,0.13886201712820265,0.12961249187553409
372,0.13983137423781564,0.12172635060153614
373,0.13776145727752592,0.13069314382023575
374,0.13782864908198658,0.13193936781235915
375,0.13423995323759094,0.12673920933407126
376,0.13124730853701858,0.13137986398674695
377,0.13167685073473567,0.12181506781076576
378,0.1314364540145742,0.12235227969328813
379,0.13380336318370536,0.11171658429439932
380,0.13262132578771368,0.12107354868276908
381,0.13885399295116882,0.12824486772917157
382,0.13632637297185204,0.1306107295199276
383,0.13334768802987682,0.12090405163185372
384,0.1324127938249986,0.11539014040153611
385,0.13339669149008682,0.11721665095817224
386,0.13101693256486424,0.11834977901207713
387,0.1335448638783942,0.12836641922957706
388,0.13480371452993054,0.12735903415984776
389,0.13633148265864065,0.12137314064491425
390,0.1364633091699353,0.12264628198524112
391,0.1357324294549384,0.11872414157276748
392,0.133954863194272,0.12636152845414117
393,0.13142209629313076,0.12614648796812042
394,0.12891734688938092,0.11738701020650442
395,0.12631984340915864,0.12637993752156643
396,0.13054693640648224,0.12194942522444119
397,0.12854364805584617,0.11218214757158329
398,0.12898954550186983,0.11024928366987369
399,0.12690938597352958,0.1183457038443956
400,0.1297025684115412,0.13116100194092895
401,0.12855541249580807,0.11066246617235531
402,0.12839320626595227,0.10213117003323247
403,0.12804865155169529,0.11456322996350095
404,0.125499621659017,0.10578507805373975
405,0.12701501114834413,0.10233547198038545
406,0.12323620710834611,0.1081563755517036
407,0.12385953926175332,0.09805258377010463
408,0.12568850844479101,0.10635601451595468
409,0.12145936177324335,0.10794428862401982
410,0.12293266282855368,0.11564988969886218
411,0.12664305453570626,0.11507362262555343
412,0.12532738031302806,0.12078404817627279
413,0.12495525223876743,0.10876991046444111
414,0.12481921827264256,0.12161977037540457
415,0.12473509531113788,0.1072262443408029
416,0.12514450023178575,0.11505295791396403
417,0.12796056702089825,0.11404089096877738
418,0.12937601295401818,0.11997578728829393
419,0.12960988872473855,0.12659860714599666
420,0.13248652084280166,0.1266284311615113
421,0.13421591411201025,0.11479477560252022
422,0.13338162532622674,0.12924259384739747
423,0.13121063920924608,0.12375293680905543
424,0.1315264377436287,0.12442522705330468
425,0.13260940615412334,0.12414884133868642
426,0.134394494913441,0.11826768124677482
427,0.1315279273177794,0.11533293043334558
428,0.12895333573972578,0.11196686014027321
429,0.12420693029471629,0.12239020375421693
430,0.12187909778895424,0.1033706563071369
431,0.12544299892300992,0.12449247574091146
432,0.12597795556501137,0.10985876722136349
433,0.12782020257304993,0.12754445090807603
434,0.12717324503653532,0.11682749781301856
435,0.12717279272494939,0.1218152621433127
436,0.12270196707104798,0.11105112320998567
437,0.12107623640974935,0.11403062056982338
438,0.12790421614770314,0.10661161974978052
439,0.12134886734622369,0.10181569221011277
440,0.12028052905599752,0.10755138079787957
441,0.12307555573306782,0.10088570153703817
442,0.12525453957186328,0.10546309405668758
443,0.12261169864167032,0.10343113791523906
444,0.1252437938960622,0.1238653877927924
445,0.12274368521835592,0.11457480245579296
446,0.12392011223782262,0.10295469009250567
447,0.12276759459603605,0.12160814165386893
448,0.12553157361386585,0.09951064839735686
449,0.12445665845315423,0.12087054085500991
450,0.12374849073428044,0.11384254884512855
451,0.12540723703545537,0.09796093047935378
452,0.12381962703453074,0.12824974403714418
453,0.12486704471978924,0.10588331459988358
454,0.12472140116633462,0.10966280600807285
455,0.125199634983814,0.10065075862144239
456,0.12681547674736818,0.12240814522273351
457,0.13016483064392487,0.11233501687892893
458,0.12926708021574168,0.12072870437564488
459,0.13020956489167435,0.12064908478400231
460,0.12991851547377095,0.11545790490218759
461,0.12640192119968977,0.09894112010075524
462,0.1272033777841323,0.12295873789521024
463,0.13012977202626155,0.12043096153940284
464,0.13085690507595296,0.109739350179988
465,0.12634328327221359,0.10464666188704093
466,0.1245440040364397,0.11664921638644767
467,0.12617121910531934,0.12395432464419713
468,0.12719750054758325,0.1197625960105032
469,0.12663775322725065,0.11479231951598022
470,0.12789458763315906,0.12577182848973828
471,0.12547091517350276,0.10131358008334838
472,0.1247939772749071,0.11327048909174897
473,0.1246245665122851,0.1346130235372045
474,0.1289252440908925,0.11122456615189445
475,0.12833627913114454,0.11056131158015252
476,0.1279991766263684,0.13135896394971608
477,0.12321826440098284,0.09643170532153739
478,0.12197527247105094,0.11671794762786393
479,0.12403523708752495,0.11710111492834603
480,0.12378069828692481,0.11544513000850143
481,0.12619634755819345,0.11573268925358013
482,0.1265095753712858,0.1033915187972403
483,0.12488157044259383,0.10466609966383267
484,0.12925892745812448,0.11031782794699672
485,0.12932383286045324,0.12196170903254233
486,0.1252437820591086,0.10541844178629185
487,0.12914054433433272,0.12602801717988318
488,0.12730953298348316,0.13632828202436736
489,0.12596310572408373,0.11705682738945064
490,0.12780677548034206,0.10769975006627397
491,0.12587683564789004,0.11086646354541876
492,0.12727279877431577,0.09328327765475132
493,0.124269858273647,0.11161903959964332
494,0.12404480565497153,0.11886005739269054
495,0.12711218679599243,0.1253378891930772
496,0.12561923626670354,0.11101996497013669
497,0.12672023142544295,0.11043992322805649
498,0.1260159703419744,0.11136287145004935
499,0.12328604417596217,0.1224645890865913
500,0.12470074892818309,0.1147881596339624
501,0.12332776871373613,0.12368460024847416
502,0.1263252923534595,0.12125532711314327
503,0.12472665587441623,0.10333676922598879
504,0.12470066070342235,0.10974479942408338
505,0.12460826130674707,0.10285238521180946
506,0.12121008280262673,0.09222333037368688
507,0.12490229680538655,0.11818194000642884
508,0.12782701729334517,0.11944861221990909
509,0.1310222232900411,0.12267119396292703
510,0.13049666512963012,0.12405254607160165
511,0.12746821816781348,0.10606502300538505
512,0.12388606716117127,0.1119479557121468
513,0.12110577637759996,0.11048665398698015
514,0.1218733980947976,0.10125668514475826
515,0.12319844489474949,0.10536064022906483
516,0.12203146675996167,0.09735919360509517
517,0.12290465845454701,0.11734608433781972
518,0.1255971384491566,0.11815492683564384
519,0.12745706797491826,0.11830124113746958
520,0.12774241853544085,0.11353196194299865
521,0.12342693404756862,0.10217447086121967
522,0.1211680953862141,0.11353090643035961
523,0.12214292863980948,0.11380686358664105
524,0.12059721733025795,0.10580325285421174
525,0.1206389602324326,0.1025776814290079
526,0.11569981409503306,0.09374620201508643
527,0.1188517522653468,0.10677816795851174
528,0.11615845378783109,0.10824166573495872
529,0.11797826156484709,0.0981543663280539
530,0.12081382110667267,0.11779758489992831
531,0.12337983028887273,0.12809483970397084
532,0.12215745027998177,0.11106104239668542
533,0.12311687866310707,0.10035781083656467
534,0.12532176990672458,0.12083857091939064
535,0.12403642341828079,0.1266176684479499
536,0.1237160462966497,0.10771680675041233
537,0.12454824797290978,0.10770508557581582
538,0.12331342517876988,0.11428023448424163
539,0.1222845463009237,0.12296788923107176
540,0.11882459468466582,0.10516273499052639
541,0.12002279100824985,0.10167755758729428
542,0.11736266501396775,0.10569686776037374
543,0.12329610143836549,0.11109896606950188
544,0.12278051202376779,0.12794560909083064
545,0.12428805759723047,0.10932966811551574
546,0.12407602020781294,0.10762569716386938
547,0.12716472000598336,0.1092439562482164
548,0.12844753246620405,0.11012646802293097
549,0.128353274244961,0.10223082487707356
550,0.12853738767721004,0.11877803525636774
551,0.12545714143523687,0.1033344265446949
552,0.12196892408801498,0.11346468467033088
553,0.12118027461685246,0.10931527763957948
554,0.1205630650688752,0.11027714390757522
555,0.12266945928561507,0.11170283143409332
556,0.12137736929513568,0.13036546082292472
557,0.12149993651848046,0.11163726255544641
558,0.12180232072322013,0.10296992370719127
559,0.12146244248111757,0.12567711954946675
560,0.1269334533380614,0.12804652479401515
561,0.12613803037493634,0.1161283109140095
562,0.1224332705652304,0.11474709299811248
563,0.1260227182184716,0.11515601864929922
564,0.12384769523577344,0.11431869459298058
565,0.12135933636487435,0.12600632554659622
566,0.12517741066720084,0.11263345908770528
567,0.12184295462046882,0.11299324396706606
568,0.12127447403151449,0.10838449158321334
569,0.12344411912438967,0.1100814405067191
570,0.11959681158169187,0.11427288083175834
571,0.11936002080853608,0.0932010838610503
572,0.12115092009163017,0.10641008522582035
573,0.1185788362831187,0.12400458320304927
574,0.11905951505835108,0.11110494482230275
575,0.11984523059688598,0.1183743516619787
576,0.12150462704608671,0.10905270834748164
577,0.11739369516940616,0.10812087168868546
578,0.1212930251463807,0.09804184047980109
579,0.12016526031062948,0.10179986457774841
580,0.11931503979231624,0.10633521137175451
581,0.11862644416501196,0.11025989702487425
582,0.11924979416169613,0.10067648205379849
583,0.11913461712219542,0.0967507751301319
584,0.12106081541719958,0.09334046637085167
585,0.12291245691650968,0.09951643125340048
586,0.1216307531842749,0.1003926651641997
587,0.11937599605936512,0.11749542812686693
588,0.11821718929673461,0.0954235479906025
589,0.11706160381138563,0.10871108429066854
590,0.11746473774480687,0.10334438100257255
591,0.11759654433130741,0.1120847401862645
592,0.11917751499836585,0.12075047686566681
593,0.11953148816367515,0.09848002093861022
594,0.11996204364928696,0.10223320995669903
595,0.12141171867529646,0.13043507420837927
596,0.1203517499182531,0.1087922369612891
597,0.1199015800585802,0.11248863166772952
598,0.12257178995511134,0.10661594833717068
599,0.11944425926744033,0.09502640235419338
600,0.12171894157354494,0.12254904615145173
601,0.1221402310650888,0.10297512243654
602,0.12267515301216039,0.12233795078608024
603,0.12314662438847845,0.12944663450086596
604,0.12275525818256547,0.11653744609292888
605,0.12084572584473258,0.10123589528458458
606,0.12072295436768128,0.1287840369503707
