epoch,loss,val_loss
0,0.5873827362325457,0.5849902149438858
1,0.5850727151897218,0.5847101052999496
2,0.5847573104302088,0.5844752845764161
3,0.5846343780226178,0.5845707436800003
4,0.584568001124594,0.5844109366734822
5,0.5845461916393704,0.5844429370562235
6,0.5845091768503189,0.5843812375068664
7,0.5844857320785523,0.5843562290668488
8,0.5844536600907644,0.5844091102282206
9,0.5844353552659353,0.584357738216718
10,0.5844122910234664,0.5843521242539088
11,0.5843964691294564,0.5842874705791473
12,0.5843929370906618,0.5842837108771006
13,0.5843741427527533,0.584481640179952
14,0.5843591030041376,0.5848879090150197
15,0.584344812353452,0.5844262096484503
16,0.5843274835745493,0.5842848844925562
17,0.584309494945738,0.5843056327104569
18,0.5842942948208915,0.5841495645443598
19,0.5843318480915494,0.5844266148408254
20,0.584350672033098,0.5843186372121175
21,0.5843362305694156,0.5842618695894877
22,0.5843381073607339,0.5842932733297348
23,0.58433010105292,0.5843181893030802
24,0.5843347654607561,0.5842979990641276
25,0.5843283244503868,0.5843608858585357
26,0.5843336521784465,0.5845093152523041
27,0.5843238376246558,0.5843802312215169
28,0.5843260423739751,0.5842434486150742
29,0.5843283177084393,0.5842941532532374
30,0.5843232647710377,0.58432444302241
31,0.5843191278378169,0.5843528775374095
32,0.5843146071434021,0.5842745506366094
33,0.5843130422963037,0.5843044621149699
34,0.5843146917952432,0.5842935968240102
35,0.5843105977641212,0.5842364297310512
36,0.5843047856754727,0.5843604975938796
37,0.5843150404691696,0.584453296025594
38,0.584308543894026,0.5842971312999725
