epoch,loss,val_loss
0,0.5878184262249205,0.5856012692451477
1,0.5855665687322616,0.5851221993366877
2,0.585201162788603,0.5849835847218832
3,0.5850197479724885,0.5851908447742462
4,0.58492812663979,0.5847498885393143
5,0.5848417012029224,0.58473597574234
6,0.5847782260047065,0.5847574154138565
7,0.5847554671367009,0.5852628948291143
8,0.5847341301441192,0.5846462850968043
9,0.5847160556581286,0.5846583067576091
10,0.5846968099011315,0.5849061331351598
11,0.5847016421953837,0.584576374689738
12,0.5846850141816669,0.584692789832751
13,0.5846751456393136,0.5846342612902323
14,0.584659293572108,0.5845913266738256
15,0.5846573543416129,0.5846939174334208
16,0.5846317352983686,0.5845480974515279
17,0.5846535129414664,0.584582957069079
18,0.584644773417049,0.5845771328608195
19,0.584642669306861,0.5848259164492289
20,0.584641841729482,0.5845834409793218
21,0.5846222904523214,0.5846236384312312
22,0.5845969008339776,0.5844825146993001
23,0.5845736506912443,0.5845046081940333
24,0.5845608348449072,0.5844746630589167
25,0.5845572035312653,0.5845075916846593
26,0.5845471702549193,0.5844454052448272
27,0.5845379953251945,0.5844895290931066
28,0.5845396980974409,0.5844969041347504
29,0.5845321688254674,0.5844233272473017
30,0.5845211401647992,0.5844327790737152
31,0.5845045076741112,0.5844144127766291
32,0.5844883037275738,0.5843567215601603
33,0.5844805660247803,0.5843356902996699
34,0.5844554212225808,0.5843317860364914
35,0.5844421605004204,0.5843894593715667
36,0.5844338306188583,0.5843388338486354
37,0.5844295238918729,0.5842872676452001
38,0.5844202755822075,0.5843231470982234
39,0.5844137865040038,0.5843988470236461
40,0.5844228448867798,0.5843778883218765
41,0.5844080526696311,0.5844352299372355
42,0.5844068892002106,0.5843815586566925
43,0.5844014990992016,0.5842988231579462
44,0.5843930291599697,0.5843341577053071
45,0.5843834599918789,0.5846989816029866
46,0.5843767869604959,0.5842581173976262
47,0.5843802935679754,0.5842720824877421
48,0.584392434252633,0.5844052456219991
49,0.5843852826621797,0.5843313620487849
50,0.5843845103846655,0.5842290400266648
51,0.5843717806869083,0.5843117670615514
52,0.5843693886862861,0.584549853404363
53,0.5843715505732431,0.5842097762823105
54,0.5843662903971142,0.5843091603914896
55,0.5843670479721493,0.5844149635235468
56,0.5843603098127577,0.5843554521799088
57,0.5843542470534643,0.5842591256697972
58,0.5843766125043234,0.5843464988867442
59,0.584344319515758,0.5849809777736664
60,0.5843465012841754,0.5842734632889429
61,0.5843550334241655,0.5844954733848572
62,0.584328653216362,0.5843145738045374
63,0.5843175495200686,0.5846125009854635
64,0.5843105729818344,0.5845831305185953
65,0.5842967225313187,0.5847364924748739
66,0.5842814412779278,0.5844704879919688
67,0.584282859047254,0.5843716156880061
68,0.5842940682040321,0.5842982383171718
69,0.5842829007042779,0.5842834456761679
70,0.5842858404053582,0.5843380130529404
71,0.5842901061375936,0.5843876127799352
72,0.5842804965310626,0.5841407262484233
73,0.5842871641847822,0.5842555739084879
74,0.5842831909656525,0.5843796864350637
75,0.5842842050128513,0.5843777440388997
76,0.5842827491892709,0.5842184600432714
77,0.5842833163870705,0.5843037304083506
78,0.5842746989329656,0.5842880808115005
79,0.5842807181411319,0.5842257305781047
80,0.5842669209241868,0.5841544566949208
81,0.5842755208147896,0.5842718557516734
82,0.5842680562602149,0.5842151363690694
83,0.5842719981273016,0.584194141904513
84,0.5842769724792904,0.584119749824206
85,0.5842645095321867,0.5841911709308625
86,0.5842600969870885,0.5842719314495722
87,0.5842796866893768,0.5849395027558009
88,0.5842602892981635,0.5841515854597091
89,0.584271712925699,0.5841733639240265
90,0.5842632423771752,0.584833932240804
91,0.5842620061768425,0.5842249581813812
92,0.5842646446757847,0.5844641127586365
93,0.5842682880163192,0.5842700116237005
94,0.5842602192163467,0.5844308861494064
95,0.5842544127570258,0.5841479572455088
96,0.5842577913337283,0.5843671645323435
97,0.5842541966703203,0.5841435922384262
98,0.5842553121381335,0.584292051712672
99,0.5842622363832262,0.5848140774170557
100,0.5842548920048608,0.5841458076635997
101,0.584255776670244,0.5842986667950948
102,0.584249551375707,0.5841898814439773
103,0.5842472172578176,0.5842858960231145
104,0.5842598415348265,0.5843818897008896
