epoch,loss,val_loss
0,0.7525460884438621,0.7518058710495631
1,0.7512228793435627,0.7509794323444366
2,0.7510386188295153,0.7508640562295914
3,0.7509333993858761,0.7508123021523158
4,0.7508660768005583,0.7508073512713115
5,0.7508075389994515,0.7509178544282913
6,0.7507603296836217,0.7507463560501735
7,0.7507063389884101,0.7506910235881805
8,0.750676429020034,0.7506522436539332
9,0.7506612716780768,0.7507474708557129
10,0.7506487933132383,0.7506009601751963
11,0.7506438966459699,0.7505890346765518
12,0.7506373492744234,0.7505716177622477
13,0.7506318772766325,0.750559224486351
14,0.7506221771902508,0.7506186149517695
15,0.7506190934048759,0.7505807329416275
16,0.7506128525733948,0.7505539745887121
17,0.7506080741617415,0.750609477519989
18,0.750604498664538,0.7506669490734736
19,0.7505874615510305,0.7505167057116826
20,0.7505698353449504,0.7504957269827525
21,0.7505645824273427,0.750541643301646
22,0.7505496920479668,0.7506534020900726
23,0.7505582376056247,0.7504754943847656
24,0.7505482609139549,0.7506522841850917
25,0.7505402763022316,0.7505643478234609
26,0.7505859519110786,0.7505651238361994
27,0.7506031835741467,0.7505573697487513
28,0.7505937009652456,0.7506318278312684
29,0.7505953588485718,0.7505452315409978
30,0.7505936497449874,0.7506348145802816
31,0.7505863749980927,0.7505799549818039
32,0.7505883660448922,0.7505875531037649
33,0.7505857853094736,0.7507087208032608
34,0.7505800674491458,0.7506477247079213
35,0.7505787249935998,0.750641813079516
36,0.750579020579656,0.7506830083529155
37,0.7505751666227977,0.7505616083542506
38,0.7505690239535437,0.7507443029085795
39,0.7505698779291576,0.7506009747187297
40,0.7505676647159788,0.7505184801022212
41,0.7505662358866797,0.7505174700816473
42,0.7505593363444011,0.7505028126239777
43,0.7505608332819409,0.7505020549297333
