epoch,loss,val_loss
0,0.8900172289212545,0.8894724884430567
1,0.8894433258639441,0.889358616789182
2,0.8893699833419588,0.8893834767738978
3,0.889328417327669,0.8892862811883291
4,0.8893049566745758,0.8892704924742381
5,0.8892898687389161,0.8893743398984273
6,0.8892818712128533,0.8892508002519608
7,0.8892752211888632,0.889269559820493
8,0.8892733794318305,0.8892550249099731
9,0.8892660021649467,0.8892448788881302
10,0.8892627716859182,0.8892673798799515
11,0.8892616527345445,0.8892536119222642
12,0.8892582812574175,0.8892387168804804
13,0.8892577273183399,0.8892374862829844
14,0.8892594260639615,0.8892441049814225
15,0.8892553187343809,0.8892295402288437
16,0.889254994975196,0.8892626609404882
17,0.8892532676060995,0.8892426209449769
18,0.8892518325646719,0.889226744890213
19,0.8892546495066749,0.889242566426595
20,0.8892506156232622,0.8892257091204325
21,0.8892500961224238,0.8892394745349884
22,0.8892492807441288,0.8892316526174545
23,0.8892491564353308,0.8892438394228618
24,0.8892492767837312,0.889234467625618
25,0.889247896499104,0.8892429294983546
26,0.8892479219966465,0.8892434124151866
27,0.8892471191088358,0.8892385462125142
28,0.8892487115065256,0.8892428101698557
29,0.8892472231917911,0.8892269713878631
30,0.8892448200119867,0.8892266608079274
31,0.8892474637031555,0.889230373899142
32,0.8892440779871411,0.8892377172311147
33,0.8892444798946381,0.8892289463678996
34,0.8892439835071564,0.8892360102335612
35,0.8892445582548777,0.889221977353096
36,0.8892443201144536,0.8892658708095551
37,0.889244036687745,0.8892303824424743
38,0.8892429851028655,0.8892601210276286
39,0.8892447249094645,0.8892319484154383
40,0.8892427510288027,0.8893399966557821
41,0.8892416283024682,0.889231475909551
42,0.8892435620095994,0.8892454400459925
43,0.8892428202761544,0.8892408874432246
44,0.8892425975932016,0.8892475324471791
45,0.889241154856152,0.8892317272027334
46,0.8892420765293969,0.8892322051525116
47,0.8892423838906818,0.8892305550575257
48,0.8892412028445138,0.8892606177330017
49,0.8892414297130373,0.8892368282079697
50,0.8892420216931237,0.8892459749778112
51,0.8892411368025673,0.8893357629776001
52,0.8892418226136102,0.8892334641218186
53,0.8892413373655743,0.8892170569896698
54,0.8892410351832708,0.8892267399231593
55,0.8892406502829657,0.8892291320562362
56,0.8892414213948779,0.8892347347736359
57,0.8892420384751426,0.8892522648175557
58,0.8892404550446404,0.8892251973549525
59,0.8892405435376697,0.8892233248949051
60,0.8892407211727567,0.8892448916832606
61,0.8892415382862091,0.8892317714293798
62,0.8892403513060676,0.8892181794246038
63,0.8892410509718789,0.8892456167538961
64,0.8892405712869432,0.8892273013591766
65,0.8892421406507492,0.8892289691368739
66,0.8892397052314547,0.889233260234197
67,0.8892397345569398,0.8892271058162053
68,0.8892414549456702,0.8892672756910324
69,0.8892388356261783,0.8892240954637527
70,0.889239718609386,0.8892991479635238
71,0.8892394179635578,0.8892869023482005
72,0.8892387473980585,0.8892455627918243
73,0.8892394778331121,0.8892276910146077
