epoch,loss,val_loss
0,0.6705072860585318,0.6683809391657511
1,0.6682358220683203,0.668312172015508
2,0.6680321498976813,0.6681915415128072
3,0.6679493836959203,0.6678705300092698
4,0.6678911591900719,0.6678169307311376
5,0.6314657704697715,0.557028161406517
6,0.5570973035229577,0.5573467617034912
7,0.5570758108960258,0.5570313903888067
8,0.5570630894634458,0.5569992036024729
9,0.557041474474801,0.5570369293689728
10,0.5570368485053381,0.5570162172317505
11,0.5570224470562405,0.5569225457906724
12,0.5570196847253376,0.5570558267037073
13,0.557013003786405,0.5569372596740723
14,0.5570090051492055,0.5570353116194408
15,0.5570115908119414,0.5569798015356063
16,0.5570015535884434,0.5569082858165105
17,0.557000339547793,0.5569643532435099
18,0.5569967810842726,0.5569340504805247
19,0.5569931246174706,0.556932656009992
20,0.5569948496686088,0.5569344193140666
21,0.5569864749511083,0.5569165369669596
22,0.5569866377247704,0.556911213239034
23,0.55698468430837,0.5569736408789953
24,0.5569812922610177,0.5570037057399749
25,0.5569823039902582,0.5569386726617813
26,0.5569820408688652,0.5569122010072073
27,0.5569723270071877,0.556935364206632
28,0.5569825396007961,0.5569960714181265
29,0.5569714772966173,0.5569230609734853
30,0.5569741509358088,0.5569118973016739
31,0.5569769833220376,0.5570526653925578
32,0.5569744995302625,0.5568778210083644
33,0.5569677972661125,0.5570850163300832
34,0.5569702169630263,0.5569759364525477
35,0.5569632181988822,0.5569521222511927
36,0.5569648128218121,0.5569924095074336
37,0.5569671340518527,0.556916183590889
38,0.5569658435980479,0.5569326343139013
39,0.5569665807353126,0.5569541827042898
40,0.5569659204085667,0.5569176619847616
41,0.5569665743377473,0.5568919807672501
42,0.5569630525377062,0.5568992247184118
43,0.5569580718676249,0.5569044324954351
44,0.5569620568487379,0.5569666215976079
45,0.5569644047286776,0.5569055333137513
46,0.5569562297397189,0.5573241176605225
47,0.5569639428191715,0.5569057046175003
48,0.5569609438710742,0.5570408478577932
49,0.5569556596808963,0.5568989735047023
50,0.5569644899368286,0.5568705011208852
51,0.5569593723747466,0.5568758777777354
52,0.5569567675193151,0.5569648696184158
53,0.5569527398745219,0.5569649307727814
54,0.5569544283019172,0.5569000653028489
55,0.5569547928439246,0.5572815693219503
56,0.5569605413145489,0.5568667239348094
57,0.5569618415700065,0.5568707371552786
58,0.5569554014470842,0.5571326961517334
59,0.5569547268814511,0.5568917225996654
60,0.5569520711766349,0.5569857399861018
61,0.5569522915416294,0.5569018587271373
62,0.5569481283161375,0.556893851796786
63,0.556954986055692,0.5570726292133331
64,0.5569521460533142,0.5568917708396912
65,0.5569569459093942,0.5568752586046855
66,0.556955638329188,0.5568841210603714
67,0.556957867357466,0.557085264523824
68,0.556952639804946,0.5570121265649796
69,0.5569496163924536,0.5568793196280797
70,0.5569482787715064,0.5570395761330923
71,0.5569523995320003,0.5571859205563863
72,0.5569527713722653,0.556863089243571
73,0.5569451902442508,0.5569047745466232
74,0.5569533992343478,0.5572152907450993
75,0.5569440569612715,0.5569151418606441
76,0.5569513851271736,0.5569570681254069
77,0.5569457640382979,0.5574987214803696
78,0.5569515034490161,0.5568803389867146
79,0.5569545929299461,0.5570567851066589
80,0.5569511075417201,0.5569264098405838
81,0.5569488567908605,0.5571457505623499
82,0.5569515759547552,0.5569269623359044
83,0.5569451052745183,0.5568739365339279
84,0.5569485210445192,0.5570659163395564
85,0.5569486466911104,0.5568843224843343
86,0.5569450941085815,0.5568622623682022
87,0.5569472511874305,0.5569049332936605
88,0.5569493305550681,0.5568746722539266
89,0.5569519542455673,0.5568642112016677
90,0.556945851471689,0.5568952029943466
91,0.5569551624324587,0.5568846020698547
92,0.5569438207017051,0.5569448175032934
93,0.5569431751436658,0.5568537161747614
94,0.5569423207044601,0.5570555857022603
95,0.5569474569426642,0.5568617702722549
96,0.556951792438825,0.5568869097630182
97,0.5569477588865492,0.5570736544132233
98,0.5569436339537303,0.5570049271583557
99,0.556947681652175,0.556880693157514
100,0.5569385115835401,0.5568971615235011
101,0.5569534884161419,0.5569056943655014
102,0.5569469698932435,0.5569619060357411
103,0.5569436119000117,0.5568728358745575
104,0.5569471628930833,0.5568882004419963
105,0.5569479886160956,0.5569074827829997
106,0.5569410183297263,0.5568990073204041
107,0.5569461193879446,0.5570079092582066
108,0.556944591111607,0.5568528187274933
109,0.5569498943487803,0.5569069064060846
110,0.5569423091544046,0.5568662073612213
111,0.5569410574038823,0.55687484673659
112,0.5569465725421906,0.5574496397972107
113,0.5569400508801142,0.5568609215418497
114,0.5569419710768594,0.5569874006112416
115,0.556946825199657,0.55690933684508
116,0.5569497825966941,0.557009937564532
117,0.5569468884468078,0.5569888611237208
118,0.5569457352426317,0.5570023034413656
119,0.5569448799424701,0.5568655804395676
120,0.5569391468763352,0.5569576722383499
121,0.5569448465373781,0.5568930226961771
122,0.5569406918552187,0.5569331127405167
123,0.5569470133119159,0.5568982916673024
124,0.5569369952546226,0.5568611104091008
125,0.556933275964525,0.5571576865911484
126,0.556937631116973,0.5569072219530742
127,0.5569371008475622,0.5569416709740956
128,0.5569361336761051,0.5568766477108001
