epoch,loss,val_loss
0,0.7505695013602575,0.6703752941687902
1,0.6686920095814599,0.6683991998036702
2,0.6684313754902945,0.6684730064471562
3,0.6683015775680542,0.6682801332473755
4,0.6682215118540658,0.6681931629180908
5,0.6681494635476006,0.6679819398323695
6,0.592385768532753,0.5850127866268158
7,0.5850938056707382,0.5853889743884404
8,0.5850561791525947,0.5848723285992941
9,0.5849938571850459,0.5850562869707744
10,0.5849540453884337,0.5849756650527318
11,0.5849425686995189,0.5848182225624721
12,0.5849392366541757,0.5854317301909129
13,0.5849290551344554,0.5849701235691707
14,0.5849128891494539,0.5848113290071487
15,0.5849182898865806,0.5855781370798747
16,0.5849092773066626,0.5849199237426123
17,0.5849069426324632,0.5847968581517538
18,0.5849013866583507,0.5848037946621577
19,0.584896234035492,0.5851623564958572
20,0.5848792601558898,0.5847785116036733
21,0.5848839411073261,0.5847500278155009
22,0.5848775267336104,0.5851925061941147
23,0.584881854335467,0.5847562402486801
24,0.5848672570652432,0.5847426350514094
25,0.5848604197502136,0.5848883190949757
26,0.5848627961741554,0.584815657099088
27,0.5848615840673447,0.584954111178716
28,0.5848568032185236,0.5848169488112132
29,0.5848490579658084,0.5848327534198761
30,0.5848364800347222,0.5848792154788971
31,0.584859727859497,0.5847229764461518
32,0.584838212940428,0.5847027759552001
33,0.5848269299533632,0.5847532908121745
34,0.5848199166191949,0.5851001559495926
35,0.5848080915609996,0.5847374159495036
36,0.5847992788288329,0.5847898822228114
37,0.5847889542182286,0.5846815915902456
38,0.5847703325880899,0.5849182283878327
39,0.5847568582031462,0.5846197073062261
40,0.5847455193466611,0.584695616443952
41,0.5847295498450598,0.5846066296895345
42,0.5847046225468318,0.5846098301808039
43,0.5846987501912647,0.584561191836993
44,0.5847069894737668,0.5845553951263428
45,0.584672053443061,0.5846304368575413
46,0.5846819156275855,0.5845738901694616
47,0.584672610786226,0.584550345937411
48,0.5846758466296725,0.5846608508030574
49,0.5846788276169035,0.584537368496259
50,0.5846609005000856,0.5849830966393152
51,0.5846653486622705,0.5848989547093709
52,0.5846571162939072,0.5847932372093201
53,0.5846446691089207,0.5844389158089955
54,0.5846477796236674,0.5845476621389389
55,0.584654980858167,0.5845163533290227
56,0.5846441398461659,0.5847394983768464
57,0.584648846189181,0.5846160103480021
58,0.5846360742515988,0.584627531170845
59,0.5846489486164517,0.5846084217230479
60,0.5846340129243003,0.5846252726316452
61,0.5846379886203342,0.5845216487646103
62,0.5846343457963732,0.5847313948472341
63,0.5846317826774385,0.5844926067988078
64,0.5846376663049062,0.5844685068925222
65,0.5846175576580895,0.5846701723337173
66,0.5846309327946769,0.5847452271779379
67,0.5846396248473061,0.5853276513020198
68,0.5846261971394221,0.584743700504303
69,0.5846203696065478,0.5844541879892349
70,0.5846186911000146,0.5844703000783921
71,0.5846395311223136,0.5849188913504283
72,0.5846178302764893,0.5849704106251399
73,0.5846051814026303,0.5848989165623982
