epoch,loss,val_loss
0,0.5875691515074836,0.5854153636693954
1,0.585247061808904,0.5846775539716085
2,0.5847757734325197,0.5845755813121796
3,0.5846031116379632,0.5845676910082499
4,0.584538341389762,0.584371352950732
5,0.5844895208146837,0.5845695058107376
6,0.5844689722061157,0.5843514022429784
7,0.5844610616101159,0.5843220628499984
8,0.5844364109569126,0.5843818812767665
9,0.5844229369428423,0.5844262221256892
10,0.5844102946254942,0.5851520703633626
11,0.5843965848022037,0.5843441729545593
12,0.58438151787387,0.5844641245206197
13,0.5843771526416143,0.5848320477803548
14,0.5843605649471283,0.584275088985761
15,0.5843618649376763,0.5842868277629216
16,0.5843567877345615,0.5842305950721105
17,0.5843394906123479,0.5842177762985229
18,0.5843206649621328,0.5843840700387954
19,0.5843218672805363,0.5842501004139582
20,0.5843163384993871,0.5843857832749685
21,0.5843010362784068,0.5842783492008845
22,0.5842995392746395,0.5843090840975443
23,0.5842728896405962,0.5842581326961518
24,0.5842698932488759,0.5841863581339518
25,0.5842539116673999,0.5841409774223963
26,0.5842546327379015,0.5841786879301071
27,0.5842377878427506,0.5841641623973847
28,0.5842641807529662,0.5843017884095509
29,0.5842284592522515,0.5845098558266958
30,0.5842200515535143,0.5841313032309214
31,0.5842292106813854,0.5841275367736817
32,0.584227297200097,0.5841359515190124
33,0.5842102167208989,0.5841712447404861
34,0.5842177136209276,0.5841493511199951
35,0.5841975087059869,0.5845661129554113
36,0.5841969994041655,0.584292571345965
37,0.5842137275801764,0.584113427956899
38,0.5841950130330191,0.5845125263929367
39,0.584198947707812,0.5841054462194443
40,0.5841905567248662,0.5840982560714086
41,0.5841951853964064,0.5843846929868063
42,0.5841938608884811,0.5841657810211182
43,0.584186560564571,0.5842575138012568
44,0.5842578314012952,0.5841743835608164
45,0.5842281548447079,0.5841453144550324
46,0.5842084888484743,0.5842375042041142
47,0.584196987469991,0.5840814131100972
48,0.5842017751402325,0.5841421676079432
49,0.5841990165313085,0.5840879175662994
50,0.5841981313228607,0.5845309858322143
51,0.5841901507642534,0.5840900127490362
52,0.5841853696505229,0.5840829520225524
53,0.5841942049529817,0.5841621273358663
54,0.5841821929878659,0.5840633285045623
55,0.5841837429338032,0.5841401919126511
56,0.5841934592458937,0.5841065936485926
57,0.5841832988791995,0.5843232161998749
58,0.5841857965389887,0.584199251572291
59,0.5841809598472383,0.5842701854308446
60,0.5841687174638113,0.584188602010409
61,0.5841674640973409,0.5841843632857004
62,0.5841749721897973,0.5842497101624806
63,0.5841741153796514,0.5840816286007563
64,0.5841698858340582,0.584282520532608
65,0.5841617285278108,0.5842833295265834
66,0.5841833152903451,0.5840515814622244
67,0.5841639482975006,0.5840900410413742
68,0.5841754080586963,0.5843659448226293
69,0.5841713305844201,0.5840615044434865
70,0.5841719871494505,0.5840608242352804
71,0.5841646916468938,0.5845843402544657
72,0.5841619577540291,0.584085638920466
73,0.5841684758795632,0.584090608716011
74,0.5841512668662601,0.5841023120482762
75,0.5841751959191428,0.5845167429844539
76,0.5841508135398229,0.5842056197325388
77,0.584163320461909,0.5841803499857585
78,0.5841557793882158,0.5841969945033392
79,0.5841601636012396,0.5843631973663966
80,0.584146987663375,0.5841150120099385
81,0.5841557695998086,0.5841368487278621
82,0.5841525730954277,0.5841704814036687
83,0.5841552299790912,0.5842855976819992
84,0.5841553519037035,0.584051275730133
85,0.584154505054156,0.584074344197909
86,0.5841481344302495,0.5840385547478993
87,0.584154202805625,0.5841691540877024
88,0.5841484891838498,0.5841980645656586
89,0.5841532288922204,0.5841374684969585
90,0.5841446191867192,0.5840557908614477
91,0.5841421587864558,0.5840202863613765
92,0.5841367720762889,0.5840707408587138
93,0.5841415488455031,0.5841257416407267
94,0.5841502811908722,0.5841384001970291
95,0.5841449934773975,0.5842911070187886
96,0.5841400861342748,0.5841877046426137
97,0.5841419093343947,0.5841996864080429
98,0.5841492480304507,0.5845885077317555
99,0.5841451506614685,0.584143770456314
100,0.584145235353046,0.5842080099582672
101,0.5841374733712938,0.5841719354391098
102,0.5841459962924321,0.5841925865411759
103,0.5841408749421437,0.5841315875053406
104,0.5841571371422873,0.5840743399858475
105,0.584129077275594,0.5840363110303879
106,0.5841388262112935,0.5843000310262044
107,0.584143656373024,0.5841279238065084
108,0.5841421853966183,0.5840494978427887
109,0.5841435129642487,0.5841844095389048
110,0.5841369854476717,0.5842115403811137
111,0.5841350430779987,0.5840805697838466
