epoch,loss,val_loss
0,0.7799379459619522,0.7789495650132497
1,0.7788493771950404,0.7786157030661901
2,0.778664835161633,0.7785441288153331
3,0.7565367636680603,0.6678275461594264
4,0.6678638407919142,0.6684273465871811
5,0.6678536784383986,0.6677281304597854
6,0.6678269993596607,0.6676952721277872
7,0.6678159359296163,0.667762588818868
8,0.6677913872268465,0.6677434404293696
9,0.6677884651952319,0.6679122989575068
10,0.6677879669268926,0.6677108805974324
11,0.6677775419818031,0.6677183376550675
12,0.6677697966893514,0.6676975074211756
13,0.6677649447255665,0.6676796397765478
14,0.66776205376784,0.6677399159272511
15,0.6677617996931076,0.6677000809907914
16,0.6677558192809423,0.6677587542533875
17,0.6677574008703232,0.6676924979289373
18,0.6677577030923632,0.6677001460790634
19,0.6677509977287717,0.667706576069196
20,0.6677446954912609,0.6677918216784795
21,0.6677486597034666,0.6676772742271423
22,0.667754082163175,0.6676817819277445
23,0.6677430317401886,0.6677110673983891
24,0.6677459166977141,0.6676666452089945
25,0.6677436991400189,0.6676774372259776
26,0.6677385037475162,0.6677180043458939
27,0.6677411707109875,0.6676759475866954
28,0.6677350713147058,0.667669992685318
29,0.6677405101060867,0.6677499528725942
30,0.6677396522495481,0.6676807190577189
31,0.6677332011726167,0.6679032241106033
32,0.6677363966041141,0.6677102206548055
33,0.6677336445384555,0.6676658499638239
34,0.6677395816511578,0.6676664036512375
35,0.6677300584978527,0.6678212285439173
36,0.6677305979066425,0.6678089697360993
37,0.6677303980721367,0.6678452224731445
38,0.6677342625061671,0.6677146983544032
39,0.6677360833088557,0.6676597312291463
40,0.667733708328671,0.6678611079057057
41,0.6677292158206304,0.6676706109841665
42,0.6677240154875649,0.6677251035372416
43,0.667729087471962,0.6676559136311213
44,0.6677268649472131,0.6678458143075308
45,0.6677313065131505,0.6676871149142584
46,0.6677307739920086,0.6676635117530823
47,0.6677302706109153,0.6677088199456532
48,0.6677297416792976,0.6676843600670497
49,0.6677326151794858,0.6676657716830572
50,0.6677303628126781,0.6677998317082723
51,0.6677267309029897,0.6677348761161168
52,0.6677290088203218,0.6677304912805557
53,0.6677240423096551,0.6676846135854722
54,0.6677227001057731,0.6676553979714711
55,0.6677251080009672,0.6677096203565598
56,0.6677193978495068,0.6676509094238281
57,0.6677269055578444,0.6676620297034581
58,0.6677191591527727,0.6677168739239375
59,0.6677245515849856,0.6676590106487275
60,0.6677246354818344,0.6678608994086583
61,0.6677174829244613,0.6676683153311411
62,0.667721244957712,0.6677324339151383
63,0.6677216143740548,0.6679383902947108
64,0.6677166611618466,0.6676607199509939
65,0.6677290315892961,0.6676926283439001
66,0.667722488866912,0.6677005100647608
67,0.6677221277157466,0.6676875276168187
68,0.6677187526226044,0.6676571393410364
69,0.6677213977442847,0.6676712585687637
70,0.6677160469558504,0.6677336014906565
71,0.6677239595254262,0.6677011941274007
72,0.6677175168328815,0.6676526435613632
73,0.6677177755170398,0.6677414928674698
74,0.6677183507813348,0.6676842652956645
75,0.6677213385105133,0.6676833754777909
76,0.6677179077333875,0.6677220489581426
