epoch,loss,val_loss
0,0.5057851256926854,0.5031219746669133
1,0.5023586211866803,0.5019048779010773
2,0.5021186544365352,0.5019292923212051
3,0.5019408423238331,0.5017164441347122
4,0.5017181538475884,0.5016365015904108
5,0.5015606351561016,0.5016098235050838
6,0.5015165199173821,0.5014973044395447
7,0.5015000498427286,0.5015170694589615
8,0.501469137205018,0.5014066046873729
9,0.501444063756201,0.5014495964050293
10,0.501431313474973,0.5016252843141555
11,0.5014422546095318,0.5015624641180039
12,0.5014244283967548,0.5014567222992579
13,0.5013864366875754,0.5013330616553624
14,0.5013569841914707,0.5013028684854507
15,0.5013440785937839,0.5012406570911407
16,0.5013195195198059,0.5012699193159739
17,0.501297925737169,0.5012267894347509
18,0.5012820032172733,0.5012159850994746
19,0.5012779941691292,0.5012762811978658
20,0.5012605538103315,0.5013258293469747
21,0.5012667359378603,0.5012540593544642
22,0.5012463982767529,0.5012369615236918
23,0.5012353590064579,0.5011591182947159
24,0.5012268182966444,0.5012336432536443
25,0.5012230363554425,0.5010863048235575
26,0.501212737109926,0.5012171341180801
27,0.501197327375412,0.5013240060011546
28,0.5011860647466447,0.5011276389757792
29,0.5011764841344621,0.5010905634959538
30,0.5011481365627712,0.501032219250997
31,0.5011101797819137,0.5011668509244919
32,0.5011050935718748,0.5013486916621526
33,0.5010836485756768,0.5012078603506088
34,0.5010660709804958,0.5009724934101105
35,0.5010790443023045,0.5014169543981553
36,0.5010843967464235,0.500891401608785
37,0.5010612605810165,0.50099114437898
38,0.5010635348690881,0.5009396460453669
39,0.501059963438246,0.5009257646004359
40,0.5010858705970976,0.500996033747991
41,0.5010493436654408,0.5009768241246542
42,0.5010499358442094,0.501371341864268
43,0.5010482537216611,0.5018892070849736
44,0.5010547032091353,0.5009645635684331
45,0.5010371318525738,0.5010204670031866
46,0.5010355350838768,0.5010561148722966
47,0.5010430743959216,0.5010955955187479
48,0.5010444309976366,0.5009720312754313
49,0.5010361032750872,0.5009853466351827
50,0.5010389754374822,0.5013863259156545
51,0.501078017393748,0.5014768988688787
52,0.5010230995416641,0.5008992262681325
53,0.5010413985914655,0.501215916832288
54,0.5010350855853822,0.5010270116726557
55,0.5010718769894705,0.5014160528182984
56,0.5010453481144376,0.5010332432190577
