epoch,loss,val_loss
0,0.6697696387900246,0.6683898401260376
1,0.6690358578099145,0.6682105297644934
2,0.668283298889796,0.6680623424847921
3,0.668117520266109,0.6679745560884476
4,0.6680238079362445,0.6679646488030752
5,0.667968727323744,0.6678934864203135
6,0.6679208031760322,0.6678460588057836
7,0.6678879434135225,0.6679636636972427
8,0.6678701845407486,0.667815184990565
9,0.6678539506859249,0.6678420321941376
10,0.6678441865444184,0.6677941722472509
11,0.6678356097274356,0.667849321047465
12,0.6678202703528934,0.6678262662887573
13,0.6678081961870194,0.6678524140914281
14,0.6678051422701942,0.6677755824724834
15,0.6678070109552807,0.6677254043420155
16,0.667791279580858,0.6681244240204494
17,0.667795809838507,0.667742827296257
18,0.6677875701851315,0.6677187884648641
19,0.6677859874963761,0.6677545530398686
20,0.667785472922855,0.6677388614416122
21,0.6677810171577665,0.6677314910888672
22,0.6677746044662264,0.6677170973618826
23,0.6677789464526707,0.6678502926826477
24,0.6677786858214272,0.6677887113889058
25,0.667776975247595,0.6677737093369166
26,0.6677724145915773,0.6677149736086527
27,0.6677650761604309,0.6677116465171178
28,0.667777521583769,0.6677276006539663
29,0.6677693979872598,0.6677308113574981
30,0.6677682254976697,0.6677357012430827
31,0.6677696770297157,0.6677244804700215
32,0.667765761759546,0.6677098508675893
33,0.6677685788869858,0.6677253236373265
34,0.6677635805209478,0.6677422979275386
35,0.6677585677835677,0.667805136680603
36,0.667766872074869,0.6678525386651357
37,0.6677632319000032,0.6677296811342239
38,0.6677610966894362,0.6678038133780162
39,0.6677620355023278,0.6677078940868377
40,0.667758386903339,0.6677392931381861
41,0.6677598464753892,0.6677112956444422
42,0.6677624304294586,0.6677157752513886
43,0.6677641511890623,0.6676928214629492
44,0.6677620161241955,0.6680420595010121
45,0.6677571769025591,0.6677223407824834
46,0.6677637262741725,0.6678907026052475
47,0.6677573127216763,0.6679328704277674
48,0.6677603690756692,0.6677111617724101
49,0.6677549084424973,0.6676865009069443
50,0.6677553040319019,0.6677294841607412
51,0.6677598241435156,0.6678920981089274
52,0.6677495794826084,0.6677421218554179
53,0.6677553947766622,0.6676962582667668
54,0.6677491000096003,0.6676925961971283
55,0.6677537854380078,0.6677537327607472
56,0.6677521083884769,0.6677239005963007
57,0.6677577540477116,0.6676917372147242
58,0.6677519659996033,0.6678018755118053
59,0.6677519766224755,0.6676988856395085
60,0.6677534172005124,0.6678878331979116
61,0.667749416033427,0.6676803111235301
62,0.6677538955211639,0.6677210052013397
63,0.6677560077640745,0.6676898124217987
64,0.6677501564290789,0.6679704598585765
65,0.6677480976714029,0.6677779160340627
66,0.667745928923289,0.6677439362605413
67,0.6677507948213154,0.6678276154200236
68,0.6677502828968895,0.6676958827177684
69,0.6677494672139486,0.66767531422774
70,0.6677539472050137,0.667675399184227
71,0.6677510953214434,0.6677588790257771
72,0.6677480423053106,0.6676851697762807
73,0.6677454223235448,0.6678389991124472
74,0.6677470137410694,0.6677278343041738
75,0.6677481754355961,0.6677080807685852
76,0.6677475906742943,0.6677790910402934
77,0.6677497715817557,0.6677097889582316
78,0.6677545428011152,0.6677279898325602
79,0.6677422604295943,0.6676873834530512
80,0.6677501668400234,0.6677887041171392
81,0.6677432021962272,0.6676903460423151
82,0.6677459963295195,0.6678892505168915
83,0.6677475890980826,0.6676885830958684
84,0.6677478854523765,0.6677050935427348
85,0.6677430449989107,0.6676793370644252
86,0.6677429094976849,0.6679628895123799
87,0.6677467609776391,0.6676997458537419
88,0.6677444078392453,0.6676676307121913
89,0.6677449995146857,0.6677147459586461
90,0.6677434648010466,0.6676925049622854
91,0.667744738817215,0.6676775405009587
92,0.6677445223331452,0.6676946800947189
93,0.6677445831298828,0.6678105998039245
94,0.6677454265488518,0.6676775699059169
95,0.6677408441172705,0.6677056217590968
96,0.6677421230077744,0.6676765566269557
97,0.6677412912315792,0.6677418738603592
98,0.6677452585167355,0.6676666539907455
99,0.6677433382140265,0.6677137720584869
100,0.6677449382411109,0.6676958842674892
101,0.6677398882044686,0.6677753406763077
102,0.6677436583307055,0.6677544970909755
103,0.6677489085727267,0.667662695368131
104,0.667743646396531,0.6677008732159933
105,0.667743272225062,0.6676890069643656
106,0.667740410288175,0.6676803150177002
107,0.667742789970504,0.6676888015270234
108,0.6677429924408594,0.6676624176502228
109,0.6677412950992584,0.6678611495097478
110,0.6677410933971405,0.6677329061428706
111,0.6677467187907961,0.6677061942418416
112,0.6677402968539132,0.6676836256980896
113,0.6677453620301352,0.6677784507274628
114,0.6677403728961945,0.6676819786230723
115,0.6677389894591438,0.6676941011746724
116,0.6677477535804113,0.6676661044359207
117,0.6677482667896483,0.6677097913821538
118,0.66774704196718,0.6677258096536001
119,0.667740802195337,0.6676897668838501
120,0.6677442055145899,0.6677799568970998
121,0.6677413948509429,0.6677254640261332
122,0.6677394690116246,0.6676755729118983
123,0.6677369559208552,0.6676816220680872
124,0.6677409975263807,0.667696073293686
125,0.6677427880101734,0.6676992328961691
126,0.6677374925083585,0.6677130190928777
127,0.6677399299542109,0.6678314843575159
128,0.6677413414451812,0.6676971365213394
