epoch,loss,val_loss
0,0.4494592783186171,0.4458857251604398
1,0.44587946255339517,0.44602198121945064
2,0.4456771543489562,0.44545878821611407
3,0.4455869572493765,0.4454238833586375
4,0.4455100632707278,0.44554061206181844
5,0.4454731700354152,0.4453443438609441
6,0.4454253688984447,0.4457328805526098
7,0.39756734714905423,0.3343756616711617
8,0.33443266665935517,0.3344032842516899
9,0.3344312852223714,0.3345694879492124
10,0.3343990576002333,0.3342856642603874
11,0.33437899769677054,0.3343620060880979
12,0.334372877948814,0.33464554556210835
13,0.334349621547593,0.33427289364735285
14,0.3343505959510803,0.33459236623843513
15,0.3343246974349022,0.3342587538957596
16,0.3343209737009472,0.3342039904793104
17,0.3343160894844267,0.33420930137236915
18,0.33431302704413735,0.3342146422465642
19,0.33430344667037326,0.33426165757576626
20,0.33429973343345853,0.3342074332634608
21,0.3342982790735033,0.3342526798645655
22,0.33429264042774837,0.33425747444232307
23,0.3342894418901867,0.33423470813035966
24,0.33428166957034006,0.33424432069063187
25,0.3342751715713077,0.33418294578790664
26,0.3342753500408596,0.33424831195672355
27,0.3342669752968682,0.334311380704244
28,0.3342634357677566,0.33457451770703
29,0.33426914623710846,0.33432125284274417
30,0.334268865817123,0.3342167395353317
31,0.33426488149166106,0.33423840035994845
32,0.33426021738847095,0.33423352213700613
33,0.33426174005534914,0.3342186998128891
34,0.3342455803288354,0.3341722224354744
35,0.3342490831414858,0.3342626315156619
36,0.33424384884701835,0.3341640932361285
37,0.33424597936206396,0.33438931369781494
38,0.33424916076660155,0.334157386302948
39,0.33422829613420696,0.3344860806465149
40,0.334239378200637,0.3342417846918106
41,0.33424521311786437,0.3341889427105586
42,0.3342349379658699,0.3343010092576345
43,0.3342493078245057,0.33421888715028764
44,0.3342376009821892,0.3341886252562205
45,0.3342378302613894,0.3341243203878403
46,0.3342309526933564,0.33417156664530434
47,0.3342305496533712,0.33415695452690125
48,0.33422620715697604,0.33434044311443967
49,0.33423666214280656,0.3344242980281512
50,0.33423163432545133,0.33426232294241587
51,0.3342350695729256,0.33417268566290537
52,0.33422473218705917,0.3342109192013741
53,0.3342300400998857,0.33417355122168857
54,0.33422477389706506,0.3342929454445839
55,0.33422816682524153,0.33419856963555017
56,0.3342238131894006,0.3341589919527372
57,0.33422304828299415,0.3342264938950539
58,0.3342287284268273,0.3341983133157094
59,0.3342465117507511,0.3342220063408216
60,0.334211424642139,0.3342707000772158
61,0.3342153954837057,0.3341404736240705
62,0.3342198120355606,0.3341592838764191
63,0.334224671834045,0.3341760349075
64,0.33421755677461623,0.3341489906708399
65,0.3342207262780931,0.33443920348087947
