epoch,loss,val_loss
0,0.6691307898230023,0.6677607264518738
1,0.6675561911927329,0.6676132423480352
2,0.6674395773543252,0.6673198742866516
3,0.667376240544849,0.667414559006691
4,0.6673375868929757,0.6673146845897039
5,0.6673051192628012,0.6672428523699443
6,0.6672874652544657,0.6673038595914841
7,0.6672780560652415,0.6673475237290064
8,0.6672501796616448,0.6673327784140904
9,0.6672415837314394,0.667232657512029
10,0.667228211151229,0.6671890607277552
11,0.6672186379167768,0.6673334740797678
12,0.6672061949438519,0.6672050745884578
13,0.6671951238711675,0.6672507633368174
14,0.6671950074831645,0.6671943936745326
15,0.6671880243354373,0.6672049445311229
16,0.6671745898988511,0.6671739967266719
17,0.6671803205543094,0.6671606700817744
18,0.6671691298484802,0.667147107164065
19,0.6671652295324537,0.6672794119914373
20,0.6671643327607049,0.6671060666243235
21,0.6671575413544972,0.667192940235138
22,0.667158632212215,0.6671900639136632
23,0.6671573036511739,0.6671321069002152
24,0.6671525484853321,0.6671881453196208
25,0.6671551369825999,0.6671895395517349
26,0.6671496882968478,0.6671032149394354
27,0.6671424263980653,0.6671484013795853
28,0.6671579340431425,0.6671479653517405
29,0.6671552156739765,0.6671819668610891
30,0.6671446994675531,0.6671307338476181
31,0.6671455423699485,0.6671137125094732
32,0.6671428412861294,0.6671209512154261
33,0.667146347867118,0.6671187879641851
34,0.6671439207924736,0.6671226368347803
35,0.6671392310990227,0.6670836559534072
36,0.6671373794078826,0.6671030330260594
37,0.6671318033271366,0.6671543256839116
38,0.6671365172465642,0.6671096616188685
39,0.6671337348885006,0.6670995071729025
40,0.6671340280241437,0.6671437500715256
41,0.6671335386037827,0.667082449833552
42,0.6671270303593742,0.6671063714822133
43,0.6671233785019981,0.6670892915328344
44,0.6671331397427452,0.6674139484167099
45,0.6671213721434275,0.6671499669949214
46,0.6671210896439023,0.6670784262418747
47,0.6671184638076358,0.6671367480357488
48,0.6671171108616722,0.6671030807495117
49,0.6671181432008744,0.6670990310112636
50,0.6671181018087599,0.6671134827136993
51,0.6671210664643181,0.6671247631311417
52,0.6671155563328002,0.6670791118939717
53,0.6671149710284339,0.6671079751253128
54,0.6671135348478953,0.6671177861293157
55,0.6671104396846559,0.6675827842553457
56,0.6671116616063648,0.6670602796475092
57,0.6671090990437402,0.6671204406817755
58,0.6671062285502751,0.6671213464736938
59,0.6671110172271728,0.6670628734429678
60,0.667108124282625,0.6671209015846252
61,0.667109547469351,0.6671048335631689
62,0.6671049382686615,0.6670848228136699
63,0.6671049892637465,0.6670727287928263
64,0.6671076421737671,0.6670758357445399
65,0.6671051391495598,0.6670702772537868
66,0.6671091043419308,0.6670723002751668
67,0.6671058906184303,0.6670728510220846
68,0.6671039203670289,0.6670939973195393
69,0.6671049656603072,0.6672442856232326
70,0.6671070214642418,0.6671816454728444
71,0.6671052336427901,0.6670627466837565
72,0.6671024074951808,0.6671469620863597
73,0.6671071294413673,0.6671328957478205
74,0.6670994348923365,0.6671100298961004
75,0.6671037244929208,0.6671133088270823
76,0.6670992664496104,0.667116090575854
