epoch,loss,val_loss
0,0.5920336079067654,0.5569005177418391
1,0.5566369426250458,0.5564995171229045
2,0.5565006136231953,0.5563395446141561
3,0.5564329886568917,0.5562852266629537
4,0.556381938987308,0.5562848681608836
5,0.5563540344503191,0.5562653453747431
6,0.5563314982917573,0.556315291206042
7,0.556318819032775,0.5562721325159072
8,0.5563018862273958,0.5564873987436294
9,0.5562954269117779,0.5562538206974665
10,0.556287744111485,0.5563104417721431
11,0.5562791515456306,0.5562481153011322
12,0.5562635873688592,0.5562530304988226
13,0.5562646327813466,0.5561701602935791
14,0.5562441309955385,0.5562214465936025
15,0.5562393993933995,0.5562290039857228
16,0.5562316812409295,0.5561764343182246
17,0.5562345343430837,0.5562391357024511
18,0.5562273059421116,0.5561984527111054
19,0.5562218112548193,0.5564313538471858
20,0.5562241043382221,0.5561585346857707
21,0.55622682053513,0.5562089380423227
22,0.5562153092092937,0.5561591660181682
23,0.5562139753897984,0.5561817529996236
24,0.5562158612807592,0.556327094912529
25,0.556215354932679,0.5562409520149231
26,0.5562106834517585,0.5561815196275711
27,0.5562051141129599,0.5562067637840907
28,0.5562032793495391,0.5561766180594763
29,0.5561954137351778,0.5561594386100769
30,0.5561971887747447,0.5562046605348587
31,0.5561942683855693,0.5562421614726385
32,0.5561938942141003,0.5561902490059535
33,0.5561957567003039,0.5561806472539902
34,0.5561867651806938,0.5562294897635778
35,0.5561931327051587,0.5561766257286072
36,0.5561877511872185,0.5561992282470067
37,0.5561863813135359,0.5561890367269516
38,0.5561978715790643,0.5561533790032069
39,0.5561818378766378,0.5561145313183466
40,0.5561922847032547,0.5561545221408208
41,0.5561843762132856,0.556201229095459
42,0.5561888066927592,0.5561881128152212
43,0.5561926079591115,0.5561393831570943
44,0.556183456659317,0.5561421094735464
45,0.5561873560878966,0.5561531194845836
46,0.5561829563511742,0.556194287776947
47,0.5561834009091059,0.5561341526508331
48,0.5561809393167496,0.556117419799169
49,0.5561745259496901,0.5561448590755462
50,0.5561763784885406,0.5561323945522308
51,0.556180922124121,0.5561376250584921
52,0.5561707563930087,0.5561763609250386
53,0.556179202026791,0.5561383788983028
54,0.5561764840549893,0.5561852433284123
55,0.556172251953019,0.5561707493464152
56,0.5561722299522823,0.5562404018640518
57,0.5561766248279147,0.5561549444993337
58,0.5561712339056862,0.5561434776385625
59,0.5561696485016081,0.556111478527387
60,0.5561662023729749,0.556209087729454
61,0.5561722144550747,0.5561241425275802
62,0.5561642527977626,0.5563509894212088
63,0.5561642166508569,0.5561592107613882
64,0.5561656026707755,0.5560990516344706
65,0.5561648483143913,0.5561167035897573
66,0.5561692897876104,0.5561481765906016
67,0.5561645614041223,0.5564145386219025
68,0.5561590144369337,0.5561227119763692
69,0.5561658196979099,0.5562568871577581
70,0.5561579384936227,0.5561007746060689
71,0.5561560413837433,0.5560905193090439
72,0.556156930036015,0.5561284081141153
73,0.5561531810098225,0.5560869990587235
74,0.5561566741466523,0.5561017174323399
75,0.5561554372708003,0.5561152455806733
76,0.5561595311694675,0.5561644015709559
77,0.5561521403127246,0.5560869263410568
78,0.5561534659862518,0.5560898996988932
79,0.5561550793780221,0.5561636641025544
80,0.5561566375229093,0.5562388147115708
81,0.5561525332662794,0.5560994611978531
82,0.5561479823986689,0.5560723043282827
83,0.5561538757218255,0.5561161077419917
84,0.5561442017687691,0.5562518816391627
85,0.5561546283298069,0.5561566758155823
86,0.556151555273268,0.5561222050189972
87,0.5561464618709352,0.5561474552949269
88,0.5561521547502941,0.5561272455056508
89,0.5561444864273072,0.5561333915789922
90,0.5561468105845981,0.5561048913002015
91,0.5561490922239092,0.5560990543762843
92,0.5561469191975064,0.5560975774526596
93,0.5561488594611486,0.5562910340627034
94,0.556146047393481,0.5560926234722138
95,0.5561386821534898,0.5561293981870016
96,0.5561480695274141,0.5563667412201564
97,0.5561382389465968,0.5561093805233638
98,0.5561483818292617,0.5563005091349283
99,0.5561411232153575,0.5561298509041468
100,0.5561392997900645,0.5560847992897033
101,0.5561376258134841,0.5560986612240474
102,0.5561399340629578,0.5561329104105631
