epoch,loss,val_loss
0,0.4479564431044791,0.445801175336043
1,0.4457948120435079,0.44556492632627487
2,0.4456535238424937,0.4456356437206268
3,0.4455498313440217,0.4454789952238401
4,0.44548520915375817,0.4453654164473216
5,0.44544575006432,0.4453043172756831
6,0.4454163861605856,0.4453660115202268
7,0.4453976920048396,0.4453171256184578
8,0.44537132782406275,0.4455971941947937
9,0.4453649798631668,0.4453642896612485
10,0.4453398713535733,0.44545819131533304
11,0.4453214182986153,0.4452714862624804
12,0.4453112101488643,0.445551843504111
13,0.4453022597299682,0.4452710021336873
14,0.4452877597080337,0.4452600828409195
15,0.44529117131233215,0.44519545328617094
16,0.44528586701552075,0.4452242983977
17,0.44527937746047974,0.4452393805782
18,0.4452672944863637,0.44542178730169935
19,0.44527008587121963,0.4451898274819056
20,0.4452648114098443,0.4452646670341492
21,0.4452611593008041,0.4452278008858363
22,0.4452433557377921,0.44520512531201045
23,0.4452487112283707,0.44521521280209225
24,0.4452386162347264,0.445279578268528
25,0.4452423599494828,0.4451762752532959
26,0.44523573205868405,0.445158760368824
27,0.44523298506604303,0.4452128835320473
28,0.4452210276590453,0.44525991040468216
29,0.4452294716768795,0.4455717334151268
30,0.4452241122060352,0.4451986419359843
31,0.4452249695195092,0.44525260386864346
32,0.4452224656012323,0.44517277367909747
33,0.4452217228743765,0.4451496573885282
34,0.4452138472000758,0.4451951176126798
35,0.4452100263701545,0.44521689049402874
36,0.4452089957661099,0.4451586860020955
37,0.44521606300936806,0.44534421402215957
38,0.4452078257865376,0.44527598681052527
39,0.4452023117807176,0.44527382171154023
40,0.44520826478799186,0.44517323458194735
41,0.4452072609066963,0.4451961130698522
42,0.4452047834131453,0.44519005332390466
43,0.4452037985589769,0.44522166887919107
44,0.44520071539613937,0.4453582982420921
45,0.44519529171784716,0.44514653386672337
46,0.44520097400744757,0.4452927143375079
47,0.4452018875612153,0.445234064300855
48,0.4451875012848112,0.445269963145256
49,0.44519532522890304,0.4451517798701922
50,0.445189137465424,0.4451887253522873
51,0.44518780182467566,0.4451535653273265
52,0.44519271338648264,0.4451407329440117
53,0.44519119160705145,0.4451483724315961
54,0.4451899120344056,0.44530124521255493
55,0.44518220112721124,0.44517751040061315
56,0.4451788858241505,0.44522744806607567
57,0.4451775025659137,0.44536685740947723
58,0.4451794097688463,0.4451026134689649
59,0.44517724492814803,0.44520144011576973
60,0.4451703771882587,0.4453447596033414
61,0.44516934913396833,0.4451754768093427
62,0.4451721362206671,0.4450950121084849
63,0.44516580896245106,0.4451249684492747
64,0.44517493959267934,0.4452696039477984
65,0.44516782338751687,0.44519747587045033
66,0.44516799764500725,0.4451634930173556
67,0.445166613943047,0.44523944878578187
68,0.44517510115438036,0.4452300194303195
69,0.4451692815356784,0.44515221075216926
70,0.4451665293441878,0.4453817873199781
71,0.4451616113649474,0.4451763767401377
72,0.44516659847895307,0.44529564666748045
73,0.44516085459126364,0.44517195312182106
74,0.44516476870245403,0.4451838751832644
75,0.44515846997499464,0.4452329704364141
76,0.44515425694651073,0.4451753994425138
77,0.44515924537181856,0.44520272944370903
78,0.44516664614942336,0.4451075929204623
79,0.4451594050990211,0.4451375632683436
80,0.445162285414007,0.4451298234264056
81,0.4451581382287873,0.44541191291809085
82,0.4451587953964869,0.4450926965475082
83,0.44515186026361253,0.4451853333711624
84,0.44516200868288675,0.4452136172850927
85,0.4451652299695545,0.4451659971078237
86,0.44514967337581846,0.4451730935374896
87,0.44515393090248107,0.44515161935488384
88,0.44516096949577333,0.4452034391760826
89,0.4451563912298944,0.4453184384703636
90,0.44515144650803673,0.4450882722934087
91,0.445152108112971,0.4451041006445885
92,0.44515662622451785,0.445801118850708
93,0.4451497016615338,0.44509070833524067
94,0.44515629535251194,0.44510601568222047
95,0.4451531908975707,0.4451517282128334
96,0.44515281320942773,0.44525073979298274
97,0.4451506739060084,0.44510979382197063
98,0.4451502081155777,0.44519553577899934
99,0.4451543815135956,0.445108527024587
100,0.44515305977397496,0.44545707100629806
101,0.4451444660425186,0.445149321893851
102,0.4451522695024808,0.4451397574742635
103,0.44514794557624393,0.4452270358403524
104,0.4451500295996666,0.4451070831815402
105,0.4451459492378765,0.4451755456725756
106,0.44515424372090234,0.44509335869550704
107,0.4451480215390523,0.4451231219967206
108,0.44514248165157105,0.4450867323279381
109,0.44514750843577916,0.44511254119873045
110,0.44515239035420945,0.44510456893841427
111,0.44514489764637416,0.4451739901105563
112,0.44514913255638544,0.44521803975105284
113,0.44514648320277533,0.4452751589814822
114,0.445147932767868,0.4452008143663406
115,0.44514667536152736,0.4451427901585897
116,0.4451415669189559,0.4451331943869591
117,0.44515069282717173,0.4450740075310071
118,0.4451460558639632,0.44508259161313374
119,0.44513952477773033,0.4452770312825839
120,0.44514353559414543,0.44507402408123015
121,0.44514089087645214,0.44509632835785545
122,0.4451490923762321,0.4452872897187869
123,0.44514393568701216,0.4451224073171616
124,0.4451457850138346,0.44516685491800306
125,0.4451445198059082,0.44509076261520386
126,0.44513746138413746,0.44508136502901713
127,0.4451470366915067,0.44536526429653167
128,0.44514516498645146,0.44508839456240334
129,0.44513704911205504,0.44514913340409595
130,0.4451385445859697,0.44544939265648525
131,0.4451492460237609,0.4451221573551496
132,0.4451451906826761,0.44521419286727903
133,0.4451413377059831,0.4453179090619087
134,0.4451451930006345,0.445153062860171
135,0.44514396955569585,0.4450700165828069
136,0.44514404460456636,0.4451027113199234
137,0.44513819276624256,0.44509762020905813
138,0.44514189538028504,0.4451177490154902
139,0.4451427819662624,0.44519259013732276
140,0.4451436112523079,0.4451499450405439
141,0.4451431938873397,0.4450783143043518
142,0.4451338161892361,0.44508457827568054
143,0.44514260949691137,0.4450975374182065
144,0.445146277765433,0.44530120253562927
145,0.4451358650525411,0.44511656763156254
146,0.4451446757184135,0.4451519131461779
147,0.44513896391126845,0.445179570098718
148,0.4451387853556209,0.4450935399134954
149,0.44514218780067233,0.4451356968681018
150,0.445141453994645,0.4450771774450938
151,0.44514560788869856,0.4450755610267321
152,0.4451388581527604,0.4451790875593821
153,0.44514247379700345,0.4450892192920049
154,0.44514480270279777,0.44535225546360013
155,0.44514058478011026,0.44524700488646823
