epoch,loss,val_loss
0,0.6690478116141425,0.6674499445756277
1,0.6675356794463264,0.667404902458191
2,0.6674279800256093,0.6675887835423152
3,0.667342791557312,0.6673018080393474
4,0.6672990585035748,0.6674462412198384
5,0.6672713861730364,0.6673350621461869
6,0.6672392605013318,0.6672273847262065
7,0.6672243590884739,0.6671886141300202
8,0.6672076845831342,0.6671302493413289
9,0.66720342069202,0.6671702333291372
10,0.6671935450898276,0.6673565183480581
11,0.6671874140765932,0.6671330320437749
12,0.6671815780666139,0.6671261274417242
13,0.6671804813014136,0.6671282794078192
14,0.6671701963875029,0.6671694232225418
15,0.6671681345303854,0.6671372121969859
16,0.6671602408223682,0.6671712901989619
17,0.6671596944861942,0.6671724336544672
18,0.6671557455062866,0.667317282875379
19,0.6671487608353297,0.6670948054790496
20,0.6671502109633551,0.6671804724136988
21,0.6671484318441815,0.6671466606060664
22,0.6671442682345708,0.6672445359627406
23,0.6671510961718029,0.6670917410453161
24,0.6671410533587138,0.6671721550623576
25,0.6671403263807296,0.6671184278329213
26,0.6671382965909111,0.6671123402913411
27,0.6671364267932044,0.66709068886439
28,0.6671339628961351,0.667113786260287
29,0.6671379755735397,0.6671744441986084
30,0.6671341284513473,0.6670862856705984
31,0.6671261675622728,0.6670820173422496
32,0.6671290437115563,0.6671547165314357
33,0.6671316355201933,0.6670948596398035
34,0.667126850605011,0.66708567070961
35,0.6671285857492023,0.6671154965957006
36,0.6671251007053587,0.6671762821674347
37,0.667120294213295,0.6671480129957199
38,0.6671240131457646,0.6672740153471629
39,0.6671242423852285,0.6671039844353994
40,0.6671291613446342,0.6671993159850439
41,0.667120393037796,0.6670738224983215
42,0.6671217269500097,0.6671399236917496
43,0.667118853436576,0.6670733356873194
44,0.6671216313574049,0.6672836012045542
45,0.6671254758172565,0.667097064892451
46,0.6671190366082721,0.6670796023607254
47,0.6671172137922711,0.6671016331513723
48,0.667119795706537,0.6671260371605555
49,0.6671174941195382,0.6672864494721095
50,0.6671179333395428,0.6671354089975357
51,0.6671202296813329,0.6671565767129263
52,0.6671260824468401,0.6670742192268372
53,0.6671176203489304,0.6670812156995137
54,0.66711918481191,0.6671192463636398
55,0.6671148794492086,0.6671109472513199
56,0.6671191350221634,0.6670730264186859
57,0.6671127528084649,0.6671334913571676
58,0.6671142977211211,0.6670773062705994
59,0.6671139540804757,0.6671006087064743
60,0.6671151120000416,0.6670987193584442
61,0.6671153159538905,0.667169156273206
62,0.6671079159312778,0.6671069946686426
63,0.6671156310770247,0.6672866105238596
64,0.6671135511663225,0.6671562680403391
65,0.667115910159217,0.6671009939114253
66,0.6671150691111882,0.6671806401809056
67,0.667113567299313,0.667098369439443
68,0.6671132564677132,0.6670936943292618
69,0.6671130089097553,0.667076336979866
70,0.667112971133656,0.6671224070787429
71,0.6671081240442064,0.6670780008633932
72,0.6671149777968725,0.6671059283415477
73,0.6671122952302297,0.6670818929672241
74,0.6671137400865554,0.667077335357666
75,0.6671121468941371,0.6670907811721166
76,0.667108015788926,0.6670910232464472
