epoch,loss,val_loss
0,0.5618880731132295,0.5592952949603399
1,0.5594437047640483,0.5590196106433868
2,0.5589888921843634,0.5587736479441325
3,0.5588395731581582,0.5587818134228388
4,0.5587188366651535,0.5584706041018168
5,0.558667186472151,0.5584549519618353
6,0.5586235030889511,0.5583934036493301
7,0.5586041837268405,0.5584223359425863
8,0.5585495785474778,0.5588107088009516
9,0.5585128617021773,0.5584142062266668
10,0.558515913632181,0.5584605058034261
11,0.5585030391878552,0.5583695895671844
12,0.5584828559160232,0.5583797045151393
13,0.5584846426778369,0.559096493045489
14,0.5584857120116552,0.5584528040885925
15,0.5584660814205805,0.5583156589269638
16,0.558461821741528,0.5583303645054499
17,0.5584710927539401,0.5583195596933365
18,0.558459749062856,0.558438349445661
19,0.558453047633171,0.5583276743491491
20,0.558464022649659,0.5584535791873931
21,0.5584473696549733,0.5583045211633046
22,0.5584676293796963,0.5591506106853485
23,0.5584471984306971,0.5589502363204956
24,0.5584486135376824,0.5583316136201223
25,0.5584366372161441,0.5584387874205907
26,0.5584320866399342,0.5583033136526744
27,0.5584324116441939,0.5583785130977631
28,0.5584251414934794,0.5586179409821829
29,0.5584492911497752,0.5583089129924774
30,0.5584380873044332,0.5582904502153396
31,0.5584282065497504,0.5583027616739273
32,0.558455138736301,0.5588171232938767
33,0.5584210328393512,0.5584190595149994
34,0.5584326197836135,0.5583501797914505
35,0.5584473443693585,0.5583461486498514
36,0.5584180686473846,0.5583484708865484
37,0.5584254249069426,0.5582570290168126
38,0.5584130705462562,0.5582902428309122
39,0.5584305050637987,0.5583349157174429
40,0.5584249163733588,0.5583306079308192
41,0.5584283349249098,0.5585022459030151
42,0.558500102188852,0.5583315327167511
43,0.558442791197035,0.5583950680891673
44,0.5584163825909296,0.5586737935145696
45,0.5584324350621965,0.5582904185851415
46,0.558422975063324,0.5584802448749542
47,0.558420570784145,0.5586427237590154
48,0.558421453330252,0.5583542308807373
49,0.5584099920193354,0.5588100788593292
50,0.5584122749434577,0.558259785135587
51,0.5584342191749149,0.5582853363752365
52,0.5584202319383621,0.5584115903774898
53,0.5584172763559553,0.558479156891505
54,0.5584127776490317,0.558329877614975
55,0.5584188182618883,0.5584452156623204
56,0.558402204129431,0.5589085405270259
57,0.558434192445543,0.5584054086605708
