epoch,loss,val_loss
0,0.34195534702804353,0.3389652196764946
1,0.3391601788070467,0.338754332224528
2,0.33864767924282285,0.3392981952428818
3,0.33835043500529394,0.33812923574447634
4,0.33816637735896643,0.3380511673291524
5,0.33809651585419975,0.3387818727294604
6,0.3380571614967452,0.338100338002046
7,0.33796632956796224,0.33791227704286575
8,0.3379685525033209,0.33792866655190784
9,0.3379328575465414,0.33808445223172506
10,0.3379134569035636,0.33782353955507277
11,0.33787001500527064,0.3385741572181384
12,0.3378466255002552,0.3377861774166425
13,0.33782513256205454,0.33868010018269223
14,0.3377949540482627,0.33763974330822627
15,0.3378159988588757,0.3379817264874776
16,0.3377796642250485,0.3376489099462827
17,0.33777265440093146,0.338616371969382
18,0.3377481499115626,0.3376320028305054
19,0.33778793191247514,0.33755635128418604
20,0.3377773488759995,0.3376733656525612
21,0.33776637080642913,0.33758286156256995
22,0.33775301786263784,0.33764743934075037
23,0.33774764055013656,0.33770818563302357
24,0.337753220975399,0.33776614316304526
25,0.3377320110268063,0.3379011330604553
26,0.33778350207540725,0.33755000853538514
27,0.33772848439216613,0.3376306422750155
28,0.3377254785299301,0.33796864018837613
29,0.33771950672070183,0.3379037718772888
30,0.33771071553230286,0.3376902016401291
31,0.33771611181232664,0.33756648194789884
32,0.33770551153024037,0.337691963215669
33,0.33768759249978597,0.3381293603181839
34,0.3376949045459429,0.33757782260576885
35,0.337682329290443,0.3375733080705007
36,0.3376939003732469,0.3379352760712306
37,0.3377054522501098,0.3374739111065865
38,0.3376902538604207,0.3379740977485975
39,0.33772459006971783,0.3375616057912509
40,0.3376823357674811,0.33756495563189187
41,0.33768808572159875,0.337678704003493
42,0.3377098152703709,0.33808150424559913
43,0.337678466088242,0.3378192903200785
44,0.337700677341885,0.33756279343366624
45,0.33770430563555826,0.3375770256121953
46,0.3377246230377091,0.3374981508056323
47,0.3377203112377061,0.33746100717782973
48,0.337736188756095,0.3376644178231557
49,0.3377294098536173,0.3375011521379153
50,0.33774651700920527,0.3376032142837842
51,0.337715262790521,0.3383786800503731
52,0.3376686085992389,0.33764375483989717
53,0.33768028940757117,0.3383862597346306
54,0.3377102742327584,0.33812496342261633
55,0.3376996790965398,0.3374899204174677
56,0.3376591221557723,0.33764535015821456
57,0.3376859897573789,0.33753131741285325
58,0.3376973778340552,0.33836706789334614
59,0.3376877398623361,0.33776515199740725
60,0.33769659523831475,0.33761138013998665
61,0.3376636728114552,0.33781356177727384
62,0.33773315622409184,0.337515888551871
63,0.3376764942937427,0.33752256667613983
64,0.33768780185116665,0.33755000021060305
65,0.3376754668686125,0.337544965227445
66,0.337663523097833,0.3378166384895643
67,0.33769814811812504,0.33776977932453156
