epoch,loss,val_loss
0,0.671066258682145,0.6694927194515864
1,0.6696840975549486,0.6693875608444214
2,0.6693713320758607,0.6690785516103108
3,0.6692247398561901,0.6690175508658092
4,0.6691232261657715,0.6691216178337733
5,0.6690773788293203,0.6692260168790817
6,0.6690626070102056,0.6689782623052597
7,0.669001405040423,0.669476152420044
8,0.6689659240775638,0.668925841252009
9,0.6689226196342044,0.6688921273549397
10,0.6689034854041206,0.6687949518760046
11,0.6688959963983959,0.6687873986562093
12,0.6688766379753749,0.6687591078678767
13,0.6688661705123053,0.6687767047087352
14,0.6688684566815695,0.6687711855570475
15,0.6688471087217331,0.6687986584901809
16,0.66883680164814,0.6687907925844192
17,0.6688399284945594,0.6689060498078664
18,0.6688267679876752,0.6687164222399393
19,0.6688344738748339,0.6687198550303777
20,0.668831437309583,0.6688237973848978
21,0.6689313641124301,0.6687436416546504
22,0.6688233474228117,0.668740062435468
23,0.6688417979743746,0.6689402031501134
24,0.668845612777604,0.6686958332459132
25,0.6688065821859571,0.6728310108582178
26,0.6692024368445079,0.6689263511896133
27,0.6688742187685437,0.6687452159722647
28,0.6688360015816158,0.6688627204100291
29,0.6688281634648641,0.6688358411391576
30,0.6688232803212272,0.668674230058988
31,0.668805830889278,0.6686975771188736
32,0.6688016865385903,0.668689266761144
33,0.6687870296637217,0.6687101198434829
34,0.6687929561270608,0.6689153244495392
35,0.6687872944010629,0.6686605493625005
36,0.6687898134655422,0.6686882549524307
37,0.6687852682405048,0.6688656420310338
38,0.6687949769496918,0.6687926107645035
39,0.6687849250104693,0.669771821419398
40,0.6687763945659002,0.6689677001237869
41,0.6687705905569924,0.6687597271601359
42,0.6687844479216469,0.6686854134003322
43,0.6687864702542623,0.6687049344778061
44,0.6687776675356759,0.6688864293495814
45,0.6687724479834238,0.6687190709114075
46,0.668775424334738,0.668732364098231
47,0.6687930940522088,0.6692566142876943
48,0.668775998155276,0.6687929166952769
49,0.6687707419130537,0.6687622382243474
50,0.6687808807293574,0.6687196819384893
51,0.668793713649114,0.6689236792723338
52,0.6688004529608621,0.6687529940605164
53,0.6687864271932178,0.6687168480157852
54,0.6687819040748808,0.6686872378190358
55,0.6687700493997998,0.6686966287692387
