epoch,loss,val_loss
0,0.4529483403762182,0.4493320752978325
1,0.4492285910977258,0.4486631432771683
2,0.44877114123768275,0.4490842978556951
3,0.448586297624641,0.4486119537552198
4,0.4484681429995431,0.4482243786454201
5,0.4484605467054579,0.4481581216454506
6,0.4483394018875228,0.4481740607023239
7,0.44830843332740994,0.44860572457313536
8,0.4482776290509436,0.4481165961821874
9,0.44825518487559424,0.44912322427829104
10,0.4483872512578964,0.4482229582667351
11,0.44825917526748443,0.4482967996398608
12,0.44819890016317365,0.4482598687609037
13,0.4482950581908226,0.4483283383647601
14,0.44825604903035693,0.44833285214503604
15,0.4482624636160003,0.4481233876744906
16,0.448166020280785,0.448000590801239
17,0.4481898630592558,0.4481164514025052
18,0.44815779938962724,0.4486946997642517
19,0.4482531729605463,0.44855002395311994
20,0.44816126866473094,0.44802688123782475
21,0.4481406700346205,0.4483646128177643
22,0.44812885577811135,0.448062708457311
23,0.4481215888791614,0.4481974694331487
24,0.44810492500331667,0.4483438702027003
25,0.44813627568880715,0.4480575957099597
26,0.44810175550646253,0.4480683067838351
27,0.4481054364972644,0.447981829504172
28,0.4481266853014628,0.44808327106634777
29,0.4480909239716,0.44820358177026115
30,0.4481232064300113,0.448026021361351
31,0.4481034138864941,0.44816363670428594
32,0.44812074042691125,0.44868918631474175
33,0.44809769686063133,0.44806161808967593
34,0.4481417539053493,0.44880790545543037
35,0.44813922942346995,0.4480699521104495
36,0.4481196150183678,0.448186165591081
37,0.448125475552347,0.4482243597904841
38,0.4481118442349964,0.4487250544230143
39,0.44814006691508823,0.44805383320649467
40,0.44812308237287735,0.4480298287073771
41,0.4481264664332072,0.44819664919376373
42,0.4483678442570898,0.4479459803104401
43,0.44810032721360527,0.4481401359240214
44,0.44808846620056364,0.4482302096684774
45,0.4480971047613356,0.44816339431206387
46,0.4481469782723321,0.4484853531519572
47,0.44814413510428536,0.4479668388962746
48,0.4481468101276292,0.44837719879547755
49,0.44809559110800423,0.44793596400817237
50,0.4481281156738599,0.4480726637641589
51,0.44813994836144977,0.4479501749475797
52,0.4480936097900073,0.44804025294383365
53,0.44809974729352525,0.4479843967954318
54,0.44808039339383443,0.447995308081309
55,0.44809859251976014,0.44845314407348635
56,0.4480805221862263,0.44805733956893284
57,0.4480720513198111,0.4479399491349856
58,0.4481354193025165,0.44788247732321423
59,0.44807318639092975,0.44800103330612184
60,0.4480586132009824,0.44814193771282834
61,0.44805074645413295,0.4482499361038208
62,0.4480921787487136,0.44804413865009945
63,0.44807522520754073,0.44809181984265645
64,0.44807681516806286,0.4479832747578621
65,0.4480714722606871,0.4479459830721219
66,0.44808339932892055,0.4483520782192548
67,0.44812294481197995,0.4500547112226486
68,0.4495006997783979,0.4482970334291458
69,0.4482151424553659,0.44799429243803024
70,0.4481118800971243,0.4480441861550013
71,0.4481216981013616,0.4479980340600014
72,0.448119226442443,0.4480392668247223
73,0.44810728928777904,0.448516770362854
74,0.4481090486778153,0.4486291262706121
75,0.4481228462656339,0.4480528350075086
76,0.44811777071820363,0.44800150746107104
77,0.44808529955148696,0.44810066680113475
78,0.44808615996440254,0.44841434484720233
