epoch,loss,val_loss
0,0.6717672395176357,0.6696606356302898
1,0.669637489716212,0.6692552805741628
2,0.6692635838720533,0.6690734433730443
3,0.6691629262632793,0.6695782050291698
4,0.6691137550009622,0.6690013021628062
5,0.6690679366456138,0.6690336778958639
6,0.6690421917968327,0.6689130067427953
7,0.6690081181393729,0.6689689065217972
8,0.6689637659258313,0.6689791109164556
9,0.6689691600932015,0.6688421549002329
10,0.6689263793494966,0.6691268253326416
11,0.6689310170676973,0.6688718809684118
12,0.6689149738815096,0.6688281691074371
13,0.6689015376567841,0.6691275771458943
14,0.6689100908968184,0.6688790412743887
15,0.6689184583160612,0.668779657403628
16,0.6689104110797246,0.6689162975152334
17,0.668895738363266,0.6689638820886612
18,0.6688922441800436,0.6690859165986379
19,0.6688966948853599,0.6689810773531596
20,0.6688847863674163,0.6688560731013616
21,0.6688773043817944,0.6690476063489914
22,0.6688748373455471,0.6689466356833775
23,0.6688836323817571,0.6691344129641851
24,0.6689074308607313,0.6687740562359492
25,0.6688755148914125,0.6688624103069305
26,0.6688719503217273,0.6687979679505031
27,0.6688627512984806,0.6691819434165954
28,0.6688737894164192,0.6687897255818049
29,0.6688726109266281,0.6690933610200882
30,0.6688896002239652,0.6690412396589915
31,0.668849491291576,0.6689315975904465
32,0.6690117872556051,0.6688871808052063
33,0.6689071529971229,0.6688216775655746
34,0.6689135790930854,0.6696648623943329
35,0.6689101686875025,0.6689653611183166
36,0.66890860358874,0.6687713528871536
37,0.6689023744795057,0.6689321992397308
38,0.6688874668942557,0.6689159327745438
39,0.6688993488020367,0.6687671328385671
40,0.6689027395645777,0.6690139929850896
41,0.6688978976276185,0.6687604876756668
42,0.6689021385510763,0.6690017373959224
43,0.668889397184054,0.6689296349684397
44,0.6689085628588994,0.6689244159460068
45,0.6688879598644044,0.6689943591356278
46,0.6689091036452187,0.6687905974785486
47,0.6688883365922504,0.6688297159671783
48,0.6688930573860804,0.6688725605010987
49,0.6689115752246645,0.6687929824590683
50,0.6688970520363914,0.6688962459166845
51,0.6688818759918213,0.6687831502755482
52,0.6689009923537572,0.6689737705787023
53,0.6689008381234275,0.6687970281044642
54,0.6688887922896279,0.6689103683233261
55,0.6688885503080156,0.66944258137544
56,0.6688903359969457,0.6687916385332743
57,0.6688865300152037,0.6688067775567372
58,0.6688938048283259,0.6687630898952485
59,0.6688936223321491,0.6692478859424591
60,0.6688991947571437,0.6690390485127767
61,0.6688841185967127,0.6687886851628622
