epoch,loss,val_loss
0,0.7810277250342899,0.7801705610354741
1,0.77983275575108,0.7795271038214365
2,0.7796091910733117,0.779479083498319
3,0.7795027449528377,0.7797403402328491
4,0.7794048752917184,0.7793476378122965
5,0.7793753825293647,0.7795242065985998
6,0.7793439402050442,0.7792623415788015
7,0.7793304499520196,0.7792924356063207
8,0.7793129621876611,0.7793030960957209
9,0.7793060424062941,0.7792884084383647
10,0.7792948222822613,0.7794071816603343
11,0.7792987724675072,0.7792332654396693
12,0.7793082535664241,0.7791991093158722
13,0.7792815325127708,0.7792428543965022
14,0.7792822505103217,0.7792358232339224
15,0.7792674045430289,0.7792822440067927
16,0.7792639557388094,0.77920687576135
17,0.7792658845318688,0.7792935107549032
18,0.7792511157062318,0.7793673856258392
19,0.7792481796079211,0.7791924887100855
20,0.7792453082799912,0.7792611727317175
21,0.7792415636777877,0.779272877017657
22,0.7792382116582659,0.7791764869292577
23,0.7792419148286184,0.7792030577659607
24,0.7792435705529319,0.7791933824618658
25,0.779236007557975,0.7792088971932729
26,0.7792308679819107,0.779193161725998
27,0.779230587946044,0.7792992140849432
28,0.7792316100862291,0.7791514402627945
29,0.7792292685906093,0.7792394295136134
30,0.779229192548328,0.779166870156924
31,0.779233757575353,0.7797879401842753
32,0.7792288649876913,0.7793125330209733
33,0.7792240873045392,0.7795934963623683
34,0.7792381401326921,0.7791881530682246
35,0.7792279173930486,0.7792205588022868
36,0.7792275923755434,0.7791517655849457
37,0.7792371304565006,0.7792169926961263
38,0.7792312742206785,0.7792479790846507
39,0.7792206757201089,0.7791552107334137
40,0.7792326090203391,0.7792049409945806
41,0.7792372950580385,0.7791990474462509
42,0.7792380078633626,0.7791842668453852
43,0.7792210238774617,0.7792136482397716
44,0.7792231866253747,0.7791528588533402
45,0.7792244553698434,0.7791917457580566
46,0.7792245423528883,0.7791834523280462
47,0.7792122816377216,0.7792261029084524
48,0.7792225170135498,0.7792022854487102
