epoch,loss,val_loss
0,0.3430967717241344,0.20506682264447115
1,0.22496790024903032,0.22303819737343505
2,0.2330729694331618,0.22512693037275175
3,0.24367428460032392,0.24371407799187078
4,0.24539355866855578,0.2322190781482718
5,0.24406815582723784,0.231668247008169
6,0.24549789684380982,0.23415019415735908
7,0.25080770919855544,0.23128123130628178
8,0.2543341205168286,0.24201654031909006
9,0.2560298064763876,0.24431247522167723
10,0.2502098332783334,0.23590170273622263
11,0.24359947763938156,0.2261972312074508
12,0.23614782788712468,0.2163371903956275
13,0.23157935862163243,0.2203232744362716
14,0.22646776295667462,0.21121234465496191
15,0.2162154757017322,0.2015923071420009
16,0.2111365806350143,0.1899130183414821
17,0.20634392760485243,0.17645388204734305
18,0.20328405936113636,0.18564170978461836
19,0.1997675551795024,0.17683898609823456
20,0.19606544318988478,0.1730044345761931
21,0.1953561264243099,0.1766096430514174
22,0.18939042771406608,0.16107623841060628
23,0.18903626249827224,0.1596239476622553
24,0.18803441009109167,0.1794858242642657
25,0.18741899633331238,0.16100465633815028
26,0.18572859359894683,0.16913849177006676
27,0.18485400551934544,0.15894726689811267
28,0.1836335894653948,0.1786112319572322
29,0.18331324619899472,0.1660486192888877
30,0.18210241118009038,0.1577441909645789
31,0.18098045263388712,0.1549841055324768
32,0.17955837351045578,0.16573376494360859
33,0.1798891209012227,0.1564279519873524
34,0.1782836836633728,0.1529369517157741
35,0.17575942237583325,0.15658583463640205
36,0.17763359555967145,0.15986186236940741
37,0.17918778599811802,0.15888251720747132
38,0.1801544619355801,0.15220293260065404
39,0.17689890494410565,0.15127730091001962
40,0.17532419477752728,0.15253725229775336
41,0.1761440287670009,0.14416067414620207
42,0.17623563296943784,0.15084540021559714
43,0.1748928167731214,0.14925481069044474
44,0.17498524658817402,0.15107740893271138
45,0.17244393602192545,0.14426032007828246
46,0.1704273062815563,0.14883906787619394
47,0.17119799732708568,0.13967915801429595
48,0.17297994122923233,0.1502636062451136
49,0.1703349938623613,0.14432277841023672
50,0.17211981142182842,0.16102653993210556
51,0.17078477637566405,0.15421784379718173
52,0.1711419641947727,0.1444324077940142
53,0.16901279239057063,0.14688655947367543
54,0.17088581349035564,0.16006973738701288
55,0.16911890315677855,0.14293444089573376
56,0.16840993585564595,0.1360738580534348
57,0.16742926049199078,0.15072304065983563
58,0.16735597361055157,0.1394870826507717
59,0.16689721803017574,0.13878892540980042
60,0.1670834374747532,0.15856518595806487
61,0.1671068714178496,0.13654309334739476
62,0.16616216110433932,0.1543524032043231
63,0.1660741204895479,0.1411215357319282
64,0.16618242515049714,0.1417703361092596
65,0.1649738285299823,0.13988692685055326
66,0.16587262403807515,0.14162911797381955
67,0.16446653114642212,0.14393148447982876
68,0.16365663851018522,0.1550042250247284
69,0.1652217589563327,0.1478178468982282
70,0.16414334129294555,0.15075124241864885
71,0.1657865588084233,0.14187861608593616
72,0.16607171740886972,0.13950506590506165
73,0.16471498454805372,0.14376850118022186
74,0.1643379668774511,0.16135367725742414
75,0.16357828415124964,0.161091992611916
76,0.1671278685945764,0.13969296019370248
77,0.1647380597955041,0.14355087095972782
78,0.16273871841456433,0.15353373649008178
79,0.1640294371955723,0.14438585756952357
80,0.16386881097852946,0.14674892808882473
81,0.16534637879607103,0.14384028758469966
82,0.1631916286446172,0.13724849194844177
83,0.16419641338915134,0.1366360367057484
84,0.16272859421489333,0.15085297014446444
85,0.1642886593615751,0.1530005234170521
86,0.163044521986269,0.14029309308248522
87,0.16561026165218617,0.14393581332153937
88,0.1641069541754629,0.1375984953775313
89,0.16328530992158324,0.14741868716086784
90,0.16295931539874825,0.14174476439331182
91,0.16348206925334885,0.14015370797115134
92,0.16299906642652684,0.13570729567573406
93,0.1630394676770326,0.14456842938817233
94,0.16313585899084257,0.13286896480212634
95,0.1650276416368347,0.15388901404800787
96,0.16575361985125667,0.14289013162823297
97,0.16552517072463913,0.1431135265436099
98,0.16633176275665423,0.13655823414778187
99,0.16332308279933502,0.1451920488877985
100,0.1632796288538781,0.13996993160571689
101,0.1633614267560365,0.14296160431069663
102,0.16242106454528935,0.13839363736997073
103,0.16237280879011623,0.15238715149915422
104,0.16263776874725966,0.14448837143129578
105,0.16200382633506058,0.1312587882021241
106,0.16310046926689586,0.13484793274216988
107,0.16170399942643363,0.13844653462503176
108,0.16534565367084966,0.14148786871271798
109,0.16442916474884467,0.13958040247191672
110,0.16634218985314747,0.14707659369233364
111,0.1659769056509551,0.14180626453709427
112,0.16724259682220396,0.13349860112597473
113,0.1662720631453111,0.14483539015658967
114,0.1651985972368116,0.1395053668710534
115,0.16678233716108973,0.15061607245062777
116,0.16476604690830454,0.15445324528391344
117,0.16640453109200046,0.13881395507032854
118,0.1625364724818089,0.1497630753523435
119,0.16468166454349928,0.14514718629534615
120,0.16416948933521205,0.1465275624324322
121,0.16401086560039638,0.14652785464263213
122,0.16617868854414472,0.14003954773401692
123,0.16431306027550044,0.143251595113786
124,0.16613511262451103,0.1526171003089914
125,0.16567435420399385,0.13510723719003234
126,0.16536372812618438,0.14587878534345247
127,0.1654443296106507,0.1432786143572951
128,0.16301412645688623,0.14307338683371223
129,0.16501803318257804,0.15019522696757645
130,0.16648689701592473,0.14451375150477508
131,0.16757900581014357,0.156357740519594
132,0.16698091310725582,0.13510848885131674
133,0.165599751015536,0.1521089199540679
134,0.16454310189661167,0.13803747089674873
135,0.16730404051663494,0.14496369597661427
136,0.1664964386863743,0.14742520811687324
137,0.1663092827921013,0.14293659290499738
138,0.16608012673423422,0.14062657987960256
139,0.16722702080483814,0.1594879752431376
140,0.1662570948513438,0.14033572362480565
141,0.1647503178796356,0.1540825936553542
142,0.16280320628260592,0.1363249122129643
143,0.1659822351932287,0.13850761843061216
144,0.163823616815458,0.1479807372800915
145,0.16475915954149276,0.14045224779882956
146,0.16663650743621555,0.13959060774909127
147,0.1677216604214797,0.14471749491862718
148,0.16836788629392704,0.15266316422145731
149,0.16611917408181726,0.15007778889192186
150,0.1638525905664727,0.14414746100377573
151,0.1637415975254712,0.1394375552214072
152,0.16628901321020387,0.14536763247878978
153,0.16563186809134253,0.14040309170809395
154,0.16486716150843783,0.1419204072203466
155,0.16681872392960603,0.13856641498650368
156,0.1624848460875529,0.1380002581954776
157,0.16505940707088756,0.14055104507775396
158,0.16645856384184954,0.15324428072085927
159,0.16572926778068917,0.15529901096227203
160,0.16376873272791015,0.14290313333248764
161,0.16644996893797234,0.14928809219226544
162,0.16725322313075833,0.14819271012306792
163,0.16615538836849794,0.1449653261431039
164,0.16646726858362948,0.14386077975100459
165,0.16647919646208528,0.1427640052450351
166,0.16541305021215097,0.1420588050360904
167,0.16809175009007832,0.13728297318710317
168,0.1670535240647457,0.15365148363491432
169,0.16858530583813058,0.14800148189599593
170,0.16569693368659008,0.14792246608983572
171,0.16585383815966767,0.13568519063698792
172,0.1635855868864384,0.1369758885526019
173,0.16349072414364596,0.15399143496182327
174,0.16354305913941777,0.14983122669528967
175,0.1653336610457151,0.13978615302867456
176,0.16594169596679884,0.1491049422859082
177,0.16675581597835662,0.1453659624368895
178,0.1660213824436128,0.1476948566051972
179,0.16524152510506426,0.15296550771857506
180,0.16830664851350055,0.14979337938945658
181,0.1691134176563749,0.15517973869628085
182,0.16871000344367673,0.16653427898593773
183,0.16887402527326578,0.14311719260995018
184,0.16501868202435294,0.1505935376167104
185,0.16577188161204012,0.14047675236564097
186,0.16709708900834389,0.15031862517536315
187,0.16825465964760372,0.14168589368208773
188,0.1663859228255321,0.14492318807630547
189,0.1683289132791581,0.14852900312426412
190,0.16840128901841833,0.16240969954084208
191,0.1690232440220823,0.15715955810535273
192,0.16751637837713101,0.1523558533322202
193,0.17008724218731025,0.14907594454162795
194,0.16932282045936947,0.1530058240972683
195,0.16741156561659565,0.15621058317769956
196,0.1680701605325417,0.1467542638707625
197,0.16628765563269535,0.15771057509302802
198,0.16940264299130134,0.15021472393451235
199,0.17106333370801446,0.1491619948560594
200,0.16765237937840202,0.15322547320756888
201,0.17011883845023387,0.1454217407220955
202,0.16741699619804792,0.15657931662920715
203,0.17011633912642732,0.1512825882359916
204,0.1684852414507213,0.15439896506694692
205,0.17110943687472752,0.14744042445031588
206,0.17310244282834333,0.15418993458695654
207,0.17313517754773697,0.14752980086586867
208,0.173069077482025,0.14374002140538053
209,0.17349616262474185,0.1628986110507427
210,0.16866033704723235,0.14838371896589084
211,0.16930102573050032,0.15124131799566
212,0.17168263332236758,0.1469313495302239
213,0.17255450886569088,0.1537589577524428
214,0.17341316219350641,0.154664333272251
215,0.1702210476653303,0.15997239279002556
216,0.1722158801923092,0.14905031847209343
217,0.17039174680486976,0.15599453844438213
218,0.17220185427450008,0.1722267533184935
219,0.17384117829790108,0.15706408165232108
220,0.17422362723595816,0.15709371016408405
221,0.17382919370197505,0.1679044823190205
222,0.1724344125573782,0.15448913102650777
223,0.17051581799494828,0.14610459545547172
224,0.17349375237981446,0.14649070279079052
225,0.17153301820743552,0.15695438845217566
226,0.17189309493697483,0.1626750437931036
227,0.17154696825936472,0.15042376931566392
228,0.17252531805164437,0.15619718120867704
229,0.17462952102156426,0.15054271551451834
230,0.17375035778439646,0.16147626125512815
231,0.1732683042951638,0.15769185129453375
232,0.17551316981247847,0.14605996379476202
233,0.17238986937760162,0.1492465555619536
234,0.17295634090972004,0.1568127269679129
235,0.17386801497901888,0.160446154254293
236,0.17450346511373338,0.17089683016866372
237,0.1739625593571304,0.1594782917845665
238,0.1773773619981171,0.15421233123768083
239,0.17902072663422677,0.15452837349434548
240,0.1781783176360844,0.18200637050885451
241,0.17911603300570486,0.1539629679913455
242,0.17810568635801585,0.14544917595937595
243,0.17662053734803793,0.1484665786915452
244,0.17796621853418595,0.16359622898569748
245,0.17883456470944387,0.1594943419183451
246,0.18055088720839915,0.15758092719563022
247,0.1783357874942933,0.1593392611226703
248,0.18093993461685623,0.15280104209181747
249,0.18188911552926462,0.15936354254670773
250,0.17886942706172995,0.15540046911363378
251,0.18067483722662525,0.16769035797436257
252,0.17895225902573408,0.158531778714856
253,0.17964480584673734,0.16432687642607183
254,0.1817317291426124,0.1532877018827785
255,0.18248700279536678,0.15570761542540687
256,0.18193934916304627,0.15862216332146334
257,0.17967729954074343,0.15611173923143215
258,0.18236785283009466,0.15627173130723004
259,0.1820568398201914,0.15942711770437834
260,0.18464978940015417,0.1697494997692031
261,0.18553737613012353,0.16329506234192598
262,0.1846416896586422,0.16708981520696473
263,0.1824797268828647,0.16047147924302557
264,0.182484409790501,0.16224048686095205
265,0.183174032750752,0.1576153315114279
266,0.18314787354156245,0.18747313185281514
267,0.18543048673052134,0.17046594958139066
268,0.18631202851036627,0.15691634462746004
269,0.18648417373959592,0.17884578284507638
270,0.1881885733529985,0.16534250175817555
271,0.18798399062229215,0.17336484044186004
272,0.18766206353186987,0.17052311217601185
273,0.1856685717992061,0.16982566190026974
274,0.1902170309586655,0.16916289532803366
275,0.19221991335181257,0.18363305535968105
276,0.19431046413196573,0.17979678630055398
277,0.19307723114068648,0.18510985927956913
278,0.18928363933574685,0.18105911673178832
279,0.18987152091353487,0.18315170517996474
280,0.1951597345183142,0.17887874225582037
281,0.19208314240551452,0.17531860099511715
282,0.19717250406455764,0.17122193496592725
283,0.1938399640653876,0.16720851647931198
284,0.19469474825122243,0.1610159600593168
285,0.19259836821793747,0.17311100428508533
286,0.19388192065292784,0.17416052022361214
287,0.19518230405089568,0.16995351220762836
288,0.19441423778108255,0.17967468599236697
289,0.1983119552735809,0.1736748045837599
290,0.19487481662709777,0.1830848110877491
291,0.193776059558718,0.17149076097783092
292,0.19482769070862768,0.1756636881286887
293,0.1947005444390474,0.1719736199816938
294,0.19732181296599588,0.19095505910584912
295,0.1973950080126166,0.17863289130865223
296,0.19982852551749078,0.17759005878866926
297,0.19867999570144473,0.18117291830171925
298,0.19651519610368318,0.1743846451327362
299,0.19763109371889295,0.18129224554368953
300,0.19505607113063192,0.16834514783295015
301,0.19713205955117297,0.1702747377721836
302,0.19686452294584272,0.1698766182881492
303,0.1975985068777163,0.2029497230309156
304,0.1996291056812239,0.17239249837852935
305,0.20088292870094912,0.18022711050529744
306,0.202293981191776,0.18452049840154053
307,0.201056596884926,0.17893954490319752
308,0.20259117309430583,0.18469005865433888
309,0.20175106427949174,0.17595832064348996
310,0.19934492303525284,0.17434297672443436
311,0.19990597912270705,0.19157594603101896
312,0.2016260609496012,0.1924075707007692
313,0.20197201174220816,0.199500996797721
314,0.2028106185879776,0.1915113304870842
315,0.20390717257515156,0.1981607532099989
316,0.20624775200294818,0.1903998977946539
317,0.20579825112039896,0.20111880431500084
318,0.20903607003921695,0.19019684061371786
319,0.21250517363902374,0.18763425743202802
320,0.21512220434253934,0.19319295623345
321,0.22056074539502207,0.1999673938011601
322,0.2202937204876931,0.2021020702467831
323,0.2230625068239444,0.21622570520093165
324,0.22480297123221418,0.21393131697361584
325,0.22501057138840994,0.21170326284248464
326,0.22570214576846223,0.20495523339543803
327,0.22492117942381706,0.1955135261272862
328,0.22373753805175794,0.20322533518631866
329,0.22158437976844794,0.19402791518606216
330,0.21684696738890785,0.18949346067889958
331,0.21817785503269674,0.18982159974172844
332,0.2159807622265682,0.19932100418516996
333,0.21559228542878972,0.1922085765456148
334,0.21618793378050943,0.19526953046532636
335,0.2182346519181211,0.1940974111201216
336,0.2213462237373078,0.22045295479475532
337,0.22646570492019835,0.2085229924125393
338,0.22579310622641904,0.20343556908312022
339,0.22515406927244486,0.208173352158466
340,0.22541772568221088,0.21912368903629972
341,0.22671760991513967,0.21293987334983094
342,0.22457033797824164,0.219221956707652
343,0.22701797887885733,0.2026966058521472
344,0.2257858699827408,0.2020787195108426
345,0.2287589587730537,0.2197189430516615
346,0.2283907341923687,0.2114526163318345
347,0.2223847103152302,0.21695834992865867
348,0.22275468037188578,0.20804957407379382
349,0.22295614279466597,0.2134763732951343
350,0.21935525507904036,0.1847940912743651
351,0.21515022067903422,0.19992662030850014
352,0.2172404009225466,0.20260066731809506
353,0.2123206677355224,0.19495881179050034
354,0.20730556109793383,0.1806183209384445
355,0.2030415592000807,0.18950456811080402
356,0.20363761588418072,0.18853226907110177
357,0.20758259123425374,0.17348210987335091
358,0.21356735516300768,0.20290231944000633
359,0.21701844803112044,0.21357717185559935
360,0.2272309298404128,0.20934398411882668
361,0.22921748720019985,0.2154193230861585
362,0.22820857882475834,0.2048471253259532
363,0.2314180610321158,0.20717505918512089
364,0.23499833016370753,0.22180643711550296
365,0.23484475598085203,0.21911728907820663
366,0.23623996062742605,0.21320729332297
367,0.24032805455003003,0.21832857041076636
368,0.2401427402853775,0.21730075539705335
369,0.23966103992622503,0.21876750290635535
370,0.24005523211269783,0.21371499102771138
371,0.23345694084874719,0.2051062509961372
372,0.23377883688414736,0.20635924784999887
373,0.23358546099584518,0.22023321117749567
374,0.226146869522462,0.20729568905203882
375,0.21971324918936308,0.19250378958935285
376,0.21582861866852682,0.2053948322496855
377,0.21159199735610557,0.19508836601482402
378,0.20496013029228696,0.20850896196015367
379,0.19870460504073922,0.17747325557136767
380,0.19345466431090125,0.19060661064253914
381,0.19091018292906764,0.17393920392353943
382,0.19671895201083084,0.17660757120991757
383,0.20245161794537636,0.19309073181434655
384,0.20480370836509906,0.195691658354637
385,0.2011670533170979,0.1834787828281268
386,0.1996320872019538,0.17293619320388742
387,0.19826354326201592,0.17971677290213756
388,0.2006133449397343,0.17936036300098424
389,0.20061634051456176,0.18578465226116164
390,0.19610964669715508,0.1875327660823777
391,0.1999911966266109,0.18071224218399082
392,0.1980712621735992,0.19230519737882143
393,0.2032548357502187,0.20257839358684404
394,0.20210860388053714,0.18829201578803886
395,0.20512848869980194,0.1817453374054407
396,0.20423519875618626,0.19424962104333676
397,0.21476045401216604,0.1988789787982792
398,0.21143816540940844,0.19995247576890296
399,0.21332028010685603,0.19107835672777645
400,0.21110713991334287,0.1894673743411379
401,0.21255203234471734,0.18870389913507138
402,0.21112894327092685,0.1892511831220339
403,0.21006788724990155,0.19902323162226976
404,0.21726768867100021,0.20211126574973023
405,0.21778709770107957,0.21150840406773638
406,0.2232551229916352,0.2000762554609186
407,0.2213262760097547,0.20692080578374747
408,0.2256778084379945,0.22270362771630578
409,0.22846275508356056,0.20993763128626375
410,0.2322899525980648,0.20763148897949119
411,0.22366328254711923,0.20415148026606753
412,0.23024816008163893,0.20730150232978303
413,0.2292979268835868,0.20890118842770777
414,0.2297947251732298,0.2066892097490354
415,0.22544311152829277,0.20476576598891377
416,0.21795153150184332,0.20122559669534076
417,0.20502731545244435,0.19599581421001694
418,0.21464820780617605,0.19977989061663814
419,0.2241772993730964,0.22391541296161488
420,0.22404308258604297,0.22322276841308272
421,0.22791910306323138,0.22535430380752777
422,0.21940548457294773,0.20937959523531643
423,0.21198290096725628,0.18756448381428592
424,0.21370996438187537,0.20722322173217209
425,0.22397477914086336,0.23133741989913068
426,0.23294055526904625,0.20206032046823122
427,0.22388583994966396,0.18603375046502646
428,0.2242050944887895,0.21627046560622384
429,0.22979753578396392,0.19583852208443803
430,0.2523492952649168,0.2837944821139612
431,0.25594901736733244,0.24913149696245293
432,0.24247321596233437,0.21704487314044413
433,0.22124572837944503,0.20676613837746421
434,0.22141830457316292,0.1717851361968318
435,0.2384716137002906,0.20234263089499818
436,0.22841843569560277,0.20899786028500408
437,0.22403357461918058,0.19381694844942796
438,0.21388355516094126,0.19530085988481743
439,0.21549733766944434,0.19091365349215408
440,0.22170687493106858,0.22065280093860548
441,0.22320920322612345,0.17814351219475413
442,0.21399031195333235,0.18021944202694193
443,0.21406895450179914,0.19589607911871781
444,0.21670958764845127,0.20292870076758437
445,0.2229660447176883,0.18994745661694154
446,0.22854287772654913,0.22273270322942
447,0.23737512472226582,0.2027001610299193
448,0.23371599377800312,0.2349951282349043
449,0.24299004391205606,0.21863519365915127
450,0.24010646547838818,0.24001297502138705
451,0.23841739431608192,0.21266323377567872
452,0.24037916256223707,0.2146101610890657
453,0.24180303908305897,0.21343215381528727
454,0.24050092662545183,0.2752717816046555
455,0.24523280311623413,0.24171094039254137
456,0.24747556699715775,0.264763032505402
457,0.24746312084700986,0.21325358730308042
458,0.24824748365424745,0.25420743396199047
459,0.2559397922421666,0.2772518625998052
460,0.24732570550602087,0.2187788011287154
461,0.2443640695286809,0.21755571027693474
462,0.24555570791491133,0.20329645086330606
463,0.25704162906082845,0.23260772158146292
464,0.2472887878433717,0.2233571528977528
465,0.24053513665524742,0.20601817751597895
466,0.23490596137899128,0.20981581408805414
467,0.23563910501183655,0.23971057050564573
468,0.23501643609461353,0.22369295069819434
469,0.22938407060978794,0.20134806788895832
470,0.1838799029278507,0.20525560140706423
471,0.19640564863339627,0.2074252307560032
472,0.18538997037779148,0.15094407737279267
473,0.17611240420797714,0.19536552949833463
474,0.19885657641818946,0.15161430711849666
475,0.19964475966423298,0.12707841450715587
476,0.18646235586859114,0.1668202491886521
477,0.18351636500395327,0.11807038890619348
478,0.2027741247852198,0.24423792259729885
479,0.21160129130817204,0.2014574474879425
480,0.19608658466270393,0.19716350683475642
481,0.1712190793682519,0.16203166010871906
482,0.15865969937667548,0.1275375159359133
483,0.15650253228133348,0.1293703892116419
484,0.15959104920049205,0.16872301636096046
485,0.15110741745385292,0.11463043163171746
486,0.18430505280164455,0.14397149737274753
487,0.19379016452784342,0.13352530401891938
488,0.18580630572260715,0.1696804081968244
489,0.18284431339992438,0.10541648488410198
490,0.18620526426142936,0.2009429885958233
491,0.18855165714044586,0.12765438622052555
492,0.15474985471014693,0.11541107674004678
493,0.15507537411082928,0.14461542430899535
494,0.15528816322358346,0.1825034726782727
495,0.16888904280727915,0.12122330359588865
496,0.16736142559825562,0.17115680096309938
497,0.1615682418336622,0.10672104648115764
498,0.18053060027661086,0.10351533816775363
499,0.18710053196434884,0.2787723941766239
500,0.22587766820748298,0.25406696435308807
501,0.23374065227681298,0.304834691084021
502,0.25997904935080685,0.21691843795998736
503,0.2459449016088672,0.14554535096627566
504,0.3201372246589777,0.3703115016874606
505,0.30266050984851833,0.24189844617540046
506,0.2824296927432999,0.3090149348137926
507,0.28807597023974046,0.25788142862642865
508,0.28477147375468354,0.2616875895811887
509,0.2894449190223952,0.2855173223693489
510,0.2864357571574666,0.25997123779654985
511,0.2858165961573179,0.2746715560277496
512,0.2803426089109756,0.2630213450486353
513,0.28229789794374216,0.23439326120989165
514,0.24346302484301588,0.15283615860577435
515,0.24495570691491814,0.21683011909180894
516,0.21565410467960816,0.15144618122633743
517,0.3142683370004567,0.46219741036422063
518,0.4006925025840012,0.3384885061154594
519,0.38585717130222735,0.34914347824292363
520,0.3718573502104601,0.35656205392521956
521,0.3716042167167839,0.3770892471921028
522,0.37626722092338327,0.35897262893550685
523,0.39289026968091656,0.38006380224556624
524,0.30011383410665493,0.25264263644947427
525,0.32361883015108645,0.42136798331337255
526,0.33371754652194924,0.23530624956738533
527,0.22456409734449356,0.2319147165891898
528,0.19480658415033877,0.17231781135365332
529,0.19417250196369673,0.15534125117997474
530,0.1678183802349077,0.10677407871681022
531,0.1777354141024707,0.10711253552251199
532,0.17364032869879678,0.1983085230222487
533,0.19142393608263628,0.1878265467414214
534,0.35542855032378906,0.45242494569497677
535,0.3903153982278917,0.3750126415989018
536,0.36695181499060103,0.35298511939423893
537,0.36483317227054346,0.33949845250989014
538,0.354806626243912,0.34040610943010735
539,0.37110569719985737,0.3057429024047805
540,0.35691955580627377,0.3242184739236607
541,0.3266319356459059,0.2967434452857221
542,0.3103095484588793,0.30865285291192207
543,0.31470523789536964,0.3026062502236455
544,0.31342010905114626,0.2527925977838397
545,0.3458088452191807,0.4424599641382646
546,0.24798356930764795,0.14627696084280084
547,0.15585813802585685,0.1472219342829634
548,0.15658252154461283,0.16390439939880797
549,0.16881717187617185,0.1281997673364548
550,0.16644033556692212,0.17592811960325141
551,0.18191010224594892,0.19011117841833894
552,0.18628683861037842,0.1593154566626866
553,0.18645866722274151,0.18285274808955984
554,0.1942010807563917,0.1957210795070133
555,0.19261885341927945,0.21338644441268548
556,0.19645470325902903,0.19216037721094423
557,0.19916645482218295,0.14455662406709072
558,0.18982304207938877,0.16425329078191292
559,0.1770330091790737,0.140858320091811
560,0.1741803649475901,0.14109936991626426
561,0.18635772450493754,0.17232635751402872
562,0.18657229028886751,0.16719877425602367
563,0.18379538504479884,0.16264138646901186
564,0.18391938553787499,0.17629736931412954
565,0.19266123502396698,0.14463841603934427
566,0.18215680692652114,0.14818945201378186
567,0.18610259297611811,0.1513141163436746
568,0.17603200373110817,0.12010178558486125
569,0.18329532196621498,0.17305213738676986
570,0.1917482196592731,0.14565936177485567
571,0.16357648113460613,0.13361651039495762
572,0.1718246546403182,0.11392139184189733
573,0.17553943250659373,0.15286626889757868
574,0.167443130505357,0.16706377050302323
575,0.18283930626676215,0.15254719423044047
576,0.19975288715168799,0.15364628442278358
577,0.18280272211154716,0.15553992254914836
578,0.19775666700925132,0.17865240520707787
579,0.21233443344970815,0.21009192888270717
580,0.18138965391952863,0.11212286837127088
581,0.16418100210477868,0.14676266347888225
582,0.1593337778070624,0.13356546735555683
583,0.13863865720977583,0.11585565743437648
584,0.1480101703839888,0.1577104168361701
585,0.16843560497590407,0.15728561325785792
586,0.16620677440249032,0.13655279640830442
587,0.17644562905399297,0.15479456302192476
588,0.17834960626627655,0.15188485515717076
589,0.2031390222998931,0.20072606480276303
590,0.2066721743684086,0.18817878419658757
591,0.2095403711529996,0.1800370993030719
592,0.17221152339521362,0.11968569047235418
593,0.1543868331878399,0.12267859350808345
594,0.18438970380491787,0.20244608394082542
595,0.19488037046227005,0.18973437006021068
596,0.18022167949293785,0.17215333233035296
597,0.1722996881406149,0.14689027421955936
598,0.1813067845206818,0.18339813594303767
