epoch,loss,val_loss
0,0.5687296970856848,0.5293634261497853
1,0.5134962278185227,0.5023051141610556
2,0.4984509847361407,0.4979755267112765
3,0.49601357788157213,0.49346866632128855
4,0.49548364683783214,0.4908731080174164
5,0.4869628633312184,0.48719251391072865
6,0.4859987051128674,0.48281437734872595
7,0.48557954526347796,0.48524793949575057
