epoch,loss,val_loss
0,0.4970025643288755,0.4143801951737106
1,0.36564130823406055,0.2575699643980461
2,0.2547800011867232,0.23348259950012862
3,0.24986902682827988,0.2382702979003136
4,0.24899138823402128,0.22856878410097262
5,0.24985838033634725,0.2429819622493235
6,0.2522346392226181,0.24025071365796544
7,0.25041912499072555,0.23155564843206414
8,0.2544444667054616,0.2200899110730837
9,0.25181898625613786,0.2533538927537875
10,0.2558464206415143,0.234846472474297
11,0.2503295594914328,0.22877921298182505
12,0.2515009324117791,0.23720145776614077
13,0.2519313577380631,0.24872248632484398
14,0.25109605573481614,0.22393994363265027
15,0.247817560427899,0.2343631777111728
16,0.25200846484057704,0.2286840268899441
17,0.25230873330198733,0.226756941590576
18,0.25038312548537367,0.22472206051767307
19,0.24946421681283665,0.2334591555261844
20,0.24798735512720288,0.22571599495575279
21,0.2452365919661293,0.21802121938628485
22,0.2355680537102125,0.186981391768966
23,0.21306759975641798,0.21186303071200316
24,0.2132507540804563,0.11480752918310312
25,0.15485016099983354,0.17761075442289784
26,0.21099258228551873,0.19636406328314607
27,0.23057202842113397,0.2051011896892379
28,0.22424268108114803,0.1923179585012303
29,0.23707547789220337,0.21887612263071565
30,0.24114193038357268,0.21617398996567785
31,0.24192782149040956,0.25093033102500373
32,0.24397163637119643,0.20591997755850028
33,0.23921282113409692,0.21783654333756208
34,0.23680094188098624,0.21820503117974366
35,0.23719627578989613,0.21708734900315216
36,0.2301277584486527,0.20409163679181322
37,0.22507574228499774,0.1766734058452832
38,0.21083790965205293,0.16274911483080523
39,0.20523502013151698,0.17529198072929258
40,0.1913899488096909,0.15636785864370775
41,0.18628976908061293,0.16055467397893045
42,0.18023215517031851,0.16664997037478993
43,0.1810906134468255,0.15113234719365762
44,0.185663604090293,0.18352153603612942
45,0.17916310030677682,0.18026837762158185
46,0.17220419953712185,0.09337850171840008
47,0.1547453906759918,0.11281277859297982
48,0.16523640152451705,0.1199250599038572
49,0.17926211400424316,0.13300575016237137
50,0.15936418261537083,0.14690773154624767
51,0.17496688667240384,0.17907860977854656
52,0.17945555361022084,0.2077431121761008
53,0.180536462317666,0.1596656275455389
54,0.17235848787512847,0.19533795571530244
55,0.18372429932972448,0.15453426574340992
56,0.1497248807538739,0.09594707304592164
57,0.1633567528618728,0.1297407262480462
58,0.17626936991719172,0.17968143138427223
59,0.17632126249223828,0.1507506156151409
60,0.18536977895242487,0.10733793619702912
61,0.1741198423244745,0.13690794087698666
62,0.19496381313229103,0.27461781233718313
63,0.3392740338175797,0.42654504654181263
64,0.40989789871381127,0.3766988266655225
65,0.38739004990069553,0.3660635876877948
66,0.38229161832597947,0.3654304827893544
67,0.3782582508028747,0.36234339264380866
68,0.3756544935025627,0.37324425343662765
69,0.3783081432788061,0.3711303138481536
70,0.378017837985503,0.38747197628891383
71,0.37825047020152436,0.3608031716659991
72,0.38131761218043114,0.36580566038277124
73,0.4218588153584849,0.4766036964052592
74,0.4598515840520183,0.5060513569200706
75,0.48500054034354495,0.4618403078914172
76,0.45969213337732184,0.4460723766058514
77,0.4508244039727937,0.4400146677546258
78,0.44465596987019546,0.43371099013675063
79,0.4469198936863457,0.44497766742741107
80,0.45363879534270496,0.44471994682916854
81,0.4726146388712456,0.4904234235545821
82,0.4874085367823525,0.48983973535404685
83,0.5030916642078502,0.49141902715233604
84,0.4619082513573267,0.43348676643038997
85,0.4406252477863868,0.436245118952919
86,0.4405863341018617,0.4341868904917006
87,0.44063762981620574,0.43226466820381176
88,0.4427967733674473,0.43232933871164037
89,0.4423991085363446,0.4407708547217809
90,0.4429544181800824,0.4316732448624675
91,0.44147444107801653,0.43332667855450707
92,0.43944064665546984,0.4283671033933505
93,0.4398890518135219,0.4357754513440051
94,0.4391966173775774,0.43158595441611725
95,0.44108758585227786,0.42970340733400514
96,0.44372077331579235,0.4359346917027491
97,0.4432175630350128,0.43470573144914265
98,0.4417893381191312,0.431500238368691
99,0.4429669975637912,0.4356495636029642
100,0.44404707351524986,0.4319203021994279
101,0.4447907626127796,0.43617480082040094
102,0.44622485504282106,0.43974438222655415
103,0.4469672045032915,0.44024794368074854
104,0.4473332769279961,0.4444018148931177
105,0.4472738727748251,0.43949478538367
106,0.4469642016508753,0.4377307430912785
107,0.44770340602382647,0.44430272495079504
108,0.4481600064864819,0.4426950510449266
109,0.44869549738301384,0.4407472113043142
110,0.44906039940442344,0.43909417086757496
111,0.4486189829386932,0.4390791891216748
112,0.449950581972746,0.4414531384796412
113,0.44959179007167144,0.4395398882860492
114,0.44930149590949997,0.440742789103747
115,0.44899165012342057,0.4410503439949667
116,0.4488222064186421,0.4413186713920216
117,0.44889562453528803,0.4394380276462264
118,0.4492279637136681,0.4434180612595025
119,0.4499104351306362,0.4453705854031098
120,0.4491511340901029,0.44253190967578376
121,0.4494193406392327,0.4412208527012366
122,0.4485301466418611,0.4447320275498133
123,0.4478745347886586,0.43698149162970806
124,0.4478880792522163,0.4401675816096625
125,0.44902521683226787,0.4397794338425097
126,0.4482193100299713,0.4422353919163431
127,0.4486860596866394,0.4429625228518697
128,0.4483413072206002,0.4396600362883287
129,0.4483276076012368,0.4407135346075044
130,0.4471436694109316,0.4415027498715502
131,0.4478366653903949,0.43857595945700145
132,0.44774276317597583,0.44040289806430166
133,0.44769750319546564,0.4394463005823907
134,0.4467743063111416,0.439980488672357
135,0.4473188621006172,0.43604824558468436
136,0.44694534543039705,0.4363375770204549
137,0.4482390545815635,0.4430377857045052
138,0.44775564338656976,0.44018030990842677
139,0.4468706587465216,0.4388293654137478
140,0.4475836717695881,0.43860377176738036
141,0.44822734467882075,0.4392259396244043
142,0.4473959928612598,0.4395256643602738
143,0.4475799851101623,0.43687588143232675
144,0.4470466158693556,0.4378675194842392
145,0.44649463318127264,0.4404651483721783
146,0.4462127631501831,0.43601401248117433
147,0.44635308619209824,0.4415660354294433
148,0.4460432518115513,0.4354369239118751
149,0.44503424392403174,0.4417054887380623
150,0.4451321868823947,0.4385083373348982
151,0.44425217347969714,0.434735208242189
152,0.4435641346238345,0.43308885735123503
153,0.4435411099556258,0.4371444492299481
154,0.4436440266805997,0.4337214210704392
155,0.44382869969424105,0.4345351559595663
156,0.4427590217587469,0.43241978697146427
157,0.4424275108057561,0.4301577897112445
158,0.44234743000890275,0.4400222489771955
159,0.4419584949079564,0.4321838045448959
160,0.4412520097149573,0.43178813252522513
161,0.44056332490747696,0.42774910590364407
162,0.4415304983874337,0.4301129456032415
163,0.4400103972423926,0.4283175586155538
164,0.4402974425696487,0.4292731225152182
165,0.4382603228736439,0.4286409876787459
166,0.35412760838878166,0.2932619871836026
167,0.30000121234726007,0.30122253890938616
168,0.29339544345632945,0.2843587534005141
169,0.29291266564419977,0.27920531318957303
170,0.29638564266306194,0.2871160756038247
171,0.2980321991422159,0.2841313144030459
172,0.2974538128670928,0.2776337276482524
173,0.2947809517777281,0.27454400017845465
174,0.29353835676506673,0.2765936361926412
175,0.2954435023643953,0.27714295536642236
176,0.29485679809168114,0.2809817747115509
177,0.29743832312792756,0.2805021617075146
178,0.3004929234413169,0.28936635307055225
179,0.29844653723333436,0.2850977611657767
180,0.2999416687626472,0.279496081614533
181,0.30031495415467657,0.27892450747795444
182,0.2999807214550823,0.2820133784512437
183,0.29753082613046883,0.26925681852897976
184,0.29775840456815983,0.28102024207730075
185,0.30179683266996477,0.28697698473301925
186,0.30069714303227596,0.2866803250439459
187,0.3022043011050591,0.2842669152720421
188,0.30448030754983474,0.2875309882614541
189,0.30453964391405625,0.2903006853171702
190,0.3044008236942146,0.29291204259778464
191,0.3035329616515993,0.2837323612757843
192,0.306767051527985,0.2982948566005178
193,0.30780320436215763,0.29424495375069387
194,0.30900066091214495,0.30012947138450247
195,0.3075626059424123,0.28378330073217406
196,0.30748751511375266,0.2814643049230444
197,0.3033485300630164,0.2816401743371605
198,0.3013342900740041,0.283149144256492
199,0.29772747617611606,0.28005002522410555
200,0.29156311465989504,0.2678494654287677
201,0.29040558793074234,0.2709467572863278
202,0.2894850156491427,0.27270082128744055
203,0.2890838750535913,0.27447880439563005
204,0.28698297227330927,0.2755078006738197
205,0.28724245276686855,0.28052849451265777
206,0.287283503157411,0.2607327585696981
207,0.2845848144663631,0.26933731324819654
208,0.2854074780360234,0.2691629864366095
209,0.2848488050844786,0.2750653015436047
210,0.2888796301640636,0.26664375026150633
211,0.2863542259908658,0.26969133316262023
212,0.28800149868616015,0.2683833154811186
213,0.2870616598294867,0.2757709679909093
214,0.287381373650079,0.26118976896551693
215,0.2891577475124879,0.2722835877951044
216,0.28908198878013963,0.27417171958589204
217,0.2880863205338116,0.27816605223501395
218,0.286406738995265,0.27370739899219193
219,0.28746483359244274,0.272353427906106
220,0.29099776603585725,0.27377710376004327
221,0.2905337889555743,0.2861098322023344
222,0.2885685825438572,0.28203516136265727
223,0.2901718045373837,0.27325985719059315
224,0.2898673677356173,0.2678740847212265
225,0.28803088516593456,0.27003658764118693
226,0.28746873751175317,0.26496533506881487
227,0.2899193623490196,0.2724034898496699
228,0.29062754885734227,0.2683937319487164
229,0.29185293075606955,0.2745911473437044
230,0.29199153540418854,0.2754408457805157
231,0.2929830831334627,0.275135051909251
232,0.2930720556524394,0.2742666625580165
233,0.2935427613228297,0.2713374830873053
234,0.2932436768177321,0.273510466708174
235,0.29300599623981527,0.2763278231278533
236,0.29308499559294804,0.28609094612258096
237,0.29375032306290133,0.27468444113313717
238,0.29208710156172346,0.2714553531455684
239,0.29468244037406743,0.28683468064977596
240,0.29538618368778924,0.2759099945679778
241,0.296549975448508,0.28512724139104506
242,0.29568213184443926,0.27628926270537907
243,0.29756340093976313,0.28487824935644307
244,0.2960803077173672,0.29419406131816317
245,0.2972841737292307,0.2887242373444642
246,0.30060338767601835,0.28077922344497813
247,0.29948727726292096,0.28552183745744647
248,0.3013754975948456,0.2784394301709758
249,0.30052317636575193,0.2895127533657804
250,0.3039424091195755,0.28124616566413996
251,0.30630724750656046,0.29345151373553063
252,0.30581445973500715,0.2874936847573649
253,0.3052456586049785,0.28947623636020653
254,0.30555275749501654,0.2937266704447368
255,0.3056048072451014,0.29031360710140947
256,0.30492449016739026,0.2795947063940865
257,0.30656005188023405,0.2944685027958026
258,0.3070753521388106,0.28782341496932823
259,0.30682254851675683,0.2847652807529632
260,0.3082296035831885,0.2838026450981672
261,0.3064098896397601,0.2919705644890436
262,0.3072994521396269,0.2935192073783735
263,0.310231744246878,0.296752418346842
264,0.31049091419618163,0.2965179576152529
265,0.31208310326974426,0.29426640640741814
266,0.3100163444244356,0.29563820253323464
267,0.31061263924078336,0.3076872830456674
268,0.31236171578053384,0.29594320641333555
269,0.31214091910706987,0.3045369124180499
270,0.3099407687174787,0.29281293035810396
271,0.31125645080597714,0.3001506065244319
272,0.310675002199063,0.303881414289022
273,0.3129318888016564,0.29434277913672885
274,0.3117631207510316,0.2986789616451743
275,0.31334661811089115,0.2893216184673518
276,0.3136127929540994,0.3029515675336292
277,0.3136450177412018,0.294335200210364
278,0.3136059269607306,0.2915073128633159
279,0.3119885890339736,0.2993566303212567
280,0.31117085416356116,0.3006956940826515
281,0.31207062975705574,0.2958100216473783
282,0.31165221416420513,0.29166889975009075
283,0.3113550625150923,0.30018155899167737
284,0.3129184852489192,0.29561528268618403
285,0.3151923845633208,0.2921025137517477
286,0.3129749582935754,0.3011332881324966
287,0.31534323597355207,0.2922744340560152
288,0.3144131332301826,0.2950608040125314
289,0.31564170240854816,0.3007226010236137
290,0.31610345839261056,0.30362448492672806
291,0.3157518783910834,0.3040471015330359
292,0.31581865702036194,0.2988003765120317
293,0.3167294782039831,0.2947595742593813
294,0.3164126103500827,0.29456751836525746
295,0.3183021831801169,0.30693372953547177
296,0.3171250504121674,0.30432383869589585
297,0.31501048812873844,0.29762954706596534
298,0.31584724231516487,0.2956969155133109
299,0.3175661631757684,0.2965670387409416
300,0.3216211056833366,0.29695771004935156
301,0.31812534203306975,0.3034969684271337
302,0.3186601006431137,0.3041947415009419
303,0.32060711314861445,0.3052115321207704
304,0.3190468012737789,0.3002021256275324
305,0.32067595518904746,0.30568508389319043
306,0.3215653470891108,0.3064614928721028
307,0.31929437440333125,0.30000314730410643
308,0.31788532197284547,0.3005823905112196
309,0.32009394409610714,0.30774897034827614
310,0.32115544280927594,0.30588465793676134
311,0.31971270654848616,0.30887275542656
312,0.3187760836702046,0.30365957698006024
313,0.3188656872634987,0.29782555623936247
314,0.31859153522263534,0.29650058909731
315,0.31804076767712236,0.2983863458146144
316,0.31927425814591187,0.30310408128100685
317,0.3212194214876983,0.303843997545776
318,0.3198554848340915,0.3049910586970856
319,0.32086865509673057,0.30462190122113225
320,0.32036464973341666,0.3135511109428684
321,0.32091580379643947,0.2982623519591945
322,0.32309533215409,0.3081256780601186
323,0.3214723948028395,0.30534449885603093
324,0.3240134044228982,0.31847618456207827
325,0.3236080977299196,0.30370176331550247
326,0.3248212987227474,0.3079747131029378
327,0.32692768507666164,0.3124066116310964
328,0.3234885033008287,0.3015986119985387
329,0.3216005234812812,0.3152831699049579
330,0.3247886958768408,0.3083855779380791
331,0.3227037693067395,0.31855964914435597
332,0.3224183816591008,0.3068249854051477
333,0.32450742974245045,0.31418980840542216
334,0.3253631951381341,0.3103893970147633
335,0.3284026834251787,0.3126765225877244
336,0.3290096226694872,0.30977003862484626
337,0.32687190425596396,0.3100194375106985
338,0.32692674347598427,0.30767910118424013
339,0.3275610783202253,0.3150393142752404
340,0.3298205529884685,0.3213363302160063
341,0.33116062760973475,0.3097652463002217
342,0.33099990561783454,0.31629287106470666
343,0.33380809172188597,0.3220918575680942
344,0.3325930114886205,0.32200780955641034
345,0.33317625155154945,0.3212414155234579
346,0.33278886143496933,0.3226489529122401
347,0.33292949614856987,0.33042035908691303
348,0.3322911145832178,0.325967394111607
349,0.33153245391084063,0.3242033551305847
350,0.3306709293535559,0.3102020854787525
351,0.3307902570769155,0.3139025157095452
352,0.3312467549613612,0.3152631589144299
353,0.3306724212115244,0.3153156637662035
354,0.3304390536488486,0.32349079685392945
355,0.33292424404401605,0.3212119889568722
356,0.33453433030695795,0.32341422806497716
357,0.3348029469064563,0.31589760177520265
358,0.33399005244978913,0.32555659599934567
359,0.33597686756745254,0.3277211138995218
360,0.33726151721824926,0.3158353513706436
361,0.33735430053322674,0.3178511849526748
362,0.3363911662104609,0.31811933070783777
363,0.33647938158580837,0.31925786406841106
364,0.33472219053461993,0.32928671473327537
365,0.33645420043682267,0.32526834583437164
366,0.33932317446192517,0.32018145737566794
367,0.33882796393336057,0.32496465001759833
368,0.33920965433788836,0.32211613553573903
369,0.3389269686441979,0.32697385885516317
370,0.3400561395194456,0.32120543273599383
371,0.33970147566951875,0.32239504870320373
372,0.33872284733647817,0.3226067520261101
373,0.3396830454265909,0.33401644154960125
374,0.3387191396794193,0.32582667100168494
375,0.3389966170414626,0.31845214889239026
376,0.33906098885284225,0.32787836837942586
377,0.3404575665775922,0.3351316053695246
378,0.3407227612190766,0.3240058285283153
379,0.3386498482896386,0.3280341112797374
380,0.33980453844734726,0.3258943144180672
381,0.34127508635946613,0.32393283671899625
382,0.34103409163325765,0.32857539256413776
383,0.3427247869863426,0.3239449128472312
384,0.3439495704525275,0.33087045974298307
385,0.34255483006839277,0.3304113192183161
386,0.34414380979690673,0.33354904911717265
387,0.3447501079691611,0.33206993890118036
388,0.3447593748450184,0.3289667802280463
389,0.3455702474801611,0.33038916947004376
390,0.34338660764875556,0.33744753001670186
391,0.34355519263385487,0.3283012177967387
392,0.34298537218208025,0.33118196613693857
393,0.34332448364592627,0.32678239735180253
394,0.34740680074386354,0.3308708296011641
395,0.34604992941200874,0.332379447331007
396,0.34600818339732287,0.3377233872980194
397,0.34635620781953474,0.3373387926541396
398,0.34633202129025,0.3263487610890434
399,0.34694068009754103,0.3392178575052832
400,0.34748456483368306,0.33387160272203803
401,0.3483418122089033,0.3384021160714721
402,0.34735801468809857,0.33083971529981515
403,0.3485839174593612,0.33222042692452064
404,0.34950331486970354,0.33320015835646005
405,0.3485383404026612,0.32992776401721646
406,0.34792727972861764,0.338885607945658
407,0.3507002622748108,0.3436148436158436
408,0.35142772841014513,0.33313007982687937
409,0.3510192419596917,0.3385179416976706
410,0.3505773773257307,0.3428391144706868
411,0.3516477236302019,0.34406146327364473
412,0.3513769176218202,0.3409193191263411
413,0.35229468411259696,0.3414382737580104
414,0.3547072653487933,0.3357717585292949
415,0.3544754286805948,0.34053432085798313
416,0.35487276262001954,0.3421581239112489
417,0.35627751211054903,0.34473532126477746
418,0.3561044865197616,0.34348497696263175
419,0.35651842975396936,0.3394428589483247
420,0.35675973665294314,0.34157868878974823
421,0.3580869844405531,0.3568190785075046
422,0.3573468262143284,0.34447999899211396
423,0.3582016986856659,0.3468121236064815
424,0.3593048975289202,0.34425677447326763
425,0.35790434624072165,0.3444594638142659
426,0.35837113580482305,0.34549291133397203
427,0.35925052685437914,0.34850497972839556
428,0.36381595145711143,0.3469108536247306
429,0.3637832425254359,0.35099810052478786
430,0.3643423845474008,0.3478214857013653
431,0.3637606094869449,0.35788490179101334
432,0.3640472363767097,0.3464286859839889
433,0.3646443962836094,0.34559842037748534
434,0.36558829320727393,0.3495411308722484
435,0.36584095016205376,0.3547816173825337
436,0.36661738128639204,0.36253399896795735
437,0.36700104872544737,0.34550143629675073
438,0.36747784107279263,0.34706651729388827
439,0.3664280182843785,0.3544692517487092
440,0.3679755975882276,0.3521793406133427
441,0.36932215386862943,0.359545561881541
442,0.3695674479317913,0.3550873247473006
443,0.3696421794265246,0.3528119173846589
444,0.36807775411537114,0.34721217898460105
445,0.36394342787271505,0.3482318218655443
446,0.3643035179047321,0.34778937607979443
447,0.36484337562890506,0.3478414030792456
448,0.3660756925208937,0.3516751441980704
449,0.36701251417279146,0.3627781326560015
450,0.3676377517925061,0.35166404108061405
451,0.3675714498333591,0.35901149483782824
452,0.3687506191987243,0.3541441407758631
453,0.36833722990832396,0.3542416767192293
454,0.36907579014308933,0.3547515055800683
455,0.3700432673848277,0.361812214902621
456,0.37029064227763514,0.3650475746958795
457,0.3716299172827871,0.3578565444341058
458,0.37162331312155134,0.3596725297090201
459,0.37070110584612936,0.3565635913673302
460,0.3708352548680943,0.3647622027874766
461,0.3714612771908315,0.36018736760788395
462,0.3721205786025648,0.3573926400819254
463,0.3710617986056593,0.36206733960498183
464,0.37223362311828223,0.35816173300159143
465,0.37253241968737116,0.36528567825984104
466,0.3731530067489279,0.36091998221907107
467,0.37273992515736526,0.36498799373827034
468,0.373458202167737,0.3640616005354554
469,0.37342894640419366,0.3617240534211597
470,0.3745928692569534,0.36431157265073
471,0.3738181986887041,0.35678422260071724
472,0.37322741451026725,0.36293842876141186
473,0.37324909952948626,0.3662315083052797
474,0.37430764734745026,0.36067391916299774
475,0.3736397367629936,0.36751789966445575
476,0.3736998361287067,0.3566707745859126
477,0.3733999197057383,0.361065595931187
478,0.3742053799384875,0.3604672313558311
479,0.375465370124106,0.36556365496244064
480,0.37573086691675806,0.3607611742961339
481,0.3759650091966502,0.36043814385411027
482,0.375292971825676,0.3680642572294283
483,0.37531788839255453,0.35989548119702
484,0.37534448204993054,0.36016403657096435
485,0.3760662447628353,0.36341337972023774
486,0.37629115223598253,0.3642680345757261
487,0.37614985714682203,0.3636265590919872
488,0.3763128705531526,0.36264445067708895
489,0.376451568724252,0.3691743211782955
490,0.37634012181821874,0.3607652922616388
491,0.3774789095736199,0.36858841104905776
492,0.3772141610483249,0.36367921078002075
493,0.3777009294427233,0.37184164696656297
494,0.37759302030380865,0.3671517189160074
495,0.3792224945761472,0.3645387106036521
496,0.37880684984169355,0.3653978475060583
497,0.37929248691702766,0.3702881824699535
498,0.3801966917762955,0.3681936110554917
499,0.37984764132144644,0.3640755119114897
500,0.38046762114577143,0.36773156145676694
