epoch,loss,val_loss
0,0.5550166594749755,0.5392512886747414
1,0.5397078740344612,0.5393394229784383
2,0.5395577705592347,0.5394253920949698
3,0.5395219321797815,0.5394623261464597
4,0.5271183070613633,0.5239063426283076
5,0.5241104242353654,0.5235823118828566
6,0.5237233872793935,0.5233839762784762
7,0.523634901880769,0.523471055244294
8,0.5235913256008328,0.5233534520293748
9,0.5235572277908033,0.5235330273021197
10,0.5235328486002042,0.5235112074595146
11,0.5235519753180249,0.5235200720647445
12,0.5234692050217538,0.5233737388392455
13,0.5234849512567173,0.523457236814338
14,0.5234468445602934,0.5233467354256045
15,0.5234645773706148,0.523334457991199
16,0.5234817017609159,0.5237567501437455
17,0.5234472886125675,0.5243801530798029
18,0.5234279453685243,0.5233288481977147
19,0.5234275939909758,0.5235457552921541
20,0.5234310166179608,0.5233445296619603
21,0.5234278152921208,0.5235323729111006
22,0.523419312288645,0.5233124386228662
23,0.523437115819213,0.5233768038775956
24,0.5234129137906679,0.5237635107230157
25,0.5234114372863252,0.5233955304307949
26,0.5234083582194002,0.5233795271078209
27,0.5233903727927998,0.5233183400121415
28,0.5234366836675372,0.5233300411377183
29,0.5234072701441422,0.5235370954435447
30,0.523375988159073,0.5232942030429416
31,0.5233936141181467,0.5232933556383383
32,0.5233876201967379,0.523372451520809
33,0.5233874145178634,0.5233640259823042
34,0.523403020331699,0.5232938621878137
35,0.5233736948775305,0.5235557614391027
36,0.5234038859974991,0.5233107995110181
37,0.523370892144781,0.5233047498566449
38,0.523392296322801,0.5234112559234848
39,0.5233808779128027,0.5233463626345006
40,0.5233828354941298,0.5239239699634275
41,0.5233765170812906,0.5233564693225936
42,0.5233876629479671,0.523297536847519
43,0.5233905465833234,0.523501193836837
44,0.5233790332480891,0.5233309391040873
45,0.5233570745733548,0.5234358748442581
46,0.5233590838740686,0.5233516583732399
47,0.5233675735566116,0.5233582013727908
48,0.523369786921028,0.5234654147325517
49,0.5233684025167823,0.5233696679870746
50,0.5233626243930743,0.5232886484597288
51,0.52336188613102,0.5232925297185146
52,0.5233616174915009,0.5233629866441797
53,0.5233620003917276,0.52345691983707
54,0.5233678814035823,0.5233489652682969
55,0.5233606580356032,0.5233880125580471
56,0.5233702549467456,0.5233092759235394
57,0.5233697146802041,0.5233131141915883
58,0.5233441929672399,0.5234334918444185
59,0.5233597012933072,0.5235267652353865
60,0.5233613379919272,0.5234605725566751
61,0.523341099161871,0.5234400163770124
62,0.5233514529886094,0.5234034565249437
63,0.5233542032748624,0.5233338719618047
64,0.5233484719261948,0.523349226209363
65,0.5233604557028453,0.5233363269446565
66,0.5233551268341287,0.5239126336661383
67,0.5233637788033308,0.523480703752785
68,0.5233455047438111,0.5235205454922925
69,0.5233501971867817,0.5234264097664406
70,0.5233576133729699,0.5233201973390401
