epoch,loss,val_loss
0,0.5661248767619069,0.5436351134841025
1,0.5438549945702176,0.5429895009933515
2,0.5435816777546786,0.5444621178709522
3,0.5434120618757978,0.5430674801861378
4,0.5435445033696633,0.5466622779055501
5,0.5414579941053038,0.540306006184817
6,0.5396285694679582,0.5395774275440373
7,0.5391956747212143,0.5390440487781158
8,0.5389520887482337,0.5387937805542071
9,0.5389401720859305,0.5388925319392255
10,0.5389459550720966,0.5388107247283984
11,0.5389361924321715,0.538822124082298
12,0.5388979260808021,0.5387860732892623
13,0.538870935380257,0.5387611585689239
14,0.5388781447270188,0.5388066369975983
15,0.5388848631010442,0.5387965765404308
16,0.5388596168991391,0.5388098893527303
17,0.5388612320230718,0.5387853456763354
18,0.538865750733405,0.5388325889171134
19,0.5388437118408176,0.5408630693630165
20,0.5388666852219072,0.5387603766669556
21,0.5388487753554217,0.5391569348609051
22,0.5388623267566784,0.5390254792999387
23,0.5388273571293591,0.538810525329737
24,0.5388189193440976,0.5387413546636232
25,0.5388437613661682,0.5389333608455865
26,0.5388276213271554,0.5401893164912895
27,0.5388315011932202,0.5387852346628168
28,0.5388137422521277,0.538897410043075
29,0.5388395344626236,0.5389441726876525
30,0.5388140397091943,0.5388298064104976
31,0.5387900176523117,0.5387412920517446
32,0.538823501723831,0.5387386499321213
33,0.5388079539065275,0.5387800315553499
34,0.538819942743297,0.5387417324208984
35,0.5388032466672266,0.5388678686617534
36,0.5387958060430916,0.5388102058111446
37,0.5387928456192989,0.5387064952857966
38,0.5387974800770322,0.5387137612497686
39,0.5388153226202147,0.5387993955150508
40,0.5388007232109764,0.5387119600437826
41,0.5387749160347267,0.5387322142505798
42,0.5387966296028842,0.5388458805305324
43,0.5387781108885838,0.5386985131130906
44,0.5388152393004974,0.5387307343421133
45,0.5387746499647994,0.5390486688634222
46,0.5387770455231515,0.5389286714138919
47,0.5387802364816772,0.5387073397784657
48,0.5387902925026186,0.5387351635104282
49,0.5387669287991353,0.5387890727508553
50,0.5387805606526145,0.5389151933837433
51,0.5387646777916122,0.5386972655452024
52,0.5387727322234387,0.5386995399987259
53,0.5387891405108843,0.5386947945520073
54,0.5387689217434096,0.538732371187947
55,0.5387825925869134,0.538775561334058
56,0.5387654279147325,0.5387205259481022
57,0.5387652076258936,0.5387260394995156
58,0.5387695271519247,0.5388956990329257
59,0.5387626539472916,0.538731247276666
60,0.5387753737834893,0.5387333397184221
61,0.5387540638953667,0.5388642272192751
62,0.5387710483784581,0.5388659828296668
63,0.5387854069280051,0.5388089221458618
64,0.5387508161982794,0.5386910087623061
65,0.5387815532689522,0.5386988133176179
66,0.5387486876162709,0.5387091639516705
67,0.5387692586380616,0.5388716341208598
68,0.5387622003607029,0.5387601400167147
69,0.5387567588986893,0.5387145504474555
70,0.5387499821681065,0.538770386107037
71,0.5387734685597112,0.5386943292355194
72,0.5387485836085166,0.5389273222671518
73,0.5387512680299217,0.5387472967246769
74,0.5387645036255327,0.5386950421511205
75,0.5387605290050675,0.5386989020839595
76,0.5387471331558807,0.5386917774917431
77,0.538757340167161,0.538725751366279
78,0.538758316459532,0.5386928010418902
79,0.5387592100054022,0.5387293676390574
80,0.5387645463047569,0.5386936061863875
81,0.5387311023711074,0.538762464873171
82,0.5387498507687868,0.5387399768105068
83,0.538746419995349,0.5391558901542329
84,0.5387629993540691,0.5387585077346758
