epoch,loss,val_loss
0,0.4604569639215804,0.4471691940082371
1,0.4477564560770381,0.4475863052369604
2,0.44746724128579135,0.44701847181499776
3,0.4472255903982096,0.44663826567725573
4,0.44700696760919645,0.4465768404912517
5,0.4468523974458681,0.4464765562905704
6,0.4467670699992224,0.4464361670439102
7,0.44673028668277054,0.4466175413625154
8,0.44679761542212093,0.44646104039360607
9,0.4466154278800074,0.4466193579117471
10,0.4467150874672918,0.4466016424720887
11,0.44665612930708465,0.44661571494976865
12,0.4466150111056437,0.4470415022862828
13,0.4466410986984725,0.44672010791070893
14,0.4465982986088939,0.44749118813635674
15,0.4466370110187955,0.44665802627944845
16,0.4465853395613557,0.447325170331324
17,0.446656584812396,0.446492511354854
18,0.4466172622840024,0.4469304465976484
19,0.44658480730784605,0.44645665898101117
20,0.4465546486226195,0.44647812734257586
21,0.4466286521955344,0.44644706063720385
22,0.4465875931179986,0.44647432636316725
23,0.4465660311190439,0.4464306669879879
24,0.44655003815668404,0.44678576885965626
25,0.44657402602740787,0.44643802091884327
26,0.44655693689910564,0.4464569194773455
27,0.4465293940998963,0.44648151059179497
28,0.4338294986024727,0.4314434441098694
29,0.4311412212171929,0.4312075057680303
30,0.43114867111656563,0.43109726830112466
31,0.4311493886122245,0.4314107702180365
32,0.4311541056646832,0.43104478543193114
33,0.4311576637035041,0.43108370343709973
34,0.4311403073983735,0.431394208349032
35,0.4311256649668282,0.43118520238022967
36,0.4311210408587609,0.4310506479177663
37,0.4311434272229763,0.43108375465537413
38,0.4311210171493358,0.4310368956522485
39,0.4311207742262059,0.4310566283898786
40,0.43111987314663164,0.4311049553254799
41,0.4311168511267605,0.43109425961664205
42,0.43111619375390037,0.43131601111061685
43,0.4311367361205078,0.4311577719711542
44,0.43110772994234564,0.4310965338530941
45,0.4311116116819534,0.43111614689964195
46,0.43112506655903865,0.43142044449979194
47,0.43110970577836294,0.43105337983084985
48,0.431108355664754,0.43104743047937194
49,0.4311073674767264,0.4311049732312277
50,0.43110929629203903,0.4310664373300579
51,0.431106506440427,0.43117425818810945
52,0.43110875466304927,0.4311655286383853
53,0.43109869670714873,0.4311397347786558
54,0.43110607271311135,0.43106176497288634
55,0.4311076608012683,0.43110582564435773
56,0.4311092185216515,0.4310739694289277
57,0.43109861839672337,0.431075515433005
58,0.43110189597378556,0.43106267575176554
