epoch,loss,val_loss
0,0.5220815306811996,0.512862947381481
1,0.5106362674286391,0.5086610267462622
2,0.5074232409528829,0.4940426776211773
3,0.4934048862056532,0.49274911404947846
4,0.49300846572265894,0.4927298310521357
5,0.49290966240592843,0.4926008523929435
6,0.49292230307328766,0.49394593288174615
7,0.4901540839495888,0.47750578728317683
8,0.47736619751287424,0.4773464217016976
9,0.47757292318189376,0.4774369958355999
10,0.47742558632324034,0.4771811030785257
11,0.47737961562714964,0.47721136776840606
12,0.4773772116851515,0.47734114568998853
13,0.4773722458298571,0.47719023650292713
14,0.4774163821699562,0.4772164240190923
15,0.47733528192546437,0.47766803233867894
16,0.47731911944911554,0.4773522538398845
17,0.4773290084211819,0.47758285758719393
18,0.4773285108260994,0.4773950730426461
19,0.4773140530825469,0.4779776123885597
20,0.4773013630281996,0.47790870559132953
21,0.47732540419183206,0.47717822511870855
22,0.47731754626035494,0.4772373460859277
23,0.47729050777387505,0.47721715532223397
24,0.47733332370738674,0.47741168143376933
25,0.47730464102882086,0.4772523744298163
26,0.4772979446142156,0.47752349118098714
27,0.47727263635172895,0.4771594203827245
28,0.477303686262428,0.4774395323102524
29,0.4772791100109697,0.47755321257278327
30,0.47727742547770563,0.47737294571038397
31,0.47729884788217847,0.4772291488801211
32,0.4772828896184838,0.4771974388226075
33,0.4772752923325541,0.47740321841073047
34,0.4772644487021024,0.4772953994110224
35,0.47726998117848973,0.47740739596675735
36,0.477266103092079,0.47731407150575883
37,0.47725845400487454,0.47722444799658376
38,0.47726641183558305,0.47718454742012323
39,0.4772527519954381,0.47762374347745895
40,0.4772524660076453,0.47716450966003837
41,0.4772603903701277,0.4772684441131223
42,0.4772432562118484,0.47721399021394345
43,0.4772495981272747,0.47724264228528207
44,0.4772529922190848,0.4775994888608251
45,0.4772478138769097,0.47730146962894515
46,0.4772465545115383,0.4771758719900189
47,0.47726676227988984,0.4772679876118533
