epoch,loss,val_loss
0,0.5339332111994297,0.5255633309565592
1,0.5249854343148176,0.5239357905947817
2,0.524258252461371,0.5237628538224387
3,0.5236507610295225,0.5234131273653224
4,0.5238507724690421,0.5233449451790798
5,0.5234910967685069,0.5233909610343204
6,0.5239099665791849,0.5233235949520363
7,0.5234710789925197,0.5233725019978638
8,0.5235362357131726,0.5235199195852837
9,0.5236651338897188,0.5237135465921485
10,0.5234543849438853,0.5233069479221941
11,0.5235495677658916,0.5234301621589044
12,0.5234505266398012,0.5233401786605467
13,0.5235231620103109,0.5235925172272786
14,0.5234742831025545,0.5233349906633709
15,0.5234642331032112,0.5233165153730274
16,0.5234570950372059,0.5234827366746071
17,0.5234903613160611,0.523424896005416
18,0.5234439900163862,0.52331199514059
19,0.5234487439050717,0.5233380940545408
20,0.5234274957506841,0.523402392239485
21,0.5234493388220286,0.5233448405082832
22,0.5234077159626576,0.5236316177048296
23,0.523430420126776,0.5234251887977472
24,0.5234057285260632,0.5234972294873339
25,0.5234271944349944,0.5237065142923614
26,0.5233849127450141,0.5236226694582622
27,0.5234186834375469,0.5233225224284512
28,0.5234064440119341,0.5233089254113789
29,0.517618388597592,0.5082252781118799
30,0.5080241912998277,0.5079092475401824
31,0.5080015523482762,0.5082641387837122
32,0.5080099604731075,0.5079141717796577
33,0.5079939653760099,0.5080026627476377
34,0.5080065221772606,0.5080205987265995
35,0.5079939967151458,0.5079549247321873
36,0.5080001996558984,0.508119349603353
37,0.5079933844449737,0.5081789375389208
38,0.5080113989432572,0.5079846494488827
39,0.507997368140898,0.5079767552589434
40,0.5079805802993423,0.508284182960641
41,0.507975408261844,0.5079146087074348
42,0.5079857931213438,0.5079362590966502
43,0.5079783821505797,0.5082569423461388
44,0.5079957969795735,0.5079267508480854
45,0.5079743955490401,0.5079446947898635
46,0.507979723515576,0.5081217885652726
47,0.507990075473007,0.5079744631855712
48,0.5079885058463782,0.5079054875237456
49,0.5079933078259609,0.5079478964032194
50,0.5079780563023484,0.507906803357959
51,0.507971014114587,0.507961320123149
52,0.5079785087975666,0.5080131237810555
53,0.5079709964140533,0.5078987269550641
54,0.5079633925403682,0.5081639547482713
55,0.5079727023236379,0.5079035295074587
56,0.5079692689961389,0.5085752900867866
57,0.507965346957709,0.5079076719826207
58,0.5079579013581668,0.5082307212368424
59,0.5079856750274265,0.5082344882101546
60,0.5079672824758439,0.5079769385519619
61,0.5079526947187158,0.5079167755888164
62,0.5079686759484894,0.5079159753893129
63,0.5079564015114836,0.5079175447312188
64,0.5079822108422372,0.5080435856406442
65,0.5079567866396311,0.5079432460549755
66,0.5079631385701117,0.5079022183958729
67,0.5079641539711038,0.50804096482579
68,0.5079503245626132,0.5079682740548467
69,0.5079655395147233,0.5079384313465796
70,0.5079604548052231,0.5079705499272762
71,0.5079472438861637,0.5079669006278702
72,0.5079728169203691,0.5079834893978517
73,0.5079513199109069,0.5079216103313193
