epoch,loss,val_loss
0,0.44686948670943577,0.4448937026659648
1,0.4448987102905909,0.4450439850091934
2,0.4447808446619246,0.44472815283139544
3,0.4447235057618883,0.44476795091231663
4,0.44469502412610584,0.44485469659169513
5,0.44468226335446037,0.44461666331688565
6,0.44467412101560166,0.4446147309144338
7,0.4446613813440005,0.44464292711019515
8,0.44466083522637684,0.4446841839154561
9,0.4446558973193169,0.44460897129774096
10,0.4446482584542698,0.44460943998893104
11,0.44464680988258787,0.4445790913303693
12,0.44464289906952115,0.4446558812856674
13,0.4446410525043805,0.4446777130564054
14,0.4446400355961588,0.44461920978625613
15,0.4446377837260564,0.4446012086868286
16,0.44463629409339694,0.4446050725579262
17,0.44463069497214425,0.44459520508845646
18,0.44462938228580684,0.44458363970120746
19,0.4446281562315093,0.4446412153840065
20,0.44462354752090244,0.44457815076907475
21,0.44462158995204504,0.4445813209414482
22,0.44461674052476885,0.4446055566469828
23,0.4446150141225921,0.44469067410628
24,0.4446151247819265,0.44458581326405205
25,0.4446125035153495,0.444576503376166
26,0.4446118335061603,0.4446533420284589
27,0.44461124357250004,0.44457182971636455
28,0.44461214831140305,0.4446178669730822
29,0.4446087591118283,0.44458766212066014
30,0.44461165087752874,0.4445770544409752
31,0.44460814633634355,0.44462140144904455
32,0.4446092670361201,0.4445930456121763
33,0.44460765647888184,0.4445953960617383
34,0.4446077463693089,0.4445904650092125
35,0.44460694789224203,0.4445708413124084
36,0.4446045579910278,0.4445712375442187
37,0.44460351937346987,0.4445868142048518
38,0.44460319431622825,0.4445967690149943
39,0.4446032502651215,0.44459886666138965
40,0.44460189113352033,0.4446492539445559
41,0.4446001201934285,0.44459996263186136
42,0.4446014389263259,0.4445825182994207
43,0.4446007784737481,0.44458358283837635
44,0.44460029087464015,0.444571421444416
45,0.44459981879260807,0.4445698906779289
46,0.44460099460019004,0.44457802309592565
47,0.4445985624988874,0.44457950119177503
48,0.44459897804260257,0.44457900516192117
49,0.44459982935587566,0.4445797285636266
50,0.44459673440456393,0.44471874173482256
51,0.44459800132115684,0.4446671398480733
52,0.44459750286075805,0.4445793219804764
53,0.44459910203350916,0.44457460719347003
54,0.44459829598665235,0.44458891636133197
55,0.4445985710819562,0.4445773999293645
56,0.44459981232881546,0.4445843490163485
57,0.4445985365443759,0.44457448782523473
58,0.44459632769558166,0.44457269022862117
59,0.44459816808833014,0.44456851901610694
60,0.4445977153844304,0.4446042426029841
61,0.44459595365656746,0.4445743508338928
62,0.4445988940530353,0.4445756027499835
63,0.4445970177054405,0.44457428534825644
64,0.4445960518717766,0.4445842599074046
65,0.44459776382313837,0.44457253700494764
66,0.44459719368484285,0.44463389575481416
67,0.4445957299934493,0.44461779020229975
68,0.4445945972137981,0.4447918588121732
69,0.44459587371349335,0.4446749705076218
70,0.44459680885738795,0.444638757010301
71,0.4445960415138139,0.44461463975906373
72,0.4445945167409049,0.44457281186183295
73,0.44459566482570434,0.444588341375192
74,0.44459608293904196,0.4445878590345383
75,0.44459717381662794,0.44457396936416627
76,0.4445968856546614,0.4445961369673411
77,0.44459718247916963,0.44459228312969207
78,0.44459518353806604,0.4445834250251452
79,0.44459557928641635,0.44460894737641016
