epoch,loss,val_loss
0,0.44801296730173956,0.44533499618371325
1,0.4448864205678304,0.4447934712767601
2,0.4447915687892172,0.44463672560453416
3,0.4447469313210911,0.44465154788891476
4,0.4447197879685296,0.444649731417497
5,0.4446999519003762,0.44466485166549685
6,0.44469453952709836,0.44464593708515165
7,0.44468176231119366,0.44470419349273044
8,0.44467463814549973,0.4447250375151634
9,0.4446711140010092,0.4446103990872701
10,0.4446628966265255,0.4446496651172638
11,0.4446576484243075,0.44462720731894173
12,0.44464510711696414,0.4446892837882042
13,0.44464654486046895,0.444625054081281
14,0.4446447442571322,0.4447322210073471
15,0.44464368141359756,0.4446086986263593
16,0.4446412891348203,0.4446441748936971
17,0.4446357875929938,0.44476454039414726
18,0.44463561774624716,0.44464537103970847
19,0.4446336215337118,0.4445942274928093
20,0.4446320354739825,0.4446612092256546
21,0.4446337876849704,0.4445880303780238
22,0.4446309691733784,0.4445992782711983
23,0.4446303025086721,0.44477138805389405
24,0.44462698419226543,0.4446847066084544
25,0.44462994694047503,0.4445966566801071
26,0.4446267286009259,0.4445983009537061
27,0.4446281110578113,0.4446173729697863
28,0.44462426202164756,0.4446463371515274
29,0.4446225305994352,0.4446309648354848
30,0.4446255758470959,0.44467090541124343
31,0.44462602619992364,0.44465251511335374
32,0.4446255018843545,0.4445870694319407
33,0.44462370717525485,0.4445897592306137
34,0.4446228209667736,0.44468916330734887
35,0.4446214213569959,0.4445911686817805
36,0.44462052944633695,0.4446063655416171
37,0.4446200394961569,0.4446130554874738
38,0.4446197832160526,0.4446779584288597
39,0.44462026806672417,0.444598522901535
40,0.444618613117271,0.4445948868195216
41,0.444617794851462,0.44459204957882564
42,0.4446191486650043,0.44468735255797703
43,0.44461889680888916,0.44460343476136527
44,0.4446170834634039,0.4446488709251086
45,0.4446182183093495,0.4445934171676636
46,0.44461786097950406,0.44462647048632303
47,0.44461704892582365,0.44461899999777477
48,0.4446179626584053,0.44460008919239047
49,0.4446168317662345,0.4445824119448662
50,0.4446145664784643,0.44467040783166883
51,0.4446173042986128,0.44458661327759424
52,0.44461422724193994,0.4445846175948779
53,0.4446153868370586,0.44458320806423823
54,0.4446147238082356,0.4446158258120219
55,0.4446125157210562,0.44458602845668793
56,0.4446124103930261,0.44459493285417556
57,0.44461156278186376,0.44474460299809776
58,0.4446117615567313,0.4446754205226898
59,0.4446106822954284,0.4445915496548017
60,0.4446116467052036,0.44461307885249457
61,0.4446113010843595,0.4448098948001862
62,0.4446117865377002,0.44462912106513974
63,0.444611178861724,0.44460321992635726
64,0.44461069956090715,0.4446519330938657
65,0.4446099239587784,0.44461271248261136
66,0.4446084640622139,0.44458852654695513
67,0.4446098928782675,0.4446291008790334
68,0.4446095417473051,0.4445843385656675
69,0.4446109904713101,0.4446022666692734
