epoch,loss,val_loss
0,0.43489451401099644,0.4218103089339646
1,0.42186748181147354,0.4199736669430536
2,0.42078586034730914,0.4198851335333506
3,0.4201533562658348,0.41951348991234183
4,0.4198834515391108,0.41993502166607266
5,0.41971591966847654,0.4191651541086276
6,0.4196348712310571,0.4189052034647603
7,0.4193024979550947,0.41863528972622377
8,0.4190331336925166,0.4188983841480249
9,0.4189004971967579,0.4187664010222697
10,0.41889839535238965,0.418603216675525
11,0.41877451203323024,0.4184686081467745
12,0.4185838933716816,0.4184003134616372
13,0.4188021232625265,0.41874831555551634
14,0.41851012591496045,0.4189345319914937
15,0.4185753518336164,0.4184018221800582
16,0.41845549288416634,0.4186231063447367
17,0.41847948607858787,0.41813257175433366
18,0.41845982132809434,0.418285947698071
19,0.41821974658242556,0.41807093370687215
20,0.4183000885273319,0.41814648718122066
21,0.4183202911907461,0.41822070011961876
22,0.41822488841272126,0.41820815557748175
23,0.4182465083116704,0.41976922027356844
24,0.41820592251118527,0.4182244396514419
25,0.4180270499557195,0.4192218100567574
26,0.4181392688392853,0.4185684458329338
27,0.4182452350358981,0.4183500460241211
28,0.41806342999649504,0.4182827601522886
29,0.41792951588981314,0.4180277409068212
30,0.4180312302013364,0.4179250895590622
31,0.41807527747353107,0.4182913194245421
32,0.4179866705174335,0.41857232991623244
33,0.4180388973287929,0.4183112605233218
34,0.41800580103050045,0.41800008869586247
35,0.41798689985078014,0.42015084802033525
36,0.41787456424750846,0.41794236682480984
37,0.4179432375155127,0.4179698207584172
38,0.41795942762691984,0.41825645520612476
39,0.39075969563263446,0.3915326027522199
40,0.39017353447068087,0.3904922657386973
41,0.39014301345442787,0.3908436514366819
42,0.39004780624764607,0.3901914238024473
43,0.3900214157846988,0.39031886103352387
44,0.390193825637599,0.3908780125925598
45,0.3901613101556847,0.3901464470085512
46,0.3901811173948233,0.3901971600291508
47,0.3900509937253065,0.3901747931350401
48,0.39006762503584014,0.3901839273177732
49,0.3901319161323819,0.3902496878726325
50,0.39010560907600833,0.3901896370154969
51,0.39003622302345,0.39139151748164225
52,0.3900245738142459,0.39013646770724764
53,0.39008125714692976,0.39114476405022036
54,0.39007378409291793,0.3904706843143526
55,0.3900155078949662,0.3901887494980306
56,0.38996668689481245,0.3901898680814749
57,0.38995858395956734,0.3917601842707143
58,0.3900123049645905,0.3901045472616619
59,0.3899731024286914,0.3902859230530794
60,0.3899819922232655,0.3902415862059589
61,0.3900095832046838,0.39036188193616395
62,0.39003230365878677,0.3902083873461741
63,0.3899324084803597,0.3905728321193346
64,0.3899838769374793,0.3906528797827952
65,0.38998679387025875,0.39060034633654317
66,0.3900425463341697,0.39027852120830475
67,0.3899352932196756,0.39026203558365047
68,0.3899956282048942,0.3902282947013722
69,0.3899673466584102,0.39018799914631896
70,0.38998397350130953,0.3902116138739903
71,0.3899396635550353,0.3901084497043834
72,0.3899701617491844,0.3901316740652393
73,0.3898662333007403,0.39053361900295674
74,0.38993744895626253,0.39157870633223696
75,0.38996274067742237,0.3901279040079776
76,0.389900707283676,0.3903009410389354
77,0.38990901126062405,0.39022288089616364
78,0.3898986941930581,0.39021658746152704
