epoch,loss,val_loss
0,0.552634798103715,0.531126538577577
1,0.5318821574414467,0.5316206919394018
2,0.5315049426323714,0.5360336901854974
3,0.5307920372571124,0.5310177438390279
4,0.5304855073778626,0.530229349393804
5,0.5303788310040425,0.5300287437518453
6,0.5299672306005324,0.530440114398514
7,0.5299574074374813,0.5293543202873954
8,0.5040908849177156,0.5019599463922444
9,0.5020661364332404,0.5015124390579678
10,0.5017215213204337,0.5020194337155603
11,0.5018029944039163,0.5014158683830907
12,0.5017336223531961,0.5018723521834945
13,0.5017378774749285,0.5054739229788182
14,0.5015743777095615,0.5013772752311941
15,0.5015252846851289,0.5021347505645766
16,0.5014761417825404,0.5013114894114284
17,0.5014208530123315,0.5017291629263639
18,0.501307997464199,0.5012463419762866
19,0.5014078545904526,0.501553446744455
20,0.5014062916912714,0.5013635580595787
21,0.5013923298336262,0.506226985559218
22,0.5014111066270845,0.501240239339441
23,0.5012685588134597,0.5013024511989078
24,0.5011956630762784,0.5013700415192103
25,0.5012551448482304,0.50115471580422
26,0.5012615624227216,0.5013680276572208
27,0.5012090485318181,0.501380145582894
28,0.5012834127148845,0.5011362291018285
29,0.5013014255612799,0.5022080700515398
30,0.5012548936413243,0.5016629333782249
31,0.5012087612195083,0.50123058854264
32,0.5012589378679015,0.5012054320595224
33,0.501135496819696,0.5011237645551084
34,0.5011662162841056,0.5011894525168317
35,0.5011291687377344,0.5011754637405726
36,0.5011400620629618,0.5013374501101329
37,0.5011231946458682,0.5012111503297608
38,0.5010504177610073,0.5010778069341596
39,0.501054569148246,0.5012164605195975
40,0.5011341113120927,0.5021607548158508
41,0.5011342836545816,0.5011450358950931
42,0.5010098367096837,0.5016514109028426
43,0.5010805365678112,0.501146214110782
44,0.5010645632792707,0.5012156446679121
45,0.5010758377095273,0.5012608343836422
46,0.5010401119094483,0.5011980512182367
47,0.5010579860954165,0.5011341012966016
48,0.5010382071221611,0.5010928251518544
49,0.501064408726357,0.5011103105646612
50,0.5009425776530971,0.5010750664011331
51,0.5010349500640406,0.5011787573305142
52,0.5009641465928626,0.501185700791393
53,0.5010415500387179,0.5013452655828801
54,0.501004073838661,0.5014456618514452
55,0.5009761596253739,0.5010799632334758
56,0.5010279803006238,0.5019521965519502
57,0.5010045879790934,0.5016252106374051
58,0.5009502284124149,0.5012303585585763
59,0.5010374405879919,0.5010796221213598
60,0.5009369287877108,0.5012559836430558
61,0.5009828950219953,0.501110354658188
62,0.5009699817335742,0.5010541922892877
63,0.5009853192361703,0.5013068049765225
64,0.5009680731484297,0.5010700064315732
65,0.5009719093116846,0.5016937266568119
66,0.5009639920969904,0.5011189857066218
67,0.5010048117748185,0.5016650522962988
68,0.5008895529117654,0.5010644959771958
69,0.500960922359342,0.5011329457127931
70,0.5008947500750366,0.5015172725100057
71,0.5008887548594301,0.5010774871732906
72,0.5008604939131931,0.501247412696064
73,0.5009795225174817,0.5010254050343318
74,0.5008925043159868,0.5016237609937116
75,0.500872022014179,0.5015467397370456
76,0.50092763610287,0.5012321847857182
77,0.5008983933479969,0.5011681050122899
78,0.500900163848649,0.5011111734133779
79,0.500915426255244,0.5010715301422349
80,0.5008283689656292,0.5010505259025978
81,0.5009171044775355,0.5011024575450725
82,0.5008769298171679,0.5012351844482542
83,0.5008847931037624,0.5013575733845091
84,0.5008938225919501,0.5011825441077674
85,0.5008909171171438,0.5009999143280217
86,0.500930755858518,0.5011117494112917
87,0.5007833809022076,0.5011795097466949
88,0.5008365416395784,0.5011767000484343
89,0.5008390361233109,0.5011349883890303
90,0.5008187562230009,0.5010258104982674
91,0.5008842674740761,0.5012146966239659
92,0.50083382450831,0.5014840901549337
93,0.5009014306419354,0.5011406930911804
94,0.5008362300423271,0.5011254790690811
95,0.5008622009947827,0.5010420033215902
96,0.5008202353577194,0.5011490215348147
97,0.5008174267319505,0.5010304167262271
98,0.5008416411239507,0.5010318792204125
99,0.5008469217204762,0.5010586529556171
100,0.5008560376982365,0.5013401586052488
101,0.5008304164044057,0.5010683148254794
102,0.5008372119521659,0.5010636137644214
103,0.5007972103298249,0.5011038959501054
104,0.5008177552189937,0.5013543623622909
105,0.5007984568163519,0.5010451140569788
