epoch,loss,val_loss
0,0.7029398829310702,0.6967485093434534
1,0.6971106707573202,0.6964472206373262
2,0.6968342827848252,0.6961729579290696
3,0.6966838045762489,0.6978871614475077
4,0.6963818403229945,0.6959023751093516
5,0.6961906973575135,0.6968932026711895
6,0.6961237492136805,0.6957073999921753
7,0.6959115741716075,0.6957612015468408
8,0.6958214264750955,0.6962674157688807
9,0.695638060602884,0.6954470497962612
10,0.6956456532148744,0.6955970427927695
11,0.6956606933088223,0.6782777273427515
12,0.66835681463559,0.6677626562705855
13,0.6677060007857646,0.667641440537886
14,0.6678125173588568,0.6676443375731248
15,0.6677782202633262,0.667563667461196
16,0.6676728250774807,0.6680599299265866
17,0.6676592733663278,0.6675405843895129
18,0.6676669376499915,0.6682899237275234
19,0.6677102788823247,0.667821646752369
20,0.667623517593722,0.6678675479481763
21,0.6676215255403624,0.6685558460138091
22,0.6676686728659009,0.6676181403215913
23,0.6675299355155934,0.6676480073821967
24,0.6675695455777576,0.6675890423585186
25,0.6675154829192345,0.6676856172175336
26,0.649441309821347,0.6398843559518437
27,0.6398916465294084,0.6397627364774394
28,0.6398484727671194,0.6398718451588082
29,0.6398266691661509,0.6399430776000089
30,0.6397334388222201,0.6398687754147228
31,0.6398531634942352,0.6398950556534974
32,0.6397055954176245,0.63983544758634
33,0.6397107444158235,0.6397171153097512
34,0.639716754717976,0.6402175065145865
35,0.639754693721152,0.6397151869189897
36,0.639703716654123,0.6397373325340305
37,0.6396792926071595,0.6401806206565408
38,0.639779054109847,0.6403062841498779
39,0.6396972943415106,0.6398409201847577
40,0.6396680970762811,0.6399414676232434
41,0.6396713092151725,0.6397409725021402
42,0.6396931607898482,0.6397931839519352
43,0.6396793578607488,0.6397264101015547
44,0.6397072420555079,0.6398604155182949
45,0.6396136087523089,0.639801646718539
46,0.6396918571238585,0.6397174041808634
47,0.6396543994033943,0.6397188508879323
48,0.6396601148619243,0.6397526766287218
49,0.6396070416095916,0.6399231712715253
50,0.6396328597590183,0.6396956467522495
51,0.6396687686051399,0.6396982404098928
52,0.6396476875299346,0.6397428264174556
53,0.6396282965894856,0.6397222882731134
54,0.6395999139480554,0.6398520542639542
55,0.6396026682188338,0.6397131746688316
56,0.6396475680777589,0.6398364428260367
57,0.6396014883070499,0.6397889211875992
58,0.6396214279182547,0.6404027718927137
59,0.6395818950184644,0.6397902055744066
60,0.6396193752169436,0.6397541675176371
61,0.6396159863562515,0.6399010133469496
62,0.6395996379023537,0.6396675479590926
63,0.6395555266931234,0.6397960785363069
64,0.6395716493033238,0.6397334751453106
65,0.6395836649652623,0.6397780600930391
66,0.6395529334007032,0.6398925141374984
67,0.6395692356473389,0.6398722221507345
68,0.6395476584752028,0.6399033050732296
69,0.639548491861962,0.6397559814573239
70,0.6395761040407226,0.6397149167384985
71,0.6395246425960224,0.6398079694035009
72,0.6395651933362506,0.6405569302371131
73,0.6395433805792079,0.6396819405984958
74,0.639535070437182,0.6396785280752633
75,0.6395425131791784,0.6396640334157596
76,0.6395354942883448,0.6397439609149757
77,0.6395341841987507,0.6396853291098553
78,0.6395359132026612,0.6396482430314284
79,0.639556243833069,0.6398315614827321
80,0.6395370000467043,0.6398104088331598
81,0.6320502147406503,0.612035500702979
82,0.6117998066664779,0.6121618842323481
83,0.6118170489471612,0.612013677134075
84,0.6118024742268782,0.6119599481228657
85,0.6118050403399631,0.611969068461512
86,0.6117721053098362,0.6119287001642834
87,0.6117969082188114,0.6119676838209948
88,0.6117816721929712,0.6119799351754024
89,0.6118161848168954,0.6119580028299535
90,0.6117515128646508,0.6122778669775227
91,0.6117775046556394,0.6120943897497788
92,0.6118026313521776,0.6123282109328742
93,0.6117881195210234,0.6119667941452199
94,0.6118175293576907,0.6119391207320533
95,0.6117762986023068,0.612085805400298
96,0.6117430910538483,0.6119010293344631
97,0.6117665283185284,0.6121173143872598
98,0.6117907179747758,0.6120286074627945
99,0.6117484501983033,0.6119477116171795
100,0.6117802835186469,0.6120052581408395
101,0.6117856729484364,0.6121884203107296
102,0.6117584725666902,0.6119430718057176
103,0.6117472271337354,0.6120026264064377
104,0.611721547999865,0.6119892664431731
105,0.6117769959948671,0.6119500629481044
106,0.611757806683096,0.6122896709382964
107,0.6117311541569648,0.6125444346035955
108,0.6117613945338386,0.6119577329585808
109,0.6117498725326086,0.6119736194124838
110,0.6117494182378671,0.6120036993673232
111,0.6117389695176934,0.6120535232751849
112,0.6117333312638584,0.611931602333095
113,0.6117230379761408,0.6119348949294418
114,0.611738289094047,0.6119651285823483
115,0.6117501229979759,0.6119348344416017
116,0.6117378965476051,0.6121214815677813
