epoch,loss,val_loss
0,0.5535872318806264,0.5037850341348212
1,0.5043712712683351,0.5034885880218035
2,0.5039754752885658,0.5034523258762992
3,0.5034764402054667,0.5028430771377268
4,0.5030563680522768,0.5031334150166484
5,0.5029364542731041,0.5030702455084861
6,0.5027004630988192,0.5023113727613739
7,0.502521545654485,0.502372547650165
8,0.5025572576229302,0.5030055919451324
9,0.5024065647415824,0.5020860810592498
10,0.5022197982765387,0.5018941843083532
11,0.5021359653014066,0.502145062874679
12,0.4789601699752011,0.4741535580010298
13,0.4742826284656181,0.4755764895842062
14,0.47421831406212006,0.4742267768644452
15,0.47425829075826337,0.47408838124932307
16,0.47406159229046424,0.47411756519698106
17,0.4741450695016954,0.47409824742986484
18,0.47423150637343897,0.47380056000237203
19,0.4739769244399748,0.4738173188324614
20,0.47412410463650295,0.4737773202683975
21,0.47400668524262035,0.47392621048513794
22,0.47386625261462506,0.47391014290443284
23,0.4564223537436089,0.4469443546895474
24,0.4462768775629312,0.446215799890816
25,0.4463729612706152,0.4470901927101897
26,0.4463256956245298,0.44651869618356127
27,0.44628103347576564,0.4463832095875345
28,0.44604224748618515,0.44601542234509095
29,0.44609320312954626,0.446383620952319
30,0.4460611786577527,0.4461484738004762
31,0.44602698772281774,0.44606530159066
32,0.4461494200848195,0.4463380675919521
33,0.4460470767228442,0.44622857598468846
34,0.4460247395367458,0.44618740678385554
35,0.4460059398439017,0.44630951323008444
36,0.44593018562303616,0.4460674227388021
37,0.44597026657072636,0.44616476929525595
38,0.4459751301159831,0.44583940995602855
39,0.44593039389428407,0.44592407207220525
40,0.44589531515411773,0.44595411577739635
41,0.44602005034330927,0.4459686104534599
42,0.4458655039838637,0.4458132386097181
43,0.4460118779895283,0.445894381976344
44,0.44590164844157265,0.44593284179334575
45,0.4458233471116283,0.4458436201481626
46,0.4458510157724737,0.4458424963704258
47,0.44598608330438194,0.4462462438546103
48,0.4459777132255829,0.44593089083142357
49,0.44585953831941316,0.44631542227051396
50,0.41096505088016844,0.390456408985369
51,0.39038711003698123,0.3906385340576239
52,0.3904066371850747,0.3906222114377076
53,0.3903895473688518,0.39042260657197614
54,0.3904301472006158,0.3908059702115625
55,0.39039159155166503,0.3912099750699059
56,0.3904115827228289,0.3906677318052089
57,0.3903992967092144,0.39055110455928277
58,0.39048182590335384,0.3913224916046119
59,0.3904003944159754,0.39053894095033115
60,0.3903681805131759,0.3906780486416874
61,0.3904161428443236,0.3904950067354013
62,0.39034769541357656,0.3907979708078681
63,0.39043719910649405,0.3907653957599842
64,0.3903607774904356,0.3904466642828247
65,0.3903249620947845,0.39039992311857963
66,0.39032210030729575,0.39077921776688523
67,0.3904213729002762,0.39104391743483685
68,0.3903378144279663,0.39048339937942783
69,0.3903950618887214,0.3904103513867088
70,0.39037887356584006,0.3903783964081856
71,0.3902203129367035,0.39039467839559683
72,0.39038221997020606,0.3905725730781446
73,0.3902580242828158,0.39052526992015163
74,0.39029882394369175,0.3905409953068265
75,0.39022216522928793,0.39047104545844263
76,0.3902641458369743,0.39043623397782634
77,0.39030532385384914,0.390972996066071
78,0.39031198588779387,0.3906654595257861
79,0.39025612744913196,0.3917426128236425
80,0.390281120720177,0.39069021469598614
81,0.39023560708779065,0.390639894139791
82,0.3903347781386935,0.3903776639135795
83,0.39025375645095833,0.39049448705774964
84,0.3903030287539371,0.390404061015656
85,0.3902223696336769,0.3906330812648615
86,0.3902947768484811,0.39040096162380744
87,0.39017010127405455,0.39038337238586973
88,0.39024044834087707,0.3908707137835602
89,0.39024121744743195,0.3903981901182248
90,0.39020627410068925,0.3904676487609664
91,0.39022329769453806,0.3903915590545738
92,0.3902249537571426,0.39110567824092923
93,0.3901953805252154,0.3903818964947151
94,0.3902183043312004,0.39055703778822437
95,0.3902539083155632,0.39098067531145864
96,0.3902245680575158,0.3921882213045213
97,0.39022203594022054,0.3905593845872531
98,0.39021038235078437,0.39038222370202463
99,0.3901452494363876,0.3905910109508742
100,0.3902687309371079,0.39150731512563586
101,0.39021628986882745,0.3904733931461867
102,0.3901710270734979,0.39064568273997746
