epoch,loss,val_loss
0,0.5335241809118874,0.504502327238151
1,0.504456393525809,0.5037423841907793
2,0.5044427122919026,0.5035647682336375
3,0.503978822639636,0.5033270501609113
4,0.5038149708861446,0.5030209803099897
5,0.5034888503274961,0.5029071427689898
6,0.5032378837810789,0.5028235063351488
7,0.5034040464717674,0.5027135565316684
8,0.5032073305078807,0.5042174799748318
9,0.5031296272778767,0.502694332007899
10,0.5028245319490048,0.5025950079936632
11,0.5027878343151847,0.5028370979826281
12,0.5027689216471306,0.5027902644416716
13,0.5029875557604361,0.5024219520733652
14,0.5026535454405957,0.5023954271011649
15,0.5026161105403953,0.5026703221883172
16,0.5025102758041056,0.5024352894489093
17,0.5026015839447034,0.5031868250397846
18,0.502753134858401,0.5022316195165963
19,0.5024589208502895,0.5021264816151877
20,0.5023570118930669,0.502200656896345
21,0.48609545975771734,0.4746104974805437
22,0.47461582841032784,0.474263056315058
23,0.47445496614083194,0.4751365981426122
24,0.4745027473432661,0.4745283505169854
25,0.4744467484243705,0.4742215763177888
26,0.4743879025147247,0.4743534805079614
27,0.47448560789177346,0.4749120272934757
28,0.4743612761034615,0.4752468109892615
29,0.4744430954341216,0.4741221742401257
30,0.47429801145233774,0.4755748718518817
31,0.47446313067533286,0.4741711334997602
32,0.47431924337368186,0.4748399784485926
33,0.4742540869076026,0.47408584301770673
34,0.47427379768779365,0.47422335032600677
35,0.47429067233719224,0.47418457996648733
36,0.47423481307878945,0.47404390434398325
37,0.4742052127797698,0.47446881113482486
38,0.4743147348655075,0.47406829413075563
39,0.47417741248563694,0.4746497032995201
40,0.4741752500365583,0.47402128920022546
41,0.4741743591096871,0.4739879358750976
42,0.4741023675753166,0.47408172901106405
43,0.47416741223737574,0.4740049786911251
44,0.4741928170579488,0.47396503688340097
45,0.47409651145070825,0.47403009603764973
46,0.4741167847489294,0.47396609879882495
47,0.47419637131035186,0.4746524999209699
48,0.47412833033588264,0.4746441945894534
49,0.47409715235198346,0.4739383168354324
50,0.4740114784677182,0.47406764334827733
51,0.4741122760999914,0.4739892505886246
52,0.4740605188842849,0.4739541778091502
53,0.47406721940097407,0.474754292234312
54,0.47406602284136434,0.47396153365048815
55,0.474024610768662,0.47393195979969216
56,0.47400577941964805,0.4747904125496864
57,0.47408583043287195,0.47413166141395197
58,0.4740427737923391,0.47407148183109715
59,0.4741579878576061,0.4740830273357977
60,0.4739815312986651,0.47419387103783067
61,0.47403630945213165,0.4739005828780319
62,0.47396548177605446,0.473995976314255
63,0.4739611785748122,0.4740650484376008
64,0.4739967036027552,0.4740395030449399
65,0.4739900403304588,0.473894416181925
66,0.47396768867423017,0.47389601788977426
67,0.47392218151972954,0.47438408870192716
68,0.47396318418103855,0.47388278920245536
69,0.4739436916276701,0.4738425172618372
70,0.47399908773978494,0.4745555746210882
71,0.47396799065999545,0.4748693302530429
72,0.4739629249432469,0.4741090471202697
73,0.4739290456313237,0.4739155034032833
74,0.473891936734103,0.4738218265951817
75,0.473959744523087,0.4740516265789035
76,0.47385671574173766,0.4739641939728188
77,0.4739573514397484,0.47432921299958236
78,0.47384947031718894,0.47385840608932767
79,0.47390190419088535,0.4739759241039829
80,0.4738314710015797,0.4741414390100022
81,0.4738984147108993,0.4741333428688194
82,0.4738032622694384,0.47388222538711716
83,0.47383859827578595,0.4747361466771564
84,0.4738931399316826,0.4738295147387622
85,0.4737850569265187,0.47379464262126664
86,0.4739633703680415,0.4737684492944324
87,0.47380222720799997,0.47377276561352516
88,0.47388026876285894,0.4738873215952854
89,0.4738627096545909,0.47440664843069796
90,0.4738745833329772,0.47387369420599507
91,0.4737591956813496,0.47381364603156534
92,0.4737239866088092,0.47423253920061054
93,0.473801805614575,0.4748740087815801
94,0.473824524816526,0.47411406307910237
95,0.4737409707814896,0.4741595096004343
96,0.47376758537689045,0.4738470730869433
97,0.47382274941490854,0.47386854200324297
98,0.47385136279548135,0.474083846587785
99,0.47383274508237255,0.4738623132957841
100,0.47377772161015036,0.473783505555766
101,0.4736904388402474,0.4737755856230913
102,0.47379523593259276,0.4738326550611944
103,0.4737999289008859,0.4740411574740303
104,0.47370370973169657,0.4738543687440396
105,0.47375768885208264,0.47385586052719014
106,0.4737846052363638,0.47381766472487213
