epoch,loss,val_loss
0,0.5714884908036724,0.5601963712498311
1,0.5593817906778916,0.5581858130953316
2,0.5589436956850107,0.5598552979833883
3,0.5586530137760555,0.5582450396993863
4,0.558173676474135,0.5575507605797848
5,0.5581578766523521,0.5574976857844758
6,0.557812982187279,0.5580141655845451
7,0.5575880185880558,0.5574110893214891
8,0.5576855269328642,0.5570695359279854
9,0.5577191729461393,0.5570823022404695
10,0.557343134926288,0.5569355297163695
11,0.5570840744930571,0.5569553202027456
12,0.5570671816777937,0.5571793951266649
13,0.5571456003604202,0.5570947558686874
14,0.5570741792700825,0.5572038745632832
15,0.5570746573713531,0.5572827450101696
16,0.556989350051145,0.5589646050434992
17,0.5570047192798327,0.5569159240938156
18,0.5569804624195462,0.5568158336868329
19,0.5569098163147139,0.5570873634906627
20,0.5568170024599175,0.5570116705045719
21,0.5569446192005434,0.5567180839461913
22,0.5567846121518053,0.5594343040514531
23,0.5569120793702061,0.5568705537536007
24,0.5567977786491038,0.5568644396683357
25,0.5568463606262231,0.5568410956124329
26,0.5568631642617651,0.5567679137825017
27,0.5567179706278961,0.556680012795854
28,0.5566880845428857,0.5567271115934878
29,0.5567852982703972,0.5565995158233297
30,0.5566823831588757,0.5568113389733236
31,0.5565933776200618,0.5567439931325282
32,0.5567579144469984,0.5566005951432216
33,0.5566540637488232,0.557130245372838
34,0.5565798962686288,0.5567694698512322
35,0.537356781463825,0.5292522770030605
36,0.528922580207623,0.5292230406984795
37,0.5288858766175706,0.529001789438347
38,0.5289611092660536,0.5288941435934018
39,0.5288362061201255,0.5288720655096838
40,0.528808553957142,0.5294914618424297
41,0.5289677178852719,0.5295540288568183
42,0.5288315760280808,0.5299351488380305
43,0.5288403975615088,0.5289944590827143
44,0.5287927447805598,0.5287965498360954
45,0.5288253887410008,0.5290923345903706
46,0.5288364040871097,0.5288444687799516
47,0.5288168649327092,0.528845960231904
48,0.528770194065279,0.5288565097461919
49,0.528792718909498,0.5294657254311791
50,0.5287619587634877,0.5288971740684149
51,0.5287775677466288,0.5287983065778447
52,0.5288169743087872,0.5287862150597118
53,0.5287199466965167,0.5290212895080191
54,0.5287429286949104,0.5290876727652651
55,0.5287151558690002,0.5288990576811733
56,0.5287332700707084,0.5289547192120821
57,0.5286976015292141,0.528970059244075
58,0.5288144416219973,0.5292708421994369
59,0.5286307657239349,0.5287782080108577
60,0.5287131908017708,0.5288061508206796
61,0.5287000310022436,0.5288116912264187
62,0.5286301838292891,0.5288188295533071
63,0.5287638112915982,0.529400590316612
64,0.5286893964299554,0.5288145988268816
65,0.5286331481892819,0.5288034516653544
66,0.5287043107824467,0.5288139506387896
67,0.5286317677822889,0.5288795927847552
68,0.5286883313371088,0.5287929859221434
69,0.5286498455749857,0.5288258288652505
70,0.5286566389993317,0.5290713632276796
71,0.5286651294291694,0.5288581597096259
72,0.5286715236074621,0.5290246551887794
73,0.5286540510338477,0.5287332102134727
74,0.5285867568213217,0.529040761823278
75,0.528597234446795,0.5287801821621773
76,0.528652107338765,0.5288994558477075
77,0.5286541457686711,0.5289659948012502
78,0.5286364456621961,0.528781180217059
79,0.5286243134332756,0.5287802031601462
80,0.5286483204427707,0.5287563615451147
81,0.5285904510838264,0.528792727719989
82,0.5285798008416974,0.5288527877954757
83,0.5286440316058558,0.5287913264533197
84,0.5286108523278805,0.52883934105827
85,0.5286286099192662,0.52910727251457
86,0.5286065431418852,0.5288406340562319
87,0.5285930999254277,0.5291886789022849
88,0.5286539856367347,0.5290369191397604
89,0.5285428432644277,0.5288287874150439
90,0.5286348555855196,0.528755323812683
91,0.5285878517339712,0.5289307392334625
92,0.5286047645395059,0.5289530381491326
93,0.5285618444645066,0.5287985864293246
