epoch,loss,val_loss
0,0.6888584378667794,0.6694880957558411
1,0.6692282553844194,0.6688098755450708
2,0.6689493677226986,0.6686581056920394
3,0.6687992992263635,0.6684165676670354
4,0.6687022227295624,0.6683311186183004
5,0.6686252809533575,0.6681825589374119
6,0.6460977837802621,0.640785228490697
7,0.6408906301152131,0.6406676788355691
8,0.6405773342117583,0.6408044372383898
9,0.6405682161713053,0.640601611552492
10,0.6403340573913358,0.6401989980083105
11,0.6403614520489318,0.6402778448407618
12,0.6402371431370051,0.6406598332679411
13,0.640262036843103,0.6399816394095112
14,0.6403181695785019,0.6400250768877882
15,0.6401783864834425,0.6400900172136254
16,0.6400902725210365,0.6400199852777556
17,0.6400495383005146,0.6398700182030302
18,0.6400551415584942,0.6403100415608864
19,0.6400310488046458,0.6400734524436297
20,0.640010247011785,0.6398797192315654
21,0.6400038957544304,0.6410200113962261
22,0.6400297187211003,0.6420452119708392
23,0.6399596106717922,0.6398247098852073
24,0.6398678727845207,0.6400348927979559
25,0.6399052460505044,0.6409408146528254
26,0.6267405154252911,0.6121146743066621
27,0.6122826207446996,0.6121379397029809
28,0.6121458291466473,0.6121325209573985
29,0.6047657014256926,0.584643368434853
30,0.58446643495517,0.5845994379790233
31,0.5844229795313557,0.58495879894187
32,0.5844253976328944,0.5845253535565855
33,0.5844350425082646,0.5843843468738322
34,0.5844763775023152,0.5843882945140747
35,0.5844161752562522,0.5843238956642539
36,0.584333928030006,0.5853480717543651
37,0.5844080315998454,0.5843324970152449
38,0.5843875265734564,0.5851018906279966
39,0.5843850560544969,0.5843361385399863
40,0.5842914459929324,0.584409241445375
41,0.5843691149078986,0.5843716754606861
42,0.5843053702013743,0.5848977112906976
43,0.5633106821700546,0.5566642999781527
44,0.5566022327766699,0.5568004610759724
45,0.5565732929321856,0.5565905636009143
46,0.5566933001618289,0.5568257368014993
47,0.5566235587879009,0.5568761211740769
48,0.5565482492696116,0.5567280555747354
49,0.5565545613413238,0.5567205485910768
50,0.5565717802074079,0.5566844549923611
51,0.5565853081377925,0.5565868776845676
52,0.5565080454978593,0.556624881480221
53,0.5565569252847569,0.5567157495726168
54,0.5564708916170078,0.5565793081596397
55,0.5565444240178359,0.5566249715882245
56,0.5564959413222965,0.5567980189525678
57,0.5565203778079781,0.5565876634634519
58,0.5565301075665599,0.5566239475563601
59,0.5564788101160548,0.5568545856814094
60,0.5564848233328418,0.5566805122428127
61,0.5564930896118255,0.5568396439263502
62,0.5564921530002656,0.5577966742414879
63,0.5564803619988743,0.5565774573796677
64,0.5564968055408845,0.5565513616514374
65,0.5564163204430761,0.5569677706845801
66,0.5564481506500601,0.5566027836239675
67,0.5564515504498321,0.556606962142509
68,0.5564499232906869,0.5565913539061746
69,0.5564926656189791,0.5565434777862519
70,0.556454362639772,0.5566930455683691
71,0.5564470096515917,0.5575711941869198
72,0.5564689788328759,0.5565900207890649
73,0.5564967490109584,0.556544524538316
74,0.5564256693873559,0.5567471738501066
75,0.5564179639602397,0.5565802498666594
76,0.5564173982451279,0.5566301917031774
77,0.556457479230539,0.5565195335439233
78,0.556401288824385,0.5566286959456479
79,0.5564146377752309,0.5569943857868638
80,0.5564026199125962,0.556543894521968
81,0.5563994435607804,0.556733929232152
82,0.5563887247180165,0.556767303903007
83,0.5564708202967833,0.5567320356834462
84,0.556373930680683,0.5565469643764528
85,0.5564146358983829,0.5565219168244391
86,0.5564204094545591,0.5565431485199933
87,0.5564057389156649,0.5566033908869961
88,0.556340048169838,0.556704618971002
89,0.5564365057962475,0.556714765538461
90,0.55637189198213,0.5566064865418243
91,0.5563681523624651,0.5566281800822961
92,0.5563577813253985,0.5565381472939627
93,0.5563567419196089,0.5565722953900074
94,0.5563771989667706,0.556662021444603
95,0.5564134081932164,0.5565761149117275
96,0.5564294720856746,0.5567206931370323
97,0.5563441779254833,0.5566041564738271
