epoch,loss,val_loss
0,0.5962758303623252,0.5820120614128567
1,0.5815618819220423,0.583003185182508
2,0.5811475641826221,0.5813341910238905
3,0.5808770833633387,0.5807021597940009
4,0.5808727249574082,0.585820897368009
5,0.5806977583245133,0.5808499905795818
6,0.5805837437328712,0.5805448123099516
7,0.5803465749777671,0.5802694254244257
8,0.58026959187078,0.5808454203148213
9,0.5801473383873346,0.5803971966792432
10,0.5800831174837475,0.5799569797295621
11,0.5800155653388693,0.5797855148181587
12,0.5799254875402565,0.5798122804379628
13,0.5799800862659906,0.5797364535774764
14,0.5798832390347178,0.5812163415440532
15,0.5798495675580744,0.5798890147100738
16,0.579824886477157,0.579638153595195
17,0.5797954323866858,0.5797803330578163
18,0.5797725396823049,0.5799692268904413
19,0.5797620730956698,0.5797327963046651
20,0.579746917494069,0.5805646018673586
21,0.5797481530060052,0.5795903184799768
22,0.5797419036982407,0.5796747509953311
23,0.5797161218621186,0.5798438425321608
24,0.5797158055312597,0.5802545069081043
25,0.5796911070815967,0.5795929565652477
26,0.579682317594058,0.579525593723152
27,0.5797094822291369,0.5797797762112966
28,0.5796777593882528,0.580033543150555
29,0.5796515264419506,0.5796617748449742
30,0.5796980029889962,0.579694655240588
31,0.5796572116833892,0.5795952981838559
32,0.5796177424426036,0.5795237707570764
33,0.579674890320505,0.579730790405592
34,0.5796484801782641,0.5796314365043376
35,0.5796045004004234,0.5796619715646563
36,0.5796321630350838,0.5795423004423498
37,0.5796287002476392,0.5800193419653858
38,0.5795925530512651,0.5804728354499615
39,0.5795893144846996,0.5796131183631383
40,0.5796197855334484,0.5796804612664267
41,0.5796233387239298,0.5801643195002345
42,0.5796042409874329,0.5796871560253964
43,0.5795773722126027,0.5795854747051836
44,0.5795823156990365,0.5795622139740295
45,0.5795989853224309,0.5797960831695858
46,0.5795578735195557,0.5794973707809015
47,0.5796106069419544,0.5795728282281276
48,0.5795493127016781,0.5795073535370772
49,0.5795716829770021,0.5795362671795186
50,0.5795507297227962,0.5795798940416297
51,0.5795933936211901,0.5796023381817381
52,0.5795475638064949,0.5799817261612845
53,0.5795692905063956,0.5795786422699674
54,0.5795574994830085,0.5795303487951368
55,0.5795445629695191,0.5795146933159326
56,0.5795919422282532,0.5798984382160605
57,0.579541772103483,0.5796622132022463
58,0.5795523689161791,0.579480277356849
59,0.5795581429737201,0.5800291875959354
60,0.5795571879538977,0.5794998779879685
61,0.5795459632035792,0.5797543466715899
62,0.5795601695824695,0.579772668529476
63,0.5795298377364104,0.5794990358142579
64,0.5795314461342249,0.5798278420152324
65,0.5795755699786254,0.5794712714751632
66,0.5795426550773187,0.5800551369635372
67,0.5795196817343494,0.5798394418796228
68,0.5795268333740111,0.5794836419220397
69,0.5795437163243451,0.5798502911003345
70,0.5795266734945793,0.5795118241395677
71,0.5795288539512794,0.5794818991982803
72,0.5795128212746088,0.57975213275453
73,0.5795311798398113,0.5795579612901016
74,0.5795166127071864,0.579461446778773
75,0.5795212487970339,0.5795039349052109
76,0.5794941364277328,0.5797033634378932
77,0.5795223861957463,0.5799410750099727
78,0.5795283762232353,0.5802224593891897
79,0.57950599946181,0.5795221742335889
80,0.5795249714167925,0.5794660175729759
81,0.579511044029205,0.5795329764080336
82,0.5795203352492924,0.5795308866558457
83,0.5794967295312135,0.5795123385671486
84,0.5794779163840584,0.5794644657767969
85,0.5795255651901399,0.5795896561049636
86,0.5794691019277123,0.5794844203932202
87,0.5794909708502789,0.579541661066322
88,0.5794960919350324,0.5797958824261401
89,0.5794930694160676,0.5795060770510356
90,0.5794753402695323,0.5795298812973455
91,0.5794873901581068,0.5794906359643067
92,0.5794882483777384,0.5794645893169267
93,0.5794983902188077,0.5795400289748824
94,0.5794685006743117,0.579433279957435
95,0.579464813368085,0.5795494692006656
96,0.5794767976628895,0.5795163461615209
97,0.5794632211474033,0.5795320980945728
98,0.5794666820613049,0.5795179036968575
99,0.5794618075528781,0.5794456812919913
100,0.5794704593173602,0.5796713113975389
101,0.579455979039759,0.5796941632613722
102,0.5794646699326282,0.5795214419298008
103,0.5794526544977607,0.5796399539858395
104,0.5794756461596601,0.5794489305657675
105,0.5794784719989688,0.579452075041681
106,0.5794507350946366,0.5795002878506413
107,0.5794707893221179,0.5796118085539813
108,0.5794477577002437,0.5794838286987903
109,0.5794681393868926,0.5795026119658782
110,0.5794609053494605,0.5796504992323926
111,0.5794327381867614,0.5794796058013016
112,0.5794858598222296,0.579726435592192
113,0.579466863194931,0.5794540645386232
114,0.5794419329398579,0.5794566450205424
