epoch,loss,val_loss
0,0.6558919201980512,0.6492599938432114
1,0.6473803038234767,0.6467287977649467
2,0.6469634126337169,0.6476136636386695
3,0.6469082097884992,0.6464647192962641
4,0.6467273574789524,0.6465491905879923
5,0.6334096108573547,0.6246920485842988
6,0.6244440499851902,0.6241694091691664
7,0.624360994520713,0.6243493123362852
8,0.6243281375721708,0.6240399776036203
9,0.6242302587232408,0.6244527246583989
10,0.624174118478258,0.6239447742779993
11,0.624095302426437,0.6240322451901533
12,0.6240412173875005,0.6247822840231988
13,0.6240486817845944,0.6243433366768059
14,0.6239960453911084,0.624037233195692
15,0.6239637673687561,0.6238122009366968
16,0.6239574448290397,0.6243143839191472
17,0.6123064816355279,0.5801266985393625
18,0.5796633614152391,0.5795962457589939
19,0.5796460962042527,0.579588034210588
20,0.5796302598330942,0.5795691185087352
21,0.5796435409358922,0.5800519720934958
22,0.5796379286200313,0.579883598396083
23,0.5795762798043353,0.5798597239668658
24,0.5796055579780163,0.579602774124752
25,0.5796218438258285,0.5799382929163222
26,0.5796009672033422,0.5794686922003732
27,0.5795809925979075,0.5796945633823017
28,0.5795577188936683,0.5795457624673293
29,0.5795510414947476,0.5796469123966212
30,0.5795723121161203,0.5795812395669826
31,0.5795277852665557,0.5794774068568778
32,0.5795287027251594,0.5796137670679443
33,0.5795176892941105,0.5796673656314701
34,0.5795419823807972,0.5795094044811244
35,0.5795382932038513,0.5795244589582983
36,0.579489294149328,0.5795178182130598
37,0.579525058387589,0.5795245283258641
38,0.5794917763170396,0.5794386381386313
39,0.5795149773766621,0.57947205034872
40,0.5795111470980701,0.5799234382295972
41,0.5794920101710638,0.5794648019728302
42,0.5795000065032921,0.5796689752639558
43,0.5794877528602131,0.5797345164529933
44,0.5794761885920001,0.5794253045086497
45,0.5795042823180269,0.5794195800696709
46,0.5794812284197691,0.5794931680657636
47,0.5794647255826432,0.5800050804661188
48,0.5794817877139959,0.579430814724575
49,0.579485765607161,0.5794435700232573
50,0.5794559156004927,0.5798233701632574
51,0.5794623757333744,0.5794602481207896
52,0.5794763721328537,0.5794803775909168
53,0.5794679954205751,0.5795450803335193
54,0.5794607409351228,0.5799901494549528
55,0.5794625348489881,0.5794821375321486
56,0.5794759571169662,0.5796828609966516
57,0.5794836489864609,0.5795511770659261
58,0.5794414941411283,0.5794473513444632
59,0.57945218354525,0.5794290690994703
60,0.5794355305874932,0.5793969077715804
61,0.5794403575754156,0.5795732247806141
62,0.5794565551888133,0.5794142091924417
63,0.5794357128816713,0.5795019922957028
64,0.5794529691668562,0.5794459936842865
65,0.5794340614460192,0.5794941124854238
66,0.5794529214331604,0.5797606944444866
67,0.5794191516682219,0.5794158813944505
68,0.5794364088485283,0.5794067316314513
69,0.5794310842845838,0.5794429915225364
70,0.5794351977533609,0.5798415159073662
71,0.5794607509353525,0.5794027413922065
72,0.5794056053990894,0.5796103382390141
73,0.5794252814829122,0.5794356148097671
74,0.5794159403421523,0.5794855968252044
75,0.579429822698351,0.579462972494611
76,0.5794183060268829,0.5796764472446214
77,0.5794087746812734,0.5795514325431448
78,0.5794275045736569,0.579431139897614
79,0.5794130711868689,0.5795079449350191
80,0.5794240275800411,0.5794310236849695
