epoch,loss,val_loss
0,0.6319148134529572,0.6259393805317311
1,0.6254587281907156,0.6250701211214192
2,0.6230059975608316,0.6046253286790501
3,0.602733379073407,0.6029863897681258
4,0.6024112124839167,0.6022599746732396
5,0.6024775584229108,0.6019708625078837
6,0.6000484913608042,0.5815351987355216
7,0.5639380906872734,0.5576077415668259
8,0.5401279033310453,0.536092991969962
9,0.5356234055352459,0.5373692477145443
10,0.5355198348302963,0.535526016154961
11,0.5355048793420037,0.5354765749545224
12,0.5354885220694249,0.5353352132583092
13,0.5354556944819977,0.5352556497615699
14,0.5354566966834772,0.5351917273220191
15,0.535346935457939,0.5354178379178789
16,0.521216723510152,0.5145131539421705
17,0.5132470176085926,0.5139893901604364
18,0.5132346213870581,0.5133084562896814
19,0.5132195086538711,0.5137010734507788
20,0.5131291105810644,0.5135035422284981
21,0.5130956412578721,0.513106100373718
22,0.5131316481898351,0.5132176628818435
23,0.5089792302402708,0.491038931699476
24,0.4909783879488549,0.49206825100755075
25,0.4910210775862278,0.49101321273998716
26,0.49094770053413017,0.4908995331974982
27,0.49101606684708426,0.49113282132983144
28,0.49094531363614924,0.4909264308020412
29,0.4909207439576218,0.4909052706554699
30,0.49098179649744217,0.4932950594472216
31,0.4909294140565643,0.4918758560664956
32,0.4909125479010536,0.4908159171249456
33,0.4908664303796217,0.49088080570189097
34,0.490928739773814,0.49141100188262254
35,0.4908843816906566,0.4908594665984359
36,0.49086362973360664,0.49092970062877805
37,0.49089979259390126,0.4908647923724523
38,0.4908679905135857,0.49088493998657645
39,0.4908602895848683,0.4908605053277015
40,0.4908426726934885,0.4915773797350765
41,0.4908391357726171,0.491037726915842
42,0.49089457448870616,0.4908192668604499
43,0.49083243423294703,0.4913403415557101
44,0.49081376013247074,0.4912368186383375
45,0.49082934621268914,0.49080564491192685
46,0.4908219896678541,0.4908040660135825
47,0.4907822405286432,0.4908061423073401
48,0.49079876577133824,0.49103576260448284
49,0.4907853020065717,0.49075649997696275
50,0.49079338645179427,0.49117764277321807
51,0.49079570600388245,0.49084457370713497
52,0.49075976219563416,0.49083985090996957
53,0.4907840457374172,0.49082692643850223
54,0.49077528159071193,0.49090432321269256
55,0.4907657973109867,0.4909314640749198
56,0.49080744210648214,0.4907715596373794
57,0.4907768599596,0.49120845960287374
58,0.49078978065456996,0.4907857433932991
59,0.49073798222400283,0.49087768921231184
60,0.4907743837033612,0.49153214809546825
61,0.49073020965309183,0.4907635479270724
62,0.49075649672036065,0.49157571075207857
63,0.4907756571654845,0.4907792283589049
64,0.4907588567752853,0.4908183124819749
65,0.49076408562688,0.49081652350081795
66,0.4907342624512672,0.49130667651032106
67,0.4907534374167021,0.490790027616121
68,0.4907448306151336,0.49074300532761167
69,0.4907396573443724,0.4907307903409576
70,0.490727023343833,0.4908321191159504
71,0.49077901833193,0.490806359108779
72,0.4907350012710077,0.4908685737836634
73,0.49073698228432877,0.49130714331983694
74,0.49073073030037695,0.4907098461751892
75,0.4907251027519198,0.490749277829658
76,0.490721555206069,0.490801682505478
77,0.490711495081546,0.49078523652086375
78,0.490744287565809,0.4907977701895909
79,0.49072084369953545,0.491203996423168
80,0.4907301018742498,0.49082254706955564
81,0.49071950556700084,0.4907304526571906
82,0.4907033453192786,0.49072953117827706
83,0.49069895427035626,0.4908469937626603
84,0.4907055522314785,0.49086519026442854
85,0.49069987390887737,0.4907396911282928
86,0.4907291173620091,0.4911621282263322
87,0.49069378985409756,0.4907582805188051
88,0.49067391279219996,0.49077179749474936
89,0.4906940881801662,0.49077494155240325
90,0.4906988105179362,0.4907486871094025
91,0.49068132010270776,0.49077154102217857
92,0.4907035918094818,0.49090815342262556
93,0.4907075378319443,0.49073047985995
94,0.49066821699284546,0.49071650492147517
