epoch,loss,val_loss
0,0.48758813580129473,0.47059816587964515
1,0.47108332276313236,0.47022027682614254
2,0.4704214397972361,0.46996302764778725
3,0.47017771006971765,0.4699732930468801
4,0.46517262276783816,0.4478076680565541
5,0.44786565887382185,0.4473228313228677
6,0.4476287869079727,0.4479258204781367
7,0.44760787382763906,0.44716162743206705
8,0.44743015724380875,0.4490876279825596
9,0.4474313274316408,0.44737337260967164
10,0.4472822111060161,0.44724272825531985
11,0.44724614854380434,0.44747111052512956
12,0.44727288592637404,0.44727026153508714
13,0.44717715317079637,0.4476326849621976
14,0.4471248657617502,0.4469531732112524
15,0.44715649307735617,0.44690299475144313
16,0.4470714765915463,0.4477560023078488
17,0.4470750259982333,0.4468533510921649
18,0.44697359904576633,0.44683314923664924
19,0.4469772127621335,0.4469714446979722
20,0.43950258143125986,0.4248906237328533
21,0.4248173965156752,0.4249022032613546
22,0.4248699589042138,0.4250594936503168
23,0.42479016986025286,0.4248685618767541
24,0.42477771016556737,0.4246744007046893
25,0.42480814922360527,0.4261567614910382
26,0.4247573749814692,0.42476682029538776
27,0.42472195346320935,0.425037328018179
28,0.42476996689153157,0.42458435131720357
29,0.4247733942906154,0.4245802816456896
30,0.4247050041086956,0.42512642488553315
31,0.4246742062812973,0.4246426518760962
32,0.42467114804077205,0.42478144068789114
33,0.4246703404477447,0.42459860249234044
34,0.42464927135013203,0.42468485818554735
35,0.4246287526640065,0.4245776095172613
36,0.42467404699343636,0.42459892367867685
37,0.42458183226728946,0.42468143845773504
38,0.4246109225579303,0.4248343787718082
39,0.42466407100115816,0.42471563743007484
40,0.4245815944275744,0.4247962732862719
41,0.4245906070368563,0.4250351439299137
42,0.42460385526582267,0.4250814623033456
43,0.42456699875271536,0.4251581568249082
44,0.4245648735634151,0.42461068091987186
45,0.42456513061859347,0.42488765103458237
46,0.4245811501169294,0.424491364328195
47,0.4245548623536118,0.4247136372913368
48,0.42454925539012567,0.42447214835828184
49,0.4245144727676673,0.4244714196758809
50,0.42456313651376737,0.42567065850014074
51,0.4245190430879678,0.424602264196586
52,0.42450753274517833,0.42554694718568276
53,0.4245146233866859,0.4245207914399262
54,0.4245136467491143,0.424484894899984
55,0.42452444154955815,0.424625006418157
56,0.42450126688190154,0.42456168383704046
57,0.4244820457358209,0.4245534026616419
58,0.42449289501866844,0.424703923047256
59,0.4245090580541152,0.4244602392729571
60,0.42451458113172674,0.4245071434428286
61,0.42450465737416543,0.4244636297596562
62,0.42448760727542,0.42454800298803125
63,0.4244997640159481,0.4255259231852689
64,0.42453338860389617,0.4245778693623813
65,0.42445969704930286,0.4245163338776062
66,0.42448494659308916,0.42448357508436235
67,0.4244431826751337,0.4245724274869032
68,0.42446041037925825,0.42456226114122114
69,0.42449069867920897,0.4252118651683514
70,0.4244607424403953,0.42451603507080726
71,0.42446319047418707,0.4253011886953651
72,0.4244672179287053,0.42447996348126743
73,0.4244850454595423,0.4245623714399922
74,0.42445024941096715,0.4254663621347949
75,0.4245031399900188,0.4245042817210152
76,0.4244253827201102,0.4248134870208544
77,0.42445260721326344,0.4244396290954465
78,0.4244621038602078,0.4244519279563929
79,0.4244549319299486,0.4247323489566111
80,0.42445013267385073,0.4244836299081407
81,0.4244517597527383,0.4244765495137902
82,0.424451675335297,0.4246614892257427
83,0.4244656457176602,0.42489194058359653
84,0.42442375719709635,0.4248375758796078
85,0.42445046159853284,0.42467141936062114
86,0.42444387622558627,0.42481750078323277
87,0.4244308695940099,0.4244425299854214
88,0.4244227714741826,0.42453864733540453
89,0.42439567562297953,0.42451485064953465
90,0.424441936985073,0.4244905321185935
91,0.4244154489376116,0.42443884361444645
92,0.42439497117717573,0.42459737187190894
93,0.4244202805543286,0.42452596857823494
94,0.42441176706211825,0.4245708004728179
95,0.42441153362318196,0.42451104729292893
96,0.42439835306342516,0.4250204202061035
97,0.42440565425261884,0.4247260283494127
98,0.42437930137909446,0.42472239247667026
99,0.4244075510482773,0.4246293575201646
100,0.42437228957957884,0.4245991741261912
101,0.4243780744844676,0.4244723961638777
102,0.42439744571305876,0.4247098546041691
103,0.4244202470176271,0.4246209789538049
104,0.42437045103176424,0.4246045943262904
105,0.42439807810864033,0.42444545895703034
106,0.424377421991008,0.4244749690218238
107,0.4244304963332817,0.4244640209435951
108,0.42437353271557837,0.4244574372299104
109,0.4243917084917446,0.42457731926096
110,0.42439529926462266,0.4245334421207562
111,0.4243725655311394,0.4245130575704922
