epoch,loss,val_loss
0,0.5127795119481211,0.4948631461506564
1,0.49376468899367665,0.4944516968549219
2,0.4929863262997371,0.4929172524520232
3,0.49293991222977285,0.49229230191297185
4,0.49259111387357984,0.4919968025312476
5,0.4648185416282735,0.44859089110053907
6,0.4482063450296721,0.4477201965037746
7,0.44804726028359365,0.4476006041095786
8,0.4478825743944367,0.4475294951806803
9,0.4478452085458953,0.44742713925003647
10,0.44770121504585203,0.4473629158912109
11,0.44772606978034224,0.4479685213981333
12,0.4475417836463205,0.4472976558732402
13,0.4474942974833939,0.4472997877531734
14,0.44741657438623145,0.4480977210995994
15,0.4474529295049314,0.44825002115877
16,0.44732280986307976,0.44714280434560344
17,0.44734770381208094,0.4482030243946871
18,0.4473656352673724,0.4470526731010016
19,0.447256295813489,0.44697751477294545
20,0.447287047133395,0.44763357932835707
21,0.4472700450401291,0.4470817911876923
22,0.4472949540586562,0.447868156049789
23,0.4472265558432326,0.44708039989732345
24,0.44726962215663174,0.4471875122182639
25,0.44715203822208305,0.44698563780914213
26,0.4472584287842754,0.44723680792788373
27,0.447157951106052,0.4470015500044607
28,0.4472185753803509,0.44779733462938515
29,0.4471695174200553,0.44700320898099405
30,0.4471990931079832,0.44735772606745816
31,0.44713776869477034,0.4476183207510716
32,0.44713442589243446,0.4469529534078741
33,0.44712545673466614,0.446932445587496
34,0.44715341505097467,0.44695686979517457
35,0.44712923472065497,0.44703322718888494
36,0.447109982146491,0.4470241596006674
37,0.4471063965932726,0.44774083248631613
38,0.44709308046566887,0.4469661468202849
39,0.4470568762441247,0.44693474600488325
40,0.4470554028282337,0.4473763338349221
41,0.4470980034108994,0.447767687867814
42,0.4470794272768132,0.44697503004600997
43,0.44705018130279905,0.4469571580978329
44,0.4470575251683932,0.4469017820844093
45,0.4470429934798975,0.44693471427538994
46,0.447034259969926,0.4472721846558142
47,0.4469771201841207,0.4469382968226765
48,0.447023377253443,0.44731574873133056
49,0.44701332160946905,0.44697165313421844
50,0.4470192561683677,0.44724307741740177
51,0.4470228698677925,0.44736554753846014
52,0.44703755926709754,0.44722165254425
53,0.4470345361643271,0.4469367020357606
54,0.4469697472482555,0.44689317576244386
55,0.4470094656511962,0.4471885538541692
56,0.4469855981256062,0.44689718305503395
57,0.4469903452196981,0.4470233811824312
58,0.44700950410824236,0.44707313860303494
59,0.44696254333787433,0.4469638371747136
60,0.4469569126896707,0.44750373379166375
61,0.44696248328002136,0.4469526720673857
62,0.4469728018242889,0.44690283479625326
63,0.44693435466755155,0.4470919549444002
64,0.44696909916686955,0.4471032121482635
65,0.4469419503601932,0.446829765675059
66,0.4469649688856208,0.44754908864844184
67,0.4469228329867916,0.4470109261941647
68,0.44692407382286536,0.4469264224105458
69,0.44693244016006445,0.446815615729342
70,0.44696118038618987,0.4473585245939232
71,0.4469427509404941,0.44698615405271097
72,0.44693815987427016,0.44692013630711985
73,0.44692785606562285,0.44695930350502383
74,0.4469333814459838,0.44720134983521875
75,0.44692048508095306,0.4475532847826086
76,0.4469005750661595,0.4468328814922461
77,0.4469065151172074,0.4467881497629033
78,0.44689259373215795,0.4468946767268415
79,0.4469291985219897,0.44696259719903186
80,0.44689581045789983,0.4469317349326147
81,0.446901353378548,0.44688796482981574
82,0.44686773901390414,0.4467951837092569
83,0.4468683794655793,0.4467903467007398
84,0.4468786803813181,0.4468494672761715
85,0.4468997229570734,0.4469801866313581
86,0.44683834804785366,0.4476711220323224
87,0.44688552049822233,0.44675699422236215
88,0.4468978102581836,0.4468046184023652
89,0.4468768183330342,0.4468030303923142
90,0.44685087561435116,0.4468392066314729
91,0.44686416032657833,0.4468718279973083
92,0.44686584836267595,0.44679860046689646
93,0.44685255813429775,0.4472636051659983
94,0.44687437750751197,0.44684242277802744
95,0.44683742929033543,0.447149129754846
96,0.4468424042352076,0.4468202019197349
97,0.446845735057881,0.4470318525706627
98,0.4468319496825917,0.4474967604241292
99,0.4468345998175957,0.44734380547096897
100,0.4468638483237872,0.44676170892435063
101,0.446813234240632,0.4467685437473528
102,0.4468516627741828,0.4472536124880688
103,0.4468150996540928,0.4473226936836822
104,0.4468490499392027,0.4467480789653614
105,0.44680518434441724,0.4469241706806975
106,0.44686226552658903,0.44682906003929324
107,0.4468273308831315,0.4470237682314236
108,0.4468013180484792,0.4469694489694908
109,0.44680860074790746,0.446818662126019
110,0.4468126824412829,0.44720040988405385
111,0.4467991655763272,0.44703083307075125
112,0.446834288203773,0.44685764048234633
113,0.4468051889379154,0.4468050504539762
114,0.4467904953870254,0.4467931350259295
115,0.4468087370788667,0.4469131831431139
116,0.4468284969906778,0.4468007454452389
117,0.4468082214909947,0.44683783384512193
118,0.4468124776017613,0.44713436162668724
119,0.4467791080542623,0.44686076631129246
120,0.4468431773575856,0.4469028856756844
121,0.4468447378649875,0.44684747394606494
122,0.4468026453428431,0.44683407624823773
123,0.446810181678622,0.446706070466244
124,0.4467932091646041,0.44694863370181104
125,0.4467908953997447,0.44677557561829156
126,0.4467903185101679,0.4472960085815044
127,0.4467968922182976,0.4480161790283181
128,0.44680390968997513,0.4469310495903827
129,0.4468015502703891,0.4469840609385629
130,0.44681277369214395,0.44684468130591837
131,0.44677487436388935,0.44680715425756984
132,0.4467841830543767,0.44684145374987644
133,0.446788162600834,0.4470253424600844
134,0.4467980755061059,0.44675930996711183
135,0.4467699284575214,0.44688463882392754
136,0.4467970510487148,0.4468452745727926
137,0.4467965523876753,0.4469039736113427
138,0.4468178757273281,0.44681265490117344
139,0.44675512870837075,0.4467956873362093
140,0.44680455614136455,0.4468137572429641
141,0.44680210333123827,0.44685470942473365
142,0.4467731956778583,0.4467401834571101
143,0.4467992737963766,0.4468943350351943
