epoch,loss,val_loss
0,0.778653211010827,0.777800022761027
1,0.7205671240753597,0.6666804858446121
2,0.6667193610138363,0.6666853949228922
3,0.6667100891139772,0.6667501637538275
4,0.666704260720147,0.6667503834168116
5,0.6667021445963118,0.6666789257923762
6,0.666698422325982,0.6666849229733149
7,0.6666959906816483,0.6666879969437917
8,0.6666949229637782,0.6666915029287338
9,0.6666937705013487,0.6666789997816086
10,0.6666909053855472,0.6666845663785934
11,0.6666912611060672,0.6666796219746272
12,0.6666902574168311,0.6666794744332631
13,0.666690695948071,0.6666867471933365
14,0.6666902072164748,0.6666933728456497
15,0.6666899336841371,0.6666797743638356
16,0.6666889633999931,0.6666890490055084
17,0.6666889402998818,0.6666809578736623
18,0.6666883971956041,0.6666886110305786
19,0.6666890364355511,0.666680076122284
20,0.666688568658299,0.6666879136562347
21,0.6666875114308464,0.666693212946256
22,0.6666874657869339,0.6666802128156026
23,0.6666870274808672,0.6666965129375457
24,0.6666868618196912,0.6667104709545771
25,0.6666869308948516,0.666721193154653
