epoch,loss,val_loss
0,0.5565106562243568,0.5556157024304073
1,0.5556864115662045,0.5555932241678238
2,0.5556433678600523,0.5557831545670827
3,0.5556292819976807,0.5555757040580114
4,0.5556177701817618,0.5555883208910625
5,0.5556146195994484,0.5556018306016922
6,0.555605775501993,0.5556043715874354
7,0.5556032592852911,0.5555980217456817
8,0.5555975091589822,0.5556063502232234
9,0.5555965736707051,0.5555699906746546
10,0.5555941947831048,0.5555973111788431
11,0.5555914346774419,0.555571829398473
12,0.5555908399422963,0.5555916122992833
13,0.5555898050732083,0.5556015555461248
14,0.5555905364089542,0.5557533174355824
15,0.5555891346534093,0.5556024688879649
16,0.5555887866550022,0.5555731136401494
17,0.5555880349874497,0.5555806249380112
18,0.5555883209043079,0.5555721123615901
19,0.5555862840149137,0.5555766827265421
20,0.5555855366256502,0.5555975991090139
21,0.5555847806533177,0.555580663005511
22,0.5555850525432163,0.5555752726793289
23,0.5555828606155183,0.5555825097958247
24,0.5555828966167238,0.5555752860307693
25,0.5555833937989341,0.5555880891084671
26,0.5555835320154826,0.5555722337166469
27,0.5555819696850247,0.5555764008760452
28,0.5555818581846025,0.5555703674554825
29,0.5555819790628221,0.5555965926249822
