epoch,loss,val_loss
0,0.4461228563255734,0.4445592521429062
1,0.4445987570285797,0.4444653058449427
2,0.44454319489002225,0.44450931199391686
3,0.4445210143791305,0.44451176782449087
4,0.44450786401165854,0.4444664844473203
5,0.44450669168101414,0.44448260684808094
6,0.44450195984045665,0.4444832200805346
7,0.4444954674575064,0.44451258224248885
8,0.4444923634065522,0.44448861239353815
9,0.4444907606376542,0.4444742941260338
10,0.44448886353439754,0.4444766825040182
11,0.44448826077249315,0.4445172226031621
12,0.44448693552944396,0.44447320739428203
13,0.44448623929421105,0.4444872912367185
14,0.4444853467345238,0.4445998741587003
15,0.44448439411984547,0.4444868092338244
16,0.44448339524534014,0.4444744806687037
17,0.4444822985066308,0.44454972473780313
18,0.44448229881789947,0.44448550297816597
19,0.44448158087995315,0.4445160339275996
20,0.44448277350266774,0.44446913508574165
21,0.44448167822096085,0.44448191837469736
