epoch,loss,val_loss
0,0.8892583362791273,0.8889429095586141
1,0.8676739781167772,0.7777936627467473
2,0.7778141117890676,0.7777873052358627
3,0.7778117278019587,0.7777888781229655
4,0.7778043905231687,0.7777891450325648
5,0.777804013941023,0.7779505739212036
6,0.7778022840950224,0.7777938658793767
7,0.7777997050152885,0.7777881546417872
8,0.7777991976075702,0.7777959879636764
9,0.7777976877556907,0.7777927466630936
10,0.7777966976033317,0.7777960659265518
11,0.7777965512143241,0.7778055543104807
12,0.7777958254814148,0.7777886416912079
13,0.7777960277398427,0.777789977590243
14,0.7777944957415263,0.7777907306353251
15,0.7777940911054612,0.7777857458194097
16,0.7777940439515644,0.7778160309394201
17,0.7777933577431573,0.7777864706118901
18,0.777793271276686,0.7777847729921341
19,0.7777933428552416,0.7777870531876881
20,0.7777930573225021,0.7778114641110102
21,0.7777929136223263,0.7777934974034627
22,0.7777927722401089,0.7778343901236852
23,0.7777924517393112,0.7778133572340011
24,0.7777917847898271,0.7777859032551447
25,0.7777919996579488,0.7777928466002146
26,0.7777919279204475,0.7777870914141337
27,0.7777915349801381,0.7777894452015559
28,0.7777916906674703,0.7777850912809372
29,0.7777912040816413,0.7778032040198644
30,0.7777912565999561,0.7777850859165192
31,0.7777914278242323,0.7777966537078221
32,0.77779136370288,0.7777852186361949
33,0.7777911451127794,0.7777877642711004
34,0.7777910137971242,0.7777855331500372
35,0.7777910646862454,0.7777853610912959
36,0.7777911173635059,0.7777890616257985
37,0.7777908978462219,0.7777904655138651
38,0.7777908173534606,0.7777924379110336
