epoch,loss,val_loss
0,0.4222813077943979,0.3018644659088273
1,0.30784054394725036,0.2905614190362247
2,0.30456830506368604,0.2872346140261984
3,0.30740124900802246,0.28472847736719187
4,0.3051611817628741,0.3105326611974998
5,0.30227590541092514,0.3019946121802552
6,0.300883845161858,0.2798818796755483
7,0.3005557232242313,0.28004574329954673
8,0.30294472700972064,0.28800370861153574
9,0.3041980379252887,0.2921257715292963
10,0.3055255622338715,0.30198529896627
11,0.3042078093111181,0.29422392841390294
12,0.30419462041365064,0.31684162728223825
13,0.30518063634848425,0.28667861124428595
14,0.29649841318504033,0.2837615796991851
15,0.2971019341076592,0.2799186367944365
16,0.29678759131309607,0.29062934383314803
17,0.29772781988652014,0.30114200109088146
18,0.29672658520279455,0.28839105320616604
19,0.29726697384810846,0.2845183352527415
20,0.2969647233339427,0.28965948996058394
21,0.29729037584184553,0.2966823579527397
22,0.3042975819939904,0.29321758581976676
23,0.3012980322638671,0.27776139982826803
24,0.2977605999397526,0.28192784577819807
25,0.3011988391943401,0.283849814602401
26,0.3062569757016729,0.29407777062719415
27,0.30336495701500554,0.29442296871634666
28,0.3059585038230097,0.2814481280973415
29,0.2966132231717773,0.2864378676371209
30,0.29653192826693386,0.28633016020929897
31,0.2957228785283941,0.2830987494577078
32,0.29472242250478714,0.28747755959453597
33,0.29657128180483644,0.28312285463219095
34,0.29741298852206993,0.3001611622281214
35,0.29952341795777626,0.31378330112726743
36,0.3014755517744618,0.28698749473316987
37,0.2954947455562085,0.29057230619859203
38,0.301102689427914,0.2902610672912733
39,0.3008468806576862,0.2850572288553829
40,0.30164076931042066,0.2839507303702709
41,0.299647471434969,0.3024459906751562
42,0.3006164821848976,0.2831089960112756
43,0.30092323692344264,0.2837396058964748
44,0.3040025027321397,0.280389437888585
45,0.3058902775521854,0.2856488230196434
46,0.301986471783343,0.29686815202847744
47,0.30112280880661607,0.2843779515072221
48,0.30171351505221605,0.27977839454526304
49,0.30252906076794717,0.284888781330768
50,0.29809024224249864,0.28070793923610954
51,0.29821717110778884,0.2895399064484222
52,0.2970536362757976,0.2849553412660051
53,0.29670034346582413,0.2767182318545178
54,0.2973300071655036,0.2925425435062836
55,0.29745561246582264,0.28598315161141996
56,0.2966232966128394,0.28249416866684485
57,0.2972424785129363,0.29543052570219575
58,0.2969574746753958,0.2833679633857513
59,0.2941856522032683,0.28922738820526106
60,0.29376985174979714,0.2830177103452261
61,0.29303530993745575,0.28883543531774253
62,0.29373393473412684,0.28993284344767245
63,0.29426926183257457,0.2836108047282875
64,0.2937672971833429,0.2790426656709662
65,0.29371955557811935,0.29152077991565384
66,0.2961607388228917,0.27940426893890985
67,0.29441762145022027,0.28882775860879023
68,0.29418806387461444,0.2739472218569377
69,0.2935178777237209,0.27578584893350067
70,0.293708925058754,0.27630010124916343
71,0.2933354230283452,0.289365088342209
72,0.2958862507919804,0.2785469171985831
73,0.29409301221418344,0.29098935212407795
74,0.2941488595269948,0.2884264922838279
75,0.29404255068249746,0.27387017006938064
76,0.29327234029650784,0.28582281391735426
77,0.29226100672301436,0.28099243075902197
78,0.29324938374743476,0.2778267032674851
79,0.29286608158303296,0.2807726653758804
80,0.29390773095553824,0.28297698844721114
81,0.29420968527488,0.28645844062483017
82,0.2945205899868175,0.2820803106489761
83,0.29336552731067445,0.29256242311367764
84,0.2941526568336167,0.2789842494967046
85,0.2948990459862849,0.27579769392181025
86,0.29235444215538026,0.29376303792093905
87,0.293988977863396,0.2804107037744093
88,0.29409417592221315,0.2770226204498791
89,0.29342108887495943,0.28020929231734
90,0.2959965029589945,0.28872960805892944
91,0.296122391702984,0.2748931849459164
92,0.2980429380596113,0.30929076523411997
93,0.2985507056510134,0.27368842137076294
94,0.29851158789927057,0.2958815153320662
95,0.30271725199943916,0.3263548720325178
96,0.3130690281292041,0.27815958492945947
97,0.29494111829524416,0.3098573585900154
98,0.29291072405046886,0.2746247841249607
99,0.2921884557206949,0.2729731919898136
100,0.29302236035787804,0.2885882456470119
101,0.2931920061592194,0.28201392664623337
102,0.2944360651153264,0.27968159782528973
103,0.2935539749588707,0.30518807389647734
104,0.2935970654185537,0.2783311074562871
105,0.2934102357374869,0.28359887133269396
106,0.2943213458458106,0.28098223450716403
107,0.29486306410708685,0.28469557288648956
108,0.29530175788987645,0.2888217643432572
109,0.2945963303200442,0.28163121830033994
110,0.29346591386077503,0.2940735869644755
111,0.29349913491571933,0.2841522987070475
112,0.29451761094571877,0.2886557978678615
113,0.29649964672960727,0.2855421388911373
114,0.295480399347133,0.28091308888527194
115,0.2940857551521439,0.29212671311332566
116,0.29389072865319193,0.28400435954355874
117,0.2940165437668633,0.2773728229769968
118,0.2962838606439906,0.28251557536687827
119,0.29620551248248533,0.30214991434032556
120,0.2961679124693981,0.3014462242092593
121,0.2970142007874642,0.2801282651540136
122,0.2953863731867594,0.28627383537243556
123,0.294808657686535,0.2809201597391195
124,0.29778565072136626,0.28901964700071475
125,0.29576970398616637,0.285692973890075
126,0.29699486797805025,0.28077971008507024
127,0.2947774482049721,0.28086181807066385
128,0.29538927706692525,0.2789455919211176
129,0.29633792430805644,0.30316673203914674
130,0.29561742742975455,0.28345020764581597
131,0.2961337250187624,0.28433565197963834
132,0.2935049328610575,0.26917288371824144
133,0.2951970916691063,0.2791493562327282
134,0.29625381093969544,0.2926297327996053
135,0.2955869457883229,0.28750659458356853
136,0.29689234866798636,0.28207838323611206
137,0.2958797397706911,0.28153749408925155
138,0.2945940130584532,0.2946688451678525
139,0.29449015209000173,0.27632917176811544
140,0.29553898196997974,0.2845199820133486
141,0.2943716951959329,0.28325831968904763
142,0.2939111880070681,0.2829331522770726
143,0.29400301407233514,0.30108603477572116
144,0.2962254909195488,0.2878023247457247
145,0.29618655121345505,0.291033338705385
146,0.2952229815492813,0.2841156695946616
147,0.2939071133196783,0.27734376897046015
148,0.2945437996471814,0.2822523404150942
149,0.29572662675409295,0.2770107720861683
150,0.2953661196320939,0.2778104608018472
151,0.29584008061009154,0.2799788631598782
152,0.29402453581587396,0.28300973356663944
153,0.2953539343355752,0.28272758018528277
154,0.29402156170013904,0.28086815729749043
155,0.29527663505024954,0.2808740777393543
156,0.2943956451974422,0.27774558282782924
157,0.29464450283206817,0.2801712596966887
158,0.2937908544719553,0.2776315674926695
159,0.29395609823681657,0.27785310370299227
160,0.29367415804704794,0.27951748408053745
161,0.2934968375640331,0.28119706060816757
162,0.2946905505171211,0.27974229344205775
163,0.29482896702824163,0.2830218858928688
164,0.29478839510302846,0.2774327244571371
165,0.2952817906197503,0.28208016465993596
166,0.2942494387856776,0.2873786123794369
167,0.2957619908068487,0.3032975188605693
168,0.29664372418710083,0.280390691479643
169,0.29558081186408525,0.2906755498524435
170,0.29564074034408794,0.2938080509299825
171,0.2949207037044086,0.28249147493206994
172,0.29378467714853235,0.2778459665289806
173,0.29465508384765576,0.28075671250084394
174,0.29418188844510407,0.29291213242059255
175,0.2957128242765971,0.2807642852309753
176,0.2945449652729465,0.28921853584526275
177,0.294014169193572,0.2840731096084229
178,0.2938037695501634,0.28260016995287357
179,0.2959227550396626,0.280138259587461
180,0.2947900766293875,0.2784023187648808
181,0.2956531317137795,0.2799158849486612
182,0.2944986053781925,0.2800195418010101
183,0.2945716988435276,0.28222528623377324
184,0.29516062640743573,0.28715740613515867
185,0.2945972363487613,0.2821263630228336
186,0.2937814103518363,0.2819089777091402
187,0.2956660710316863,0.27715418458972846
188,0.2949685196010329,0.2814473162251565
189,0.29519283032412535,0.28381433783079946
190,0.2938306927561855,0.2790007765780496
191,0.29387364217893874,0.2760734929281986
192,0.29458872951287257,0.2754458688381815
193,0.2963390769980413,0.2772288884153118
194,0.2943709087993601,0.28587463169984206
195,0.2938804322366806,0.28763585090166766
196,0.29404120153183944,0.27546633103746265
197,0.2956410286237868,0.28178607650695114
198,0.29411117620557714,0.28459744811669613
199,0.2943442813593516,0.27314006550724146
200,0.2938069163156833,0.2812739247257726
201,0.2942612184811649,0.2866519738956051
202,0.29500728086244576,0.2909397561670573
203,0.2942397458900174,0.28916691021366014
204,0.2955689158299558,0.2908898808162045
205,0.29514213619257906,0.28137847914080405
206,0.29464598295452304,0.28446910895507166
207,0.2950821661477466,0.2850904687474634
208,0.2947664581995597,0.2851363766494471
209,0.2950948390195505,0.2866023276015916
210,0.29451666987961905,0.272521547085202
211,0.293503182355782,0.2797094999732422
212,0.29445419912572673,0.2739268925214435
213,0.2931480416648394,0.27888053539190694
214,0.29338588802029286,0.27885510688375653
215,0.29616406337200973,0.27539413333550716
216,0.2935995262363355,0.2835310784351572
217,0.2954870408637632,0.2783140817329276
218,0.2963841974163513,0.28159306082512886
219,0.2955896829803594,0.28996577522560846
220,0.29395912883045383,0.27945282838903457
221,0.2948462245859307,0.28928195844509513
222,0.2958689035176278,0.28036802054486504
223,0.29617791934955795,0.2842014554620448
224,0.2942114372095235,0.2975357103366596
225,0.29624031592520783,0.28497488214542477
226,0.29571543966861463,0.28225673210602065
227,0.2967449365307292,0.27833574074125705
228,0.2958909823216027,0.283971177574303
229,0.29680293930067625,0.27669568568021174
230,0.2955767883718919,0.2841798159298976
231,0.29436534686054255,0.2864779277918559
232,0.29286909620348306,0.2863344728429203
233,0.2958707182789497,0.277691350492701
234,0.29391100352330746,0.28105900131442363
235,0.2951169133150606,0.28646192263926495
236,0.29566364660323097,0.27384203840591065
237,0.2946189034173338,0.2809970060858843
238,0.2956517234408884,0.27916767754560395
239,0.2949063503604046,0.2932576739303503
240,0.2948332214824778,0.2837004719541688
241,0.29643322894279717,0.2878570578516047
242,0.2954099432563038,0.28638989311931823
243,0.29468247492155203,0.2744711424505607
244,0.29549885036752854,0.28454425354688867
245,0.2971373544536906,0.28156343895145164
246,0.29620365934263315,0.29350642240132135
247,0.2964406929177632,0.2807263647042209
248,0.29466370625390137,0.27952131303211036
249,0.29501810141032836,0.2773413096672922
250,0.2956095267590478,0.2849720082677248
251,0.2949381035318573,0.2909482546744614
252,0.29526661270909266,0.2823940775553448
253,0.2958479095324814,0.2844839561921739
254,0.29611722567527415,0.29269537040353666
255,0.2958764894176825,0.285916302897089
256,0.2970858491558156,0.300229372687479
257,0.2968320706717783,0.2794427453366056
258,0.296153897278124,0.280408093389697
259,0.2966843032412868,0.28274120958470506
260,0.2954297171329423,0.28140095958299494
261,0.2962775673869131,0.2750670668781509
262,0.29821031541227816,0.29339211800480414
263,0.29639763651277234,0.2815382037467625
264,0.2980792531006628,0.2848721996549555
265,0.29877122697069775,0.278589813713493
266,0.2968400412564464,0.2851990856988842
267,0.2974093301917056,0.28001208546929407
268,0.29787966273695254,0.2844856248164422
269,0.2968859550514095,0.28055550640224
270,0.297768293298501,0.28888421340447856
271,0.29742846997092953,0.28122366086271866
272,0.2981863004579056,0.28552340299196854
273,0.2998507466319082,0.280764146239718
274,0.2965571617813324,0.2864407534639762
275,0.29932788593901527,0.29875945202835735
276,0.29794428772706205,0.2907604953155051
277,0.30004893998495585,0.2841280573757032
278,0.29986440286719257,0.2872470144267711
279,0.2980942064695221,0.2837685459038359
280,0.2999180901846249,0.282352543738101
281,0.297977974356936,0.28291209412543156
282,0.2973607578080335,0.2895845536792382
283,0.2985562152809186,0.2941539289213676
284,0.29915034977032795,0.28812952291429184
285,0.29957921896502077,0.2953229092102683
286,0.29900647849916556,0.28382917215434605
287,0.2976994173203727,0.29004665771712446
288,0.29760075934666047,0.2839901672636512
289,0.29751664624035024,0.29456014970013167
290,0.2971376845543143,0.28548886795728906
291,0.2984742160252244,0.2941284245313766
292,0.3008736916344991,0.28040217181877913
293,0.2990025445568762,0.2879364542022124
294,0.2972962452258042,0.2777236861771453
295,0.297012813037915,0.2851283333978036
296,0.29666617286386343,0.28146489059821583
297,0.2974085593811995,0.2910401937334953
298,0.2973068427863262,0.2856136633005308
299,0.2968008101975127,0.2889768091260493
300,0.29834508951262034,0.2810918044860474
301,0.2981573321240888,0.2928349367256887
302,0.29738607448782567,0.2862479299800831
303,0.29810676009034653,0.28205838187905685
304,0.29831208893768696,0.2762071396082334
305,0.29700104733832255,0.2877311609044448
306,0.2983121816917575,0.2873813875472348
307,0.29856382046552965,0.27674937782178455
308,0.29814776378593666,0.28091841157534597
309,0.29922977071419227,0.29106076813252213
310,0.2981380308620173,0.2784135730932713
311,0.29626824332774876,0.27710970182445166
312,0.29716690213417263,0.2819003081382873
313,0.2977919933869303,0.29742001939120966
314,0.29711787288875985,0.2822576519910425
315,0.2998087215456936,0.28910269123085297
316,0.29842221343831765,0.2820936701574378
317,0.298725202304425,0.2900707803096184
318,0.29558552989809156,0.2901514804824281
319,0.2964059587457864,0.2868503097976957
320,0.29797995350748707,0.28296698766283473
321,0.2969708372410729,0.28639786275899026
322,0.2982541554503971,0.28631510314455916
323,0.2975813633710932,0.30343421305740736
324,0.297975203455638,0.2785025301676805
325,0.2986566484522381,0.28653823690755026
326,0.30010002143949055,0.28654877358096364
327,0.29715282118006003,0.2853770976284873
328,0.29772837401079616,0.2779948254951644
329,0.29760687557651366,0.2856580593285828
330,0.29723632815096684,0.28020357323520845
331,0.29832386701322383,0.28541217645558203
332,0.29875881181989644,0.28279108733479774
333,0.29728968727955524,0.286291131915873
334,0.2971115078357198,0.28503520564479723
335,0.2958458115180715,0.30703143475558126
336,0.297504159460346,0.2963359821190868
337,0.2969296391395261,0.29255054666474756
338,0.29651254373822183,0.28160031479742925
339,0.297877359358098,0.29445623041328334
340,0.29704283485166744,0.2777509421886378
341,0.29712996410308695,0.28717375441433035
342,0.2963333422545906,0.2846711569986855
343,0.2974589895084798,0.28529841842713466
344,0.29771109723406347,0.2920264056350833
345,0.29670702934646304,0.2800728299999764
346,0.29722449006579765,0.2843397776136835
347,0.3002454675823379,0.28072052567185807
348,0.29616588663211546,0.2862578863432394
349,0.29731026602139193,0.28057161339315356
350,0.2979101907077739,0.28962786485100694
351,0.29847648564717183,0.28060351554436674
352,0.2978208664891055,0.28251574786516653
353,0.2980478347943936,0.28469588752797764
354,0.29687781716517503,0.2859131891189265
355,0.2969918441203096,0.29030442501299947
356,0.2974179523120776,0.2898085583427711
357,0.29846161687902983,0.28519766810096525
358,0.297433828600019,0.2897954443329982
359,0.2966690037569268,0.27991273574642805
360,0.2966230763234109,0.2835148675595105
361,0.2972592287164607,0.2797187565581104
362,0.2986954081234791,0.2934795527850537
363,0.2986285673509494,0.283866935307432
364,0.29726752510173715,0.2877626622061891
365,0.2970731631695605,0.28456101703568526
366,0.29685770476655327,0.28451654378504104
367,0.298212159469688,0.2931527706376191
368,0.2980191210905711,0.27405504489518945
369,0.2975226546779906,0.2884444339522811
370,0.29436495912065513,0.28566474059998004
371,0.2953963292707547,0.2827106852087338
372,0.29681206150925893,0.280764541796746
373,0.2972951992500505,0.28268000870449106
374,0.296927376855001,0.28354346112369455
375,0.29567618699049014,0.2802862063720646
376,0.29686870558751666,0.28701893072619433
377,0.297616727304735,0.2948160230313687
378,0.29723492258791917,0.28233276972078203
379,0.2980242007904106,0.30118113932594504
380,0.2966197257538398,0.28088225192598404
381,0.2963330559343171,0.28475262159988834
382,0.29684912491973925,0.29304711860564153
383,0.29882947061297227,0.2823193385291495
384,0.2981341719436798,0.296278603098575
385,0.2983943219843814,0.29484606612453146
386,0.29680872528101326,0.2822881926912535
387,0.2968075102467617,0.2948070017013761
388,0.29776726470147963,0.27886624575461
389,0.297260052276601,0.2814280060491133
390,0.29781699140699835,0.28685580236335956
391,0.29816734036810394,0.2858284914714667
392,0.29856280114153305,0.2978634218014218
393,0.29804090176411957,0.2960081147507786
394,0.2966083601939021,0.2897071886834142
395,0.29642464436715743,0.2819162786312713
396,0.2981754730907466,0.28207281147201135
397,0.2981882965286001,0.302872848844754
398,0.2966332210125111,0.2863949937620968
399,0.29787585406685524,0.29660803413616926
400,0.2976796683921612,0.2870506797494527
401,0.2966278290612806,0.2807942921826476
402,0.29943814655121187,0.28972163928147837
403,0.30011051672873357,0.2830006094809677
404,0.29986923922308917,0.27806563927088557
405,0.29842198269068004,0.2874309437991882
406,0.2965892484362463,0.2909000210152335
407,0.2968732487145278,0.2839438803523379
408,0.2980224548352899,0.28311280014718154
409,0.29845726969454595,0.28698992898545117
410,0.2998200582085753,0.29101463879481393
411,0.29652631289357667,0.2951108787176453
412,0.29704349250983086,0.28164287444259956
413,0.2986930369151582,0.2944228204103935
414,0.29848200056573854,0.28594067592788325
415,0.29862073693963453,0.2832111239362723
416,0.2988065929947902,0.27676940923990373
417,0.2986979895441843,0.28055123061576787
418,0.2981206287297128,0.28587017126598974
419,0.29863524299969585,0.28399220660575847
420,0.29706243348779154,0.2815047143925431
421,0.2965709078047487,0.28841938747603213
422,0.2977283771613614,0.2802919537746351
423,0.2979534650377804,0.29107347377756027
424,0.29875008006104464,0.29346362029179496
425,0.29871079325675964,0.2918008277641099
426,0.297620013391943,0.28377500497504493
427,0.29867852827627883,0.28199882698322526
428,0.30047615004672135,0.2872451487002452
429,0.29875746424154315,0.29452493259919943
430,0.29742706479500236,0.281315861885813
431,0.2981478928161754,0.27624186694669084
432,0.29767553604764047,0.28781980278459984
433,0.2983849561876721,0.29382251067808884
434,0.29790609036322885,0.2855302807893354
435,0.29727793527211693,0.2837087533421279
436,0.29817581735998033,0.2835272945751801
437,0.2982680337439529,0.2833928403862838
438,0.2975214250939641,0.2847268969855538
439,0.29747701379106484,0.27653577395706735
440,0.29825435908768866,0.287680631325578
441,0.2978364899575853,0.2831976691285926
442,0.29858567885500636,0.28468408689032226
443,0.29712958749440266,0.2821959661350724
444,0.29721573410298135,0.28541095971167324
445,0.2975189721198391,0.2812953278151853
446,0.2975062135455134,0.2881950909637897
447,0.29910555824959023,0.29038328478067243
448,0.29735345233210936,0.28055510033089626
449,0.2991289469561607,0.28156095719657365
450,0.29662351724174285,0.2914631969597552
451,0.29797963545524436,0.2843982232139161
452,0.29876052344636284,0.2849674966853721
453,0.2977835469418388,0.2887346926126879
454,0.29849356273524197,0.28447752104279744
455,0.29633068872822654,0.2866484104246254
456,0.29707516640496195,0.2805388601586493
457,0.2980925892051652,0.2941280263398892
458,0.2989998673208707,0.29705817615223756
459,0.29736671261459613,0.29581614503167986
460,0.2988082333493957,0.28901876802038
461,0.2998408421897869,0.2777953062033032
462,0.29807829948590336,0.2830044912628612
463,0.2996302474019148,0.2829177117455918
464,0.2979143301217104,0.28893287605719953
465,0.29785732806419773,0.2827761205590985
466,0.2981892579751049,0.3025199044098888
467,0.29878594237361117,0.2798519764674773
468,0.30019539806673184,0.2861382177403901
469,0.2991800823872038,0.2848900293706436
470,0.2966662941993379,0.2948303106692991
471,0.2988300325987722,0.2953703956709382
472,0.2984128641508085,0.29001795903330446
473,0.2979148595715217,0.28454256422329627
474,0.2997490784390081,0.29412980343567263
475,0.29877651052818976,0.2939080661243591
476,0.3002822916689727,0.2849529321116543
477,0.29831654954252007,0.28525577687850223
478,0.29739998226805175,0.2901569885725851
479,0.2989310056662007,0.2815161572729591
480,0.2985856043134662,0.28535757702499653
481,0.29762597079519076,0.2771863825295794
482,0.2986455683668645,0.2932330020295416
483,0.29813832959396946,0.2857737279281714
484,0.2979547881739412,0.2975676590378301
485,0.29999821730178416,0.2958137656914125
486,0.2987312810788814,0.28722304933731635
487,0.29862200855303533,0.28186091026783744
488,0.297493788055617,0.2904400623682078
489,0.299921826278563,0.2869826638755031
490,0.298747041576105,0.2893569819458658
491,0.2980411525467317,0.2847507387611371
492,0.29739742400906355,0.2849340517170898
493,0.29862469918340995,0.29192957731335767
494,0.29808262221628334,0.28249828469216964
495,0.2971922946657589,0.28997554043756285
496,0.29935543614921334,0.29252523379054896
497,0.29925929176078425,0.2907392039671599
498,0.3006526233016444,0.28269258436718225
499,0.2984695355955074,0.2927334295099141
500,0.300106581738241,0.28616904292693734
