epoch,loss,val_loss
0,0.6675365389982859,0.6666790167888006
1,0.6667569622993469,0.66675539513429
2,0.6667233290804757,0.6666830864350001
3,0.6667098270787133,0.6666940559943517
4,0.6667027605639564,0.6667298656304678
5,0.6667075454923842,0.6666800922552745
6,0.6666959507995182,0.666677508632342
7,0.6666965348853006,0.6666830157836279
8,0.6666958474848006,0.6666831567684809
9,0.6666938965585497,0.6666776039600373
10,0.6666947266128328,0.6666793915828069
11,0.6666934745709101,0.6666910465161006
12,0.6666940674781799,0.6666797807614009
13,0.6666930514706506,0.6667210992177327
14,0.6666922423707115,0.6666777035792668
15,0.6666913301282459,0.6666847741603852
16,0.666690712094307,0.6666787218252818
17,0.6666902298132579,0.6667113411823908
18,0.6666896434757444,0.666687642455101
19,0.6666899570094215,0.666680737376213
20,0.6666888308525085,0.6666813591321309
21,0.6666882406340705,0.6666859548886617
22,0.6666878357728322,0.6666774883667628
23,0.6666874296930101,0.6666788216431936
24,0.6666867070727878,0.6666798695325852
25,0.6666864558855693,0.6666893959442775
26,0.6666865642070771,0.6666801205476125
27,0.6666860806677076,0.6666874354283014
28,0.666686688847012,0.6666791604359945
29,0.6666860356993145,0.6666776799758275
30,0.6666863177484936,0.6666829392910004
31,0.6666864009565777,0.6667019879023234
32,0.6666865361531575,0.6666777069568635
33,0.6666863942808575,0.6666820550759633
34,0.6666858407656352,0.6666820789178213
35,0.6666857967111799,0.6666873095035553
36,0.6666853270928065,0.666679736773173
37,0.6666854309373432,0.6666818764209748
38,0.6666848520172967,0.6666822037299474
39,0.6666852340035968,0.6666792072455088
40,0.6666848313940896,0.6666794493595759
41,0.6666844347582923,0.6666848522822062
42,0.6666841963794496,0.666679757475853
