epoch,loss,val_loss
0,0.3377319700254334,0.33561047619581225
1,0.33601127602656683,0.3355804504553477
2,0.3358150981333521,0.33544036012887957
3,0.3357196710970667,0.33547628557682035
4,0.33566818512810603,0.3355087240139643
5,0.33563937393161986,0.33546901440620425
6,0.3355714396900601,0.3356064939300219
7,0.3355605464643902,0.33535376727581023
8,0.33555170982413823,0.3353662214279175
9,0.33553669650024837,0.33556080494324364
10,0.3355382079217169,0.33541896746555966
11,0.33553985251320734,0.33557693658272425
12,0.3355271779431237,0.3357228128115336
13,0.335514816655053,0.33539061137040455
14,0.3354987607598305,0.3353518560131391
15,0.3354984376033147,0.33533404445648196
16,0.33551399462752873,0.33534688729047774
17,0.3354799285994636,0.3355100182493528
18,0.3354846880899535,0.33535807925462724
19,0.3354921083582772,0.3353547202348709
20,0.3354780323372947,0.335625198841095
21,0.33547460723585554,0.33533411045869194
22,0.3354701348013348,0.33543947466214497
23,0.3354747764137056,0.33532938214143115
24,0.3354686545729637,0.3353253722389539
25,0.33546573137574726,0.3357724413474401
26,0.3354661410053571,0.3353290923635165
27,0.3354556992252668,0.33541926968097685
28,0.33547024174531304,0.3355249320864677
29,0.3354752726621098,0.3353371398647626
30,0.33545467821094727,0.3353838735818863
31,0.33547212650378544,0.33532866700490316
32,0.33546747599045434,0.33530070042610166
33,0.3354555614656872,0.3354468295375506
34,0.3354583031932513,0.3353653118014336
35,0.3354579151802593,0.33542506817976636
36,0.3354518445332845,0.33539570625623066
37,0.33545970112085344,0.3355016934076945
38,0.3354700147774484,0.3353283840417862
39,0.33546031232674917,0.3356724661986033
40,0.33546606318155925,0.33537591447432835
41,0.33546111228730946,0.33578958721955615
42,0.3354655084013939,0.33531684984763466
43,0.33545713653167086,0.33527581638097764
44,0.33547008018361196,0.3354869644244512
45,0.3354466059274144,0.33529931859175366
46,0.3354571692413754,0.3357278232177099
47,0.3354509062634574,0.33543549835681913
48,0.3354529793328709,0.33606157064437864
49,0.33545126209656395,0.3353993305961291
50,0.3354580807884534,0.335311164577802
51,0.33545782994561724,0.3353643523057302
52,0.33545719879203373,0.33529330160220466
53,0.3354580897092819,0.33528347861766816
54,0.3354563746783468,0.3354024991989136
55,0.33545693267716303,0.3353089310924212
56,0.33545144760608675,0.33529609723885856
57,0.3354456934332848,0.33528848326206206
58,0.33543786415126586,0.33620707907279335
59,0.33544246191448635,0.33577974094947177
60,0.3354444025158882,0.33541178570191066
61,0.33543616531292597,0.3353198416630427
62,0.33544091004133225,0.3355536980032921
63,0.33544437701172297,0.3352863474090894
