epoch,loss,val_loss
0,0.4483780733214484,0.4468378699819247
1,0.44662730100419784,0.44669401381413143
2,0.44649699966775047,0.44625821455319725
3,0.44641069239377973,0.4461569005250931
4,0.44636332634422515,0.4461402883529663
5,0.4463382387889756,0.4461577156186104
6,0.4463235318594509,0.4462571213245392
7,0.4462985961039861,0.44626993137598037
8,0.44628769985172484,0.4462806184887886
9,0.4462701017393006,0.44620348886648814
10,0.4462557226750586,0.4461263909737269
11,0.4462463566131062,0.44610556574662524
12,0.4462409999039438,0.44684593109289805
13,0.44622426068782806,0.4460776277979215
14,0.4462237480415238,0.44630042306582135
15,0.44621752609146964,0.446353034277757
16,0.446224828309483,0.44631029496590297
17,0.44621348417467543,0.4461714294354121
18,0.44622452425956727,0.4461243288119634
19,0.44621597850322725,0.4460855248570442
20,0.446213944375515,0.4460832305749257
21,0.4462039335237609,0.44619785563151043
22,0.4462168420420753,0.4460713233749072
23,0.4462227853602833,0.44610942935943604
24,0.4462132221725252,0.44614870287974673
25,0.44620809666315714,0.4470585514307022
26,0.44621396700541177,0.4460768123467763
27,0.4462085496849484,0.4460630927085876
28,0.44620894789033466,0.4461047161022822
29,0.44620730359024474,0.4460940234661102
30,0.4462069238556756,0.4460730529030164
31,0.4462008450693554,0.44608942065636314
32,0.4462029560009638,0.4462303948601087
33,0.4461986846791373,0.4460789199868838
34,0.4462026799850994,0.4460964557131131
35,0.44620452118582193,0.44612939526637396
36,0.44619642272922727,0.4461031937599182
37,0.44620471258958183,0.4460830418467522
38,0.446191926797231,0.4461395885745684
39,0.4461836172276073,0.4461062496304512
40,0.44619952784644235,0.44606904457012814
41,0.44619486082924736,0.44609697689612704
42,0.4461981924904717,0.44645345091819766
43,0.44619610620207256,0.4462936588128408
44,0.446198113322258,0.4462506145636241
45,0.4461965349449052,0.4460945904056231
46,0.44619093604220283,0.44606792012850444
47,0.4461983769337336,0.446087240199248
