epoch,loss,val_loss
0,0.5696631252100668,0.5569363461652177
1,0.5573065942231208,0.5576832241731631
2,0.5423621115850658,0.5212086777340605
3,0.5215914892735807,0.5215391228245172
4,0.521532492918934,0.521107725646869
5,0.5214680908040682,0.5226172771795242
6,0.5213912562463077,0.5218041014620499
7,0.5211806445703226,0.5208783573485073
8,0.5212996294949844,0.5211492943115695
9,0.5211267206151378,0.521205162902479
10,0.521053601264852,0.520794852098874
11,0.5210278865797854,0.5208225763062216
12,0.5073932042992612,0.503059197338336
13,0.5032935372255531,0.5052363589805743
14,0.5031392847957702,0.502944263265789
15,0.5031933726076067,0.502935934827052
16,0.5031112220347356,0.5029113398794384
17,0.503130952074337,0.50322687377047
18,0.5032192168142144,0.5039720028284114
19,0.5030680530675593,0.503434975101927
20,0.5030516260051517,0.5029896679325243
21,0.5030959194242512,0.5032132139191532
22,0.5030852645232518,0.5032220951488798
23,0.5030546115347027,0.502915554591745
24,0.5030576883087612,0.5029080451583117
25,0.503002379510241,0.5028517820056198
26,0.5030264103856236,0.5029300105129133
27,0.5030213564603968,0.5028606923652766
28,0.5030072879909292,0.502883166736556
29,0.5030024765617435,0.5047176063727858
30,0.502929905521386,0.5028609061965428
31,0.5030411258232227,0.5028690292962725
32,0.5029761308851937,0.5031863252145399
33,0.5029882219493577,0.5034886103770008
34,0.5030064577134897,0.5030188558579847
35,0.5029490133061161,0.5029964710683885
36,0.5029729901184185,0.5036823629464661
37,0.5029895157289038,0.5028310204022391
38,0.5029535433297121,0.5035069086111593
39,0.5029549352422483,0.5028154879337222
40,0.5029782341877848,0.5031469890291557
41,0.5029732092707071,0.5030735607341205
42,0.5028966545979591,0.5030158435838814
43,0.5029092422470172,0.5028610096178547
44,0.5029327660530066,0.5028292500839329
45,0.5029083934148665,0.5028076689246281
46,0.5029202418262725,0.5027528151586522
47,0.5029465569486825,0.5029021095035131
48,0.50286314715445,0.5040217675923835
49,0.5028742913099479,0.5028226448431132
50,0.5028942691584332,0.5028985002299654
51,0.5029494177556166,0.502815017439286
52,0.502866359128565,0.5029305716479179
53,0.502882806389093,0.5033446791477411
54,0.5028618033723433,0.5048911085474405
55,0.5028464258201402,0.5036035231130122
56,0.5028795040839461,0.5027710598979332
57,0.5028549294815445,0.5028367789479085
58,0.5028622268707074,0.5035272743291511
59,0.5028228897097595,0.5027643708357656
60,0.5029126218051035,0.5028041722529267
61,0.5028485773534029,0.5028653558331074
62,0.502866249093565,0.5027646847210889
63,0.5027997067149316,0.5028676523220308
64,0.5028586330637345,0.5028166862634512
65,0.5028311359926687,0.5027521565850367
66,0.5028335596838146,0.5040367754044891
67,0.5028159116304878,0.5028024375131613
68,0.5028332755095606,0.5028469870136651
69,0.5028534010756848,0.5028173688843484
70,0.5028012927544745,0.5027737399891778
71,0.5027953211179205,0.5028138483665535
72,0.5028434948704116,0.5028099514362676
73,0.5028054665394757,0.5027464499035617
74,0.5028185963582673,0.5029484145402866
75,0.5028127369380425,0.5029086544408238
76,0.5028118225290641,0.5031362540303845
77,0.502763237687078,0.5027397785035982
78,0.5028246194233641,0.502837231240109
79,0.5028347446453871,0.5027280627336399
80,0.5027892583229824,0.5027812753970637
81,0.502758889895538,0.5028757428186871
82,0.502755475009801,0.5034619608957193
83,0.5027692629730363,0.5027617192285314
84,0.5027813291742825,0.5037687453352806
85,0.5027455894431496,0.5045433574829162
86,0.5027764552517793,0.5029414494161729
87,0.5027623282464475,0.5027159802399894
88,0.5027847029536113,0.5029124555314153
89,0.5027481689913279,0.5028774404339393
90,0.5027384694645287,0.5028422448600793
91,0.502789948529436,0.5027203501001474
92,0.5027496084568414,0.502687681661573
93,0.5027347897230671,0.5031468781321145
94,0.5027607930212867,0.5038307107962519
95,0.5027306796342913,0.503600357162908
96,0.5027776385741782,0.5026915527021171
97,0.502690963224196,0.502945986993149
98,0.5027233799395552,0.5026679542077797
99,0.5026905916047593,0.5030379387683905
100,0.502698035325111,0.5031228480679588
101,0.5027223117419245,0.5031203124298256
102,0.5027206856096915,0.5028454316702209
103,0.5026897286850338,0.5027548066674763
104,0.5027250621425384,0.5026962013455559
105,0.5027153432421471,0.5032168660246049
106,0.5027012209016127,0.50267039390033
107,0.5026940560186706,0.5037754487982862
108,0.5027465251289122,0.5027069622552465
109,0.5026845847436208,0.5034305858112267
110,0.5027070815360402,0.5026637185719026
111,0.5026957787379029,0.5027124852730932
112,0.5027187141455097,0.5027517924873798
113,0.5027197201886701,0.5027327389610367
114,0.502695811659738,0.5027522489833544
115,0.5026731954490732,0.503309296903019
116,0.5026862935334071,0.502823995726425
117,0.5026899273243566,0.5026707369049948
118,0.5026991269639128,0.5028335755026813
119,0.5026857552943017,0.5026724847219918
120,0.5026946357143263,0.502721656520872
121,0.5027147285463933,0.5028201611962406
122,0.5027277704893838,0.5029172318552247
123,0.5026903505191699,0.5026301992661705
124,0.5026699677722114,0.5027029376234121
125,0.5026727957646122,0.5030785467171885
126,0.5026828339000659,0.5028066451838817
127,0.5026704184856577,0.5031933368025336
128,0.5027000616274861,0.5028459386008949
129,0.5026814795049805,0.5029141223754653
130,0.5026364895542785,0.5026623364197126
131,0.5026806356778863,0.5026914907043919
132,0.5026678445637558,0.5026757678165595
133,0.5026523994185838,0.5026785539551513
134,0.5026715471364633,0.5025977889520277
135,0.5026460789133627,0.5027504566614148
136,0.5026595446836813,0.5026428587145695
137,0.5026714522098155,0.5026430686385494
138,0.502639819020857,0.502734564447259
139,0.5026402982694782,0.5026417151609689
140,0.5026698150763415,0.5031225084940818
141,0.502658178791791,0.5026885997891151
142,0.5026264533799034,0.5026491041356281
143,0.5026402518177545,0.502664819579498
144,0.502704279856541,0.5027848926334276
145,0.5026552656837824,0.5028566235461652
146,0.5026515345999018,0.5027375264454955
147,0.5026332707410963,0.502677229840456
148,0.5026611902742182,0.502867013443679
149,0.5026293739877313,0.5027413841652646
150,0.5026172999788794,0.5028320548377255
151,0.5026543684910686,0.5026213964151223
152,0.5026210724162443,0.5026512121429958
153,0.5026352236166822,0.5026008505701786
154,0.5026313659987637,0.5025921619516598
155,0.5026518847745426,0.5028089235658691
156,0.5026058284926934,0.502607870735142
157,0.5026408334335446,0.5027608849858703
158,0.5026022379344187,0.5027672927234329
159,0.502618787680712,0.5026023110057474
160,0.5026103918630955,0.5026791253189864
161,0.5026554163606874,0.5027250717854834
162,0.5026166830368507,0.5030951033817724
163,0.5026242189801315,0.5026328566655064
164,0.502615138030299,0.5026474326960166
165,0.5026449149786744,0.5025724665926752
166,0.5026325556223098,0.503564655367827
167,0.5026305702343294,0.5027158375340386
168,0.5025898578123645,0.5026717544724408
169,0.5026594261026711,0.5026365357301739
170,0.5026108156325373,0.5026234755784585
171,0.5025889828861513,0.5026476631306018
172,0.502637968223008,0.5025726671031662
173,0.5026056837978544,0.5026302945552446
174,0.5025997420476287,0.5026166546003796
175,0.5026223557239983,0.5026733752867536
176,0.5026018430361753,0.5026226757601536
177,0.5026210752315003,0.5029874805087707
178,0.502606405788181,0.5026402192315701
179,0.5026123988102327,0.5026705481693067
180,0.502625933014991,0.5027104344137567
181,0.5026504004315333,0.5026142484744884
182,0.5026318345002794,0.5026034795278596
183,0.5026607224052175,0.5027749261734943
184,0.5025841548972176,0.502649003435651
185,0.5026204910249406,0.5025843902323762
