epoch,loss,val_loss
0,0.6005203965209075,0.5926170201936058
1,0.5930316581068032,0.592268178339728
2,0.5675922388289737,0.5565985902458255
3,0.5475631821702504,0.5395408410927737
4,0.5390064321652648,0.5387447772027756
5,0.5386710403206523,0.5383589785101994
6,0.5091691750769314,0.5047043118368438
7,0.5030012187593051,0.5026152693562449
8,0.5028606814349491,0.5025984498022462
9,0.5028113862702771,0.503552026923585
10,0.5028590534870596,0.5031851427574991
11,0.4869144487423902,0.48503097539198803
12,0.4849251445553051,0.48495644419924744
13,0.4848346748854844,0.4851916148440625
14,0.48486467291969565,0.48478098973158007
15,0.4847921926078096,0.48463410763296655
16,0.48477551881659386,0.4851599152906895
17,0.4847181005096363,0.48454383599607787
18,0.4846833402595682,0.48556831628375374
19,0.48472637684053216,0.4861513663829167
20,0.48469511057726994,0.48452735775252775
21,0.4846650565344304,0.48539210112358755
22,0.4845843684319779,0.48462078350118476
23,0.4845851257534846,0.4843955170432677
24,0.4846483664721929,0.48447802717911453
25,0.48454083823173927,0.4845942751375264
26,0.48454963960152186,0.4844067104493011
27,0.48456847204320463,0.48457515181476896
28,0.4844935218912938,0.48477917912798846
29,0.484518791906396,0.48465056494235736
30,0.4844949169515798,0.4845697026065112
31,0.48448178441989237,0.48477528621087723
32,0.48449046902079157,0.48447116618047154
33,0.4844536246850077,0.4843792220397918
34,0.4844603313377417,0.48519994133974526
35,0.4844264034327873,0.4843207819039539
36,0.48443009744183624,0.4847885967995181
37,0.48442645414127966,0.4843121736865841
38,0.4844246965356041,0.4844131495986914
39,0.48441814153043133,0.4845969139799002
40,0.48437393342954205,0.484402928217454
41,0.48440545242556227,0.4843320755122885
42,0.4843838755265053,0.4847350886594891
43,0.4844081857066244,0.4843383888820069
44,0.48440335050377387,0.48439085864749676
45,0.48435229263518687,0.48431547543341363
46,0.4843623296100886,0.48436762861342303
47,0.4843634589696497,0.48451329838384594
48,0.48434286865686105,0.4844837139694321
49,0.484350990303983,0.4846413288166858
50,0.4843248776611646,0.484340906000239
51,0.48432252079634575,0.48428376734542644
52,0.48433087882119796,0.48434747269763934
53,0.4842952963766094,0.4846473681045735
54,0.4843351646396921,0.48426145189162956
55,0.48431796370520697,0.4843804468045884
56,0.48435060217844916,0.48433286815664656
57,0.48430112437369244,0.4846181320210167
58,0.48430094445709265,0.484330978470218
59,0.48429895848107113,0.48426594764793673
60,0.4843627579130244,0.4847780931724454
61,0.48430419377005784,0.4842724916481341
62,0.48432730152314596,0.48427823257924907
63,0.4842984459209406,0.48424252094183073
64,0.4842984755298377,0.484278640864183
65,0.48432509043041805,0.48475175694645056
66,0.4842936319624013,0.4845869126561735
67,0.48429160121547976,0.4847122705264421
68,0.4842719659140423,0.4843519677021381
69,0.4842579690084099,0.48435593463532095
70,0.4843043760642359,0.4850867078685066
71,0.48426304183566626,0.48475878292998786
72,0.48428327340097843,0.4843041516945023
73,0.4842556414150527,0.48432987731437865
74,0.4843016134700621,0.4844760109823833
75,0.48423681198699275,0.48428074259236176
76,0.4842822743528962,0.4849305931808979
77,0.484242401500551,0.48432767406029226
78,0.4842700851147982,0.48431385403671406
79,0.4842605051276645,0.4846195185516969
80,0.4842504492853238,0.4842920468742586
81,0.4842723328602106,0.48498916367608585
82,0.48424591635117087,0.4842625333204386
83,0.48423337002735983,0.4844746546722852
