epoch,loss,val_loss
0,0.5495822052336441,0.5390824908620618
1,0.5395199627613901,0.538769148503258
2,0.5393721499995262,0.5391619686314597
3,0.538952369391417,0.5394887925782663
4,0.5388296560781222,0.5388589193139455
5,0.5387001322215236,0.5385974563762802
6,0.538534598804072,0.5389615717377242
7,0.5307161972270125,0.5213649392996277
8,0.520594151546901,0.5210927222609033
9,0.5197580601689737,0.502878762600286
10,0.502735206277886,0.5037549016509139
11,0.5026034964131397,0.5024991948643974
12,0.5026159993941508,0.5027150483363516
13,0.5025610051771905,0.5024583927690083
14,0.502582013060634,0.5048596663402185
15,0.502519632706178,0.5027499126697608
16,0.502457868847602,0.5025243503434511
17,0.5024983919937235,0.502250561675629
18,0.5023999314471153,0.503026148452918
19,0.5023763114409769,0.5022619343668006
20,0.5024622514599335,0.5027478484578827
21,0.5023773578253153,0.5022357664770715
22,0.5023632963756334,0.5023676128831336
23,0.5023330305581983,0.5024922676060165
24,0.5023116115951429,0.5027154613756799
25,0.5023190964331978,0.5022069329922355
26,0.5022863588577213,0.5022820773483021
27,0.50227848759684,0.5022090278588385
28,0.5022635691177275,0.502709924751159
29,0.5022057169740349,0.5032022560144703
30,0.502261847487042,0.5026087502027875
31,0.5022027609256074,0.5025609682224258
32,0.502185916366668,0.5021065924959256
33,0.5021990418820994,0.5021182852563097
34,0.5022119958899904,0.5021330304543107
35,0.5021659452880686,0.5021943205901034
36,0.5021937536143437,0.5020959881424035
37,0.5021527859217959,0.5021131707987071
38,0.5021726596524014,0.502162000418853
39,0.5021348099207967,0.502542339129015
40,0.50213026520676,0.502728599302509
41,0.502160029895924,0.5021253886496455
42,0.5021472057808941,0.5021098938668509
43,0.5021007773656899,0.502154570581816
44,0.5021321230596912,0.5025360225826412
45,0.5021235360870409,0.5020892396661905
46,0.5020958882021193,0.5023697216846651
47,0.5021422441421303,0.5020891184132525
48,0.5021191678065365,0.50224655156111
49,0.5020919959130669,0.5021058088785634
50,0.5020750127768933,0.5022326905745599
51,0.5020922335706515,0.5024257735050599
52,0.5020913718397152,0.502081118112433
53,0.5020917450799713,0.502141605634464
54,0.5021146386808856,0.5021592010653745
55,0.5020538725580646,0.5021633920374762
56,0.502077322811609,0.5020292593607324
57,0.5020846810732702,0.5020416230413329
58,0.5020437686071783,0.502429814835513
59,0.502041861821879,0.5020892767059928
60,0.5020444217804503,0.5023744067749305
61,0.5020627825382769,0.5020621690556981
62,0.5020274715039896,0.502126653731494
63,0.5020701762278308,0.5022196921452596
64,0.5020380969323368,0.5021376699172152
65,0.5020523845315034,0.502162469642627
66,0.5020430608484366,0.502079632591875
67,0.5020394950373066,0.5020612026959377
68,0.5020259937699139,0.502150526042941
69,0.5020144446241717,0.5021088911132081
70,0.5020255638249808,0.502078151582168
71,0.5020446628815701,0.5020680774230266
72,0.5020289078704625,0.5020450598436682
73,0.502005457348664,0.5021272171113351
74,0.5020408662462753,0.5023083507982913
75,0.5020241307425025,0.5023094954848988
76,0.502001469405854,0.5023004870830664
