epoch,loss,val_loss
0,0.5302513561399679,0.5212794729099961
1,0.5218132143546746,0.5209170673833391
2,0.5214873810848728,0.5207808823754084
3,0.5212873748099501,0.5211550924171878
4,0.5209669431607834,0.5205592749004022
5,0.5208974656773068,0.5206122453862047
6,0.5205704380640989,0.5206864889063236
7,0.520682755214514,0.5206826025648892
8,0.5205107695155541,0.5205144122875611
9,0.520475260587408,0.520277020869405
10,0.5204436320335977,0.5206881222472476
11,0.5203540486272548,0.5201126052634841
12,0.5203357919562469,0.5202051138217124
13,0.5202205458651851,0.5201967264983726
14,0.5202934243388372,0.5200000172145076
15,0.5202600718727697,0.5216107029943657
16,0.5202034113447628,0.5200450673664965
17,0.5201298670842494,0.5215240149477656
18,0.5195047542945905,0.5025176578399068
19,0.5024211917435295,0.5024100480759032
20,0.5023249165894964,0.5022882715722642
21,0.5023493667375353,0.5024648775086985
22,0.5023037501862458,0.5032957248121028
23,0.5023055336029054,0.5022122130171193
24,0.502303690416413,0.5021905315919802
25,0.5022833846781417,0.5023747270453313
26,0.5022990508900894,0.5029959630788294
27,0.5022515287140525,0.5026009559080727
28,0.502225376217149,0.5022776357063202
29,0.5022745380553076,0.5021783454334742
30,0.5022552601085433,0.5021401377549326
31,0.5022124696154013,0.5022666090164585
32,0.5022003012404115,0.5022030728687972
33,0.5021874294919281,0.5022396551374645
34,0.5022549200569643,0.5029298491705838
35,0.5021952547458227,0.5031958495793365
36,0.4926916993257037,0.48441824290506325
37,0.48441230814355907,0.48446739253088855
38,0.4843834494839631,0.4845396724967513
39,0.4844356800280858,0.4844042908649797
40,0.4843276561275088,0.4849884394780635
41,0.4844025226589753,0.4843642610674706
42,0.48437074067442004,0.4848198876496974
43,0.4843882141395202,0.4843555145438176
44,0.4843737299687052,0.48455301321067445
45,0.4843735553818904,0.4843399267061965
46,0.48434031328402277,0.4845677294481667
47,0.4843478827767119,0.48442047105883385
48,0.48432252311956725,0.4847008578094121
49,0.48436753081880635,0.4850914193250121
50,0.4843216414644121,0.48465930121600215
51,0.4843052310443465,0.484467524113251
52,0.48430953409745936,0.4861029303821456
53,0.4843676937436279,0.48453305007552017
54,0.4843303343360082,0.4843385353893555
55,0.48433077687052883,0.4843575186110195
56,0.48427740988634926,0.48441745307204526
57,0.4842901990351657,0.4848786525085481
58,0.4842876053747049,0.4843047914305511
59,0.4842854313998705,0.48492031573169203
60,0.4842521001315228,0.4843425647649953
61,0.48426677062809237,0.4844356234617059
62,0.4842797389551039,0.484670624774903
63,0.4842424362112171,0.48457469192506747
64,0.4842551977510412,0.48439552454546897
65,0.4842051025686958,0.48426648707579584
66,0.4842427579643381,0.4845842761909968
67,0.48422483368131364,0.48422401581739827
68,0.48424872072521175,0.4843098040022251
69,0.4842079385395377,0.4843118612519334
70,0.4842417647592533,0.48441739682406637
71,0.48421565746033857,0.48429087259181125
72,0.4841984258785307,0.4842811753322481
73,0.48421769507244683,0.48422431547659966
74,0.4841886508650332,0.48459263088479093
75,0.48421648515336174,0.4842770511599158
76,0.48420348357555104,0.4842428327570336
77,0.48417379891858003,0.48431365615755273
78,0.48420099834903696,0.48462934694889065
79,0.48419577356431526,0.48439252823405926
80,0.48415878262697054,0.4842678448524499
81,0.4841654615577632,0.4843149831100602
82,0.4841686886289354,0.48420717482097536
83,0.48417208703610654,0.48443632650320306
84,0.48418184571504835,0.4852839295892483
85,0.4841664198876997,0.48448243072240893
86,0.4841992340680704,0.48424597469691716
87,0.4841515749575026,0.48431159609120994
88,0.48415538235966915,0.4843765281565682
89,0.48414705463482116,0.48443670135913297
90,0.4841935523139348,0.48437849315090825
