epoch,loss,val_loss
0,0.6844717262043502,0.6811416834873424
1,0.6718876574530054,0.6630280958142791
2,0.6633416600160942,0.6629453912512365
3,0.6632037064246803,0.663277906631572
4,0.6629435874726982,0.6627872492856636
5,0.6629641002932365,0.6636882612518443
6,0.6627444613309418,0.6625518947283823
7,0.6626923795386481,0.6629695028601372
8,0.6512704369940892,0.6446393245828154
9,0.644884496754308,0.6475511904316826
10,0.6447087004129547,0.6454383265190681
11,0.644696808582508,0.6453225929564704
12,0.64464024160317,0.6451805127007983
13,0.6446607993661497,0.6444991917545788
14,0.6446584471633044,0.6448069848034178
15,0.6445737557117865,0.6448430821979887
16,0.6445560088195379,0.6444325183737785
17,0.6445189107895168,0.6447580726008196
18,0.6445455483858042,0.6444192465191562
19,0.6444961367226207,0.6453614549413205
20,0.6445155587218262,0.6454957966843471
21,0.6444730956906758,0.6445575198497796
22,0.6444607137826142,0.6444752532098661
23,0.6444663626332691,0.6444034479951579
24,0.6444456834711993,0.6448719744297725
25,0.6444141324046979,0.644390460451197
26,0.6444587241830448,0.6444819205013552
27,0.6443993955858367,0.6444539163883085
28,0.6444073425861396,0.6443775602440827
29,0.6444049371278,0.6444761412333035
30,0.6443920328909238,0.6446543084958832
31,0.6443987326932958,0.6445521105561974
32,0.6444198368375982,0.6443523279640895
33,0.6443746750108594,0.6443580780386776
34,0.6443992039550047,0.6447119972785893
35,0.6443679645700954,0.6443164474186073
36,0.644327959174115,0.6444533317884091
37,0.6364666783160488,0.6266491074061432
38,0.6265556980693465,0.6264958405160083
39,0.6265395651545973,0.626513485682754
40,0.626563405568171,0.6267380918251895
41,0.609494975485326,0.5914235691720119
42,0.590973248110035,0.5909929534727779
43,0.5909770364096874,0.5916981852526859
44,0.5909322897188446,0.5912017635054732
45,0.5909696412927393,0.5910314182274548
46,0.5909522845435775,0.5911040497114188
47,0.5909366584624401,0.5909129756025151
48,0.5909124737207527,0.5909823365502892
49,0.5909513082554422,0.5909834850171167
50,0.5909251641548914,0.5909295592369036
51,0.5909271467304394,0.5909948309926162
52,0.5909240069336145,0.591119309305234
53,0.5909335599386232,0.5910355553658357
54,0.5909097354127504,0.5910103116181165
55,0.590897202546823,0.5908891577495311
56,0.5908826390186858,0.5909633658287643
57,0.5908890015564974,0.5912259058855761
58,0.5908934811723281,0.5909595404049922
59,0.5908743506269453,0.5909866232244302
60,0.5909074378419663,0.590921101042381
61,0.5909008682656555,0.5913100957785773
62,0.5908700122497116,0.5909111271278963
63,0.5908806977147338,0.5909429843545616
64,0.5908933221724872,0.590874040416935
65,0.5908632337190026,0.5909432808106355
66,0.5908669875607123,0.5909288645129492
67,0.5908761919031862,0.5910779230229107
68,0.5908532737047846,0.5910825801374306
69,0.5908657017878446,0.5911863218893016
70,0.5908676806205423,0.590997429242628
71,0.5908819432000744,0.5909211843025199
72,0.5908688527736885,0.5909037980226031
73,0.5908392455637883,0.5909535914294185
74,0.5908603453214305,0.5909787380985477
75,0.5908625862934274,0.590894325860844
76,0.5908413153854464,0.5908805308640162
77,0.5908554942922951,0.5910553143532286
78,0.5908548016362581,0.5910624627809495
79,0.5908372757698411,0.5909035224265666
80,0.5908319162650967,0.5909109028666115
81,0.5908277320478355,0.590860978030972
82,0.5908261417515238,0.5908994206761272
83,0.5908360828439462,0.5910226626768059
84,0.5908577777147943,0.5909752505332586
85,0.5908365887316094,0.5912679150147302
86,0.5908446457146734,0.5909157124923589
87,0.5908475585770178,0.591080610060442
88,0.5908246342850129,0.59088536439939
89,0.5908298793991583,0.5908963245700871
90,0.5908157633230625,0.590866091747355
91,0.5908380381634678,0.5909389985414567
92,0.5908274283065641,0.5910995423550249
93,0.590833576423242,0.590871312104061
94,0.5908582188346276,0.5911111936812334
95,0.5908439547062813,0.5912650626534615
96,0.5908123718206103,0.5909322234872265
97,0.5908325174648464,0.5912616764764249
98,0.5908196471028132,0.5909249409622908
99,0.5908276273256781,0.5910367764192399
100,0.5908174641047587,0.5909921038127491
101,0.5908563451024667,0.5911437403162497
