epoch,loss,val_loss
0,0.6018750969188438,0.5926822707398489
1,0.5929584398032347,0.5923984693388127
2,0.5924985538617934,0.5927559808359877
3,0.5923438701796916,0.5918699294662239
4,0.5922455769219753,0.5931546948883245
5,0.5922562027004646,0.5921075192241564
6,0.5920746645937143,0.5921750005025553
7,0.5920411039836585,0.5925103143257281
8,0.59194906316522,0.5924075579723724
9,0.5919393666711037,0.5931658019793353
10,0.5918250899669879,0.5915980019690533
11,0.5889498490714805,0.5579544843715045
12,0.556247271782869,0.5563289145420364
13,0.5562278782171841,0.5561112248997088
14,0.5526503033382397,0.5394715298914236
15,0.5383973778710258,0.5390506369920623
16,0.538422617469645,0.5385116984861573
17,0.5384303036450939,0.539342153165539
18,0.5383373739540536,0.53860802018509
19,0.5383040209472424,0.5381559191238904
20,0.5383731997029753,0.5383060985802546
21,0.5383360321866762,0.5382121467933411
22,0.5383172884410873,0.5382604953196104
23,0.5322553668310853,0.5203227324222328
24,0.5205540144184011,0.5207776044905557
25,0.5204919787238469,0.5203645366571115
26,0.5204435886752671,0.5205684972817446
27,0.5204391744273084,0.5203545390659549
28,0.5204967372985075,0.5203918118971579
29,0.5204698050420553,0.5203068038565499
30,0.5203962760409635,0.5202935850944289
31,0.520421471806866,0.5203480786594452
32,0.5203781973283006,0.5203626745228743
33,0.5204217274600639,0.5203448870949093
34,0.5203665486377048,0.520497253551473
35,0.5203815753079235,0.5202837832699577
36,0.5204036076692301,0.5208000129038793
37,0.5203848438243512,0.5202578140482595
38,0.5203325890702978,0.5204207409357894
39,0.5203424651252243,0.5205263986344404
40,0.5204010273233488,0.5204263362966691
41,0.5203691399565898,0.5204484333765826
42,0.5203739420519454,0.522205242172061
43,0.5203732981066138,0.5202931453606061
44,0.5203390717421696,0.5207867307780711
45,0.5203625855987566,0.5203421085802906
46,0.5203811566000127,0.5205239895436709
47,0.5202889390924945,0.5212216919619271
48,0.5203293507282185,0.5205081068383036
49,0.5203136786132692,0.5202588822939486
50,0.5202848643581947,0.5207119078889455
51,0.5202921285290312,0.5203861410801227
52,0.5203120360243543,0.5205546501348234
53,0.5202935277437258,0.5202252567290921
54,0.5202946163950243,0.5217221332900921
55,0.520280474689369,0.5201900586350855
56,0.5202508556424045,0.5206125134853343
57,0.5202987328442454,0.5202389210594931
58,0.520230335228864,0.5203739912943214
59,0.5202897634132816,0.5203130850255712
60,0.5202572347809082,0.5202094119635796
61,0.5202564214938351,0.5202574074151863
62,0.5202505349855956,0.5205559932035628
63,0.5202414737129057,0.5202060639805302
64,0.5202919244766235,0.5221419797144429
65,0.5202349956677108,0.5201716576573014
66,0.5202200837269385,0.5207127345923442
67,0.5202428089038226,0.5202630244090897
68,0.5202092128206943,0.5202078420922311
69,0.5202453501481421,0.5203661401162967
70,0.5202509880469711,0.5207808518265721
71,0.5202482867580318,0.5201513392502979
72,0.5202398721442754,0.5201945649643609
73,0.5202087453653697,0.5202835900022412
74,0.5202235299151029,0.5202200352711457
75,0.5202072051337406,0.5201441376877204
76,0.5202249458956776,0.5201342912418293
77,0.5202170213270632,0.5202264904361737
78,0.5202517156522791,0.5201347479813475
79,0.5201927921017898,0.5201438659036703
80,0.5201827664415628,0.5201410789391482
81,0.5202133632068804,0.5201596156130635
82,0.5202113429303391,0.5202117076689279
83,0.5202219531190309,0.5203596598556907
84,0.520191286435405,0.5201701457069703
85,0.520230579215833,0.5209175351882069
86,0.5201913650677352,0.5202706333565488
87,0.5201925467015454,0.5202041568436744
88,0.5201601526141237,0.5201577975390372
89,0.5201982741111135,0.5202757366958574
90,0.5201771949200882,0.520141876343195
91,0.5202085242096465,0.5201616310950472
92,0.5202279514581608,0.5207561160790007
93,0.5201928307332011,0.5203597360742434
94,0.5201870362064621,0.5201509617153885
95,0.5201855730668201,0.5201405547062908
96,0.5201528607651136,0.520390241909332
