epoch,loss,val_loss
0,0.4467601344320509,0.44473974535862604
1,0.44490102709001966,0.4454486129283905
2,0.44478296566009523,0.4447150481740634
3,0.4447386911776331,0.44472111348311105
4,0.4447097148365445,0.44464136904478074
5,0.4446904739605056,0.4446716613173485
6,0.4446770244969262,0.44463070066769916
7,0.4446722047130267,0.44461213701963426
8,0.44466872261630164,0.44484475574890775
9,0.4446626637180646,0.44466134574015936
10,0.4446596909297837,0.44461714766422905
11,0.444656201713615,0.44464282097419106
12,0.4446560457878643,0.4448726059794426
13,0.44464983534150654,0.4447410816947619
14,0.4446481511659092,0.4446297394831975
15,0.4446485014491611,0.4447070957819621
16,0.4446438092125787,0.44463857648770017
17,0.44464023549689186,0.4446126729249954
18,0.4446391985548867,0.44459399455785753
19,0.4446354116201401,0.44461710852384567
20,0.44463694167137147,0.44467293373743694
21,0.4446340390311347,0.4447125456929207
22,0.44463014419211283,0.4445953925251961
23,0.44463187074661253,0.4446033037106196
24,0.44462946877214643,0.44459272223711016
25,0.44463194420602586,0.444676717042923
26,0.44462828038136165,0.44461289527018866
27,0.44462762471702366,0.44459721531470614
28,0.4446280479033788,0.4447599526445071
29,0.444626786576377,0.4446046714782715
30,0.44462828306357066,0.4446336483955383
31,0.4446261760460006,0.4446003642082214
32,0.4446248859365781,0.4445951955119769
33,0.444626009007295,0.4445972021818161
34,0.4446261032157474,0.44459988923867544
35,0.4446258710225423,0.4446146172682444
36,0.4446263522704442,0.44460337003072103
37,0.44462592574622894,0.4446347070535024
38,0.4446249654028151,0.4447614502310753
39,0.44462493626938926,0.4445956598122915
40,0.44462398673428427,0.4445878013173739
41,0.44462406915426256,0.44463317823410037
42,0.4446243632303344,0.44462952216466267
43,0.44462362206644485,0.4445941544175148
44,0.4446240441666709,0.44459570735692977
45,0.4446248849630356,0.4446032817761103
46,0.4446224775181876,0.4445977915922801
47,0.4446217368510034,0.44459380555152894
48,0.44461847866243787,0.4445944915016492
49,0.4446220427486632,0.4446197209159533
50,0.4446226955718464,0.44460618642965954
51,0.4446218495832549,0.4447083945870399
52,0.4446212073895666,0.4446234482328097
53,0.4446193263000912,0.4446156395276388
54,0.4446215142409007,0.44459358463684717
55,0.4446190311974949,0.44460343321164447
56,0.444622005575233,0.44459986102581023
57,0.4446200162503454,0.44460298178593316
58,0.444621690498458,0.44470580051342645
59,0.44462233095036613,0.44459206638733545
60,0.444621305598153,0.44462285935878754
