epoch,loss,val_loss
0,0.225021896885501,0.22281548726558686
1,0.2228558486037784,0.2226379358371099
2,0.22275591887699234,0.22286345455050469
3,0.2227025793691476,0.2226549321015676
4,0.2226845777730147,0.22256842515865963
5,0.2226661436094178,0.22255170728762944
6,0.22264693427417012,0.22261323049664497
7,0.2226317565176222,0.2225209674636523
8,0.2226163691514068,0.22266119039058685
9,0.2226072105401092,0.22252890037496884
10,0.22259615126252175,0.22250351133942603
11,0.22258578102125062,0.22256247253219286
12,0.22258091167608898,0.22256997420390448
13,0.22257760448588265,0.22283576915661493
14,0.2225643650856283,0.22262604593237242
15,0.22254848341147104,0.22250556742151578
16,0.22254064942730797,0.22265420805414518
17,0.22253637124101322,0.222658198038737
18,0.2225311717821492,0.22246385875344277
19,0.22252815075384247,0.22255504194895426
20,0.2225231541428301,0.22247069718440374
21,0.2225141531460815,0.22249479253093402
22,0.22250519306461017,0.22247952514886857
23,0.2225028561386797,0.22246002958218256
24,0.2224978346394168,0.22254089107116062
25,0.22249287877149052,0.22253691018621127
26,0.22249491679006153,0.22250838720798494
27,0.22249234139588145,0.22247310878833135
28,0.22248347587386766,0.22250556565324464
29,0.22248154498471154,0.2226414670844873
30,0.2224789949754874,0.22257145839929582
31,0.22247721697555647,0.222464562078317
32,0.22247704613871044,0.22252131169040998
33,0.2224727342526118,0.22243496708075206
34,0.22247277087635464,0.22244294652342797
35,0.2224719127284156,0.22242485724886257
36,0.22246179281340706,0.2224244312743346
37,0.22245361920528942,0.22241659812132517
38,0.22244896398981412,0.2225235381424427
39,0.22244952365756035,0.22240932548046113
40,0.22244799083802436,0.22253313810626665
41,0.22244842274652588,0.22240716283520062
42,0.22244466900494364,0.22244252754251162
43,0.22244491390056081,0.22241462034980455
44,0.22244416979286405,0.22243719507257143
45,0.2224449122051398,0.22242296348015467
46,0.22244178417656157,0.2225040755967299
47,0.2224446967376603,0.22266583090027173
48,0.22244096700019306,0.2225178913672765
49,0.22244091321693527,0.22240248953302702
50,0.22243599368466271,0.22239888736605645
51,0.22243350563446682,0.22240532485644024
52,0.22243126947349973,0.22239137577017148
53,0.2224258663389418,0.22241269027193386
54,0.22242445004317496,0.22250835965077082
55,0.22242710921168327,0.22245499733090401
56,0.22242451376385158,0.22239216177662213
57,0.2224254679977894,0.2223978520333767
58,0.22242540467778843,0.22245469027757644
59,0.22242445435126623,0.22246473505099615
60,0.2224222971300284,0.22239037707448006
61,0.2224257679581642,0.2224244019885858
62,0.22242093988921907,0.22240517753362657
63,0.22242258939478132,0.22240894121925037
64,0.2224220003121429,0.22239841038982072
65,0.22242344939377573,0.22239497551321982
66,0.22242039052645365,0.2223959388633569
67,0.22242088248001204,0.22238022235035895
68,0.22241991721259224,0.2224338901937008
69,0.2224252595073647,0.22238592306772867
70,0.22242202826009858,0.22246206500132878
71,0.22241827592584823,0.22246009778976442
72,0.22241969949007034,0.22237891919414202
73,0.2224193904598554,0.22239067126313844
74,0.22241981209980116,0.22245954866210618
75,0.22242042557398478,0.22244934192299842
76,0.2224193546275298,0.22240201226870218
77,0.2224192453523477,0.22238328661521276
78,0.22242074894242816,0.2223860518137614
79,0.2224205437898636,0.22239516854286193
80,0.22242010934154194,0.22241660553216935
81,0.22242183200187154,0.2224267101585865
82,0.2224171905418237,0.22242372995615006
83,0.22241988094647724,0.22241955918073655
84,0.2224200557768345,0.22240262144804002
85,0.22241887333658006,0.22239245160420737
86,0.22241988358563847,0.2224974765876929
87,0.22242043655117352,0.22245009595155715
88,0.22242944470710224,0.22241148274143538
89,0.2224175596402751,0.2223809784154097
90,0.22242023548152712,0.22254949432611465
91,0.2224186365670628,0.2224070931772391
92,0.22241846184598074,0.22248156050841014
