epoch,loss,val_loss
0,0.6682444898022546,0.6668719790379206
1,0.6669528711636861,0.6674031502803167
2,0.6669020096328523,0.6669628425439199
3,0.6668832604355283,0.6668318301041921
4,0.666869749572542,0.6668177226781845
5,0.6668548127015431,0.6668214013973872
6,0.6668464169767168,0.6669932357470194
7,0.6668431662188636,0.6668047790924708
8,0.666840722547637,0.6668256911436716
9,0.6668350254164802,0.6668141017357508
10,0.6668267329931259,0.6667958608468374
11,0.6668237094216877,0.6668982895215353
12,0.6668222548299365,0.6668168586095174
13,0.6668213330772188,0.6668011860847474
14,0.6668188325299157,0.6668064431746801
15,0.6668179970979691,0.6668055862188339
16,0.6668117893007066,0.6667913302580516
17,0.6668090957800548,0.6667890191078186
18,0.6668059966564178,0.6668266374667485
19,0.6668022556304931,0.6667743541797002
20,0.6668021321561601,0.6667828292051952
21,0.6668009725941552,0.6668317465782165
22,0.6667985967397689,0.6668135464986166
23,0.6667950171894498,0.6667832900683085
24,0.6667957039011849,0.6668711249828339
25,0.6667941372659472,0.6668114040692648
26,0.6667935240401162,0.6667751516103745
27,0.6667925328016281,0.666799174229304
28,0.6667903503576914,0.6667842177152634
29,0.6667890224589242,0.6667767649094264
30,0.666789721250534,0.66680226679643
31,0.6667884723742803,0.6667734876473744
32,0.6667878728840086,0.6667971733013789
33,0.6667885514365303,0.6667655542691548
34,0.6667874552541309,0.6668080797990164
35,0.6667880675262875,0.6667691464026769
36,0.6667865406804615,0.6667727557420731
37,0.6667889898485607,0.6667927558422089
38,0.6667852263980442,0.6667746239105861
39,0.6667861019240485,0.6668194431463877
40,0.6667851150300768,0.6667807933886846
41,0.6667844816313849,0.6667672542333603
42,0.6667846002181371,0.6667689711252849
43,0.6667843808333079,0.6667657406727473
44,0.6667834044032627,0.666774803241094
45,0.6667842644850414,0.666907339890798
46,0.6667823583682378,0.6667681136528651
47,0.6667828074296316,0.66676369424661
48,0.6667813062402937,0.6667710767189662
49,0.6667820327414407,0.6667636857827505
50,0.6667816549009747,0.6667653104464213
51,0.6667812200122409,0.6667758409976959
52,0.6667788761589262,0.6667928177118302
53,0.66677883040905,0.6667753817637762
54,0.6667808294693629,0.6667756942510605
55,0.6667786895169152,0.6667688490152359
56,0.6667776548200184,0.666762257496516
57,0.6667707237402598,0.6667620008786519
58,0.6667690239085091,0.6667573260863622
59,0.666767947157224,0.6667495347261428
60,0.6667673437595367,0.666769158522288
61,0.6667676549752554,0.6668106748263041
62,0.6667664774258931,0.6667527677615483
63,0.6667662530872557,0.6668242905139923
64,0.6667660569747289,0.6667607630888621
65,0.6667652942736944,0.6667473570108414
66,0.6667662532197105,0.6667567195097606
67,0.6667681511243184,0.6667490557034811
68,0.6667651784949833,0.666758300503095
69,0.666766091717614,0.6667553699413935
70,0.6667665110694038,0.6667603499094645
71,0.6667649050421185,0.6667468437751134
72,0.666764075199763,0.6667471636533737
73,0.6667642716036902,0.6667580137650172
74,0.6667654386493895,0.6667487834294638
75,0.6667652819686466,0.6667470369338989
76,0.6667650672859615,0.6667501220703125
77,0.6667647792895635,0.6667712364594142
78,0.6667650986512502,0.666763492623965
79,0.6667642524109947,0.6667739378213883
80,0.6667637310292985,0.6667476963202159
81,0.6667637810574637,0.6667784459988276
82,0.6667628615829679,0.6667570441961288
83,0.6667631716463301,0.6667556039094925
84,0.6667647232744429,0.6668135423262914
85,0.6667643370098538,0.6667455017566681
86,0.6667637781964408,0.6667481462160746
87,0.6667631313138538,0.6667486380338669
88,0.6667632489204407,0.6667498789230982
89,0.6667638936572605,0.6667529393434525
90,0.6667630555497276,0.6668394023577372
91,0.666764889465438,0.666746421734492
92,0.6667640266286002,0.6667668690681458
93,0.6667627202669779,0.6667839412291845
94,0.6667636572784847,0.6667592597007751
95,0.6667645882765452,0.6667485089302063
96,0.6667628909879261,0.6667521001497905
97,0.666764328347312,0.6667610778808594
98,0.6667628857029809,0.6667520813147227
99,0.6667635083198548,0.6667541302045187
100,0.6667625249889162,0.6667503346204757
101,0.6667628102037642,0.6667447830835979
102,0.6667632096211116,0.6667723621924718
103,0.6667663592100144,0.6667692807515462
104,0.6667639441755083,0.6667633376121521
105,0.6667631644540363,0.6667493200699488
106,0.6667702610360251,0.6667702072064082
107,0.6667629997200436,0.6668084312280019
108,0.6667634204890993,0.6667914288838704
109,0.666762663880984,0.6667515738010407
110,0.6667633441951539,0.6667924210627874
111,0.666762724492285,0.6667593133449554
112,0.6667645729515288,0.6667652985254924
113,0.6667630840142568,0.6667748008966445
114,0.6667623708645503,0.6667707998752594
115,0.6667632004155053,0.6667454030513763
116,0.6667633462614483,0.6667486163377762
117,0.6667627715799543,0.6667808397213618
118,0.6667625306844711,0.6667591809431712
119,0.6667627855671777,0.6667660138607026
120,0.6667622511254416,0.6667509946028392
121,0.666762526538637,0.6667443594137827
122,0.666762516617775,0.6667556023597717
123,0.6667630891005198,0.6667460905313491
124,0.6667641345924802,0.66675783542792
125,0.6667623370223575,0.6667555578549703
126,0.6667628167735206,0.6667676258484523
127,0.6667636240985658,0.6667585093180338
128,0.6667623949713177,0.6667502838373184
129,0.6667645134925843,0.6667594043413798
130,0.6667628228796852,0.6667472848892212
131,0.666763425734308,0.6667502359946569
132,0.666763288087315,0.6667467680772146
133,0.6667624428802066,0.6668139354387919
134,0.666761082927386,0.6667462416489919
135,0.6667629543940227,0.6667516377766927
136,0.6667618814441892,0.6667994203170141
137,0.6667622201972537,0.6667972519397736
138,0.6667628939019309,0.6667634152968724
139,0.6667630399333107,0.6667503561576208
140,0.6667625104586283,0.666750224073728
141,0.6667618961731593,0.6667828153769175
