epoch,loss,val_loss
0,0.5575594354338116,0.5563488463560741
1,0.5559646634128359,0.5558599888086319
2,0.5558912091652553,0.5557760418653488
3,0.5558624622821808,0.555782998085022
4,0.5558361958530215,0.5557988160053889
5,0.5558226785527335,0.5558417458931605
6,0.5558130658070246,0.5557564938863119
7,0.5558098170889748,0.5558211022218068
8,0.5558056203921636,0.5557645123004913
9,0.5557899537086487,0.5557534974018733
10,0.5557861887084113,0.555772897084554
11,0.5557809950245751,0.5557667353947957
12,0.5557795733345879,0.5557558492422104
13,0.5557757078939014,0.5557311367193858
14,0.5557693141831292,0.5557873535553615
15,0.5557660839955012,0.5557383764187495
16,0.5557596469190386,0.5557355283498764
17,0.5557491171227561,0.555734427968661
18,0.5557413796318902,0.5557134625911713
19,0.5557358608643214,0.5557543657620748
20,0.5557372130023108,0.5557184726794561
21,0.5557207874059678,0.5557174253861109
22,0.5557202977604336,0.5556964627504348
23,0.5557149607075585,0.5557509006261826
24,0.5557144817908605,0.5556912097930908
25,0.5557147510714001,0.5557115962902704
26,0.5557113992770513,0.5557895059982936
27,0.5557071346574359,0.5558167661031087
28,0.5557058624558978,0.5556977700392405
29,0.5557053852213754,0.5556780499617259
30,0.5557049266497294,0.5557298181454341
31,0.5557028865814209,0.555700823823611
32,0.5557017056014802,0.5556974374850591
33,0.555703102045589,0.5556927125056584
34,0.5557004112137689,0.5557068681319555
35,0.555700091679891,0.5556901151339213
36,0.5556989462773005,0.5557278303305307
37,0.5556989593373405,0.5557689870993296
38,0.5556978360414505,0.5557138033310572
39,0.5556972653865814,0.5556740736961365
40,0.5556965997086631,0.5556819905042648
41,0.5556973998943965,0.5556777185201645
42,0.5556961914300919,0.5556781155268351
43,0.5556962719625896,0.5556837619543076
44,0.5556971063746347,0.555688472032547
45,0.5556945317586263,0.5556897543668747
46,0.5556932389073902,0.5557032192548116
47,0.5556927048630185,0.5556698291301727
48,0.5556922694047292,0.555676711320877
49,0.555692946685685,0.5556784849564235
50,0.5556931893825531,0.5556844336589177
51,0.5556916656096776,0.5556767557064692
52,0.5556912297540241,0.555702424009641
53,0.5556919375658035,0.5556701379617055
54,0.5556916662719514,0.5556950681606928
55,0.5556921186182234,0.5556983902851741
56,0.5556924147738351,0.5556899694999059
57,0.5556927324533463,0.5557943403720855
58,0.555692456510332,0.5556829233169556
59,0.5556896460321215,0.5557148030598958
60,0.5556918791135153,0.5556866750319799
61,0.5556914430989159,0.5557090670665105
62,0.5556907494068146,0.5556705192724863
63,0.5556929797596402,0.5556758360862732
64,0.5556952216625214,0.5557007439931234
65,0.5556906066205767,0.5556739791234334
66,0.5556905287636651,0.5556754457553228
67,0.5556901207367579,0.5556825959682464
