epoch,loss,val_loss
0,0.7786721539629831,0.778131718158722
1,0.777967309501436,0.7779246315161387
2,0.777934409432941,0.7779180578788122
3,0.7779158442550236,0.7779076622724533
4,0.7779056245883306,0.7778684696753819
5,0.7779003582000732,0.7779275460640589
6,0.7778926234907574,0.7778760474920273
7,0.7778880871401893,0.7778973930676778
8,0.7778833865854475,0.7778960683345795
9,0.7778813523451488,0.777860355814298
10,0.7778769284619226,0.7778558004299799
11,0.777874710838,0.7778589229186376
12,0.7778732389873928,0.7778726884126663
13,0.7778714216417737,0.7778510822852452
14,0.7778695523209042,0.7778531620899837
15,0.7778668557273017,0.7778487854003906
16,0.7778660231961144,0.7778601905902227
17,0.7778648985624314,0.7778501995007197
18,0.7778651152186924,0.7778597809473673
19,0.7778627157343758,0.7778516714572906
20,0.7778628904422125,0.7778713072141011
21,0.7778611802922355,0.7778841081062953
22,0.7778613611857096,0.7778459006945292
23,0.7778599259191089,0.7778568819761277
24,0.7778582435846328,0.7778441809415817
25,0.7778580960300233,0.7778561107317606
26,0.777856816093127,0.7778820053339005
27,0.7778571719063653,0.7778455046017965
28,0.7778557654089397,0.777844076514244
29,0.7778554408682717,0.7778820501963297
30,0.7778551983833313,0.7778458338181178
31,0.7778534666697184,0.7778555893500646
32,0.7778537796205944,0.7778433726231258
33,0.7778523458507326,0.7778826100428899
34,0.7778522455294927,0.7778493264913559
35,0.7778525684807036,0.7778507534662883
36,0.7778506699932947,0.7778453245957693
37,0.777850191394488,0.7778700125217438
38,0.7778491151332855,0.777839366475741
39,0.7778475140068266,0.7778370258013407
40,0.7778453063170115,0.7778508426348368
41,0.7778443140453762,0.7778489599227906
42,0.7778447234895495,0.7778366575638453
43,0.7778439475165473,0.7778302256266276
44,0.7778478098710379,0.777845844467481
45,0.7778423564963871,0.7778461354970932
46,0.777843457751804,0.7778341435591379
47,0.7778414128753874,0.7778294283548991
48,0.7778422915273242,0.7778501036564509
49,0.7778424186838998,0.7778384569485982
50,0.7778421090046564,0.7778371269702912
51,0.7778416976266437,0.7778311060667038
52,0.7778413811657163,0.7778320667743683
53,0.7778409281306796,0.7778314716418584
54,0.7778420816130108,0.7778508301575978
55,0.7778404131995307,0.7778641839822134
56,0.777841299255689,0.7778373221556346
57,0.7778409286737442,0.7778314417997996
58,0.777841589530309,0.7778506126006445
59,0.7778400959041384,0.7778416841824849
60,0.7778403737942378,0.7778568288882574
61,0.7778406891028087,0.777832332889239
62,0.7778401011228562,0.7778408818642298
63,0.7778405172162586,0.777831250389417
64,0.7778407346010208,0.7778296405076981
65,0.7778404266966714,0.7778343235254288
66,0.7778407934904098,0.777842459321022
67,0.7778402380943298,0.7778773990074793
