epoch,loss,val_loss
0,0.5575575134356816,0.5559144152402877
1,0.5559438548617893,0.5561628805796305
2,0.5558705679443148,0.5558019150495529
3,0.5107516166501576,0.44471342569589617
4,0.44478215026193196,0.44477520394325254
5,0.44476807401577634,0.44486598545312883
6,0.4447575063440535,0.44470274305343627
7,0.44475016534990736,0.4447978799144427
8,0.4447450617618031,0.4446786182721456
9,0.44473797826634515,0.4447449715733528
10,0.4447311424679226,0.4447793275117874
11,0.44472198054525586,0.44472530972957613
12,0.4447198432220353,0.4446739276051521
13,0.44472043418222,0.444755391617616
14,0.44471322657002343,0.44471439949671426
15,0.44471523910098604,0.44466271805763247
16,0.44471159048875175,0.4446792274514834
17,0.44470878299077354,0.44466646848122277
18,0.44470867939127817,0.4446787864168485
19,0.44470488592651153,0.44473178871472674
20,0.4447031866510709,0.4447227510412534
21,0.444700934946537,0.44475018163522084
22,0.44469793037573496,0.44466036423047384
23,0.4446945626537005,0.44467177232106525
24,0.44469203325774936,0.44470762884616855
25,0.4446900842189789,0.44466762653986613
26,0.44468775663110943,0.44466124461094536
27,0.44468582671880724,0.4446544008255005
28,0.444684690117836,0.44468441184361773
29,0.4446849323577351,0.44474166675408683
30,0.44468402804931007,0.44472310280799865
31,0.4446835578282674,0.44466163516044616
32,0.4446820672419336,0.44465676591793696
33,0.4446814821892314,0.44464306998252867
34,0.4446809669733047,0.4446470795273781
35,0.44468068887790047,0.4446610858440399
36,0.44467937447627387,0.4446445955038071
37,0.44467470646566815,0.44467116657892863
38,0.444678821656439,0.4446498949726423
39,0.4446813691390885,0.4446444663206736
40,0.44467737030982973,0.44469711383183796
41,0.4446803757283423,0.4446958876053492
42,0.44467697911130055,0.44468630170822143
43,0.44467672094371585,0.4449017461935679
44,0.4446754003829426,0.444678429265817
45,0.4446766163110733,0.44464807232220965
46,0.4446761132809851,0.444654771844546
47,0.44467474143372643,0.44465964724620183
48,0.4446748880280389,0.4447271078626315
49,0.4446763683292601,0.4446930845777194
50,0.4446760702729225,0.4446664549509684
51,0.4446733538442188,0.4447633753816287
52,0.4446740769015418,0.4446636617183685
53,0.4446748097671403,0.4447520273923874
