epoch,loss,val_loss
0,0.5575411387681961,0.5558562871217728
1,0.5559080785777833,0.5559297314882279
2,0.5558261167340809,0.5557186980247497
3,0.5558040515979131,0.5558517955938975
4,0.5557878850168652,0.5557513121366501
5,0.5557770542965995,0.5557185970942179
6,0.5557679722441567,0.5557304008404413
7,0.555759335067537,0.5557238724629084
8,0.5557571843332715,0.5557620215415955
9,0.5557544624937906,0.5557238725026449
10,0.5557440411382252,0.5557206228971482
11,0.5557424878809187,0.5558083269993465
12,0.5557290260659323,0.5557293011744817
13,0.5557214472558764,0.5557193375825882
14,0.5557197864585453,0.5556930307149887
15,0.5557146633201175,0.5556947687069576
16,0.5557124312321345,0.5556779608329138
17,0.5557155548996395,0.5556867734193802
18,0.555712085366249,0.5556877298752467
19,0.5557108595106337,0.5557032181421916
20,0.5557102483510971,0.5557220343351364
21,0.5557095961173375,0.5556755987803141
22,0.5557077774339252,0.5556724463303884
23,0.5557073431544833,0.5556920316616694
24,0.5557058069705963,0.5556979646682739
25,0.5557055790026982,0.5556876988808314
26,0.5557061568233702,0.5558707314729691
27,0.5557044534948137,0.5556825871864954
28,0.5557051982747184,0.5557444262107213
29,0.5557045121590296,0.5558528021971385
30,0.555705689628919,0.5556834956407547
31,0.5557051941686206,0.5556765173276266
32,0.5557031708690855,0.5556808867454529
33,0.5557057909170786,0.5556995883782705
34,0.5557025559610791,0.5556823616027832
35,0.5557030843893687,0.555671045700709
36,0.5557041406763924,0.5557290035883585
37,0.5557023633056217,0.5556808804273605
38,0.5557006570630604,0.5556712793111801
39,0.5557009517086877,0.5556700490713119
40,0.5557013070980708,0.5556933317979177
41,0.5556998684273826,0.555745922644933
42,0.5556987821393543,0.5557064893245697
43,0.5556981199582418,0.5556741988261541
44,0.5556984133190579,0.5556769486268361
45,0.555698802696334,0.5556891387303671
46,0.5556988085243437,0.5558062675793966
47,0.5556975746817059,0.5556780710220337
48,0.5556978338691924,0.5556811598539353
49,0.5556954401863946,0.5557153917153677
50,0.5556945570309957,0.5557290553649267
51,0.5556943212615119,0.5556882625420888
52,0.5556950436035792,0.555679304321607
53,0.5556946427557203,0.5557347486813863
54,0.5556960255967246,0.5556807867685953
55,0.5556943849987453,0.5556970471143723
56,0.555694580131107,0.5556897965669632
57,0.555694239589903,0.5556879502137502
58,0.5556938191652298,0.5556714947621028
59,0.5556954316033257,0.5557632941404979
