epoch,loss,val_loss
0,0.3361961724029647,0.33372264285882314
1,0.33388139454523724,0.3347621592481931
2,0.33374996022383374,0.33374125051498416
3,0.33369154818190466,0.3336922948559125
4,0.33366379417975744,0.3336212017337481
5,0.3336449803445074,0.33358599225680036
6,0.33364051374461917,0.3336432182788849
7,0.33362873305214774,0.333690124352773
8,0.3336300432417128,0.3335693834622701
9,0.33362129263745416,0.33392106036345165
10,0.3336151031388177,0.33363034772872924
11,0.33361134388049446,0.3335509956876437
12,0.3336054762005806,0.3335595339934031
13,0.33361094894011817,0.33359209628899894
14,0.33360846614837647,0.33362169418732324
15,0.3336033210092121,0.3335861857533455
16,0.3336017611225446,0.33357554705937703
17,0.3336009888648987,0.33354842505852383
18,0.33359884541564516,0.3335599237680435
19,0.3335998725228839,0.3338378219803174
20,0.33359938047329585,0.33360934698581696
21,0.33359897060526744,0.3335641660094261
22,0.33359327789809967,0.33357791022459665
23,0.33359419025977455,0.3336266938646634
24,0.3335929684970114,0.3335894819696744
25,0.33359125162495507,0.3335451378027598
26,0.3335883411301507,0.3335461856126785
27,0.3335863672229979,0.33361985824505486
28,0.3335867458515697,0.33366937828063964
29,0.3335834969215923,0.3335718916455905
30,0.3335831002195676,0.333570782939593
31,0.3335866628156768,0.33355590550104774
32,0.33358230546447964,0.33354246270656585
33,0.33357972678211,0.3335384835799535
34,0.3335630863706271,0.3335331179300944
35,0.33355849821037714,0.3335518355369568
36,0.333558234333992,0.3335352360010147
37,0.33355454694562486,0.3335285037557284
38,0.33355753607882394,0.3335461570620537
39,0.3335587834517161,0.3335290144085884
40,0.33355596762895584,0.3335210151473681
41,0.3335552250146866,0.33355601821343106
42,0.33355574446254305,0.3335578844745954
43,0.3335565343035592,0.3335913616617521
44,0.3335560401082039,0.333527748366197
45,0.33355396300554274,0.33352648516496025
46,0.33355607335435017,0.3335214411020279
47,0.3335561907821231,0.33356517098347344
48,0.33355429448021784,0.33355451317628226
49,0.33355522788895503,0.33352943044900896
50,0.33355447969171736,0.3335920951763789
51,0.33355520692136553,0.3335259268681208
52,0.33355422994825573,0.3335322707692782
53,0.3335546248422729,0.3336382460395495
54,0.3335535424086783,0.3335219998160998
55,0.3335537080830998,0.33357743052641553
56,0.3335530566573143,0.33352364935477574
57,0.33355306930674444,0.3335958385666212
58,0.33355099270741145,0.3335216335256894
59,0.3335523636870914,0.3335429892142614
60,0.3335530237754186,0.3335990817944209
