epoch,loss,val_loss
0,0.6548594378506208,0.6465443980208848
1,0.6452573834684975,0.644582630866246
2,0.6444338097973183,0.6439867431347864
3,0.6440072109343065,0.6437654574549755
4,0.643898838200359,0.6474561565276847
5,0.6437915812480804,0.6434540868356101
6,0.6437308189259962,0.6434585190111588
7,0.643659563676138,0.6433742104065442
8,0.6375676124181815,0.6256386147953303
9,0.6257909109357673,0.6284463532463571
10,0.6257830320169381,0.6257164109598194
11,0.6257398123624474,0.6257565502989968
12,0.6257122331364517,0.6258387153388806
13,0.625700849877621,0.6255112132608499
14,0.6257071405784018,0.6257974188076622
15,0.6256866166987362,0.6254597427917429
16,0.625657987777582,0.6256086322718688
17,0.6256907317445649,0.6257655101297677
18,0.6256589013436779,0.6255339546300184
19,0.6256540218556083,0.6260281716936498
20,0.625634319560538,0.6257101592595719
21,0.6256282068703412,0.6257159952415118
22,0.6256584923875087,0.6259050179722254
23,0.6256668134991876,0.6257428540114421
24,0.6255831952503569,0.6258167081689047
25,0.6256266543413803,0.6257257017027869
26,0.62562631676621,0.625512736541252
27,0.6256020774249342,0.6258333138386931
28,0.6256012581685019,0.625447159456008
29,0.6255836126678244,0.6254498583106974
30,0.6112153115371805,0.6076153036459108
31,0.607757938941092,0.6076187695993541
32,0.6077948045769558,0.6077745628941438
33,0.6077458863304445,0.6077204139115311
34,0.6077065852524942,0.6078500098795847
35,0.6077581389118021,0.6076450378502172
36,0.6077223073671805,0.6083807370806275
37,0.6077398276765024,0.6076806385429445
38,0.6048640028441011,0.5901321564819403
39,0.5898797055387168,0.5898700428487649
40,0.5899081554694536,0.5901712853905574
41,0.5899060567850685,0.5898762733713097
42,0.5898832276540809,0.5898123227018809
43,0.5898648539381702,0.5898261282452048
44,0.5898530680158464,0.5899262048249813
45,0.5898651174003855,0.5897666162846461
46,0.5899095929301208,0.5898543529875602
47,0.5898512608954091,0.5900234965262393
48,0.589869278680511,0.590142277507338
49,0.5898940351436486,0.5897811170496002
50,0.589872063047739,0.5897662119811202
51,0.5898746524944929,0.5899555086030653
52,0.5898631747368089,0.5897362986769806
53,0.5898615003357839,0.5897878948357542
54,0.5898507207220507,0.5898375265931635
55,0.5898484924695327,0.5897892675638665
56,0.5898502681971833,0.5899070986826354
57,0.5898509831507818,0.5898163891385008
58,0.5898842735470907,0.5900913009128513
59,0.5898528274935905,0.5897974540802275
60,0.589837383717926,0.5898008885000713
61,0.589831037515376,0.5899976154779071
62,0.5898536385541547,0.5898185898512628
63,0.5898490606627358,0.5899613218507412
64,0.5898149349811074,0.5898586253985183
65,0.5898437977026348,0.5898444827696976
66,0.5898521201795858,0.5897654909121035
67,0.5898450638971903,0.5898754506387303
68,0.5898358356659846,0.5898249705660764
69,0.5898419873702079,0.5898277402072377
70,0.58983415186336,0.5897821656106145
71,0.589839199296838,0.5898223996988345
72,0.5898330271897742,0.5897727303721804
