epoch,loss,val_loss
0,0.5295676972516651,0.5043191823385011
1,0.4920361060038084,0.48553455654226624
2,0.4858852467533933,0.4907904698700904
3,0.47486230245752925,0.4665400212411242
4,0.4664563830113946,0.46559715503421384
5,0.46595200815928084,0.46559960488676705
6,0.46565538133978407,0.46518044837903205
7,0.46561479221374785,0.46543179121252953
8,0.4534775804457633,0.4473229415104558
9,0.44750408077605947,0.447516595222404
10,0.4461488496706041,0.42958357355208776
11,0.42975387176903845,0.42994979660323385
12,0.4296842109247208,0.4300570006448055
13,0.4297140943742017,0.42945364250512463
14,0.42968305597725015,0.42939999773185106
15,0.4295926096144734,0.4297525451860582
16,0.4296138637481032,0.4295009739351518
17,0.4296119075419312,0.42960655600822595
18,0.4295969465530181,0.42964414782328425
19,0.4295643535008392,0.42940255415060524
20,0.42960673838181085,0.4295021490805906
21,0.4295093105414066,0.4295149993983313
22,0.42957021972907017,0.4294942181314535
23,0.4295030371747809,0.42948035427003034
24,0.42955642016172824,0.42934215681911636
25,0.42950976606719005,0.42944435535177794
26,0.4295339767772843,0.42962916857989986
27,0.4294998761569403,0.4293762591999533
28,0.42948577362132223,0.42970856424334375
29,0.429508663471621,0.4294103624596649
30,0.4294528798902041,0.4294089659172257
31,0.42944427623709136,0.4294003628566265
32,0.42955871853727456,0.42973069716122503
33,0.42944142172565697,0.4292620932691621
34,0.4294722944220631,0.4294911189175855
35,0.42944577442483484,0.4293036924932879
36,0.42941156980379575,0.4293345870027578
37,0.42944585900393445,0.4298481840629056
38,0.4294543182721122,0.42936021462810847
39,0.42943042423595973,0.42950875629623103
40,0.4293776789863798,0.4292910072716245
41,0.42939921638572937,0.42949267560051946
42,0.42944636241165934,0.4295982730803724
43,0.4294128108460016,0.43021700175855954
44,0.4293756094950978,0.4296334942316031
45,0.4293937413446584,0.4295213615350051
46,0.4293854730952697,0.4295797932844726
47,0.42937268244493637,0.42935863766752397
48,0.4293661094116776,0.42924789103040223
49,0.4293736526091135,0.4294134946260386
50,0.42935255556577906,0.42948667068404356
51,0.4293725845590225,0.42937544198416544
52,0.4293530556895092,0.4292619151593864
53,0.42934353714456075,0.42930327492193127
54,0.42935935039362927,0.42926168397299286
55,0.4293868340174003,0.4292796920196776
56,0.4293614089302617,0.42928906609690576
57,0.4293376028687408,0.4295945333098196
58,0.4293204341783961,0.42934410445832893
59,0.42933524874293727,0.4292693401890848
60,0.4293451978653337,0.4293893751866823
61,0.4293351070278363,0.4292177659121727
62,0.4293290348934207,0.4293119209097342
63,0.42933784759340854,0.42966014085918913
64,0.4293480238917144,0.4293648344063382
65,0.42932027649511806,0.4293737147518957
66,0.4293459358774882,0.4293296526668126
67,0.42932166401746447,0.42937063202486936
68,0.42929089681197535,0.42948731213548635
69,0.42932994319750095,0.42921829919849797
70,0.4293232407274128,0.4292851187530981
71,0.4292976238661381,0.4292112249297981
72,0.4293125050974657,0.42930001590111727
73,0.4293285246529821,0.4291849489331902
74,0.42929133509890444,0.429233891636975
75,0.4293010589055217,0.42930864066886193
76,0.4292919770492728,0.42940101193204233
77,0.42930670673610516,0.4293033153236939
78,0.4293027428860412,0.4293580254466056
79,0.4293185571827125,0.4292490701466603
80,0.42930587156444056,0.43059214180327793
81,0.4293172574987528,0.42921171893677884
82,0.42928530933008885,0.4292498351541161
83,0.4292985439275124,0.4294342997866597
84,0.4292962317968851,0.42918703753119314
85,0.4292960667359139,0.4292269338297577
86,0.42929749065892714,0.4293057383388032
87,0.4292944239147475,0.4292193726591963
88,0.42928361406877935,0.4292270265775075
89,0.4293114279825046,0.4294514559443625
90,0.42930429172933215,0.4292456826989616
91,0.42930357657383716,0.42922452437896713
92,0.42929919032807473,0.4297041936366718
93,0.4292712615260684,0.4292977338289151
