epoch,loss,val_loss
0,0.4792886899589326,0.4519271366357761
1,0.4511877957420081,0.4515230373900829
2,0.4371060294109278,0.4322486700194622
3,0.4322322373496991,0.43127981761692474
4,0.4310549165202268,0.43009069831974023
5,0.4299998821320373,0.43076253447170093
6,0.42990715276043745,0.42974238590314007
7,0.42982624644176176,0.4296001325250413
8,0.4298204046020623,0.4294915892955443
9,0.4242494127809526,0.4123785727653903
10,0.4119203344513737,0.41170162691022133
11,0.4119105432896865,0.4118753827090457
12,0.4119386734679131,0.41205114772125384
13,0.41181476375200915,0.41151391477753413
14,0.4118259155252169,0.4115635761678441
15,0.4118398790395697,0.41173033166109596
16,0.41175708792042853,0.41201463154819723
17,0.4118079832962242,0.4121479073697878
18,0.41175770099677483,0.41151133930943623
19,0.4117255299781514,0.41144647510273247
20,0.41176661880577065,0.41213221182766424
21,0.41170490016918504,0.41152281798971635
22,0.4116512036263967,0.41189078560178755
23,0.4116979914886557,0.4115542235118624
24,0.4116605603230695,0.41180823117806953
25,0.37858284874780945,0.3763651934138495
26,0.3759842881864512,0.3759298799124338
27,0.3759447285715717,0.3766397836736092
28,0.37595485376323967,0.3759499997255285
29,0.37594691227767585,0.37600209924653316
30,0.37595824988389775,0.37613257900777813
31,0.3759618103560655,0.3757764287233395
32,0.3759418046472763,0.37590887510431326
33,0.37593592718272895,0.376142461466353
34,0.37593829821136326,0.37578500174336715
35,0.3759325933986717,0.37573570191468414
36,0.3759043610050516,0.3759393755761487
37,0.37591343328674764,0.375818111541153
38,0.3758995453494523,0.37688108566049194
39,0.37593056907784717,0.3759288114973232
40,0.37592870167718845,0.375793934524917
41,0.37588911297156585,0.3761248210540015
42,0.3758720741500807,0.37587402431933953
43,0.3758925622368869,0.3760042285957309
44,0.3758643751598521,0.37590885306891336
45,0.3758920252338681,0.3757594819866461
46,0.37586388287549444,0.375845903866582
47,0.3758488412938786,0.3761586064469816
48,0.3758658698744112,0.3758875607152374
49,0.3758604021806783,0.3758824574818173
50,0.37586161147289593,0.3759430720171214
51,0.37587804273277386,0.3758157432386392
52,0.3758678723381756,0.37571379551880735
53,0.3758544039502618,0.375747918701443
54,0.37583747380062243,0.3758012642814245
55,0.37583811250088084,0.375844475488761
56,0.3758347399174005,0.3757354736455191
57,0.3758655093077485,0.37604278849123807
58,0.375864983003126,0.37570941235375754
59,0.3758229256533271,0.3760618190556569
60,0.3758620749728848,0.37669527447547685
61,0.37584589708110344,0.3757527734145196
62,0.3758178519683636,0.37590505282542996
63,0.37585954111614156,0.37571626416127746
64,0.3758156896428156,0.37576366898792846
65,0.3758472623164773,0.37613900430165637
66,0.3758017564249374,0.37578383806565446
67,0.37581005282123847,0.3757961251570925
68,0.37582198299719405,0.37633291039887873
69,0.37579689033686514,0.3758322305833071
70,0.37583064001451455,0.3757783164773027
71,0.37582262448023557,0.37572698057131987
72,0.3758165189220675,0.3757156029828045
73,0.3758065914866016,0.3758240850616844
74,0.37582447878797737,0.37584142807025983
75,0.37578476748741635,0.37574557276258336
76,0.3758226066964019,0.3758141545932571
77,0.3757950189180426,0.3758859619045579
78,0.3758234842726832,0.3764344683536778
