epoch,loss,val_loss
0,0.48072314873515287,0.4675250081254441
1,0.46810411236486477,0.46957514387270677
2,0.46779468909086347,0.46698098945922634
3,0.4673802958619214,0.4686615653276486
4,0.46682873752784293,0.46714144284929765
5,0.4661278730331983,0.46570108901079943
6,0.46567856505183874,0.46647340946096705
7,0.4656835213495226,0.4661705435211821
8,0.46552476012774807,0.465232350799156
9,0.46545268751759034,0.4653801027560323
10,0.46538927413008396,0.46539741635936727
11,0.46536529045259495,0.4652593600419597
12,0.46545081945264977,0.4653571390209835
13,0.4653160410019478,0.4652447225484613
14,0.4653285850696009,0.46516503067778153
15,0.4652972760727577,0.46601355730756644
16,0.4653057286388191,0.4649780561327193
17,0.4652670033018945,0.4667038206923684
18,0.46524361511528495,0.4651298659439514
19,0.46523936448678466,0.4651980341740878
20,0.4651636503973743,0.46502359843864005
21,0.4652153772224562,0.4651067389288133
22,0.4652016794222411,0.46531085826444635
23,0.4652071650035796,0.46538690655899423
24,0.4651655628414228,0.46524318253237945
25,0.4651361790391681,0.4651347560449696
26,0.46524198102014136,0.4649713083765481
27,0.4651523466003436,0.46557341166850535
28,0.4651701670944525,0.46499226813440026
29,0.46186461164983683,0.44852231418309235
30,0.44732048973212757,0.4476469115923768
31,0.4472897586675224,0.44721783043478835
32,0.447293082377933,0.4478114066940998
33,0.4472906217474944,0.4482216989672148
34,0.4472716571222017,0.4471336726365959
35,0.4472966491957217,0.4471992026808673
36,0.44729925036023743,0.4473296341834218
37,0.4473018778708335,0.44733666435484987
38,0.4472332921359247,0.4471634899898583
39,0.44725718322975355,0.4470898689194881
40,0.4472414846233019,0.4470552335117528
41,0.4472373264937499,0.4473804644982204
42,0.4472331378037049,0.44732914207713986
43,0.4472474080545977,0.44727089174116963
44,0.4472236162190142,0.44712880513218667
45,0.44721562716635443,0.44758324808730476
46,0.44723674058518864,0.4472872028608775
47,0.44722686771895603,0.4471271186246396
48,0.44721176797138434,0.447376555909609
49,0.44720709050969826,0.44740231238539846
50,0.44722922604011217,0.44727116918496074
51,0.44718234354487296,0.44711759693352787
52,0.44720636218998727,0.4471099803885678
53,0.44721599793020184,0.44718328843660604
54,0.4472194681384013,0.447254560439111
55,0.44720344843958076,0.4470832381595365
56,0.4471904879554714,0.447172551436542
57,0.4471754522006165,0.4473392705994445
58,0.44717641018182275,0.44712535796866026
59,0.4471882329735522,0.4482663217213929
60,0.44718585727588506,0.44709705077091866
