epoch,loss,val_loss
0,0.6551544263344418,0.6454876146682479
1,0.6455171654919428,0.6473699085431617
2,0.6450710584580437,0.6453554444868752
3,0.6441242002378006,0.6439122228962126
4,0.643897331873222,0.6444421990829667
5,0.6264692186832055,0.6256497619757327
6,0.6259103108452557,0.6263331214876322
7,0.6258636447018737,0.6264343029081684
8,0.6259151053532563,0.6261633180305534
9,0.6257940407027135,0.6255624775544304
10,0.6257899517325931,0.6255429989704125
11,0.6257762505679071,0.6255524003880553
12,0.6257233640472574,0.6255721166494325
13,0.6257237793469295,0.6257541393551782
14,0.6256649890396537,0.6255825587605727
15,0.6256710008564335,0.6255568831994915
16,0.6256498425897526,0.6256386440311492
17,0.6256517573450218,0.6256189436001048
18,0.6256571079479665,0.6256102013490534
19,0.625621187975505,0.6255335076534212
20,0.6256407686300567,0.6255307240561537
21,0.621308354544787,0.6076428249285094
22,0.6078473509881402,0.607777825139263
23,0.6077880673616108,0.6079008729615841
24,0.6078045646811739,0.6077460323457587
25,0.6077704242427473,0.6077939018959219
26,0.607751188417521,0.60799817500815
27,0.607767403953115,0.6075990452798609
28,0.6001582911499843,0.5898481425732442
29,0.5899345815473988,0.5901580773655316
30,0.5899090797967736,0.5906179133179895
31,0.5899129424606926,0.5899462707090556
32,0.5899128815613689,0.5898282166314307
33,0.5899017890179561,0.5901378757535596
34,0.5899191438102749,0.5899993818465717
35,0.5898918895063281,0.5898041069391121
36,0.589899607588482,0.5898043749429421
37,0.5899246416861215,0.5897736632817591
38,0.5898865480409645,0.5899026472247881
39,0.5898810353546691,0.5899084855468643
40,0.5898914060051739,0.589809441337748
41,0.5898674190090994,0.5899083377900313
42,0.589894675292479,0.5899842285754139
43,0.5898730578778788,0.5898654618998534
44,0.5898858920100807,0.5897703295724814
45,0.5898692166404016,0.5898041541865673
46,0.5898683447073391,0.5898813153482242
47,0.5898740426343719,0.5899349419404397
48,0.5898709360841105,0.5899858855400655
49,0.5898634617234952,0.590204145985019
50,0.5898720014735446,0.5897708352960264
51,0.5898949812644948,0.5899456182981516
52,0.5898767445854752,0.5898927395329803
53,0.5898678442567624,0.5898741835026445
54,0.5898416836416434,0.5899244070603721
55,0.5898665027322255,0.5899703128868573
56,0.5898507739366009,0.5897712265858538
57,0.589852551924645,0.5898028342968237
58,0.5898520433883256,0.5898497424216312
59,0.5898543876169655,0.5897678089387507
60,0.5898507212345572,0.5898903054101658
61,0.5898581206576891,0.589818717997543
62,0.5898553103220543,0.5899456969627289
63,0.58938263115857,0.5721142201911579
64,0.5720262134162982,0.5720417571758203
65,0.5720153450118763,0.5719482399447813
66,0.5719950576758349,0.572076532869954
67,0.5720103509680196,0.5719779590493854
68,0.5719969624139319,0.5720930359761273
69,0.5719970225028459,0.5720545338004493
70,0.5720195772240281,0.5719388452192927
71,0.5719904898058237,0.5719291617146477
72,0.5719900881814621,0.5719202737186451
73,0.5719881441695559,0.5721405613674408
74,0.5719855490019307,0.5719640487929097
75,0.5719958277316453,0.5719544675236253
76,0.5720000849902569,0.5719415549593214
77,0.571989497447857,0.5719375722381611
78,0.5719932846547269,0.5723327675304525
79,0.5719788849846531,0.5719215100729396
80,0.5719822866144029,0.5719494174356506
81,0.5719873738610219,0.5720001758150869
82,0.5719920342956333,0.5720528871387502
83,0.5719938554019911,0.5722689359326582
84,0.5719906017369565,0.5720886297750312
85,0.5719741635547113,0.5720096358737888
86,0.5719693143892359,0.5719193463364467
87,0.571982875732836,0.5720304669718015
88,0.5719922157737541,0.5720720451770571
89,0.5719867809827961,0.5719134847400751
90,0.5719786570844576,0.5719844110695247
91,0.5719764629425639,0.5720180812346234
92,0.5719728994200648,0.5719434066105956
93,0.5719792217324712,0.572071456362795
94,0.5719869769226357,0.5719090482654527
95,0.5719642545525364,0.5721647686889697
96,0.5719762337547488,0.5719536724279481
97,0.5719841102423491,0.5719085106165207
98,0.571979384780125,0.5720348168931522
99,0.5719719527161189,0.5719906518844331
100,0.5719582198607429,0.5720310898503987
101,0.571986958610765,0.5719393020646995
102,0.5719504060245891,0.5719744925770884
103,0.5719721001880936,0.5720213697083277
104,0.5719586905788844,0.5719139236056121
105,0.5719807117695263,0.5720750796771595
106,0.5719788277180544,0.5719404101562364
107,0.5719581962120279,0.5719396182054481
108,0.571990067297176,0.5719708236459518
109,0.5719597657313551,0.5719640827195898
110,0.5719697215184536,0.5718862544285254
111,0.5719611911008226,0.5720779278134765
112,0.5719515513480917,0.5719259612237101
113,0.5719716900276048,0.5719345999052055
114,0.5719671510005547,0.571884320533642
115,0.5719659938879912,0.5719816158139318
116,0.5719632298148903,0.571900791015564
117,0.5719624639269013,0.5722370118268071
118,0.5719820482212372,0.571934264429214
119,0.5719603197805088,0.5719910960549845
120,0.5719570794928815,0.571970204367564
121,0.571948891522762,0.5720045569100162
122,0.5719771296513719,0.5719358310180186
123,0.5719633039899673,0.5718804232962793
124,0.5719630821311361,0.5719067081292838
125,0.5719642714708977,0.5718924634557017
126,0.5719531984690887,0.5718937818206506
127,0.571949831953798,0.5719328721329043
128,0.571961864264671,0.5719428935383878
129,0.5719530124362958,0.5719433473765606
130,0.5719510011137934,0.5719466692263246
131,0.5719631275465519,0.5720216780980372
132,0.5719533457123415,0.5719639646962515
133,0.5719371404706448,0.5722709721158465
134,0.5719707468180213,0.5719551519658049
135,0.5719524191203923,0.5719739404637852
136,0.5719534949293795,0.5719197983109817
137,0.5719597371382938,0.5719510215831112
138,0.5719481679059686,0.5720158304154164
139,0.5719442246712307,0.5719301813469198
140,0.571961534521108,0.5718951454423506
141,0.5719460060364525,0.5719076643449245
142,0.5719485179408349,0.5722737938223903
143,0.5719695863988733,0.5718950086979232
