epoch,loss,val_loss
0,0.6697407167620129,0.6683386135101318
1,0.6684616459210714,0.6682381196816762
2,0.6682870587772793,0.6681346827348074
3,0.6682387667099635,0.6681242111126582
4,0.6681969517734315,0.668087737997373
5,0.6681779502895143,0.6683094111680985
6,0.6681570267677307,0.6680413156350453
7,0.6681342806153827,0.6680081696510315
8,0.6681253971921073,0.6680979328155517
9,0.668112075249354,0.6681803487539292
10,0.6681056939495934,0.6685399760405223
11,0.668102741267946,0.6680216491619746
12,0.6680983295175764,0.6680423624118169
13,0.6680822828875648,0.6680370370944341
14,0.6680833186440998,0.668028178135554
15,0.6680741242435243,0.6679987561702728
16,0.6680730503532621,0.6680259585777919
17,0.668075672811932,0.6680036515394847
18,0.6680634739928776,0.6680273685455322
19,0.6680640521446863,0.6680401654640834
20,0.6680631463130315,0.6680739254951477
21,0.6680666744709015,0.6680037460724513
22,0.6680603695842955,0.6680242309172948
23,0.6680565411382251,0.6681115899880727
24,0.6680580474932989,0.6680234127442042
25,0.6680595613055759,0.6680122238397598
26,0.6680561829937829,0.6680454611778259
27,0.6680589827961392,0.6679912151098252
28,0.6680543466144138,0.667987835208575
29,0.6680500384171804,0.6679945454597473
30,0.6680556358893712,0.6680259264707565
31,0.6680532363785637,0.6682211078802744
32,0.6680545812712775,0.6680009078184763
33,0.6680508933597141,0.6679956492582957
34,0.6680476061900457,0.6679924469391505
35,0.6680564335452186,0.667988385438919
36,0.6680518536832597,0.6680941113233566
37,0.6680531755155987,0.6681034224033355
38,0.6680567724174923,0.6680374553600947
39,0.6680489588578542,0.6681594957907995
40,0.6680500707758797,0.6680065223375956
41,0.6680420030355454,0.6679834407965343
42,0.6680497763819164,0.6680270304679871
43,0.6680448777543174,0.6679748640060424
44,0.6680456092092726,0.6680407267808914
45,0.6680392907063166,0.6681035106579463
46,0.6680435345305337,0.6679915183782578
47,0.6680467021200392,0.6680640567541123
48,0.6680475990772248,0.6682965023914973
49,0.6680503960053126,0.6680031178792317
50,0.668043900873926,0.6679875598748525
51,0.6680458546744452,0.6679858723481497
52,0.6680410562621223,0.6680016669432323
53,0.6680457176234987,0.6680484289725621
54,0.668039193643464,0.668120929201444
55,0.6680466040902667,0.6680074497461319
56,0.6680469329224692,0.6681432050466537
57,0.6680417119397057,0.6679999510844549
58,0.6680470497343275,0.667997812072436
59,0.668041106555197,0.667993174791336
60,0.6680435139073266,0.6680250252485276
61,0.6680383746623992,0.6691201929648717
62,0.6680481756528218,0.6680849052270253
63,0.6680436045858595,0.6680025868813196
