epoch,loss,val_loss
0,0.6701812931166755,0.6683825052976609
1,0.6684116699430678,0.6681583526134491
2,0.6682952615155114,0.6683273636102677
3,0.6682214686208301,0.6681335752805074
4,0.6681718292633693,0.6685283480087916
5,0.6681501106421153,0.6680513878266017
6,0.6681305682261784,0.6681778107086818
7,0.6681219409571754,0.6682279470761617
8,0.668104931473732,0.6680871363480886
9,0.6681005479627186,0.6682542936007182
10,0.6680953780810038,0.668126386364301
11,0.6680965229670207,0.6679879557291667
12,0.6680845385392506,0.6680651688973109
13,0.6680773601002163,0.6679835602045059
14,0.6680805242856344,0.6683877888917923
15,0.6680776065720452,0.6680024482409159
16,0.6680749861266878,0.6680044745206832
17,0.6680732665459315,0.668095914721489
18,0.6680671459701326,0.6680489554802577
19,0.6680754758914311,0.6681276242733002
20,0.6680633107026418,0.6680132772127787
21,0.6680655968719058,0.6681738860209783
22,0.6680589637756348,0.6682894667387008
23,0.6680584947797987,0.6680757792790731
24,0.6680638352102704,0.6680056475798289
25,0.6680670883920458,0.6679929004112879
26,0.6680571353435516,0.6680759462912877
27,0.6680599378214942,0.6679812740484874
28,0.6680601901213328,0.6680337497790655
29,0.6680572102997038,0.6680504105091095
30,0.6680557223161062,0.6679967711766561
31,0.668050155321757,0.6680179053942362
32,0.6680472398598989,0.6679837464491526
33,0.6680508466826545,0.6680408778190613
34,0.6680518996583091,0.6680155137379964
35,0.6680513429641723,0.667989163517952
36,0.6680500919553969,0.6680132050116857
37,0.668048106484943,0.6680049409468969
38,0.6680543925232357,0.6679822880029679
39,0.6680499247842365,0.6680108073155085
40,0.6680497512420018,0.6679910494883855
41,0.6680524949895011,0.6680424554347992
42,0.6680471926530203,0.6680836207866668
43,0.6680476750532786,0.6681754151185354
44,0.6680481745799383,0.6680344738165538
45,0.6680475467575921,0.6681937868992488
46,0.6680479329162173,0.6682882248560588
47,0.6680445270670785,0.6680873197714488
