epoch,loss,val_loss
0,0.5595656919082006,0.557595163901647
1,0.5578215924898783,0.5576346474488576
2,0.5576994457377328,0.5575504906574885
3,0.5576449849208196,0.5574681228796641
4,0.5575662013689677,0.557406099597613
5,0.5575434004995558,0.5575738687912624
6,0.5575128174887763,0.5573792474269867
7,0.557512584315406,0.5573487280607223
8,0.5574832190275192,0.5574254969755809
9,0.5574759587314394,0.5573804443279902
10,0.557467834075292,0.557365778764089
11,0.5574749829504225,0.5573250743150711
12,0.557456822461552,0.5574262370665868
13,0.557454770816697,0.5573513717651367
14,0.5574525913265016,0.557386447985967
15,0.5574394244220522,0.5574478372335434
16,0.557438930326038,0.557363654812177
17,0.5574320946004656,0.5573388681809107
18,0.557431504699919,0.5579431095123291
19,0.5574262792269389,0.5573206497430802
20,0.5574175839424134,0.5574464314381281
21,0.5574229746792052,0.5573176269133886
22,0.5574131054215961,0.5573529441356659
23,0.557418839070532,0.5573272542953491
24,0.5574112984604306,0.5574058789412181
25,0.5574149918556214,0.5580373858610789
26,0.5574125178522534,0.5573179171482722
27,0.5574065039555232,0.5573173915545145
28,0.5574048686689801,0.5575380551417669
29,0.5574097728464339,0.5573366996447245
30,0.5573969324429829,0.5573879954020182
31,0.5574201591809591,0.5576128842830658
32,0.5574082741604911,0.5573155420621236
33,0.5574019793669382,0.5573861612478892
34,0.5574024229711957,0.5573008352518082
35,0.5574040753444036,0.5573383516470591
36,0.5574033960766263,0.5574927587111791
37,0.5574028633568022,0.5573183417320251
38,0.5573966971768273,0.5573230663140615
39,0.5574049142201741,0.557297892610232
40,0.5574006877210406,0.5573464587926865
41,0.5573972803354263,0.5573081124226252
42,0.5573990726735857,0.5574053281148275
43,0.5573975833124585,0.5573266843159993
44,0.5574025720357895,0.5573526790142059
45,0.5573992182148827,0.5573516265948614
46,0.557397629181544,0.5573388566176096
47,0.5573916043440501,0.5574429233868917
48,0.5574021487236023,0.5573674257596334
49,0.5573900919093026,0.5573253413041432
50,0.5573933469057083,0.5573022103309632
51,0.5573992797533671,0.5574235129356384
52,0.5573969991074668,0.5573142851988474
53,0.5574009738365809,0.5574637683232625
54,0.5573959123426013,0.5573095556497574
55,0.5573961009846793,0.5573047427336375
56,0.5574032633701961,0.5575580757856369
57,0.5573951038387087,0.5574181608756383
58,0.5573941675159666,0.5572911184628805
59,0.5573908127678765,0.5573708782990774
60,0.5573967462513182,0.5573056250015894
61,0.5573959094948239,0.5575636654694875
62,0.5573965758217706,0.5573727450370789
63,0.5573931002749337,0.5573022140661875
64,0.5573974266582065,0.557348949432373
65,0.5573933361503813,0.5573399016062419
66,0.5573907628059387,0.5573515239953994
67,0.5573993475702074,0.5574364377260208
68,0.5573957664701674,0.5573830504814784
69,0.5573883706066344,0.5573200090726217
70,0.557393116540379,0.5573185872236888
71,0.5573985155423482,0.557461241364479
72,0.5573947993384467,0.5575808906555175
73,0.5573977300723394,0.5573335086504618
74,0.5573949244419734,0.5574827691713969
75,0.5573881962564257,0.557299277027448
76,0.5573966215716468,0.5573262215058009
77,0.5573936595784293,0.5573872319857279
78,0.557403133922153,0.5573395620584488
