epoch,loss,val_loss
0,0.2302274297773838,0.22601966827114423
1,0.22627563261323505,0.22574864337841669
2,0.22599088046948115,0.22578305887182554
3,0.2257992491092947,0.22547892941037814
4,0.22573473986652162,0.2253686247766018
5,0.22569779536128043,0.22554844830433526
6,0.22564718894494903,0.22550537531574566
7,0.22561219095190366,0.22550592265526453
8,0.22557519317666688,0.22540382633606593
9,0.22558113938570024,0.2253500780860583
10,0.2255699969397651,0.22546934470534324
11,0.22556528926889102,0.22539146665732065
12,0.22554665405551594,0.22542001323898633
13,0.22554046791791915,0.22544643428921698
14,0.22552534163329335,0.225510124395291
15,0.22551796788308356,0.2254975379506747
16,0.22551608422398567,0.22547354690233867
17,0.22550559460785655,0.22530386555194853
18,0.22550194464127224,0.2253029674589634
19,0.2255060651269224,0.2266235567231973
20,0.22549380483229955,0.2254087789853414
21,0.2254897788266341,0.22532634508609772
22,0.2254901626639896,0.2253320629199346
23,0.2254815642800596,0.22579659833510718
24,0.225463983449671,0.2254691188633442
25,0.22548362034228112,0.22609302670756976
26,0.22547805635796653,0.2253198299705982
27,0.2254716143740548,0.2258544690509637
28,0.2254638086789184,0.22558449091513952
29,0.22546352732843822,0.22553890303770702
30,0.22547228087319268,0.22549687950809796
31,0.22545817319552103,0.2252783561249574
32,0.2254546035726865,0.2253489187657833
33,0.22546568053298527,0.22567830950021744
34,0.22544240316748618,0.2254327726860841
35,0.2254612708422873,0.2253336708744367
36,0.2254484530190627,0.22544802619020143
37,0.22544705876045756,0.22552935217817624
38,0.22545056018895573,0.22538090761502583
39,0.22545617485377523,0.22534674115975697
40,0.22544595271017817,0.22532448662320773
41,0.22545779842138292,0.225281172901392
42,0.22545170622732905,0.2253138085703055
43,0.2254495733148522,0.2254727856616179
44,0.22544564880927404,0.22537974678476652
45,0.22544953412479823,0.22535118889808656
46,0.22544749401344194,0.2253595930635929
47,0.225468450208505,0.2254938453535239
48,0.22544640107618438,0.22527957512935
49,0.22544617922438515,0.2255580602387587
50,0.2254566125008795,0.22548658057053883
51,0.2254466236895985,0.22530980706214904
