epoch,loss,val_loss
0,0.5588479648696052,0.5570942366123199
1,0.5569155913061565,0.5569189225037893
2,0.5567218219174279,0.5566973499457042
3,0.5565998877551821,0.5567416558265686
4,0.5565404176712037,0.5564510982831319
5,0.556514979230033,0.5563870504299799
6,0.5564972580141492,0.5566558366616567
7,0.556471567524804,0.5564724234342575
8,0.5564536736938689,0.5563612585465113
9,0.5564397946861055,0.556413231531779
10,0.5564311313231786,0.5563568975925446
11,0.5564285887612237,0.5563461584647497
12,0.5564178870254093,0.5563396524190902
13,0.5564158874617683,0.5563526635567347
14,0.5564184277984832,0.5563867067495982
15,0.5563976254330741,0.5563435008923213
16,0.5563970617188347,0.556641412615776
17,0.5563913609451718,0.5564280658165613
18,0.5563838889069027,0.5563374938567479
19,0.5563854644166099,0.5563678395748138
20,0.5563848859071732,0.556317102154096
21,0.5563844805028704,0.5563577897946039
22,0.5563744586176342,0.5563521690766017
23,0.5563763638469909,0.5563438132603963
24,0.556370060549842,0.5563862011830012
25,0.5563642104731665,0.5563156899213791
26,0.5563625120586819,0.5563357987801234
27,0.5563633715311687,0.5564081681966782
28,0.5563601649734708,0.5563170241514842
29,0.5563664286004173,0.556313573718071
30,0.5563679081598918,0.5564296561876932
31,0.5563618297311995,0.5562929249604543
32,0.5563564028607474,0.5568576379219691
33,0.5563514133824242,0.5563444718519847
34,0.5563583882252375,0.556392162879308
35,0.5563556312322616,0.5563509481747945
36,0.5563533742825191,0.5563944536447525
37,0.5563565414614148,0.5563128544489543
38,0.5563508357074526,0.556420921643575
39,0.556360162059466,0.5563307857910792
40,0.5563537460962932,0.5563298532565435
41,0.5563517340819041,0.5565124247471491
42,0.5563448267115487,0.5563605343500773
43,0.5563515040079753,0.5563044190804164
44,0.5563497615655263,0.5563137215375901
45,0.5563478502962325,0.5563160043954849
46,0.5563487752146191,0.5563786401748657
47,0.5563497434854507,0.5563470100959143
48,0.5563478608263863,0.5563065140247345
49,0.556339623424742,0.5562889597813289
50,0.5563464656935798,0.5562961523930232
51,0.5563373198244307,0.5563225489457448
52,0.556340518673261,0.5563753583033879
53,0.5563471368816164,0.5565009042421977
54,0.5563427957031462,0.5565346889098486
55,0.5563421280384063,0.5563112314939499
56,0.5563354123168521,0.5563978637456894
57,0.5563419904973772,0.5564305867751439
58,0.5563404530816608,0.55635822113355
59,0.5563370239602194,0.556331310749054
60,0.5563370412190756,0.5563414752086003
61,0.5563324534893036,0.5563155953089396
62,0.5563371494081285,0.5562868981758754
63,0.5563338321712282,0.5563289797306061
64,0.556334981004397,0.5563024108807246
65,0.5563377804491255,0.5564271575212478
66,0.5563365296655232,0.5565065356890361
67,0.5563341605928209,0.55632270860672
68,0.5563365807268355,0.5565161267121633
69,0.5563752689361572,0.5563292629321416
70,0.5632499159971873,0.5563954750299454
71,0.5563705234395133,0.5564413146177928
72,0.5563553076585134,0.556283819993337
73,0.5563474396732119,0.55632430656751
74,0.5563461969296137,0.5565200972159704
75,0.5563424408170912,0.5563207072019577
76,0.5563498089843326,0.5566137572924296
77,0.5563470885621177,0.5562852620283762
78,0.5563485060003068,0.5562852559884389
79,0.5563363404803806,0.5563518694639206
80,0.5566140480306413,0.5563432003259658
81,0.5563729603290558,0.5563243971268336
82,0.5563574681414498,0.5564150642156601
83,0.5563473502397537,0.5563179308970769
84,0.556349773115582,0.5565187618732452
85,0.5563446533017689,0.5563775877157847
86,0.5563511724472046,0.5562789953152338
87,0.5563492391904196,0.5565601664384207
88,0.556342758456866,0.5564348402818045
89,0.5563407844172583,0.556331959605217
90,0.5563394245836469,0.5563530340989431
91,0.5563627496295505,0.5565974682966868
92,0.5563524392313427,0.5563037601312002
93,0.5563439943128162,0.556325308005015
94,0.556346800936593,0.5564505695501963
95,0.5563428050676982,0.556296262939771
96,0.5563362399207221,0.556307776649793
97,0.5563416939179102,0.55638538591067
98,0.5563396994272868,0.5563322285016378
99,0.556342166437043,0.5562932337919871
100,0.5563503397040896,0.5563111401796341
101,0.5563378560013241,0.556291254957517
102,0.5563419608275095,0.5563133181333542
103,0.5563385368453132,0.5563301002979278
104,0.5563442072603437,0.5564778664112091
105,0.5563419520457585,0.5565712211529413
106,0.5563424160612954,0.5562887542645136
