epoch,loss,val_loss
0,0.337922162340747,0.33581003560622535
1,0.3355289128753874,0.3360129757920901
2,0.3352575040327178,0.3348888437151909
3,0.33495611311329737,0.3347264392574628
4,0.3348598845071263,0.3349704206784566
5,0.3348116437792778,0.33464218721787137
6,0.3347730495731036,0.33581223887205125
7,0.3347392657134268,0.3350452825029691
8,0.3347209836641947,0.3348940824667613
9,0.33468138060304853,0.33455529395739236
10,0.33465015982256996,0.3346397832830747
11,0.33463989386293624,0.3346280632217725
12,0.3346109013358752,0.3345702209075292
13,0.334604330903954,0.33463218333323796
14,0.33460401413175794,0.33453812102476754
15,0.3345826194882393,0.33478969943523407
16,0.334584771308634,0.3345693923433622
17,0.3345687732564078,0.3347618814309438
18,0.3345738500157992,0.3344390522638957
19,0.33457582410176595,0.334498770236969
20,0.33456027230951524,0.33482549023628233
21,0.33456601793898477,0.33452359078327815
22,0.3345536664525668,0.3344821311036746
23,0.33455226427316664,0.3345207153757413
24,0.3345577244361242,0.33446854718526203
25,0.33455196770694523,0.3344878561695417
26,0.3345578711032867,0.3346503394047419
27,0.33457862963941365,0.334472374300162
28,0.33455624439318976,0.33470590023199714
29,0.33459074503183367,0.33452758463223775
30,0.33478097779221005,0.3349468708237012
31,0.33466445259915456,0.3344585210283597
32,0.33455755022499295,0.3344364618460337
33,0.33455524519417024,0.33448162601391473
34,0.3345461824735006,0.3344426613648733
35,0.33453946328825424,0.33448003003994625
36,0.33454286737574473,0.3346089409192403
37,0.33454996814992694,0.3344662382801374
38,0.33454429691367676,0.3345877424279849
39,0.334533022152053,0.3344990436633428
40,0.33453527689642376,0.3344831957221031
41,0.3345350608693229,0.33443716168403625
42,0.3345314652919769,0.3345525485078494
43,0.33453466912110646,0.3344742716352145
44,0.33453000462055205,0.33446785976489385
45,0.33453799408011964,0.33451280760765073
46,0.3345254670381546,0.33444952189922333
47,0.33454119941923355,0.3344307494163513
48,0.33453512950738273,0.3344477247993151
49,0.33453396364715365,0.3344893797636032
50,0.3345386090543535,0.33452662630875907
51,0.33452738383081226,0.3344246182243029
52,0.33453462261623806,0.33443811659018197
53,0.33453735238313675,0.33445046152671176
54,0.33453292561239667,0.3344838475982348
55,0.33452780162625845,0.3344346741636594
56,0.3345320018794801,0.3345487033526103
57,0.3345746444662412,0.3344505678216616
58,0.3345614040427738,0.3344334469238917
59,0.33455142312579683,0.3344908894697825
60,0.3346694087651041,0.33449572360515595
61,0.33456294498178696,0.33450703382492064
62,0.3345373170706961,0.33455375568072
63,0.33453650120894113,0.3344883636434873
64,0.3345366237892045,0.33462387150526046
65,0.33454496446583004,0.3345100511312485
66,0.3345309419035912,0.33472106168667476
67,0.33453031788269677,0.3345996626019478
68,0.33452841838200886,0.33443366626898446
69,0.3345323496858279,0.33443558784325916
70,0.33453059393167495,0.3345150729815165
71,0.3345263655583064,0.3344574043353399
