epoch,loss,val_loss
0,0.5586894229385588,0.5568863705794016
1,0.5569586809608671,0.5566946340401967
2,0.5567423650291231,0.5565639852285386
3,0.5566245308319727,0.5565471819241842
4,0.5565779058270984,0.5564551253716151
5,0.556516653418541,0.5566673984130224
6,0.5564803239107132,0.5566108009417852
7,0.5564656081067191,0.5564126162926356
8,0.5564439685874515,0.5563830713828405
9,0.5564445941050847,0.5563743229707082
10,0.556439266178343,0.5564113722244899
11,0.5564298662874434,0.5563850576082865
12,0.5564171446164449,0.5567234131495158
13,0.5564147474500868,0.5563561661640803
14,0.5564004326131609,0.5566347490549087
15,0.5564013613992267,0.5564060267210007
16,0.556402472363578,0.5563286821444829
17,0.5563925801118215,0.5563210556904475
18,0.5563979684246911,0.5564310512542725
19,0.5563893714613385,0.5563367043336233
20,0.5563866494761573,0.556334874510765
21,0.5563831011321809,0.55630706290404
22,0.5563791225751241,0.5563766068617503
23,0.5563845233122507,0.5563348387479782
24,0.5563771315548155,0.5563501744270325
25,0.5563803373442756,0.5563117136160532
26,0.5563731674220826,0.5563261415958405
27,0.556369468609492,0.5563156958421072
28,0.5375512951016426,0.44581900831063587
29,0.44552401554584503,0.4455760903755824
30,0.4454726821117931,0.44550749742984774
31,0.44545962865485084,0.44540358207623165
32,0.4454587270286348,0.4453910123507182
33,0.44545827167563967,0.4454188017050425
34,0.44545498344633316,0.4454400101304054
35,0.4454523743192355,0.4454057682951291
36,0.44545575850539737,0.44556485070784885
37,0.44545067515638137,0.44539657539129257
38,0.4454456828435262,0.44544816176096597
39,0.4454504608511925,0.445471743563811
40,0.44545237775643665,0.4455675967137019
41,0.4454535675909784,0.44541140222549436
42,0.4454447422027588,0.44538689734538395
43,0.44544517007801265,0.4455095558166504
44,0.4454509162174331,0.4453825688958168
45,0.44545289805862637,0.4453746253649394
46,0.4454406834244728,0.4453760662078857
47,0.44544553436173334,0.44543576981623967
48,0.44544929239485,0.44540468364953995
49,0.4454396868480576,0.4454295630653699
50,0.44544122495916155,0.4454977220892906
51,0.44544370065132777,0.4453724497358004
52,0.44544312973154915,0.4454419042666753
53,0.44543587246206073,0.44538209066788353
54,0.4454400612446997,0.4453728684782982
55,0.4454388563368056,0.44557795629898705
56,0.44543701822890175,0.44539135974645616
57,0.4454343647095892,0.44539827583233516
58,0.44543563936154046,0.4453924961487452
59,0.44543788494004144,0.4454115285277367
60,0.44543462894360225,0.4453724319537481
61,0.44544617964161765,0.4453789315223694
62,0.44544400411844254,0.44554092838366827
63,0.44542892103062737,0.4455380247831345
64,0.4454341453909874,0.44537318098545076
65,0.4454363012777434,0.4453498303492864
66,0.4454387263920572,0.44545593891541163
67,0.44543764707777234,0.44549892206986746
68,0.44543647154834537,0.4453653618693352
69,0.44543383527464336,0.44551162707805636
70,0.445434323211511,0.44534563954671225
71,0.4454375949104627,0.4453996871908506
72,0.4454384526014328,0.4458845302462578
73,0.445430404788918,0.445790354291598
74,0.4454355813066165,0.44538605310519536
75,0.4454351161453459,0.4453703245123227
76,0.4454328319231669,0.4454099215467771
77,0.445430688434177,0.44536496355136235
78,0.44542543331782025,0.44536280967791875
79,0.44543522999684015,0.44544872202475866
80,0.44542841641108194,0.4459072218934695
81,0.44542480136288537,0.44538593145211536
82,0.4454296990831693,0.4454564592838287
83,0.445426170832581,0.4454180698394775
84,0.44542767105499903,0.44534994731346766
85,0.44542876355515587,0.4455798890988032
86,0.44543494432502323,0.44559157979488373
87,0.445432280143102,0.4454461038708687
88,0.4454277105993695,0.44539666511615117
89,0.44542448002762264,0.4454248631199201
90,0.445422675397661,0.4454158983429273
