epoch,loss,val_loss
0,0.4483568242788315,0.44623292950789134
1,0.4462714317639669,0.44601017119487124
2,0.44593531521161395,0.44568136529127755
3,0.4457689390116268,0.44556801599264145
4,0.4456978962024053,0.4456197379430135
5,0.4456497859093878,0.44554268383979795
6,0.44561119398143556,0.44555180861552557
7,0.4455984943509102,0.4458070322672526
8,0.4456184083024661,0.4457836317420006
9,0.4455518081055747,0.4455920675794284
10,0.4455344551536772,0.44552183055877687
11,0.44553629894389046,0.44550596217314403
12,0.4455263293650415,0.44574625305334725
13,0.44551668344603645,0.4454090734521548
14,0.44550869758261574,0.44548603864510855
15,0.4454992591804928,0.44549163099129996
16,0.44550144630008276,0.44540521655480064
17,0.44549318251344894,0.4453940301934878
18,0.44548755582173666,0.4455298663377762
19,0.4454779744942983,0.4455196857849757
20,0.445505064646403,0.44543537726004917
21,0.44548564779758454,0.44558664292097094
22,0.44548121134440105,0.4455072560509046
23,0.44547182152668635,0.44542754465341566
24,0.44548322186205125,0.4454545257886251
25,0.4454651513033443,0.445683315316836
26,0.4454696214397748,0.44606518185138705
27,0.4454675678809484,0.44563576847314834
28,0.4454622947441207,0.44539029637972516
29,0.4454664720760451,0.44540676297744114
30,0.44545641720957224,0.44554261706272763
31,0.44545333208640414,0.4454536140759786
32,0.44546584732664957,0.4454888640443484
33,0.4454491061170896,0.4453744886318843
34,0.4454541215433015,0.4454725060860316
35,0.4454487805167834,0.44545399220784504
36,0.4454512113465203,0.4453895428379377
37,0.4454487788610988,0.44548154272635776
38,0.4454506290687455,0.4454215793212255
39,0.44545156601402497,0.4455007467865944
40,0.44545381733444,0.4455801569223404
41,0.4454508043328921,0.4457991480628649
42,0.4454479900598526,0.4453892498612404
43,0.4454452469216453,0.4454968902071317
44,0.4454441793627209,0.445396232843399
45,0.4454441547062662,0.4454293923974037
46,0.4454381791088316,0.44538451786835986
47,0.4454463054140409,0.4454818791151047
48,0.44544953516456814,0.4453758209943771
49,0.44544583784871633,0.4454224334955215
50,0.44543887270159194,0.4454210702975591
51,0.44544392371839947,0.4454259554942449
52,0.4454374361832937,0.4454888173143069
53,0.4454461605813768,0.44545167237520217
