epoch,loss,val_loss
0,0.5238965894314978,0.44637719494104383
1,0.44625780614879396,0.4459832007288933
2,0.4459215504195955,0.44580420658985775
3,0.44579352063602873,0.4456072935461998
4,0.44573300117254255,0.44559748661518095
5,0.4456870380838712,0.44560041584571203
6,0.44565399393108157,0.4455179675022761
7,0.4456263061232037,0.44553903925418853
8,0.44559862560696073,0.44558967592318854
9,0.44557935762405393,0.4455032266775767
10,0.44555394154787065,0.4455263175964356
11,0.44553378224372864,0.4454471496343613
12,0.44552658298942777,0.44568449844916663
13,0.4455149098833402,0.4454744999607404
14,0.4455135069489479,0.4455086046655973
15,0.44549334304862553,0.4454078017870585
16,0.4454982546634144,0.4454438364903132
17,0.44549134727981354,0.44550916671752927
18,0.4570610341893302,0.44553293816248574
19,0.4455443418224653,0.4454511285026868
20,0.4455265820754899,0.44561985798676806
21,0.4455127569834391,0.44546719966332116
22,0.4454912048710717,0.44538953266541165
23,0.44549344353543385,0.44548762394984565
24,0.44548374040259253,0.44549184876680376
25,0.44548093252049553,0.4454922936161359
26,0.4454692699379391,0.44539360483487445
27,0.4454644297427601,0.4455669205586116
28,0.4454616675045755,0.4453814169963201
29,0.44546825121508704,0.44538503903150556
30,0.44546390159924826,0.4453834909796715
31,0.4454582892457644,0.4455841064850489
32,0.44546421316597196,0.4453920533657074
33,0.44546437317795223,0.44538728497425717
34,0.44546172136730616,0.4455289252996445
35,0.4454571146435208,0.4454268816113472
36,0.44546219288640554,0.4453784640232722
37,0.4454563420679834,0.4456644839843114
38,0.44545748413271374,0.4454046058456103
39,0.4454546616607242,0.44539875588814415
40,0.44545088285207746,0.44540646314620974
41,0.44545191002554363,0.4454201448559761
42,0.44545098727279236,0.44538905256986616
43,0.4454480433795187,0.44543742231527966
44,0.4454510995282067,0.44536843540271126
45,0.44545343958669237,0.4454738538265228
46,0.4454543666111098,0.44538012516498565
47,0.44544881231255,0.4453551186323166
48,0.4454556332561705,0.44543551371494927
49,0.44545153466860454,0.4456285276611646
50,0.4454477633635203,0.4457243017156919
51,0.4454554918607076,0.44536994508902233
52,0.4454509749412537,0.44547461899121604
53,0.445454837832186,0.44535922131935757
54,0.4454447143011623,0.4456769581238429
55,0.4454423392282592,0.4454452523589134
56,0.4454529273112615,0.4453886328736941
57,0.4454474794930882,0.44536798346042633
58,0.4454430121249623,0.44538215970993045
59,0.44544852497842574,0.4454130117495855
60,0.44545395583576625,0.4453723049362501
61,0.4454427554739846,0.44569956801335014
62,0.44544315062628853,0.4455185340642929
63,0.44544502762291166,0.4453736717303594
64,0.44543860246075523,0.4455024090607961
65,0.4454403061403169,0.44553712260723116
66,0.44543721618917254,0.44542537222305933
67,0.445440516187085,0.44545543992519376
