epoch,loss,val_loss
0,0.6689024683369531,0.6674594929615657
1,0.667420725107193,0.6673022602796554
2,0.6672495484617021,0.667176592707634
3,0.6671806207895279,0.6671827675104142
4,0.6671326778332393,0.6670730973482132
5,0.66711542043421,0.6671088881095251
6,0.6670998026397493,0.6670624580383301
7,0.6670927033821742,0.6670569250186285
8,0.6670802796681722,0.6670253458023071
9,0.6670787129137251,0.6670743546883265
10,0.6670658554501003,0.6671430227756501
11,0.6670655711624357,0.6669871558745702
12,0.66705622821384,0.6669999707539876
13,0.6670551002952788,0.6670985834995905
14,0.6670519684950511,0.6670367058118184
15,0.6670494016541375,0.6671345056295395
16,0.6670431613259845,0.6669951110283534
17,0.6670404479106268,0.6669806719223659
18,0.66703374267949,0.6669902664025624
19,0.6670298178725772,0.6670003902514775
20,0.6670291728046205,0.6671236267487208
21,0.6670270824432373,0.6670174707571666
22,0.6670227174891366,0.6670339976151785
23,0.667023409737481,0.6670395230054855
24,0.667018564634853,0.6670524713993072
25,0.6670210146241717,0.6669883675177892
26,0.6670178119209078,0.6670079689820607
27,0.6670216039286719,0.6669826279878617
28,0.6670200618770388,0.6669824130535126
29,0.6670178825855255,0.666965447306633
30,0.6670168184969161,0.6669814631144205
31,0.6670167771577835,0.666986199259758
32,0.6670092270241843,0.6670166325966517
33,0.6669978995588091,0.6669421773354213
34,0.666986082567109,0.6669791667461396
35,0.6669782252179252,0.666963015794754
36,0.6669772459401024,0.6669643335342407
37,0.6669765264723037,0.6669924690326055
38,0.6669735722409355,0.6669609866937002
39,0.6669690929651261,0.666954451084137
40,0.6669681455691655,0.667019105275472
41,0.6669684933159087,0.6669618191321691
42,0.6669660298162037,0.666943698724111
43,0.6669659513632457,0.6669814867575964
44,0.666965946118037,0.6669444220066071
45,0.6669684367047416,0.6669393848578136
46,0.666966231862704,0.6669508394797643
47,0.6669626469214758,0.666949468533198
48,0.666963423954116,0.6669799148241679
49,0.666961259007454,0.6670192726055781
50,0.6669612536695269,0.666934402624766
51,0.6669643417066998,0.6669303386608759
52,0.6669631396134694,0.6669233257373174
53,0.6669639039701886,0.6670580652157465
54,0.6669623159435061,0.6669269878466924
55,0.6669625850783454,0.6669238478342692
56,0.6669582835568322,0.6669117573897044
57,0.6669611750841141,0.6669839411179225
58,0.666961579521497,0.666989430308342
59,0.6669589580694835,0.667078428943952
60,0.6669560808473163,0.666908941467603
61,0.666960214138031,0.6669367564916611
62,0.6669598562717438,0.6669232952197393
63,0.6669595483409034,0.6669128121932347
64,0.6669590543905894,0.6670137054522832
65,0.6669582579268349,0.6669179307222366
66,0.666955742875735,0.6669299459854762
67,0.6669601220157412,0.6669337095022202
68,0.6669561620950699,0.6669923139015833
69,0.6669599247773489,0.6669271357059479
70,0.6669572057591544,0.6669341727495194
71,0.666953080534935,0.6669893698692322
72,0.6669579605791304,0.6669810661474864
73,0.666957520114051,0.666915739218394
74,0.6669584032032225,0.6669204148451487
75,0.6669557052055994,0.6670659227371216
76,0.6669560454024209,0.6669170507192612
77,0.6669574337005615,0.6669601163466772
78,0.66695503824287,0.6669201775789261
79,0.6669534989065594,0.6669488933881124
80,0.6669569956726498,0.6669260253111522
