epoch,loss,val_loss
0,0.4478479785720507,0.44594946171840033
1,0.4456628106898732,0.44554732129971186
2,0.44547689181566236,0.44543672098716103
3,0.4453174974189864,0.44512803399562834
4,0.44523456923829186,0.44508353755871455
5,0.44517699313163756,0.44509808615843455
6,0.44514296075370574,0.44501440197229386
7,0.4451223415202565,0.4451049737334251
8,0.44509908621841004,0.4450251456697782
9,0.44507982461982304,0.4450033697485924
10,0.44507053358687293,0.44502317265669505
11,0.4450587606098917,0.4450401746630669
12,0.44504592376947405,0.44499550702174506
13,0.4450059340132607,0.44495572274923323
14,0.44498884120252397,0.4450300041635831
15,0.44497328944338693,0.44505323918660483
16,0.44497192648384304,0.4449379950364431
17,0.4449563030666775,0.4448925740321477
18,0.4449594249791569,0.4448821127017339
19,0.4449522702296575,0.4448957942724228
20,0.4449533409608735,0.44494053759177526
21,0.4449519968430201,0.4450558344920476
22,0.4449458851946725,0.4448887494206428
23,0.44494484784868027,0.44497660593191785
24,0.44494578935702644,0.4449108772873879
25,0.4449364601638582,0.4449479840397835
26,0.4449413890971078,0.44517846900224683
27,0.4449383150537809,0.44492244003216425
28,0.44493787505229315,0.44495580506324767
29,0.4449370998673969,0.4448635866045952
30,0.44493256604009207,0.44487832552194595
31,0.44493524012962976,0.44496131980419157
32,0.4449261476198832,0.44486812329292297
33,0.4449289413889249,0.4449303960601489
34,0.44493025237321854,0.44516956450541817
35,0.4449288019273016,0.4450102394024531
36,0.44492464025153056,0.44485594870646794
37,0.4449184276064237,0.44491343583663306
38,0.4449210645092858,0.444919888317585
39,0.4449157733453645,0.444849158624808
40,0.4449113522105747,0.4448586091597875
41,0.4449117137392362,0.44529770288864773
42,0.4449079288376702,0.44487917866309484
43,0.4449059433473481,0.4449296132326126
44,0.4449046781659126,0.4448353737394015
45,0.44489989309178457,0.44494037208954496
46,0.4448974955744214,0.44494403060277304
47,0.4448979430397352,0.4448493350346883
48,0.4448917054666413,0.44490285378694533
49,0.44489052597681683,0.4449777241150538
50,0.44489413597186406,0.44484661491711935
51,0.444896632373333,0.44489555470148723
52,0.44488940897252827,0.44487234922250113
53,0.4449008659058147,0.4448514446417491
54,0.4448916079666879,0.44486423720916113
55,0.4448870113492012,0.44484682339429854
56,0.44489072610934577,0.4448154978553454
57,0.44488826823234556,0.4448052145242691
58,0.44488713177045186,0.445127542535464
59,0.44488027458720736,0.4448125585913658
60,0.44487819935215844,0.444842496573925
61,0.44487001604504056,0.4448295707503955
62,0.44486886974838047,0.4448083163698514
63,0.4448658278716935,0.4448084872166316
64,0.44486629625823765,0.44487978982925414
65,0.44485882011387085,0.44488783929745357
66,0.44485705973042383,0.44480226548512775
67,0.4448581426673465,0.44498145518700283
68,0.4448627341853248,0.44478937731186546
69,0.4448547433482276,0.44484359413385394
70,0.4448547046515677,0.44481558122237524
71,0.4448562946915626,0.44488794736067455
72,0.4448512984514236,0.4448992763757706
73,0.44485508114761774,0.4448124224940936
74,0.4448521270685726,0.4447912196914355
75,0.4448536884917153,0.44477530777454377
76,0.4448516749607192,0.4448031272093455
77,0.4448535555468665,0.4447963676850001
78,0.4448499014774958,0.44481133460998534
79,0.4448519919382201,0.444833742082119
80,0.4448481331732538,0.4447776388724645
81,0.4448522727489471,0.4447995245655378
82,0.444852469669448,0.44479986240466435
83,0.4448483483857579,0.4447946076194445
84,0.4448511593408055,0.44485154837369917
85,0.44484701404306626,0.44482102235158283
86,0.4448516459597482,0.4447823411822319
87,0.44484831650389567,0.4448282558520635
88,0.4448474188380771,0.44479846384127936
89,0.4448500832584169,0.44481204108397165
90,0.4448501692149374,0.44493453633785246
91,0.44485024744934504,0.444810603360335
92,0.44484500485658646,0.44482633753617606
93,0.4448432749311129,0.4447902298569679
94,0.44484589886003073,0.44490206909179686
95,0.4448461005687714,0.4450352261265119
