epoch,loss,val_loss
0,0.6687810084157519,0.6674923466444016
1,0.6674337175157335,0.6677025630871455
2,0.667304540488455,0.6673190800746281
3,0.6672248988813824,0.6673295070727666
4,0.6671534843312369,0.6670982739925384
5,0.6671159661213557,0.6670450823307037
6,0.6670944378111098,0.6670170935789744
7,0.667079299542639,0.6672111260493596
8,0.6670677093664805,0.6670629427433014
9,0.6670564806328879,0.6671201608578364
10,0.6670506080786387,0.6671247359911601
11,0.6670460508664449,0.6669866730372112
12,0.6670389453305139,0.6671656816403071
13,0.6670366714000702,0.6671829932530721
14,0.6670347764094671,0.6669908830324809
15,0.6670283470153808,0.6669612825711568
16,0.667004450890753,0.6669718410174051
17,0.6669935850169924,0.6669514219760895
18,0.6669822833802965,0.6670671354134877
19,0.6669810589022107,0.6669783316055934
20,0.6669750276936425,0.6669458612600963
21,0.6669764591455459,0.6670030082861582
22,0.6669705869356791,0.6669107435941696
23,0.6669689268668493,0.6669426351388296
24,0.6669665990273158,0.6669287486871084
25,0.666965777291192,0.6669183575709661
26,0.6669665073156357,0.666981982588768
27,0.6669655503167047,0.666978590408961
28,0.6669608949422836,0.6669372917811076
29,0.6669633713695738,0.6670192142327627
30,0.6669602437681622,0.6669302818377812
31,0.6669636511007945,0.6670626028378804
32,0.666957365486357,0.6669342296918234
33,0.6669560636149512,0.6669694506724676
34,0.6669590892261928,0.6669893517494202
35,0.6669556942780812,0.6669567134777705
36,0.6669548976951175,0.6669507237275442
37,0.6669540365139643,0.6669387063582738
38,0.6669562989340888,0.6669831720193227
39,0.666952375875579,0.6669731866916021
40,0.6669551394515567,0.6670318587621054
41,0.6669541885720359,0.6669725983142852
42,0.6669521438943016,0.6669440146684646
