epoch,loss,val_loss
0,0.3499808951890211,0.26320479516565365
1,0.2443517555144904,0.22535216327324595
2,0.21390915659067627,0.19375272246269512
3,0.2049528371879728,0.1824685761044882
4,0.19179860358719256,0.1737983895334304
5,0.18461675552414167,0.160052432921101
6,0.17972506746184452,0.15768749680784014
7,0.17940252424002268,0.15401432055312256
8,0.17941082296989935,0.16403861459879399
9,0.17724538760914432,0.1668038982157773
10,0.17775049903471055,0.155387279380412
11,0.17699497041282794,0.16638661232162857
12,0.17678374906866143,0.1652997710892367
13,0.1765775471162185,0.15902298917300509
14,0.1764182699106043,0.1618145926276166
15,0.1801282361304884,0.15939921401713017
16,0.18020882460775617,0.17174420155892986
17,0.1769940899230176,0.17489924781562252
18,0.17754146194546294,0.16384739225121503
19,0.18009316106382803,0.16729955436829522
20,0.1765445309629242,0.1730341590572351
21,0.18225180896355497,0.1542633523181117
22,0.18249049666430875,0.16822133039857737
23,0.18003034956150765,0.1816253811120987
24,0.17759131714761306,0.16787820448985646
25,0.17953970345308343,0.1668619393625592
26,0.1789171771467734,0.16779850750847358
27,0.1798234594712933,0.16847706027177903
28,0.1791847752179023,0.16827036736462045
29,0.18071201699580833,0.17448201867399038
30,0.18056355296873491,0.15956587135936803
31,0.1781016614279144,0.1632438199919409
32,0.17956418584021117,0.16772405095005655
33,0.17978508534839002,0.1621929347297571
34,0.17975850282214564,0.17423899416167468
35,0.17981389455431648,0.16381551239515646
36,0.18138124562316746,0.16692634671322235
37,0.18059320297476958,0.16761045278762282
38,0.18159370065284214,0.18213583520535812
39,0.18047860780771108,0.16426041751302362
40,0.17900211590113307,0.15237879363966492
41,0.16358550919519604,0.14738920433121971
42,0.16545527950943328,0.1548463846983604
43,0.17198806728502575,0.15200542775190468
44,0.1761923352028247,0.16707854149357051
45,0.1799150332211971,0.17574600535781038
46,0.18276574706630386,0.17892401831621865
47,0.18293465364924233,0.16914218760851624
48,0.18475618521221357,0.1872871432087814
49,0.18079888684044274,0.15263818468466486
50,0.178571867852735,0.16671631505164497
51,0.18472556210308672,0.1739812267933642
52,0.18617860703849143,0.17900708558253903
53,0.18235859845140823,0.1758219140845397
54,0.18284120274673374,0.166012301527429
55,0.17288034629998347,0.15207374997479298
56,0.17693060663662213,0.16056532878051033
57,0.17921103621490772,0.1581733178616247
58,0.1779462896985374,0.1566531459611311
59,0.1781126218404266,0.16435746224982314
60,0.1783357423016603,0.15315976567318645
61,0.17568089720532834,0.15922979955521427
62,0.17737689530186124,0.15493682602727113
63,0.1736782127625948,0.16733015291785575
64,0.17780976620218675,0.176438214848028
65,0.17470384552013024,0.14763907128635306
66,0.16555458259842604,0.1365129145138745
67,0.1621428220104083,0.16137043303309276
68,0.16539523970362566,0.1441367831495073
69,0.160165591313063,0.1373720927660966
70,0.14316157508101626,0.1308850012689418
71,0.14204324147193503,0.11522066998027343
72,0.14104620289740513,0.12656241530266993
73,0.13351504724797866,0.11030995944289781
74,0.13081932423697462,0.11875823929313713
75,0.12894680575013542,0.10773769519552408
76,0.12762587351666344,0.10976531100364981
77,0.1315515455368569,0.10782007738307348
78,0.13494956840256198,0.10616196366895628
79,0.1317200800202626,0.11383593251622023
80,0.1397726239026595,0.11858374419390237
81,0.13983987226748198,0.13615220347653534
82,0.1465628181276224,0.12916917812505196
83,0.1419785397322632,0.12163885655629374
84,0.13981010575739264,0.1097544564201594
85,0.1446674704503975,0.1225421669902786
86,0.1508682753959353,0.1326249293735234
87,0.1535643783060191,0.1291973984226983
88,0.15011719436205034,0.13066197940830476
89,0.14940484711904828,0.12726480081762034
90,0.14604682587474896,0.12651753983334227
91,0.14582982135592126,0.11921393106308587
92,0.14462114199757384,0.1236592837445444
93,0.14826556280243386,0.12126821385272035
94,0.15018187625836238,0.12094927747150021
95,0.15595984840101962,0.13906640013179833
96,0.15712655296592448,0.1410152186539148
97,0.15754332759375092,0.15039757091706107
98,0.16083075500147834,0.14980816232631192
99,0.16320752375442282,0.1312358624695378
100,0.1629899858300976,0.15788362432642863
101,0.1662584133535695,0.14791240941941594
102,0.1606496189198225,0.14458264077546049
103,0.1611865688774517,0.13859396829705653
104,0.1613819140961783,0.13333835991798912
105,0.1597726830721999,0.14895121234756897
106,0.16922178856425996,0.1618016128944171
107,0.1666436632625383,0.1516267487421233
108,0.18202996306461366,0.18089718768631455
109,0.1875115140878839,0.1508873759286247
110,0.15630980456669966,0.11431047027901915
111,0.14093232892745966,0.14627370262474715
112,0.17886821879111262,0.16116817678654957
113,0.1828568134370377,0.17054639843693614
114,0.18063014260142016,0.154013907792166
115,0.1783609733677464,0.15755910762953546
116,0.1770572701962687,0.15552842216407586
117,0.1746263967467557,0.15846191817971622
118,0.17456792286627765,0.15485837586097184
119,0.1653271499898932,0.1388176550298615
120,0.14601654312114795,0.12267489122817503
121,0.14096805819566008,0.11786243065116082
122,0.14265479026638192,0.12938531559483366
123,0.14147305060878956,0.12303097317688656
124,0.14046098061019271,0.12028851337724841
125,0.14088831460468762,0.12014869542525053
126,0.14255960705019743,0.1148691628089013
127,0.14111004655866075,0.137360933452047
128,0.1424292616570015,0.1173061682795086
129,0.14378962140557192,0.12771940002307017
130,0.1448427609073295,0.1311618391203861
131,0.14265053859465213,0.11451366242846144
132,0.14173652216183652,0.11437900090062898
133,0.14097813626317332,0.1170338716626844
134,0.1410722004307853,0.1220136535960489
135,0.14175845784030025,0.1313440242943876
136,0.1405958503639822,0.11094879504634612
137,0.13972549005042467,0.11473856040330216
138,0.1407711212638858,0.11752170612559701
139,0.14003167299626826,0.11320646648013485
140,0.142595978640169,0.12080078177450154
141,0.14028261489778446,0.1091223691936827
142,0.1438472028896272,0.12893145790645386
143,0.1419724399109093,0.12757164115404948
144,0.14611856001403162,0.12606105883360297
145,0.15674351246429502,0.13334787272623855
146,0.1509636103200187,0.11395400691859044
147,0.14956956835772345,0.1245072661670165
148,0.1453031434224929,0.10809862440858348
149,0.14190302943710903,0.11548268633674821
150,0.14224645485870355,0.11279626665009973
151,0.14597093791747875,0.15103134858540568
152,0.14281119000288942,0.12430922033239551
153,0.14691505650337264,0.12430043142086494
154,0.1423878337266304,0.11841416502762692
155,0.14484777577740368,0.15760612271466298
156,0.15316988132577883,0.11508717185486068
157,0.14473490737635103,0.11080134422529643
158,0.14282599979157062,0.11852089851031145
159,0.14944474103214075,0.12798774030304302
160,0.1401906574966671,0.12625487279887135
161,0.14012588233686238,0.11440781083951998
162,0.1428661779362598,0.13012463740841315
163,0.14135320522517467,0.11196970154696717
164,0.14164921703686514,0.11494141032153382
165,0.14051505039521367,0.1186753414625669
166,0.14251032167727992,0.11218672571439425
167,0.14060593923155645,0.11862652226134422
168,0.14123966779896888,0.11875411057172514
169,0.14116849954589736,0.11720916088625172
170,0.1400938470026939,0.11465377072952476
171,0.1390190605130837,0.11094439619455701
172,0.14200571582639954,0.11952782418074302
173,0.1408933209444734,0.11890388906775504
174,0.14206017572895063,0.12581246076129068
175,0.14108031013125988,0.11621597555480348
176,0.13892769837398544,0.11615720970158835
177,0.13937827707040873,0.126766292210623
178,0.14071235333004886,0.12100202197455238
179,0.14239757663433888,0.11135837026635323
180,0.14324968002790256,0.13174440316547734
181,0.141899244736036,0.11943576797927577
182,0.14380857592420257,0.1178841705691592
183,0.1509915531260238,0.14017515589044235
184,0.15260468151948278,0.126235037353207
185,0.15326265786126483,0.14135065718893103
186,0.14840838314892293,0.12055140417688567
187,0.14993950308526488,0.11055419666561186
188,0.14373487432161458,0.15749218762646047
189,0.14565770673730355,0.15107787627687516
190,0.14907744543267498,0.12269187219507406
191,0.14737717139782955,0.13467382958093893
192,0.151600889679644,0.11102824131236846
193,0.1489727527672668,0.1585203325927306
194,0.14836697095484616,0.1253107507733533
195,0.14208959759749157,0.11963127682171308
196,0.1429646353664591,0.13149267708805645
197,0.14297625360141,0.11720126770007736
198,0.14177370165065348,0.11594036089170298
199,0.14379887001289188,0.1158146863774565
200,0.14188515033730992,0.11252159861559222
201,0.14135315361991227,0.12111491977636735
202,0.1438130717799127,0.12307984671961072
203,0.14122083007668954,0.11983671071368895
204,0.1383125030631729,0.13700223159398475
205,0.14551615868929962,0.12933905187024397
206,0.1456281466303681,0.12301355768946835
207,0.14828562986156385,0.12389784795137701
208,0.14578360482585057,0.1401718833029802
209,0.151472555319842,0.13129487575695753
210,0.14536615652893428,0.1061545403286005
211,0.15824908474154525,0.15339679590638633
212,0.17285907451656934,0.16114286446319975
213,0.17356019246699908,0.16183023108811467
214,0.17237267819187754,0.1530733346056861
215,0.17329974012006466,0.1534534450575093
216,0.17490633596793664,0.15198119517660488
217,0.17463674873197146,0.1523535907848618
218,0.1752030618721433,0.15934778105796882
219,0.17552866323816002,0.1544925321410172
220,0.17017251346484005,0.15957537037830283
221,0.18087247248479515,0.1589780969051259
222,0.18078139344389865,0.162681873068999
223,0.1768826864856639,0.15872248347368265
224,0.1758025708773119,0.15333177560799893
225,0.174466656131731,0.1512166542353808
226,0.1769189324149425,0.16483379979009852
227,0.18017517355941026,0.16638966759746865
228,0.18691402989282332,0.1742452203574842
229,0.1860399630257757,0.17329071595092566
230,0.18520046472310828,0.17468181121958434
231,0.18317935516158518,0.17017861239956533
232,0.18284966717895457,0.16377364385447074
233,0.1837851916304868,0.17040546648113686
234,0.18365374127562473,0.16899430220047826
235,0.1845166122166513,0.17650255531870246
236,0.1838653958361563,0.17396462418060427
237,0.1843865611273542,0.16488513467714058
238,0.1830868432111889,0.17810589275704297
239,0.18363121091078718,0.16821210158857405
240,0.1838813045616146,0.17007602631610674
241,0.18210186950677484,0.16419625163851767
242,0.18278258462683308,0.17194052070790158
243,0.183023419234159,0.1654090112844136
244,0.18073476433419913,0.17455728569605056
245,0.18156987756156653,0.1675366236490635
246,0.1812524647236443,0.16346491856344908
247,0.18141786976634644,0.17903420672316137
248,0.1806769001247694,0.1633050244933014
249,0.18056633598428426,0.1645978590396489
250,0.18150812274723457,0.1675684276699343
251,0.18174018077343534,0.16811443248949492
252,0.18036116286217452,0.16057648574397124
253,0.18147637582331108,0.1702703541236879
254,0.18188739412302393,0.1668538045854174
255,0.17999509917057638,0.17761584456529642
256,0.18062835387151846,0.16575708084974652
257,0.1806897931844831,0.15927264337267028
258,0.18021200312147911,0.16577654281768583
259,0.17945020672700424,0.17957137610887186
260,0.17733213614472587,0.17376579726167743
261,0.16199518284134812,0.12497941485552505
262,0.14940656603182,0.12904178296780064
263,0.14807530668816918,0.12422632927562972
264,0.14665648647493798,0.1188474202533128
265,0.14804690015659608,0.12955337168840694
266,0.1465496132828838,0.12325714227636946
267,0.14872657979209963,0.12294793504215505
268,0.14515064923082283,0.13516832812593318
269,0.14573005432362934,0.1318658662042962
270,0.1468916856754628,0.13031043517739427
271,0.14465735958303041,0.13347677989815274
272,0.1462753381433966,0.12744834600356372
273,0.14615710044773317,0.11515112496785584
274,0.14707239084333493,0.12928504223081028
275,0.1466895775277439,0.12700540223744278
276,0.14472267005124315,0.1227757354347762
277,0.1446549764530863,0.12111160901752024
278,0.1459661130222967,0.12848694637623242
279,0.14683618616339586,0.12397880189948612
280,0.1483048584291322,0.12420436069792301
281,0.14661107845813204,0.12959008171417224
282,0.14628284894007507,0.13207810947978196
283,0.14705374500482343,0.12811308566840413
284,0.14520856211658378,0.12533688757928135
285,0.14582003594888412,0.11761337314450634
286,0.14519481295891243,0.1296682555624265
287,0.14308312679048155,0.11827809721328143
288,0.1453585159078276,0.12479218407341454
289,0.14334585476484749,0.12039585163195927
290,0.14465874404287796,0.12342582956041057
291,0.14542493507492724,0.1339317435415315
292,0.14402409227754326,0.126250750694155
293,0.1446156057538845,0.13271341644475254
294,0.14536612460895287,0.13246382140861906
295,0.1468281392500198,0.13700017572923684
296,0.1452928730178538,0.12132911629437047
297,0.1460674887715434,0.1371317994263437
298,0.14655548076721742,0.12219401547460176
299,0.1436258006193716,0.1221424653485647
300,0.14586524364707754,0.14220960038228433
301,0.1443684857735355,0.12557278343892542
302,0.14652175566642356,0.11952389323508363
303,0.14346200697499814,0.12460401077775189
304,0.14671299168116766,0.12342607513348068
305,0.14647710811886624,0.12017519683225891
306,0.14851826539425683,0.12390575470328814
307,0.1455553622932745,0.12672404321900055
308,0.14688710367875255,0.1237747881377217
309,0.14790955610018525,0.12289307297291256
310,0.14706354163545338,0.143574562633753
311,0.146828297832854,0.1359597908367689
312,0.14775489393272717,0.12467118252343698
313,0.1458376118595644,0.12713766055119685
314,0.14582558706092585,0.11940941761420784
315,0.14744332715200845,0.12110027522211238
316,0.14441737526053902,0.12459070477196577
317,0.14520466793253958,0.12922039318645473
318,0.1442373695494749,0.12637978041694112
319,0.14470907275358422,0.11908749348369925
320,0.1446602053528695,0.12644269426156135
321,0.14580993394585873,0.11941947145062738
322,0.1469640566604294,0.12518142755932665
323,0.14691411750950367,0.13474449738316294
324,0.1478570413956936,0.11781672846347649
325,0.14684737499973313,0.12987738711773045
326,0.1462937590387986,0.1268895295027882
327,0.14639625507142184,0.13021852332261744
328,0.14616719869265946,0.1351855920275729
329,0.14561967489073235,0.13125177609997848
330,0.14496983673342997,0.12561544784422532
331,0.1464533183404548,0.13016215317247365
332,0.14647672241561122,0.12249287825745485
333,0.14471448183334093,0.11960601198750594
334,0.14586473884190723,0.12406221363279554
335,0.1463644805165221,0.1277075652682675
336,0.14347859947167463,0.12321533413191492
337,0.1459501500430109,0.127882583455061
338,0.14467882986565989,0.12069074502584902
339,0.14634432173889575,0.1235081246251124
340,0.1457201407206736,0.12229679867516469
341,0.14438560574029902,0.12331686874085679
342,0.1448522039008341,0.12076824773571304
343,0.14531637584750323,0.12902510754721783
344,0.14659920324675077,0.12596667283618732
345,0.1449772285057412,0.1282655348017848
346,0.1465904118360473,0.12669871846593111
347,0.14658612008389232,0.12686588613366268
348,0.14621481669543265,0.13001952067150493
349,0.14571786660542957,0.11465229080734655
350,0.14406050013913643,0.12191996685949072
351,0.14794576772040516,0.12795839631523626
352,0.14722829163849974,0.12671114677156942
353,0.14617333329432577,0.12523594575980188
354,0.1489247099561296,0.12436057622366965
355,0.14809668670185477,0.11745565028714632
356,0.14695714137929264,0.1196447778840618
357,0.14790539410684087,0.12786482716249628
358,0.14568955659735097,0.12453077760104328
359,0.14640436241562793,0.12254580022693164
360,0.14510107232187633,0.1267213702068905
361,0.14719471454119282,0.11885391969750397
362,0.14752305802211368,0.13402910511230706
363,0.14829845185144794,0.12428733778381773
364,0.15051849212070958,0.12837204367937544
365,0.14681768060637246,0.14572276356301458
366,0.14512135016264394,0.12778360894537513
367,0.150313581439187,0.13424237298462707
368,0.14707572242503075,0.12475262263854732
369,0.14883243897743373,0.12935961340006444
370,0.14699465875999274,0.1470679108775542
371,0.14876986512417695,0.13995392046512284
372,0.14882115443782198,0.12380300812115054
373,0.1500136289981196,0.12322793387946131
374,0.14746144719666437,0.1290299134557071
375,0.1507985782925132,0.13878653668598342
376,0.1497683552704495,0.12908442271306858
377,0.14736343023954057,0.13401275329950468
378,0.15197820592525485,0.13542670533604864
379,0.14715787289951973,0.11291772984602735
380,0.14009911811547435,0.12699060625451808
381,0.1405927138306123,0.12512633313832008
382,0.14016611265351145,0.10575812928747183
383,0.14137417584765044,0.1292858868656077
384,0.14299191194798969,0.1254616781754989
385,0.14395024063732265,0.1260294924215969
386,0.14300174992665757,0.11717731547326647
387,0.14566218452132923,0.11591466680011997
388,0.14668053060209302,0.13673568786471624
389,0.13579110986440537,0.11444454358562839
390,0.13609274737149166,0.12107331962577715
391,0.13735128620906387,0.125427019518754
392,0.13975554429668727,0.10841168232401116
393,0.14047031709737925,0.1387206305721767
394,0.14447697581017943,0.11914326941831656
395,0.1473750365410355,0.12415799746910731
396,0.14525121554517575,0.1261298591323916
397,0.14725691230417348,0.142383852524914
398,0.14689196086077808,0.126861655013598
399,0.14647021090046608,0.1247204330969611
400,0.14628028929579534,0.11792086531911937
401,0.14565030618714656,0.1333449708127144
402,0.14759902775681333,0.1232044861832481
403,0.1476479222337373,0.12887151221482618
404,0.14701260547276684,0.14084887334175064
405,0.15030208509489953,0.1310301220765079
406,0.1481075299988755,0.11911031000757256
407,0.14936560535843701,0.1304029728084295
408,0.1501271859574929,0.13408431792080355
409,0.1519461437027821,0.13402275594264051
410,0.14524831874870223,0.11403713062320989
411,0.14033597199211986,0.12219374487894101
412,0.14184904615100238,0.12891763821546373
413,0.14316242745964883,0.13371512348803677
414,0.14393330212112806,0.13302433947577094
415,0.1447058009286467,0.13121589870227612
416,0.14597064398938986,0.11985646860805452
417,0.1418210488018558,0.11591998078623925
418,0.14505632017687667,0.13866022963980204
419,0.14292765742211078,0.13200885190991782
420,0.14730212514738353,0.14557318447425127
421,0.14295902974110208,0.1086937366816346
422,0.1383645814553416,0.11626596902312057
423,0.14255719690369645,0.12262744232951774
424,0.14253399959557336,0.11509108767578105
425,0.14012050803741805,0.11499081342953159
426,0.14307838970656583,0.14323884455996225
427,0.14596943917562716,0.12706603956411064
428,0.14613934455393218,0.13120380793875636
429,0.14754638360966865,0.13859255020321623
430,0.14628363480035356,0.11731414586329789
431,0.14997892677068136,0.12393191003596406
432,0.15080730916202975,0.1326624804326701
433,0.14798969435121556,0.11850482012112742
434,0.15161470686189168,0.131425209996039
435,0.1494898043656416,0.1172847998330773
436,0.14923008331198326,0.13564310446441996
437,0.15154210030376386,0.1430962119864818
438,0.14659047974728412,0.13218761828863224
439,0.14928870379710027,0.11839253410684898
440,0.1515392985096495,0.12632877462440067
441,0.14913904307793388,0.1448384959489373
442,0.15066430728444105,0.12533123079998554
443,0.14674834639215775,0.13021841303227108
444,0.14666507353751157,0.1326504759641556
445,0.14744140739866599,0.12626583387188475
446,0.1457227138642839,0.12350469963007213
447,0.1481646982709869,0.13668090271229485
448,0.14573047563039943,0.1468306259045926
449,0.14917512898377364,0.12841926538064435
450,0.14651537591739117,0.13687014794286828
451,0.1475496027466533,0.15186625245931376
452,0.1467982582163343,0.12604137285879155
453,0.1472644994946553,0.12303538819274956
454,0.14718892682996915,0.13544893618265208
455,0.14737905020280492,0.14785758369063712
456,0.14832112213091148,0.13846844732036265
457,0.14671511413026944,0.12144073514027608
458,0.14248451297644904,0.1299465384216494
459,0.14306804788611335,0.12237604533451317
460,0.14709030119202632,0.12253279722955106
461,0.14847230070156514,0.12828367100749088
462,0.15055099258824192,0.1533538371276198
463,0.1516189888579021,0.129990599517743
464,0.14543493801923252,0.1261942221663004
465,0.1406882295341755,0.12461393625027556
466,0.14524496191019434,0.11952697301384693
467,0.14601965375346027,0.12601957416399068
468,0.14700206571084867,0.14034361939723183
469,0.14760036379683486,0.13325835943270387
470,0.14411635806648324,0.12905548619890445
471,0.1520076996748976,0.13046311834843682
472,0.15034909562183152,0.13181026521027814
473,0.14725508935469164,0.12632123275757415
474,0.1468803432462118,0.13653191834664016
475,0.14500394701850328,0.12604732841664182
476,0.14574172822616882,0.11773734520410777
477,0.14552280377802418,0.1242610607583254
478,0.14197279026715445,0.12569841323760303
479,0.1459565210559542,0.12468718627387687
480,0.14737546132553855,0.13055095903799
481,0.14737861306429673,0.1176554008907452
482,0.14680107045259544,0.13346506686033704
483,0.15040098960169132,0.13438781026965316
484,0.15017968264398715,0.1354972011464839
485,0.1536099650442982,0.1324857539600796
486,0.14994522853731346,0.15327148535874252
487,0.15053042036901004,0.1322273850102591
488,0.14923727409161025,0.1543750033592269
489,0.15041790848629202,0.12931766667360226
490,0.14879066472331748,0.13224688203762144
491,0.14397348005703395,0.14019164371712847
492,0.14753713486813086,0.13130703530994162
493,0.14904395827920652,0.12548830172852202
494,0.14924987329481793,0.12435206748539127
495,0.147312296895956,0.14160224418884743
496,0.14726363701985967,0.13210919364042042
497,0.1452414007235566,0.13142927735439666
498,0.14677182996900584,0.1228551371544237
499,0.1530697138560973,0.13360186486179423
500,0.15050084775297332,0.1438647236158378
