epoch,loss,val_loss
0,0.8989917901394454,0.8926639253118054
1,0.8922484442644848,0.8928842316092465
2,0.8921739853423974,0.891923505182695
3,0.8918456581981585,0.8919127527345171
4,0.8919133756264545,0.8918787188652496
5,0.8916899358945434,0.891890271445158
6,0.891910557786028,0.8917970737757468
7,0.8916502354146751,0.8921558886319718
8,0.891615426259582,0.892116304255655
9,0.8917485407043746,0.892200205004445
10,0.8914468258215137,0.8917534055240149
11,0.8913506013763368,0.8914742166020886
12,0.8913333641044758,0.8918874572635462
13,0.8914596531580041,0.8913986282123999
14,0.8913258413261044,0.8914152520371709
15,0.891309198654183,0.8917193225160145
16,0.8913787231966055,0.8913803136323197
17,0.8913576456157758,0.891522558776929
18,0.8913374861421796,0.8913998228579568
19,0.8912143871496611,0.8916650903301525
20,0.8912129530644604,0.8912331487433047
21,0.8912006491086553,0.8918115117565212
22,0.891253441891272,0.8913449079627909
23,0.8911585294715342,0.8914845142936298
24,0.8911806510908956,0.8916353930497833
25,0.891217378358344,0.8911923110102178
26,0.8912078212789771,0.8917419378200997
27,0.8912383747645398,0.8913250155826707
28,0.8910691873419718,0.8915129712358021
29,0.8911427740196429,0.8911374344049735
30,0.8911635106074478,0.8915173574739657
31,0.8910257949053092,0.8913931656445374
32,0.8909948829835351,0.8912986653519902
33,0.8909882181121315,0.8913472523270634
34,0.8909134169206885,0.8915788842728102
35,0.8910319041048604,0.8918089541173849
36,0.8909331182766437,0.8914590992304702
37,0.890903134672749,0.8910893293723815
38,0.8909277917230921,0.8911666103042423
39,0.8909323585620529,0.8910826100016559
40,0.8908865599016221,0.8913177786598369
41,0.8909357015700275,0.8911980218244059
42,0.8908306462351209,0.8909931545339254
43,0.8908863899794585,0.8910838513609174
44,0.8909011349603162,0.8909722167113098
45,0.890845564328969,0.8915437565881129
46,0.8908626030037694,0.8910766540043359
47,0.8907485188202378,0.8909574764954201
48,0.8908001605227196,0.8910651357577241
49,0.8909714589963038,0.8911060826170878
50,0.8908230314333042,0.8909319502638545
51,0.8907693233513815,0.8909145637038433
52,0.890748673341344,0.8923556286466708
53,0.8907889776958218,0.8909909818361352
54,0.8907753851139741,0.890912558460644
55,0.8907279598125809,0.8911275414379046
56,0.8907830418219829,0.8909413099799472
57,0.8906936227722222,0.8913052282445691
58,0.8907328238664228,0.8909275808732566
59,0.8907019574245668,0.8912046353873144
60,0.8907202209088736,0.8912757235625061
61,0.8907784961701121,0.8909862877470013
62,0.8907421429101099,0.8909159809414784
63,0.890708317295472,0.8908731380928252
64,0.8906898858885863,0.8910838228987422
65,0.8907493464356231,0.8910616082348711
66,0.8907191112243985,0.8914340976984649
67,0.8908053782052606,0.8909088364249889
68,0.8906368577080399,0.8909213479121696
69,0.8906037325862474,0.8909488301205686
70,0.8906393630601609,0.8908876250846993
71,0.8906225890963525,0.8909000037058518
72,0.8905915492011512,0.8913470075268306
73,0.8906071228610031,0.8909394966968888
74,0.890618639320752,0.8910044897547116
75,0.8906331715372782,0.8911312879791097
76,0.890618523515011,0.8908573304815517
77,0.8905886904330529,0.8910789018780056
78,0.8905824285418029,0.8909068572189364
79,0.8905948719154674,0.8909047225558018
80,0.8905585213357597,0.8909698389071724
81,0.8905793550097882,0.8910753184518672
82,0.8906624737507441,0.8908724539795575
83,0.8906330576460333,0.8908543091514637
84,0.8906125958522331,0.891242876297912
85,0.8905042905964058,0.8908117992974961
86,0.8905330306287326,0.8908293443777832
87,0.8904898124963024,0.8910743675854783
88,0.8905700469850898,0.8908785833025897
89,0.8905351001990003,0.8908598456188749
90,0.8905358471502839,0.8908429019456247
91,0.8905028015438954,0.890909034383884
92,0.8905052973660803,0.8908305064769066
93,0.8905762235749032,0.8908730506641707
94,0.8904951335190876,0.8908449606670813
95,0.8904904509169301,0.8909443179085628
96,0.8904958320548924,0.8909945979363403
97,0.8905494397746759,0.8908611513052048
98,0.8904372100571408,0.8908408155277914
99,0.8904668405003244,0.89089396870366
100,0.8904387930050481,0.8911719246901078
101,0.890585818263482,0.8908510256630451
102,0.8904243553646286,0.8912454474661539
103,0.8904374173757946,0.8908952786018812
104,0.8904082642803015,0.890904098174812
105,0.8904605196000507,0.8911030166154245
