epoch,loss,val_loss
0,0.7048192169307216,0.6781322661252808
1,0.6769104499973457,0.6837672808185634
2,0.6765522701156557,0.6796123667498473
3,0.652274178148252,0.5677947662371895
4,0.5669853337146316,0.5685065650327302
5,0.5680966217291517,0.5677055905411534
6,0.5673590879368833,0.5775814937064684
7,0.5664622619865113,0.5660757428828859
8,0.5665840227037221,0.566148845618491
9,0.5666497285071651,0.5680303992244876
10,0.5660834067383466,0.5669701505268921
11,0.5657082288117173,0.5679255739269216
12,0.5651761089623782,0.5665816641721787
13,0.5655909586939788,0.5661199415776663
14,0.5660609030281111,0.5707363976400975
15,0.5658939311029569,0.5655349835083368
16,0.5650134525666656,0.5703515872455001
17,0.5650805077920379,0.5666763528511407
18,0.5650445370483534,0.5650709894280362
19,0.5650520735685524,0.5656422343448092
20,0.5645160713764193,0.5654704554177964
21,0.5647336597275853,0.5649387586295477
22,0.564530962284423,0.5669521827258697
23,0.5646699948195132,0.568769672570443
24,0.5645290990542889,0.5656044585291272
25,0.5644564636259058,0.5695654675843118
26,0.5644083359597156,0.5645432537321871
27,0.5642780448010273,0.5649172874283229
28,0.5652539639877984,0.5647706616614053
29,0.5641520312647578,0.5664343688421637
30,0.5641679168172942,0.5643844613426503
31,0.5640942004644216,0.5646434454386954
32,0.5639953912793526,0.5648409502153989
33,0.5640339941573432,0.5657275936843497
34,0.5641377439335531,0.5643288913069241
35,0.5638592270422969,0.5645313640733347
36,0.5637913581560885,0.5646864944147604
37,0.5636517323824782,0.564142722261539
38,0.5636618882736761,0.5677561273666725
39,0.56415642188499,0.5655819431617377
40,0.5638730450241503,0.5663495176098842
41,0.5640505747145027,0.5641088210030337
42,0.5637515386796526,0.5644832887792485
43,0.5635948728698223,0.5645167675722845
44,0.5634309631173394,0.5644802301803034
45,0.5634674727278552,0.5648396038141189
46,0.5635375476240857,0.5648892358487883
47,0.5645762717272876,0.5706884697622099
48,0.5635812291922014,0.5641729721931115
49,0.5634324996493528,0.5640615726436231
50,0.563213902231117,0.5643895641128818
51,0.56308696224892,0.5658974043817541
52,0.5633124175197648,0.5650923285290311
53,0.563477507920711,0.5720309578121602
54,0.5633285397891059,0.5645802508584947
55,0.5632305903404121,0.5639449444776939
56,0.5631230008508544,0.56900461008513
57,0.5633775530160963,0.5656180857846262
58,0.563294957570737,0.566670025058681
59,0.5631023539465551,0.5655500990930921
60,0.563149612346434,0.5637193126903101
61,0.5629870819245637,0.5647024794360045
62,0.5630025172727096,0.5651388137703024
63,0.5631160915621173,0.5635501974655168
64,0.5626615244179943,0.5640978353692326
65,0.5628203331871087,0.5642955963055123
66,0.562956530693852,0.5657466679364762
67,0.5628281130184879,0.5637690538512563
68,0.562869513400702,0.5639362438587867
69,0.5627185836764083,0.5643291950736362
70,0.5628974404954468,0.5653514859507885
71,0.5627019188814211,0.5652019417260392
72,0.5626166740712909,0.5634775117071589
73,0.5625940835705661,0.5637429841580687
74,0.5625492321602538,0.5636402068607812
75,0.5626184928851158,0.5636586457554738
76,0.5625969730556905,0.5666025809353373
77,0.5623711171020873,0.5635451881226942
78,0.562468393116147,0.5643089935662149
79,0.5626298072166225,0.5689249382029253
80,0.5628784433762403,0.563314662245152
81,0.562292292958749,0.5637168538391718
82,0.5625308379371365,0.5647139277396928
83,0.562422690478331,0.5637335936824055
84,0.5621605149173124,0.5633741786954745
85,0.5623087760467856,0.565608884078277
86,0.562291385274883,0.5646935125745083
87,0.5623778745925571,0.5636333333093043
88,0.562253804652713,0.5642868746271481
89,0.562435167121683,0.5637249233125364
90,0.5622914603231295,0.5636128396497804
91,0.5621913780407085,0.5642190515612127
92,0.5622438487625394,0.5679550560179308
93,0.5621224310804825,0.5636053719663517
94,0.5619932747925289,0.5633411572117366
95,0.5619701765248981,0.5633419764884279
96,0.5621103553751552,0.5642505431073126
97,0.5621408640615094,0.5637669311856305
98,0.5622009192084858,0.5634342310770676
99,0.5621592139108619,0.5635673136986808
100,0.5619174313919617,0.5638287346929759
