epoch,loss,val_loss
0,0.5036792562401013,0.48204186252404074
1,0.4628658308717372,0.4627161518664636
2,0.45970988794788986,0.4604327816524138
3,0.46005168284883163,0.47277350261073553
4,0.4599660641801604,0.4724683819669728
5,0.45947597990029204,0.4623398009280832
6,0.4579381754915685,0.457394974389985
7,0.4585682496822025,0.45733358964674986
8,0.4574128465725642,0.45941977678325496
9,0.45797330751579035,0.45763106162338746
10,0.4572714394454357,0.45898399899296893
11,0.4575729555610586,0.4571968983914663
12,0.4565154142800099,0.4577070014507408
13,0.4567701643616025,0.45752523606543366
14,0.45651555088994167,0.45670456057952863
15,0.4576109802186872,0.4594289139072696
16,0.45612997084664586,0.45711212125018524
17,0.4562483479260207,0.45625168117006537
18,0.4564190758372272,0.4560234273526602
19,0.45646475420348737,0.46461568801510256
20,0.45629054514277756,0.4562438867459716
21,0.4557095893275134,0.4560473140735953
22,0.4554831843389774,0.4583969669500306
23,0.45566400243162175,0.4581447326013822
24,0.4555390779245419,0.4607657619155704
25,0.45575766742952717,0.4557590575876787
26,0.4558122527122838,0.45573701127183003
27,0.45599771475553685,0.46615717631846476
28,0.4564904730971756,0.4583111727007962
29,0.4552624297729141,0.4569289369680131
30,0.45534995759835334,0.45620444423381473
31,0.4555175025960022,0.4596931252157918
32,0.4554034561280435,0.4617588859554021
33,0.45491600798165094,0.45548645197962284
34,0.4549458491895813,0.4582110551491029
35,0.4552121140716929,0.4575175320055551
36,0.4547888060325729,0.45642076959191347
37,0.4545714518030059,0.4551148429927785
38,0.45433844501507614,0.456443643225337
39,0.4546941936994603,0.4565154606959039
40,0.45494175463553244,0.45465146652891497
41,0.45416017322349683,0.4553059074046525
42,0.45421875052840094,0.45581787294953485
43,0.4544488084605555,0.4573464949457753
44,0.45443505952819424,0.4650759953502925
45,0.4545378799867324,0.4546654278639808
46,0.4539617434261017,0.45478098429500163
47,0.4543358467035341,0.45520613778071434
48,0.45419297615687054,0.4553679576905432
49,0.45372391721336097,0.4637638240478279
50,0.4546288179976867,0.4553812127041868
51,0.45386682128497824,0.45468884776695384
52,0.4535245010037664,0.45459084158535945
53,0.45371798433889926,0.45607217233747693
54,0.454006232039406,0.45708876318543573
55,0.45349498906789043,0.45481259230628
56,0.45386207146273605,0.4570424782642716
57,0.45395596945481503,0.4555014168297198
58,0.45408893737684053,0.4551575956686661
59,0.45389941207091355,0.45462223695993936
60,0.45322455160537845,0.4551757024621045
61,0.4536247744379854,0.45506984480443297
62,0.45337046532865766,0.45434494683522997
63,0.45402987659785854,0.4612690353291448
64,0.45331577185560007,0.4552218291182589
65,0.4532506428898274,0.45638162293321827
66,0.45312239732766135,0.4543441045207691
67,0.45325379459709886,0.45473430511527707
68,0.45346720511363625,0.45543635816849787
69,0.45289272444321377,0.45429387171722835
70,0.45317402992565065,0.45726141097458833
71,0.4529831895310908,0.46016922822856293
72,0.45312044556271935,0.45453415469643393
73,0.4532747033831905,0.4543613404099385
74,0.4532297274242717,0.45459792611430494
75,0.45274173822001335,0.4559731487288465
76,0.45278393350100193,0.4544639357024648
77,0.45288144993322565,0.4559681517664319
78,0.45287873707100124,0.45593014812571586
79,0.4528663083538679,0.4543221359334615
80,0.45297799052552273,0.4544709450555307
81,0.45262620221028405,0.4542714232933853
82,0.45271642683745283,0.4553335682355362
83,0.4525904306805534,0.45446823132114694
84,0.45295490808439287,0.4549280646271062
85,0.45272072258376805,0.45489654589516193
86,0.4524890384786389,0.4544291422887839
87,0.452430565215961,0.4550262007391683
88,0.4525369615064699,0.45433739657320354
89,0.45255689392083037,0.4542034588738223
90,0.45248895862288,0.4571740947009664
91,0.452639148160443,0.45551219384726416
92,0.4523341591701943,0.45624841555027684
93,0.45283232877120044,0.4542843439721959
94,0.45220836258887565,0.45456035591550253
95,0.4521435744246783,0.4546703522031772
96,0.45244554559474837,0.45617764875516137
97,0.45256713439021085,0.4550507354532115
98,0.45215881106940276,0.45454350069197136
99,0.4521087142376284,0.45431728377076747
100,0.45207885194896885,0.45429190642318074
101,0.45206343363983814,0.45411473978510253
102,0.4522425243039373,0.4544035487307726
103,0.4523375478708089,0.4553735555494623
104,0.45199328831142394,0.4542708394997125
105,0.4521262865037598,0.4542610499792487
106,0.4519652403481597,0.4543098179380184
107,0.4522700586717185,0.4563203320002913
108,0.45217828653609216,0.4574430428557018
109,0.4522354596432067,0.45489127043738353
110,0.45190914250713515,0.45466320321953013
111,0.45188281590984514,0.45454446106702406
112,0.4519514682929402,0.4544073245637677
113,0.4518568292845155,0.4545458410996186
114,0.45168819649146336,0.45409479322474317
115,0.451915552091122,0.45459293253416677
116,0.451856988123874,0.4548054784855444
117,0.451870996023739,0.4542422714529507
118,0.45177273461854434,0.4541626102919242
119,0.4517911654723533,0.45430946943591444
120,0.4517551897935234,0.4544761017507353
121,0.45161336069018565,0.45722215078627526
122,0.4517365116931812,0.4543274735485461
123,0.45168455001458707,0.4544837127022876
124,0.4518124568598514,0.4550403323367525
125,0.4517868899984244,0.45415087143154675
126,0.45155393439135666,0.45522823534124157
127,0.45170688497262884,0.4543500307795833
128,0.4515763998542148,0.45474240011525613
129,0.4515186202347406,0.454744267004205
130,0.45148674176898196,0.45439981622920556
131,0.4518518145598317,0.45538966648073215
132,0.451929861119949,0.4542913517936649
133,0.4513877280306425,0.4546984716835063
134,0.45166649686958343,0.4547207927933597
