epoch,loss,val_loss
0,0.7061046272154624,0.6800469615730024
1,0.6769895765459767,0.6761294544636565
2,0.6757649952900742,0.6765054751514623
3,0.675546890578042,0.6753423313512537
4,0.6755814531460393,0.67565175016636
5,0.6748062851257106,0.6743613808262272
6,0.6744952826394429,0.6744616874025006
7,0.6746655590699282,0.6765317112781761
8,0.6749812907018804,0.6742764730524966
9,0.6741664759777513,0.6844601437162281
10,0.6746153028244465,0.6754038700199739
11,0.6743098706708985,0.6747538079796818
12,0.6744062779717238,0.6788110798125093
13,0.6740724769853678,0.6746583266993407
14,0.6741979245540501,0.674114315617008
15,0.673898759609797,0.6767924325879687
16,0.6739122613168971,0.6736088009666835
17,0.6734723284106694,0.6745324102918392
18,0.6735060735313829,0.6761456369332635
19,0.6738933425218526,0.6743609337275748
20,0.6736944151469251,0.6733113580903864
21,0.6732177802445972,0.6763065262065454
22,0.6733335444622598,0.6785812868040685
23,0.6732346010071988,0.6791172614700023
24,0.6731060959031802,0.6747144409624871
25,0.6731197380917486,0.6768956392429115
26,0.6734497543320666,0.6730519219179991
27,0.6733427298741201,0.6757167322477385
28,0.6728702861015325,0.673382155006907
29,0.673117947059389,0.6732851040950424
30,0.6726452943089177,0.6732269622529089
31,0.5914249670752281,0.5652905096333849
32,0.5636998875323234,0.5640573044660515
33,0.563831530240159,0.5685217226087664
34,0.5639698548796855,0.56406131661168
35,0.5637381670731973,0.5644956086891877
36,0.5636102366583591,0.5653017257725146
37,0.5633403588243249,0.56628403137787
38,0.5635083205014105,0.5638175142143217
39,0.563236413131349,0.5649142588231497
40,0.5634982519537785,0.5644449867324094
41,0.5630902298682933,0.5646101204435116
42,0.5632805713664456,0.5641294876053706
43,0.5633011584108341,0.5637109819520464
44,0.5632009262020974,0.5636290355208599
45,0.5630876021586002,0.563792780328869
46,0.563138983319437,0.5644010379431845
47,0.562930798037064,0.5644178136513116
48,0.5628111838103191,0.5644817611390058
49,0.5636378861937159,0.565898708408854
50,0.5627837834572639,0.5673589648986016
51,0.5631609518642003,0.5640490101032135
52,0.562767616218537,0.5643434021661828
53,0.5633702613812187,0.5634233955397596
54,0.5628335267028836,0.5639121247818434
55,0.5628888684455877,0.5635727471662028
56,0.5626745506068114,0.570594365515086
57,0.5630117446758507,0.563245897374776
58,0.5625343920076685,0.5645648198924177
59,0.5625479518729053,0.5650664779818287
60,0.5626471013702894,0.5635961642612481
61,0.562672162209129,0.5640746140633202
62,0.5623981498293499,0.5661759104667435
63,0.56251363546656,0.5633641504373489
64,0.5625951950419043,0.5632456081582341
65,0.5625585254646045,0.5655597019501876
66,0.5627747891972016,0.5639511382554276
67,0.5623832684512823,0.56360544127111
68,0.5624625300357037,0.5635992546408284
69,0.5624436941170675,0.5660642298692299
70,0.562346337438906,0.5664347234068386
71,0.5623858624232998,0.5639490707272891
72,0.5624179340617135,0.564031815630976
73,0.5623793283757953,0.563355526398285
74,0.5623004285885894,0.5633076271102055
75,0.5621048512414555,0.5637026099883004
76,0.5621661914407484,0.5639705761341773
77,0.5621849467803716,0.5638388844577863
78,0.5622930571830417,0.5639887866933034
79,0.5622088396915106,0.5634167306683558
80,0.5625387802028724,0.5631906692680506
81,0.5621978540577095,0.563371823737657
82,0.5619168826973838,0.5631832417890398
83,0.5622374947627555,0.5633219289064918
84,0.5625231550218036,0.5633438475892681
85,0.5619877400694363,0.5645029937940185
86,0.5620969970850839,0.5638380755193739
87,0.5623632876214429,0.5632753270085925
88,0.5621255434129512,0.5647746503225486
89,0.562195902462945,0.5643653199555276
90,0.5619287256425317,0.563485421383917
91,0.5619248137739536,0.5662736017137319
92,0.5618135681499505,0.5634245321122686
93,0.5619484997067938,0.5632388623674626
94,0.5617219998017964,0.5652355075648305
95,0.5617890837020656,0.5638652882943572
96,0.5619013385207716,0.5635353380403376
97,0.5617510913356043,0.5635968245071313
98,0.5618891315235571,0.5632952664853164
99,0.5619198542080293,0.5633500400906711
100,0.5616698955570605,0.5634416583008123
101,0.5618708119657871,0.5646803880656812
102,0.5617455335960143,0.5631717525151353
103,0.5617611777944109,0.5632257730853634
104,0.5616156900890549,0.5632759936361292
105,0.5615943317580104,0.5633197324689502
106,0.5615665545470369,0.5644646916195463
107,0.5617921769746621,0.565982198051518
108,0.5630775794737855,0.5637610652972596
109,0.5620226535858382,0.5639698843629253
110,0.5619754500681804,0.5641461562293499
111,0.5616794211961472,0.5638354474267817
112,0.5618936265050982,0.5632981817523213
113,0.5615347224759001,0.5635802916847409
114,0.5615055038195521,0.5635807473348091
115,0.5614644511949156,0.5652385445937865
116,0.5615155750474787,0.5632307181011176
117,0.5614138913528992,0.5631999711663616
118,0.5614649130139157,0.5639521602134377
119,0.5615794005179559,0.5636996423917358
120,0.5615029849808698,0.5637318116694497
121,0.5613589596527121,0.5641893870825431
122,0.5613926671216694,0.5632834714025706
