epoch,loss,val_loss
0,0.5847579339246702,0.5582089932998795
1,0.5584977583038688,0.558238121255163
2,0.558003284311035,0.5574914795321092
3,0.5578885496468502,0.5576490202744656
4,0.5579085683519267,0.557131511669768
5,0.5575142665150596,0.557380628412985
6,0.5577294363219738,0.5574650809313753
7,0.5573922507608455,0.5570502232402634
8,0.5488644142343982,0.5070806379536135
9,0.5043909911709167,0.5050473391714392
10,0.504211537811146,0.50369660097167
11,0.5042208027510043,0.5038502802103239
12,0.5044353018589046,0.5048152614698692
13,0.5037788906549251,0.5039207554559223
14,0.5042063888441993,0.5036384881603803
15,0.5039347941418806,0.5038136870932374
16,0.5039176649330311,0.5040491118652489
17,0.5039944698732257,0.5034829355485069
18,0.5037509192638371,0.5038171053960971
19,0.5038862507219467,0.5035212531420568
20,0.5038864598468501,0.5034447697723299
21,0.5037602639718982,0.5035349597929158
22,0.5037856732310596,0.503559664425051
23,0.5037810055970519,0.5033994081545847
24,0.5037550380188092,0.5034160847772391
25,0.5037335448763294,0.5033887497414841
26,0.5035982567133536,0.5035225989884642
27,0.503665893582632,0.5033194472055126
28,0.5036863979888107,0.5035639316756958
29,0.5036081768813436,0.5058426469329257
30,0.5036367767227748,0.5034090586377188
31,0.5034824037373945,0.5031914348054488
32,0.5034103406644592,0.5032798232649812
33,0.49212063276061097,0.4854788687944981
34,0.4857402327079368,0.48553897981622673
35,0.48566644846200724,0.485627866465141
36,0.4857135255154305,0.48569737382166145
37,0.48569618885893556,0.48540999878872687
38,0.4857354334474609,0.4856409720705942
39,0.485602954584079,0.4856456740665138
40,0.48577159058502956,0.48586176756128824
41,0.48565430421708755,0.4855806032196713
42,0.4857917631785279,0.4858805188007761
43,0.48563428869515507,0.4861667901906514
44,0.48570040412369786,0.4860633186767639
45,0.48557202317353426,0.4854650483380372
46,0.48562428102899036,0.48558341574069447
47,0.48549548826093974,0.4856477624441554
48,0.4856007213861474,0.486171317228507
49,0.4856218710280109,0.4855559962695838
50,0.4854529397075035,0.48543025706640885
51,0.48557820549913744,0.4853892890460602
52,0.4855307428896766,0.4866335015435638
53,0.4854072523771925,0.4859101554848203
54,0.4854968110140569,0.48533569108151275
55,0.4855041888818731,0.485603045117726
56,0.4855260624775152,0.4853330377887905
57,0.4855600068924616,0.4854866380778162
58,0.48541665859322175,0.48564125723544777
59,0.485355660921865,0.48590758608599105
60,0.48546923106946355,0.4853132616261601
61,0.485383148444073,0.4851728408440338
62,0.4854839158315589,0.48535299070342175
63,0.4770066182518717,0.4675398214374426
64,0.46759951800324906,0.4679062569397352
65,0.46774367466974587,0.46752057598476826
66,0.46766340581985866,0.46742864418279184
67,0.4675886856402623,0.46749483293667915
68,0.46757280118474026,0.4675114371346036
69,0.46539644458071205,0.4500811322169865
70,0.449892872171591,0.44986880245635785
71,0.4498882296508756,0.4501065639021813
72,0.44990407572088964,0.44991458806122614
73,0.4498737352575637,0.4497681790797027
74,0.44990346284534555,0.44962555143259536
75,0.4498861928142786,0.449736846036967
76,0.44985146863114733,0.45027246190158793
77,0.4498498897115091,0.44994242154342096
78,0.44986592574375384,0.45046535315349967
79,0.4499056721259426,0.4497833561407227
80,0.44986783934199587,0.4499889408684494
81,0.4498667010125118,0.44971927695262104
82,0.44986954349811387,0.4497448544225292
83,0.4498925453232298,0.44975579227957513
84,0.4497953951723416,0.44983456002001065
85,0.44984230673873926,0.44994198708255084
86,0.4498403595643444,0.4496469719899119
87,0.44990194528235744,0.4497036721962792
88,0.4497729656805268,0.44977784907736895
89,0.44982326511484394,0.450137718497427
90,0.44980354133553335,0.4496787230035191
91,0.44983111680075394,0.44963359195587943
92,0.44990866543532454,0.44968379249395984
93,0.44983386666889824,0.4499102012184393
94,0.4498222133063494,0.44962890514826026
