epoch,loss,val_loss
0,0.5638989995997084,0.5237906626942705
1,0.5229828144867077,0.5224933863823775
2,0.5226662644386408,0.5227014666567114
3,0.5223665010595844,0.5229717135910682
4,0.5226433920176261,0.5220562742486703
5,0.5220645275685942,0.5215419356616009
6,0.5217117731371531,0.52253763988316
7,0.5217888558422118,0.5216961924932182
8,0.521868225258848,0.5218920150597745
9,0.521926563194624,0.5224685379071374
10,0.5218200414940772,0.5253230852585448
11,0.5217460842900316,0.5217865397239261
12,0.5217660446484067,0.521277483690111
13,0.5214612702386433,0.5212271793607529
14,0.5213775768836879,0.5217944084668208
15,0.5216293773272208,0.5236925002215521
16,0.521530122058927,0.5216191624540608
17,0.5213679485877603,0.5217784527223642
18,0.5213657521965264,0.5211620601870025
19,0.5214350617149959,0.5211651160161765
20,0.5213559414149279,0.5230194356796347
21,0.5212280737622299,0.5211185015413953
22,0.5212678372287499,0.5211380043146172
23,0.5212113179657053,0.5214212063496912
24,0.5213351921655428,0.522227245714713
25,0.5211260325392211,0.5210044626840475
26,0.5212191100396781,0.5212656848691848
27,0.5213360156080675,0.5211684265187474
28,0.5210851617105045,0.5216849641442014
29,0.5212422986894585,0.5208094187735811
30,0.5210110979896369,0.5209175729165276
31,0.5210764661815076,0.5209274601883835
32,0.5209613908078828,0.5208843051019908
33,0.5210538463628408,0.520769898651674
34,0.5073777291361561,0.5032103165374324
35,0.5032516380672521,0.5035437624440059
36,0.5032789798703785,0.5030961763445314
37,0.5032613065480938,0.5033938069040785
38,0.5032639246311598,0.5029820022527877
39,0.5032884228475277,0.5030701518015023
40,0.5032324002752714,0.5036123974167069
41,0.5032439261370423,0.5030939174170974
42,0.5031703005050266,0.5030561490854357
43,0.4908260548815579,0.48576020538686593
44,0.48537502989729897,0.48524226227207434
45,0.48542258377876485,0.48525652752641935
46,0.48528712140155245,0.48556855011913924
47,0.48530613842809456,0.4853448314357403
48,0.48538708989646606,0.48570667445976856
49,0.48535140705282204,0.4858459919434028
50,0.48537793186357453,0.4852850466534553
51,0.4854063157872074,0.48531990501722694
52,0.4853412419176542,0.4854855542008779
53,0.48527818692527563,0.4854030686138879
54,0.48535213061645577,0.4855889852089846
55,0.48522072396759974,0.4852841531799395
56,0.48540423472569233,0.4852540297592686
57,0.48525903334258536,0.4854527448958094
58,0.4821528793402226,0.4677201966492052
59,0.46750711230113906,0.46750631762723527
60,0.46752996546650266,0.46774010054779436
61,0.467528041895868,0.4673266587650739
62,0.46748701908569884,0.46758315408529544
63,0.46764188214399083,0.4674579083022557
64,0.4675443970574409,0.46749981287248116
65,0.46748417444336177,0.4675686239353953
66,0.46757241988018716,0.4674065952826955
67,0.4674192857394461,0.4675463947282404
68,0.46751057284537706,0.4676626069017628
69,0.4675494950156901,0.46741189608159994
70,0.4674281301305601,0.4675104943278252
71,0.4675213632039895,0.46793749760566317
72,0.4675800663426417,0.4674791978638989
73,0.46744526699645705,0.4676037503505195
74,0.4673871586098469,0.4679348277190253
75,0.46741122761406856,0.46750038868791577
76,0.4675293559217742,0.4674452284559851
77,0.46753429208478847,0.4673653327723034
78,0.46743443439464333,0.4672752432231182
79,0.4674866007866681,0.4676320583618197
80,0.46739486039264594,0.46735357662300864
81,0.46738472668783465,0.467443613376852
82,0.46742578554081976,0.46733560903309945
83,0.46751982681560333,0.46731815330587106
84,0.46750278143866125,0.46752101382567784
85,0.4674547534273503,0.4675613001062796
86,0.46742004768494155,0.46726226849301317
87,0.46742545530148044,0.46750254601179997
88,0.46735671680002916,0.467379621637701
89,0.46750962815897584,0.46744274208142705
90,0.46736350314999425,0.46784878004623304
91,0.4674152790070776,0.4677555811451124
92,0.4647685196440964,0.45036348814285226
93,0.4496592301151807,0.44958897500787226
94,0.4496192223633248,0.44978793439875614
95,0.44961434915035575,0.44978226454657444
96,0.44961411424672604,0.44963081333916827
97,0.44974985976332066,0.4496851352775484
98,0.4496606729326244,0.450129353747409
99,0.4496628380229424,0.45036367711878234
100,0.449647426441145,0.44974706030303263
101,0.4496204525846702,0.4499474509984424
102,0.4496311694338044,0.44968386693139933
103,0.4495472764304532,0.4498977178082507
104,0.44957854272196646,0.4497132878836021
105,0.44968716816711973,0.4495623752893188
106,0.44958180799508757,0.4494937171868653
107,0.4496487245932627,0.4496927674231474
108,0.4495789164278116,0.45167933779367503
109,0.44964580850885016,0.45104108418558997
110,0.44966088300736634,0.4506510208070464
111,0.44952107874699715,0.44985963851295496
112,0.4496118552791837,0.44974697525511315
113,0.4496518591569383,0.44990920881587093
114,0.44949369002257805,0.4498779654645071
115,0.4496395592515371,0.4495445092974901
116,0.44964283896730806,0.44949770382313053
117,0.44964221007577315,0.4495415629476861
118,0.449578033072537,0.44958653560930006
119,0.4495706082597277,0.4496427070582585
120,0.44960522503636113,0.449479892803433
121,0.4496031593983273,0.44961853676223823
122,0.4495349582848713,0.44957000695361765
123,0.44957267385400707,0.44956729694952063
124,0.44952577753424927,0.4495098219757497
125,0.44964830450394133,0.4495519931917126
126,0.44958805295716164,0.4494719934487566
127,0.4495238171222779,0.4497214403693272
128,0.44955742814391075,0.4497911770051938
129,0.44955368803175627,0.4495754401592798
130,0.4495133867378723,0.44955305415767116
131,0.4496198130006155,0.44952033971795075
132,0.4495213617277691,0.44950263621413744
133,0.44951543371458774,0.4494713009891433
134,0.44951330075652224,0.44951151073208684
135,0.449479528171189,0.4497443275301582
136,0.449510434530427,0.4495572853381534
137,0.4495291163204948,0.44990522495802004
138,0.44427987971808736,0.43171958312745007
139,0.43176737891145167,0.4321072828574976
140,0.4318295185639748,0.43170097648036393
141,0.4318047059528863,0.43201908080878443
142,0.4317598484514423,0.43184093010602775
143,0.4317749532937435,0.4318422443397681
144,0.4318077342969063,0.4316907868317058
145,0.4318013589134375,0.4320428277138374
146,0.4317690171166911,0.4320639331070824
147,0.43174347079638103,0.43192363738094824
148,0.43176284350006777,0.4318071508663557
149,0.43173865743964546,0.43166120177803835
150,0.43180331551693935,0.4317673796261094
151,0.4316577137431771,0.4316636965753486
152,0.4316997069200259,0.431772577383033
153,0.43174060381187346,0.4318147701317071
154,0.4316480500808059,0.43190490900321626
155,0.4316515109823728,0.4317189241838271
156,0.4316906110805904,0.4322738038397509
157,0.4317444194917935,0.4318147045600346
158,0.4316385387572162,0.43168285499474046
159,0.43168450048146734,0.4316730033992561
160,0.4316691731107835,0.4316215437198915
161,0.4316910474976538,0.43159306783876544
162,0.4316584673771298,0.43214354511356545
163,0.43172594130808567,0.43186743256914045
164,0.43171326778799474,0.4320146887427974
165,0.43168259038541296,0.43214012731388307
166,0.4316477928842296,0.43220736339871524
167,0.4317966716992656,0.4316347253379482
168,0.4316134377416138,0.43201735375080225
169,0.43159348841121004,0.4316480589538654
170,0.43165591616743443,0.4315659830079732
171,0.4316058268479676,0.43178321951396925
172,0.43162135500831184,0.4316292085227977
173,0.4316396587316637,0.43168451275644354
174,0.43171945285737323,0.43187859536836204
175,0.43159983391396284,0.4317360623240755
176,0.4316106364928583,0.43175874906715983
177,0.4316060720430337,0.4316734890529575
178,0.4316091708428285,0.43219079626090023
179,0.4316827253189963,0.4317085298404144
180,0.43159869666011164,0.4319396170810245
181,0.43162140589121495,0.43166049942442597
182,0.4316647549579652,0.4316957107726139
183,0.43166524180944754,0.43160721993835766
184,0.4315781170981896,0.43183316208612244
185,0.43166250299479814,0.4320993320037081
186,0.4316297251802486,0.4317005908878643
187,0.4316230229848808,0.43158169000230595
188,0.43170965713828086,0.4318961707533642
189,0.4316165671167282,0.4316389467611644
190,0.4315796580315803,0.43155230966527036
191,0.4315963786075099,0.4316862086939974
192,0.43160372489365173,0.4317395532923153
193,0.4316145294013939,0.43172160703822177
194,0.4316690301682932,0.4318875130283043
195,0.431607953968446,0.43154279234912946
196,0.4316044485356791,0.4316314420343036
197,0.43161708549701483,0.43166245195510783
198,0.4315640976277741,0.4316544439141128
199,0.43159481773298,0.4317290121797116
200,0.4315756499464668,0.4316644189849559
201,0.4316100777818091,0.43206004724303043
202,0.43156341048798563,0.4317775161020426
203,0.431582663574007,0.4317028226874732
204,0.43158432198655916,0.431884969608743
205,0.43157276115213583,0.43158399704334427
206,0.4315907705969247,0.43156150151314177
207,0.43159897313239326,0.43162734620854226
208,0.43155376393182304,0.4316058153077033
209,0.4315953754376744,0.4316676935158119
210,0.4315601900377616,0.43220136175026125
211,0.43161812821367707,0.4316762913190065
212,0.4316261500701734,0.4316176279113148
213,0.4316137235026232,0.4316379571424797
214,0.4316091365392561,0.4315767493416878
215,0.4315851983283429,0.4316806008967156
