epoch,loss,val_loss
0,0.580716842203308,0.5725683489933481
1,0.5721783367135256,0.5725729136177189
2,0.5721778846282563,0.5725679857672531
3,0.5721817808233196,0.5725553375863615
4,0.5723320473250535,0.5725674792453823
5,0.5721789028861826,0.5725757333831516
6,0.5721840589261836,0.5725707299801526
7,0.572188121118515,0.5725697280387758
8,0.57218631951929,0.5725947796780948
9,0.5721875875354481,0.5725635785047897
10,0.5721899420618535,0.5725670924973281
11,0.5721897487398341,0.5725602917814218
12,0.5721942658285253,0.5725846225667771
13,0.5721850477867751,0.5725702276922345
14,0.572190081854042,0.5725871214456415
15,0.5721906365202867,0.572568812093682
16,0.5721893007759091,0.5725699429353956
17,0.5721905253631033,0.5725697959701942
18,0.572191417288723,0.5725754320668535
19,0.5721924405732601,0.5725910289135144
20,0.5721878208797708,0.5725907832501719
21,0.5721939423387286,0.5725685258314378
22,0.5721948801947059,0.5726127002591116
23,0.572187224952437,0.5725749233339185
24,0.5721931985194544,0.5725835934340154
25,0.5721927403355483,0.5725813654810779
26,0.572192031035511,0.5725592252487448
27,0.572190483792318,0.5726213727584484
28,0.5721880775227917,0.5725704372258477
29,0.5721939361924462,0.5725758811010558
30,0.5721913566835207,0.5725729183221108
31,0.5721909565319546,0.5726200989032224
32,0.5721888134805418,0.5725692581641175
33,0.572189438138172,0.5725678127867647
34,0.5721876555257183,0.5725621075825891
35,0.5721907312397382,0.5725674485257035
36,0.5721875144470986,0.572563110041449
37,0.5721946530919567,0.572560509359545
38,0.5721963502758508,0.5725945807293634
39,0.5721909158664356,0.5726070357479255
40,0.5721882622447803,0.5725799829544002
41,0.5721911535703307,0.5725697264392826
42,0.5721891398290746,0.5725620808616434
43,0.5721869062748458,0.5726190276661537
44,0.5721927366191916,0.5725898993419867
45,0.572187966413254,0.5725626488228718
46,0.5721936153231574,0.5725637953302102
47,0.5721978567582335,0.5725808632402036
48,0.5721900947183537,0.5726281746974966
49,0.5721905690779407,0.57257614083053
50,0.5721892342388296,0.5725595874869174
51,0.5721940115201387,0.5725709420070935
52,0.5721893492791292,0.5725598006429122
53,0.572191771557577,0.5725851256073979
54,0.5721945448173321,0.5725606916547292
55,0.5721891377564909,0.5725703419619126
56,0.5721869422472734,0.5726403260946086
57,0.5721882499998613,0.5725842272096858
58,0.5721901029848652,0.5725775581226635
59,0.5721918109366648,0.572654203721267
60,0.5721921369755011,0.5725812913398622
61,0.5721873438996757,0.5725614783231349
62,0.5721894300384202,0.572605482781131
63,0.5721878763392484,0.572570074376104
64,0.5721904470099153,0.5725606463984796
65,0.572188908366753,0.5725809931755066
66,0.5721915386420645,0.5725951290732777
67,0.572192955383961,0.572564182360528
68,0.5721880444091001,0.5725638825496352
69,0.5721922011303006,0.5725730353203362
70,0.5721876497367779,0.5725718950227949
71,0.572187362672042,0.5725834375304694
72,0.5721895144902449,0.5725579288594819
73,0.5721860378146839,0.5725807630366572
74,0.572192642042677,0.5726267799394
75,0.57219212556438,0.5725606700615706
76,0.5721918344735909,0.5725626343803888
77,0.572192274099536,0.5725681231825391
78,0.5721870092608088,0.5725676159079657
79,0.5721875417956727,0.5726197886956237
80,0.5721990480173311,0.572615101568889
81,0.5721901797657486,0.5725693137229854
82,0.5721892233279874,0.5725721960097857
83,0.5721910956571047,0.5725780788047538
84,0.572191076717979,0.572562772783597
85,0.572191508625337,0.5725682089436026
86,0.5721870941176213,0.5726330800609694
87,0.5721881945642064,0.5725640386884008
88,0.5721915191073689,0.5726084251900593
89,0.572190554307805,0.5725690650017881
90,0.5721890382963023,0.5725725958830932
91,0.5721897117192034,0.5726130055741429
92,0.5721903678229292,0.5725660132627931
93,0.5721912082913015,0.5725795739075286
94,0.5721869146128258,0.5725721343822524
95,0.572197420991582,0.5725760932220845
96,0.5721886935089228,0.572570348689193
97,0.5721901557047209,0.5725656217162592
98,0.5721884341024571,0.5725593048470549
99,0.5721866823167061,0.5725642143503925
100,0.5721887680742856,0.572559398323321
101,0.5721931982574036,0.5725716258374931
102,0.5721888622696356,0.5725653324902481
103,0.572189046538991,0.5725675762028984
104,0.5721892526776766,0.572559398370365
105,0.5721883237790718,0.5725893751786465
106,0.5721915550559735,0.5725637343142479
107,0.5721932897131315,0.5725812173868223
108,0.5721945010548491,0.5725672724403165
109,0.5721923068797083,0.5725553995902462
110,0.5721907386009832,0.572568004867084
111,0.572190602953962,0.5725895362570235
112,0.5721876490935623,0.5725858089673584
113,0.5721947999833394,0.5725734995967682
114,0.5721908327725104,0.5725958570779169
115,0.5721911803233347,0.5726125047916301
116,0.5721929858771445,0.5725793276796589
117,0.5721887325306686,0.5725608917325147
118,0.5721901817668638,0.5725881773463929
119,0.5721887951846317,0.5726380406540026
120,0.5721897834020077,0.572569677090212
121,0.5721903152460103,0.5726017264183243
122,0.5721873225306245,0.5725592738921566
123,0.5721945254970416,0.5725883906435195
124,0.5721911839682231,0.5726132844034479
125,0.5721916454158527,0.5725584284658967
126,0.5721928194987116,0.57257522036922
127,0.5721946442775208,0.5725713109255025
128,0.5721894803759958,0.5725610084014326
129,0.5721913894160474,0.5725656630208197
130,0.5721944692514116,0.5725722206137551
131,0.5721892160382107,0.5725812183277007
132,0.5721876878294346,0.572611276098566
133,0.5721910494170506,0.5725820972492305
134,0.5721882164097137,0.5725861239263931
135,0.5721873712958954,0.5726178725027342
136,0.5721915479329565,0.5725729247671276
137,0.5721858856822851,0.5725774836521405
138,0.5721913477737935,0.5725721906938229
139,0.5721894848070366,0.5726125648196702
140,0.5721929268442469,0.572587721726042
141,0.5721881883464557,0.5725870642872805
142,0.5721949829900865,0.5725859470412594
143,0.5721936635643268,0.5725875465344893
144,0.5721896061127325,0.5725770900356741
145,0.57219007673214,0.5725735900151795
146,0.5721868566995997,0.5725619007775232
147,0.5721875937055532,0.572554534123277
148,0.5721878866545207,0.572577743757966
149,0.5721871716131885,0.5725757457557021
150,0.5721874462424231,0.5725600919858997
151,0.5721886084853507,0.5725653478736095
152,0.5721875200692793,0.5725750871878867
153,0.5721915809513568,0.5725707889732264
154,0.572189252391803,0.5725727354623995
155,0.572189782877906,0.5725948285096822
156,0.5721931664063205,0.5725631168628171
157,0.5721901229721942,0.5725782595945327
158,0.5721903122443375,0.5725636794610388
159,0.5721882351106115,0.5725959029927814
160,0.5721916053697265,0.5726133564747311
161,0.5721929049749168,0.5725695816851453
162,0.5721865564370326,0.572568174648586
163,0.5721937139495481,0.5725639632299554
164,0.5721881061101513,0.5725637432525924
165,0.5721910300491144,0.5725730010723635
166,0.5721922674529749,0.5725785945942765
167,0.5721888784214938,0.5725766025665904
168,0.5721877125575007,0.5725712406889322
169,0.5721914588833312,0.5725940902965128
170,0.572196174606526,0.572593592948206
171,0.5721940004187142,0.5725610849418881
172,0.572188504641767,0.5725814272967867
173,0.572188487751402,0.5725652585842521
174,0.5721882530253568,0.5725745589787695
175,0.5721884088026439,0.5725718145776942
176,0.5721888228667249,0.5725598542729794
177,0.5721902706973749,0.5725837890896726
178,0.5721885064761225,0.5725687279791557
179,0.5721885195548395,0.5725647748786817
180,0.5721937751741433,0.5725806732768606
181,0.5721934194044529,0.572589723632951
182,0.5721913334086454,0.5725594919877628
183,0.5721893776044381,0.5726208074316794
184,0.5721953649648565,0.5725628886057245
185,0.5721910315499508,0.5725788180058456
186,0.5721942477231975,0.5725608454412989
187,0.5721833655397764,0.5725693980256873
188,0.5721932723463106,0.5725776048843185
189,0.5721887479916655,0.5725606299331081
190,0.5721889681143345,0.5725675879168342
191,0.5721871144861149,0.5725586012111655
192,0.5721903012143813,0.5725735647055514
193,0.5721898462941988,0.5725774354321239
194,0.5721919822225944,0.5726262792509752
195,0.5721893671938746,0.5725706483119101
196,0.5721920598849214,0.57256560972006
197,0.5721927681367556,0.5725674573229163
198,0.5721875778872142,0.5725808114448493
199,0.5721909647031749,0.5725903315815102
200,0.5721940309118977,0.572569352628306
201,0.5721872529442267,0.5725820296941635
202,0.5721908107125978,0.5726831889378338
203,0.5721974648017105,0.5725621822883317
204,0.5721871262307552,0.5725658119618657
205,0.5721889317369194,0.5725854744850978
206,0.572190385904434,0.5725795297803329
207,0.5721946105206137,0.5725974377065356
208,0.5721881655242136,0.5725563905703899
209,0.5721896277914802,0.572586313325209
210,0.5721874410490528,0.5725663000425205
211,0.5721890545910974,0.5725729322471107
212,0.5721884076591495,0.5725654209328149
213,0.5721935624841877,0.5725633610207543
214,0.5721924815008299,0.5725631999423773
215,0.572188958537569,0.5727082639579804
216,0.5721971951514411,0.5725539535072345
217,0.5721888814231665,0.5725884710415763
218,0.5721878348161086,0.5725762793748701
219,0.5721887300292746,0.5725797501340473
220,0.5721853186520074,0.5725703746103921
221,0.5721885380651549,0.5725656052038438
222,0.5721923016863381,0.572552924280385
223,0.5721901312625284,0.5726114202881762
224,0.5721893684326602,0.5725857696856865
225,0.5721904687363085,0.5725738920371365
226,0.5721875280737401,0.5725971609942068
227,0.5721934519940429,0.5725679323253616
228,0.5721898073915669,0.5725740715567296
229,0.57218744400308,0.5725704779188372
230,0.5721956386173562,0.5725794979316001
231,0.5721907365998681,0.5725787455582111
232,0.5721871493150481,0.572567100071399
233,0.5721929298935653,0.5725789144929225
234,0.572191878212251,0.5725928926994788
235,0.5721898959409133,0.5725611841104684
236,0.5721900193430156,0.5725788583224838
237,0.5721938561001937,0.5725791937456229
238,0.5721927759982794,0.5725741901074043
239,0.5721888138378839,0.5726349780008185
240,0.5721888949783396,0.5725737888698231
241,0.5721919384839342,0.572576650692519
242,0.572188291642115,0.5725593264872574
243,0.5721888903805392,0.5725776931387097
244,0.572193143750838,0.5725764778531623
245,0.5721874695887669,0.5725637168609541
246,0.5721970771332915,0.5725674328130347
247,0.5721908645283023,0.5725646579275003
248,0.5721932199599741,0.57260627213104
249,0.5721933968442616,0.5725932631232933
250,0.5721921416685927,0.5725802021790605
251,0.5721936640646056,0.5725939387680511
252,0.57219025142473,0.5725728642686484
253,0.5721887450852841,0.5726350984332499
254,0.5721927376912176,0.5725631766085937
255,0.5721910361477511,0.5725583177245124
256,0.5721930648497254,0.5725573046807708
257,0.5721864315579168,0.5725787851691905
258,0.5721886752606582,0.5725759909486056
259,0.5721927318546316,0.5725907345597162
260,0.5721920276288506,0.5725657288352617
261,0.5721929344675428,0.5725861410974233
262,0.5721927210629034,0.5725909052820966
263,0.5721918851208629,0.5725895397382734
264,0.5721867718904329,0.5725780124728287
265,0.572189626981505,0.5725936367460942
266,0.5721889847188258,0.5725849304692239
267,0.5721839488172036,0.5725991488820281
268,0.5721939466983008,0.5725784918974024
269,0.5721887007510538,0.5725812069430724
270,0.5721893491361925,0.5725602628964558
271,0.5721914715570607,0.572589309599424
272,0.5721928056814878,0.5725905564514407
273,0.5721912325429116,0.5725926464245652
274,0.5721927263515649,0.5725830546400165
275,0.5721932769679338,0.5725910393572644
276,0.5721919283592444,0.5725607892708602
277,0.5721943323894275,0.5725819392757521
278,0.5721866043685057,0.5726242665710088
279,0.5721870281046434,0.5725832631857073
280,0.5721893655024558,0.5725776507521391
281,0.5721897837355269,0.5725779446354982
282,0.5721857592785101,0.5725564420364367
283,0.5721922345775113,0.5725721500478773
284,0.5721907667357097,0.5725662132464908
285,0.5721899733173667,0.5726251049877248
286,0.5721901730000735,0.5726208922518645
287,0.572190523624039,0.5725896170784756
288,0.5721992235198963,0.572594144444063
289,0.5721873410409398,0.5725761071000404
290,0.5721887629523837,0.5725683356799192
291,0.5721889967969853,0.5725586650497629
292,0.5721899785583825,0.5725683610836351
293,0.5721862382597203,0.5725839063701614
294,0.5721897643199451,0.5725713096553168
295,0.5721880700186097,0.5725703148646155
296,0.5721873206962689,0.5725770210222456
297,0.5721894927638517,0.5725940455107023
298,0.5721881034419977,0.572562600743987
299,0.5721871870265399,0.5725662085891429
300,0.5721928281225651,0.5725606817755063
301,0.572193493374246,0.5726082443532364
302,0.5721856674177945,0.5726049439400881
303,0.572190951362407,0.5725784758083822
304,0.5721941521937708,0.572603419011469
305,0.5721889316178054,0.572567864535075
306,0.5721931176886951,0.5725850289791893
307,0.5721897793759545,0.5725823287053097
308,0.5721920646256585,0.5725569957433578
309,0.5721881644760104,0.572574797162129
310,0.5721873891153496,0.5725739886183012
311,0.5721909856434159,0.5725866575926049
312,0.5721926245329191,0.5725870283927706
313,0.5721885379936865,0.5725576539818659
314,0.572187947021495,0.5725728260689865
315,0.5721929188397863,0.5725918991789634
316,0.5721943713158821,0.5725925075038738
317,0.5721855394655375,0.5725826080991419
318,0.5721933191342892,0.5725641968500549
319,0.5721895022929715,0.5725836263647583
320,0.5721912083627699,0.5725796467785583
321,0.5721926098580745,0.5725614990695029
322,0.5721888990282155,0.572615539218463
323,0.5721878273595723,0.5725617822738924
324,0.5721915739950992,0.5725739685775919
325,0.5721904882471814,0.5725718728180654
326,0.5721924559151431,0.5725790830512826
327,0.5721904777889725,0.5725629105281905
328,0.5721882736797241,0.5725772014356733
329,0.5721908323436999,0.572587882757375
330,0.572190105271854,0.5725902437505143
331,0.5721895145378906,0.5725989089580437
332,0.5721931092316013,0.5725916582670566
333,0.5721946033737738,0.572577187745893
334,0.5721878627602526,0.5726399343128551
335,0.5721883370483712,0.5725562104392259
336,0.572188169764672,0.5725670386320414
337,0.5721923988595379,0.572564434092536
338,0.5721874225387376,0.5725703632728076
339,0.5721917263180804,0.5725635670731175
340,0.5721916374590376,0.5725860785290117
341,0.5721882494519369,0.5725729238262492
342,0.5721907187089456,0.5725658223585718
343,0.5721902646940293,0.57257735686878
344,0.5721889673281821,0.5726428509887599
345,0.5721955948786961,0.5725948151962533
346,0.5721922005585534,0.5725873138082244
347,0.572189363572809,0.5726077431002845
348,0.5721951546810037,0.5725969815216576
349,0.5721951416499323,0.5725739446792814
350,0.5721933360961224,0.5725785432693614
351,0.5721904239970907,0.5726425569642691
352,0.5721903461441814,0.5725595706922385
353,0.5721910897014048,0.5725616765191636
354,0.5721877155591735,0.5725845122487881
355,0.5721892646843676,0.5725625355411159
356,0.5721910988970055,0.5726398066356602
357,0.5721931404871144,0.5725781051023042
358,0.5721899358441027,0.5726013737300671
359,0.5721939305464426,0.5725697998277954
360,0.5721928591160275,0.5726153652500523
361,0.5721871617981951,0.5725823604129108
362,0.5721893637872143,0.5725888663045797
363,0.5721900060022478,0.5725551506808731
364,0.5721920016381762,0.5725873562888828
365,0.5721895387418551,0.5725758817126267
366,0.5721920336083733,0.5725910225625854
367,0.5721876952145025,0.5725738549665287
368,0.5721884096602646,0.5725725831812352
369,0.5721893208347064,0.5725669657139677
370,0.5721880474584184,0.5725752470431219
371,0.572189827831529,0.5725705302787185
372,0.57219305408182,0.5725839654573232
373,0.5721919603294415,0.5725807800665557
374,0.5721937444903772,0.5726122694779496
375,0.572193187036865,0.5725616346971201
376,0.5721883736640143,0.5725601267513555
377,0.5721852236705052,0.5725912571235633
378,0.5721922840098207,0.5725652480464144
379,0.5721888524308193,0.5725630664317365
380,0.5721929002341797,0.5726051236478569
381,0.5721917057351814,0.5726223123666331
382,0.5721869301691139,0.5725623794493943
383,0.5721878303612451,0.5725669039923466
384,0.57219476603585,0.5726150028707478
385,0.5721934216199733,0.5725720683796347
386,0.5721931258122698,0.572556857622413
387,0.5721874159159992,0.5725713026457728
388,0.5721933186816559,0.5725621336919638
389,0.5721909058132141,0.5725629587011631
390,0.5721930191575957,0.5725767462387176
391,0.5721851098689911,0.5725605377270278
392,0.5721910666885803,0.5725621262590247
393,0.5721908749865113,0.5726025938140942
394,0.5721896316031282,0.5725694240409742
395,0.5721916481316518,0.5725964706717463
396,0.5721943851807516,0.5725687209225679
397,0.5721914380622044,0.5726151493655102
398,0.5721949202170094,0.5725720148906994
399,0.5721902266728411,0.5725669129306911
400,0.5721895512011792,0.5725598283988242
401,0.5721939148472177,0.572588443426796
402,0.5721873057831963,0.5725670849703012
403,0.5721908817283636,0.5725715437928992
404,0.5721887360326201,0.5725632385654345
405,0.5721895734754969,0.5725871064856755
406,0.572191970620891,0.5725678369673388
407,0.5721901679258171,0.5725999266120892
408,0.5721860999207226,0.5725612340711098
409,0.5721921136291575,0.5725693384680864
410,0.5721924615849694,0.5725634185554667
411,0.5721876841845462,0.5725839323384044
412,0.5721866165657791,0.5725825171162034
413,0.5721932695113974,0.5725615021273576
414,0.5721879092623575,0.572583360378443
415,0.5721927858609185,0.5725812649482239
416,0.5721874291138302,0.5725787292810153
417,0.5721906713730426,0.5725654958267332
418,0.5721865977457673,0.5726398155740047
419,0.5721892525347397,0.5725744944815572
420,0.5721875950396299,0.5725805813059999
421,0.5721916657605236,0.5725846713513206
422,0.5721887122336433,0.5725866382575543
423,0.5721868669672264,0.5726217365961143
424,0.572187698239998,0.5725984367311895
425,0.5721943722687941,0.5726055168879719
426,0.5721898242819319,0.5725783348648024
427,0.5721915036940174,0.5725696632122561
428,0.5721925858208696,0.5725838371685573
429,0.5721931468716247,0.5725762129018132
430,0.5721903443574715,0.5725816346663797
431,0.5721927191332566,0.572574598542705
432,0.5721937748644468,0.5725627339253203
433,0.5721907547290186,0.5725933714183937
434,0.5721885456408051,0.5725953457105225
435,0.5721868395710068,0.5725707379776188
436,0.5721930897207284,0.5725846143811353
437,0.5721902268157779,0.5725808423527038
438,0.5721947767084642,0.5725669283610964
439,0.5721869329087359,0.5725551693573089
440,0.5721909182010699,0.5725832658201668
441,0.5721921564625512,0.5725895054903007
442,0.5721916057985368,0.5725671946767191
443,0.5721900517658459,0.5725747975384803
444,0.5721918674205229,0.5725702546483998
445,0.5721923331324336,0.5725798062103982
446,0.5721869878679348,0.5725884121896342
447,0.5721876941186538,0.5725582973074518
448,0.5721907003415669,0.572608910965562
449,0.5721947477875854,0.5725884204693639
450,0.5721938453799339,0.5725796495071056
451,0.5721914030426888,0.5725691059299972
452,0.572187039682524,0.5725739248737917
453,0.5721906472881921,0.5725903017086219
454,0.5721865267300015,0.5725803061461204
455,0.5721882858531747,0.5725638378579125
456,0.5721867974999425,0.5725806952934145
457,0.5721921574154631,0.5725705354065056
458,0.572189010161576,0.5725703785150373
459,0.5721903446671679,0.5725646134709973
460,0.5721879293926233,0.5725586926174991
461,0.5721877863843569,0.5725677600975759
462,0.5721885894509338,0.5725771575907411
463,0.5721910544674841,0.5725690056794068
464,0.5721912516964426,0.5725712844397763
465,0.572193012582503,0.5725645377302885
466,0.5721895340725863,0.5726020302279502
467,0.5721907990156032,0.5725805559022838
468,0.5721906761852481,0.572575862518708
469,0.5721868040273896,0.572565592360854
470,0.5721947146262483,0.5725755698584908
471,0.5721884892045928,0.5725603354381781
472,0.5721893556874623,0.5725956906365333
473,0.5721900046205254,0.5725684462331276
474,0.5721864759159698,0.5726085307566124
475,0.5721888517161353,0.5725607449554889
476,0.5721902460646,0.5725730635937312
477,0.5721914367757732,0.5725616028013433
478,0.5721899668613879,0.5725809061913012
479,0.5721895645181243,0.5725609999805712
480,0.5722002080923838,0.5725864118351744
481,0.5721865009537322,0.5725710494554034
482,0.5721892095107636,0.5725735552967677
483,0.5721932800887205,0.5725757393106854
484,0.5721932442115841,0.5725734143531878
485,0.5721939410522974,0.5726008325368284
486,0.572189539813881,0.5725615272488102
487,0.5721912387130167,0.5725609451744061
488,0.5721910629007552,0.5726008710657976
489,0.5721897034288691,0.5726432642225403
490,0.5721860089414507,0.5725609586760108
491,0.5721932400902399,0.5725854058950646
492,0.572189683584477,0.5725644145222658
493,0.5721896004190834,0.5725729504060633
494,0.5721891736812729,0.5725841151981158
495,0.572189884672729,0.5725612245211944
496,0.5721863027480389,0.5725707572656253
497,0.5721890555916549,0.5725962020509715
498,0.572189484997619,0.5725611775713637
499,0.5721874722569205,0.5726156107252192
500,0.5721901370752915,0.5725733642984584
