epoch,loss,val_loss
0,0.5610482634591419,0.5246295342954977
1,0.5229914729947663,0.522870746248849
2,0.5230257783907494,0.5230174166424492
3,0.5234701578196755,0.5247307236182688
4,0.5233165833620527,0.5225474672486196
5,0.5228778843277194,0.5223591937292812
6,0.5232055513594491,0.5224107168828763
7,0.5217442519743593,0.506645088196684
8,0.5053883186219978,0.5049233937025026
9,0.5052172930917106,0.5065985501066449
10,0.5052851040924968,0.5049930181872472
11,0.5050817588051821,0.5057509355598919
12,0.5052354279185064,0.505462983070115
13,0.5051217280500548,0.5063379458043946
14,0.5052556902794877,0.5047481708403847
15,0.5051850188758482,0.5049707630670254
16,0.5048877496167787,0.5045654295241089
17,0.5052352463426615,0.5045756518034874
18,0.5049880889255274,0.5065106075987769
19,0.5050023616388847,0.5048876085376757
20,0.5050356204473744,0.5047305076734779
21,0.5050113248614572,0.5048824680096619
22,0.5050181451081692,0.5050184636739564
23,0.5050376823838818,0.5048437846393624
24,0.5050287635432446,0.5045419940464495
25,0.5048989546680607,0.5048942930236042
26,0.5050070198928497,0.5047334027988069
27,0.5049638159979498,0.5045657879026936
28,0.5050292169878844,0.5045751197997409
29,0.5049117526922531,0.5045373005587914
30,0.504996311339629,0.5050849853279106
31,0.5050132898642848,0.5049327033209479
32,0.5049313903462135,0.5045706143554084
33,0.49155980954422535,0.4868252190600327
34,0.48737461026944834,0.4887479706083454
35,0.48738999131491834,0.48683997724294265
36,0.48724175030181294,0.4873532192875752
37,0.487134910539173,0.4868710545626674
38,0.4872093392168092,0.4872335762718382
39,0.47761000852238467,0.46913752028800354
40,0.46958460366980215,0.4693199069130352
41,0.46958696767947705,0.46946724337943285
42,0.4695463968100539,0.4694817978533402
43,0.46952631271927303,0.46966222728992263
44,0.469445805629222,0.4699199607271158
45,0.4694972468398446,0.4694213369065334
46,0.46939888082977593,0.4691732242982196
47,0.46953868245226915,0.4692674486211857
48,0.4694508959243993,0.47036753607847265
49,0.4694936330011973,0.4696745907880571
50,0.4696022328654632,0.4693942570116679
51,0.4694511248014143,0.4694365098545299
52,0.4693999486725729,0.4694662878283264
53,0.46942918369280817,0.4691580538507699
54,0.4694243894087633,0.4693085700577112
55,0.4694098295045393,0.4691692219881862
56,0.4693846946602726,0.4691700031082152
57,0.4693633062622456,0.46953931144485433
58,0.46946815159418503,0.4692435128078524
59,0.46944499500476505,0.4693879055731781
