epoch,loss,val_loss
0,0.6293992498391086,0.6111701392072023
1,0.6113753770462975,0.6117366325482105
2,0.6116569399910962,0.6108754140223633
3,0.6113993580945685,0.6107756462797542
4,0.6111939156614457,0.6115706240298417
5,0.6111959807186729,0.6116518279450274
6,0.611188839304625,0.6105660740744959
7,0.611064066299706,0.6105895372403288
8,0.6109512127737852,0.6107903730098705
9,0.6109665604536816,0.6105318888180078
10,0.6106946413483068,0.6108347576599382
11,0.6108579079705097,0.6105948204375081
12,0.6108176418966036,0.6102751211052273
13,0.6106640037126305,0.6102698656183014
14,0.6105949115533105,0.6110761161865317
15,0.610622626191412,0.6101887397223832
16,0.610567864671971,0.6101977744573222
17,0.6106020999253596,0.6104381786692825
18,0.6105715559554395,0.6115206552227463
19,0.610513824263297,0.6102654528321988
20,0.6104237243417672,0.6107740450466225
21,0.6105902699885722,0.6101888188456447
22,0.6104289096992963,0.611630309056432
23,0.6104019448950966,0.6101518625969312
24,0.6106437599931661,0.610171482615569
25,0.6103168293574746,0.610128258428964
26,0.6103869878387929,0.6114700462867163
27,0.6102828479532998,0.6106142977759405
28,0.6103088754596021,0.6100800388233377
29,0.6104003357500122,0.6109642457202488
30,0.6102989901949624,0.610096871046959
31,0.6102710325786449,0.6107558454599926
32,0.6101666849959987,0.6100055518735888
33,0.6103700839924473,0.6100774286609818
34,0.6101840941395105,0.6101915860180502
35,0.6102742185907079,0.6103366801287868
36,0.6101618783679981,0.6100765456754116
37,0.6103079513566821,0.610476188691463
38,0.6101408072088065,0.61010263421664
39,0.6102507628887561,0.6102034690910455
40,0.6102123232897341,0.6101846620316284
41,0.6101314714282233,0.6104313940621235
42,0.6077088383799097,0.5924226100697829
43,0.5924939754620657,0.5923619304217328
44,0.5925200337965166,0.5928588525788345
45,0.5883735033437056,0.5745170140933231
46,0.5746782165379168,0.574510565884225
47,0.5747050385544639,0.5745563541855894
48,0.5746137772007428,0.5747975427191618
49,0.5746523728449567,0.5745518488847761
50,0.574672411954867,0.5745071528973149
51,0.5747581702890127,0.5746253555539493
52,0.5745991012410699,0.5749221932868159
53,0.574632997198979,0.5745133707359513
54,0.5746158120627977,0.574578333837188
55,0.574786451851137,0.5745500592660807
56,0.5746275351719722,0.5744668010937591
57,0.5745900328726876,0.5744964012196162
58,0.5747523171692012,0.574525601832066
59,0.5745934931860875,0.5744779442588275
60,0.5745705035036573,0.5745492397160149
61,0.5745365509551007,0.5744906156388537
62,0.574641236519433,0.5748712249786064
63,0.5745558144925306,0.5744747696463367
64,0.574618694555416,0.5753573553499016
65,0.5746091903166836,0.5746909251785385
66,0.5746519850807972,0.5746675463909793
67,0.574551797813298,0.5747396131757675
68,0.5745301728201785,0.5747979579865656
69,0.5745296932027092,0.5744579512668022
70,0.5746043280382992,0.5745115497307018
71,0.5745627209436079,0.5745949256660806
72,0.5746236419690983,0.5744175055354231
73,0.5745731551402902,0.5744415423145425
74,0.574597710548214,0.5752030909999827
75,0.5745777025130188,0.5744825786938379
76,0.5744779969532823,0.5745566600913317
77,0.5745396888333723,0.5752257233660494
78,0.5745691409285607,0.5751561305880171
79,0.574550982300756,0.5746382040477589
80,0.5745531460029067,0.5747424723992063
81,0.5745375956657459,0.5744222040241748
82,0.5745046676075573,0.5755870762655615
83,0.574506786550563,0.5746554458311341
84,0.5744873881524032,0.5746267233806355
85,0.5744300301940614,0.5743672782612147
86,0.574468876436126,0.5743873977047312
87,0.5744840714528371,0.5744575168230198
88,0.574481583322787,0.5744502813777651
89,0.5744608729986661,0.5747335545882889
90,0.5744208355450886,0.574339191523674
91,0.5744171963496725,0.5745642705965227
92,0.5743850629029312,0.5743773105100782
93,0.5743991391599828,0.574718062933738
94,0.5744989263221267,0.5744313986505882
95,0.5744393517105996,0.5746529227628777
96,0.5745134866992427,0.5749065604314118
97,0.5744133189104819,0.5749087164768093
98,0.5744316270899523,0.5745241858933143
99,0.5743841651568455,0.5743597260469153
100,0.5744783470645587,0.575139348264932
101,0.5743522333222217,0.5743325450482645
102,0.5743452337261217,0.5746426981099116
103,0.5743878942146404,0.5743145099346848
104,0.5743785180983854,0.5744281747778779
105,0.574373195134776,0.5743858800439575
106,0.5744842196612684,0.5744486244039683
107,0.5744740947654585,0.5743460747395914
108,0.566522663056499,0.5566440325552588
109,0.5566564046051857,0.5569085186113801
110,0.5566727377701324,0.5565840453875465
111,0.5566283749234249,0.5567546070869553
112,0.5565960797347059,0.5565838168607551
113,0.5565902385696803,0.556774340949471
114,0.5566487902990405,0.5568451762508521
115,0.5566343509344601,0.556578524345865
116,0.5566415643293094,0.5566079849930997
117,0.5566201051097107,0.5566047570024912
118,0.5566173663542093,0.5566598304688302
119,0.5566221884349253,0.5567648584786599
120,0.556613413055398,0.5567301448947258
121,0.5565881721011369,0.5566117867515538
122,0.5566593945712736,0.5571013445831224
123,0.5566785492975199,0.5568125842566578
124,0.5566157802612347,0.5567327856929197
125,0.5565953779757139,0.5570669650788616
126,0.5565955373881919,0.5567477763659602
127,0.5566699357078114,0.5566964822690738
128,0.5565380371022092,0.5565980786768501
129,0.5566153472153567,0.5567280079373873
130,0.556574504487259,0.5565756957141045
131,0.5566159203642587,0.5565629995604492
132,0.5565493635045953,0.5567675678017714
133,0.5565915453619099,0.5565985152403014
134,0.5565233172574137,0.5570032590184969
135,0.5565439915718133,0.5565610772858154
136,0.5566576741180618,0.5565355481825883
137,0.5565768138033748,0.5565212960154022
138,0.5565816472132605,0.5566337002297422
139,0.5565867597325264,0.5569074235264516
140,0.5565583119479098,0.5566742760447534
141,0.5564992810831726,0.5565638150367765
142,0.556575121259997,0.5565545332169043
143,0.5565778609631227,0.5569172461378639
144,0.5565673481651496,0.5565489928332451
145,0.5565661096386664,0.5566346249904516
146,0.5565407173607742,0.556995084979486
147,0.5565642751209366,0.5568665532872377
148,0.5565245790089711,0.5565787011615698
149,0.5565541754024909,0.5566885070152516
150,0.5565898705805066,0.5566080808418727
151,0.5566119623052457,0.5565157121012533
152,0.5565075370634128,0.5565595979998786
153,0.5565503374175894,0.5566059579714997
154,0.5565257893201726,0.5565428213734034
155,0.5565137421198274,0.5567928026243147
156,0.5565126673391328,0.5565158102132144
157,0.5565965501206591,0.5564925651303881
158,0.5565426524977978,0.556659594512158
159,0.5565283451234739,0.5569540345905047
160,0.5565238862146884,0.5565849605876664
161,0.5565077918436905,0.5578401975994707
162,0.5565380642944248,0.5565130892540044
163,0.5565359356506908,0.5567464504137726
164,0.5564785290507047,0.5565669510646714
165,0.5565102076488504,0.5567010200825151
166,0.5565284923750808,0.5564779222707082
167,0.5564737183451597,0.5567581905968036
168,0.5565281881214575,0.5565626787949456
169,0.5565538110253295,0.5565158132712782
170,0.5564638167353818,0.5564780968894648
171,0.5565090608542337,0.5566929491123992
172,0.5565090373881133,0.5565301586155715
173,0.5565021763549179,0.5565494982086524
174,0.55651035344498,0.5565876425538026
175,0.5565029886933788,0.5565095397913361
176,0.5564622154325781,0.556955452119008
177,0.5564708710636821,0.5565274305466392
178,0.556520932308003,0.5564854490600222
179,0.5564980040757848,0.5565356539010693
180,0.5565010620904933,0.556696432092539
181,0.5565001637997538,0.5564970276845476
182,0.5564942996801409,0.5565464701182667
183,0.5565283639600358,0.5569110805181513
184,0.5564527216563532,0.5566059615594807
185,0.5564879772048026,0.5565870380065997
186,0.5565003610141588,0.5565388099112584
