epoch,loss,val_loss
0,0.5013890157920081,0.4700764543669249
1,0.47013361979601054,0.46933988661297077
2,0.47034726994033876,0.46972037980701775
3,0.47013189058417476,0.4695423104284339
4,0.46983806393173233,0.4694252322726524
5,0.469963984751574,0.46958311166249284
6,0.46984089526920214,0.4693285494871682
7,0.4625482129976321,0.45235219454849224
8,0.4517420938975268,0.451240735675344
9,0.44980213633876953,0.41587218150405403
10,0.4165673350324025,0.41663604558540906
11,0.4167569445127748,0.41583844539103054
12,0.41635464600538113,0.41612448792122847
13,0.41645135943605444,0.41655767420460327
14,0.4165665586503015,0.4168391988318946
15,0.41629385837778327,0.41589523565109004
16,0.41646699529308284,0.41585716496443037
17,0.4032370913101583,0.3980981672521122
18,0.39850830121620034,0.3988380455312784
19,0.39859841484056074,0.39832342449305874
20,0.39855551138394657,0.39826444945063366
21,0.3987254018361168,0.39816263235262267
22,0.3984383249584237,0.39841684956289175
23,0.39841347306279523,0.3982287208489476
24,0.39854567346739805,0.3986791996883891
25,0.39847843323357296,0.3987674183493567
26,0.3984181617676993,0.39815593571723845
27,0.3987313293205107,0.4018025943903509
28,0.39845614857069817,0.39868667711812406
29,0.3984476359038915,0.39821711798623044
30,0.3984234451279755,0.3979731599508248
31,0.39848549348866474,0.39815212881969153
32,0.39851828074553153,0.3980060895574735
33,0.39825289485608606,0.39802644160703987
34,0.39848097837748153,0.3997880041510954
35,0.39834627086458313,0.3986640908658935
36,0.39847326063493016,0.39801504070901456
37,0.39833731527820593,0.3983974232013898
38,0.39835538374462415,0.3985478610909853
39,0.3983734303522032,0.39818464995954056
40,0.3983685462839815,0.39810664267048923
41,0.3982405969419672,0.39813022555896893
42,0.3984072441041692,0.3979553334038221
43,0.3983065836842061,0.3985458605376454
44,0.39838359254668726,0.39801695547096816
45,0.39825610648252424,0.3981201461916346
46,0.39833475602205637,0.39936022047842845
47,0.3983117788390659,0.3980854460764293
48,0.39826194668704534,0.3981173595171722
49,0.3983867494252849,0.3979500537449441
50,0.39830085144260685,0.3979757492918508
51,0.39836027218295766,0.398449866429239
52,0.39836677030734935,0.39869700185368073
53,0.39819481748994073,0.39876257062267434
54,0.39830454885527217,0.3995388971642005
55,0.3982908168011058,0.3981569814646679
56,0.39828815363197795,0.39798183156552414
57,0.3984786670216736,0.3981646366153829
58,0.3982036155894492,0.39802913133977497
59,0.39829408157086343,0.39852058466307916
60,0.3982578688888092,0.3984241673550709
61,0.39815976856681723,0.39983532120285487
62,0.3985453513469177,0.3979970981377455
63,0.39819770526625436,0.39828611616404724
64,0.3981501446348627,0.3981873346967021
65,0.39816341155089013,0.3979758901670258
66,0.39829106997502234,0.39822217949034217
67,0.3982134701446234,0.39934083042177454
68,0.3983062010335373,0.39814308168689816
69,0.3982339687510882,0.3980306520254927
