epoch,loss,val_loss
0,0.8894509301450517,0.889815848549207
1,0.8889858634604348,0.8889327026605606
2,0.8889696977006064,0.8889633074601492
3,0.8889595172272788,0.8890018703540167
4,0.8889536776277754,0.8889774088859558
5,0.888948053518931,0.8889227222204208
6,0.8889464856783549,0.8889635136524836
7,0.8889435120423634,0.8889262812137604
8,0.8889393292665482,0.8889410234292349
9,0.8889383751683765,0.8889453805287679
10,0.8889343522919549,0.8889221467177073
11,0.8889361565907796,0.8889243086973826
12,0.8889324830240674,0.8889178663094839
13,0.8889298019011815,0.8889206984440485
14,0.88892879986763,0.8889604312181473
15,0.8889280590216319,0.888924142797788
16,0.8889297867351108,0.8889183646440506
17,0.8889257726139492,0.8889164686203003
18,0.8889261392090055,0.888925422112147
19,0.8889257225460476,0.8889157985448837
20,0.8889250662856631,0.8889204883972803
21,0.8889245102802913,0.8889191004435222
22,0.8889245840443505,0.8889211862484614
23,0.8889239750968085,0.8889152696927388
24,0.8889240627023909,0.8889336788256963
25,0.8889239776002036,0.8889167416095733
26,0.8889233249558343,0.8889198529720307
27,0.8889242300457425,0.8889200837612152
28,0.8889247921175427,0.888916889945666
29,0.8889243928458955,0.888915237347285
30,0.6778421133756638,0.666779661099116
31,0.6667882970306609,0.6668274802366893
32,0.6667729973263211,0.666747865041097
33,0.6667680417431725,0.6667701111634572
34,0.6667664935721291,0.6667851646343868
35,0.6667663915157318,0.666790108203888
36,0.6675885529385672,0.66675385928154
37,0.6667899774312973,0.6669490611950556
38,0.6667831274403466,0.666751489241918
39,0.6667802170250151,0.667196289340655
40,0.6667804531388812,0.6667495450576146
41,0.6667741480271021,0.6670648390452067
42,0.6667760561572181,0.6667528402407964
43,0.6667746117247475,0.666859006802241
44,0.6667750933700137,0.6667437163988749
45,0.6667763337161806,0.6667491724491119
46,0.6667735191053814,0.6667451885143916
47,0.6667727319134606,0.666763320684433
48,0.6667760304080116,0.6668233313560485
49,0.6667766744825575,0.6667423939307531
50,0.6667756709787581,0.666766651391983
51,0.6667699177927441,0.6667463601430257
52,0.6667723991473515,0.6667570783297221
53,0.6667704193327162,0.6668293988307317
54,0.6667712459829118,0.6667524967590968
55,0.6667701643175549,0.6667443356911341
56,0.666770078142484,0.6668185986677806
57,0.6667681805557675,0.6667559489409128
58,0.6667688457303577,0.6667655205726624
59,0.6667698757648468,0.6667544585069021
60,0.6667685802910063,0.6667490549882253
61,0.6667684192789926,0.6667386215130489
62,0.6667688042322795,0.6668061635891597
63,0.6667672878238889,0.6667390984694163
64,0.666764943546719,0.6667726460297903
65,0.6667663606935077,0.6667423191070556
66,0.6667645287646188,0.6667427703142166
67,0.666764494339625,0.6667492831150691
68,0.666765591873063,0.6667793631156286
69,0.6667666433387333,0.6667560423215231
70,0.6667668991618686,0.6667704727649689
71,0.6667664625777139,0.666745963493983
72,0.6667656716108322,0.6667382904688517
73,0.6667673899597591,0.6667942761580149
74,0.6667668664985232,0.666800808986028
75,0.6667681135469012,0.6667538074652354
76,0.6667674818171395,0.6667487394014995
77,0.6667659666670693,0.6667439649502437
78,0.6667672597169876,0.666756448149681
79,0.6667661962376701,0.6669450987180074
80,0.6667666210863326,0.6667396086057027
81,0.6667672996653451,0.6667400955359141
82,0.6667688884205288,0.6667723021904628
83,0.6667659361494912,0.6667431465387345
84,0.6667671726014879,0.6667824292182922
85,0.6667667837937673,0.6667428243557613
86,0.6667669367260403,0.6667664093971253
87,0.666771073712243,0.6667425324122112
88,0.66677230058776,0.6667751258611679
89,0.6667694555785921,0.6667484272321065
90,0.666767111380895,0.6667753769159317
91,0.6667678990761439,0.6668443133036296
92,0.6667660415967306,0.6667433959643047
