epoch,loss,val_loss
0,0.7786421455144882,0.7779228307406107
1,0.7779633734226227,0.7778842283884684
2,0.7779227741029527,0.7778721358776093
3,0.7779033405118518,0.7778628851175309
4,0.7778980435927709,0.7778726332982381
5,0.7778813968102137,0.7778522298733394
6,0.7778768470287323,0.7779033495585124
7,0.7778712876372867,0.7778927963972092
8,0.7778668080303404,0.7778316086133321
9,0.777865324775378,0.7778525656064351
10,0.7778634688986672,0.7778373411893844
11,0.7778587080770069,0.7778349271615346
12,0.7778565378586452,0.7778776050408681
13,0.7778564895259009,0.7778333613077799
14,0.7778547203938166,0.777999280055364
15,0.7778535771237479,0.7778490931193034
16,0.7778527948856354,0.7778798698584238
17,0.7778534061246448,0.777833644270897
18,0.7778514836496777,0.777858771165212
19,0.7778510929478539,0.777830557902654
20,0.7778506522443559,0.7778354752063751
21,0.777851908882459,0.7779770225683849
22,0.7778497016694811,0.7778319269816081
23,0.7778499102592469,0.7778441372315089
24,0.7778484085533354,0.7778721707264582
25,0.7778521831830343,0.7778494603236517
26,0.7778486773305469,0.7778269421259563
27,0.7778482992913988,0.7778353089888891
28,0.7778498425483703,0.7778413696686427
29,0.7778493525584539,0.7778333391348521
30,0.7778451586299472,0.7778313223520915
31,0.7778477485312356,0.7778548338413238
32,0.7778472770982319,0.7779781624476115
33,0.7778473935259713,0.7778472349246343
34,0.7778465271261004,0.7778421356280645
35,0.7778472480111652,0.7778717541297276
36,0.777846235566669,0.7778274320363998
37,0.7778468465672599,0.7778299719889958
38,0.7778448544210858,0.7778513096173605
39,0.7778459930817286,0.7778297926187515
40,0.7778461384110981,0.7778274226983388
41,0.7778456403149498,0.7778554195562999
42,0.777845858335495,0.7778384043375651
43,0.7778450905746884,0.7778347452084223
44,0.7778456684350967,0.7778342278798421
45,0.7778447579410341,0.7778366484244664
46,0.7778459367354711,0.7778297576904297
