epoch,loss,val_loss
0,0.33513078063726426,0.3337762003540993
1,0.33387346340550317,0.33358037398258844
2,0.3337832494444317,0.33360016336043674
3,0.33371841522720125,0.33358177038033804
4,0.333691607899136,0.33366903390487035
5,0.33366805791192583,0.3336027119954427
6,0.33365414745940103,0.33354047226905825
7,0.33364674778117076,0.33394882675011955
8,0.333629545211792,0.33380772068103154
9,0.33361680032809576,0.33355690240859986
10,0.3336228590740098,0.3335283038218816
11,0.3336074473924107,0.33350781073172886
12,0.3336098237103886,0.33356982773542404
13,0.33360040832890403,0.3335567095677058
14,0.3335927642782529,0.3337559317747752
15,0.3335937036805683,0.3335455355644226
16,0.33358601516485215,0.33351133851210274
17,0.3335842822326554,0.33349814248085025
18,0.33359268121586905,0.33352915320793786
19,0.3335744396713045,0.33349635696411134
20,0.3335698923865954,0.33350149337450663
21,0.3335741230448087,0.3334938525160154
22,0.33357256093290116,0.3334925389091174
23,0.33356978165441087,0.33353353106975553
24,0.3335654748214616,0.33349563642342883
25,0.3335702622201708,0.33349573477109273
26,0.33357104202773835,0.333549385368824
27,0.3335662566953235,0.3338474176128705
28,0.3335671337776714,0.33363778434197106
29,0.33356539690494535,0.3335095296104749
30,0.3335684536430571,0.3334926411708196
31,0.3335647007425626,0.33401533631483715
32,0.33356184913052456,0.33348620716730754
33,0.33356336315472923,0.33350461574395496
34,0.33356319353315567,0.33350650511185326
35,0.33356557019551597,0.3335016181667646
36,0.33356280474530325,0.3334941854874293
37,0.3335653621554375,0.3334930459260941
38,0.33355926959382165,0.33356460694471995
39,0.3335588705142339,0.3334939598242442
40,0.3335599109397994,0.3335060560504595
41,0.3335627246962653,0.3334903442263603
42,0.33355849829647277,0.33355653677384056
43,0.33354817596409053,0.3334860756397247
44,0.3335536192589336,0.3335057569543521
45,0.3335563757684496,0.3335122277537982
46,0.3335609475904041,0.33354509822527567
47,0.33355346543921366,0.33348705993096034
48,0.3335506690144539,0.33350888405243556
49,0.33355556105242834,0.33348284832636516
50,0.3335536600814925,0.333511733909448
51,0.3335555090639326,0.3334891200065613
52,0.3335544391406907,0.33359523155291876
53,0.3335535640584098,0.3334916746815046
54,0.3335573008722729,0.33348037592569985
55,0.333558047413826,0.333528967777888
56,0.33354876375198367,0.3336305194099744
57,0.333555062631766,0.33347997411092123
58,0.33355113827519944,0.33350593235095344
59,0.333554627166854,0.3334938076138496
60,0.3335536940097809,0.3334864908059438
61,0.3335583941671583,0.33348185441891354
62,0.33355058327648374,0.33348484402894973
63,0.33354901648230023,0.3334879047870636
64,0.3335491827726364,0.3335277702609698
65,0.33355226738585364,0.333494812587897
66,0.33355748224920695,0.33349430521329243
67,0.3335508020983802,0.33355502295494077
68,0.33355044761631225,0.33349345773458483
69,0.33355540646447074,0.33349343212445576
70,0.33355489781830044,0.33348669203122455
71,0.3335556265976694,0.33354129662116366
72,0.3335512416031626,0.3336043151418368
73,0.33354736911588245,0.3335620802640915
74,0.3335511653357082,0.33348058933019636
75,0.3335494632985857,0.3334924257795016
76,0.33354681121640734,0.33351221644878387
77,0.33354738401704365,0.3334783442616463
78,0.33354519663254417,0.3334805872042974
79,0.33354476482338374,0.333504180252552
80,0.3335452501177788,0.33351199666659037
81,0.3335469951364729,0.3336344566742579
82,0.3335445920560095,0.33347580951452255
83,0.3335440918604533,0.3335059519211451
84,0.3335408099889755,0.33347817770640054
85,0.3335375955104828,0.33347748122612636
86,0.3335339844557974,0.33351977117856346
87,0.3335353772772683,0.33347465020418166
88,0.333534661591053,0.33348814702033996
89,0.3335373661650552,0.33355324455102286
90,0.3335310795903206,0.3334907197554906
91,0.3335360675520367,0.33348080670833585
92,0.3335355434748862,0.33347046802441277
93,0.3335311389565468,0.33348557219902675
94,0.3335359438061714,0.3335203345815341
95,0.33353664613432354,0.33347634998957315
96,0.33353593408399157,0.3334745796720187
97,0.333531554473771,0.3334719139933586
98,0.3335330187678337,0.33347605490684507
99,0.33353354562653437,0.3341902040640513
100,0.3335340321924951,0.33347368496656415
101,0.33352957402997546,0.3334916093150775
102,0.3335304572582245,0.3334729436635971
103,0.3335283978316519,0.3336001508037249
104,0.3335307803153992,0.33360293694337206
105,0.33352756850586995,0.33353909226258593
106,0.33352794179651474,0.33347039222717284
107,0.3335286086930169,0.3335147014260292
108,0.33352596641249127,0.3334743202328682
109,0.3335317334797647,0.3335017907222112
110,0.33352621825536094,0.33349864383538563
111,0.3335293218294779,0.3335624338189761
112,0.33353133353922104,0.333473703622818
113,0.33352606652842626,0.33352179632584256
114,0.333531409157647,0.3334701415300369
115,0.3335284783177906,0.33352043841282525
116,0.33352862613068684,0.3337590096195539
117,0.3335307144853804,0.3334838597377141
118,0.3335305902560552,0.33349163256088893
119,0.33352214556270177,0.33350961152712505
120,0.3335291135311127,0.33346904257933296
121,0.3335270784497261,0.33347910741964976
122,0.3335306274493535,0.33347673958539964
123,0.33352626860141754,0.33353472165266673
124,0.33352178419298595,0.3334788050452868
125,0.333526015970442,0.33347149384021757
126,0.3335267322063446,0.3334808020591736
127,0.33352963960170745,0.33350772855679195
128,0.3335254304475255,0.33355948283274967
129,0.33352578830718993,0.3335763366619746
130,0.3335230340891414,0.3334765871365865
131,0.33353030784924825,0.3334885370135307
132,0.3335222316980362,0.3334752644896507
133,0.33352157070239385,0.33346689903736115
134,0.3335258439845509,0.3334919154842695
135,0.33352722089820436,0.33347904702027636
136,0.33352300630675424,0.3334835400183996
137,0.3335271194378535,0.3335759346882502
138,0.33352403985791734,0.3334705901145935
139,0.333526795870728,0.3334772402644157
140,0.3335224786930614,0.3334699446956317
141,0.3335277391870817,0.33380523443222043
142,0.33352341314819123,0.33346512345472973
143,0.3335205053620868,0.3334830213387807
144,0.3335252291758855,0.33372373501459757
145,0.3335252513753043,0.33360156579812367
146,0.3335233095155822,0.3334654521346092
147,0.33352097186115054,0.3337402244408925
148,0.3335263045827548,0.3334704282283783
149,0.3335217062897152,0.3334785469174385
150,0.3335214691758156,0.3334880394538244
151,0.3335218105647299,0.33348586535453795
152,0.3335239028400845,0.3335773381392161
153,0.33351933664083483,0.3335538171728452
154,0.33352647135655084,0.333466225763162
155,0.3335210967593723,0.33351742337147394
156,0.33352589915858377,0.33347203250726065
157,0.333521635611852,0.3334739775458972
158,0.33351997637086445,0.3335014083981514
159,0.3335244697928429,0.3334670651157697
160,0.3335234285593033,0.3334747371673584
161,0.33351912325620653,0.3334925444523493
162,0.3335226881636514,0.33346021636327106
163,0.33352051411072414,0.33346964768568677
164,0.3335240272416009,0.33348138531049093
165,0.3335168598095576,0.3335211860537529
166,0.33352668621142706,0.3334666483004888
167,0.33352325611644323,0.3335499946673711
168,0.3335196234318945,0.33346452087163925
169,0.333518646604485,0.3337591683467229
170,0.3335242012805409,0.33357597812016804
171,0.33352484110328884,0.3335108320514361
172,0.3335187156862683,0.3334676818648974
173,0.33351771438784067,0.33346929035584133
174,0.333519044386016,0.33347234231233597
175,0.3335186322596338,0.3335775559147199
176,0.33352042453818853,0.3334769046703974
177,0.33351548582315443,0.33347034019231797
178,0.3335265593065156,0.3334989011287689
179,0.33352233512534035,0.3335025843580564
180,0.3335203195677863,0.3334863443374634
181,0.33351833475298354,0.33369677646954854
182,0.333521867301729,0.33351717752218246
