epoch,loss,val_loss
0,0.5581653345161014,0.5559371812740962
1,0.5559308946662479,0.5557366962035497
2,0.5558819907241398,0.557449874718984
3,0.5558304782311122,0.5562137138843536
4,0.5557993308438195,0.5557449154853821
5,0.5557757179604637,0.5556961586475372
6,0.5557646768358019,0.5556903043588003
7,0.555749545733134,0.5556788420279821
8,0.5557499397198359,0.5557286456425985
9,0.5557489066256417,0.5556974398295085
10,0.5557437638971541,0.5556776069402695
11,0.5557406361235513,0.5564770457744599
12,0.5557373605569204,0.5556740836699804
13,0.5557372928460439,0.5556822371085485
14,0.555734918528133,0.5556713329553604
15,0.555733224219746,0.5556956127087275
16,0.5557313412692811,0.5556820783217749
17,0.5557309705151452,0.5556816191673278
18,0.5557264453967412,0.5556734895308812
19,0.5557268767886692,0.5556713472207387
20,0.5557255858315362,0.5556790885130565
21,0.5557242021560669,0.5556688867410025
22,0.5557229729758368,0.5556881076494853
23,0.5557191495498022,0.5557335737943649
24,0.5557230332692464,0.5556893118619919
25,0.5557183833387163,0.5556643326282501
26,0.5557160702811347,0.5556676740248998
27,0.5557163691918056,0.5556860556999842
28,0.5557157144943873,0.5556671793063481
29,0.5557159456014633,0.5556706012884776
30,0.5557113853825463,0.5556627186934153
31,0.5557110057539411,0.555664388179779
32,0.5557137844562531,0.5557225300073624
33,0.5557112960020701,0.5559200831254323
34,0.5557148611942927,0.5556933654944102
35,0.55571108645863,0.5556691603660584
36,0.5557098969486025,0.5556804525852204
37,0.5557111201286316,0.555706991314888
38,0.5557096928093168,0.5556804345846176
39,0.5557138063377804,0.5556834976673126
40,0.555716106918123,0.5556677646636963
41,0.5557114068137274,0.5557011246681214
42,0.555711026403639,0.5556637126207352
43,0.5557132940689723,0.5558819131056467
44,0.5557102729744381,0.5556927289565404
45,0.5557110645903481,0.5556727948586146
46,0.5557087303267585,0.5556740307807922
47,0.555711572461658,0.5556732690334321
48,0.5557104899088542,0.5557613941033681
49,0.5557066944307751,0.5556904308795929
50,0.5557063472270966,0.5556647289991379
