epoch,loss,val_loss
0,0.881050456960996,0.777907018661499
1,0.7779163075817956,0.7778645753065745
2,0.7779011090861426,0.7778715256849925
3,0.7778822269439697,0.7779691691795985
4,0.7778695661359363,0.7778650413354238
5,0.7778638031615152,0.7778360412518184
6,0.7778555787669288,0.7778413192828496
7,0.7778545597659217,0.7778257176081339
8,0.7778542106416491,0.7778271240790685
9,0.7778492035335964,0.7778666167259216
10,0.7778477577633328,0.77782228799661
11,0.777846017214987,0.7778240247567495
12,0.777843284368515,0.7780782887935639
13,0.7778432012663947,0.7778220438162485
14,0.7778416021929847,0.7778235547542572
15,0.7778405219184028,0.7778279747962952
16,0.7778406992753347,0.7778250540494919
17,0.7778401607937283,0.7778304694493612
18,0.7778383765750461,0.7778287030855815
19,0.7778377384212282,0.7778300623496374
20,0.7778358091513315,0.777830597559611
21,0.7778352924055524,0.7778184442917506
22,0.7778342229657703,0.7778729655345281
23,0.777835695054796,0.777859577178955
24,0.7778352367480595,0.777827471057574
25,0.7778344693846173,0.7778342981338501
26,0.7778345271481408,0.7778208006620407
27,0.7778325446446737,0.7778192970355352
28,0.7778332967758179,0.7778186901013057
29,0.777833177222146,0.7778332342704137
30,0.7778318692313301,0.7778238489627838
31,0.7778331042395698,0.7778289834658305
32,0.777831556306945,0.777851160844167
33,0.7778298375606537,0.7778187825679779
34,0.7778320585754183,0.7778217430909474
35,0.777830159160826,0.7778325064182281
36,0.7778306832975811,0.777820375084877
37,0.7778306251102024,0.7778309984207153
38,0.7778300745222304,0.7778257655302684
39,0.7778302655220032,0.7778198471466701
40,0.7778306438260608,0.7778189137776693
41,0.7778304728931851,0.7778268390099208
