epoch,loss,val_loss
0,0.8893393198119269,0.8891101828813552
1,0.8889873972071541,0.8889583943287531
2,0.8889719636572732,0.8889674454927444
3,0.8889593467315038,0.8890508867899577
4,0.8889519658088684,0.8889285925626754
5,0.8889461934301588,0.8889391243060429
6,0.888941826581955,0.8889273248116175
7,0.8889384247991774,0.8889240053494771
8,0.8889363886912663,0.8889305285215378
9,0.8889339246484969,0.8889419297377269
10,0.8889324724541771,0.8889224495093028
11,0.8889306829373042,0.8889652301073074
12,0.8889300525718266,0.8889209305445354
13,0.8889292862812678,0.8889162605206171
14,0.8889293724166022,0.8889553280671437
15,0.8889289738867018,0.88891943415006
16,0.8889278170665105,0.8889172304471333
17,0.8889292973147498,0.8889284765323003
18,0.8889278419680066,0.8889358009894689
19,0.8889280147949854,0.8889332063595454
20,0.888925644742118,0.8889203436374664
21,0.888928201145596,0.8889360986948013
22,0.8889266598357095,0.8889248092571894
23,0.8889270311858919,0.8889156706730524
24,0.8889269139501783,0.8891520494222641
25,0.888926186296675,0.88893079940478
26,0.8889260937637753,0.888917459487915
27,0.8889272565046946,0.888914557258288
28,0.8889260236422221,0.8889163289864858
29,0.8889248768223657,0.888923273007075
30,0.8889252657228046,0.8889353022575378
31,0.8889237486521403,0.8889283157984416
32,0.8889248028993607,0.8889255595207214
33,0.8889231313731936,0.8889317179918289
34,0.8889228010310067,0.8889230329990387
35,0.8889241827593909,0.8889163686037064
36,0.8889236146476533,0.8889165976842245
37,0.8889242759678099,0.8889152898391088
38,0.8889228809409672,0.8889209354321161
39,0.8889232847955492,0.8889476226965586
40,0.8889233956601884,0.8889150922298431
41,0.8889233672883775,0.8889179900487264
42,0.8889231313069661,0.8889138183196386
43,0.8889230455027686,0.8889136820634206
44,0.8889229934215546,0.8889193235635757
45,0.8889218657281663,0.888916862765948
46,0.8889235672420925,0.8889504297176997
47,0.8889225405984454,0.8889183001120885
48,0.8889224883847766,0.8889142643610637
49,0.888922247476048,0.8889154486258825
50,0.8889219319820404,0.8889204545021057
51,0.8889230277538299,0.8889146666526795
52,0.8889220736291673,0.8889154606660207
53,0.8889229522148768,0.8889147328138352
54,0.8889229442278545,0.8889157646894454
55,0.8889216771788068,0.888916587193807
56,0.8889228517744276,0.8889144046703974
57,0.8889218808677462,0.888915562470754
58,0.8889221185975604,0.8889163501660029
59,0.8889232502513462,0.888915985306104
60,0.8889210766686334,0.8889181527694067
61,0.8889220329920451,0.8889184730450312
62,0.888921876139111,0.8889169176419576
63,0.888921447608206,0.8889134763479233
64,0.8889219456381268,0.8889276651938757
65,0.8889221282402674,0.8889155377546947
66,0.888922168135643,0.8889227555592855
67,0.8889220413234499,0.888932343840599
68,0.8889219414393107,0.8889121466477712
69,0.8889220577478408,0.8889154595931371
70,0.8889222972525491,0.8889830678304036
71,0.8889221497509214,0.8889291161696116
72,0.8889220890336567,0.8889349539279938
73,0.8889208625687494,0.8889142953952154
74,0.8889216676155726,0.8889338610569636
75,0.8889219283262889,0.8889497769276301
76,0.8889210217528873,0.8889153032700221
77,0.8889220741987228,0.8889152371883392
78,0.8889216652578777,0.8889206956624984
79,0.8889214990139007,0.8889140286445618
80,0.8889218173556858,0.8889302829901378
81,0.8889218771192763,0.8889172226190567
82,0.8889210119379891,0.8889132585525513
83,0.8889215928183661,0.888918138941129
84,0.8889215898646249,0.8889425110022227
85,0.88892103155454,0.8889158520301184
86,0.8889220452706019,0.888925696849823
87,0.8889216395086712,0.8889136114517848
88,0.8889222891728084,0.8889137370189031
