epoch,loss,val_loss
0,0.6692308730151918,0.6697841186523438
1,0.666937233183119,0.6667992004553477
2,0.5673419610791737,0.5557431139151255
3,0.555825710773468,0.5560644112825394
4,0.5557930300368203,0.5556930082639059
5,0.5557747640742196,0.5558398560285568
6,0.5557542186843024,0.5556802798112234
7,0.5557410753568014,0.5556974030733108
8,0.5557305218113793,0.5556693442662557
9,0.5557236922581991,0.5556621050039927
10,0.5557160762018628,0.5556761380036672
11,0.5557080985307693,0.5556705518166224
12,0.5557055375576019,0.5559680062929789
13,0.5556964497433768,0.5557040888865789
14,0.555695556335979,0.5556660503546397
15,0.5556949470175637,0.5556566939751307
16,0.5556940590010749,0.5556509519815445
17,0.5556897045109007,0.5556756075223287
18,0.555686616592937,0.555652702331543
19,0.5556877891487545,0.555658177336057
20,0.5556864422029919,0.5556811247666676
21,0.5556822132137087,0.5556512801249822
22,0.5556833534240723,0.5556480649312338
23,0.5556790614128113,0.5556563739379247
24,0.5556808244784673,0.5556715924342474
25,0.5556789266135957,0.5556748397747675
26,0.5556804852750566,0.5556553315718968
27,0.5556764379342397,0.5556538895368576
28,0.5556752030981912,0.5556446600357692
29,0.5556743810706668,0.5556460977395375
30,0.5556756207810508,0.5557962918281555
31,0.5556731435722775,0.5556730926434199
32,0.555671075211631,0.5556550855636597
33,0.5556710577143563,0.5556470031340917
34,0.5556699030531778,0.555676798303922
35,0.5556723363399506,0.5556508446534475
36,0.5556701224777434,0.5557692403793335
37,0.5556705368889703,0.5556638463338216
38,0.5556689585712221,0.5556458657185237
39,0.555670031785965,0.5556477148930232
40,0.5556691366434098,0.5556493149598439
41,0.5556641801065869,0.5556562517086665
42,0.555670134305954,0.5556831210454305
43,0.5556649444500605,0.5556500080426534
44,0.5556658012337155,0.5556495468219121
45,0.5556633640527725,0.5556554112434388
46,0.5556656967401504,0.5556390936772029
47,0.5556631038188934,0.5557003591855367
48,0.5556637955241733,0.5556954478025437
49,0.5556616084973017,0.5556860324144364
50,0.5556634192731645,0.5556442240476608
51,0.5556624686717987,0.5556452753543853
52,0.5556607220570247,0.555634262363116
53,0.5556636388169395,0.5556547603607178
54,0.5556603772375319,0.5556355081001918
55,0.5556607815292146,0.5557330725987752
56,0.5556610427565045,0.5556659983793895
57,0.5556626886526743,0.5556839249531428
58,0.5556607442696889,0.5556862912575404
59,0.555658954779307,0.555676562388738
60,0.5556633579466078,0.5556355434258778
61,0.5556608735455407,0.5556705472071966
62,0.5556606488492754,0.5559131914377212
63,0.5556611912118063,0.5556403606732686
64,0.5556633251375622,0.5556417230765025
65,0.5556603836350971,0.5556522742112477
66,0.5556613569259643,0.5556604318618774
67,0.5556600143114726,0.5556923359235127
68,0.5556593344608942,0.5556453292369843
69,0.5556612052387662,0.55567043030262
70,0.5556596755451626,0.5556598585049312
71,0.5556598347293006,0.5556494285662968
72,0.5556569614013036,0.5556399321556091
