epoch,loss,val_loss
0,0.5571553763416078,0.5576396951278051
1,0.5559247161017524,0.5557230637073517
2,0.5558855380747053,0.555854319135348
3,0.555818536374304,0.5557424799203873
4,0.5557958757744895,0.5557127554019292
5,0.5557670533392165,0.5557844111522039
6,0.5557576014598211,0.555709416826566
7,0.5557454144424863,0.5559889264901479
8,0.5557404562367333,0.5557285831371943
9,0.55573229361905,0.5556796100536983
10,0.5557283263868755,0.5556821831067403
11,0.5557199434571796,0.5557394911050797
12,0.5557180062797334,0.5556965779066085
13,0.5557170298894246,0.5556589949528377
14,0.5557159977886412,0.55571011698246
15,0.5557108981344435,0.5556631420056025
16,0.5557062305344476,0.555664585351944
17,0.5557016449239519,0.5556575140953064
18,0.555708184229003,0.5556730270385742
19,0.5557011719942093,0.5556601547002792
20,0.5556990584002601,0.5556776465574901
21,0.5556959040032493,0.5558654794295629
22,0.5556961623165343,0.5556561546723048
23,0.5556957275999916,0.5556519864400228
24,0.5556981126599841,0.5556915766398112
25,0.5556932786703109,0.5556928447882334
26,0.5556954916980531,0.5556657276153565
27,0.5556937229500877,0.5556624607245128
28,0.5556963207986619,0.555680470943451
29,0.5556980242861642,0.5556544100046158
30,0.5556925854153103,0.5557010317643484
31,0.5556969263553619,0.5556612223784129
32,0.5556926501724455,0.5556688874959945
33,0.5556891037225723,0.5556626262664794
34,0.5556874811781777,0.5557058618068695
35,0.5556943952904807,0.5557176339626312
36,0.5556898917224672,0.5556499329010646
37,0.5556910241444906,0.5561441957155864
38,0.5556888070238961,0.5557208415269852
39,0.5556895427174038,0.5556767146984736
40,0.5556933516661327,0.5556873711744944
41,0.5556879969305463,0.5556712933778762
42,0.5556926922268338,0.5556729646126429
43,0.5556901961035199,0.5557011374235153
44,0.5556860358847512,0.5556522188981374
45,0.5556910116937426,0.5556746029853821
46,0.5556901888847351,0.555652044137319
47,0.5556893708308538,0.5556645433108012
48,0.5556903539101282,0.5556952595710755
49,0.5556871681875653,0.5557667866547903
50,0.5556925485928853,0.555791558265686
51,0.5556864476203919,0.5556784471670787
52,0.5556902807553609,0.5556569121678671
53,0.5556877977715599,0.5556533838113149
54,0.5556890482505162,0.5556525813341141
55,0.5556892166402605,0.5556631344159444
56,0.5556878928078546,0.5556481281518936
57,0.5556895057360332,0.5556485554377238
58,0.5556900030242072,0.5556758883396784
59,0.5556880656480789,0.5556677640676498
60,0.5556924452914132,0.5556583053270976
61,0.5556877531607946,0.5556533699035644
62,0.5556897012922499,0.5556657280127207
63,0.5556856428914599,0.5556887966791789
64,0.5556847519079844,0.5556543779770533
65,0.5556885489490297,0.5556745167573293
66,0.5556921928856108,0.5557188195387522
67,0.5556863577763239,0.5556653770605723
68,0.5556868662701713,0.5556782385110856
69,0.5556892282830345,0.5556687285502752
70,0.5556913159555859,0.5556501611471176
71,0.5556854147116344,0.5556599578460057
72,0.5556890932189094,0.5556699511607488
73,0.5556848008367751,0.5556715698639552
74,0.5556895520687103,0.5556604756911596
75,0.5556842101017634,0.5557135641972224
76,0.5556834244860543,0.5556517530282339
