epoch,loss,val_loss
0,0.44621588597695033,0.4454006724357605
1,0.444921763420105,0.4451676315466563
2,0.4448448625736766,0.44467455001672107
3,0.39732753174834784,0.3335565369129181
4,0.33368509720431433,0.334404370089372
5,0.33366430777311323,0.33363736792405446
6,0.33363980704545976,0.3336882301171621
7,0.3336246794462204,0.3335365790724754
8,0.3336084737910165,0.3335629804333051
9,0.3336019140481949,0.33350214006503426
10,0.3335934991969003,0.3336309207677841
11,0.3335872597495715,0.33352983349561693
12,0.3335820651186837,0.3335200400352478
13,0.3335787206424607,0.3335292895634969
14,0.33356757540835275,0.33354864178101223
15,0.33356667227215236,0.33350826064745587
16,0.33356033943096797,0.3334968995253245
17,0.33355636056264243,0.3335133253733317
18,0.33355805166562397,0.3334883216222127
19,0.33355072569184835,0.3335384668111801
20,0.33355651740233105,0.3335013543963432
21,0.33355419111914103,0.33349510234594343
22,0.33354671390851337,0.3334933605194092
23,0.33355900727377996,0.33361183561881386
24,0.3335481526123153,0.33349661179383594
25,0.3335486794114113,0.3334892581105232
26,0.33354682500494853,0.33349112449089685
27,0.33354352128505704,0.33348426087697347
28,0.3335412999259101,0.3334950991074244
29,0.3335443864663442,0.3335109000603358
30,0.33353608735402424,0.33348453195889793
31,0.33354210899273556,0.33366779766480126
32,0.3335390983621279,0.33357017662127814
33,0.3335359250174628,0.33349821680784225
34,0.3335336264570554,0.3335094265540441
35,0.33354167909754645,0.3334982836445173
36,0.33354194493426215,0.33353649846712746
37,0.33353804553879635,0.3334995126326879
38,0.3335394518574079,0.33350542549292245
39,0.33353630366590287,0.3338726879755656
40,0.33353770234849717,0.333496604681015
41,0.33352913973728815,0.3334842015703519
42,0.33353383928537367,0.3335076225399971
43,0.33353307737906773,0.33350389238198597
44,0.3335338885121875,0.33348893392086026
45,0.3335304503838221,0.33347949119408926
46,0.33353009567658104,0.3335041675368945
47,0.3335328393710984,0.33348512721061707
48,0.33353183501296574,0.3335251752932866
49,0.3335297583275371,0.3334860634803772
50,0.33352198277579415,0.3335053515235583
51,0.33352981114387514,0.333518941005071
52,0.33352733395497003,0.3334949899514516
53,0.33352003963126076,0.3334832805991173
54,0.3335265333983633,0.3334875894188881
55,0.33352822582589253,0.333558986167113
56,0.3335258193347189,0.333494718949
57,0.33352366302410763,0.3335302097797394
58,0.3335252359310786,0.3334832729299863
59,0.3335255656639735,0.33350161550442375
60,0.3335215930607584,0.33358295426766077
61,0.3335278550187747,0.3334762721459071
62,0.33352627599901624,0.3335568351348241
63,0.33352287020948196,0.33349603911240894
64,0.33352299916081957,0.33349142501751583
65,0.3335199404093954,0.3335003035465876
66,0.3335225094490581,0.333480118850867
67,0.33352278085549675,0.33349144822359084
68,0.3335258958935738,0.3337524990439415
69,0.3335248218509886,0.33349789428710935
70,0.33352273425791,0.33347652026017505
71,0.3335217287739118,0.3334834799369176
72,0.3335227499405543,0.3334923797249794
73,0.33351997794707616,0.3334819790124893
74,0.33352572456333374,0.33349582413832346
75,0.33352464612325033,0.33349239176511764
76,0.3335242647594876,0.333501296043396
77,0.33352260869079164,0.3334764308532079
78,0.33352252620458606,0.3334779348572095
79,0.3335224785539839,0.3334940115213394
80,0.33352216051684486,0.3334930276075999
81,0.3335169382095337,0.3335820805033048
