epoch,loss,val_loss
0,0.4811196392658997,0.45671079134280407
1,0.4562816247795236,0.4543722067640164
2,0.45556247433974645,0.454799679030539
3,0.4554134944899699,0.45694750884319146
4,0.4564357781297914,0.4536547802811173
5,0.45375664135020843,0.45340756476636457
6,0.453797588745753,0.4532041536173398
7,0.4534135062924115,0.45364803816336274
8,0.4540597927904336,0.45333458059620346
9,0.4532236930094794,0.45306096672136686
10,0.4531356578862229,0.4535974790129361
11,0.4534038281527515,0.45286585155113573
12,0.45310904375965855,0.45364786342954083
13,0.45280282942025224,0.45274721884819363
14,0.4531667919569353,0.4528205498661945
15,0.45294776349218785,0.45282029402236323
16,0.4529150844936583,0.4530093416935327
17,0.4526949849520035,0.45370416941829156
18,0.4527331646548912,0.45331348697840346
19,0.45451857941467305,0.4536110430458179
20,0.45274742511081983,0.4527771208051761
21,0.45236687409139054,0.45269626508089006
22,0.45237853736799266,0.4527218110256402
23,0.4524952526058838,0.45296237177314136
24,0.4523271982342546,0.45253120777059597
25,0.4524199492108634,0.4524172913822521
26,0.45214050633576097,0.4534136759926363
27,0.4534962201760932,0.45286355609958556
28,0.4522538121967219,0.4523100708685658
29,0.4521145174581647,0.4524139614581274
30,0.45209879628917876,0.45250684690707366
31,0.4522280644103789,0.45275645790176233
32,0.4524921042759309,0.4524454300852954
33,0.452028958334167,0.4521849306926178
34,0.4520236047143972,0.452666880970024
35,0.4519603132104089,0.4522869203326505
36,0.45190990718634566,0.4527801910514765
37,0.45181582677858045,0.45243812398224453
38,0.453325165459714,0.45634656818575065
39,0.45364688280606374,0.45298548137666894
40,0.45221411784234716,0.45217282656880337
41,0.4518476076090949,0.4523634683059802
42,0.45181476751175714,0.4521690193152817
43,0.4517674168155136,0.45208192175190304
44,0.451942755252482,0.45213174310205706
45,0.45177551155980883,0.45205990100786386
46,0.4517176435844332,0.45225702584128924
47,0.4518052331149312,0.45214605403615915
48,0.4518566179338957,0.4522042437132662
49,0.4523130436187754,0.45216499878564304
50,0.4517818773810839,0.45207734071545524
51,0.45176597257786993,0.45203872501117237
52,0.4516446955263662,0.4521129355395162
53,0.45172219267276226,0.45221401264545436
54,0.4520538815932368,0.4524425212112692
55,0.4520585895652996,0.4523126222569257
56,0.4517901466550131,0.4523836118154601
57,0.4517786409531543,0.4522390781323567
58,0.4972766836666584,0.5116193707021229
59,0.504980715840003,0.5026815515261087
60,0.5020862375989109,0.502355945681318
61,0.5027931267357444,0.5064406354923077
62,0.5020274153330089,0.5023539151307923
63,0.5018208627052655,0.5023482214597239
64,0.5017404153841879,0.50204741371774
65,0.5017013661415269,0.5020370077465538
66,0.5016198695570115,0.5020435460555835
67,0.5016213200242102,0.502152288905151
68,0.5016863411403529,0.5027827124548387
69,0.5016379937080168,0.50203391686998
70,0.5016241804783502,0.5019576810416573
71,0.5015839786896205,0.5019658189954004
