epoch,loss,val_loss
0,0.5701758209635316,0.5567073079397272
1,0.5655219840982999,0.5543867801062272
2,0.5538159157257456,0.5544644263845603
3,0.554186803000764,0.5532632375730464
4,0.5536856533642858,0.5540029739519723
5,0.5532039823776839,0.5527785090508429
6,0.5534319114581506,0.5529148507980189
7,0.5529703405309309,0.552771527551909
8,0.5526736053974466,0.5526034566301187
9,0.5527589212698099,0.5528143777237352
10,0.5526360668100231,0.5539994383869007
11,0.5531556783425755,0.5522497563783041
12,0.5524852272129251,0.5532198802312157
13,0.5527085809486827,0.5537331629880176
14,0.5527248186110401,0.55237789648698
15,0.5525174595357708,0.5530283127515376
16,0.5527216685673669,0.5529151658964586
17,0.5526077111810036,0.5524821652252973
18,0.5520925835825992,0.5526254939079109
19,0.5521740861067956,0.5532459910801079
20,0.5521311527612035,0.5523023440063842
21,0.552242382160347,0.5525192165510395
22,0.5519511493920711,0.5522055301913036
23,0.5522456472201647,0.5525797355129076
24,0.5521948270172914,0.5522318779601812
25,0.5524431457211499,0.5532003937018729
26,0.5519996047049128,0.5522800070973881
27,0.5526957251963327,0.5525030578401334
28,0.5538111619207847,0.5520970719213726
29,0.551716848444908,0.5519701565683687
30,0.5516555358446606,0.5522603559305874
31,0.5516225780493886,0.5521731156781302
32,0.5516835168909209,0.552056760399861
33,0.551804750138644,0.551838117764617
34,0.5517350693080683,0.5526658756445473
35,0.5516386627932167,0.5523900929165009
36,0.5518299544624008,0.5518171160696712
37,0.5516349559618718,0.5522372588518016
38,0.5516696509734756,0.5523151549577144
39,0.5517621635442671,0.5518065199630592
40,0.5517739015864679,0.5520323810500385
41,0.551622214638626,0.5517691729330846
42,0.5515614560731597,0.5522085818747333
43,0.5515717234444952,0.5519341425975324
44,0.5514658555135951,0.5517416572675812
45,0.5514742219390479,0.5519156717098969
46,0.5516304130174118,0.5519848114898565
47,0.5514850982607793,0.5516424133681795
48,0.5516492259380628,0.5554365714026451
49,1.5784568718728607,1.0
50,1.0,1.0
51,1.0,1.0
52,1.0,1.0
53,1.0,1.0
54,1.0,1.0
55,1.0,1.0
56,1.0,1.0
57,1.0,1.0
58,1.0,1.0
59,1.0,1.0
60,1.0,1.0
61,1.0,1.0
62,1.0,1.0
63,1.0,1.0
64,1.0,1.0
65,1.0,1.0
66,1.0,1.0
67,1.0,1.0
