epoch,loss,val_loss
0,0.5351651540887372,0.5056871743918909
1,0.5051067143782583,0.5048847890245869
2,0.5046039005846191,0.504527590967883
3,0.5044655520602265,0.5046545499769958
4,0.5041853713720896,0.5039069563079305
5,0.5042639820847138,0.5037999199845197
6,0.5037139016546269,0.5041392482755643
7,0.5031547925447027,0.5036054779507957
8,0.5028900689011707,0.5031441542331747
9,0.5040555185241102,0.5036216033973001
10,0.5027539930540815,0.5026651557311375
11,0.5028544668357307,0.5033816595562315
12,0.5026303152939723,0.502571801796684
13,0.5026164509225214,0.5033351628687168
14,0.5026712579166239,0.5038782399298839
15,0.5025742213543879,0.502517151644436
16,0.5037064289925638,0.5035602143870119
17,0.5025621865870151,0.5024854665087831
18,0.5023621768114829,0.5025231129511887
19,0.502292666331981,0.5022918865710885
20,0.5022253533120533,0.5022865586552976
21,0.5022327875904318,0.5024593328090737
22,0.502485499605459,0.5023926562356344
23,0.5020323822554765,0.5022201202379102
24,0.5021259916290315,0.502302837067732
25,0.5022945201797296,0.5023471726192468
26,0.5020612019708472,0.5022310439458264
27,0.5042940748680795,0.5059014642253931
28,0.5021945098609292,0.5023091381067397
29,0.5018964045498577,0.5020557232440382
30,0.5018692808121492,0.5020821126234993
31,0.5033474869302794,0.5026987836784913
32,0.5121075385840667,0.5024745735384429
33,0.5022121237681723,0.502386674550197
34,0.5034553101611603,0.5024521000495984
35,0.50192896584863,0.5021708835525499
36,0.5150979304230526,0.5030768417857026
37,0.5023603517651711,0.5022640314249188
38,0.5018500154475054,0.5020751624309507
39,0.5016999485777548,0.5021322301318392
40,0.5017010697518065,0.5022782482648469
41,0.5016615491048447,0.5023906316576058
42,0.5058181349484572,0.5023154762496115
43,0.5018301690770427,0.5020156340613061
44,0.5017567544805461,0.5021692741833864
45,0.5019513290869305,0.5021673186609867
46,0.5038132564864144,0.5030165753970126
47,0.49216425892679144,0.4530393713044341
48,0.4541652846472733,0.45328350034541526
49,0.4522734276379271,0.45234212266193397
50,0.45194533587253194,0.45225656400100533
51,0.4518455668528189,0.45256353347842726
52,0.4518749447377762,0.45226904970283877
53,0.45183003925763776,0.452255659736522
54,0.45187710062505243,0.4523444311960966
55,0.451839198244014,0.4524478870185062
56,0.4518041130420359,0.4522750999735438
57,0.45186572948850945,0.452214774423224
58,0.45184241314834794,0.4521292574877344
59,0.45188631187260037,0.45214985380765166
60,0.45180171465606817,0.4520676001690357
61,0.4518984107312831,0.45998057732890124
62,0.45470747203792483,0.45227544647134715
63,0.45178007832497874,0.45215967450694966
64,0.45188699559953344,0.45257932497921677
65,0.45180350416821063,0.4521838149623622
66,0.4519897562477241,0.4522700174770611
67,0.4518443607621115,0.4520978234868287
68,0.45176068509128936,0.4521311315610269
69,0.45187884084586377,0.4521671115455113
70,0.45171566227236865,0.45210320585516534
71,0.45171703428582416,0.4525211322666374
72,0.45176357074258466,0.45217732713515224
73,0.4517162900609241,0.45227559170912857
74,0.45179804385842376,0.4528801994304916
75,0.4517558116996559,0.452250367502572
76,0.4517100597438648,0.45264502446965177
77,0.45178272721125257,0.4523528563383414
78,0.4517362079828487,0.4521214940784655
79,0.4517534895651186,0.45257771020089627
80,0.4518902074374022,0.452995698388333
