epoch,loss,val_loss
0,0.2347034724307154,0.22697332664104017
1,0.22702256772416274,0.22652050247115474
2,0.22632647845808065,0.22906412160574058
3,0.22612731101484165,0.2255889443398705
4,0.22586632986108546,0.2253412886455692
5,0.2257593585774635,0.2256375419886473
6,0.2255810270042619,0.22558183002264862
7,0.2255100530075804,0.2254588899630175
8,0.22533301864868452,0.22499832872569414
9,0.2252940788583675,0.22569770446190468
10,0.2252530098417763,0.22541159506767028
11,0.22516583531924964,0.22486172670466137
12,0.22514874518593658,0.22484774772937483
13,0.22517259174092405,0.22481950696733394
14,0.22504738187833617,0.2247942397153703
15,0.22510721645330803,0.22503507418313037
16,0.22502625753344532,0.22514316291726258
17,0.2250477953544499,0.2248510901374793
18,0.22502028232813592,0.2249490805802215
19,0.22497381222602103,0.2248025250789841
20,0.22496312205950122,0.22485832445526832
21,0.22497392102652577,0.22507703736165616
22,0.22496247398175068,0.22482383933019992
23,0.22494838811410123,0.2247572228793175
24,0.22494306103860504,0.2250119547838017
25,0.22493951796189307,0.22477997448988646
26,0.22493466771487797,0.22484830342806303
27,0.2249035095343325,0.22466714681673877
28,0.22490086865734962,0.22512907280075933
29,0.22492464511154475,0.22549603774441088
30,0.22487778255381183,0.2247293123906067
31,0.22488795199356332,0.2246808780038327
32,0.22489003861029827,0.22501317184261294
33,0.22488120742777898,0.2246361965207249
34,0.22487732914504724,0.22480251564281453
35,0.2248870194775903,0.22474219223701628
36,0.22483303522025877,0.22507367521598381
37,0.22484647448783002,0.22476248750763556
38,0.2248477037100783,0.2247676682605341
39,0.22484599120831222,0.2270677106847834
40,0.22482852598050293,0.22486509692580173
41,0.22484874225559995,0.22475060286652065
42,0.22486436194774562,0.2248253496719649
43,0.22483155111382674,0.225126911171021
44,0.22482152415695092,0.2247135370895821
45,0.22481347830926846,0.22473468031392205
46,0.22483113122256798,0.22464775179071403
47,0.22481306717991853,0.22467728434662074
48,0.22481487374786532,0.22492777269620162
49,0.22481319474289832,0.22464603176779546
50,0.22479894688386393,0.2250383825810908
51,0.22481468007891625,0.22492522790325487
52,0.2247984906976354,0.22475924678239279
53,0.22475814125068552,0.22598668153469378
