epoch,loss,val_loss
0,0.458123187939326,0.42076149966319404
1,0.41963760058747396,0.4194277212421099
2,0.4188377732038498,0.41879762268066406
3,0.41863939015070595,0.4183032598892848
4,0.4185481901301278,0.4182064130306244
5,0.4184684570233027,0.41841940057277677
6,0.41844155067867705,0.41862605927387875
7,0.41839981383747527,0.41848903985818225
8,0.4183732493188646,0.4181484360496203
9,0.41835034216774836,0.4181243000626564
10,0.4183372139930725,0.41843055190642675
11,0.418317296869225,0.41821286312739053
12,0.41830350817574397,0.4182987089951833
13,0.4182944830854734,0.4183046960234642
14,0.418283478571309,0.41812316634257635
15,0.4182675476604038,0.4180889983375867
16,0.4182675543162558,0.4182840775847435
17,0.4182666854659716,0.4182177229722341
18,0.4182559310793877,0.4181243550380071
19,0.41825636468993294,0.4183649418950081
20,0.4182711040774981,0.4181691360870997
21,0.4182575651804606,0.4183427975376447
22,0.41825663526190654,0.4185406918724378
23,0.418232088095612,0.41817048782110217
24,0.4182509293291304,0.418165459771951
25,0.41823881018161774,0.4180892335573832
26,0.41823721566465166,0.4181678151289622
27,0.41822213896777893,0.4181309255361557
28,0.4182320037749079,0.41829855704307556
29,0.4182221504714754,0.4182790407935778
30,0.4182277571294043,0.4181134111483892
31,0.4182236668401294,0.4180871115922928
32,0.41821764288345975,0.41816659369071324
33,0.4182299024528927,0.41807697421312334
34,0.4182341583834754,0.418071463406086
35,0.4182303365005387,0.41860197802384697
36,0.41821088453796174,0.4180607510606448
37,0.41822059943278633,0.4181237541437149
38,0.4182194871107737,0.41826080948114397
39,0.4182221097217666,0.41832317610581715
40,0.41822048959467145,0.41825296316544214
41,0.4182264266808828,0.41817149345080057
42,0.4182051203979386,0.4181186411778132
43,0.41821991250250073,0.4181988286177317
44,0.418212286081579,0.41811881186564764
45,0.4182209273841646,0.4180665047168732
46,0.4182103973494636,0.41807817218701043
47,0.4182136900623639,0.4181774658759435
48,0.41820699350039164,0.4189088017940521
49,0.418221618519889,0.41807276686032613
50,0.4182079450885455,0.4181906060576439
51,0.41820240077707505,0.4180558532476425
52,0.4182096844977803,0.418237425605456
53,0.41820825075440937,0.4180895387729009
54,0.4181968022386233,0.4182415125370026
55,0.4182068530122439,0.4189341142574946
56,0.41821341119209926,0.4181246633927027
57,0.4182081151869562,0.4182152402003606
58,0.41821050473716526,0.4180555720329285
59,0.41820688480801055,0.41807590355475743
60,0.4181946518354946,0.41806966642538707
61,0.41820046277840933,0.41823770117759707
62,0.41821191288365256,0.4181926827033361
63,0.41819269178973306,0.41909796837965646
64,0.41820448845624925,0.4183065181175868
65,0.41821145580874547,0.41818598165114723
66,0.4182036262816853,0.4185613200465838
67,0.41820612219969433,0.41816211271286013
68,0.41820494708749983,0.4183054056167603
69,0.41820668389399845,0.41812336327632266
70,0.41819907814264295,0.4181248713930448
71,0.41820534690883426,0.4181408289670944
72,0.4181969635685285,0.4183773360848427
73,0.41819744951195187,0.41839576154947283
74,0.41820816986428366,0.41805640890200935
75,0.4182021576099926,0.41823808012406033
76,0.41820146510998407,0.41806263850132624
77,0.4182038787139787,0.41809118350346886
78,0.418193833662404,0.4180435740749041
79,0.4182102776236004,0.41822726307312647
80,0.4181908569799529,0.41814193107684455
81,0.4181900468601121,0.41803737185398737
82,0.41818668458859126,0.4180442928671837
83,0.418201594736841,0.4182237167954445
84,0.4182062713305155,0.4181964951356252
85,0.4181877692474259,0.41819917293389636
86,0.4182046344015333,0.41808724333842595
87,0.41818884293900593,0.4180946712891261
88,0.41819710717598596,0.41813693737983704
89,0.4181916140450372,0.4180898681084315
90,0.4181936666303211,0.41828215605020524
91,0.4182020052075386,0.4180946837067604
92,0.41818172632985645,0.4181099166274071
93,0.4181955980327394,0.41817152067025504
94,0.4181968953609467,0.4180433661142985
95,0.4181978163321813,0.41855360502004624
96,0.41819505566358567,0.4180865514675776
97,0.4182064748605092,0.418227975666523
98,0.4181918105483055,0.41830481161673866
99,0.41819431434737314,0.41830530269940697
100,0.4181887535982662,0.4180785167415937
101,0.41819483077526093,0.41807017878691355
