epoch,loss,val_loss
0,0.7816500749242632,0.7791683292566399
1,0.7792833468281424,0.7789676228764632
2,0.7790856542401559,0.7789230913441471
3,0.7789292479921026,0.7789928629439759
4,0.7788005231820206,0.7786903762048291
5,0.7787159496347875,0.778828521697752
6,0.7786793709022142,0.7787093736101912
7,0.7786734314781502,0.7785924425196116
8,0.778642456572954,0.7786719103604924
9,0.7786275762352459,0.7786140201405319
10,0.7786216304358727,0.7785801509473815
11,0.7785999235216633,0.7785975303602574
12,0.7785907712320471,0.7785161844849883
13,0.7785828835112805,0.7789995961686222
14,0.7785781733970247,0.7785356547045649
15,0.7785678893038608,0.7785039854404648
16,0.7785637495494413,0.7788821573588748
17,0.7785551991301913,0.7784867766181529
18,0.77856047183827,0.7785171324206936
19,0.778556741163825,0.7785193064372533
20,0.7785552962073291,0.7785041366558217
21,0.7785499228321555,0.7785630594707896
22,0.7785373377288196,0.7785818466181791
23,0.7785445829664023,0.778493546226776
24,0.7785391954199308,0.7786792876702681
25,0.7785311624301474,0.778610804891468
26,0.7785378306967249,0.778519546275695
27,0.7785265808633289,0.7784717950276642
28,0.778532407947219,0.7785585403738188
29,0.7785303362249402,0.7785341894952003
30,0.778535968633928,0.7784750236175196
31,0.778522006010227,0.7784880476613198
32,0.7785241112900446,0.7784959653471007
33,0.7785304191489231,0.7784979911063504
34,0.7785190978035212,0.778504731726114
35,0.7785265107309836,0.7787706181665804
36,0.7785208951918747,0.7785673592285838
37,0.7785150126486319,0.7785801590524299
38,0.7785203966643085,0.778482822094011
39,0.7785146904486137,0.7787391933258947
40,0.7785116244802196,0.7784744814962666
41,0.7785093727457765,0.7785215061592405
42,0.778517817984257,0.7786874451944905
43,0.7785101200815775,0.7784866831438713
44,0.7785078743185636,0.7788392186756465
45,0.7785053257567601,0.7784619964677701
46,0.7785037818693802,0.7784864361469562
47,0.7785067806225154,0.7784804242124629
48,0.7784998172072038,0.7786205918558182
49,0.7785036046299468,0.7784895846033215
50,0.778501512030542,0.7785011395035547
51,0.7784975165307062,0.7784888832504046
52,0.7785081179749617,0.7784828217094648
53,0.7784962822796784,0.7785317401436364
54,0.7784981328232176,0.7784909221433824
55,0.7785097318732075,0.7784863602434731
56,0.778493731812066,0.7786526983488287
57,0.7784975360297496,0.7784752861146004
58,0.778492218255129,0.7785439947402802
59,0.778495920454455,0.7784726077510464
60,0.7784923675037838,0.7786214447494771
61,0.7785017910579949,0.778520972143036
62,0.7784943294669344,0.7785976924908072
63,0.7784889973364302,0.7785877670602822
64,0.7784910184222515,0.7784714980693372
65,0.778498144549937,0.7784686808254819
