epoch,loss,val_loss
0,0.6741081024733637,0.669015021596298
1,0.6687478970036821,0.668800546276954
2,0.6683771795839724,0.6683514209006619
3,0.6682554532983658,0.6682268250964711
4,0.6681966402521172,0.6687921665738298
5,0.6681040051571547,0.6681294891733686
6,0.6680659257539413,0.6680726671041389
7,0.5719846558134483,0.5573803185529211
8,0.5573390492315594,0.5574300693223257
9,0.5572933560336804,0.5572989328919215
10,0.5572923401784065,0.5572746576209814
11,0.5572380411886957,0.557651523709593
12,0.5572225602648339,0.5572184727446317
13,0.5572054637136149,0.5571720054072719
14,0.5571817727987625,0.55719058995803
15,0.5571527884288616,0.5570598242596421
16,0.5571408132995236,0.5574266265402953
17,0.5571493501627616,0.5570357228922784
18,0.5571139040083655,0.5571503361164784
19,0.5571294252216257,0.5570503089327374
20,0.5571083734915224,0.5571431415548396
21,0.5571097541522125,0.5570514226669709
22,0.5571061491238948,0.557092360734348
23,0.5570901452061725,0.5570813399390606
24,0.5570998224317439,0.5573540307452011
25,0.5570867018679073,0.5569698862639018
26,0.5570807820462232,0.5570194647566556
27,0.5570602464227218,0.5570185507793285
28,0.557051991242921,0.557514241138108
29,0.5570634045025804,0.5569883301595304
30,0.5570490411849371,0.5571375790955707
31,0.5570434960597854,0.5569444609339125
32,0.5570572580505652,0.5569283046734245
33,0.5570413008851104,0.5569744656458682
34,0.5570459246810557,0.5569804175320098
35,0.5570437308182019,0.557054559882758
36,0.5570269423304116,0.557267855118877
37,0.5570368170146599,0.5571210809440235
38,0.5570311310489728,0.5569475063910851
39,0.5570391040617845,0.5569871848333562
40,0.5570306366769534,0.5569539990081976
41,0.5570374590742432,0.5570528964546715
42,0.5570238094536129,0.5570998298323184
43,0.5570229726000143,0.5569801660388635
44,0.5570267921793374,0.5573130536611856
45,0.5570113247483813,0.5572557567366891
46,0.5570116088748195,0.557491739038794
47,0.5570269635301685,0.5569612969535752
48,0.5570232665173875,0.5570568012836258
49,0.5570249481767614,0.5573430573082444
50,0.557018304367801,0.5571247130706352
51,0.5570114122578224,0.556931779254459
52,0.5569963042335423,0.5570526495760783
