epoch,loss,val_loss
0,0.5632318482352162,0.5583665813464976
1,0.5582213890276273,0.5592159937392394
2,0.5578937599808244,0.5574099563191606
3,0.5576849639706819,0.5576015926472306
4,0.557537300460551,0.5575741277143322
5,0.5574668309021251,0.5585952386962568
6,0.5574406503706536,0.5575521093148451
7,0.5573893867065182,0.5579978984579554
8,0.5573410688454274,0.5573890730110055
9,0.5573129596685404,0.5573618685341355
10,0.5572815737799275,0.557149010852312
11,0.5572505828922838,0.5571905573307728
12,0.5572148001504326,0.5572072901737601
13,0.5572177585502742,0.5595221590463341
14,0.5571897057430477,0.5570796774871296
15,0.5571696067950962,0.5573898388493446
16,0.5571493056909963,0.5571055586225637
17,0.5571682669783508,0.5572363983904458
18,0.5571401837065806,0.5570784456676644
19,0.5571241116183284,0.557138300533626
20,0.557159128463252,0.5570755956190692
21,0.5571121044199702,0.5569911232065622
22,0.5571089902123675,0.5570297968890472
23,0.5571083762445328,0.557365928512649
24,0.5571018470302171,0.5572029647105385
25,0.5570914488007176,0.5570487011750933
26,0.5570891937011335,0.557570030789813
27,0.5570813487190767,0.5569763543588057
28,0.5570678697393321,0.5570055023908024
29,0.5570670693422158,0.5571614029389753
30,0.5570713031888473,0.5570237719983084
31,0.5570846133317563,0.5571639839236258
32,0.5570589157958244,0.5570633162635727
33,0.5570677775229533,0.5569879236055663
34,0.5570595549832844,0.5572036724528368
35,0.557044692132319,0.557048011092335
36,0.5570697672536442,0.5569630361964034
37,0.5570437586898673,0.5569868543011971
38,0.5570746590855107,0.5572599856196798
39,0.5570406843062544,0.5571666389777702
40,0.5570385335228842,0.5572113540568955
41,0.5570531768626926,0.5569453095975644
42,0.5570450439851767,0.5570058914035485
43,0.5570415187334176,0.5571936676283332
44,0.5570368149999928,0.5571021772791671
45,0.557027138326601,0.5572173081319918
46,0.5570315610179057,0.5572410608935296
47,0.557023914236813,0.5570352868170064
48,0.5570314933774685,0.5569541928194297
49,0.5570215251863186,0.5569162371732461
50,0.5570232791575701,0.5579036394064835
51,0.5570193677823136,0.5570043604959625
52,0.5570186279853434,0.5569333960637265
53,0.557019725636576,0.5569385363209632
54,0.5570124904289434,0.5569293266786239
55,0.5570290671289934,0.5570306401098928
56,0.5570052449988867,0.556959080193238
57,0.5570126611629109,0.5569404581936063
58,0.557005701425905,0.5572350300571167
59,0.557020724625915,0.5569458229370212
60,0.5569970368513875,0.5571488204132534
61,0.5570014766429091,0.5570789549250165
62,0.5570055765370527,0.5570385314394759
63,0.556996239118144,0.5571323308400421
64,0.5569984133502202,0.5570011644150424
65,0.5569869864359454,0.5569060620539833
66,0.557002478373426,0.5570618628272348
67,0.5569906059913226,0.5569644299985161
68,0.5569843666973879,0.5569254211988993
69,0.5569887147363619,0.5569187321083126
70,0.5569887681952465,0.5570719916826442
71,0.5569869882352624,0.5569844266025363
72,0.5569881898587797,0.5572631346676545
73,0.5569940222009984,0.5570554916971079
74,0.5569986535815264,0.5569657014262291
75,0.5569898675329936,0.5570528995902012
76,0.5569888555484995,0.5569184578677857
77,0.5569915801972584,0.5569502349526947
78,0.5570004097906833,0.5573026784892118
79,0.5569717214317058,0.5587447827566351
80,0.5569874616749377,0.5570426373268771
81,0.5569760165702855,0.5571407733425018
82,0.5569798286644182,0.5574145833256818
83,0.5569741373552091,0.5569538136865602
84,0.5569787851946367,0.5569616517712993
85,0.556987920360371,0.5571998748530821
