epoch,loss,val_loss
0,0.6193889998707786,0.6197495808376567
1,0.6149898662770151,0.6139525313235394
2,0.6143022266011814,0.614040148435692
3,0.6138173797346692,0.6133504799814438
4,0.6133404292478905,0.6129144678044851
5,0.6130210962753179,0.6122980018111671
6,0.6128288831220291,0.6123391853964358
7,0.6127002699200884,0.613311929649514
8,0.6125098256895001,0.6126841743885731
9,0.6123273243148227,0.6119281332486912
10,0.6121838790672341,0.612092847090501
11,0.6121163283157869,0.6117339780845358
12,0.6120291989763513,0.6118110595210906
13,0.6120382339072687,0.6122311361078588
14,0.6119812812231035,0.6124129702080569
15,0.6118716862216804,0.6115865604457429
16,0.611889127056162,0.6117055316420997
17,0.6118366542233679,0.6117030898927164
18,0.611778557289524,0.6114533479988723
19,0.6117637102798059,0.6125776636689236
20,0.6117326593299971,0.6113639004768864
21,0.611686579058083,0.6113749567687363
22,0.6116345509232212,0.6117316729969186
23,0.6117283914004672,0.6113365215048305
24,0.6117087108674826,0.6131050765366471
25,0.6115900563773438,0.6117381665310256
26,0.6115470840521032,0.612749149367472
27,0.6115403639484718,0.61117335202972
28,0.6115900566463341,0.6113717274097887
29,0.6114961108131988,0.6112523262908973
30,0.6114766629048505,0.6116944958495147
31,0.6114529986831542,0.6118417383719319
32,0.611543365249522,0.6112433110513995
33,0.6114274768050552,0.6113839989560413
34,0.6114534840152028,0.6117473702572711
35,0.611369926642719,0.6113242062090645
36,0.6113970112651352,0.6115231493566528
37,0.6113934543805779,0.6112999009139485
38,0.6113681527156928,0.613131769419308
39,0.6113679640469283,0.6117113591719502
40,0.6113769429868227,0.6111114166806413
41,0.6113652195859612,0.6111474299844973
42,0.6112889083747779,0.613615094225105
43,0.6112898536157325,0.6110640181501213
44,0.6112957046957752,0.6110847879580174
45,0.6113025969674637,0.6110166467153109
46,0.6112899005999155,0.6111998535267472
47,0.6113107894228043,0.6111876360240113
48,0.6112992995426878,0.6113229927294899
49,0.6112343928966999,0.6109323150170944
50,0.6111947231259847,0.6113580202938014
51,0.6112365884050492,0.6112680503807352
52,0.6112346077679695,0.6111396175756052
53,0.6112397868232136,0.6110137874671898
54,0.6112843701990303,0.6113034273495449
55,0.6112556599532265,0.6151947166724477
56,0.6112220546050747,0.6112849058347659
57,0.611266299370881,0.6110434294930167
58,0.6112330834427392,0.6111829464843788
59,0.6112257716059725,0.6115770493192649
60,0.6112083396789384,0.611085529037504
61,0.6112099600723954,0.6111162531760431
62,0.6112078143422583,0.6115963714294339
63,0.6112034588449141,0.611234177164641
64,0.6112168867062273,0.6115697970757118
65,0.6111956260281652,0.6113201525903518
66,0.6112099542697753,0.6112102662954969
67,0.6111837918758297,0.6110342107103125
68,0.6112280314905881,0.6110277090415765
69,0.6111930336217147,0.6109730813994301
