epoch,loss,val_loss
0,0.6735800965407425,0.6686322348289395
1,0.6688091134815511,0.6688717859258723
2,0.6684635709383759,0.6682127368361424
3,0.6682402157027495,0.668328401734752
4,0.6681190367218987,0.6679703427307659
5,0.6680724325600153,0.6680916832635184
6,0.6680362965690804,0.6679129056244275
7,0.6679970143748839,0.6679263768361756
8,0.667967794808767,0.6678401868337437
9,0.6679396175623202,0.6679792235566132
10,0.6679222253598837,0.6679184932862559
11,0.6679109142795027,0.6678586307885334
12,0.6678974458590118,0.6677657490924334
13,0.6678782332123523,0.6680451189318011
14,0.6678834570051967,0.6678314045700187
15,0.6678712778178454,0.6680289589737545
16,0.6678563266212812,0.6677972453699514
17,0.6678554068050472,0.6679772176458582
18,0.6678489317871705,0.6677560671091671
19,0.6678344839599998,0.6677928899417148
20,0.6678411493244786,0.6679148298339276
21,0.6678319920439466,0.6677996649044028
22,0.6678474316332128,0.6679406090942269
23,0.6678256866296467,0.6679225766037593
24,0.6678286358262302,0.6677980509940211
25,0.667817740783288,0.6677983144376769
26,0.6678345666702102,0.6677640811089547
27,0.6678248624351625,0.6678800379372116
28,0.6678047621438367,0.6677699513825825
29,0.6678163307206059,0.667962096731361
30,0.6678152728263127,0.6677422902720146
31,0.6678097186611902,0.6677653540156911
32,0.6678016101418991,0.667752089364357
33,0.6677940054858078,0.6677981500294309
34,0.6678057117896077,0.6677626868039739
35,0.6677979927179356,0.6680823869799858
36,0.6677967488132287,0.6677150538482381
37,0.6677895800691018,0.6678108515573791
38,0.6677879405781151,0.6677528725960119
39,0.6677945951884995,0.6677181903836745
40,0.6677920203713394,0.6676901657291441
41,0.6677835458255262,0.6677655915172757
42,0.6677915813995107,0.6677174559893738
43,0.6677761770337886,0.6677547451875937
44,0.6677883269816464,0.667716485513351
45,0.667784643673177,0.6677253173835225
46,0.6677801088010417,0.6677511512493673
47,0.6677837136234753,0.6679345889363631
48,0.6677860548173427,0.6677755401684687
49,0.6677792875449424,0.6679807949302806
50,0.6677793915937436,0.6677195449325051
51,0.6677733116225882,0.6679314177621979
52,0.6677805761422865,0.6677340632041098
53,0.6677766916913129,0.6677091807348853
54,0.6677713524582,0.6677739358125786
55,0.6677764013962386,0.667720059543922
56,0.6677805708374172,0.6680035189422721
57,0.6677736264446966,0.6677672528155684
58,0.667774526506307,0.6678607526251459
59,0.6677684661051896,0.6676962743917707
60,0.6677609510773318,0.6678252342616949
