epoch,loss,val_loss
0,0.6724786164648229,0.6692468095062388
1,0.6687003692060587,0.6684170909614184
2,0.6683661011321718,0.6681886967595103
3,0.6681986863035612,0.6686485472447228
4,0.6681379471156377,0.6681545733222298
5,0.6680988761735671,0.6679857991173604
6,0.6680531208704581,0.6679759410711436
7,0.6679952985671389,0.6684093447240351
8,0.667967123997186,0.6680508047712056
9,0.6679315848210177,0.6678952703109154
10,0.6679306863654615,0.6681497617335829
11,0.667891420494486,0.6677621158713443
12,0.6678962784406612,0.6677810159865443
13,0.6678757419794243,0.6677647477344011
14,0.6678702469732587,0.6682326967899616
15,0.6678560825002633,0.6677575322593708
16,0.6678623613839058,0.6678319356281763
17,0.6678559791606188,0.6677823740554507
18,0.6678502170525045,0.6677530790676846
19,0.6678355573003373,0.6680362458264562
20,0.6678376682936373,0.6678010555414053
21,0.6678362996436449,0.6677377459429038
22,0.6678252830951343,0.6677912300337041
23,0.6678319803109166,0.6682838738112532
24,0.6678201996442859,0.6677899212754393
25,0.6678098114179162,0.6677833094786177
26,0.6678082103507492,0.6677367118097121
27,0.6678150853597222,0.668399465912329
28,0.6677967684085091,0.6677423472439976
29,0.6677993013680804,0.6678321343497662
30,0.6677947289706005,0.6677484643962188
31,0.6677908000147309,0.6679451980306848
32,0.6677897860849865,0.66773728010968
33,0.667785046773834,0.6677259144652866
34,0.6677872576051703,0.6677379750732156
35,0.6677804364226759,0.6683129836844451
36,0.667781168292712,0.6677413321606279
37,0.6677821964828919,0.6677357146521065
38,0.6677889835241146,0.6677069391269542
39,0.6677819203236182,0.667866064449102
40,0.6677755777018715,0.6677334715059909
41,0.6677743698284686,0.6677270484325608
42,0.667781280218751,0.6684249076003176
43,0.6677714706790878,0.6676834656346229
44,0.6677769238229316,0.6679255640832129
45,0.6677699360383516,0.6677041452220889
46,0.667767013939593,0.6677107736431339
47,0.6677725749872412,0.6677679640779425
48,0.6677710001801639,0.6677052276306058
49,0.6677554677907862,0.6677620794577871
50,0.6677737100036862,0.6678844093980624
51,0.6677632806351949,0.6677554032642847
52,0.6677685324377497,0.6677725639887543
53,0.6677622305234804,0.6678125496241946
54,0.6677648333992581,0.6677905749446406
55,0.6677528830777769,0.6677219296507445
56,0.6677727782453826,0.667851399606274
57,0.6677559852297188,0.6680137168384959
58,0.6677631461881117,0.6678451353503811
59,0.6677706362637571,0.6677439335558019
60,0.6677544883296772,0.6677027060435369
61,0.6677596075388951,0.6677119456804715
62,0.6677590243306256,0.6676869207221284
63,0.6677603684938143,0.6677478516959671
