epoch,loss,val_loss
0,0.8507640602052674,0.49645833821259727
1,0.4931213831870747,0.49168012747468876
2,0.49141276598900785,0.491598972054415
3,0.4914938310782115,0.49161226042481354
4,0.49158636998452576,0.4917031635147657
5,0.491680656446659,0.4932906505211379
6,0.49163851603981135,0.4920077656590661
7,0.4915788527915028,0.4917017461717591
8,0.49177568265325955,0.4915939597196357
9,0.49178954365949606,0.4935104368731033
10,0.49159218813713823,0.4918369632358699
11,0.49166435072588366,0.492520423591599
12,0.4919311034587003,0.49189443158548934
13,0.5011532246604447,0.4993750762569812
14,0.4994148871541331,0.492160920255868
15,0.49147433389064876,0.49165146919183955
16,0.49129612224046576,0.4916086702845817
17,0.4912967546349656,0.49157384245894675
18,0.49128989702047304,0.49159353555634966
19,0.491321784735342,0.49191513149313226
20,0.4913485333593009,0.4915777204572692
21,0.49152710340743844,0.491877124060032
22,0.49146216845943635,0.4915690549122271
23,0.4913807035416596,0.49238436559374016
24,0.4913162086977207,0.49173742509627527
25,0.4914983336931667,0.492194907147755
26,0.4914724410966385,0.49215182454087014
27,0.4913305409194887,0.491625589455745
28,0.49146699628164603,0.4919141463993132
29,0.49145932360829003,0.49161359113316205
30,0.4914257628819123,0.4915669257788695
31,0.49146422913216187,0.49183736753094104
32,0.4913675624886841,0.491761012825855
33,0.49152608828027117,0.4936332115831301
34,0.49190477915204467,0.49260259644929755
35,0.4914165062959804,0.4918816304484079
36,0.4917306865370551,0.4923076634259187
37,0.4929902290959075,0.4919985511968302
38,0.49149418447060794,0.4922835921594339
39,0.491585447729712,0.4923207235428714
40,0.4919802131424887,0.4931711891824885
41,0.4916410209750636,0.4921242788780567
42,0.4917111774131617,0.4948641546936922
43,0.4920330719892369,0.4933390102183172
44,0.4924212117373789,0.49341091929480085
45,0.4918196164360342,0.49183395458746326
46,0.49169687838209386,0.491586170455282
47,0.4914783890857253,0.49182520310084027
48,0.4913303775072714,0.49161456767902817
49,0.49164055230081544,0.4922348267810289
50,0.49158182147245383,0.4918286183545756
