epoch,loss,val_loss
0,0.6714321274049396,0.6689597152894543
1,0.6177598464164143,0.557661283844458
2,0.5577731337784076,0.5574698180773714
3,0.5575921896514928,0.5574667344318134
4,0.5575023305453813,0.5580463227503945
5,0.5574210788253232,0.5571368769735615
6,0.557328200200964,0.5571953247853604
7,0.557321558024089,0.5571837910943233
8,0.5572930053538102,0.5574283132777912
9,0.5572280248506302,0.5573082542005307
10,0.5572180678284984,0.557010483031829
11,0.5571994102983597,0.5571072097451752
12,0.5571937395586337,0.5572191262067695
13,0.5571687589752086,0.5575979547524275
14,0.5571640312479976,0.5573395430302206
15,0.5571519469953269,0.5570501288468429
16,0.557169244584136,0.5570128056310838
17,0.5571272641645575,0.5579770097365746
18,0.5571305822447987,0.558998928235719
19,0.5571157006631087,0.55790095728621
20,0.5571294476393333,0.5570953294597843
21,0.5571116223970557,0.5571115688709704
22,0.5571176726246563,0.5569989467672911
23,0.5571025672934357,0.5574059289087433
24,0.5570994193208323,0.5570055324445587
25,0.5570865852357194,0.5569815912850146
26,0.557096361878093,0.5569755669858852
27,0.5570804426103096,0.5572017106465607
28,0.5570628439526111,0.5570141912098262
29,0.5570654751583635,0.5570944022008266
30,0.5570843322028651,0.5571916363671163
31,0.5570671937080751,0.5569942831401493
32,0.5570668869974866,0.5569536401675298
33,0.5570575807790983,0.5570235232561457
34,0.5570478078876026,0.5569869847806452
35,0.557039970997345,0.557050276098417
36,0.5570530284683388,0.556946713989485
37,0.5570406415391468,0.5569553188591382
38,0.5570462204924054,0.5570071602873412
39,0.5570390836618995,0.5570029325579887
40,0.557028484269386,0.5572719413648468
41,0.5570359384707042,0.556958661156316
42,0.5570372450336096,0.5569807758402292
43,0.5570364841757163,0.5569371870966171
44,0.5570288003962162,0.5570856616455627
45,0.5570234661524412,0.5570193164697652
46,0.5570232165411794,0.5569687341638002
47,0.5570347213214709,0.5570052523175185
48,0.5570386998906878,0.5569395441866986
49,0.5570255728718703,0.5577598844805072
50,0.5570307375948955,0.5570522064014937
51,0.5570193247809241,0.5569360541350789
52,0.5570249107547534,0.5570041000399341
53,0.5570191601706297,0.5571053581557261
54,0.5570175054915455,0.5569632552693559
55,0.5570152154839488,0.556945941406799
56,0.5570333276080413,0.5569982191173374
57,0.5570144636541937,0.5570734694045472
58,0.5570082173807076,0.556934545886132
59,0.5570160633259237,0.5571732953227779
60,0.5570165791524914,0.5569221403995164
61,0.5570132283989877,0.5574504667121186
62,0.5570187404320092,0.5569661357266731
63,0.5570117625771981,0.5570116482656587
64,0.5570184135660723,0.556937775333821
65,0.5570100377255383,0.5570124880847505
66,0.5570036902461877,0.5569287371102989
67,0.5569991090619509,0.5569825238684567
68,0.5570025896676137,0.5570345068096227
69,0.5570160475667146,0.5569411060058745
70,0.556995177706466,0.5571901747961494
71,0.5570090631449091,0.5569746711709659
72,0.557000153433363,0.5569188955108226
73,0.5569961408151672,0.5569200655662688
74,0.5570117553231343,0.5569346296580199
75,0.5570113351617019,0.5571148977090348
76,0.5570108545705105,0.5570961137563359
77,0.5570076455449738,0.5569549280419834
78,0.5569975927307053,0.5570438571958329
79,0.5570045086774933,0.5570881808661942
80,0.5570042219313569,0.5569155404940432
81,0.5569969066639764,0.5569169544108749
82,0.5570048926522226,0.5569881288644398
83,0.5569924293707751,0.5569790117793876
84,0.5569985129366204,0.557011055561804
85,0.5570158193066646,0.5569571120567417
86,0.5569921705988518,0.5569477815190261
87,0.5569945717531254,0.5570202877148801
88,0.5569963295004972,0.5569303309651226
89,0.557002083348003,0.5569374681110714
90,0.557004766281951,0.5569230750535913
91,0.5569853152608867,0.5573053155880117
92,0.5569911900609923,0.5570365819090944
93,0.5569849137583956,0.556976051868931
94,0.5570039156924876,0.5568978722278889
95,0.5569988673413372,0.5569123932208968
96,0.5569932570708116,0.5569959353276577
97,0.5569934584523308,0.5574632388782265
98,0.557003453630081,0.5569691653287144
99,0.5569996015849571,0.5570026855314931
100,0.55699527803752,0.556998724115102
101,0.5569929283645387,0.5571497970715942
102,0.5569976281128036,0.55700268848954
103,0.5569924279532509,0.5571187442053045
104,0.5570021034646988,0.5569063853685081
105,0.556995514602353,0.5571727301287592
106,0.557007107775573,0.5569217486653671
107,0.5569939990473142,0.5569250660853705
108,0.5569995396856112,0.5569103179439422
109,0.5569896836461055,0.5569620837644667
110,0.5569845593907538,0.5569941007765588
111,0.5569863031230157,0.5569741448161029
112,0.5569937357790703,0.5570476366035991
113,0.5570060200517428,0.5569598029919949
114,0.5570026429671551,0.5571783931320418
