epoch,loss,val_loss
0,0.6697766215515905,0.6667054097350714
1,0.6668542478367627,0.6667754081579355
2,0.6668283086520005,0.6667552908360218
3,0.6668862742475329,0.6667075255668489
4,0.66673783996315,0.6667773065141058
5,0.6667678499358742,0.6668611769936517
6,0.6667575090991452,0.6667388054632372
7,0.6667520890994942,0.6668578860185874
8,0.6667441589405613,0.6667011163074976
9,0.6667409258139578,0.6668280472826426
10,0.6667399890189865,0.6668613252509616
11,0.6667338998406288,0.6666990508512587
12,0.6667353251411046,0.6671828752120139
13,0.6667305082337146,0.6666995415616568
14,0.6667292058066352,0.6667380839956014
15,0.6667290577569992,0.6667159273961637
16,0.6667232766397038,0.666776914750376
17,0.6667227301277204,0.6667923860751074
18,0.6667232756584015,0.6667164831540129
19,0.6667204152744032,0.6666954651364025
20,0.6667187645670688,0.6667507035264898
21,0.6667150320357222,0.6667056069184769
22,0.6667161910364875,0.6669057810572774
23,0.6667152441492485,0.6667256515611786
24,0.6667134782730025,0.666742630395345
25,0.6667136709553249,0.6666922547976964
26,0.6667142190670516,0.6667653917083077
27,0.6667114297115074,0.6666961148714013
28,0.666712047426276,0.6666914812092746
29,0.6667112921698514,0.6666997779983445
30,0.6667117043231002,0.6666997089279497
31,0.6667105674481761,0.6666932539963545
32,0.6667090510072833,0.6667116206573789
33,0.666707679166481,0.666690493399097
34,0.6667056456006092,0.6667105492232159
35,0.6667090042700036,0.6667112895040299
36,0.6667049297855927,0.6667429610162455
37,0.6667055417758353,0.6666890610536333
38,0.6667089948979361,0.6667058052259403
39,0.6667061169072931,0.6666959470022406
40,0.6667047118623469,0.6667043454298015
41,0.6667046729612861,0.6667477328487424
42,0.6667060920016216,0.6667024813278142
43,0.6667063265454768,0.666719530593077
44,0.6667053293822749,0.666738821288788
45,0.6667035004597268,0.6667007095464702
46,0.6667048184164662,0.6667357838775029
47,0.6667053767616609,0.6666879081844396
48,0.666704070246085,0.666712239687851
49,0.6667021279050349,0.6666938964249775
50,0.6667036782111097,0.6667132609239583
51,0.6667028014806698,0.6667109572266231
52,0.666703606101172,0.6666908946285769
53,0.6667023952657194,0.6667032375820813
54,0.666703580040656,0.6666921058008748
55,0.666702346920019,0.6666891718029089
56,0.6667016644976762,0.6667218758213904
57,0.6667019570921847,0.6667045287103865
58,0.6667012176170564,0.6667765249093768
59,0.6667010554245202,0.6667053652756267
60,0.6667003814031974,0.6666887008818444
61,0.6667012241769513,0.6667284191098461
62,0.6667005999322633,0.6666951822583788
63,0.6667015892766003,0.6667469260710345
64,0.666700869159315,0.6666922866558614
65,0.6666997976364377,0.6667207212365295
66,0.666701453604467,0.6666891744059901
67,0.6666991758331727,0.6666922129413331
