epoch,loss,val_loss
0,0.5883692775037553,0.5859345423380534
1,0.5857652363644706,0.5854555743932724
2,0.5849959992037879,0.5847358328104019
3,0.5848414686520894,0.5845904044707616
4,0.5847831250031789,0.5845841190417608
5,0.5847158103386562,0.5848401180505752
6,0.5846958259609011,0.5847407881021499
7,0.5846568403376473,0.5845085368951162
8,0.5846367368963029,0.5845668012301127
9,0.5846227276855045,0.5845819642543792
10,0.5846135661072202,0.584460128068924
11,0.5076132343080308,0.5015238275527955
12,0.5014840730561151,0.501336991985639
13,0.5014958521922429,0.501331048687299
14,0.5014811282952627,0.5014799158573151
15,0.5014530899127324,0.5014040917952856
16,0.501434537741873,0.501276688059171
17,0.5014531181520886,0.5012707053025564
18,0.5014393677976396,0.5014243066708247
19,0.5014319931533602,0.5013623020251592
20,0.5014214791986678,0.5014940548737844
21,0.5014197153515286,0.5016447092692057
22,0.5014257444938024,0.5014197598695755
23,0.5014138585329055,0.5017514089743297
24,0.5014177083439297,0.5013672762314478
25,0.5013979595502217,0.501247033158938
26,0.5014160270955828,0.5012324108282725
27,0.5013935294151306,0.5014854646921157
28,0.5013909058570862,0.5015035865704218
29,0.5013905654880736,0.5014174875815709
30,0.5014152940246794,0.5012787787516911
31,0.5013916468222936,0.5013504848877589
32,0.5013731330633163,0.5015018719832103
33,0.5013727839787802,0.5014340300559997
34,0.5013851164049572,0.5012601088285447
35,0.5013697957065371,0.5013461006085078
36,0.5013663737244076,0.5012916399637858
37,0.501356159567833,0.501251615524292
38,0.5013583747545878,0.5013605499664943
39,0.5013619605965085,0.5017140009403229
40,0.5013596819506752,0.5012335372368495
41,0.5013433925045861,0.501446279724439
42,0.5013585704167683,0.5012217340071996
43,0.5013485101593865,0.5013087281386057
44,0.5013339261876212,0.5017038377523422
45,0.501347539252705,0.501236670533816
46,0.5013455820745892,0.5012572059233983
47,0.5013488668203354,0.501420319835345
48,0.50134322183662,0.5013436034917832
49,0.5013431445625093,0.5015356664657593
50,0.5013370176553726,0.5013293554782867
51,0.5013303708632787,0.5012580422560374
52,0.5013367655277252,0.5011742571989696
53,0.5013420791361067,0.5017730160156886
54,0.5013325072526932,0.5013766703208288
55,0.5013302697075738,0.5024846913814545
56,0.501340967575709,0.5025846093893052
57,0.5013277745114433,0.5013313199679057
58,0.5013342125548257,0.5013029786348343
59,0.5013380095296436,0.5012441914478938
60,0.501340519229571,0.501420418659846
61,0.5013325435850355,0.5012258124748866
62,0.5013328866561254,0.501667549888293
63,0.5013315803607304,0.501190596818924
64,0.5013333052396775,0.501398158788681
65,0.5013349010811912,0.5014137314160665
66,0.5013273470931583,0.5013442248106003
67,0.5013452876806259,0.5012140644391377
68,0.5013252764675352,0.5012713267803192
69,0.5013258538511064,0.5012459288438161
70,0.501324130098025,0.5015191584825516
71,0.5013235041565365,0.501220659216245
72,0.5013330668608348,0.5012684576114019
