epoch,loss,val_loss
0,0.7816203119478354,0.7800769771890664
1,0.7791715224587099,0.7789612489953526
2,0.7790317061022799,0.7788513837617916
3,0.7278724648231464,0.6682121746889119
4,0.6682159336164074,0.6682404474644152
5,0.6680990090974231,0.668037482792923
6,0.6680817890401676,0.6680541818254343
7,0.6680084462248564,0.6680372599632509
8,0.6679849609496177,0.6680968043526112
9,0.6679600251558555,0.6678684457655876
10,0.6679467727472799,0.6679206886007532
11,0.6679233974441529,0.667871628683199
12,0.6679074429417818,0.6678882652417601
13,0.6678853284637258,0.667840128116513
14,0.6678700359909119,0.6678521021128292
15,0.6678680364890067,0.6678646171655016
16,0.6678490394858796,0.6680482188761974
17,0.6678407665945201,0.6678058311897827
18,0.6678551984392435,0.6679290351737521
19,0.6678244458179351,0.6677413184352903
20,0.667814047503242,0.6677726079749114
21,0.6678158813843639,0.667750395054261
22,0.6677991864902463,0.6678625653162783
23,0.6678071604835715,0.6678468908624673
24,0.6678043875388083,0.6678715859985825
25,0.6677900868194128,0.6677860572971126
26,0.6677957171159188,0.6677561486921003
27,0.6677930906455019,0.6677228533600459
28,0.66780018517352,0.6678491393330671
29,0.6677888231056531,0.6677363009961604
30,0.6677879754735065,0.6679408686924218
31,0.6677816451409138,0.6677626145388885
32,0.6677928436034533,0.6677188857021757
33,0.6677825894581505,0.6677920399765223
34,0.6677764710245229,0.6677176219949651
35,0.6677734675052879,0.6682922442852711
36,0.6677694752065169,0.6677639954734973
37,0.667777691561773,0.6677826939386411
38,0.6677665731479377,0.6677503643201539
39,0.6677667854618264,0.6677134205626495
40,0.667775331214369,0.6680467993094963
41,0.6677596657552023,0.667831647603151
42,0.6677648496491183,0.667697436756295
43,0.6677576507149598,0.6682230158124313
44,0.6677549496135106,0.6677603093921103
45,0.6677601398267289,0.6677358455161007
46,0.6677549097603341,0.6678970465884907
47,0.6677735659683968,0.6679365790215674
48,0.6677637097301062,0.6677235035979127
49,0.6677553818321814,0.6677164173303703
50,0.6677547193419486,0.6677830153895963
51,0.6677558441509572,0.667729385881211
52,0.6677452543971352,0.6677745173645966
53,0.6677648862901864,0.6678306847588892
54,0.6677456392285318,0.667689674131332
55,0.6677584028484138,0.6677757025652429
56,0.6677613088535002,0.6677575802388913
57,0.6677430523162695,0.6680432287694207
58,0.667750213382732,0.667751533488186
59,0.66774593348589,0.6676861203929627
60,0.6677537317598538,0.6681771421846622
61,0.6677549751597105,0.6677005594184914
62,0.667741784116444,0.6677150831329024
63,0.667743408801915,0.6677232953514118
64,0.6677429128309409,0.6677004775397535
65,0.6677348651839414,0.6677785357529709
66,0.6677418352656398,0.6678286683174872
67,0.6677417346348311,0.6677939797157685
68,0.6677371204807325,0.6678767687629529
69,0.6677402263882852,0.667858208645662
70,0.6677455122129987,0.6677724477966726
71,0.6677414463181378,0.6678278301844822
72,0.6677423548052217,0.6677200083105499
73,0.6677318406834549,0.6677119962926538
74,0.6677327036764523,0.6677789659417297
75,0.6677372166759604,0.66774021310191
76,0.6677266228186541,0.6679558334812041
77,0.6677457007492401,0.6676817996626161
78,0.6677270634209908,0.667707274244086
79,0.6677302097544091,0.66770136749774
80,0.667735386056643,0.6676750275988141
81,0.6677239595312604,0.6678591552798269
82,0.6677352209209889,0.6677306090631793
83,0.6677383012003035,0.6678271191883324
84,0.667726989029762,0.6678554078781279
85,0.6677246381309418,0.6678093553772635
86,0.6677317312477463,0.6677914454386784
87,0.6677247590827528,0.6677338105869056
88,0.6677201839101754,0.6681769053634283
89,0.667730190970833,0.6677365109879089
90,0.6677319769180228,0.6679140507139579
91,0.6677285376934965,0.667686906375601
92,0.667725680399338,0.6676934068906988
93,0.6677276236041549,0.6677469477759993
94,0.6677254437232802,0.6676866319575914
95,0.66772403367953,0.667814034504571
96,0.6677351309756465,0.667692041604158
97,0.6677253178223614,0.6678496318182934
98,0.6677259183611856,0.6677104019053817
99,0.6677238631680121,0.6677581945956493
100,0.6677211181043804,0.6676678538322449
101,0.6677272167881174,0.6676845483389445
102,0.6677322534843317,0.6677072264716288
103,0.6677233893662646,0.6678100656634821
104,0.6677221839279743,0.66788173050206
105,0.6677315241495895,0.6676930884273709
106,0.6677213016741597,0.6677793633257485
107,0.6677175422508722,0.6677743801999625
108,0.6677276400685763,0.6676661026093268
109,0.6677240572497155,0.6676922644634105
110,0.6677158046083638,0.6678223932351427
111,0.6677196388646237,0.667676605687248
112,0.6677263760645279,0.6676874422553751
113,0.6677247558154266,0.6677675902991378
114,0.6677160677882589,0.6676838449153948
115,0.6677267044039957,0.6676992740879579
116,0.6677183512659361,0.6676957439843834
117,0.6677245525068001,0.6676925731060227
118,0.6677307234251095,0.6677860436605165
119,0.6677182446952513,0.6677081389403521
120,0.6677106110189609,0.6677490190004297
121,0.6677147319969036,0.6676811685041517
122,0.6677306390796584,0.6676930272549613
123,0.6677204422711194,0.6680937578897027
124,0.6677268741890029,0.667706228042063
125,0.6677157496230968,0.6678411932204557
126,0.6677182729818404,0.6678323412355655
127,0.6677142756503457,0.6678202796219005
128,0.6677113882253178,0.667673110577368
