epoch,loss,val_loss
0,0.8699207372135587,0.6246795598850694
1,0.6216241221403275,0.6213546173517094
2,0.6210633885952853,0.6214973104092502
3,0.6210009946995619,0.6212132074112116
4,0.621122148917935,0.6212081012799758
5,0.6211222357836188,0.6213912072107773
6,0.6210909253251029,0.6211592975512955
7,0.6220107851718439,0.6212264618208242
8,0.6211300553893551,0.6211604573005853
9,0.6210429240258781,0.6213348415470863
10,0.6211128874034536,0.6217712792315224
11,0.6234498084053512,0.6224531027697777
12,0.6213171053918449,0.6211593571559403
13,0.6209740087351442,0.6212326278982236
14,0.6210756568329587,0.6211599254792974
15,0.6210071338239567,0.6212328718614208
16,0.6211365847932584,0.6211816723956618
17,0.621953701942158,0.6214419395424599
18,0.6215415958902325,0.621179923530697
19,0.6212045568828435,0.6214029922965885
20,0.6211856458846297,0.6211565016776093
21,0.6214321819386741,0.6218144029609917
22,0.6278792153033175,0.6168563435244006
23,0.6115981609938372,0.61189148453779
24,0.6111183212709057,0.6113931476607803
25,0.6110180374571827,0.6119458693866582
26,0.6112354508666105,0.6112611275310664
27,0.6109886180214795,0.61119956101558
28,0.6110440589660822,0.6112347808919212
29,0.6110391761597429,0.6114449468693992
30,0.6110541159792464,0.6112512650415879
31,0.6110297994404185,0.6112429143846497
32,0.6110992082021649,0.6113250126210295
33,0.6111593540632756,0.6118568112683851
34,0.6110423315095039,0.6122637104618457
35,0.6112408122042969,0.6111944313197173
36,0.6110697040570182,0.611261766086253
37,0.6109933825426324,0.6112194675807805
38,0.6110611054324364,0.6112311329952506
39,0.6111490161227934,0.6111849592637646
40,0.6111057597845407,0.6116263875665591
41,0.6119561427939462,0.6116534864255624
42,0.6110459834106209,0.6113078658894975
43,0.6111416792068679,0.6113480075385219
44,0.611358237512968,0.6122293250505314
45,0.6112953493761462,0.6117673460827318
46,0.6112335352010505,0.6117844295132068
47,0.6116664093902253,0.6120324227236962
48,0.6116767376276258,0.6118591141331103
49,0.6113220639623105,0.6117586807687153
50,0.6112104803708789,0.6121611918589865
51,0.6112885570649337,0.6136945795643237
52,0.6127668982636405,0.6127785800039306
53,0.611689683540847,0.6112228941547778
54,0.6112495502144175,0.6113837980484778
55,0.6112938748157609,0.6111862178920775
56,0.6111601771310319,0.6113566201786662
57,0.6110662480657415,0.6116414033165274
58,0.6111320934862438,0.6135091619898182
59,0.6123078678005426,0.611231361710748
