epoch,loss,val_loss
0,0.478842054175006,0.4473074999054273
1,0.44714996145831215,0.4473873216509819
2,0.44673587195078535,0.4470299626588821
3,0.44663669788837435,0.44678084180752436
4,0.4465685651169883,0.4464529047211011
5,0.4465029774506887,0.44644090298811595
6,0.4464624345501264,0.44651551826794944
7,0.4464301224682066,0.44663941478729247
8,0.4463939182625877,0.44628861314058305
9,0.44638812830050784,0.44631208284695945
10,0.4463802326321602,0.44625761634111405
11,0.446366217162874,0.4464670508702596
12,0.44635755881336,0.44633325588703154
13,0.4463391564223501,0.4465462737282117
14,0.4463262575864792,0.44622446076075234
15,0.4463292437858052,0.4462492404182752
16,0.44632061255640454,0.44632721682389576
17,0.4463165516455968,0.44621212377150854
18,0.4463093476560381,0.446495632092158
19,0.4463141496181488,0.44642951981226603
20,0.44630722588300703,0.4462263829708099
21,0.4462957412600517,0.4461848743160566
22,0.4462982458141115,0.44629850457111997
23,0.44630241884125604,0.44619969322284064
24,0.4462803261081378,0.44620059992869693
25,0.4462844480077426,0.44621547520160676
26,0.4462853325340483,0.446418728629748
27,0.4462868692742454,0.4465984896620115
28,0.4462852965063519,0.4461645591855049
29,0.44627976899014576,0.4461725680033366
30,0.44628287667036054,0.44618803850809735
31,0.44628132755888833,0.44623760056495665
32,0.44628193976481756,0.4465646631916364
33,0.44627508917782044,0.4461934167544047
34,0.44627144439352884,0.44619706652561825
35,0.4462806584371461,0.44632532012462617
36,0.4462634788354238,0.4461776151855787
37,0.44627139059040283,0.4462500456372897
38,0.44626757259501354,0.4462155291239421
39,0.44626104456186294,0.44634472837050754
40,0.446261879225572,0.44629393035173415
41,0.4462604298988978,0.4462870439291
42,0.4462516675194105,0.44617164876063664
43,0.44626237943437363,0.44625557655096054
44,0.4462485853764746,0.44720066052675245
45,0.4462556627723906,0.4462096920609474
46,0.446258853899108,0.4461870026787122
47,0.4462589966257413,0.446492339571317
48,0.4462600393427743,0.44630680700143177
