epoch,loss,val_loss
0,0.34612138667741604,0.3384402417515407
1,0.3376164686446189,0.3369052382320092
2,0.33705058812407235,0.3404318022373001
3,0.3367579142496352,0.3368031515229133
4,0.3364866200850634,0.3369599130106327
5,0.33638131590378034,0.33605835329805944
6,0.33618347611493693,0.33582485655401245
7,0.336075663035708,0.3365793322954817
8,0.3360235296124017,0.33579951291048793
9,0.3359757628408641,0.3360224507286886
10,0.33593713432529526,0.33562750789722795
11,0.3358544517537776,0.3358372554441835
12,0.33585463125202036,0.3356290404465299
13,0.33579012658103147,0.3356621593162972
14,0.33583725241982676,0.33733103945296694
15,0.3357985641935157,0.3357016448643308
16,0.3357558573547038,0.3356485006974885
17,0.3357308844071352,0.3358256907380248
18,0.3357251459981798,0.3358152662110388
19,0.33572350506482085,0.3355351304150101
20,0.33570508609012295,0.3354733671059384
21,0.335689620228146,0.335609183979981
22,0.3356872946262562,0.33553217097784094
23,0.33566159421859537,0.33555601552757375
24,0.335650939922853,0.3359014820224298
25,0.3356537366144991,0.33556978587181335
26,0.33562923950898205,0.3356638374754572
27,0.33563287453998447,0.33577999216747045
28,0.3356334082757125,0.3367041586646371
29,0.33561848499814345,0.33592753191443886
30,0.33560746764778904,0.33555854578172006
31,0.33558259327770945,0.335743401452862
32,0.3356117176717085,0.3356514929985586
33,0.3355848170892133,0.3356857120842851
34,0.3355816566842837,0.3354686878011481
35,0.33558328547008337,0.33545951877279256
36,0.3355842714796494,0.3359156752490524
37,0.3355909526857697,0.3354290752789519
38,0.33557656955276305,0.33565170214726375
39,0.33556882518376624,0.33593500006583427
40,0.33557686781776275,0.33546559251567565
41,0.33556924448024855,0.33540196624346463
42,0.3355566377436947,0.33568003664241536
43,0.33555816192220295,0.33541111432884824
44,0.33553854325977206,0.3359489248497019
45,0.3355498532097622,0.3356229830616461
46,0.33555348097210763,0.3356316421375085
47,0.3355293352098652,0.33543938213483276
48,0.3355255152909516,0.3353959598109385
49,0.3355295712158134,0.3354787639293718
50,0.3355127240356581,0.33590391338906866
51,0.33552060939664535,0.33552741044508316
52,0.33552845077415194,0.33553418148835895
53,0.33552435495588345,0.3354547555925828
54,0.3355284714102911,0.33539772363513637
55,0.3355402381541047,0.33540352754498237
56,0.33551557263850795,0.33541817253931583
57,0.33551782058618146,0.3354496659327382
58,0.3355109339530367,0.33563034559597743
59,0.335511141173462,0.33538763293853174
60,0.33552877220585153,0.3355317236619907
61,0.33549902117583186,0.3356571931401198
62,0.3354962996078414,0.335455151926495
63,0.33549723598276177,0.3354526331791511
64,0.3355054110937431,0.3358620830120579
65,0.3355199427536268,0.33550230495391353
66,0.3354924773394031,0.33544712355059964
67,0.3355116348331696,0.3354555240931641
68,0.3354944564497059,0.3354150782004184
69,0.33548928447419457,0.335388190722643
70,0.3354805109613246,0.3358184311880959
71,0.3354820622688166,0.33536656756259076
72,0.3354936520118174,0.3358982633420315
73,0.3354731949204981,0.3355132103557918
74,0.3354841877213368,0.3368489339245164
75,0.3354866705493007,0.3354658177117852
76,0.33551015258876643,0.33540244284397913
77,0.33548034359249806,0.33537214025670187
78,0.3354762968673447,0.33551714365594737
79,0.33546043552952387,0.3353726901724084
80,0.33546093047423253,0.33539836914012805
81,0.3354856517146228,0.3355912225713801
82,0.3354851265191429,0.33548427166477324
83,0.3354646197233667,0.3354191552468624
84,0.3354913554806118,0.33585802976310103
85,0.3354537162967588,0.33552900674029557
86,0.3354811434776648,0.3354101141836152
87,0.33545834575096845,0.3354212847596067
88,0.33546174938277923,0.33549392807572415
89,0.33546824389181096,0.3354776953201436
90,0.33547356959494334,0.33539512754965656
91,0.33547271869152645,0.3360471600338484
