epoch,loss,val_loss
0,0.674890901450894,0.6724444825950983
1,0.6709941115286377,0.6705478744234695
2,0.6706168307699062,0.6707210509711992
3,0.6703910401772059,0.6703852785432309
4,0.6702814063559713,0.670025484171458
5,0.6701478684232969,0.6700989919915684
6,0.6700220383017724,0.6698033008918572
7,0.6700009082481321,0.6698730307832249
8,0.6699137928709551,0.6697896318755138
9,0.6698771557848184,0.6697524128717465
10,0.6698496427987347,0.669918964784731
11,0.6698284646226323,0.6696949746117699
12,0.6697862727497766,0.6697438450072598
13,0.669778189522683,0.6697489258373346
14,0.6697186974428975,0.6699227323898902
15,0.6697432599489742,0.6696823157980187
16,0.6697368927426091,0.6696220446165383
17,0.6696972427904125,0.6696073735026509
18,0.6696775509132902,0.6697204483649867
19,0.6697153657348609,0.6698112928837759
20,0.669669446962103,0.6695741430405647
21,0.6696826743979566,0.6695667966127987
22,0.6696870325962485,0.6703043199946211
23,0.6696707821168739,0.6699505786446129
24,0.6696479241493429,0.6705577028004762
25,0.669653102773098,0.6698918018980002
26,0.6696398989318835,0.6704347595387594
27,0.6696399278992312,0.669495754028964
28,0.6696319215647403,0.6695495597186218
29,0.6696307196043932,0.6695256309237138
30,0.669590848313325,0.6695005392022524
31,0.6696076423505214,0.6695316392198094
32,0.66962666954368,0.669780454061759
33,0.669593393214177,0.6697254756248323
34,0.6696065567691485,0.6695924329994334
35,0.6695917730991765,0.6695079959947478
36,0.6696084417221609,0.6695810406438766
37,0.6695853776401418,0.6697398690964389
38,0.6695947645430299,0.6701779427658535
39,0.6695968457840982,0.6695648275888884
40,0.6695801267439505,0.6695279533159052
41,0.6695729574531656,0.6696251259252392
42,0.6695647703634342,0.6695102034963981
43,0.6695757782821646,0.6695567921432609
44,0.6695761604283903,0.669533879348717
45,0.6695828469752716,0.6698180233278582
46,0.6695673022628205,0.6695843572947878
47,0.6695730082915631,0.669491505889088
48,0.6695650263192411,0.6696153413864874
49,0.669569620443415,0.6697930047884768
50,0.6695695370524458,0.6698243164838692
51,0.6695860036802027,0.6695355405582684
52,0.6695652819839703,0.6695744037036564
53,0.6695426917770595,0.6696376437880561
54,0.6695604050712107,0.6695281189961114
55,0.6695546147893098,0.6696990271064247
56,0.6695524671817618,0.6694848254359981
57,0.6695461636204192,0.6696352818467777
58,0.6695443974357413,0.669727059067331
59,0.6695368697077501,0.6700281270680297
60,0.6695390889976909,0.6695779956599914
61,0.669531370755866,0.6696055281842612
62,0.6695503744703432,0.6695687893898257
63,0.6695141701929209,0.6695289043279794
64,0.6695505648224671,0.6698336453059175
65,0.6695274474503725,0.6699461296237728
66,0.6695369626356518,0.6696496527189061
67,0.6695399365446439,0.6697934604460193
68,0.6695475678252634,0.6695107316556699
69,0.6695308003983962,0.6698747224606592
70,0.6695242434409941,0.6695832184467363
71,0.669511626044611,0.6698849667390582
72,0.6695449667456473,0.6694274629316023
73,0.669514667026873,0.6697112102070754
74,0.6695425182687834,0.6702008251516753
75,0.6695081181841462,0.6695049668955744
76,0.6695376310949471,0.6694133257155974
77,0.6695168063619801,0.6698802166186255
78,0.6695175969973478,0.6694833383370866
79,0.6695105537455267,0.669684555838185
80,0.6695107387951477,0.6698771660736121
81,0.6695191258039108,0.6696355612638867
82,0.6695077487506753,0.6695152151969171
83,0.6695350854975599,0.6696086272412435
84,0.6695128398918095,0.6694781726110662
85,0.6695151201013717,0.6701242125655522
86,0.6695008694039364,0.6695363939252148
87,0.6694950080060212,0.6695639130791127
88,0.6695131515909473,0.6694539774144553
89,0.6695126378524077,0.669456073072353
90,0.6694982822211061,0.6700492745297718
91,0.6695001931991372,0.6696412138844247
92,0.6695178470440428,0.6695520308414109
93,0.6694995238894851,0.6694658480861938
94,0.6694959315549901,0.6696131139476009
95,0.6695035707854198,0.6701851581521425
96,0.6694947868296481,0.6699363988031525
