epoch,loss,val_loss
0,0.5045339949395922,0.5023432995080948
1,0.49751749634742737,0.4192937048474948
2,0.4190067906048563,0.4185541826287905
3,0.41868611880143486,0.419828399459521
4,0.4186610660817888,0.41852259093523025
5,0.41861391543017495,0.418856961051623
6,0.41858139143387474,0.4186275088985761
7,0.41854414604769813,0.4184999942580859
8,0.41853058146768146,0.4183665392200152
9,0.41850364346636665,0.4183884020447731
10,0.3446562951405843,0.33568077798684437
11,0.3354112439552943,0.33595037988821663
12,0.3354228153692351,0.3354307481646538
13,0.335397543516424,0.33535566546519596
14,0.335394855108526,0.3352721700469653
15,0.33539928144216535,0.3352314260005951
16,0.3353850416806009,0.3352688258687655
17,0.33537387008799446,0.3352131981452306
18,0.33536723747518327,0.33520140610138577
19,0.3353658688399527,0.335767578403155
20,0.3353565649257766,0.33523443178335827
21,0.33535894649558595,0.33535809948047
22,0.3353549889392323,0.33520553312699
23,0.3353473082714611,0.3352887905240059
24,0.3353495628502634,0.33540783131122587
25,0.3353497829106119,0.3352689870794614
26,0.33534684585200414,0.3353791086475054
27,0.33535025996632045,0.3355167837540309
28,0.3353524857825703,0.3352246853709221
29,0.33535098818937936,0.3355435763200124
30,0.33535272922118503,0.3352370666265488
31,0.33533803728553985,0.335197006324927
32,0.33534309360053804,0.3352315020163854
33,0.33533849865198134,0.33534050712982816
34,0.33534155113829506,0.33532337951660157
35,0.3353382954531246,0.3354182073275248
36,0.33534114434983997,0.33519149470329285
37,0.33534260442521835,0.33526687550544737
38,0.33533857179350324,0.3354127372105916
39,0.3353390837311745,0.335626593430837
40,0.33534099543094636,0.33520180608828865
41,0.3353429469267527,0.33521408232053124
42,0.33534347452057733,0.335209770321846
43,0.33533662309911516,0.3352102970083555
44,0.3353330432375272,0.33526762580871583
45,0.33533699138296974,0.3352277963558833
46,0.335321047173606,0.3352324724594752
47,0.33535163901249565,0.3353443334698677
48,0.33533279722929,0.33539360815286634
49,0.3353298137717777,0.33554994587103526
50,0.33533358583847683,0.33561779818932214
51,0.33532806020975114,0.33522209733724595
52,0.3353343726197879,0.33523060444990793
53,0.3353278230494923,0.33545396029949187
54,0.33534038445684644,0.33529301887750623
55,0.33534204402897094,0.3353218934337298
56,0.33532314444912803,0.3353562953273455
