epoch,loss,val_loss
0,0.0784781403221113,0.003379328008524554
1,0.0032255629935477514,0.003089461307756083
2,0.002429769492951205,0.003063595795087054
3,0.002435117572526753,0.0030870471238122546
4,0.0024351796390397295,0.003075618915938476
5,0.0024630035671107087,0.003072760001099271
6,0.0024765100022080024,0.0031208900252876932
7,0.00244066124488371,0.0030992834651914908
8,0.0024509418088562536,0.003100957795472224
9,0.002466285173349246,0.003063177540104172
10,0.00245371169485248,0.0031021457533676956
11,0.002438390235240915,0.0030673704193110844
12,0.0024352044776173487,0.0030769000250427414
13,0.0025092385232795117,0.003064786172435843
14,0.0024817044295019227,0.003122767728623436
15,0.002429218381915232,0.003057552440193041
16,0.0024462733298927565,0.0030627532486709975
17,0.0024785419197473914,0.0033010536229035768
18,0.0024724830500300232,0.0032019077262357455
19,0.002476096797604547,0.0030578813874776395
20,0.0024360467283324715,0.0031611965590178275
21,0.002452452580422856,0.0030614718083696543
22,0.0024468375606647662,0.003060177690530008
23,0.0024681980586285855,0.0030855312257600845
24,0.0024695869653127145,0.0031275052916576234
25,0.0024572050257421095,0.0030536404720601417
26,0.002463773559858344,0.003298121322191847
27,0.0024865844163042554,0.003530769312010659
28,0.0026454326649465974,0.003381738785740941
29,0.002495445444932068,0.003083436797705096
30,0.0025263661500644083,0.003146843111156955
31,0.0024789496829121997,0.0030493410141748745
32,0.0024662500032878332,0.0033324542577205184
33,0.002438073581053324,0.00304711583005481
34,0.0024562747622611488,0.003085218730938527
35,0.0024340194292024778,0.0030572036436448493
36,0.0024610573148537785,0.003130947692724046
37,0.0024942584978494774,0.0032313980934636074
38,0.002472980804344307,0.0030477405976966137
39,0.0024988136551456013,0.003342313174873071
40,0.0025064518856599406,0.003134567090201863
41,0.0024765004104277655,0.003062926540548314
42,0.002530439707777855,0.0030928535672092392
43,0.002610610103119136,0.003082885094665626
44,0.0025397285825671575,0.003202206650099089
45,0.0025353793509651063,0.0031692829197850223
46,0.002438202245252385,0.0030739665818364584
47,0.0024542436024742034,0.0030550269704211013
48,0.0024498144723595306,0.003144622857992848
49,0.0024624256473106815,0.0030370719745293146
50,0.0024947681730776755,0.0030376187168321637
51,0.002429519629873605,0.0030894515766986003
52,0.0025860929984397206,0.0037360877184875944
53,0.002571199428908604,0.0031256625733822006
54,0.0024633892154253692,0.0030486415791895617
55,0.0025076479040379864,0.003106611587699185
56,0.0025097450934222945,0.0031150308159692574
57,0.002472120313423876,0.003281454823716262
58,0.0024961728355378026,0.0031476552136126875
59,0.0026978382372083165,0.0034423931483756895
60,0.0025524480661824923,0.0032079982627255393
61,0.0024689815954115116,0.003113315254810822
62,0.002581751210198711,0.0030253227563690425
63,0.0025262266396874566,0.003253987160070922
64,0.002570762058349389,0.0034093679029985452
65,0.002565659680078889,0.0031666671243575652
66,0.0024872171323751255,0.0030239703767218217
67,0.002611372272125433,0.003280725494359237
68,0.0025960772948938806,0.0038941334517918124
69,0.002467176824921227,0.0030259791005388366
70,0.002642745075107237,0.003020890469504015
71,0.0027450406487708676,0.0034377340483659692
72,0.00251641597849069,0.003353969466533194
73,0.002530534031412273,0.003018783705937135
74,0.0024356816971111434,0.003021303250259438
75,0.002553123941955467,0.00301820463807748
76,0.00251696358142464,0.003019967538759459
77,0.002470437198749789,0.0030180738170364108
78,0.0025584094421288303,0.004520293177184901
79,0.002538689295159658,0.003105944129927156
80,0.002621238631586176,0.003019105958889506
81,0.0024751706135480904,0.0030758704903513885
82,0.0024830513012304286,0.0034581886626086954
83,0.0025708646274674733,0.00312747586114231
84,0.002457153689217313,0.003028900410380763
85,0.0025470741186411306,0.0030139045096760574
86,0.0024711618955591238,0.0030205070885807967
87,0.002543682822396916,0.0030357372773767905
88,0.0025257970071373655,0.0030757661722961437
89,0.0024878848425307592,0.0030084849658328318
90,0.0025592876335928452,0.0032263243906633103
91,0.0024856579839251935,0.0036748304381937712
92,0.0025559460108940915,0.003092837029013985
93,0.002576825983560035,0.004728850340037499
94,0.0026800802656755007,0.003006050671818991
95,0.0025229479131488567,0.0030286129096580685
96,0.0024169176192448813,0.0031499202027483737
97,0.0025390790070308426,0.003423142879515482
98,0.0027385032296575393,0.0030043998087012722
99,0.002729136412554163,0.0030117871694613336
100,0.002499887874068389,0.0031307291901894203
101,0.002789809943107017,0.003203786699310696
102,0.002551557612304578,0.0030739841307693906
103,0.0024537430618629726,0.003124900885980374
104,0.002475921397316402,0.0031529219330165737
105,0.0024744201053261217,0.003060009455048414
106,0.00256021363836369,0.0030500165885314345
107,0.002648505739006154,0.0030170798260184335
108,0.002658191130397894,0.0030779664182688953
109,0.002549035941522559,0.0030105390492104747
110,0.0024536955633588154,0.0032036948422071083
111,0.0025697741158142956,0.0030008372769496122
112,0.002580311671874031,0.0030006801234847007
113,0.002485587311251623,0.0034247196293905264
114,0.002514963602594242,0.0035156466774353685
115,0.002645599189844916,0.0029999899665298043
116,0.002515864343134547,0.003059643838742329
117,0.002466970698057267,0.0036153558121864186
118,0.002485118587970618,0.003656183339677058
119,0.0026141842920453474,0.002999042290761027
120,0.00245077555363839,0.003994200954415886
121,0.0026416523426889085,0.003009839820884919
122,0.002688979632846857,0.0030027486080693644
123,0.002465506749966444,0.003082550477323144
124,0.002619655203322088,0.003125569737126488
125,0.0025150722920899435,0.003029609744278209
126,0.0024639951078418536,0.0031688814322182604
127,0.0024862488775660866,0.0030712997919858194
128,0.0025444061318484618,0.003973570329231001
129,0.002547688426050413,0.0030973421016260404
130,0.0024474054362591193,0.0029988590963618005
131,0.0027595523026475843,0.003085426908607284
132,0.0025439961591990573,0.002996513177821225
133,0.002558953871466797,0.0037073874557318615
134,0.0027681208159702347,0.0030012906875547976
135,0.002509927632195697,0.00338791183993769
136,0.0024419544271893742,0.0030012392743974346
137,0.002427297855789944,0.0029971081620919727
138,0.002387741259034502,0.0030064142594301655
139,0.0024442875225972912,0.0031618106913529048
140,0.0024862804211548575,0.0029995133739340214
141,0.0024020909277592288,0.0030711864684383537
142,0.0024074424728715085,0.0030213645334507145
143,0.0027381231369407373,0.0031733334862244452
144,0.0025455558992012644,0.0029937106711688893
145,0.00239486740938164,0.003000948730632374
146,0.00249734449408496,0.003125047022404597
147,0.002490542300505135,0.003130047749944551
148,0.002504949376873855,0.0029944839315171274
149,0.0026126367251150485,0.0035000248476429736
150,0.0027299960214856446,0.0034808632827457763
151,0.0025772275532492334,0.003325961762136787
152,0.0025845356896226066,0.0031417042572888755
153,0.0027163532166681625,0.0029934365067688764
154,0.0024417105599520705,0.0030756768979883008
155,0.002448858555168087,0.003610243908916564
156,0.0025112721518533985,0.003960814747540641
157,0.002568658632623364,0.003022077426588697
158,0.0023908704986738026,0.002994129806937462
159,0.002624398346771354,0.0029922957692742926
160,0.0024568915525956673,0.0041234864178294126
161,0.0025462122406637254,0.0030487867581203234
162,0.0024364524904773293,0.0031255618596897107
163,0.0023875852200883688,0.0030576123823520054
164,0.0023870960913372325,0.003000575525671706
165,0.002405035281216952,0.003099156733125795
166,0.0024807177705435174,0.002992882602667624
167,0.0024573483356354077,0.003006780745692609
168,0.0024873887174293513,0.0030185484161326125
169,0.0025352402495458547,0.0030279038182925433
170,0.002485740100495633,0.0030153303735622372
171,0.0024381758738730285,0.0030017697266772276
172,0.0024812717415760594,0.0031725132599646267
173,0.0025244075200311087,0.003267569149764933
174,0.0025138078428605134,0.0029879299537531397
175,0.002505163153608207,0.0032274871649466052
176,0.002458240599967106,0.0036484134354621404
177,0.0026118196092801077,0.003185744448781533
178,0.002515306030893434,0.0033204820072061793
179,0.002850337102600116,0.003097840035225936
180,0.0025061743811629618,0.0030001303336272636
181,0.0026906620036059804,0.0030294961373632154
182,0.0024734289604672337,0.0035786077934281194
183,0.00247221699710069,0.0030016946225506504
184,0.00242327704143684,0.0029884516369811324
185,0.002440837420070741,0.003007093356027044
186,0.0024876102058515336,0.0029877158704885217
187,0.002421981146684258,0.0029887894652206306
188,0.0024166564148482544,0.003264343624125964
189,0.0024585904438019722,0.0030044755526608966
190,0.0023847102218858647,0.0033837293830606364
191,0.0026159010835362538,0.0030408688412993682
192,0.0024111359169615254,0.002990314299276806
193,0.002384908399869536,0.0031569616078550734
194,0.002470950193845159,0.002991411091341067
195,0.002519992951608145,0.004033804700579928
196,0.0024763711819753716,0.003012354118395741
197,0.002521814074841369,0.0035071011376386694
198,0.0026992327077627106,0.0029857438563029894
199,0.002422936516693608,0.0030003845792754675
200,0.002444631083464149,0.003016121056501198
201,0.002416124125793384,0.0029840510493765273
202,0.002382779861523623,0.0029827001244696074
203,0.0024600984484741814,0.0029911840110728445
204,0.002473614652982843,0.003096799451005898
205,0.0024348896594527983,0.00298276727715897
206,0.0024625552320029845,0.0031219310896081287
207,0.00242554631733362,0.003026169405297138
208,0.002499609098929758,0.0030642587009297555
209,0.0024547837385835575,0.002982463434071446
210,0.002431183408774936,0.0030131152643309545
211,0.002512129947022133,0.0030646194422314335
212,0.0024955059532244576,0.003146884832964387
213,0.0024621792496194055,0.0030636795680941075
214,0.002476263445235298,0.0032434724699958524
215,0.0025501652217340158,0.003171026325864039
216,0.002441862185494084,0.003020059931012549
217,0.002519162832903712,0.003010239363684095
218,0.002436303841347207,0.002989629191498077
219,0.0026539693302559146,0.002981690946215576
220,0.0025368420953455666,0.0030773161159640596
221,0.0025821749831776036,0.0036419618354980336
222,0.002438767270476242,0.0030032559370174426
223,0.0024454674685917776,0.0031193460594111867
224,0.0024122529252834177,0.0030301314911285286
225,0.0024331707320265107,0.0029789800882021817
226,0.0024705087917661944,0.0031175072586467098
227,0.0025090597997400282,0.0033151832248567957
228,0.002451476804943375,0.002980527218048598
229,0.002578035996368309,0.0030085049143653043
230,0.002450120149213984,0.0029902135973160927
231,0.0024125405809257267,0.003007111981576092
232,0.002409428906463356,0.0029999581260368403
233,0.002432330817138194,0.0029838115830595293
234,0.0024404931261182523,0.003055484660417419
235,0.002419236713679849,0.003084855915819721
236,0.002430595949987667,0.0031292237198817753
237,0.0024442318628376076,0.0033489083059045463
238,0.0025357762968302427,0.0030229870986207856
239,0.0024558994663369093,0.003382499799016834
240,0.0025458005690124144,0.002981034843900869
241,0.002397962240622564,0.0029804227366509247
242,0.002485970416929313,0.0029810168311115385
243,0.0024319508597880446,0.0029765229100043806
244,0.002571411677203033,0.0032246154317877784
245,0.0025720544648537226,0.0036295883306987986
246,0.0024726188125555677,0.0031896012780155496
247,0.002448497046487892,0.0031632864225092667
248,0.0024623605536985226,0.0031864816564777794
249,0.0024922379678793886,0.003008854413015205
250,0.002410072420581752,0.003192999088855157
251,0.002452624025748614,0.003005697536318339
252,0.002594458571279022,0.003109139208898468
253,0.0024234318918637567,0.0033558333678849676
254,0.002592682540633304,0.002975329478783894
255,0.0026535999435373134,0.0032207003240509666
256,0.0024168879931999575,0.0030250236420899398
257,0.002417249420960975,0.003200963422901524
258,0.0024545914944723362,0.0033414923286339804
259,0.002485929276596861,0.003192855140858496
260,0.0024193660202688834,0.002974122987388698
261,0.0024326189354336425,0.002991104494895815
262,0.0025318312550141678,0.0029805931461209705
263,0.00262815175753674,0.0030231211206319837
264,0.0025530715845404938,0.0031126415006845266
265,0.002443337653287102,0.003245842782961017
266,0.0024296908792185304,0.0030924804100781215
267,0.002428808710682242,0.00302525218070824
268,0.00251894756503047,0.0030283602315557094
269,0.0025239758852578084,0.0038175728030380063
270,0.0024470584543761185,0.0031471954290430214
271,0.002535664336274568,0.003131702049570375
272,0.0024387369961754567,0.002972013468659201
273,0.0024004241384539358,0.0033196583552675884
274,0.002496974793616538,0.0031525740447786253
275,0.0024274136451162033,0.00297819404653454
276,0.002412348812402681,0.0029829150307634773
277,0.002512087239294243,0.0029690505146200575
278,0.0025350986916730686,0.003372621601591854
279,0.002537317767748922,0.003015139401897557
280,0.0025641098254521495,0.0029781064137729793
281,0.0024223929422712604,0.0029822597244046917
282,0.0024221599765617678,0.003073281584155941
283,0.002406847578694789,0.0029726230016866224
284,0.0024363428723663864,0.003301074347538195
285,0.002391220517733281,0.003029819149271289
286,0.002410714798221889,0.00299567988777692
287,0.002403321918412966,0.0032307716590070793
288,0.0024509331887077723,0.0029815906079399376
289,0.0024717608896909567,0.003215612331946749
290,0.002464501902242059,0.003278278543563314
291,0.002491155360134689,0.0029791696159558933
292,0.0024487420872036725,0.003000481481043001
293,0.0025021413850143206,0.003265025246664593
294,0.0024327321708423762,0.0030809967172180496
295,0.002494106530356257,0.002966794501195929
296,0.002445981994533589,0.0030208431426146927
297,0.002407857214788923,0.0032011997604439427
298,0.0025884078947035474,0.0030314193681142357
299,0.0024240669033018442,0.002967656718191597
300,0.0023610730639247353,0.002967166920127564
301,0.0025550526785194988,0.0029920882476825814
302,0.0023752944775585097,0.002976912766868292
303,0.0025337019970445612,0.0029970899670088823
304,0.0025417222764742503,0.0030089759271476387
305,0.002450180905678572,0.0030095782798765475
306,0.0023726737812565742,0.0029634421920519353
307,0.0023723492730957593,0.0032755555088682347
308,0.002508174345704657,0.003238980709791703
309,0.0024181591038223964,0.0029799743707096854
310,0.002466507263551406,0.003000417134053139
311,0.002443204452500267,0.00310881100342313
312,0.0023667019805738592,0.002981478072226394
313,0.0023894342336652063,0.0031069235609079053
314,0.002448629427855252,0.0030920669389527668
315,0.0023871392820232597,0.0029631231644356897
316,0.002386234010610662,0.0029768483937075434
317,0.0023934133095156584,0.0029600409343261127
318,0.002502368638551859,0.0029673559695857672
319,0.0023892790413622862,0.003150922690279955
320,0.0024558422665559333,0.0035579178966004257
321,0.002491655984071615,0.0030917575954668977
322,0.002486263790459057,0.003273903884989924
323,0.002600526361959657,0.0029590991406896433
324,0.002406890720949636,0.0029932294436188977
325,0.002388989018157211,0.0029985069806232703
326,0.002438316394235621,0.0030555396698155376
327,0.0025137625610605076,0.0033857801319063865
328,0.0023786914598037914,0.0029611559070343543
329,0.00245024032441981,0.003138560839647124
330,0.002494545907951718,0.0029972421434931746
331,0.00237134118379125,0.00316886599500512
332,0.002453405710866131,0.0036151964549523915
333,0.0024592487498857948,0.0030075553398536043
334,0.0024710545317541796,0.003374730924490926
335,0.0026032955338215836,0.0030699125829499302
336,0.002394996774178335,0.0029562644934815955
337,0.002446893778736691,0.0036217272498233373
338,0.0026225055768262853,0.003118964599792001
339,0.0024536547832520682,0.003192682759547534
340,0.0024579973435342236,0.0031504580451449916
341,0.0024786326060798358,0.0029638653779907745
342,0.002504132062952378,0.0029606035018931755
343,0.002499307143003788,0.0031956964905207703
344,0.002609329915109743,0.0029613013946010853
345,0.0024508313096588048,0.0031512697433056527
346,0.002772134603891589,0.0029673280858600786
347,0.0023937990292738306,0.0031243901313535234
348,0.0023739433890083463,0.0029599407864662336
349,0.0024311512167798956,0.0031070440282048874
350,0.002407140662539895,0.002964923975902588
351,0.002393787392554684,0.002970988517482729
352,0.002444284357123308,0.0030413744646276154
353,0.0023666792165654054,0.0031200829286907993
354,0.0025068168686004956,0.0029542975203502315
355,0.0024006766918685664,0.002953856340573393
356,0.0024043401424683995,0.003096202861286642
357,0.0024627931169366574,0.0029594570275598255
358,0.0024393719364708476,0.0029905716276749277
359,0.0023367123548073804,0.0029673918291146673
360,0.0023897615903916286,0.002978281151366153
361,0.0023491233842957582,0.0029778380232119515
362,0.0024460715024241125,0.003103469492138414
363,0.002556150598037574,0.003024974202578382
364,0.002427836230027102,0.002965239779085152
365,0.0023908869007503667,0.0029555097305353066
366,0.0025709397556592326,0.002966752568216518
367,0.0027707323166650047,0.004104990104227796
368,0.0024954925753893353,0.002980622929492027
369,0.0025277241561513695,0.0030682876466073153
370,0.0025393093472288906,0.003187885998870975
371,0.0025473155210020853,0.003007714557208756
372,0.002515727000729751,0.0029574546695852926
373,0.002466375704010039,0.003361908513186283
374,0.0024893235743710007,0.0029857935954260735
375,0.0025138611704031686,0.0030801830354846957
