epoch,loss,val_loss
0,0.42321214750281927,0.41625503736453373
1,0.41494579697988077,0.4150248597336762
2,0.41430378134891077,0.4141289080934548
3,0.4139589063578785,0.4205729955627072
4,0.4136686469452461,0.4154459710896163
5,0.4133396729586532,0.41548568473264536
6,0.41321195413994344,0.4127825943619087
7,0.41307968525823996,0.41380540932674265
8,0.4128487646773794,0.41249072779496904
9,0.41265703964464684,0.41242602840250836
10,0.4126156110158897,0.4121892023175289
11,0.41256352239368443,0.4124017109941904
12,0.41246713595342926,0.4121916796965871
13,0.4123771516224246,0.412305616859171
14,0.41229336500701097,0.4121885519465501
15,0.41224248582758216,0.41246230371536746
16,0.41223835031942474,0.4141174871631651
17,0.41213185655963586,0.4121343232709776
18,0.41214674847300276,0.41193093212307536
19,0.4120779902484828,0.41206773765033883
20,0.4120480609649912,0.41193238350357075
21,0.4119624238084048,0.41264597767635847
22,0.4120161250758024,0.41199491975029406
23,0.41190982993860625,0.4123301378254855
24,0.4118851492960462,0.41181035512138536
25,0.41193770853865497,0.4119227843160369
26,0.41191208377093785,0.41235716968552943
27,0.41190713571376636,0.4130761037541382
28,0.41188712867178967,0.411745130853085
29,0.41184682385654003,0.4117110100188859
30,0.4117459377578331,0.41168112813982716
31,0.4118086846116389,0.4116072965319044
32,0.4118154446642893,0.41219293463318873
33,0.41178038844264153,0.4116636700429041
34,0.41179672513975096,0.4116729768570836
35,0.4117500212305464,0.4121778731902243
36,0.4117232719788179,0.4129877592286756
37,0.41181134791047064,0.4117371441708605
38,0.41172202915480566,0.4117304435438909
39,0.41168056067878833,0.41207660599322826
40,0.4116997896640512,0.41426861025855205
41,0.4117385339263484,0.41178968773586283
42,0.4116932339585195,0.41169577939042973
43,0.4116585436383645,0.41161922954448105
44,0.41167677811009934,0.41441316733289296
45,0.41168573377601325,0.41165152758581763
46,0.41167652391180165,0.4117760152733947
47,0.4116674933076067,0.4125443719013157
48,0.4116278277661937,0.41341947781536775
49,0.41165849708685376,0.4121699713595748
50,0.41161903715074033,0.4117546498479677
51,0.41168157448310905,0.41166844178665957
