epoch,loss,val_loss
0,0.09102527953415043,0.0735363534972922
1,0.07160083807971232,0.07241422107660445
2,0.06536435689841474,0.06274356895470738
3,0.06310685414306347,0.06177096909314172
4,0.06173727029643127,0.06048826505025622
5,0.06094483370729379,0.05953875392601449
6,0.06062145003057066,0.05893257518781918
7,0.05997706100453516,0.059064993077413024
8,0.059770435451383705,0.05906119373425952
9,0.05927186207464581,0.05911609827732626
10,0.05890817807317593,0.057690193027110016
11,0.05855175596771254,0.05774765853994242
12,0.05832157793737485,0.057674796002970145
13,0.05805063433321512,0.05656582862508504
14,0.05787857490583089,0.058165847554470115
15,0.057554972973025795,0.05668000338446561
16,0.057267134234515675,0.05706898726097703
17,0.05701512362619114,0.055604276508462634
18,0.056945666363205576,0.05611681820219267
19,0.05675636686214981,0.05552811400396356
20,0.056367090530119165,0.05610245326094829
21,0.0562066924622121,0.05506566489674613
22,0.05617456675742581,0.05554368419771455
23,0.05612468584336437,0.05556118084908123
24,0.055776904764665326,0.054931971859695304
25,0.05578305426868131,0.05761524472875571
26,0.055563481114223476,0.05497552440420866
27,0.05541755094645229,0.05457381485561579
28,0.05539205970929861,0.05512974737558708
29,0.05522809807062812,0.05461760286435892
30,0.05514158361303267,0.054387881924807285
31,0.05520424446674616,0.054479932629736716
32,0.05502935158440399,0.05424337187416796
33,0.05485953711404851,0.054081396632839375
34,0.054637978300954126,0.053851840953820986
35,0.054611190363293045,0.054188518496068476
36,0.05440151192710022,0.05446099636905247
37,0.05439031523180692,0.05359988162113774
38,0.05432233650186196,0.0538362060213651
39,0.05405862711153458,0.054278717450705116
40,0.05420714337042256,0.054071385770222684
41,0.05417252729595748,0.05337079684654477
42,0.05393458275939315,0.053148142228055535
43,0.05403131377038951,0.05395889456381573
44,0.05383959368010907,0.05293873084279207
45,0.05391739736186663,0.05322337832773294
46,0.05378307022251554,0.054465531051232856
47,0.05369491877459263,0.05369722056329694
48,0.05363628537143542,0.05328931261233005
49,0.05336901343710307,0.05325505681354414
50,0.053436564464812826,0.05308364851229244
51,0.053404073318050756,0.052786262276080936
52,0.053432797584486234,0.053486843305471224
53,0.053326135571890296,0.052612893076303874
54,0.053318878135819626,0.053322313145431635
55,0.05346223427663938,0.055072564955236894
56,0.05329806196114511,0.053080357248818606
57,0.05319179322622477,0.05330085644392163
58,0.05321467717203643,0.05352082549786154
59,0.05323000430990388,0.0527517076896009
60,0.053194746921643235,0.05283236512660093
61,0.05312682293637274,0.05284930997650617
62,0.05318374556620961,0.053138213197957196
63,0.0529709431903206,0.052413270914598964
64,0.05298819132522434,0.05273628097683857
65,0.052997961916842244,0.05271018912678321
66,0.052876180198210075,0.05491707086858915
67,0.0529034002713946,0.05287383760767007
68,0.05292185736207207,0.0541973895659074
69,0.052852723205172474,0.05204296462958859
70,0.052923055166970906,0.05269020498908187
71,0.05291387695296097,0.05267244289368021
72,0.052720429872754104,0.05319583403783164
73,0.05280807990484116,0.05213766161250713
74,0.052905047537120956,0.05274108859430768
75,0.052751870573979384,0.05254727154970169
76,0.05276324008212281,0.052889699401985624
77,0.05269659009089176,0.05327947649078689
78,0.05259516964329087,0.05232307870615801
79,0.052678317860023464,0.05424060392616405
80,0.052682132433443066,0.05282272337831871
81,0.05256829277536135,0.05324026451217329
82,0.05254852239679647,0.05322511767224402
83,0.05254368009978879,0.05277546561570381
84,0.052713282083452884,0.05239315841430174
85,0.05256318287133305,0.0526871045787932
86,0.052468160645440284,0.052095189150746346
87,0.052613856064901904,0.05287058124175439
88,0.052593381322812945,0.05246596302162329
89,0.05256674929102333,0.052241357654407065
