epoch,loss,val_loss
0,0.23292712690956885,0.23417907231498888
1,0.22702134738037263,0.22946282895859654
2,0.22642726263308957,0.226152386019011
3,0.2258846511557836,0.22544424139684247
4,0.22557319208213064,0.22531859945718466
5,0.22545671605770873,0.22502932159539785
6,0.2253157067152325,0.2251334979205806
7,0.22529975473513963,0.22498157019206963
8,0.2251627854411752,0.22487208608805986
9,0.22515815028768205,0.22494618522174306
10,0.2251159827612188,0.22484844448252883
11,0.22508814476452207,0.2250066972178206
12,0.22501564531182505,0.2248045399600164
13,0.22499561832491993,0.22588792732424534
14,0.225005461436321,0.22492138236095532
15,0.22493686727405712,0.22604319974595205
16,0.22495522755757325,0.2248759365333221
17,0.2249619561357828,0.22482131570207867
18,0.22494726977486404,0.22525431919038738
19,0.2249182108956076,0.22469900666779974
20,0.22494996260209763,0.22563814000219623
21,0.22486965022157335,0.22520306072666982
22,0.22487354371882826,0.22468535842434054
23,0.22491996226431768,0.22470910216383544
24,0.22487699436893885,0.22611665207310291
25,0.22487809467083128,0.22465532765199173
26,0.22482884094282557,0.22467423100625314
27,0.2248318367029495,0.2247913985039401
28,0.2248262185386206,0.22497619730663063
29,0.2248179290584021,0.22477425441848434
30,0.224815446039739,0.22703775061715034
31,0.22481863668341018,0.22462980178538386
32,0.2248176585491101,0.22482037902913674
33,0.22480707793898963,0.22463320654172164
34,0.2247815545930786,0.22488001739564664
35,0.22480649332956418,0.22489698359895285
36,0.22479185755126532,0.22477801135248937
37,0.22478887625568617,0.22460355030987458
38,0.22477246856778907,0.22473983742463086
39,0.22477777889587175,0.22471305979392664
40,0.2247917945311918,0.22469352069622825
41,0.2247696494245158,0.2245938794340744
42,0.22475295296378547,0.22483851048106296
43,0.2247646307808311,0.22488891855067117
44,0.22477226975568038,0.22474014974261633
45,0.224737784273098,0.2246643230947608
46,0.22474831302624673,0.22515990039698836
47,0.22477080536068367,0.22469770820353818
48,0.2247770171219517,0.2247628147267822
49,0.22475145139013425,0.22460940942427066
50,0.22473974417622392,0.2247663402231988
51,0.22473867405805228,0.22456199497206336
52,0.2247327961205799,0.2248350383478122
53,0.22475380989680768,0.2246361999076886
54,0.22473196146879795,0.22492992583634538
55,0.22476539053692873,0.22461572567523266
56,0.2247494402269823,0.22459588981887543
57,0.22472792151533993,0.224695478006273
58,0.22472516301500653,0.22504524740184803
59,0.22474742353690583,0.22460743992707274
60,0.22471332407625905,0.22458865865140637
61,0.2247503148826068,0.22458206125287797
62,0.22469261238828384,0.22467862991038387
63,0.22474360589395864,0.2246774555731648
64,0.22472686452543822,0.22494887249641324
65,0.22472955807997136,0.2250841513017271
66,0.22474269624729729,0.22458939916886408
67,0.22471983068591478,0.22520870073853297
68,0.22471009235751663,0.22458267714782032
69,0.22473499343810663,0.22478964107651864
70,0.2247324983438648,0.2246693043126066
71,0.22471202729107587,0.22470311745816365
