epoch,loss,val_loss
0,0.448122145069076,0.444528746516178
1,0.4447884742458051,0.44458588706352575
2,0.4446874636278118,0.4445177110785586
3,0.44465353213865627,0.4446701027767238
4,0.44461619865687485,0.44453379217507527
5,0.4446029292226265,0.44451274864431056
6,0.4445873239628809,0.4445054432002841
7,0.44459717147475986,0.4445220663884733
8,0.4445732135928483,0.44454586568008875
9,0.444561283993094,0.4446957415150058
10,0.4445599972865711,0.44459216341783037
11,0.4445527215280436,0.4446832250868416
12,0.44454986665203783,0.44471648900443805
13,0.44454778629761244,0.4446011649172004
14,0.4445436713415839,0.4444937857001946
15,0.4445409581079574,0.4445059051732567
16,0.4445481079273079,0.4444998426561616
17,0.44453194769145277,0.4444994573853448
18,0.44453723541093154,0.4447221629968648
19,0.444531458882644,0.4445214002658948
20,0.4445379462086065,0.44449797567007854
21,0.444530611819637,0.4446708477312519
22,0.44453098507261385,0.4444921072156494
23,0.4445251865585022,0.44452135157644307
24,0.44452697539280306,0.4445174121679207
25,0.44452236553860675,0.4444947213895859
26,0.4445280357939922,0.444534637422183
27,0.4445227572718554,0.4445614153486919
28,0.4445207509410648,0.4445535562174492
29,0.44451880538001814,0.4444926918440362
30,0.44451554146821237,0.444517545117338
31,0.44451431640151085,0.44460482870970414
32,0.44451593306736026,0.4446411188571684
33,0.44451247340035216,0.44459545152358915
34,0.44451118678257234,0.44456710871632577
35,0.44451229911902446,0.444483075159655
36,0.4445125981010689,0.44448605923735474
37,0.4445085515305259,0.44460666774224405
38,0.44450872533500696,0.444498663238497
39,0.4445080456605472,0.4446043158731153
40,0.4445068146125561,0.44449194944821874
41,0.44450509005591804,0.44448720154632115
42,0.4445053935315222,0.4445479097940194
43,0.4445037109571077,0.44450481927424446
44,0.444504703477267,0.4444838443849578
45,0.44450029184375545,0.4445681104736943
46,0.4445026518823332,0.444482237721791
47,0.44450335242011463,0.4444843966375214
48,0.44450053059837535,0.44448913196771966
49,0.44450087420876755,0.44449378133707546
50,0.4444993891577138,0.44454554829644805
51,0.4444991040148706,0.44448957330831523
52,0.4444984012482552,0.44457046849556064
53,0.4444966404942648,0.4445601017983912
54,0.44449798476946706,0.4444912076440106
55,0.4444976081004698,0.4445354888959795
56,0.4444966355565949,0.44447830851853043
57,0.4444971380586718,0.4445063296234046
58,0.44449581098347324,0.4444806706520819
59,0.44449572248365843,0.4444813658078906
60,0.4444965353087623,0.4445027134554558
61,0.4444936895894739,0.44463037941651073
62,0.44449593853422614,0.4444773614554488
63,0.4444926149822784,0.44449370459054893
64,0.44449435536990883,0.4444892770747097
65,0.4444925062505989,0.44456779328232665
66,0.4444932624287692,0.4444871224925181
67,0.44449242306630266,0.44455209162927445
68,0.4444922710350565,0.4444800117175573
69,0.4444914885739207,0.444517576916342
70,0.4444949548501256,0.44448902837691767
71,0.44449032289454177,0.4444854933038243
72,0.4444919369848672,0.4444797295346745
73,0.44449283755251084,0.44462851018231203
74,0.4444906463803499,0.44447634687494697
75,0.44449426307228085,0.44450274463326994
76,0.4444898369322194,0.44449347550460777
77,0.44449130902519296,0.4444966254991574
78,0.4444919922087548,0.4444790034524856
79,0.44449401618247614,0.44454072767096775
80,0.4444900516788542,0.4444911057245051
81,0.44449274610011225,0.44450194210035926
82,0.4444895120777944,0.44447628522924987
83,0.44449168088509927,0.4444894020817712
84,0.4444904999844922,0.44452936403804616
85,0.4444909834111264,0.4445766749068466
86,0.44448970012654004,0.44447495280661004
87,0.44449030067798545,0.44464159761705707
88,0.4444920208546551,0.44449480232174876
89,0.4444900426377002,0.4445033227687438
90,0.4444897981976013,0.4444960869571411
91,0.444491417123049,0.44453767680056927
92,0.44448983395005454,0.4444856405110276
93,0.4444894941733672,0.4444862961177495
94,0.4444888072692973,0.4444800263894699
95,0.44448887863655323,0.44448665967650214
96,0.44448908822306854,0.4444832703611691
97,0.4444907556421219,0.44449120084050275
98,0.4444885041581318,0.44447552039664673
99,0.4444881543270407,0.4444793702059289
100,0.4444884818851742,0.44451420767135713
101,0.44449013192673753,0.44447209454943465
102,0.44448827097737165,0.44450687820799
103,0.444489267901953,0.44447429055907295
104,0.44448735148929014,0.4445473132299135
105,0.4444901556440395,0.4445410203401267
106,0.4444866839272868,0.444517715264195
107,0.4444891469974717,0.4445022276997862
108,0.44448961013781213,0.44451165571993695
109,0.4444858969469544,0.44449588904901416
110,0.4444865102233813,0.44448298532377106
111,0.44448896910528307,0.44448570360616774
112,0.44448854937691734,0.4445750641319947
113,0.444487137162312,0.44447766262899263
114,0.444485904156055,0.4445042792384145
115,0.444488246572606,0.4444756505063391
116,0.4444865169524799,0.4444782776365209
117,0.4444862778661578,0.44451391414436453
118,0.4444879800271755,0.4445086814333724
119,0.44448636085324694,0.44449679113499285
120,0.4444858746219342,0.44452628283287693
121,0.4444871685651667,0.4445139104911766
