epoch,loss,val_loss
0,0.3439703951981774,0.3378082907525245
1,0.3378470535069186,0.3388058024807544
2,0.3369416533410569,0.3367842351236651
3,0.33654681095261507,0.3362868735867162
4,0.3363455102038742,0.3362492749915821
5,0.33625398203242496,0.3358292626831727
6,0.33619295679135053,0.3359158501139941
7,0.33613704949303036,0.3364180580262215
8,0.3360362905392243,0.33620059411815617
9,0.33599391281214297,0.3358671633244744
10,0.33594689900942837,0.3360985227465334
11,0.3359215137630721,0.33582591528336403
12,0.3359259112745875,0.3360111494218149
13,0.33585094988327957,0.33612266367777405
14,0.3358903832465331,0.33617293734112685
15,0.3358222743064736,0.3355558214057468
16,0.3357708176997026,0.3369960194190146
17,0.3357945687481091,0.33553396661583307
18,0.33575411333491406,0.3358049617068052
19,0.33575410071563555,0.3382448798521577
20,0.3357731271688733,0.3359767520546026
21,0.3357256746869852,0.33563323333009004
22,0.3356909126552508,0.33586101826308085
23,0.3356990884686836,0.33591347847032194
24,0.33568495281473637,0.33547093671545497
25,0.3356948690915271,0.33547391296912066
26,0.3356826089029616,0.33556466651317796
27,0.3356980213573278,0.3357752527995382
28,0.33566339890637026,0.33550078933943
29,0.3356401832458923,0.33613844565658946
30,0.33565204103112506,0.3356340958521916
31,0.3356390088247197,0.3359244743884349
32,0.3356299142725921,0.33584191423491866
33,0.33561115707480393,0.3356282555731591
34,0.3356181095541963,0.33703802461659643
35,0.3356247738131324,0.33550918068246866
36,0.33559596808993436,0.3373826754596038
37,0.3356027806592141,0.3354956059982404
38,0.3355942252648249,0.33555429166658934
39,0.33559420596811596,0.3358902377614904
40,0.33559538580853804,0.3355166804553853
41,0.3356048191947033,0.3354337374714409
42,0.3355806537504094,0.3356591273478184
43,0.33557971569252415,0.3357261329223737
44,0.3355801641425177,0.33558076615664856
45,0.3355904745131254,0.3355069738315885
46,0.3355727640110315,0.3354711082230135
47,0.33557153326358397,0.3354706707278789
48,0.33557022921822355,0.335592372733961
49,0.33556711137885603,0.3356709569027051
50,0.335568413844588,0.33552183786929396
51,0.33556436059976985,0.33542687242143504
52,0.3355763858220628,0.33546257263081836
53,0.33555514932040054,0.3354151106501927
54,0.33557797133787687,0.33543670220351396
55,0.3355564896348966,0.33563738514116914
56,0.3355704432131051,0.3354109288445182
57,0.33553769696823893,0.3358764864966532
58,0.335534972730854,0.335427562799998
59,0.33556854223228766,0.33542405804688524
60,0.3355507179866945,0.3354963450514649
61,0.335563956358073,0.33547321380515843
62,0.33555443079299846,0.33555460280875116
63,0.3355399195298445,0.33559246109082147
64,0.335548057950456,0.3365428719419995
65,0.3355488119920852,0.33545935343276184
66,0.33555041869858465,0.33555517081291447
67,0.3355406147260761,0.3354079741698045
68,0.3355457510879679,0.3354149903316356
69,0.3355556326476425,0.3354131803175356
70,0.335538887557628,0.3354454412058033
71,0.33551966594672517,0.3353980659846928
72,0.33552518463982284,0.3354337567283261
73,0.3355223482685425,0.3354416719441378
74,0.3355238893236349,0.3359536785641616
75,0.33553674676752737,0.33553256342192145
76,0.3355206835883005,0.33550671322765774
77,0.33553486945510447,0.3355510107932552
78,0.3355154057544163,0.33570396610288405
79,0.33552416093925835,0.33541085935999676
80,0.33550388229230743,0.3354000246406489
81,0.3355282340960714,0.3353945761105559
82,0.3355195004829187,0.33569956297614145
83,0.33550320795466454,0.33553221582183174
84,0.33551493362616785,0.33597258109016986
85,0.3355193457187774,0.33582207542790965
86,0.33551310033745585,0.33566942791784965
87,0.33551981266797454,0.3356378780553122
88,0.3355035766111397,0.33544737159762134
89,0.33550597629148793,0.33559976424236154
90,0.335525059780946,0.3356831739469438
91,0.3355255584639113,0.33537633407204676
92,0.3355114190997108,0.33549641864767143
93,0.3354966345557171,0.33542564929862767
94,0.3355083970994152,0.33588613885507984
95,0.33549991498519016,0.3354262209707691
96,0.33552224771819433,0.335563496664795
97,0.33549083673814073,0.3355634863264212
98,0.3355276963179935,0.33545446511237853
99,0.3354891289551447,0.33542055404807436
100,0.3354927875326678,0.33540156764664664
101,0.33550535816376786,0.3356634186603887
102,0.3354819000660257,0.335509000774057
103,0.33549737455857154,0.335788069572993
104,0.3355113032232202,0.3361922608415779
105,0.33550697677328983,0.3355819418323839
106,0.33549271911405154,0.33546267037947775
107,0.33552147172308294,0.33572895131986724
108,0.3354907689154841,0.33664065816857974
109,0.3355341903837038,0.33544780342809616
110,0.33547492099129184,0.33544992881436503
111,0.3355033584540064,0.3354832803936809
