epoch,loss,val_loss
0,0.3376681623979836,0.33384030223188566
1,0.33369432585819137,0.33369076617302434
2,0.3336025006657244,0.333440129410836
3,0.3335626358899824,0.33370041208290874
4,0.33353930244957153,0.3334079394269522
5,0.33351620243169655,0.3334234915211538
6,0.3335041987428348,0.33343413373081027
7,0.333493067624922,0.3335024097273427
8,0.333481865110961,0.3334562873574108
9,0.3334903761440209,0.3334523413228634
10,0.33347479828658794,0.3334324385628807
11,0.33346255662010205,0.3333948454549236
12,0.33345901430677855,0.33340237902352593
13,0.3334512821736898,0.33346743774473225
14,0.33344907540166313,0.33367876684103653
15,0.33344296379494875,0.3334175671744287
16,0.333433548461116,0.3334174345651868
17,0.3334315567670319,0.3334894241825227
18,0.33343706637085707,0.3333786156425997
19,0.33342802771627633,0.33347153283526226
20,0.33342200573345687,0.33343077435091173
21,0.3334249715703705,0.333402942161702
22,0.3334189375279461,0.33347258535271546
23,0.33342653085764823,0.33354385341367415
24,0.33341518800366327,0.33340372935713963
25,0.33341581505973494,0.33342536980697596
26,0.33342258840808403,0.33338277758498935
27,0.33341563417473224,0.3334576046052701
28,0.3334148585957277,0.33345639773693037
29,0.3334135427735573,0.3333952733807765
30,0.33341117095659184,0.33348427058449454
31,0.33340908703705757,0.3333838697402708
32,0.33340959697305106,0.3333916023558482
33,0.33340687068944586,0.33337544227947963
34,0.33340284226905,0.33359809044572913
35,0.33341073117897513,0.33343034463544047
36,0.3334032167269619,0.3334379100622078
37,0.3334054966233592,0.3333907982108019
38,0.33340190821407323,0.3334735570563276
39,0.3334023027066428,0.3334988776122962
40,0.33340257124544204,0.3333791662534472
41,0.3334004681751321,0.3334810917194073
42,0.3334022381521013,0.3333725833863242
43,0.3334018514148958,0.3333773031719861
44,0.33339540298644443,0.33340461070720967
45,0.33340031774994006,0.3333712384363558
46,0.33339796701677377,0.3334736701424601
47,0.33339672162275935,0.33348774670371345
48,0.3333987148069398,0.3333751632173363
49,0.333395347211166,0.3334209617255048
50,0.33339368057265806,0.33337362664509057
51,0.33339605801002414,0.3334043894453025
52,0.33339334056405523,0.33343447235322765
53,0.3333903333136631,0.33342235567551987
54,0.33339506502918925,0.3333695346013488
55,0.3333912311890362,0.33338651769510275
56,0.33339442002017744,0.3333753858251548
57,0.33338992576953713,0.33338533781894086
58,0.3333914122128726,0.33336905224743313
59,0.3333892500116092,0.33338254767079506
60,0.3333904861921107,0.33338340103774156
61,0.33338997748984445,0.33341650144929624
62,0.3333901597020505,0.3333868849366238
63,0.33339049443418173,0.3333828823885906
64,0.33339160713665006,0.3334086854907478
65,0.33338783057173227,0.33336785771414895
66,0.3333911062753358,0.3333872743043355
67,0.3333885751229698,0.33337924166885263
68,0.33338847690400325,0.3333723487540451
69,0.33339087369881804,0.3333906625843521
70,0.3333883988656276,0.33337312226851584
71,0.33338794541091377,0.33337453921734544
72,0.33338988344338444,0.3334365902852184
73,0.3333907489357838,0.33337272000371965
74,0.3333874491855426,0.33339139458263484
75,0.3333869861662873,0.3333697228514527
76,0.33338918928998373,0.3333696792942123
77,0.3333865963857828,0.3333747292866482
78,0.3333911849140097,0.33339310307656567
79,0.33338633542249474,0.33338132567204554
80,0.3333893374058813,0.3333967785385643
81,0.33338710460331406,0.33342712682766595
82,0.33338817623820505,0.33340227982542353
83,0.33338743202340265,0.33338351653468223
84,0.333387771065691,0.3333690930093193
85,0.33338612018678654,0.33342269731514507
