epoch,loss,val_loss
0,0.23527975269550885,0.2271659993799981
1,0.22706047688721523,0.22724349493572196
2,0.2262074676988297,0.22830843307244275
3,0.22584949218847883,0.22568440226556055
4,0.22570492106025872,0.22589991557834757
5,0.2255769610873138,0.2252894366349535
6,0.22545832985813982,0.22527227332958807
7,0.22528042631611483,0.22535294936253475
8,0.22529147358021356,0.23107203551320818
9,0.2252348737479569,0.22504142425935855
10,0.22514750087912455,0.22561195035726203
11,0.22510349595001328,0.22480731667123421
12,0.22507309650028604,0.22521229070558146
13,0.22503195069975312,0.22538847845630078
14,0.22500095269451295,0.2250239583975624
15,0.22501377860776053,0.224785328229367
16,0.2249293727791992,0.2250792903876482
17,0.22496901264958014,0.22480391456234838
18,0.22493680429894683,0.22474236016533808
19,0.22491120927340394,0.2250392012131717
20,0.22489409666539054,0.22476176758557928
21,0.22487993514813429,0.22475023576550685
22,0.22486353486772803,0.2245683487828257
23,0.22484552512327627,0.22736003614093175
24,0.22486067664492157,0.22630097944446592
25,0.22485247919728477,0.22460299154221272
26,0.22484226027986445,0.22463904832935808
27,0.22483346418757716,0.22465744080673672
28,0.22479900359942556,0.22483509184409017
29,0.22480639192530952,0.2246903535967725
30,0.22480462695246892,0.22474667286458738
31,0.22479322755961986,0.2248372318135302
32,0.22482438936621119,0.22458821853840025
33,0.22479589508203482,0.2246099115823102
34,0.22478505250819505,0.22505805934629133
35,0.2247916893251798,0.22486798105849226
36,0.22477831173963228,0.2248571042609274
37,0.22477233216638412,0.2246329185906474
38,0.22477257249668828,0.22505770131169123
39,0.22477379335656922,0.2246361092065759
40,0.22475443959880617,0.22460724498438775
41,0.22479077122208332,0.2247018559399077
42,0.22475207409463532,0.22467855844397108
