epoch,loss,val_loss
0,0.561940187087305,0.5597507977899784
1,0.5583471127031019,0.5579461176992941
2,0.5578090615471054,0.558064434220714
3,0.5576027133488447,0.5580039191778481
4,0.5575246890916038,0.5575736556987905
5,0.5574055977184532,0.5577650560930408
6,0.5573395498219113,0.5571892214176377
7,0.5573170954441107,0.5573620714265715
8,0.5572567543209651,0.5571144054308719
9,0.5572372602141066,0.5570845593589707
10,0.5572199654879548,0.5572025828858463
11,0.5572157865887266,0.5571895022250287
12,0.5571920115051204,0.5572877347025623
13,0.5571692660126529,0.5572151313052875
14,0.5571709890373867,0.5571374973351547
15,0.5571623559946973,0.5570800245843514
16,0.5571679310211693,0.5570834659760998
17,0.5571418116530671,0.5572616387833437
18,0.557135006990212,0.5570228578434985
19,0.5571334287722416,0.5570121894107563
20,0.5571418477600986,0.5569907602542091
21,0.5571179628936993,0.5571565628051758
22,0.5571031955161841,0.5571077516593649
23,0.5571129185064103,0.557037555461486
24,0.5571137017930549,0.5571067600924678
25,0.5571145375020637,0.55710293326721
26,0.5570963535780431,0.5570185266120854
27,0.5570918966413414,0.5573022610200546
28,0.5571003798492766,0.5570069405931989
29,0.5570884513341611,0.557197507823963
30,0.557102532867397,0.5582050494165633
31,0.5570605055101764,0.5571445591692298
32,0.5570813614089554,0.5571270102602672
33,0.5570572836227966,0.5571235382527335
34,0.5570610612222625,0.5571312070484493
35,0.5570566882981266,0.5574941444337812
36,0.5570666006962492,0.5571976433912519
37,0.5570404318733542,0.5574179716796497
38,0.5570454698395819,0.5569945412593207
39,0.5570465186662954,0.5569241345076644
40,0.5570329296836748,0.5569666493323542
41,0.5570261852257626,0.5572168446060446
42,0.5570377142704085,0.5569986686517228
43,0.5570276044151866,0.5572885576903672
44,0.5570278896412513,0.5573040426812752
45,0.5570141105502546,0.5568919019131152
46,0.5570389677010043,0.5570203661622836
47,0.5570231360404766,0.5568970227359838
48,0.5570116616277028,0.5570288984414662
49,0.5570163385031063,0.556901475365641
50,0.5570161490234263,0.5570316383619758
51,0.557010991641236,0.5569052063501798
52,0.5570225567810809,0.5569338144202978
53,0.5569968300656065,0.5569135582772438
54,0.5569996270215101,0.5568836999886089
55,0.5570056682525255,0.5570178500476014
56,0.5569890695276045,0.556907570421252
57,0.5569929418527115,0.558486907091685
58,0.5569932870147287,0.5569039605095724
59,0.5569859992821841,0.5569947123231722
60,0.5570009046218007,0.5568947136845838
61,0.5569895811757495,0.5569333009329387
62,0.5569844660313631,0.5569374483513181
63,0.556984476379211,0.5571326213794074
64,0.5569854390737774,0.5569233929548902
65,0.5569920074991632,0.5570166864111169
66,0.5569561701017751,0.5569363999307599
67,0.5569897316841629,0.5569139654523977
68,0.5569687937440997,0.5568853692440477
69,0.5569797810042094,0.5568984826504445
70,0.5569706980115697,0.5569169534347194
71,0.556995307352741,0.5569372419388063
72,0.556962286129477,0.5569115682807809
73,0.5569608729390911,0.5568911709205684
74,0.5569635285038571,0.5569238434950117
