epoch,loss,val_loss
0,0.06215155159895344,0.05120830524611118
1,0.049398469724870074,0.045914173924893366
2,0.04761325820839327,0.047197799619388935
3,0.04682115439474808,0.04434087081967157
4,0.04571398959559503,0.043986481984628935
5,0.04516292903860983,0.04339541111224638
6,0.04479282076477616,0.043966775503998655
7,0.044240991556176744,0.047438195066771494
8,0.04398150288354538,0.042599166023819975
9,0.04350578327737824,0.044268887652726685
10,0.04347720305858233,0.04341744800137527
11,0.043059565245861055,0.04277696118091531
12,0.04282149510497726,0.04124035214630901
13,0.04279229053196941,0.04296642059908611
14,0.04244757428259658,0.045380027327806716
15,0.042414626744066944,0.042591993268533024
16,0.042391752718163846,0.041407900372007055
17,0.0422206012127668,0.04192499099276202
18,0.04219001551494212,0.04244727292664294
19,0.04198645066475676,0.041553463280274906
20,0.04198338915151624,0.040917157729343505
21,0.04182238705772084,0.042578128460914855
22,0.04178990308899924,0.04146514877898817
23,0.04182328701614261,0.04110190389358968
24,0.04163705528504119,0.04090506324068488
25,0.04177951287433886,0.04047176012626061
26,0.04160146293083571,0.040613407565849295
27,0.04151821916339712,0.04195344988672668
28,0.04156307199916716,0.041280607566718135
29,0.04146517913061504,0.040637447280120614
30,0.041459622837727236,0.042439287364778686
31,0.04143851922008517,0.040945861007898085
32,0.04139301758357892,0.041130932934452816
33,0.04147608739616606,0.040488956778058346
34,0.04137836482846544,0.041186643487984134
35,0.04136089890646273,0.04039490752051545
36,0.04133844004900557,0.04074352826026474
37,0.04113363467715082,0.04109413251465663
38,0.0412406374133237,0.040851385296130596
39,0.041225580470646714,0.04192739931806441
40,0.041265921724235696,0.04130160847757354
41,0.041098371524528374,0.040353628033517906
42,0.04122375197174866,0.04186884398126129
43,0.04128725401527374,0.04047594065350427
44,0.0411313383362993,0.04102644997443218
45,0.04126058986977198,0.04022599667421641
46,0.041244262639586526,0.04198650807585965
47,0.0412129400052304,0.04733989439331568
48,0.04110865238322573,0.048679820359418764
49,0.04124462341347444,0.04050485400053171
50,0.04113846587164862,0.04045634764077941
51,0.041059268348917745,0.04690013180299669
52,0.04104672420957622,0.041277511153490314
53,0.0410929098643478,0.04070206614714994
54,0.040980216400332184,0.04096707243185777
55,0.04100219026049961,0.040587179396976314
56,0.041008454245495186,0.04037974235178815
57,0.04122528831842434,0.042253661601256494
58,0.040992846393389064,0.04038488722172919
59,0.041210193272882036,0.04087918180944606
60,0.04095751915412348,0.04219331978901148
61,0.04099384330798676,0.04032899859377528
62,0.04094198164756825,0.040547669640102105
63,0.04101601045164978,0.041299293633947895
64,0.04100423756706773,0.04364539820599201
65,0.04097032495984539,0.04621656952846435
