epoch,loss,val_loss
0,0.672143979848052,0.6722928000443035
1,0.6689699791684691,0.6688509898505199
2,0.6686172508038261,0.6683807708785197
3,0.6683955024513967,0.6682763709915484
4,0.6682302496792996,0.6681627157308327
5,0.668161177925166,0.6679585806785091
6,0.5660883804685336,0.5578748358686272
7,0.557365953934893,0.5573395261101924
8,0.5573531340644635,0.5575125104440353
9,0.5572722717139305,0.5572019103147255
10,0.5572641104409672,0.5572631505819468
11,0.5572264947716873,0.5572704154563601
12,0.5572179136827983,0.557094868951045
13,0.5571724269559578,0.5570938639841956
14,0.5571884390554058,0.5571317239375623
15,0.5571657723069209,0.5570371565097023
16,0.5571483339162289,0.5571059026138363
17,0.5571499243381597,0.5570787432176008
18,0.5571374121982735,0.5572280010573621
19,0.5571110171986235,0.5576158640698227
20,0.5571238643546191,0.5570616561780792
21,0.5571236728089983,0.5570227714093684
22,0.557104278417119,0.5572522831318101
23,0.557119885456461,0.5573102714997663
24,0.5571099830606793,0.5569772975912165
25,0.557099210470688,0.5570505770501073
26,0.5570996011504568,0.55700290803578
27,0.5570988055438939,0.5569961491352867
28,0.5570774359901912,0.5571891824305797
29,0.5570828525095323,0.5570545680765479
30,0.5570838730315136,0.5574606045008297
31,0.5570771469998386,0.5582506656942533
32,0.5570729328762777,0.5569921518969476
33,0.5570622070827282,0.5570409114840013
34,0.5570650715725773,0.5569880234692292
35,0.5570637684047882,0.5571450391714982
36,0.5570505849453157,0.5569613911673685
37,0.557048560835916,0.5569836420397605
38,0.5570283934515996,0.5571766660172058
39,0.5570408290412345,0.5570721740166543
40,0.5570387966696486,0.5569278712603946
41,0.5570339652557086,0.5569641425946806
42,0.5570442101307028,0.5569220098313268
43,0.5570293613058911,0.5569293083683137
44,0.5570291570467267,0.5569520687347015
45,0.5570215424805873,0.5569444545741117
46,0.557020012839444,0.5569791496835335
47,0.5570468879522555,0.5576026082926293
48,0.5570165678509503,0.5569321173000572
49,0.5570173626860392,0.5569495985584875
50,0.5570349067229092,0.5569574706016048
51,0.5570291307724383,0.5569500643621308
52,0.5570075745117866,0.556929427814247
53,0.5570154611999772,0.5574861873172353
54,0.5570217659390403,0.557430094702368
55,0.5570215831383685,0.556928269886793
56,0.5570132832367438,0.5571134095156459
57,0.5570155650563042,0.5569336252531993
58,0.5570282508141137,0.5569698645518376
59,0.5570221721879104,0.5574432197634694
60,0.5570110679414289,0.5570698421882933
61,0.5570089408836434,0.5569680813228522
62,0.5570112140694795,0.5569507167297912
