epoch,loss,val_loss
0,0.5237899641868804,0.5221824669660469
1,0.5013365417395862,0.35492485751289293
2,0.3546752448585148,0.3536030748493914
3,0.3539138754159975,0.3533471454905517
4,0.3533842005209806,0.35340654141553873
5,0.35313123042916256,0.3563666584473981
6,0.3527877408357335,0.35313884964947667
7,0.352550215218,0.3518387249918197
8,0.35226179976968547,0.3514599258491478
9,0.35201712861948814,0.35171685690619514
10,0.35188930963932247,0.3511112106497175
11,0.351623619913864,0.3507216544512188
12,0.3515565695125703,0.3520715985937095
13,0.35144370771025835,0.35105508375108685
14,0.35130432104943227,0.35093242817422
15,0.35123000465806464,0.3509431490975042
16,0.3511613532053806,0.35087552745052364
17,0.35108865814459767,0.3503978176093279
18,0.35091137944341766,0.35040467158144817
19,0.3508123554781077,0.35054019399671343
20,0.3508638228981351,0.3502678352757068
21,0.35081843599394885,0.35040838424088644
22,0.35066101396595467,0.35099449922369963
23,0.35074792646678316,0.35003874102242233
24,0.3506012867921064,0.35009525688942844
25,0.3505742037473466,0.35012941975747386
26,0.3505244948678577,0.35059165680970505
27,0.35046531958698407,0.35023173107106986
28,0.35048600523455836,0.3503031745294188
29,0.35043621606656145,0.3505716184232726
30,0.3503609366083004,0.3500989975024098
31,0.3504306020447636,0.35028926384064457
32,0.3503848964031203,0.35070355744574855
33,0.35039985779134436,0.3500567909357861
34,0.35035138913036834,0.35027209594291137
35,0.35028496526018116,0.34999313100100155
36,0.35027100609983014,0.3497021643902469
37,0.3503086209597724,0.3502061671122132
38,0.35020964630805496,0.3497383125366703
39,0.35033006713511544,0.34984961331038555
40,0.35025016094410194,0.3499792863062534
41,0.35027992169603434,0.3513245020995365
42,0.35019925085720255,0.3510980071116322
43,0.3501676157201886,0.35001366435741965
44,0.3501644582390506,0.35025508612320383
45,0.3501211584191772,0.3516562366012308
46,0.3502109642533564,0.3497234748403724
47,0.3502519641492743,0.3509905158438103
48,0.35013103683261054,0.35010801290460025
49,0.3501400968719284,0.35002604212713595
50,0.3500899792871585,0.3496263773506392
51,0.3500572245683058,0.34993421287453796
52,0.3500486842752429,0.3498370680116838
53,0.3501297944917555,0.34995782323569874
54,0.35014226734208304,0.35043861879308524
55,0.35006277847508704,0.3499067259337707
56,0.350013867570223,0.35161416299881476
57,0.35003116033377024,0.3505231294383482
58,0.35005717015730564,0.3499679878095244
59,0.3500371150591285,0.3497510130440923
60,0.3500721280502321,0.3506435330097492
61,0.35006122331219736,0.35325097246442183
62,0.34998857693157803,0.35093709424175046
63,0.3500675886947919,0.34983535688509126
64,0.3499278657857069,0.34978992292662114
65,0.3499560332191314,0.35061549562082694
66,0.35001127496893203,0.3507530516637466
67,0.3499813551707047,0.3503033160571721
68,0.34986831578108624,0.3520003565339829
69,0.34990365162614656,0.35126947435196815
70,0.34990789117008947,0.3500880064798644
