epoch,loss,val_loss
0,0.7874257196443641,0.6152985775193502
1,0.6028117252566709,0.6014545356580453
2,0.6010609788180014,0.601268445798593
3,0.6010840184004732,0.6012440730434979
4,0.6010582305356206,0.6013115344121475
5,0.601147921510445,0.6012484648430995
6,0.6010304053316436,0.601380118565966
7,0.6011262907230269,0.6017067252203475
8,0.6012269067517855,0.6012897454490957
9,0.6012238288726609,0.601251810096031
10,0.6013756754786469,0.6016377571017243
11,0.6012752148532128,0.6013717521992765
12,0.602047968434425,0.6128058641455895
13,0.9178460540697556,0.9999998475230018
14,1.0,0.999999810558881
15,1.0,0.999999810558881
16,1.0,0.999999810558881
17,1.0,0.999999810558881
18,1.0,0.999999808710675
19,1.0,0.999999810558881
20,1.0,0.999999810558881
21,1.0,0.999999810558881
22,1.0,0.999999810558881
23,1.0,0.999999810558881
