epoch,loss,val_loss
0,0.5628188972325728,0.5586318243821856
1,0.5586251410499157,0.5579993445879177
2,0.5580822792427254,0.557741413932876
3,0.557748217524708,0.5574787644831182
4,0.5576310555053406,0.557537503011765
5,0.5575016713784817,0.5575393023916865
6,0.5574160608771878,0.5572735570500565
7,0.5573488591845687,0.5571994217986208
8,0.5573229357542825,0.5573389985721106
9,0.5572839548955992,0.5571390899771792
10,0.5572753524894181,0.557158542862601
11,0.5572599487271493,0.557739249677871
12,0.5572346277714716,0.5575260651910275
13,0.5572181322221189,0.5572969875619666
14,0.5572118508883762,0.5577861589770163
15,0.5571899085160598,0.5578612025263292
16,0.557179108008651,0.5570572569707487
17,0.5571570077421231,0.5570916430234317
18,0.5571632769405334,0.5572195444450189
19,0.5571289616446689,0.5570403857799086
20,0.5571058178121224,0.5570293901871807
21,0.5571127296309728,0.5569851554061284
22,0.5571149245406015,0.557116648369924
23,0.557087049442161,0.5569879061826701
24,0.5570866793334532,0.5572747659742389
25,0.5570830738278945,0.5570068713157408
26,0.557069823447396,0.5571716568606071
27,0.5570710929811298,0.5573107291983611
28,0.5570702472855564,0.5570198722571948
29,0.5570496849972967,0.5571259308097972
30,0.5570574160552126,0.5570073443961794
31,0.5570427642000042,0.5574564015894906
32,0.5570457613794272,0.5569808845188718
33,0.5570354527663286,0.557363808480445
34,0.5570510452778222,0.5570613235752873
35,0.5570399335351067,0.5570194042645968
36,0.5570389125137972,0.5569680480152442
37,0.5570418191231259,0.5569499351546428
38,0.5570269282466737,0.5570046525439317
39,0.5570333824442197,0.5570673095677094
40,0.5570148412914776,0.557574527938076
41,0.5570223910490728,0.5569327707326146
42,0.5570383214598429,0.5570612004022149
43,0.557015862937539,0.5571073031602959
44,0.5570080145619435,0.5570625385634657
45,0.5570129268307701,0.5569606569801312
46,0.5570112210300991,0.5569865538819552
47,0.5570158726338148,0.556964570357841
48,0.5569977646218836,0.5574669961302215
49,0.5570122478074879,0.5576434119759364
50,0.5569975974116116,0.5571250100881231
51,0.5569951807726411,0.5569543000782098
52,0.5569940090212574,0.5568989797798043
53,0.5570029615985147,0.5571856806650942
54,0.5569933011536847,0.5569669704875047
55,0.5569981847493963,0.5569154592364952
56,0.557001467200636,0.556919536135037
57,0.556979063830042,0.5573982840140463
58,0.5569968814561836,0.5573031759143763
59,0.5570100044551328,0.5569115109538322
60,0.5569728410028953,0.5569139894717384
61,0.5569879497174,0.5569591162518296
62,0.5569829023017996,0.5569172520199721
63,0.5569818075203239,0.5570978750366136
64,0.5569897381841069,0.5569652655580204
65,0.5569785571041848,0.5569740526729423
66,0.5569802963929775,0.5570908964715584
67,0.5569898775810868,0.5569236501274866
68,0.5569760375073626,0.5571097636636966
69,0.5569719415542045,0.5570578062800556
70,0.5569869072912382,0.5569284829253298
71,0.5569779508195363,0.5570512363987584
72,0.5569752232655233,0.5569469630866134
