epoch,loss,val_loss
0,0.6722140193515627,0.6723518402049914
1,0.6693632043625467,0.6688416065412479
2,0.6687433945618502,0.6684657895239647
3,0.6683520834845511,0.668244039154526
4,0.6682187674681705,0.6681219879214284
5,0.6681675905017719,0.6685553023892065
6,0.668118155799626,0.6687549525100007
7,0.6680597830748912,0.6681134113898644
8,0.6680156349941752,0.6678593983425396
9,0.6679717831342107,0.6680005435612302
10,0.6679498146824463,0.6679425460233286
11,0.6679230641532106,0.6689123013179297
12,0.6679165887014784,0.6677865592776694
13,0.6679087858578332,0.6681585705309885
14,0.6678730173093671,0.6678126819376319
15,0.6678819412600503,0.6681269744785489
16,0.6678610161092582,0.6679519081234044
17,0.6678531891945216,0.6677431403259486
18,0.6678375693493432,0.6677729958931802
19,0.6678384454447763,0.6677715246493999
20,0.667827586603525,0.6680182294277636
21,0.6678253369578989,0.6679940442885122
22,0.6678075256439602,0.6679991883912099
23,0.6678142454849119,0.667763005592687
24,0.6677978542572948,0.6680009507955452
25,0.6678049271856201,0.6678043701512641
26,0.6678009256638702,0.6677380460367605
27,0.6677843053581883,0.6677589281616968
28,0.6677924815573582,0.6677983002982127
29,0.6677864491312426,0.6677441822092232
30,0.667785651389322,0.6677147044437399
31,0.6677643338178175,0.6678415561136478
32,0.6677775232226879,0.667756195103856
33,0.6677814161291105,0.6679439256563967
34,0.6677760640254772,0.6678041329454844
35,0.6677661748354679,0.6678678772289759
36,0.6677641510826183,0.6679562337049479
37,0.6677666486648243,0.6677002567807143
38,0.6677618882714502,0.6677248118828899
39,0.6677699499643239,0.6678432282088116
40,0.6677623476952268,0.6678962819333704
41,0.6677734726610688,0.6677161456929247
42,0.6677555743354396,0.6680483497697721
43,0.6677592146401528,0.6677180077834401
44,0.6677658064243182,0.6680010932846637
45,0.6677498207379924,0.667699354842638
46,0.6677544896241442,0.6678154835629996
47,0.6677596369227441,0.6678034579191847
48,0.6677438662559876,0.6677019279588836
49,0.6677506987534332,0.6679896823229919
50,0.6677534435764724,0.6676875170939613
51,0.6677563009084946,0.6678858961124278
52,0.6677531484608691,0.6678133085998649
53,0.6677392633253361,0.6680873874103461
54,0.6677443031981615,0.667698227767613
55,0.6677472375994841,0.6677468139835386
56,0.6677474386962363,0.6678995417602009
57,0.6677290875698318,0.6677784199750157
58,0.6677650984786514,0.6678759527265582
59,0.6677330496722609,0.6677011050894006
60,0.6677326183915068,0.6677667976904743
61,0.6677374396492841,0.66771478268408
62,0.6677272835979186,0.667703954960513
63,0.6677334767722258,0.6676869008144729
64,0.6677403521598363,0.6677068812971375
65,0.6677297194740414,0.6677048298028799
66,0.6677332573549395,0.667832835880166
67,0.6677247856717836,0.6676747776734326
68,0.6677352219851181,0.6677499458452608
69,0.6677276763459947,0.667746562165007
70,0.66773608526446,0.667676224010458
71,0.6677302420900532,0.6677285467424701
72,0.6677203793328867,0.6676968861750279
73,0.6677375103771948,0.6676785939680435
74,0.667723008344908,0.6682624318167826
75,0.6677235212496563,0.6677052094681979
76,0.6677367646719016,0.667740966634774
77,0.667721736420236,0.6676976599113521
78,0.6677236914574753,0.6676933571067697
79,0.6677263814743114,0.667683287856005
80,0.6677202936085639,0.6676847617620274
81,0.6677237957445026,0.6676901870270817
82,0.6677044503333304,0.6676954173272656
83,0.6677272319785813,0.6679568945030421
84,0.6677222151545259,0.667735649013046
85,0.6677249263072238,0.66779457031941
86,0.6677192161813077,0.6677284036913226
87,0.6677117616660359,0.6676880820809168
