epoch,loss,val_loss
0,0.5599465349117915,0.5583048803806305
1,0.5576210129128563,0.5577124996185303
2,0.5573926560084025,0.5573411109844844
3,0.5572946039173338,0.5572687284151713
4,0.5572322705851661,0.5571655520995458
5,0.5571814789904489,0.5571798845529556
6,0.5571670537922118,0.5570907618204752
7,0.55714902999666,0.5574009923934936
8,0.557114062110583,0.5570290206273397
9,0.5571072661479314,0.5570353412628174
10,0.5571025117503272,0.5570411757230759
11,0.5570948854949739,0.5570125938653946
12,0.5570844240850873,0.5570197681983312
13,0.5570797116094165,0.5570850209792455
14,0.5570800892247094,0.5569757237434387
15,0.5570723758935928,0.5571009893019994
16,0.5570677584277259,0.5571510469913483
17,0.5570575810935762,0.5570213586091995
18,0.5570578655931685,0.5569776002963384
19,0.557044266435835,0.5570503005981445
20,0.5570475587712393,0.5569486940304438
21,0.5570422823958927,0.5570555860996247
22,0.5570386323001649,0.5570443934202194
23,0.5570412998199463,0.5569677409728369
24,0.5570380850765441,0.5570722584724426
25,0.5570387593110402,0.5569696900049845
26,0.5570443272855546,0.5571771609783173
27,0.5570307869116465,0.5570058945814769
28,0.5570374469624625,0.5569817229906718
29,0.5570342490937975,0.557051116903623
30,0.5570347535742654,0.556990913271904
31,0.5570313673416774,0.5569571067889532
32,0.5570297433667712,0.5570216095050176
33,0.557026932756106,0.557027549068133
34,0.5570330107079612,0.5569819438060125
35,0.5570326902866364,0.5569599590301514
36,0.5570235333575143,0.5569650511344274
37,0.5570302605231603,0.5569641122023264
38,0.5570239473448859,0.5569613906939824
39,0.5570235718091329,0.5569811802307765
40,0.5570235353708267,0.5569382171630859
41,0.5570198568767971,0.557046986579895
42,0.5570211515161726,0.5569574102163315
43,0.5570235236883163,0.5569329319397608
44,0.557021778901418,0.5569431417783102
45,0.5570211267338858,0.5569516056776047
46,0.5570240710576375,0.5570115183194478
47,0.557013816581832,0.5570108179251353
48,0.5570199201901753,0.5569383346239726
49,0.5570202155907948,0.5569765590429306
50,0.5570136088000404,0.5569886773029963
51,0.5570203509860568,0.5570069727102915
52,0.5570111694865757,0.5569355543851853
53,0.5570135393407609,0.5569488110144933
54,0.5570122156540552,0.5571315796772639
55,0.5570178081591924,0.5570339231491089
56,0.5570141347779168,0.5571244028409322
57,0.5570045246945488,0.5570578314065934
58,0.5570149276389016,0.5569245422681173
59,0.5570160671869914,0.5571887221733729
60,0.5570218514601389,0.557294837474823
61,0.5570041862726212,0.5569541057745616
62,0.557004650566313,0.5569382384220759
63,0.5570160684585571,0.5569309916496277
64,0.5570149963961707,0.5569758025407792
65,0.5570119468106164,0.5574559151331584
66,0.5570057292381922,0.5571606051127116
67,0.5570039157470067,0.5569707666635513
68,0.5570100948148303,0.5569402726491293
69,0.5570057017670738,0.5571000481843948
70,0.5570100198056963,0.5570460803508759
71,0.557005328880416,0.5571205542882284
72,0.5570096881786982,0.5569864820241928
73,0.5570132145351834,0.5569442148605982
74,0.5570128147337172,0.5569319482644399
75,0.5570074505011241,0.556954809586207
76,0.5570053431855307,0.5570476569334666
77,0.5570147392749787,0.5570017593304316
78,0.5570133061408996,0.5569458485444386
