epoch,loss,val_loss
0,0.8380185305213201,0.8372109110538776
1,0.8164245041983551,0.6742066197892277
2,0.671501360360841,0.6712149143218994
3,0.6711886889040545,0.670848399652145
4,0.6710173178560953,0.6714345625553179
5,0.6708277829148291,0.6706524170066228
6,0.6707683805319052,0.670559928050408
7,0.670678192934082,0.6704901413349597
8,0.6706300571361089,0.6704137712791007
9,0.6705523229854125,0.6704459906807608
10,0.6704891770906539,0.6705431178544946
11,0.6704617294597723,0.6705603223876385
12,0.6704161882051851,0.6703192780686371
13,0.670400441549569,0.6705604724197767
14,0.6703584677774455,0.6701506583329762
15,0.6703059372189952,0.6704776970979298
16,0.6702769888204474,0.6703730312825432
17,0.6702779254190007,0.6707597734318773
18,0.6702654930943256,0.6704285986074443
19,0.6702497723319939,0.67079412665024
20,0.6702302454201386,0.6701863933733616
21,0.670193416408166,0.6702406564066486
22,0.670213499327918,0.6710133711398387
23,0.6702100430086966,0.6704133161244262
24,0.6701883556732021,0.6700717379969935
25,0.670199560707469,0.670156534463537
26,0.6701990402575794,0.6701018077268198
27,0.670170118354192,0.67014408410335
28,0.6701505479479295,0.6700978792926514
29,0.6701635302735748,0.6703766213161478
30,0.6701344658226278,0.6704262684060089
31,0.6701759585570832,0.6701266252077542
32,0.6701481799441594,0.670003141688354
33,0.6701238360192111,0.6703824007481558
34,0.6701166663466334,0.6700348565063761
35,0.670135208704705,0.6707523058425108
36,0.6701198147475704,0.6700086228604943
37,0.6701183147403348,0.6710074367061738
38,0.6701344926561954,0.6700923941863086
39,0.6701098359214394,0.6700402499428458
40,0.6700989034840981,0.6706265683505435
41,0.6700934785187739,0.6710803670859514
42,0.6701155024393569,0.6702944439043182
43,0.670098868049937,0.6702265138661595
44,0.6700854515674701,0.6700163547809307
45,0.6700782608836655,0.6699515109026698
46,0.670080257244457,0.6704329844739834
47,0.670082687266686,0.6705961830266948
48,0.6700651772369868,0.6701371944276038
49,0.6700966983567782,0.6703698264753848
50,0.6700500130102779,0.6708661565118037
51,0.6700733047686143,0.6700031419545782
52,0.6700562959098445,0.670513763084601
53,0.6700652709063869,0.6705671402420063
54,0.6700776020717385,0.6700256211290289
55,0.6700391610633847,0.6699239658362812
56,0.6700640204709717,0.6704626793601081
57,0.670045147323332,0.6700168006769185
58,0.6700681246271538,0.669954971580884
59,0.6700544251841367,0.6701698197324578
60,0.6700687984283936,0.6703162000433682
61,0.670058413952113,0.6705080334956829
62,0.6700434154802882,0.670080575931161
63,0.6700539477766558,0.6700922051375321
64,0.6700385323310533,0.6700195235590781
65,0.6700357737256085,0.6704064228694433
66,0.6700321881206066,0.6700830221176147
67,0.6700519178165176,0.6699908474538817
68,0.6700495216287061,0.6699937264913365
69,0.6700179540832221,0.6702001076774029
70,0.6700283130779865,0.6709426703287413
71,0.670023821307422,0.6703938333923113
72,0.6700280994901403,0.670792415568018
73,0.6700311651303819,0.6701246586686033
74,0.6700247533583807,0.6700597927528931
75,0.6700502010519241,0.6704394369208192
