epoch,loss,val_loss
0,0.34596095572000896,0.33825952234694145
1,0.338141088797794,0.3374619930612834
2,0.33741872877506124,0.3375176701593044
3,0.33702195820306274,0.33702771184462177
4,0.3365862179583588,0.3362531559934687
5,0.33638448197328497,0.3365268661425664
6,0.33622887029961274,0.3374662915914881
7,0.33614925325868955,0.3366862371305082
8,0.3360408795328599,0.3356733734495291
9,0.3359670609236158,0.336379988007155
10,0.3359344926474546,0.3357888562064017
11,0.3358654230168466,0.33579143449922944
12,0.3358216613708205,0.3359984857272865
13,0.335761876187338,0.3360339560076853
14,0.3357863815743675,0.33567067766307895
15,0.3357435247383029,0.3355421395514798
16,0.3357456821730721,0.3355155445505904
17,0.33569139169757817,0.3363347027644922
18,0.33567725114855773,0.33548477607092847
19,0.33569717755494194,0.338274983525572
20,0.33568342534878676,0.3355968164007362
21,0.33562706957562494,0.33569051027297975
22,0.33564951798357406,0.3355990421683262
23,0.33565275363442765,0.3360167634102606
24,0.3356179262037112,0.33743508635620323
25,0.33561779718573787,0.33550624643306876
26,0.33562248621422247,0.3356216910755072
27,0.3356144518700211,0.33553968313018384
28,0.33555578024054694,0.3354845566134299
29,0.3355764806159375,0.335457547781781
30,0.33556808821829465,0.3355607347512068
31,0.33557609881679623,0.33574818298775266
32,0.3355781654140585,0.3357567064963263
33,0.33556418438778524,0.33615376027878696
34,0.335572047512101,0.3354180597046173
35,0.33553713055254347,0.3356694766812526
36,0.3355250044541163,0.3356119006058714
37,0.3355387746684297,0.3356216678104685
38,0.33555138521581235,0.33544124079401383
39,0.33553139135909843,0.33534957384944847
40,0.3355650679372501,0.3357864265406398
41,0.3355293134433353,0.33539090628363655
42,0.33553117259180654,0.33551681473592376
43,0.3355328082408056,0.3353731138238836
44,0.33552047720324424,0.3356668002404291
45,0.3355153005787742,0.33584523473129085
46,0.33550877849033783,0.33567608223659523
47,0.3355218189845663,0.33548178286765407
48,0.3354926214776346,0.3365486809396862
49,0.3355197726830638,0.33563307930458863
50,0.3355073401016252,0.3353549457661271
51,0.33547635367086065,0.3354062838530718
52,0.3354951457131608,0.33581090325457286
53,0.3355262736218339,0.3357347512807207
54,0.33549905786383527,0.33542466817363614
55,0.33550698180483024,0.3357582222882926
56,0.33549205740830845,0.33535214167079025
57,0.3354828836578334,0.3354565345915612
58,0.33549670718391483,0.33566755843221696
59,0.3355081018284128,0.33665017495971755
