epoch,loss,val_loss
0,0.6903735480875316,0.5152899641399236
1,0.5125994794744546,0.5135032423706942
2,0.512221397047511,0.5115429514138273
3,0.5121866717203027,0.5115362724592519
4,0.5116676829890071,0.5115362401156462
5,0.5121878938465464,0.5115549319474272
6,0.5116566701452862,0.5115332044372263
7,0.5127370117246642,0.5118832920872888
8,0.512052366437838,0.5126315258270087
9,0.5116106987923614,0.5118709913519925
10,0.5059582897550992,0.5071081777875738
11,0.51697825353583,0.5026679935381394
12,0.5014151807595285,0.50155326747155
13,0.5012714219031716,0.501986468947211
14,0.5013524377068808,0.5015463870625163
15,0.5013680109990043,0.5017553540163262
16,0.5017700903791482,0.5019467343655668
17,0.5016585265019143,0.5026520823323449
18,0.5016356025863371,0.501541068387586
19,0.5015625795036631,0.5015404617139535
20,0.5013619789165428,0.5016482892886612
21,0.5014472657703922,0.5017822297044503
22,0.501493171974054,0.5021097812541696
23,0.5014785030707525,0.5015397122664045
24,0.50138793034763,0.5015399349752323
25,0.5016963968597333,0.5023647269537282
26,0.5078026333520579,0.5018117395482322
27,0.5035008803510542,0.5021860705789669
28,0.501541022182435,0.5028799439585486
29,0.5017909955916787,0.5020751504935035
30,0.5014008745666623,0.5023331803868908
31,0.5017395272119409,0.5015470080597456
32,0.501447820232204,0.5015373636585797
33,0.5012927360312883,0.5017394474310468
34,0.5014818504799244,0.5017453616903734
35,0.5014560210304359,0.5021392573681913
36,0.5015615611421353,0.5015781073607215
37,0.5015575126468057,0.5026769189871558
38,0.5020747572876686,0.5036318875098413
39,0.5015485038745003,0.5022861966791079
40,0.5013738995374635,0.5015369736871054
41,0.5014742754534541,0.50185456294422
42,0.5013819871330754,0.501545556755953
43,0.5013596691210449,0.5031188439953235
44,0.5136605513496301,0.5096483387688334
45,0.5071643221285916,0.5016410156737926
46,0.50132012613676,0.5015770709791849
47,0.501478458251756,0.5015872056170028
48,0.5014545175148227,0.5015976988067923
49,0.5012853609191047,0.50155510967092
50,0.5012827962251905,0.5015567984691885
51,0.5013197430960584,0.5015994767810024
52,0.5014091742439172,0.501536506553029
53,0.5014314032340235,0.5016660265220229
54,0.5013741453488668,0.5015321697375571
55,0.5012763715529627,0.5023068018661913
56,0.5014346670118721,0.501553219418193
57,0.5012699002135323,0.5016030678453371
58,0.5013081229626363,0.5017300959705382
59,0.5013029680079576,0.5015441119208817
60,0.5013823803389104,0.5017621489458306
61,0.5015895853362958,0.5015428893325865
62,0.5013266638575906,0.5016689185024232
63,0.5016706783026071,0.5019819537798563
64,0.5018596268747512,0.501619280308716
65,0.50152941852885,0.5015673055205234
66,0.5013150609740915,0.5015618930491366
67,0.5013596503309501,0.5016023114670155
68,0.5013060817730827,0.5017225040021793
69,0.5015269306895037,0.5015293493751407
70,0.5014522443754112,0.5017051895459493
71,0.5014308136562968,0.5018652252448622
72,0.5014875910078832,0.5015318384466245
73,0.5013727659710926,0.5017714477324671
74,0.5012958950774614,0.5015302143355672
75,0.5013475790812372,0.5017549880715304
76,0.5016018012081314,0.5026268413824628
77,0.5017296835125571,0.5015489805576413
78,0.502253666558623,0.5021988139596096
79,0.5015396403403861,0.5017514044000196
80,0.5013500285703082,0.5015316245167755
81,0.5013449806575627,0.5016653491545093
82,0.5017209196275518,0.502592450888582
83,0.5018123348245941,0.5022424699724183
84,0.5014357442079589,0.5015272040699803
85,0.5014219907827155,0.5036093107489652
86,0.5022395066820682,0.5031675497690836
87,0.5016794646741192,0.5017037234565084
88,0.5013587745893218,0.501528243223826
89,0.5014662086501602,0.5019909656325052
90,0.5014640759744078,0.5015980670618456
91,0.5018497405126113,0.5022871965585753
92,0.5014703387745899,0.5016778263934824
93,0.5015145253765491,0.5015300142672635
94,0.5015689421069714,0.5016141977421072
95,0.5013085959493652,0.5016217675319937
96,0.5013900152780597,0.5015417106391847
97,0.5014858392165921,0.5033089061116063
98,0.5016534251452108,0.5017711173656375
99,0.5013020760945264,0.5019482697627341
100,0.501524733480557,0.5015416085258011
101,0.5013747737389203,0.5018635248953058
102,0.5014602908484388,0.5020503554233285
103,0.5018005460423709,0.5019815000452736
104,0.501612759375757,0.5015303340069083
