epoch,loss,val_loss
0,0.5603431434638668,0.5559820204159758
1,0.5557626152000394,0.5556977087155761
2,0.555744824988043,0.5556916723476154
3,0.5556979625843288,0.5556033802979046
4,0.5556904715013499,0.555674273470791
5,0.5556842640823837,0.5556141494225627
6,0.5556715310185494,0.5556006654024715
7,0.5556588774914698,0.5558019004743685
8,0.5556528916180483,0.5556288770647262
9,0.555648661654029,0.5562362372727311
10,0.5556449814219896,0.5556148581410164
11,0.5556418958354392,0.5556102169062896
12,0.5556400539090588,0.5556803415785948
13,0.5556353877483082,0.5556602176602365
14,0.5556339484524433,0.5556738581314277
15,0.5556333396995514,0.5555989122864035
16,0.5556291232166055,0.5556030189724773
17,0.5556263092393678,0.555595735935656
18,0.5556248179486833,0.5555950612051611
19,0.5556255396641344,0.5556069968947701
20,0.5556211723320014,0.5555934157324193
21,0.555624554365697,0.5556163698804586
22,0.5556223677995037,0.5555917965862947
23,0.5556209081329403,0.5556359306754308
24,0.5556186681307383,0.5556602326575343
25,0.5556194212099973,0.5555979149513149
26,0.5556152240699066,0.5555963410337273
27,0.5556173857738139,0.5556081252121748
28,0.5556184193824545,0.555753894804725
29,0.555612044268087,0.5555958968534067
30,0.5556149294023578,0.5555861643171192
31,0.5556133678397053,0.5555937122174587
32,0.5556135493971839,0.5556026754249118
33,0.5556092498979621,0.5555892705325749
34,0.5556117480946651,0.5557040508864239
35,0.5556113478479885,0.5555913545061874
36,0.5556096630435569,0.5555848044733848
37,0.5556076946356802,0.5555851599122987
38,0.555610931529727,0.5556543122154312
39,0.5556059939442493,0.5555984203336256
40,0.5556074016144157,0.5556264057052934
41,0.5556059784414095,0.5555933458337713
42,0.5556051059998284,0.555597046409588
43,0.5556056229370662,0.5556512264696599
44,0.5556054286881312,0.5555857608395238
45,0.5556047918868764,0.555597727322401
46,0.5556067167033201,0.5555909021320768
47,0.555604163728023,0.5556118534457299
48,0.555603846641189,0.5555895952669622
49,0.5556024623913307,0.5556302616377327
50,0.5556050561096024,0.5555963725073462
51,0.5556018676906238,0.5556141907168973
52,0.5556040032866855,0.5555852884098554
53,0.5556031140012566,0.5555849227952602
54,0.5556021745589779,0.5555828243567985
55,0.5556011228782841,0.5556002736979028
56,0.5556033116342644,0.5556519400393105
57,0.5556020942712587,0.5556004480747668
58,0.5556017331599249,0.5555908297486696
59,0.5555987942599153,0.5555863833900717
60,0.5556021961578819,0.555593369793951
61,0.5555977927202949,0.555588421366055
62,0.5556029692094809,0.5556422974868093
63,0.5555976466908478,0.5555957453718257
64,0.5556015375534167,0.5555981678939043
65,0.5555990358898139,0.5556546502610294
66,0.5555998580909293,0.5556615957551204
67,0.5556014726983316,0.5556699312354436
68,0.5555978835499137,0.5555977046637618
69,0.5555961640275769,0.5556125999680228
70,0.5556002223031467,0.5555829868718944
71,0.5555967669210531,0.5555859769840098
72,0.5555985311604807,0.5556115727862413
73,0.5555954630062437,0.5555813750617261
74,0.555600254003784,0.5555801045510077
75,0.5555958528743082,0.5556679528049441
76,0.555595145215775,0.5555942691881071
77,0.5555970490714767,0.5556113823176022
78,0.5555983583589946,0.5555921378265836
79,0.5555945961976846,0.5556056725771789
80,0.5555974898560325,0.5555866290854461
81,0.5555943114662153,0.5555900638511696
82,0.5555959314565809,0.5556014495807013
83,0.5555950000784926,0.5555982940841845
84,0.5555942539314556,0.5555828812992011
85,0.5555945370623926,0.5555803884939283
86,0.5555936509796061,0.5556083650506164
87,0.5555941277315709,0.5555925368966891
88,0.5555936746341962,0.5555929497217126
89,0.5555954014658147,0.5556004313322214
90,0.5555934273002813,0.5555962222977252
91,0.5555918871377479,0.5555895924272372
92,0.5555931736943935,0.5555883646011353
93,0.55559402510976,0.5555837530947797
94,0.5555931616726523,0.5555922501140433
