epoch,loss,val_loss
0,0.7496720769608668,0.5028086595757063
1,0.5017103634447398,0.502072060755057
2,0.5019400563350943,0.50177209737689
3,0.5017649779332084,0.5015996237133824
4,0.501555895312504,0.5029766591944436
5,0.502313401347907,0.5015722369962885
6,0.5018681994704313,0.5018482480862344
7,0.5019667140889229,0.5018585878749227
8,0.5023772788910287,0.5017166299413341
9,0.5016975080936146,0.5016328526097674
10,0.5026423390521559,0.5017174759576487
11,0.5018395159287662,0.5020177951154783
12,0.5019772319214597,0.5015787514605263
13,0.5028685151144515,0.5047331812769867
14,0.5070295242992174,0.548500047173611
15,0.5086122010413374,0.502256711324056
16,0.5015146724629463,0.50222710537356
17,0.5015538994039984,0.5023682343867398
18,0.5018216976823733,0.502559763054515
19,0.5018069640918603,0.5025010838989139
20,0.5015358110114894,0.5015747819760049
21,0.5014967719713846,0.5017280841982642
22,0.5017872967153248,0.5017595009286274
23,0.5017414749130722,0.5015491177869398
24,0.5017763847528502,0.5018084123153095
25,0.5018631805129138,0.5022641392641289
26,0.5019512037898219,0.5027535044869711
27,0.5025822298471317,0.5031839974166811
28,0.5013788667452119,0.5015854604484499
29,0.5016273272437951,0.5017679980558942
30,0.5014884119193991,0.5015601113785145
31,0.5013999424547496,0.5015898028085398
32,0.5014527760426819,0.5015361253605333
33,0.5015159919280414,0.5017400286918463
34,0.5014691727105961,0.502076389715653
35,0.5015533828304104,0.5017272927040277
36,0.5015521212757712,0.5018958537153495
37,0.5016332139340482,0.5019705018331838
38,0.5016993744736802,0.5019135257994481
39,0.5016581462335217,0.5015352396077888
40,0.5018012405057902,0.5015359446983929
41,0.5014107068687754,0.5028233990188717
42,0.5016132157286316,0.5016194050626237
43,0.5018804901946115,0.5026565864104633
44,0.50181063108666,0.5022369544635448
45,0.502255787991122,0.5016373553017314
46,0.5016418790940474,0.5018796800642975
47,0.6054260185522626,0.977276041526203
48,0.9994110368018927,0.999999861384547
49,1.0,0.9999998567640319
50,1.0,0.9999998567640319
51,1.0,0.9999998567640319
52,1.0,0.9999998567640319
53,1.0,0.9999998567640319
54,1.0,0.999999861384547
55,1.0,0.9999998567640319
56,1.0,0.9999998567640319
57,1.0,0.9999998567640319
58,1.0,0.9999998567640319
59,1.0,0.9999998567640319
