epoch,loss,val_loss
0,0.34000688299205567,0.33753011347850165
1,0.3366215978198581,0.3358605570991834
2,0.33610395134819876,0.3368404631614685
3,0.33593396564324696,0.33579720511039096
4,0.3358207897610134,0.3361008350253105
5,0.335759016626411,0.335672026515007
6,0.3357049040926827,0.3363554444710414
7,0.3356820098294152,0.3356623988747597
8,0.3356454699900415,0.3355075148145358
9,0.3356198611855507,0.33543819228808086
10,0.33559564679198794,0.33546685604254406
11,0.3355816058648957,0.3354852393468221
12,0.33555810122357477,0.33551558113098146
13,0.3355458252363735,0.33543861641486483
14,0.33553818427854115,0.33546330058574675
15,0.33552715595563254,0.3354505231777827
16,0.3355291840235392,0.3355522588690122
17,0.33552126804325316,0.33539125696818034
18,0.3355223471787241,0.3356771119236946
19,0.3355196188489596,0.3354136097431183
20,0.3355139193137487,0.3354125100374222
21,0.3355069403184785,0.33537096782525383
22,0.3355004625386662,0.33545920757452646
23,0.3354897149271435,0.33541429007053375
24,0.3355106656286452,0.33537360733747484
25,0.3354903393652704,0.3357677663167318
26,0.3354909491605229,0.3353415785431862
27,0.33547542058759267,0.3354610107938449
28,0.33547966507408356,0.33545724022388457
29,0.3354744030899472,0.3354436458150546
30,0.3354796599149704,0.3354632472395897
31,0.33548485199610395,0.3353581347465515
32,0.33547558993763393,0.3353688817421595
33,0.3354717730416192,0.3354385506709417
34,0.33548472199837365,0.3353347039222717
35,0.3354648485249943,0.3354191169540087
36,0.3354706210957633,0.3353712599078814
37,0.3354766809542974,0.33605509879191714
38,0.3354711106353336,0.3354629976153374
39,0.335472767982218,0.3356337657769521
40,0.3354766237669521,0.3353953690926234
41,0.33546193199687535,0.33551525314648944
42,0.3354692721565565,0.3354416246612867
43,0.3354656081530783,0.33542552961905797
44,0.33545624346203273,0.335320902009805
45,0.33546864616208605,0.3354644573132197
46,0.33546507769823075,0.3353829384446144
47,0.3354596920278337,0.335353797852993
48,0.3354450486169921,0.33552894792954124
49,0.3354593792292807,0.3354942128062248
50,0.33544790852069856,0.3353729281226794
51,0.33545462133487064,0.3360693634748459
52,0.3354437897470262,0.3355447547038396
53,0.3354513713386324,0.33556819148858386
54,0.3354531248410543,0.3355638284087181
55,0.33544812183909944,0.33541856692234673
56,0.33543816343281,0.3362345106601715
57,0.3354540391365687,0.3354965821305911
58,0.33544346235195793,0.33533403489987057
59,0.3354458866980341,0.3357336801290512
60,0.3354505866236157,0.33532178072134655
61,0.3354481771522098,0.3353227190375328
62,0.33544628983736036,0.3353971138596535
63,0.33544377460744645,0.3353302983045578
64,0.335457025302781,0.33561564739545185
