epoch,loss,val_loss
0,0.5623789612152119,0.5586536378481843
1,0.5584191005364461,0.5586022754460943
2,0.5580200362643463,0.5577710692403334
3,0.5578460092012002,0.5578673810876037
4,0.557625824129491,0.5573237211769331
5,0.5574979468466414,0.5574932466369704
6,0.5574321306699499,0.5572512617182199
7,0.5573664267695371,0.5582116620120576
8,0.5573770773759301,0.5571573130250272
9,0.5573005513147755,0.5577361410368169
10,0.5572800864176072,0.5573792428295902
11,0.5164565799056003,0.4464841622720581
12,0.44656421931194046,0.446401200948223
13,0.4465217156224117,0.44630993302939254
14,0.446472818955896,0.44642387035466896
15,0.44648050554677965,0.44632376867251716
16,0.4464501356262431,0.4466057714250484
17,0.4464604241467051,0.44643732531194946
18,0.4464295071876424,0.4465335493495979
19,0.44641922730879285,0.44766801255512473
20,0.44640405187993526,0.4463056848895165
21,0.44642856592474833,0.4463536323300071
22,0.44639787840069517,0.44630855082282356
23,0.44640794959189906,0.4464387790440921
24,0.4463930177535724,0.4463570296172764
25,0.44637666593659914,0.4463258013683868
26,0.44638575955081,0.44637422844138985
27,0.4463587280307281,0.4466432599364676
28,0.4463761825107537,0.4462361885359506
29,0.4463444968855821,0.4462687069665705
30,0.4463574914763221,0.44625131381356686
31,0.4463529335735597,0.446223737879959
32,0.4463475035001787,0.44660712780786804
33,0.44635131449547377,0.44665258686536596
34,0.44633340542245536,0.4463203669333872
35,0.44632470172718836,0.4466031045535066
36,0.4463538919544193,0.4464158249256333
37,0.4463256400134394,0.4462699811600574
38,0.4463110407710973,0.4462372460968737
39,0.4463253353029248,0.4462058963018375
40,0.4463299264512445,0.44637035680172166
41,0.44631910848312434,0.4462581834337552
42,0.4463243609056981,0.4465887654951725
43,0.44632077266324927,0.4462130653799024
44,0.4463256063087841,0.4462428629398346
45,0.44629486219893155,0.4477506273141866
46,0.44631353525005313,0.4464059806491246
47,0.4462940401161404,0.4462781677470905
48,0.4463111029828192,0.44630307454625073
49,0.44630046536329854,0.4462404014011175
50,0.4463241801141716,0.4461992675997779
51,0.4463220959078983,0.44651981960455184
52,0.4463082565717284,0.4462624098467768
53,0.4462893748120572,0.44635191358644377
54,0.4463192184749568,0.4461970618433751
55,0.44629519819831526,0.44631991336126775
56,0.44629810732558345,0.4462805562072593
57,0.4463096403372461,0.4462560046991107
58,0.4462915295916309,0.44622847804656396
59,0.4463005759696282,0.44619392437615407
60,0.4462831101462536,0.44668947894579125
61,0.4462974181840025,0.4463451426466996
62,0.44627934762721005,0.44618146444668544
63,0.44628178251769207,0.44623488718759335
64,0.4462912349209267,0.44619251358006196
65,0.4462790580026396,0.44621768391161937
66,0.44627787241284345,0.4461826808399361
67,0.4462702448491824,0.44616697442442843
68,0.44626935185705,0.44636893763435687
69,0.44627651705736643,0.4465161161742199
70,0.4462661923620337,0.4463076242146362
71,0.446271382431291,0.44665585938221763
72,0.446278391795843,0.44649686751235507
73,0.4462729593374401,0.4463295230646583
74,0.4462666171400829,0.4462320172757132
75,0.44627389206797435,0.4462753313498816
76,0.44628021077915625,0.44621047590565743
77,0.44626602060771703,0.4461764151937613
78,0.4462714596638787,0.4462708985391385
79,0.44628166601921054,0.44642904255881205
80,0.4462591351179787,0.446253888408836
81,0.4462654313160048,0.4464261985002617
82,0.44625972268334047,0.4462073842881631
83,0.44625505255438985,0.44622762922021947
84,0.44625085882834753,0.4461701914039498
85,0.4462657603326816,0.44625452993525466
86,0.44625218292532537,0.4462017883585937
87,0.4462510322963934,0.4464341396729349
