epoch,loss,val_loss
0,0.5070386913087633,0.5040797459681828
1,0.5034707233111063,0.5030498482783635
2,0.5032368734545178,0.5028912169138591
3,0.5030425818893645,0.5029236005544663
4,0.5029256605439716,0.5025206086238225
5,0.5027371762328677,0.5027524468501409
6,0.5026102759308285,0.5030361790657043
7,0.5025659224722121,0.5024418340126673
8,0.5025072797669304,0.5024143946568171
9,0.5024471323225234,0.5024309542973836
10,0.5024456317159864,0.5027321028312047
11,0.5024236612849765,0.5025405929485957
12,0.5024184637996886,0.502809580206871
13,0.5023946427636676,0.5023054841359457
14,0.5023806784682804,0.5022157266139984
15,0.5023792603413264,0.5023694993257523
16,0.5023607176144917,0.5022835962375005
17,0.5023496278259489,0.5024851148525874
18,0.5023324115276336,0.5020810684760412
19,0.5023310094409519,0.5037569538752238
20,0.5023188374969695,0.5025072584152221
21,0.502305310037401,0.5022328536510468
22,0.5022885206275516,0.502307419260343
23,0.5022896142933104,0.502701243797938
24,0.5022739036348131,0.5028084036111832
25,0.5022873985767364,0.5023921376069387
26,0.502264111134741,0.5021948468287786
27,0.502250607252121,0.5021285010178884
28,0.5022632590929668,0.5021075198252996
29,0.5022477582560645,0.5021571048100789
30,0.5022453546524048,0.5022021857102712
31,0.5022366178035736,0.5021638142665227
32,0.5022427583932877,0.5021145833730698
33,0.5022392335600323,0.5023406432469686
34,0.5022358276314206,0.5023436884880066
35,0.5022294787036048,0.5020602323611577
36,0.5022306470870972,0.5025228425264359
37,0.5022307235664791,0.5024512284596762
38,0.502213138686286,0.5023609819412231
39,0.5022186357710097,0.5021331772009532
40,0.5022210127512614,0.5023591196537018
41,0.5022182184722689,0.5020386862754822
42,0.5022107814417945,0.5021805053551992
43,0.5022185755040911,0.5020039157470068
44,0.5022212310499615,0.5022459676265717
45,0.5022168687449561,0.5020384463071823
46,0.5022081227170097,0.5021329384247462
47,0.5022304235166973,0.5020922425587973
48,0.5022087349229388,0.5020814695358277
49,0.5022093960311678,0.5025996274153391
50,0.5022205164300071,0.5023559747139613
51,0.5022103123929765,0.5022175224622091
52,0.5022076112031937,0.5022903312842051
53,0.5022078861925338,0.5023066431681316
54,0.5022056569788191,0.5021085375547409
55,0.502218982497851,0.5020706718762715
56,0.5021977665821711,0.5022155394951503
57,0.5022200203736623,0.5022851473490397
58,0.5022146945926879,0.5020299778381984
59,0.5022196032736036,0.5022364672819774
60,0.5021996644867791,0.5021535060803095
61,0.5022105845610301,0.5021546097993851
62,0.502202919708358,0.502412148753802
63,0.5022003806034724,0.5021424226760864
