epoch,loss,val_loss
0,0.8904682170675673,0.889762053359531
1,0.8896075886110348,0.8899114026621021
2,0.8894701801249615,0.8894412037752403
3,0.8893949786956102,0.889370499946935
4,0.8893792579506328,0.889460669587327
5,0.8893569482431283,0.889360264246872
6,0.8893496216205664,0.8892997809142688
7,0.8893322707432597,0.8893432197144842
8,0.8893250838537186,0.8892816309005983
9,0.8893195862144445,0.8893662353603183
10,0.8893148011299602,0.88928965903985
11,0.8893071434433181,0.8894225248036255
12,0.8893032626532961,0.8892693421976738
13,0.8893012791298941,0.8892722931452484
14,0.8892954018236814,0.8893452229334167
15,0.8892925650185456,0.8893352446425937
16,0.8892909672833889,0.8894171827484302
17,0.8892924688130629,0.8893029273295817
18,0.889283721890407,0.8893371585285101
19,0.8892899326161409,0.8892784821780089
20,0.8892809782711197,0.8892446539538078
21,0.8892777133160887,0.8892685346212932
22,0.889275262763029,0.8893052951869539
23,0.8892778065327015,0.8892621692297772
24,0.8892773396166351,0.889436169090697
25,0.8892760118815818,0.8893333954787431
26,0.889273576069354,0.8892688073827966
27,0.8892725152508748,0.8892483216953041
28,0.8892744372843326,0.8893240774535659
29,0.889271085148802,0.8892423044067459
30,0.8892699995918828,0.8893613242038131
31,0.8892676189495079,0.8892535535336724
32,0.8892707966498894,0.8892913525808538
33,0.8892661819333563,0.8893295977015058
34,0.8892667467406311,0.8892390140824519
35,0.8892679855250544,0.8892454913177206
36,0.8892701096507657,0.8892385208577139
37,0.8892644755481637,0.8894283822097494
38,0.8892663825465568,0.8892452328140031
39,0.8892651683357085,0.8892725389885252
40,0.889265388500015,0.8892417351897833
41,0.8892609312256948,0.8892554179018839
42,0.8892647756972795,0.8893559127232573
43,0.8892608182339489,0.8892470711514021
44,0.8892639656441178,0.8892391889030229
45,0.889261383563428,0.8892412008777741
46,0.8892624296110999,0.8892419928652477
47,0.8892567137795897,0.8894717330080699
48,0.8892609231204855,0.8892637803004338
49,0.889254956233369,0.8894242852852303
50,0.8892588228055524,0.8893145723023427
51,0.8892578117613413,0.8892467738676899
52,0.8892584551571995,0.8892433352269251
53,0.8892625548162723,0.8892368794966572
54,0.8892566543524313,0.8892692272775522
55,0.8892605510404961,0.8892751745195602
56,0.8892571660408065,0.8893535949456189
57,0.8892599686273654,0.8893793863634909
58,0.8892564740823201,0.889246474454184
59,0.8892571756952744,0.8892366376467438
60,0.8892547137665239,0.8892491277630808
61,0.8892547700525686,0.8894288192315966
62,0.8892559705969689,0.8892359387194253
63,0.8892546764423305,0.8892970557544131
64,0.889253457623148,0.8892632981387912
65,0.8892577654239974,0.8892424585801496
66,0.8892570793864553,0.8892305425615523
67,0.8892560400398786,0.8892439660600042
68,0.8892551346402681,0.8893123238021623
69,0.8892540168305317,0.8892345725454704
70,0.8892536212821157,0.8892433611394158
71,0.8892533783025321,0.8892356159373489
72,0.8892522565715311,0.8893099549686346
73,0.8892551781654395,0.8892517000214929
74,0.8892499766270152,0.8892411240868769
75,0.8892544630296042,0.8892639478737899
76,0.8892523307679192,0.8893138737004093
77,0.8892533186639677,0.8892306377810817
78,0.8892511952852767,0.8892447169602066
79,0.8892524017450996,0.8894498521873436
80,0.8892487759958437,0.8892522394509232
81,0.8892515986115386,0.8892316616794311
82,0.8892504189000898,0.8892494676722487
83,0.8892467076828802,0.8892373785783281
84,0.8892532472032357,0.889287147421399
85,0.8892464022036526,0.8892545359602045
86,0.8892501520395225,0.8893000767189575
