epoch,loss,val_loss
0,0.5128039793567413,0.5071881259049731
1,0.5076236608398814,0.5067712784109282
2,0.5071823514229936,0.5066620653675449
3,0.5069137236991562,0.5085931552550929
4,0.5068026724247084,0.506644940583345
5,0.5065213288098258,0.5061003130067963
6,0.5064580638895747,0.5060738876794763
7,0.5063242340455169,0.5063273773891458
8,0.5062752565387079,0.5066300768118638
9,0.5061978946699409,0.5078469173488191
10,0.5061271902095319,0.5059995641483562
11,0.506095964686529,0.5067885396202504
12,0.5060771812609932,0.5064945691572525
13,0.5059798460572714,0.5058527905355317
14,0.5060002292633953,0.5059968286944974
15,0.5059324447861075,0.5058753304682654
16,0.5059656917499046,0.5057947945653949
17,0.5059031977798143,0.5071647297951483
18,0.5058686331708651,0.5057064270559078
19,0.5058689268389686,0.5057582549658366
20,0.5058434240796977,0.5058943113973063
21,0.5058179758087322,0.5069100441767027
22,0.5057989536301543,0.505823056159481
23,0.5058269601063475,0.5060229022213011
24,0.5057881173407113,0.5056401660365443
25,0.5057415371473716,0.5058085173590308
26,0.5057781041406042,0.5055863330441136
27,0.505766096423197,0.5059250591410597
28,0.505746436880141,0.5062524427551194
29,0.5057202356545515,0.5062735313517284
30,0.5057004382598299,0.5066609165212949
31,0.5057064721468552,0.5056248821928246
32,0.5056780356804306,0.5056293894871885
33,0.5056808031144401,0.506031587194864
34,0.5057069384452691,0.5067709682005511
35,0.5056596405492472,0.5058552912979505
36,0.5056668866742615,0.5056365820373554
37,0.5056546459638354,0.5060329568001531
38,0.5056666671441727,0.5061515961332298
39,0.5056445404448019,0.505610431364689
40,0.5056612628571899,0.5056434643771454
41,0.5056086160223132,0.5060292178288879
42,0.5056160617098091,0.5055463603057577
43,0.5056172434761551,0.5062694977885737
44,0.5056619921603792,0.505562009911975
45,0.5056058190727204,0.5055914136671251
46,0.5056086832651812,0.505942601986026
47,0.5056159516706469,0.5054765422941733
48,0.505612304956705,0.5059103091360617
49,0.5055790146081479,0.5059371384438451
50,0.5056322704972488,0.5054970134576556
51,0.5056051874327683,0.5059602083698396
52,0.5056209567482621,0.506548355382962
53,0.5055749179340009,0.5054778116512535
54,0.505592236515105,0.5056616683751715
55,0.5055749735195662,0.5056148797939196
56,0.5055810521236822,0.5062791318514802
57,0.5055787406331393,0.5056707812006361
58,0.5055764036326825,0.5055071326698323
59,0.5055595441543018,0.505524123513669
60,0.5055784997620936,0.5058200221203693
61,0.5055558984484823,0.5054599536263913
62,0.5055908615087352,0.5055362167784357
63,0.505553073585416,0.5059013556901634
64,0.5055534623940843,0.5054867040726446
65,0.5055974572267867,0.5056010846760374
66,0.5055553333556516,0.5055369353471856
67,0.5055545114692787,0.5055288079654608
68,0.5055542210803337,0.5064103596559529
69,0.505588385118398,0.505842324462777
70,0.5055397348324985,0.5068367993269606
71,0.5055335997372423,0.5055228848611155
72,0.505552659210827,0.506525030680389
73,0.5055455079140013,0.5055269846253596
74,0.5055291938440334,0.5054935500284579
75,0.505569263852748,0.5060367496374523
76,0.5055534562570011,0.5056277419733942
77,0.5055212577436466,0.5062748658745816
78,0.5055682750290376,0.5054917589014872
79,0.5055187925712347,0.5055007997280907
80,0.5055534169141965,0.5056994045638564
81,0.505550469695994,0.5058015471948287
