epoch,loss,val_loss
0,0.6701385786798265,0.6686838883161544
1,0.6420746446185642,0.5856265852848689
2,0.5854306509362327,0.5855062842766444
3,0.585210293703609,0.5850026938915253
4,0.5851457425620821,0.585186169664065
5,0.5851092797650231,0.5851669224103292
6,0.5850755062898,0.5850364997386932
7,0.58505519815286,0.5853438093662262
8,0.5849392613304986,0.584734749952952
9,0.5847991227043999,0.5847112989028295
10,0.5847697596682443,0.5848061540921529
11,0.5847539744509591,0.584671151359876
12,0.5847342702680164,0.584662725965182
13,0.5847336257961061,0.5845652284622193
14,0.5847256843513913,0.5848172125021617
15,0.5847149174080954,0.5846527404785157
16,0.5847195152176751,0.5845992972056071
17,0.5847186324331496,0.5847777935663859
18,0.584702465083864,0.5847108789285024
19,0.5847014629311031,0.58473477435112
20,0.5847008105516434,0.5846548957029979
21,0.5846971201896668,0.5850926528771718
22,0.5846959260304769,0.5846516332228978
23,0.5846902417871687,0.584606493751208
24,0.5846932665506999,0.5847775500615437
25,0.5847012797991434,0.5848583616415659
26,0.5846928646564483,0.5847120953003565
27,0.584683346774843,0.5846437205076218
28,0.584688651614719,0.584584313750267
29,0.5846862320767509,0.5851237800518672
30,0.5846904013024437,0.5845560371478399
31,0.5846816218164232,0.5845889498392741
32,0.5846902412043677,0.5848751581509908
33,0.5846904242038726,0.5845691613753636
34,0.5846798416376114,0.5846984370946884
35,0.5846841074095832,0.5845886096556981
36,0.5846847680542204,0.584965002377828
37,0.5846932364304861,0.5846792335112889
38,0.5846774194373024,0.5847644894520442
39,0.5846822009483973,0.5845837798515956
40,0.5846804415120019,0.584614304502805
41,0.5846791875097487,0.5846782778898875
42,0.5846727961566713,0.5847323866685231
43,0.5846840015914705,0.5846298004786173
44,0.5846761492490768,0.584662614941597
45,0.5846750966972775,0.5846109309593837
46,0.5846736475361718,0.584607536872228
47,0.5846844369305505,0.5845921047528585
48,0.5846845986180835,0.5845561711390813
49,0.5846740982664956,0.5846103874047597
50,0.5846750823921627,0.5845492494503657
51,0.5846868754360411,0.5847242115338643
52,0.5846794190274345,0.5845633964538575
53,0.5846792274845971,0.5848219595750173
54,0.5846795493099425,0.5846068617105484
55,0.5846734482182396,0.5845939615170161
56,0.5846784762673908,0.5845928814808528
57,0.5846759959724215,0.5845976560513179
58,0.584682579278946,0.5848430478175481
59,0.584677814245224,0.5846474029223124
60,0.5846733619769414,0.5850978564421336
61,0.5846794712278578,0.5846034092108409
62,0.5846798323790232,0.5847767177025477
63,0.5846752893394894,0.5846463752190272
64,0.5846799593369166,0.5846742310126622
65,0.58467851181825,0.5847288461923599
66,0.5846737970908483,0.5845862943728765
67,0.5846759473615223,0.5846156897544861
68,0.5846735788053936,0.5848351451158523
69,0.5846773715549045,0.5845676003694534
70,0.5846681814856,0.5845960897604624
