epoch,loss,val_loss
0,0.8369372029871261,0.8351614569316135
1,0.8352218259352884,0.835359051949333
2,0.8351166335384498,0.8356371970981286
3,0.8350038138974254,0.8351358896153737
4,0.8349429053757045,0.8350780392698851
5,0.8349002753868986,0.8347939648344262
6,0.834866863372641,0.8348088624163833
7,0.8348358626025582,0.8348535198431749
8,0.8348018869548022,0.834691512436784
9,0.8347897182793749,0.8348403089099723
10,0.8347834057293354,0.8350387054992373
11,0.834761722423964,0.8346768149075378
12,0.8347492611145869,0.8348722537753008
13,0.8347439816509837,0.8347239481899934
14,0.834744408423585,0.8346707322165628
15,0.8347245731438133,0.8346777457161517
16,0.834738677905672,0.8347962909537568
17,0.834703927479572,0.8348655480604905
18,0.8347021183021817,0.8346705042103089
19,0.8347070070875939,0.8346753199402215
20,0.8346940571638541,0.8348533155604568
21,0.8347007178142958,0.8346651214523884
22,0.8346944535373845,0.8347699987977077
23,0.8346951154352072,0.8346136089294187
24,0.8346794040433653,0.8347165547292819
25,0.8346803036119581,0.8346702451445625
26,0.8346768099480338,0.8349380365376436
27,0.8346858831126635,0.8346286248628318
28,0.8346695282886772,0.8346378354813265
29,0.8346772887446412,0.8346075196419993
30,0.8346659466925,0.8346021069486443
31,0.8346591842619271,0.8346441998375261
32,0.8346699554541149,0.8346431050052122
33,0.8346674325339597,0.8346368563678069
34,0.834661816200501,0.8345988920249655
35,0.8346587809474978,0.8345986160687714
36,0.8346504907863234,0.8348374098465401
37,0.8346647207770195,0.8345970209124071
38,0.8346655452262951,0.8346127611236004
39,0.8346659515879676,0.8346539524885325
40,0.8346487960947195,0.8346115459875196
41,0.8346559948513916,0.8349910181745998
42,0.8346551538051714,0.8352884098258858
43,0.8346628627908865,0.8345961421949988
44,0.8346413058944393,0.8346106102685479
45,0.8346528964779366,0.8346197534731541
46,0.8346449151303665,0.8346848378997879
47,0.834652536448875,0.8346095645102318
48,0.8346471270913048,0.8346402020963191
49,0.834647119236154,0.8350521451190447
50,0.8346491922773535,0.8346022880698551
51,0.8346527176726793,0.8346097783474413
52,0.834645576225951,0.8346233543036298
53,0.834648259775185,0.8345997053991181
54,0.8346439865108102,0.8347175566197624
55,0.8346461052440921,0.8346265647606578
56,0.834643247388288,0.8346028445672161
57,0.8346389599100186,0.8346367829195027
58,0.8346518940737605,0.8346929476811336
59,0.8346433727662138,0.8346170005372381
60,0.8346324871347803,0.8347076646447478
61,0.8346379062540991,0.834682420347228
62,0.8346427240307778,0.8345854876354966
63,0.8346430935486533,0.8345844146927296
64,0.8346498529375048,0.8345970672058408
65,0.8346304468528256,0.8346048024688701
66,0.8346417112787538,0.8345856539960534
67,0.8346436402775643,0.8345902547942793
68,0.8346418113936688,0.834750224609233
69,0.8346345625124889,0.8347452160738242
70,0.8346327500685611,0.8347276995554751
71,0.8346460414302603,0.8350072632948163
72,0.8346308310208178,0.8345906547222185
73,0.8346351924414727,0.834615138091757
74,0.8346374944755436,0.8345947434825282
75,0.8346313858549382,0.8345946022653699
76,0.8346268899990327,0.8345826904176187
77,0.8346432879127572,0.834581189179243
78,0.8346389692686759,0.8345966255694406
79,0.83462967138899,0.8346839510477506
80,0.8346300309337111,0.8346426959960691
81,0.8346305576863378,0.8346209208663581
82,0.8346287915158588,0.834581134544117
83,0.834630701029825,0.8345770307569291
84,0.8346284226921521,0.8345884307738274
85,0.8346242801042618,0.8346154244306957
86,0.8346263417847581,0.8348938918586996
87,0.8346261070634167,0.8345706806289351
88,0.8346260497952809,0.8347341743651454
89,0.8346210215789692,0.8346023552766805
90,0.8346284100756345,0.8346948228757967
91,0.8346278583345093,0.8347127893722383
92,0.8346148476915105,0.8345551955788663
93,0.8346244437285211,0.8345743392300665
94,0.8346250229942274,0.8346736229087224
95,0.8346171290227863,0.8345918665748672
96,0.8346264527460604,0.8348024459393977
97,0.8346261848608053,0.8346546884210175
98,0.834618775169905,0.8345865351686407
99,0.8346299490044405,0.8346091766807044
100,0.8346214120252448,0.8345733088535943
101,0.8346196400482017,0.8345596816936143
102,0.8346279028007527,0.8345770444231057
103,0.8346194985631936,0.8346883318264491
104,0.8346224846154066,0.8345881967035772
105,0.8346159850689182,0.8346646345282902
106,0.8346158294165564,0.8348238812486823
107,0.8346272458370502,0.8346689684515259
108,0.8346080717467336,0.8346227036812169
109,0.8346248870830791,0.8345800897619564
110,0.8346197386438337,0.8345631064315587
111,0.8346125029084751,0.8346414179127506
112,0.8346229470430407,0.8346317393903993
