epoch,loss,val_loss
0,0.5152166899779235,0.5108400088090163
1,0.5087845754355843,0.5100122085871827
2,0.5082339680615615,0.5077482367863431
3,0.5078692168631973,0.5077039140625568
4,0.5075986805120366,0.507179896677694
5,0.507390790849676,0.5079063763097853
6,0.5072153277406369,0.5070253131703171
7,0.507053710393562,0.506744033172172
8,0.5069113276588556,0.5069213537069467
9,0.5068180373931969,0.506744493030141
10,0.5067653240159317,0.5068467491909528
11,0.5066714130805542,0.506905385844465
12,0.506729552853289,0.5064390072159969
13,0.5066162305804256,0.5066066320717483
14,0.5065442301400297,0.5064219961982803
15,0.5064983833849164,0.5073710900974037
16,0.506480360381841,0.5068587787985506
17,0.506449607808651,0.5067834786682508
18,0.5063958718103327,0.5064697687738291
19,0.5063482147048417,0.5066892257695162
20,0.5063576456977023,0.5062413136361551
21,0.5062882597777655,0.507018156382937
22,0.5062525337676468,0.5064136292443382
23,0.5062567106482637,0.5072112656704545
24,0.506212918397677,0.5064103340096864
25,0.506237659630917,0.506144019953962
26,0.5062425044857,0.5063006194886144
27,0.5061496282349247,0.5062082692943791
28,0.5062134689216403,0.5060876604345241
29,0.5061305259350702,0.5060909623839424
30,0.5061040988545678,0.5062478852331195
31,0.5061338155646462,0.5063629107794749
32,0.5061072953527244,0.5062106035779191
33,0.5061286782463001,0.5062824605120618
34,0.5061215554703455,0.5060369172108085
35,0.5060834891774562,0.5061036216709809
36,0.5060500669068548,0.5062504490315175
37,0.5060681737197673,0.5060393757027373
38,0.5060485556848492,0.5065992838395736
39,0.5060975195599187,0.5062695031426385
40,0.5060209408507949,0.5076512431980067
41,0.5060458586529643,0.5062230072897066
42,0.5060418407448869,0.5062836919174005
43,0.5060275624376771,0.5062003853303327
44,0.5060014030349679,0.5060635933805044
45,0.5059516005834991,0.5060765715449974
46,0.5060216316986111,0.5064044303988701
47,0.5060003524830872,0.5064584105541333
48,0.5059819462530916,0.505998705811891
49,0.5059974057373927,0.506684115566036
50,0.5059802772567763,0.50600910402705
51,0.5059113771248308,0.5061066518646316
52,0.5059814637978992,0.5065220970078083
53,0.5060050797961634,0.5061985616352659
54,0.5059743942307706,0.5059889536045917
55,0.5059898234295922,0.50627520897844
56,0.5059816212629881,0.5061352853443724
57,0.505991492946534,0.5059328525001299
58,0.5059238834273886,0.5059742011148344
59,0.5059341899469373,0.5065548053746188
60,0.5059330177396109,0.5063538965161326
61,0.5059392667945051,0.5058866922376174
62,0.5059339799096065,0.5060402673468105
63,0.5059436594716871,0.5059402816644674
64,0.5059418663201297,0.5058833304764911
65,0.5059733910827295,0.5059418352306925
66,0.5059149315600767,0.5061320821641396
67,0.5059169057705734,0.5061149679993282
68,0.5059385594041734,0.5062580900215925
69,0.5059310047148244,0.505996513100475
70,0.5059007256254843,0.5059968667941412
71,0.5059176677982989,0.5060536844558811
72,0.5059312522704001,0.5070753120015336
73,0.5059034206419132,0.5060451859871744
74,0.5058940365701293,0.5059640322370506
75,0.5058907223535685,0.5059861862925679
76,0.5058685759745126,0.5059859137677082
77,0.5059020907107623,0.5064372337189856
78,0.5059112055302518,0.5059323932929312
79,0.5058997261762584,0.5059497413209295
80,0.5058679565740183,0.5060264559005093
81,0.5058836320710235,0.506387538590443
82,0.50585821138459,0.5058740294600834
83,0.5058427510010246,0.506563576545668
84,0.5058790455519419,0.5064689135137326
85,0.5058892508561602,0.5059165740427249
86,0.5058855700956059,0.5066307066392071
87,0.5058892729425599,0.5061352825638082
88,0.5058879022061169,0.5071909978726957
89,0.505897209091854,0.5061711224669558
90,0.505905600173337,0.5061479964268119
91,0.5058515297655182,0.5064159951493995
92,0.5058459553906182,0.5059725464721472
93,0.5058727754495346,0.5059563191889533
94,0.5058725549002798,0.5065302266968096
95,0.5058707015611337,0.5084695987606759
96,0.5058797429620197,0.5069905116303683
97,0.5058348090025698,0.5059301657948837
98,0.5058411817709624,0.507642547516314
99,0.5058373109099205,0.5058864645567485
100,0.5058597979444182,0.5067511985674685
101,0.5058777294442156,0.5059813020542893
102,0.505849290499293,0.5059815846956693
