epoch,loss,val_loss
0,0.5641027753687676,0.5586463672055796
1,0.5586730831645436,0.5595919477140933
2,0.5581664257034037,0.5591928551273961
3,0.5578148022535229,0.5575506280432859
4,0.5576827182360657,0.5585600124695165
5,0.5575503219436263,0.5574831141727438
6,0.55748002508335,0.5583237815731512
7,0.5573963466383646,0.5572823827674903
8,0.5573269937608618,0.5575163741265574
9,0.5572964750050163,0.5572133670078022
10,0.5572597840931901,0.5576371385500981
11,0.5572313224860231,0.5572403721714729
12,0.5571988059487066,0.5573423997640018
13,0.557187309243649,0.5570538089529752
14,0.5571923623569551,0.5573194449651921
15,0.5571424192156171,0.5572059284368757
16,0.5571702916288866,0.5570357191947198
17,0.5571354560913832,0.557039548563898
18,0.5571430226920374,0.5571074722126755
19,0.5571071113073006,0.5570381086754148
20,0.5571160288842523,0.557028031082958
21,0.557100980915038,0.5572566343300396
22,0.55708236345737,0.5571782803417139
23,0.557101897476567,0.5572598655821371
24,0.5570758510064416,0.5570555169588283
25,0.5570621884853155,0.556927438498135
26,0.5570669520363687,0.5570151094763214
27,0.557034612639882,0.5570461616622603
28,0.5570630252773855,0.5576215108334278
29,0.5570519874013279,0.5569364624342906
30,0.5570505732091303,0.5569603398479244
31,0.5570293579865022,0.5570505815463386
32,0.5570492051255165,0.556942071926505
33,0.5570298350705636,0.5569674991792248
34,0.5570239154516083,0.5569973690042425
35,0.5570360277739405,0.5570969502032542
36,0.5570203401494911,0.5569467541006008
37,0.557005160494881,0.5569694396284023
38,0.5570241847575429,0.5569319063617337
39,0.5570123993871299,0.5569428687355951
40,0.5570078447075194,0.5570378316543239
41,0.5570134852737793,0.5572477089560062
42,0.5569887636129437,0.5573876078903823
43,0.5570172087146701,0.557203509139068
44,0.5570043942713785,0.5569167944396992
45,0.5569924855337626,0.5569339810174985
46,0.5569999438582857,0.5570202465980284
47,0.557017225067078,0.5572524914374718
48,0.5569800161278533,0.5569565636644292
49,0.5569935831865729,0.5571502934614423
50,0.5569795196835823,0.5569597963068089
51,0.556994764713904,0.5569138396170832
52,0.5569856466223552,0.5570710501659005
53,0.5570036788468319,0.5569043202672348
54,0.5569764582667267,0.5569888485572474
55,0.556984510955127,0.5571154284713877
56,0.5569901596068756,0.5569664267097454
57,0.5569753210328857,0.5569410759225377
58,0.5569796322509387,0.5568994470920515
59,0.5569858412672819,0.5569233179092408
60,0.5569653540289223,0.5569968479442833
61,0.5569829579812354,0.5569057869556229
62,0.5569689662978937,0.5569101091058319
63,0.5569756579090519,0.5569786493890635
64,0.5569677435385146,0.5572547625371304
65,0.5569582776123988,0.5568827493315003
66,0.5569576887253554,0.5569046069019782
67,0.5569902707535525,0.556957266141404
68,0.5569547095430469,0.5569605472070112
69,0.5569730936148596,0.5571406580674145
70,0.5569630449624484,0.5569843439547063
71,0.5569684683154078,0.557414614059789
72,0.5569643121367972,0.5569399950817856
73,0.5569706595822281,0.5571982835125983
74,0.5569490910000806,0.5569635098092905
75,0.5569579484722704,0.5568903746439269
76,0.5569721042870879,0.556906270418806
77,0.5569520887790129,0.5569480981779453
78,0.556956031100787,0.5568892232241761
79,0.5569543214206593,0.556911719259494
80,0.5569434280831635,0.5571050740944836
81,0.5569590429484697,0.5569580670030182
82,0.5569529449801999,0.557062111598978
83,0.556947410138212,0.5568616161867052
84,0.5569542488981645,0.5568812176252417
85,0.5569513973301096,0.5568661914569865
86,0.5569705765115232,0.5569517021735312
87,0.5569404567252416,0.5569239538301605
88,0.5569483981344419,0.5569582015941515
89,0.5569499794935259,0.5570296336640199
90,0.5569571156046206,0.5570858006737665
91,0.5569719699504406,0.5568917678248497
92,0.5569384201484128,0.5569599173500875
93,0.556956286849132,0.5568851679785376
94,0.5569453220682584,0.5569296777987894
95,0.5569395376252635,0.5571207684855307
96,0.5569439420220655,0.5568760062565579
97,0.5569513142420505,0.5569105711527557
98,0.5569425466528856,0.5570647064272878
99,0.5569305709279821,0.5569232222164239
100,0.5569522425247772,0.557501659292737
101,0.5569436025640647,0.5568979292294524
102,0.5569406909299006,0.5569664046722961
103,0.5569454586641095,0.5570814283846626
