epoch,loss,val_loss
0,0.453340097919679,0.44771520465834264
1,0.4480743971872121,0.4479628173796178
2,0.4475255899719074,0.44711343082541566
3,0.44707505882722687,0.44664936463531135
4,0.4469528708913763,0.44647763108201416
5,0.44679184620312656,0.44663266268912377
6,0.4467567915441474,0.44656255156467334
7,0.44663648686493435,0.44681192930815533
8,0.44660324036062976,0.44674607302355707
9,0.44657241508864204,0.4463413496467079
10,0.44653437197310164,0.446400967203358
11,0.4465568136555018,0.4463347984158963
12,0.44647241665984383,0.4463825066835058
13,0.44644918286223434,0.4463026465316564
14,0.4464360977116548,0.4476438691391247
15,0.4464215496177196,0.4467528072983101
16,0.4464191938987649,0.4471517910140915
17,0.4464076911319572,0.4462173502883012
18,0.44638634132538424,0.44630247267245066
19,0.44637649336466206,0.44652991361416894
20,0.44633765695382543,0.4464023154515486
21,0.4463651110665081,0.44621468291389144
22,0.4463494708486592,0.4464404347812567
23,0.44633103546239145,0.44622129419305484
24,0.44634624749129814,0.44632896643418535
25,0.44630192799112295,0.4461865862604998
26,0.44631439494535435,0.44625515890476425
27,0.4462983885294133,0.4464989482764866
28,0.4463346777636287,0.44618638759807083
29,0.44630947177413377,0.446210279106798
30,0.44628756947428794,0.44640978426850464
31,0.4463189142491771,0.4463345934380373
32,0.44629882318635195,0.4466464364351173
33,0.44628594797252746,0.446435045131087
34,0.4463028294339714,0.44620715770177155
35,0.4462711331627749,0.4462594239055075
36,0.4462609597145931,0.4463832494786596
37,0.44629385538086747,0.44616281935949775
38,0.4462888867660452,0.44648100810666236
39,0.44626312564306964,0.4463421768201492
40,0.44626887857159064,0.44626951949767973
41,0.4462572384102434,0.44615292670413226
42,0.4462732770435043,0.44619316469055254
43,0.4462577122147517,0.4461924066614572
44,0.44625092056913895,0.44636362785145306
45,0.4462523285528645,0.44624480062323824
46,0.4462556703788055,0.4462521030796373
47,0.44625430534835103,0.4461745597588513
48,0.4462471091952064,0.4461059821154876
49,0.4462553052621967,0.4462965228717321
50,0.4462537595825992,0.44613150655483785
51,0.44626541744130627,0.4461273216875848
52,0.44624423750611714,0.44618533195987825
53,0.44622091519331075,0.4460996602516316
54,0.4462522429725027,0.4461027549159142
55,0.4462319016066134,0.4461306409415773
56,0.4462355186251192,0.44633500786040614
57,0.4462628446459128,0.4470072599114023
58,0.44623609914506224,0.44611225669496407
59,0.44625902646321,0.44649031128244426
60,0.4462326761262217,0.44666584912068197
61,0.44623109785185017,0.44631016076942237
62,0.4462432294298721,0.4461870905039624
63,0.44625914128700933,0.44717032717120264
64,0.44623445095369535,0.44619711610874524
65,0.44624740900591486,0.44625738127060033
66,0.4462395721345892,0.4462421371682406
67,0.4462424331938245,0.44611777065705427
68,0.44624733290845087,0.4463268963338128
69,0.4462234372990009,0.4464733237072493
70,0.4462243747348952,0.4466129589169552
71,0.44622342702333084,0.4461563303955731
72,0.446224984855615,0.44609409422791624
73,0.4462542219352947,0.4461642663325033
74,0.4462348026953282,0.4461921578749238
75,0.4462254326244554,0.4461497497026145
76,0.4462158560324535,0.44619660631894476
77,0.44623514378778095,0.4461197251717447
78,0.4462174950493545,0.4461183955888299
79,0.4462204733118893,0.44636934483909135
80,0.4462176074408022,0.4464889896123048
81,0.4462276529221242,0.4461015463614878
82,0.44620915347038836,0.4460854691104321
83,0.44621533095766436,0.44625017252512666
84,0.4462202377236257,0.44643317773087743
85,0.4462166709053553,0.4465708551572511
86,0.44622145983222156,0.44614916773646995
87,0.4462121443652174,0.44645548810438246
88,0.44621384657553687,0.4462585117325889
89,0.44623561712688065,0.4461580151363875
90,0.4462086201969137,0.44690246796489647
91,0.4462247598841896,0.44616633510175474
92,0.4461966635383814,0.4461063831674846
93,0.4462178932931964,0.44612178737413205
94,0.4462128264357427,0.4461499523879872
95,0.44619999891722983,0.44647775282043384
96,0.4462212691854704,0.44619731006787966
97,0.44620506133713067,0.44610969026390435
98,0.44618275204297214,0.4464191447712352
99,0.4462052932549769,0.44613671892925766
100,0.4462202759502384,0.4461441056160418
101,0.44619455301049,0.4461116150650138
102,0.446208197702522,0.4461317851141132
