epoch,loss,val_loss
0,0.46401965377728144,0.42038938993215563
1,0.4210003951589266,0.4234175165891647
2,0.42067660864194234,0.4204515326221784
3,0.42051110325256985,0.4202137044072151
4,0.4203793753186862,0.4205553970535596
5,0.42037282962931527,0.42018592049678166
6,0.42031674980454975,0.42028198172648745
7,0.4202641761170493,0.4200995956659317
8,0.4202303016583125,0.41997019761800763
9,0.4202278244694074,0.42006628594795864
10,0.42022487141688664,0.419953776439031
11,0.42021404277616076,0.4209724044998487
12,0.42020585107141073,0.42011814763148625
13,0.4201898835367627,0.42021233012278875
14,0.42017562915881473,0.4199795178572337
15,0.4201827641195721,0.42000940161943434
16,0.42016877200868397,0.42025799564520516
17,0.4201725495590104,0.4199407051602999
18,0.4201593935754564,0.4200639138619105
19,0.42015163491831886,0.4201533325910568
20,0.4201377277109358,0.4204069777727127
21,0.42013844364219244,0.4200762891173363
22,0.42012431348694695,0.4201422176559766
23,0.4201317388812701,0.41994234844048817
24,0.42011129741536246,0.42016997981071474
25,0.4201306742893325,0.4200020486712456
26,0.4201351932353444,0.42046226368347805
27,0.420128795378738,0.41993965339660644
28,0.42013685941033896,0.4200228531161944
29,0.4201205323603418,0.42012740757067996
30,0.42014449331495496,0.42006200007597605
31,0.42012649242083233,0.42010886615514753
32,0.4201218223704232,0.42001770524183907
33,0.4201341136958864,0.4200073474645615
34,0.4201146015856001,0.4199585060675939
35,0.4201226125690672,0.4206235784490903
36,0.42009442718823753,0.4199068491657575
37,0.4201148221095403,0.420029731631279
38,0.42011264395051534,0.4200183429320653
39,0.4201080045368936,0.42078960102796553
40,0.42007188115517297,0.42008607419331867
41,0.420057824909687,0.4201952893336614
42,0.4200529580646091,0.4200002994934718
43,0.42002402157915963,0.4198996747136116
44,0.42004500867260824,0.41984948100646335
45,0.42003238650163016,0.41985681209961573
46,0.4200115460091167,0.4203646491567294
47,0.4200259581605593,0.42014270118872327
48,0.420034036371443,0.4202198900183042
49,0.4200221788022253,0.42000863075256345
50,0.4200337215065956,0.41988693056503934
51,0.4200221150583691,0.42038224150737125
52,0.4200080770585272,0.41984135059515637
53,0.4200224163863394,0.42118441381057103
54,0.4199970347881317,0.42002563905715945
55,0.4199959568579992,0.4198250588377317
56,0.41997023097011776,0.41978645604848863
57,0.41994929495122696,0.4198855258027713
58,0.41993651902013357,0.41977426850795746
59,0.4199329126808378,0.42008408389488855
60,0.41993139180209904,0.41995318591594694
61,0.41993623571263416,0.4202125365138054
62,0.4199239448904991,0.41975292086601257
63,0.4199219578239653,0.4199013007879257
64,0.4199248702526093,0.4203222033580144
65,0.41992872218290966,0.4198312515417735
66,0.41993262513478596,0.41997885872920354
67,0.4199313362903065,0.42013037751118343
68,0.4199371121194628,0.41980860819419225
69,0.4199254674182998,0.4199945943951607
70,0.4199274648560418,0.41989803208907445
71,0.4199337572786543,0.4200520777901014
72,0.41992197896374595,0.4197474920749664
73,0.4199302512274848,0.42150010575850805
74,0.419923669675986,0.41980015963315964
75,0.41992724912696416,0.4200713503956795
76,0.4199260674185223,0.4198561311562856
77,0.4199221969180637,0.4197198547522227
78,0.41994561941093866,0.41999707333246866
79,0.41993271087937883,0.41976449551184974
80,0.4199206080502934,0.4197392104268074
81,0.41992223905192483,0.4197443780104319
82,0.4199090483056174,0.41980639322598773
83,0.41993449830346635,0.4198385634024938
84,0.41991903312338724,0.42108128356933594
85,0.4199388052225113,0.4197218244075775
86,0.4199326077832116,0.4197707973917325
87,0.41990371561050416,0.41974737819035846
88,0.41991627936230763,0.41992519025007885
89,0.41992132884263994,0.4197589213848114
90,0.4199234776894252,0.4197683357199033
91,0.4199371182852321,0.41975161971648534
92,0.41991530214415657,0.4198541986743609
93,0.419915002392398,0.41987029381593066
94,0.4199228751063347,0.41996124178171157
95,0.41992705504099526,0.41985519423087436
96,0.4199171592195829,0.4197783507903417
97,0.4199189634786712,0.41989811223745344
