epoch,loss,val_loss
0,0.6744688437166162,0.6690153207139993
1,0.6689171024580223,0.6685773888237719
2,0.6686097816968108,0.6686196831852271
3,0.6683460023893156,0.6680346548705184
4,0.6681755787515884,0.6683445670468635
5,0.6680968205725695,0.6679600331682721
6,0.6680116814820848,0.6681581972550518
7,0.6679843678084241,0.6679666281633874
8,0.6679312808019109,0.6678658377443887
9,0.6679324519971708,0.6681955806670651
10,0.5643606116677639,0.557125697745283
11,0.5571677766577527,0.5570833794532284
12,0.5571504359089996,0.5571607075021522
13,0.557158234418034,0.5572885409774023
14,0.5571244130074821,0.5570719518673332
15,0.5571241544753625,0.5569785770056561
16,0.5570917556209531,0.5569827332685958
17,0.5570940875752762,0.5570343529320236
18,0.5570953692332989,0.5570657481922405
19,0.557080469738899,0.5570820919633207
20,0.5570533692144959,0.5569817126536784
21,0.5570655630850946,0.5573642297654826
22,0.5570661458137565,0.5569984814665158
23,0.5570577903675857,0.5569318946182876
24,0.5570639141407913,0.5571751455811058
25,0.5570356999093472,0.556980482401978
26,0.557047883661647,0.5569292711560838
27,0.5570404486004554,0.5570421925253667
28,0.5570171773705831,0.5569731478063995
29,0.5570277478943523,0.5569298764612184
30,0.5570234966706252,0.5569055375331093
31,0.5570184840936206,0.5571960706864634
32,0.5570215862171648,0.556939865963039
33,0.557014280407834,0.5569825752793116
34,0.5570059264801575,0.5569278129572904
35,0.5570160075044988,0.5573183046381172
36,0.5570052906325959,0.5569507843211626
37,0.5569914646315661,0.5571116190098652
38,0.5569992207048008,0.5573359302788159
39,0.5569874575627765,0.5572641478282938
40,0.5569949589194534,0.5569137089897326
41,0.5570013257645353,0.556948646777321
42,0.5570022496597998,0.5569616482216431
43,0.5569877390916035,0.5568894998311404
44,0.5569831348491308,0.5569354333001981
45,0.556981260937346,0.5569434398457075
46,0.5569950915885179,0.5568971632136305
47,0.5570013900800619,0.5568647082922772
48,0.5569734656498858,0.5569148749926546
49,0.5569796149976891,0.5569000260705688
50,0.5569711570290997,0.5570971955140827
51,0.5569736077138937,0.5572070203703036
52,0.5569820458229453,0.556921132592942
53,0.5569582737013888,0.5569519856135839
54,0.5569729284839385,0.5569969205643344
55,0.5569604027344001,0.5570527926272257
56,0.5569625837780074,0.5571114263522714
57,0.556960333582568,0.5569567322139408
58,0.5569656930514899,0.5569599632885557
59,0.5569803867966291,0.5572703913482779
60,0.5569546630873788,0.5572247984687388
61,0.5569660363999912,0.5571984103240682
62,0.5569611759634855,0.5569005597022272
63,0.5569571938003675,0.5568810521520988
64,0.5569576684895466,0.5570893375808489
65,0.5569686894381406,0.5570704585861036
66,0.5569537322046746,0.5570213086551827
67,0.5569464795552624,0.5569380111197384
