epoch,loss,val_loss
0,0.3441376374548509,0.33774545973642883
1,0.3378361383559577,0.33737732334704906
2,0.33704886951756513,0.33649774693673656
3,0.336535059070324,0.33620872442834726
4,0.33631654836724434,0.3362797211180846
5,0.3362412430906376,0.3361141021730882
6,0.33609209791668115,0.3373801358284489
7,0.33597928018343776,0.33568411496081957
8,0.33594538286829023,0.3369605562379283
9,0.3358662051640288,0.33557826592667817
10,0.33580945386019956,0.3356819065569648
11,0.3358059037749466,0.33568647425464604
12,0.3357821261169997,0.33581604386677516
13,0.3357509165062385,0.33560109037915176
14,0.335703115355992,0.3355422481709615
15,0.3357120727518061,0.33567136682884274
16,0.33569025548960824,0.33554873618831116
17,0.33566703646714463,0.3354807831661281
18,0.3356590561111315,0.3360032512443533
19,0.33564520473902154,0.3357383954465833
20,0.3356460717432101,0.335483790656769
21,0.3356602014067963,0.3354584784424926
22,0.335625926796322,0.33573025210619567
23,0.33563337770941,0.33656193609568974
24,0.335614756487454,0.33548082937082047
25,0.3356067932016823,0.33548427690051624
26,0.3355990850213607,0.3357268184497398
27,0.3356014668887857,0.3354184831933999
28,0.33559171384815073,0.3354360366281741
29,0.335586126818475,0.33548995167682544
30,0.3355921017607102,0.33548037528104285
31,0.33557752342586417,0.3354241177254812
32,0.3355840506996624,0.335566115098319
33,0.33557580500315387,0.3360267814572337
34,0.3355716897607807,0.3356140154467031
35,0.3355597468231255,0.3355156828836531
36,0.3355576540067928,0.3354236616390219
37,0.33555556618255916,0.33547143523509687
38,0.3355539507200671,0.33542627563547556
39,0.33555970166153,0.335515624772822
40,0.335518869295754,0.33617412606184893
41,0.33554014666975857,0.33537101148079995
42,0.3355394196734973,0.33542488884393395
43,0.33554127443253423,0.335385213566773
44,0.3355402857437133,0.3355197919953254
45,0.33552472640993775,0.33545900537417483
46,0.3355238633151815,0.3360055126711985
47,0.3355192975919768,0.3354833464468679
48,0.3355230549998083,0.3363834783693697
49,0.3355164252173959,0.3357237247764029
50,0.3355261329647011,0.33577364584056674
51,0.3355217085640057,0.3353704754679138
52,0.33550815426734254,0.3354348119228117
53,0.33549129893030966,0.3354011560492125
54,0.33552668266118363,0.3353925319374643
55,0.3355190501231722,0.3353738555689308
56,0.33551792701014416,0.3356264259767887
57,0.3355074390557796,0.33547367110441695
58,0.335519229024272,0.3354442416586296
59,0.33552214892614407,0.33541332327994167
60,0.33549024193488614,0.33553455287114564
61,0.3354851883001646,0.3354059211373625
62,0.33549498733184796,0.33571426123010906
63,0.33551781831830046,0.33541929893399
64,0.33550095788701534,0.3362835970765012
65,0.33548628143732806,0.33551082861038944
66,0.3354916918408844,0.3354492857053913
67,0.3355035281423821,0.3355233157834699
68,0.3354812350290613,0.33542673467998174
69,0.3354909467082804,0.3356640596543589
70,0.33547704114328125,0.3353534655298844
71,0.33548015587466584,0.3353955522216579
72,0.33550996082976753,0.3362855085368192
73,0.3354862847898477,0.33566488071943335
74,0.33547862116687927,0.3353573395507803
75,0.3354842981087666,0.33571908334940304
76,0.3354879117002085,0.3353792386818169
77,0.33548686596767346,0.3355021998840881
78,0.3354607536118591,0.3353574982795763
79,0.3354858633808836,0.33533820394546754
80,0.33547726218160945,0.3358490333515716
81,0.33548473075182705,0.33561694540693504
82,0.3354392489906598,0.3353713898149968
83,0.3354637160698273,0.335403441909525
84,0.33545360594482626,0.3356573845997046
85,0.33548133955352577,0.33588239939573683
86,0.3354626795859081,0.33535063385076025
87,0.33545545327625714,0.33537229203408764
88,0.3354593905605745,0.3353344150719513
89,0.33546442529063475,0.3354329461938986
90,0.3354640275962117,0.3353903928406481
91,0.33545972808870717,0.33772047869029176
92,0.3354569304260136,0.33535862186410587
93,0.33544972743609525,0.3353537612754121
94,0.33544356035740686,0.3353776094043817
95,0.33546241968872137,0.3357022635546275
96,0.33543963638732566,0.33532035903954327
97,0.33547138715944874,0.3353400683136791
98,0.33543973785744746,0.33591369238148255
99,0.3354484132349667,0.33537427546368637
100,0.33547181235478807,0.3364441553800928
101,0.3354296697146701,0.33539309744207796
102,0.33545182522086214,0.33535399073110916
103,0.33544607281375655,0.3368523962296564
104,0.33546130988440764,0.3353223577474542
105,0.3354652755164483,0.33558995771053113
106,0.33546023361199595,0.3356076724180217
107,0.33545258596200894,0.33547301842616156
108,0.3354726013403216,0.3353370738384446
109,0.33542548176994935,0.3354348526846978
110,0.3354446161451345,0.33540612397063757
111,0.33546390914222507,0.33531416814321324
112,0.3354572108891338,0.3356307092878422
113,0.3354623952713344,0.3354316133127615
114,0.3354437262440253,0.33558857014989735
115,0.335433434630568,0.3353205179606123
116,0.3354571361200564,0.3353590085695754
117,0.33543637730985326,0.33574056649030587
118,0.33544949382108524,0.33534977209775085
119,0.33542858312872453,0.33540673541371935
120,0.335477103833033,0.3357504278495353
121,0.33544294290413484,0.33585576838062653
122,0.3354622383051793,0.33536177326372774
123,0.33543211921858823,0.33570532292941074
124,0.33545523007614536,0.3354409652815267
125,0.33543253182659655,0.33547296405725974
126,0.3354367915645404,0.3355363674258476
127,0.33541984196490865,0.335334073935194
128,0.33545041504853285,0.33540147325537045
129,0.3354312581388936,0.33563772840772016
130,0.3354476373739561,0.3354153711801723
131,0.3354191761402993,0.33532221130934303
