epoch,loss,val_loss
0,0.2853265837199158,0.22606482496857644
1,0.22557592920131153,0.22519089167316755
2,0.22520222110880747,0.22533813481529555
3,0.22508408064312405,0.2247944833834966
4,0.2250160360733668,0.2247680086592833
5,0.2249377717210187,0.22502905885378519
6,0.224912518216504,0.2247025319536527
7,0.2248621535036299,0.22476127781470617
8,0.2248600872589482,0.224638639519612
9,0.22483789320786793,0.22487141932050386
10,0.2248278412156635,0.22535369831323623
11,0.22481481465366152,0.22463258939981462
12,0.2248092108865579,0.2246662883559863
13,0.2247928039199776,0.2253749050696691
14,0.2247909955084324,0.22458334565162658
15,0.2247713534898228,0.2249136724571387
16,0.22478582108020784,0.2247379516561826
17,0.2247569459080696,0.22461629058917362
18,0.22475106129050254,0.22464776915311813
19,0.22475082266661855,0.22515986155470213
20,0.22473767168985473,0.22472137261430422
21,0.22473675574527846,0.22454847197731337
22,0.22472953471541404,0.22460100744167963
23,0.2247377531925837,0.2245811640024185
24,0.22472331112292077,0.22468087277809778
25,0.22471040076348517,0.22469831425944964
26,0.2247182930972841,0.2248853653271993
27,0.22471031856205728,0.22454678588112195
28,0.22471674228045677,0.22459544427196185
29,0.22471580322583518,0.2252859056890011
30,0.2247115390366978,0.22458881266911823
31,0.22471192455622885,0.22475626903772356
32,0.2247035504149066,0.22458058404922485
33,0.224694862243202,0.22464444775382678
34,0.2247062997751766,0.22471812919775644
35,0.2247022593650553,0.2246614963610967
36,0.2246904614402188,0.224624247888724
37,0.22469987349046602,0.22461209723353387
38,0.22470475624004999,0.22469466817378997
39,0.2246902432044347,0.22463273998101552
40,0.22468701032135222,0.22477831431229908
41,0.22468822390503354,0.22509824295838674
42,0.22468661223517525,0.2245821923414866
43,0.22469192894630963,0.22479232615232467
44,0.22468140830927424,0.2246632286508878
45,0.22468473766578567,0.22480643395582836
46,0.224685029566288,0.22483786647518475
47,0.22467356609635883,0.22463393782575924
