epoch,loss,val_loss
0,0.5512762812218209,0.5567196617647081
1,0.5441047846249433,0.5447067671023291
2,0.5432866548291602,0.5435906136597948
3,0.5427269326798223,0.542278787575052
4,0.5424721307101115,0.5447932461059419
5,0.542254066438414,0.5429274946820943
6,0.5418270717812743,0.5414776221398384
7,0.541647286988799,0.5411693462958702
8,0.5414540637741792,0.5406727171417501
9,0.5413073417430813,0.5478153486701454
10,0.5412971987026475,0.5409431100779076
11,0.5410793775809205,0.5409331424952145
12,0.5409781142085796,0.5430242519520648
13,0.5409748437782923,0.540513216236389
14,0.5407834417430832,0.5404143429571583
15,0.5408637448531017,0.5437957621094015
16,0.540790482847714,0.5438940517659815
17,0.5408834334139905,0.540174112810982
18,0.5406496417238295,0.5406241533182395
19,0.5405884585258317,0.5415910444247811
20,0.540640045176447,0.5419720144189025
21,0.5406251735616009,0.5416364396180467
22,0.5405243950306575,0.5402098745329504
23,0.5404583976806465,0.5418803035177605
24,0.540393585565459,0.5414041548745508
25,0.5404223621454005,0.5413718485063123
26,0.540316936847047,0.542410521501347
27,0.540403207468145,0.5400557704953934
28,0.5402319192479317,0.5409164548807641
29,0.5403312743400338,0.5407340609701928
30,0.5403044622530149,0.5420661822442085
31,0.5401987146276417,0.5400438153418359
32,0.5402601735108273,0.5417420591077496
33,0.5402547854697606,0.5400253120190452
34,0.5402749957087445,0.5400906094250549
35,0.540205237365678,0.5404523223860388
36,0.5402279518359003,0.5432774960846818
37,0.5401479976813737,0.5400462834474171
38,0.5401613608997966,0.5405852288525395
39,0.5401584846824394,0.5402166876248627
40,0.5402243270584808,0.5399962289457582
41,0.54007600132553,0.540191172873116
42,0.5401695988571121,0.5403261854690002
43,0.5401418838395148,0.542476177895927
44,0.5402199246700352,0.540329879803338
45,0.5401340040535706,0.5421262872426149
46,0.5401091324380789,0.5400675810891996
47,0.5400708673100075,0.5398793957369499
48,0.5401373017189389,0.5401860555703232
49,0.5401083665301076,0.5399384307210557
50,0.5400937457468404,0.5399236390075968
51,0.5400733145791755,0.5408825786770426
52,0.5401100906173929,0.5397407159615983
53,0.5400519578952042,0.539879593778189
54,0.5400556044750454,0.5400700959910826
55,0.5400542706691704,0.5400220966220789
56,0.5400142702414104,0.5430380544946448
57,0.540069433231452,0.5400697578271625
58,0.5399743857840112,0.5397381631967152
59,0.5400621516344128,0.5400468329046264
60,0.5400705364699544,0.5399789149944599
61,0.5400094494577187,0.5398700059495553
62,0.5400244113429045,0.5400827771380876
63,0.5401398608691829,0.5422517549902867
64,0.5400378300743206,0.5405705216208995
65,0.5400350659888865,0.5399031761562262
66,0.5400032478366394,0.540503705997325
67,0.5401095261714014,0.5405705403453364
68,0.5399766714151893,0.5400224180434537
69,0.5399987246541487,0.5401653416103523
70,0.5399492937360114,0.5398057015598856
71,0.5398638386401761,0.5406696496471282
72,0.5400083501144497,0.5406106382090755
73,0.5399485876969423,0.5398345446468287
74,0.5399568359697637,0.5400211538037946
75,0.5399296818460647,0.5397702961346648
76,0.5400554203609746,0.5401941569212353
77,0.5398956464485194,0.5398065245476905
78,0.5400502261602298,0.5412826337826163
