epoch,loss,val_loss
0,0.5309474470006065,0.5289011009869445
1,0.5248247582981451,0.5237591141802501
2,0.5242622384174856,0.5229806725499647
3,0.5236869446740106,0.5245685232188506
4,0.522893922865289,0.5218347296821272
5,0.522492076279514,0.5238958599549665
6,0.5222435731429098,0.5216830567449849
7,0.5220777154760794,0.5220198186692174
8,0.52196991239012,0.5230515959540905
9,0.5218329485025867,0.5211757272112163
10,0.521807946501688,0.5212117148983864
11,0.5215635550143447,0.5222822296116547
12,0.5216488629456092,0.5218775015019306
13,0.5214985816776685,0.52147627125307
14,0.521401965673036,0.52095732511421
15,0.5212374520991886,0.520861949459199
16,0.5212003710329531,0.521761031600441
17,0.5211711511323732,0.5208021751408541
18,0.5212476902454786,0.5207185096539575
19,0.52119677167631,0.5220289655713822
20,0.5212142723134322,0.5208950776616043
21,0.5211303741403621,0.5214090072487483
22,0.5210768725533759,0.5209453755809414
23,0.5211305151007994,0.5208187996601644
24,0.5210484261216851,0.5206056623837493
25,0.5210249462893606,0.5205764108496919
26,0.5211198432583635,0.5211614377445382
27,0.5209618237013189,0.5205478513507038
28,0.5209657736029428,0.5208225842740932
29,0.5209859171670151,0.5204636166468447
30,0.5209278324797285,0.5207645144119452
31,0.520930662464656,0.5214811747186533
32,0.5209129940390507,0.5206774475556745
33,0.5208978757237185,0.5207317925860213
34,0.520847713087789,0.5205680705773328
35,0.5208351657093712,0.5207559503337585
36,0.5208794866168157,0.5213562819857159
37,0.5209339763467538,0.5219446310038602
38,0.52085215808321,0.5205060557455342
39,0.5208451549858977,0.5208191167036298
40,0.5207958109201076,0.5232358404187943
41,0.5208382412920028,0.5203945091285421
42,0.5207621913359739,0.5213225381250122
43,0.5207983476013701,0.5207829440497879
44,0.5207764964223222,0.5213014996672978
45,0.5207097950818289,0.5205180545007029
46,0.5207696549361797,0.5205254409508433
47,0.520780616394509,0.5207566339975551
48,0.5207706605090785,0.5203702278823474
49,0.5206933404134957,0.5202097717940659
50,0.5207763905063648,0.5202448146810602
51,0.5208021534345737,0.5203457349287369
52,0.5207491719235725,0.5209182450256632
53,0.5207482369318623,0.5212443036417808
54,0.5206812858089315,0.5210116479887856
55,0.5207135913591681,0.5213844504013251
56,0.5207317996721779,0.5206986266389378
57,0.520738301974043,0.5204116309251147
58,0.5206952102738589,0.5208682262572106
59,0.5207029243112297,0.5204129075589902
60,0.5206454010187472,0.5218982900934243
61,0.520674309332992,0.5211878934805801
62,0.5206504339199094,0.5204131223723552
63,0.5206986905474251,0.5202917009666007
64,0.5206937430952848,0.5202923833880176
65,0.5206608021920819,0.5204496935046932
66,0.5206902874986301,0.5204920872861043
67,0.5207138309499458,0.5202307570365168
68,0.5206384183773269,0.5201403567276285
69,0.52065741440704,0.5207105292280022
70,0.520586968353327,0.5234238653265809
71,0.5206470700892124,0.5203966763120136
72,0.5206357602654347,0.521761619778484
73,0.5205959040401955,0.5201392900855014
74,0.520678626468045,0.5204225260034092
75,0.5206169376864132,0.5230185360529879
76,0.5206732577343363,0.5218006527749244
77,0.5206626256725045,0.5201928058569839
78,0.5205859798238494,0.5208238252930842
79,0.5205893597568956,0.5202859673843194
80,0.5206166087458582,0.5203822827220851
81,0.5205613429636188,0.5202913343166891
82,0.5206421060140962,0.5206830618399249
83,0.5205302394392018,0.5201413437687138
84,0.5205858588357523,0.5201187343514587
85,0.5205805393541075,0.5233323579982256
86,0.5205786695607948,0.5200995876534701
87,0.5205870975736346,0.5214386821976371
88,0.5205719373084208,0.5202073419064506
89,0.5205342169995075,0.5201722041253121
90,0.5205756209127006,0.5203022018555672
91,0.5205111399065566,0.5201391466498079
92,0.5205285136393706,0.520507842405854
93,0.520591152706513,0.5200824124049904
94,0.5205916689243396,0.5210430706405166
95,0.5205373961631652,0.5201875666234984
96,0.5205750745308739,0.5201965707999009
97,0.5205226561690309,0.5205367526108811
98,0.5204784794112558,0.5201494825980799
99,0.5205536443991124,0.5202951663481095
100,0.5205571335588279,0.5222110278848975
101,0.5205947377656458,0.5201519844253957
102,0.5205430454089014,0.5201759793030712
103,0.5205247051060082,0.5209307186656791
104,0.5205484814225528,0.5202435790161342
105,0.5206161075875502,0.5202361134086589
106,0.5205061005575131,0.520122496158846
107,0.5205080707741728,0.5205163004380597
108,0.5205707995342326,0.5208848373765685
109,0.5205266809407021,0.5200821165115602
110,0.5205115822364269,0.5211546241201774
111,0.5205955381406748,0.5201921848446205
112,0.5205347220846022,0.5200135232792894
113,0.5204794560822796,0.5204776083861036
114,0.520519060726553,0.5221828200385233
115,0.5204987784786015,0.5203683866460626
116,0.5205419368813061,0.5210169409108221
117,0.5205029958899982,0.5202363373328084
118,0.5204870603337021,0.5202606921752096
119,0.520500872328299,0.520688523370634
120,0.520498324278445,0.5210518698538503
121,0.5204751299167218,0.5204837697611258
122,0.520498928743267,0.5201130556409471
123,0.5204862726422411,0.5209973208661707
124,0.5204355609416804,0.520246535406515
125,0.5205093726538055,0.5202648911523464
126,0.5205133240139725,0.5203516362026962
127,0.5204370077740097,0.5204425946950321
128,0.5204958334651737,0.5203076005277799
129,0.5204783716518071,0.520306038708604
130,0.520475236604942,0.5200573105670087
131,0.5204263697675688,0.5201218011361494
132,0.5204338798676171,0.5224548316179375
