epoch,loss,val_loss
0,0.5916670137113995,0.5901363494793574
1,0.5888353170288934,0.5882175603707631
2,0.5880541180769603,0.5876257735888163
3,0.5876128035121494,0.5871010605891546
4,0.5873952844010459,0.5871894726355871
5,0.5872407767242855,0.586782545765241
6,0.5870888910426034,0.5868235687812169
7,0.5870240506066217,0.5868368108669917
8,0.5869680846664641,0.5871141316493352
9,0.5869477925830417,0.5869844048817953
10,0.5868952708906597,0.5867906843423843
11,0.5868678607145945,0.586631252447764
12,0.5868528351121478,0.5866476581096649
13,0.5868212882942624,0.5880397142171859
14,0.5867931876315011,0.5866937805016835
15,0.5867741328345405,0.586576128522555
16,0.586773022002644,0.5865114996035894
17,0.5867603533003065,0.58670840493838
18,0.5867306880686018,0.5870260641177495
19,0.5867254097196791,0.586652996579806
20,0.5867036470042335,0.5864675484895706
21,0.5866973303159078,0.5866152273813884
22,0.5866888626151615,0.5867579545974732
23,0.5866799746221967,0.5868683884541194
24,0.5866887160672082,0.586440940062205
25,0.5866802880764007,0.5871509817838669
26,0.5866596646441353,0.5864462764660517
27,0.5866370513571634,0.5865512737035752
28,0.5865882974995507,0.5869263282219569
29,0.5864384302695592,0.5869059707721075
30,0.5863600878185696,0.586542141199112
31,0.5863317280477948,0.5863692391316097
32,0.5863011529975467,0.5872986670732498
33,0.5862930296924379,0.5862173923254013
34,0.5862726622290081,0.5863308407068253
35,0.5862594736814499,0.5860427412192026
36,0.5862537047465642,0.5861049726009369
37,0.5862478131320742,0.5860566732486089
38,0.5862488205300437,0.5862386263211569
39,0.5862339049842622,0.5863522429466248
40,0.5862338785727819,0.5860291984478633
41,0.5862259776062435,0.5863564021190008
42,0.5862170664601856,0.5859170804023742
43,0.586224746717347,0.5859951877991358
44,0.5862251236836116,0.5861046458085378
45,0.5862156129545636,0.58644595793883
46,0.5861954501337475,0.586083693186442
47,0.5861918156279458,0.5865127745469412
48,0.5862221860488256,0.5863527381817499
49,0.5861949033604728,0.5862090363105138
50,0.5861904889212715,0.5860649172862371
51,0.5862028658390045,0.5862324987649917
52,0.5861932665771908,0.5860449970960617
53,0.586181395067109,0.586190178712209
54,0.5861926989687813,0.5863895548582077
55,0.5861779201693005,0.5860635354121526
56,0.5861802626185947,0.5859304842551549
57,0.5861789914899402,0.5861858445008595
58,0.5861762643920051,0.585904241959254
59,0.5861687290800942,0.5859259416262309
60,0.5861787342362934,0.586111761212349
61,0.5861550199985505,0.5859109959602355
62,0.5861633872853385,0.586020420273145
63,0.5861832123067644,0.5861643566687902
64,0.5861614954736498,0.5859305832783381
65,0.5861518142753177,0.587274022658666
66,0.5861569986078474,0.5859379144906998
67,0.5861349223322339,0.5871361585060756
68,0.5861469995975495,0.585895610888799
69,0.5861626333925459,0.5859656738440195
70,0.5861460379362107,0.5860864395300547
71,0.5861438123385111,0.586305857737859
72,0.5861402365366618,0.5873984028498331
73,0.5861256311999427,0.585850344101588
74,0.5861389277113809,0.5859178870916366
75,0.5861190618011687,0.5892202290693919
76,0.5861277078522577,0.5859400432109833
77,0.5861296759578917,0.5859293290774028
78,0.586128925508923,0.585895432472229
79,0.5861297153234482,0.586068901181221
80,0.5861395692692862,0.5860163556734721
81,0.5861098088423411,0.586580953558286
82,0.5861232360071607,0.5858314893245697
83,0.5861224050919215,0.5860066067377726
84,0.5861136313941744,0.5858013077974319
85,0.5861191283067068,0.5861002790927887
86,0.586118823978636,0.5861149975856145
87,0.5861215059492323,0.5860644450187683
88,0.5861187779638503,0.5867819405794144
89,0.5861353503200742,0.5859813652833303
90,0.5861073529058033,0.5858943102757136
91,0.5861196319394641,0.5860210866928101
92,0.5860978632370631,0.5859439938465755
93,0.5861172020965152,0.5867431698640188
94,0.5861203790638182,0.5858509877125422
95,0.5861049913167954,0.5861676560640335
96,0.5861067512697644,0.5859842284520467
97,0.5860966393152873,0.5863024222453436
98,0.5861001917521159,0.5858794474204382
99,0.5861002166801029,0.5858657466173172
100,0.5860888883670171,0.5865655161937078
101,0.5861035346587499,0.586129137078921
102,0.5860961310863495,0.5858076118628184
103,0.5860732025835249,0.5860014268159867
104,0.5860870429807239,0.5861619039773941
