epoch,loss,val_loss
0,0.5920666318469577,0.5886552415291468
1,0.5885691320763694,0.5888962687651317
2,0.5877365307410558,0.5875356924533844
3,0.5872723516888089,0.587133074760437
4,0.5871229998270671,0.5871435614426931
5,0.5870456608666313,0.5874014434814453
6,0.5869998378091388,0.5867906792561213
7,0.5869191946850882,0.5866244725783666
8,0.5868703546788957,0.586625214099884
9,0.5868421624766456,0.5865774855613709
10,0.5868127796385023,0.5867052891254425
11,0.586772369450993,0.5865943437019984
12,0.5867801306247711,0.5866363147497177
13,0.5867545921272702,0.5866707078615825
14,0.586733262154791,0.5865348610480626
15,0.5867365311119291,0.5864284757773082
16,0.5867089190085729,0.5872899771531422
17,0.5866952305767271,0.5865714170138041
18,0.5866953202486038,0.5865349615812302
19,0.5866837663385603,0.5865156547228495
20,0.5866951656209098,0.586956823348999
21,0.5866599722173479,0.5863953214089076
22,0.5866386876106262,0.5870726061264674
23,0.5866411970191532,0.5872224045197169
24,0.5866240412924025,0.5870957747300466
25,0.5865938120153216,0.5864070218404134
26,0.5865456031958262,0.5864804660479228
27,0.5865372930235333,0.5863877746661504
28,0.5864652099079556,0.5862304543654124
29,0.5864529112312529,0.5865660386880239
30,0.5864280961884393,0.5863937176068624
31,0.5863911752303441,0.5866338748534521
32,0.5863952945603265,0.5862301615079244
33,0.5863903479973475,0.5862149344285329
34,0.5863687132729425,0.5872807397047679
35,0.5863701778782738,0.5867532997926076
36,0.5863574812147352,0.5860535140832265
37,0.5863562077946133,0.5861737819512686
38,0.5863404427104526,0.5861194655497869
39,0.5863354601727592,0.5862459010680516
40,0.586356811536683,0.5865521514018377
41,0.5863318162759145,0.586593464811643
42,0.586321222252316,0.5860588512818019
43,0.5863108541700575,0.5860208642482757
44,0.5863240214321348,0.5865027979612351
45,0.5863381907410092,0.5861945563554763
46,0.5863141039212545,0.5863927663564682
47,0.5863104867272907,0.5861357488632202
48,0.5862906269762251,0.5859686979055405
49,0.5862942450841268,0.5869668655792872
50,0.586293300403489,0.5864820942878723
51,0.5862811162471772,0.5866616930961609
52,0.5862937373850081,0.586338837703069
53,0.5862721469402313,0.5862325940529506
54,0.5862776397731569,0.5860046914815903
55,0.5862734630902608,0.586950963695844
56,0.5862606957356135,0.5859877510468166
57,0.5862553433709674,0.5862635473807652
58,0.5862563726769553,0.5861429860194524
59,0.586261952439944,0.5860262298583985
60,0.5862708388699426,0.5860501888593038
61,0.586255084183481,0.5859814230998357
62,0.5862550461689631,0.5863318335215251
63,0.5862444010972977,0.5859545675913492
64,0.5862422734101613,0.5862303051948548
65,0.5862507875230577,0.5862609734137852
66,0.5862489212751388,0.5861012701590856
67,0.5862382065190209,0.5859949493408203
68,0.5862467278242112,0.5859994556903839
69,0.5862521815962262,0.5859472697973251
70,0.58623880663183,0.5859630093574524
71,0.5862390182283189,0.5863361932436625
72,0.586220133251614,0.5859841996828715
73,0.5862453950246175,0.5861822124322256
74,0.5862174935208426,0.5861200714111328
75,0.5862450097534392,0.5861349714597066
76,0.5862260069582197,0.5860523207982381
77,0.5862044702635871,0.5859957413673401
78,0.5862179326746199,0.5858858218987782
79,0.586219524635209,0.586215336283048
80,0.5862186878522238,0.5863181163072586
81,0.5862216095262104,0.585953960776329
82,0.5862061138020621,0.5861155758301417
83,0.5862136076026493,0.5859777961969376
84,0.5862337811258104,0.585901140054067
85,0.5862151004473368,0.5864834217627843
86,0.586208290192816,0.5859907419284185
87,0.5862236562834846,0.5860234481493632
88,0.5862087794277403,0.5860908375581105
89,0.5862067579030991,0.5867485638856887
90,0.586209794693523,0.5867369601329168
91,0.5861972828441196,0.5858682090441386
92,0.5861904010375341,0.5864333943128586
93,0.5861965133481556,0.5860061601003012
94,0.5861807384888331,0.5860060739517212
95,0.5861868765883975,0.5859219265381496
96,0.5861750823259354,0.5861230607032776
97,0.5861882713503308,0.5860059399604798
98,0.5861751122342216,0.5862756263017654
99,0.5861869982348548,0.586083834250768
100,0.5861788278420766,0.5862048930724462
101,0.5861750000052982,0.5859399710893631
102,0.5861765523354212,0.5865571192502975
103,0.5861751460499234,0.5860958311160406
104,0.5861673077742259,0.5859066372315089
105,0.5861738636758592,0.5859627734025319
106,0.5861612220340305,0.5869116361141204
107,0.5861569855478075,0.5864070678551991
108,0.5861709125041962,0.5858970867395401
109,0.5861687143246332,0.5858857504924139
110,0.5861653615103828,0.5864633251825968
111,0.5861423577864965,0.5861109640598298
