epoch,loss,val_loss
0,0.2641315757036209,0.2642073503136635
1,0.25790711060497495,0.25695348022381465
2,0.25724183722337085,0.2564308125774066
3,0.25684761329491934,0.25658433240652084
4,0.256696040391922,0.2584897536834081
5,0.2565661916004287,0.25750706615050634
6,0.25644527637958525,0.2561575308044752
7,0.25639846684535345,0.2566504774093628
8,0.25632762924167846,0.25620280824104946
9,0.25626769581105974,0.25599010384082793
10,0.25627646157476636,0.25591307963927584
11,0.2562193289796511,0.255781576414903
12,0.25617772344085904,0.25602198048432667
13,0.25614214879274366,0.2561283795038859
14,0.2561083250443141,0.2563609791994095
15,0.25607139296664133,0.25589949208498003
16,0.2560733491910828,0.2560720084706942
17,0.2560753967165947,0.2564492643475533
18,0.25600573579470315,0.2558738344311714
19,0.2560169927875201,0.25569229743878047
20,0.2560063706437747,0.2557693768143654
21,0.2559817626012696,0.25574370127916335
22,0.2559440603123771,0.25547085666656494
23,0.2559274634520213,0.2553878568212191
24,0.25587942972448136,0.25645523699124656
25,0.2558549359639486,0.2553367405931155
26,0.25583380832274755,0.25550759249925614
27,0.2558272011147605,0.25576883667707445
28,0.25579932747284573,0.2555749369462331
29,0.2557728146645758,0.255787593960762
30,0.25573674320512346,0.25559543865919115
31,0.2557488524648878,0.25676544149716696
32,0.2556807972590129,0.25643916002909345
33,0.25564174430237874,0.2553960428039233
34,0.2556072312394778,0.25528158255418143
35,0.2555731778608428,0.2554950949152311
36,0.2555074898468124,0.25736456100145977
37,0.2554596040050189,0.2550039911667506
38,0.25538513439893723,0.25499497014284134
39,0.25530969586637287,0.25656145495176313
40,0.25527785882022647,0.2549171053171158
41,0.25521894681453705,0.25480249176422753
42,0.2552233459883266,0.2547984250585238
43,0.25518525132868025,0.2547284918030103
44,0.25516449882586795,0.25830798866351445
45,0.25512288430002,0.2548301948706309
46,0.25515498573912515,0.2549016399383545
47,0.25520567449596193,0.25514562662442525
48,0.25504343889819253,0.25478534485896426
49,0.25506412779622606,0.25477602444092434
50,0.2550821993615892,0.2549974172115326
51,0.2550318519804213,0.25589509814977646
52,0.25501725753148397,0.25574888130029044
53,0.2550460313691033,0.2548910692135493
54,0.2550770164065891,0.25627451211214064
55,0.25501753892501194,0.25516959551970164
56,0.25500574504666856,0.2552535001436869
57,0.25503270141945944,0.2545982622504234
58,0.25501230010059145,0.25497842899958295
59,0.2550194889042113,0.25529987819989525
60,0.2549796406229337,0.25511412910620374
61,0.25500429943535063,0.25446999857823055
62,0.25501389861769147,0.2546486983100573
63,0.25500808170106676,0.25453092432022095
64,0.25499326631757946,0.25556380025545755
65,0.2549408237139384,0.25462309608856837
66,0.25503992609182996,0.2548856496413549
67,0.25495124992397095,0.25486297003428143
68,0.25500304261843365,0.2593473892609278
69,0.2550072531633907,0.25526035914818446
70,0.2550046830508444,0.2549861721793811
71,0.25514652667442955,0.25448203734556835
72,0.2549397336244583,0.25589258994658787
73,0.2549899181524912,0.2562011669476827
74,0.2549695431192716,0.2552340268492699
75,0.25492486783530977,0.2552925361394882
76,0.2549670931564437,0.25465413653850555
77,0.25494850363996296,0.25477255042394004
78,0.25491423573758865,0.2549545649687449
79,0.254976245270835,0.254461379746596
80,0.2549528981116083,0.2553899537324905
81,0.25490746685531407,0.2550712864200274
82,0.25492900636461047,0.254576823135217
83,0.2549326109290123,0.2562011216878891
84,0.25496183131138483,0.2547304166754087
85,0.2549458400739564,0.2554295326670011
86,0.2548927164077759,0.2545539361834526
87,0.25489971730444166,0.2544492552876472
88,0.25489169610208934,0.25447447774807613
89,0.2548849402136273,0.2546467837492625
90,0.25489784816238614,0.25474381854136785
91,0.25490708963076275,0.2550556767384211
92,0.2549542472693655,0.2545860147674878
93,0.2548555670115683,0.25506291558345157
94,0.2548689827389187,0.25481329003969827
95,0.2548979567885399,0.25480212132136026
96,0.2548930883142683,0.254782506386439
97,0.25490951108932497,0.2543651396433512
98,0.25493027353949016,0.25457327274481456
99,0.2548889227906863,0.25453736414511996
100,0.25485463646385403,0.25612263242403666
101,0.2548866972790824,0.2585943179130554
102,0.2548645715316137,0.2548820764819781
103,0.2548685183723768,0.2552324271003405
104,0.2548629236353768,0.25435582395394646
105,0.2548555177251498,0.2548153708577156
106,0.25493155252271227,0.25555675236384073
107,0.2548217982782258,0.254910378019015
108,0.25486047569910686,0.2546175501346588
109,0.2548517422411177,0.25476561776796974
110,0.2548343165251944,0.25459627217054365
111,0.25483369213342666,0.2547597649494807
112,0.2548611373702685,0.254819675385952
113,0.2548850162360403,0.25459207779169085
114,0.29156811370452246,0.25475954528649647
115,0.25495870775646634,0.25481717264652254
116,0.8745176774528292,1.0
117,1.0,1.0
118,1.0,1.0
119,1.0,1.0
120,1.0,1.0
121,1.0,1.0
122,1.0,1.0
123,1.0,1.0
124,1.0,1.0
