epoch,loss,val_loss
0,0.509516155772739,0.5052176583607991
1,0.4305625848439005,0.42216648217042285
2,0.4245404968592856,0.4220952517390251
3,0.42209206725491416,0.4219357706507047
4,0.4218932641943296,0.4216180270711581
5,0.4217934752172894,0.4216169536113739
6,0.4217321897215313,0.421693341533343
7,0.42163460493750043,0.42139060338338213
8,0.4216103823184967,0.4213946874936422
9,0.4215603512658013,0.4215132806698481
10,0.42153114577796724,0.42125394723812737
11,0.42151554389794665,0.4213125234246254
12,0.4214821344746484,0.4213369442621867
13,0.42147268308533564,0.421601594209671
14,0.42146656854285136,0.4211213108301163
15,0.4214274449215995,0.4214108451406161
16,0.4214183812075191,0.42109023716052374
17,0.4214120788507991,0.4212834534843763
18,0.42138783822456993,0.42109759960571924
19,0.42136420804924435,0.4214783548116684
20,0.42134212521049713,0.42097590378920235
21,0.42129093350966773,0.4209608343442281
22,0.42114893967575495,0.4207653960386912
23,0.4209832839038637,0.42073460459709167
24,0.42093972884284125,0.4208580448627472
25,0.42084705713060166,0.4206257398525874
26,0.42088333925935956,0.4205332474112511
27,0.42087574589914745,0.4205385087529818
28,0.4208223748339547,0.4207065182328224
29,0.4207819974157545,0.4209287339647611
30,0.42077343679136703,0.42069496140877405
31,0.42081048945585886,0.42046366721391676
32,0.42079128575987285,0.42038663222392403
33,0.4207749960157606,0.421166832168897
34,0.4207731715771887,0.4203377621173859
35,0.4207658947375086,0.4207254110972087
36,0.4207465739780002,0.42064216019709905
37,0.4207436499595642,0.4202481772303581
38,0.4207188726266225,0.42057043331861493
39,0.4207294360200564,0.4203020587762197
40,0.4211417890455988,0.42068347974618275
41,0.4207102514902751,0.42020357100168865
42,0.42066411046187085,0.4201871217886607
43,0.4206502834823396,0.4205294401248296
44,0.42064561637242637,0.42231448415915174
45,0.4206327130463388,0.4222645046512286
46,0.42060691771242353,0.42030565667152403
47,0.4205849170486132,0.4202677346666654
48,0.42059077329768074,0.421170155107975
49,0.42061942381329004,0.42019368278980257
50,0.4206140442291896,0.42043872572978336
51,0.42061954907576243,0.42023381813367205
52,0.42061273711257513,0.4204330954949061
53,0.4214007696972953,0.42155170836051303
54,0.4206559907860226,0.4211952426036199
55,0.42063188780678645,0.4202670770486196
56,0.42067298457357616,0.4202592452168465
57,0.4206357271671295,0.42046889956792194
58,0.42057194191217423,0.4202794053753217
59,0.42058333319425584,0.4210521203080813
60,0.42059255582756466,0.42035112539927166
61,0.4205896902283033,0.4208557170629501
62,0.42058995858828224,0.4204583202203115
