epoch,loss,val_loss
0,0.4183101341856851,0.34259263547261554
1,0.34165572071737715,0.34109341688950856
2,0.34022879398531386,0.3393570962746938
3,0.3395576947198974,0.3390379937092463
4,0.3393891073266665,0.3399304937918981
5,0.3391744643582238,0.33880306921402614
6,0.3390908687909444,0.3389610014955203
7,0.33899826032585567,0.3386443249384562
8,0.33893945793973074,0.3385547892451286
9,0.3389215946065055,0.3391347325642904
10,0.33884696029954486,0.33861846548318864
11,0.3387819948924912,0.33905929350852965
12,0.33869764304823347,0.3386318509976069
13,0.3386175708638297,0.338180339038372
14,0.33850101522604625,0.3381195688645045
15,0.3383645308812459,0.3384073173205058
16,0.33827865385346945,0.340159328798453
17,0.3382149367398686,0.33771635166804
18,0.33815376119481194,0.3383540747364362
19,0.3380963753859202,0.3374162067373594
20,0.3380382789770762,0.33855514200528464
21,0.33798769128984874,0.337748713294665
22,0.3378775911529859,0.3381093394557635
23,0.3378356666300032,0.33820650647083916
24,0.34850349152750437,0.3389161315361659
25,0.3385168537629975,0.3448434637784958
26,0.33828537821769716,0.3407430384953817
27,0.3382088408337699,0.339843718568484
28,0.3384362240831057,0.33800688230991366
29,0.33807637580898076,0.33777968364954
30,0.34143170700470604,0.3379262220660845
31,0.33800075714455713,0.3372629187107086
32,0.33787636791997483,0.33698832541704177
33,0.33783580413129594,0.3382830924987793
34,0.33775976089636484,0.3366343389749527
35,0.3379697488678826,0.33764456737041476
36,0.33771543049150043,0.33734451671441396
37,0.3375526574783855,0.3379210794965426
38,0.3380604319439994,0.33752983931700387
39,0.3403455148537954,0.3389702005783717
40,0.3382402757141325,0.33801153097550074
41,0.3377944030960401,0.3374619502425194
42,0.33764971492025586,0.3385296067794164
43,0.33764794452322855,0.33700243135293323
44,0.3376051154004203,0.3368332672913869
45,0.3375968383948008,0.33896391693751016
46,0.3374679165879885,0.3371842568318049
47,0.33752766505877174,0.33751990044116975
48,0.33790797999832367,0.3369339844584465
49,0.33741115073362987,0.33632731161514917
50,0.3375767517553435,0.33727507519721983
51,0.3373646956748433,0.3366548573374748
52,0.337587298002508,0.3364599799911181
53,0.3385718860295084,0.3394594538807869
54,0.3384334853755103,0.3397686679561933
55,0.34091853165626523,0.3389063844482104
56,0.33907701712184485,0.3387422549525897
57,0.3385793003704813,0.3371496080160141
58,0.3376067403687371,0.33783480060100557
59,0.3372982793052991,0.33722164181868236
60,0.3371514566673173,0.3365289128224055
61,0.337388337512811,0.33620149217049283
62,0.33689987493885887,0.33630653297901153
63,0.33704149717092513,0.3359490322073301
64,0.3375138690604104,0.33867324562867485
65,0.3382844916648335,0.338104188422362
66,0.33793437545167077,0.3361047332882881
67,0.3378540841870838,0.33611544223626455
68,0.3394832633667522,0.3389158343275388
69,0.3379308478169971,0.3372002412478129
70,0.3369076776570744,0.33866296682755154
71,0.3367028348909484,0.3372851629257202
72,0.33719321941667135,0.33606956869363785
73,0.33749046307139924,0.34062610975901286
74,0.34050714727242787,0.3368496561447779
75,0.3372736630042394,0.3355696692466736
76,0.33746997165017656,0.33867680899302166
77,0.3371441176864836,0.33952101147174835
78,0.33687727788421845,0.3389166148503621
79,0.3372036704685953,0.3360449328025182
80,0.33723821889691885,0.3358899045586586
81,0.33669185707966487,0.3384113474885623
82,0.33699131904708013,0.33655416198571525
83,0.3375736230081982,0.33610319244861603
84,0.33660912203126486,0.336217023173968
85,0.3366892384025786,0.3364201210737228
86,0.33671384309397806,0.33619072318077087
87,0.33647702200545204,0.33578445919354755
88,0.3364055767854055,0.33546981783707935
89,0.3364831783440378,0.3357143599390984
90,0.3365607773264249,0.3374365352392197
91,0.33652808520529004,0.3375518256227175
92,0.33649862725204893,0.33594509106874465
93,0.33636020292838414,0.3369120236635208
94,0.33640657959381737,0.3353798535466194
95,0.336464459710651,0.3367844148079554
96,0.33635905834701324,0.3388692363301913
97,0.33619790291786195,0.33634325232108436
98,0.3362408500048849,0.3355015956958135
99,0.33689617406659655,0.33613932090997695
100,0.33625580706861286,0.33570314304033916
101,0.3366744468212128,0.3356989263097445
102,0.3361286341216829,0.33594500557581586
103,0.33632333783308666,0.3375600318511327
104,0.3361562524769041,0.3354218013485273
105,0.336267350256443,0.33807918882369997
106,0.3361507809691959,0.3372963381409645
107,0.33607895190848247,0.3354851593573888
108,0.34102573196755515,0.3364935430089633
109,0.33647033832470574,0.335480110724767
110,0.3361331647634506,0.3352738221089045
111,0.33628191679053837,0.33720258192221325
112,0.3361640422940254,0.335816823442777
113,0.33609909126493664,0.3354796632329623
114,0.3362397913005617,0.33520005667209624
115,0.33606120548645657,0.3356392830411593
116,0.33599561979373294,0.3352212753891945
117,0.33603997118605505,0.33547686145703
118,0.3360820573435889,0.33549665077527363
119,0.33612955094046065,0.33583989419539767
120,0.3361623472438918,0.3358795439004898
121,0.336041417532497,0.33514438225825627
122,0.335929702811771,0.33592160534858706
123,0.33597857316997315,0.336216658671697
124,0.3359439495470789,0.3354246298869451
125,0.3359040516879824,0.33538511019945144
126,0.3358854825033082,0.3358675268093745
127,0.33591292743550405,0.335314415315787
128,0.3358577092819744,0.3364668924411138
129,0.3359736564622985,0.3352912040352821
130,0.3358643781542778,0.33617608539263405
131,0.3358580909570058,0.3353390499750773
132,0.3359818105697632,0.3359075012008349
133,0.3358695369693968,0.3351488517522812
134,0.33585183478064007,0.33522281062603
135,0.33592917591995664,0.33512483338514965
136,0.33578268833292857,0.33575376492738723
137,0.3357872040934033,0.33539526802301406
138,0.33578389440642464,0.3354781607588132
139,0.3358665153251754,0.33627848013242084
140,0.3357849277191692,0.3353596777121226
141,0.3359052178396119,0.3352990492383639
142,0.3357886522610982,0.33502677192290625
143,0.33579438657230803,0.33599604698022206
144,0.3357886570294698,0.33563740424315136
145,0.3357978059980604,0.33533411560455956
146,0.33579309856229356,0.33625968199968337
147,0.33729666782087747,0.3354662891427676
148,0.33580682677030566,0.33541356788078946
149,0.3357989347908232,0.33521317223707836
150,0.3357506118747923,0.33574878960847854
151,0.33572620664702524,0.3352669409116109
152,0.33578761892848547,0.33890753600994744
153,0.3357199534111553,0.33578679102659226
154,0.3357863261236085,0.3351952255566915
155,0.33569007810619145,0.3360817861755689
156,0.3356556012100644,0.3356521787047386
157,0.33568597005473244,0.33509826624393463
158,0.3356621990534994,0.33586326183875403
159,0.3356624919838376,0.33622563205162687
160,0.335649193002118,0.33595328325033186
161,0.33566866354147595,0.33619795578718187
162,0.33566018503904343,0.33540192474921543
