epoch,loss,val_loss
0,0.5913274488846461,0.5883909760316213
1,0.5883142506546445,0.5874596840540568
2,0.5875805424054463,0.5869562204678853
3,0.5872585151195526,0.5873216573794683
4,0.5870914303329255,0.5868535290956497
5,0.5869800279802746,0.5867656049728394
6,0.5869418215751648,0.5865971304972967
7,0.5868629515833325,0.5865414975881577
8,0.5868089092969895,0.5867907495498658
9,0.5867891908486684,0.5865482278664906
10,0.5867551470200221,0.5865545410315196
11,0.5867032721837362,0.5864998012383779
12,0.5867171342637804,0.5868579415480296
13,0.5866630222267575,0.5864710230827331
14,0.5866541392670738,0.586969620347023
15,0.5866001934475369,0.5872402269442876
16,0.5866017001999749,0.586276918053627
17,0.5864959841966629,0.5862394897937775
18,0.5864383448229896,0.5866014158725739
19,0.586411146958669,0.5860895400444667
20,0.586381108019087,0.586256734251976
21,0.5863480390310287,0.5862343788941701
22,0.5863076694011689,0.5863000278870265
23,0.586341337190734,0.586043269276619
24,0.5863068354659611,0.585957404255867
25,0.5862981766329871,0.5859931035439173
26,0.5862899645434485,0.5860811944007873
27,0.5862997203270595,0.5860488211711248
28,0.5862475150426228,0.5867222607533137
29,0.5862545384830898,0.5861210114955903
30,0.5862525196870169,0.5864929210742315
31,0.5862526008288066,0.5864325420459111
32,0.5862310626374351,0.587226194580396
33,0.5862447117434607,0.5860612708330154
34,0.5862382762432098,0.5859690986076991
35,0.5862127072943581,0.5860620557467143
36,0.5862225114504497,0.5864818108081817
37,0.5862180511951447,0.5863589046398798
38,0.5861976881954405,0.5860633478562037
39,0.5862314696311951,0.5860815503199895
40,0.5861903121471405,0.5861752393643062
41,0.5861887583202786,0.5859313935438792
42,0.5862017186085383,0.5858901294072469
43,0.5861949455075793,0.5861186036666234
44,0.5861936018731859,0.5859270490805308
45,0.586171671681934,0.5859599877595901
46,0.5861468375523885,0.5859766951402028
47,0.5861693137221866,0.5865073906183242
48,0.5861591365072463,0.5862718487580617
49,0.5861708592838711,0.5857848214705785
50,0.586143024722735,0.58613700735569
51,0.5861729789177577,0.5870122633775076
52,0.5861320106056002,0.5862113140424092
53,0.5861493059926562,0.5858709011077881
54,0.586147051996655,0.5861516058047612
55,0.586140248325136,0.5859933407704035
56,0.5861289182106654,0.5864640022913615
57,0.5861488672759798,0.5859670025904974
58,0.5861146617995369,0.5858419181903204
59,0.5861255626943377,0.5858979498147965
60,0.5861046160591973,0.5861615905364355
61,0.5861252431604598,0.5858708217938741
62,0.5861202022102144,0.5865789783795675
63,0.5861222938299179,0.5863745651245117
64,0.586125809735722,0.58592835466067
65,0.5861016962528228,0.5863197700579961
66,0.5861076589292951,0.5860474759340286
67,0.5861101884577009,0.585889681259791
68,0.5860835527049171,0.5861293648878734
69,0.5860961503452725,0.5859366999864578
