epoch,loss,val_loss
0,0.624589489420435,0.5698557615739486
1,0.5627993761538073,0.5591832286952306
2,0.5580493081019783,0.5568393314738129
3,0.5613284272577287,0.5596479146046852
4,0.570514371490053,0.5566259922349799
5,0.5563481188386217,0.555808267627713
6,0.5558131563519216,0.5557307504152241
7,0.5557560339740304,0.5557491666065271
8,0.5557410479293102,0.5556778345454225
9,0.5556961217272169,0.5556792910697131
10,0.5556851150571885,0.555663404455535
11,0.5556787355991787,0.555673288177269
12,0.5556825695306387,0.5556724523584152
13,0.555679749958124,0.5556701563647736
14,0.5556931505378301,0.5556930816093775
15,0.5556920954457533,0.5556851730001454
16,0.5557347273989403,0.5556717504354549
17,0.5557054704886712,0.5556990120962604
18,0.5557199772058221,0.5556871111966901
19,0.555708056760442,0.5556717628979146
20,0.5557316995305372,0.5559385434243336
21,0.5558212343670116,0.5558118620863601
22,0.5558043303591881,0.5558141737215371
23,0.5557568990090549,0.5558494342990783
24,0.555866723011122,0.5557026210964584
25,0.5557815709919066,0.5557048415175512
26,0.5558597406076616,0.5557666265367374
27,0.5558416889998695,0.5560367911226052
28,0.5558653553523041,0.5557478632580748
29,0.5558976406709683,0.5557220627028133
30,0.5558018439254996,0.5557331145595426
