epoch,loss,val_loss
0,0.6196880391109756,0.5689597566189183
1,0.5674509185055724,0.5611688929478311
2,0.5577961064950181,0.5563252347281051
3,0.5560462529063991,0.5559786131695786
4,0.555830474956775,0.5558526276260813
5,0.5558129730729784,0.5558792443334439
6,0.5558062614271732,0.5558629544722674
7,0.5557572106408843,0.5557398390054364
8,0.5557378871503269,0.5557192560021667
9,0.5557462562735187,0.5559603205270638
10,0.5559180788985454,0.5557313960455804
11,0.5557860082355283,0.555728754596424
12,0.5557667345048352,0.5557499837256474
13,0.55880275040061,0.5807871320769357
14,0.4597135063407629,0.44484471414133203
15,0.4447175596755865,0.4450301675024344
16,0.4506310642160514,0.4687241558623928
17,0.45608168666119847,0.4464647591996449
18,0.44544129114219994,0.4459714633810232
19,0.4486535330503307,0.44480902314959714
20,0.4447359969948636,0.4447864145977312
21,0.4446638220927833,0.4446187747211394
22,0.44463106863728064,0.4446213829471431
23,0.44462231534601393,0.4446111669394869
24,0.44460294158985325,0.44464452946991107
25,0.4446016114141401,0.44461523355129307
26,0.4446083179360656,0.44460502776986466
27,0.4446063320367237,0.4445943073650036
28,0.44460000380139253,0.4446010667384215
29,0.44460556933825207,0.4446060198469303
30,0.4446070602462255,0.4446157227421213
31,0.4446459908541346,0.44463122244588116
32,0.4446671089578953,0.4445992473401832
33,0.44466617736482095,0.44502449664811383
34,0.4446579448152899,0.4446266054309326
35,0.44465212039052576,0.4445881407743437
36,0.4446734627501636,0.4446339733797405
37,0.4446377813106827,0.44459075161734307
38,0.4447002855374665,0.4448168783733265
39,0.44467516484741554,0.4447181220954921
40,0.4455275632177596,0.44491912598930006
41,0.4448274719744133,0.44482685035369235
42,0.44473360225706376,0.4454082867492892
43,0.44689417551097516,0.4474717805978372
44,0.4458808851716775,0.44468902503228097
45,0.444676538389729,0.4446061755914133
46,0.444668894790183,0.4445897890766695
47,0.4446316172833069,0.44467708962221364
48,0.44464374764253656,0.4446305011160546
49,0.4446398057368454,0.4447754557198962
50,0.4447179015167473,0.44483211741102224
51,0.44757145552362454,0.4455470977896151
52,0.44562134435021944,0.444750680235186
53,0.44479092092206485,0.44461433752945145
54,0.44471407359975096,0.4446107391422889
55,0.44466945611393305,0.444644486927111
