epoch,loss,val_loss
0,0.5189251705120611,0.45977950171678744
1,0.4505535666949528,0.4460527167929957
2,0.445469130317448,0.4451425719505342
3,0.4449434029742482,0.44510469058178376
4,0.4447488156001536,0.4447564855897869
5,0.4447942283612769,0.44520368056397874
6,0.44672396343439913,0.44461943282604316
7,0.44883091368658146,0.45194714816630527
8,0.44838177028658843,0.44578537650147987
9,0.4452480337826268,0.444783955776191
10,0.4447037174549203,0.4446800007428003
11,0.44463006352267687,0.4446713371393865
12,0.44469562497489407,0.4446750482024152
13,0.444640840742427,0.4446161797009915
14,0.4447151516938772,0.44616078261283754
15,0.444976764176698,0.4446640401395671
16,0.44473761240324267,0.44493405461383867
17,0.44470937188897847,0.4446597798156874
18,0.444874823562885,0.44488137116105336
19,0.4449554823928846,0.44579175319518843
20,0.4448321755832175,0.4447609836009375
21,0.4456906754043215,0.44474424540549307
22,0.44467019122848245,0.4446944383573058
23,0.444650891421009,0.44471436998249914
24,0.44470777836841147,0.4449842492191382
25,0.4475103373415821,0.4447786488897586
26,0.4446389746366944,0.44467171798175936
27,0.4446678068210529,0.444891945413053
28,0.44475568221964723,0.444684028963945
29,0.4446358331422778,0.44472382141039596
30,0.44465942086743726,0.4446963658138937
31,0.4456479274253801,0.4446886288022154
32,0.44467182527464677,0.4448050971967747
33,0.4447494520916029,0.44509474186427306
