epoch,loss,val_loss
0,0.6273421409139607,0.5929965673970586
1,0.5655059304926299,0.5607061632456535
2,0.5589307471057011,0.558979196629208
3,0.5566226437040085,0.5561575653513845
4,0.5560279364123579,0.5559262613741531
5,0.5558823834132265,0.5558716181542515
6,0.5558400794487923,0.5558085414029309
7,0.5558243490814494,0.5557903744366464
8,0.5557967945565624,0.5557792316075876
9,0.5558139923240905,0.5558124624239554
10,0.5558410860826274,0.5558225592162783
11,0.5558293215659962,0.5557967546116239
12,0.5558207218097824,0.5557905900940114
13,0.5558411428704481,0.555835714919938
14,0.555858258397993,0.5557809062309668
15,0.5558505219963805,0.5558630987031782
16,0.5558421719058936,0.5557779359106746
17,0.5558861100917881,0.5557758088069329
18,0.555866339387069,0.5558025307380701
19,0.5560202072401913,0.5560002913220711
20,0.5559743164188681,0.5558280384073971
21,0.5559333600247417,0.5559074180263024
22,0.5559642043141756,0.5559518712815831
23,0.5558480926890151,0.5557917296415023
24,0.5559642997114277,0.5561342782361153
25,0.5559011178087264,0.5560133605983915
26,0.5558711552416833,0.5559348266740233
27,0.5560394692401617,0.5562436271574454
28,0.55674244067416,0.5608164821113977
29,0.5578234910836013,0.5557819945989674
30,0.5700026497654866,0.6107415522457595
31,0.5748741310279982,0.5573556977168369
32,0.5567903682971354,0.5561983621862641
33,0.5560796192569074,0.5559647705680191
34,0.5559410525620745,0.5558826938600914
35,0.5558822950681094,0.5558542749795197
36,0.5558640168409674,0.5558515961308964
37,0.5558457347895535,0.5558436310356564
