epoch,loss,val_loss
0,0.40514335009882635,0.34860162291607055
1,0.3429622232760839,0.3354660297015501
2,0.33440099317978655,0.3338145467952646
3,0.3337727363977122,0.33368668698123444
4,0.33384868666226414,0.3335830042241819
5,0.3336304778235815,0.33353489656110874
6,0.33377854788080125,0.33381597780838046
7,0.3336507094981551,0.3337208213803251
8,0.33394204623421453,0.3346041241576478
9,0.3339034759944322,0.33351511790021826
10,0.33366537795299916,0.33360332357571587
11,0.33375369469636385,0.33358414870951436
12,0.33387240364499804,0.3337734128695863
13,0.3343000751174848,0.33377042981486027
14,0.33395439805466104,0.33402662310100334
15,0.3342014786442091,0.3339896963735885
16,0.3340700617745508,0.3335346541173123
17,0.3337189664315052,0.3337284237889774
18,0.33379811163961215,0.3337211474168859
19,0.33374050031302466,0.3335608960443035
20,0.33383041710521844,0.3336014661615361
21,0.33374860737082135,0.33364952371488404
22,0.3339521922657209,0.33385925295023666
23,0.3339380328783068,0.33492212626373663
24,0.3356640063199526,0.33370286497642343
25,0.3335703339342832,0.3335047076728034
26,0.3336058073700357,0.3338915864997257
27,0.33365064156796126,0.33372894924906876
28,0.33364040061068834,0.3336271478520086
29,0.3336337455008417,0.33409475860163446
30,0.33378294478016624,0.33447572296397293
31,0.3403593485954688,0.33529816857701356
32,0.33482974633492885,0.3341520098118288
33,0.33404351829410556,0.3349734483166994
34,0.3345446464042781,0.33398518466702876
35,0.33528658657808685,0.33435133957181107
36,0.3344218604854489,0.3340374797649109
37,0.33380152951928765,0.3336317386546935
38,0.33363476779847606,0.33351567559226775
39,0.33358420460729166,0.3335490892417434
40,0.33354202307598013,0.3335594006941928
41,0.3335654615598295,0.3334959508064334
42,0.33356255775459975,0.3335600037998806
43,0.33356664839183237,0.33369309372506406
44,0.33369765949776364,0.33370327916887027
45,0.3340335775885312,0.33388179439701526
46,0.33474995537894175,0.33423823370239214
47,0.3338920468531615,0.3335517243508803
48,0.3335915062810512,0.33369017593204503
49,0.33358372117135,0.3335272204655949
50,0.33354785323916725,0.33351942553551145
51,0.33361952863449773,0.3337687288946033
52,0.33355684598265456,0.33350926161996974
53,0.3336565456133441,0.333521896462923
54,0.33371046825021367,0.3337517772538501
55,0.34875120458412057,0.3348315450693574
56,0.33414739938546656,0.33369947379125203
57,0.33379211422396227,0.3335951271574001
58,0.33356272458393443,0.33354371190191984
59,0.33355351960946755,0.33357392246354256
60,0.33352251635886665,0.3335541319264478
61,0.3335221566939385,0.3335520040913978
