epoch,loss,val_loss
0,0.5231948870545576,0.36086290862008585
1,0.27718336472355587,0.24737443741546203
2,0.2549636438224514,0.2356282681093765
3,0.2219488165623614,0.22236963927661205
4,0.20209881476850156,0.1928889577159338
5,0.19590571748020805,0.19210675344569184
6,0.1917507588703194,0.1770748488017256
7,0.18654568062696844,0.18269051341564702
8,0.18390341276855815,0.17073008049104935
9,0.18480546470104758,0.18504420877760117
10,0.18701660858395255,0.18185861087176602
11,0.19031137393630915,0.19286990016426864
12,0.19631088477532094,0.19072176167929156
13,0.1977715486778278,0.19927145597828835
14,0.19598360294086092,0.20435258354504388
15,0.19554958044092405,0.19368655353790604
16,0.1916344148575226,0.1876896226643017
17,0.18758961016302986,0.17965903017564905
18,0.18472895755776042,0.17315016434886976
19,0.1782966140163149,0.16915119444349672
20,0.17473554816869583,0.16388362333483736
21,0.17476528544035974,0.160420026058262
22,0.17433342749237615,0.17198656674053672
23,0.1750138225259603,0.16785762414163954
24,0.17561301012972935,0.1762174942525592
25,0.17962007776421063,0.16644268464640802
26,0.17730698393386368,0.17365029334864832
27,0.17839581928501239,0.16745390041475
28,0.18055997845422012,0.16840451717062427
29,0.18003071818888738,0.17563533162253547
30,0.1823868837251756,0.18118934866393757
31,0.1841295706658827,0.1762568515615322
32,0.18490245216287618,0.1790935019587581
33,0.18492909521242268,0.17888144654365565
34,0.18618604338485828,0.1788267375120549
35,0.18422438950177658,0.17186521215217396
36,0.18498737468745835,0.18762453936328996
37,0.18375485482376422,0.17594192132785919
38,0.18617223353085394,0.16976419990250316
39,0.18363597185015013,0.17350622066025606
40,0.1834667514831707,0.1800169241135852
41,0.1814406317797651,0.16849207095733837
42,0.1807136358148294,0.17068099272381676
43,0.17823199993389494,0.16754401710448752
44,0.1744195331413525,0.16322074034856604
45,0.17520339018601502,0.17105002727271143
46,0.17595768637177717,0.15981091197207645
47,0.17552623778639043,0.16047887849507964
48,0.17425456864937072,0.17470410515451693
49,0.17344819134878176,0.16330157007921592
50,0.1708535257779419,0.16270321160947737
51,0.17133826677739505,0.1627072909134103
52,0.17444776815202,0.1596863865761698
53,0.17068590351327803,0.16635941315908456
54,0.16999608018664,0.1637975031283728
55,0.1674927095439175,0.1584345054684486
56,0.16614162961799103,0.15390110870170148
57,0.16352457590246283,0.1579739528890798
58,0.16118957954117474,0.1532178898928398
59,0.162977805917433,0.1464935580740302
60,0.16068870032272478,0.15121689449094464
61,0.16295136063127438,0.15353549766059435
62,0.15911500907557186,0.14825085851984657
63,0.15979844047650643,0.14235694590699863
64,0.15543174447170463,0.1430047322929667
65,0.15602112599468995,0.14427980155665357
66,0.15412489315816952,0.14410376738846797
67,0.15301355424746696,0.14782624844181394
68,0.15225324775971114,0.14100822484522266
69,0.14796672682257553,0.1438663522035784
70,0.15106774216950175,0.13474835633862892
71,0.14712394911169874,0.13787902374280633
72,0.14732416111047703,0.13388948492619696
73,0.1472603291523963,0.1405440858818169
74,0.14639678591405775,0.13849580875397502
75,0.14063254935197905,0.1354150728639302
76,0.1433161502813014,0.13393825133029116
77,0.14456931272616627,0.13449129090241935
78,0.14269133824875868,0.1277928533007228
79,0.1397889988328221,0.12181747807641223
80,0.13964641824230173,0.1408548669897502
81,0.1368488722783341,0.12369059695297699
82,0.13688349460956473,0.15020655847736847
83,0.13719379851263444,0.12682017290829115
84,0.13576535419824942,0.12782027025272097
85,0.13702700473651502,0.12931112635633665
86,0.13271806653615076,0.12182300547948113
87,0.13422158206951398,0.1255594100164753
88,0.13386195399537312,0.12410989718912485
89,0.13642063314179573,0.12468204828467627
90,0.13280126536766518,0.13614753809765273
91,0.1300013020631629,0.1164949360990882
92,0.12899471600288287,0.11609644267977771
93,0.1293277393646093,0.11962399728893872
94,0.1290160397927305,0.12877497383714617
95,0.13050103182574338,0.11515871258469533
96,0.12958343469997458,0.13642702310600477
97,0.128227640863256,0.11587926524360193
98,0.12791864162930705,0.11688158570922333
99,0.1263215848219321,0.11834262539765772
100,0.1284693945930256,0.12047342857853247
101,0.13017059192733874,0.11747564160238776
102,0.13147917033245204,0.12029232974559873
103,0.13170039852188223,0.11931481786394091
104,0.1345235184341255,0.12675932521475325
105,0.13644766072547046,0.12792310449274916
106,0.13583160275868236,0.1174193305932129
107,0.13314158467700765,0.1220964089540651
108,0.13539071545502004,0.12747625517654168
109,0.132296576227091,0.12315094163798096
110,0.12886768770337576,0.12104596781745157
111,0.12826908548509794,0.12241083091792362
112,0.1291999440051252,0.1113753498274447
113,0.1271921748966175,0.11631945783094469
114,0.12861778366705937,0.11970103123661374
115,0.12557516384017164,0.12685385557645912
116,0.12749076601929699,0.11885707219373234
117,0.12836876221438617,0.12645479007313398
118,0.13286486564827624,0.12828126930182374
119,0.12870570977522847,0.11818574007832479
120,0.12874990178072093,0.11966786010194999
121,0.1278534357270439,0.11807621387971437
122,0.1278630399190803,0.12038149665176107
123,0.1260351446933116,0.1153709071417702
124,0.12907430912512405,0.12159917899015539
125,0.12748028343546622,0.12768731055177993
126,0.12652376853099592,0.12179954062608647
127,0.1273015252191824,0.12385271817197957
128,0.1274478770894485,0.11991638812319402
129,0.12809176772799627,0.1332318186004465
130,0.13283156675881877,0.1294528984381035
131,0.13469087425194362,0.12326168158165075
132,0.1320861689765269,0.12392960797033598
133,0.13503730240270484,0.11951383116387422
134,0.12903560890549157,0.12231816717218952
135,0.1285717575448653,0.1245880518988745
136,0.12662812479081376,0.11903397699648409
137,0.12848931588908744,0.12215713454934361
138,0.1284130447496085,0.12200831981646654
139,0.12649159761153833,0.12722676857184792
140,0.12784387470923697,0.11325030347331981
141,0.1266922677911787,0.13063570726500445
142,0.12741293366924766,0.11550024304107584
143,0.1291734685539752,0.1322066408278516
144,0.12381559225031044,0.1193802451880702
145,0.1268578897430645,0.11531276810824376
146,0.1251524147796602,0.1181346489434986
147,0.12556973663054352,0.11467770828850925
148,0.1246140341634937,0.11197737435755684
149,0.12704941737048586,0.11401985313413207
150,0.12691794707880047,0.13321138959498127
151,0.12531694807788443,0.12543685691964915
152,0.12423762042162663,0.11058268252449668
153,0.12307658746510657,0.12587294332748059
154,0.1254548318438544,0.10900484467285251
155,0.12506520903859417,0.12332572556368794
156,0.12162302424395476,0.1296411297808939
157,0.12164513478745989,0.10744710564552903
158,0.11942021531370128,0.10828846690923585
159,0.11903001165480077,0.10817291493608995
160,0.1162823923714153,0.10597710299627265
161,0.12069044238521753,0.10420765624257136
162,0.12164500918159643,0.10990847179545662
163,0.11904635235112647,0.10874589115586733
164,0.1198285729502969,0.10735612152598736
165,0.11934752185069551,0.11211403361550937
166,0.11853411564622904,0.1011861575632544
167,0.11835373025064523,0.12417735266675815
168,0.11977763284644156,0.10588229909808175
169,0.11879173170591197,0.1077265783379852
170,0.1168120447997691,0.10187007324693412
171,0.11912709621746755,0.1205695152231342
172,0.11762305123879017,0.1251280870559829
173,0.11737251676896343,0.10702823083436022
174,0.11834692995666236,0.10605845644184649
175,0.11683033846470589,0.10869347573813452
176,0.11267232979671332,0.12219058083269471
177,0.11321450691020775,0.10997923060456871
178,0.11226446734379228,0.10993952632609161
179,0.1131232324396424,0.10209711363659599
180,0.11373671437328914,0.10355752315640425
181,0.11126933654929112,0.09899786242520536
182,0.11134420417951119,0.10411024100276187
183,0.11546268864095531,0.11122140391098755
184,0.11290263654693437,0.1106977600659446
185,0.11213884999430236,0.1058201975191227
186,0.11428560289211367,0.10696639231483779
187,0.11512824806183858,0.10783873471695665
188,0.11530806611924563,0.09964488506093515
189,0.11404919251686249,0.10322587687655893
190,0.12096482000194038,0.11091504896770164
191,0.11650968191000743,0.10282220226819992
192,0.11806250711826098,0.11727756807435916
193,0.12061744837692744,0.10648667762636582
194,0.11874273999423868,0.10641609665661403
195,0.12073367720908246,0.10571054303333015
196,0.11775951310062902,0.12947768384231512
197,0.1163893121424728,0.1023813515925741
198,0.11209022434557346,0.1016983763033177
199,0.1148898046693796,0.1113903478461863
200,0.11695776360415261,0.10841711906705273
201,0.11537576240206233,0.11245231787009115
202,0.11665694964710567,0.10447161909267594
203,0.1143607942799431,0.10179254555588585
204,0.11329722763975594,0.10480745895545687
205,0.11391888881035526,0.10204346227164782
206,0.11280038993929936,0.11590540704633372
207,0.11224385997173378,0.0990460860369003
208,0.11260305513548399,0.10177523687049743
209,0.11174553180004446,0.12404474780897272
210,0.11126267784127308,0.09820908072318249
211,0.10820973873132383,0.0927463138932704
212,0.10753752585115521,0.09239806536878976
213,0.1101651900079475,0.09988703244182358
214,0.1093981480593312,0.11255760490894318
215,0.11145060759458203,0.09822232764848128
216,0.10828185884944808,0.1026211693940359
217,0.10925413044969495,0.11434345722615513
218,0.11057055797308891,0.10361228889008126
219,0.10796819989953971,0.1022386858083007
220,0.10462979343434084,0.08952290386934596
221,0.10565362186155532,0.11108145644482965
222,0.10529038305290934,0.09489671413487727
223,0.10619449641469791,0.09264720821478525
224,0.10414400318672057,0.1031195758999639
225,0.10499825793938104,0.08750479169759565
226,0.10126434895646777,0.0907677681393252
227,0.10315972459466156,0.09387212813722509
228,0.10290952278218952,0.09297037617813571
229,0.1007205497334833,0.09207377924720406
230,0.09975987991274474,0.08596576381904604
231,0.10136353970178423,0.09597690740105008
232,0.09979502304719025,0.08870906595392272
233,0.09863601069024364,0.08181410440444173
234,0.09697688673469433,0.10854090005612668
235,0.10002806611512498,0.08085873151582193
236,0.09955048232351883,0.09658366858753706
237,0.09864765205733639,0.09037347914716386
238,0.10108221962484333,0.08150184739103812
239,0.0991190853179704,0.08220049350867525
240,0.09794550099445155,0.08804994786645114
241,0.10039153369308884,0.08090192093596064
242,0.09872896790099475,0.10675605499667054
243,0.099079125561859,0.08479104139843037
244,0.09799244341792496,0.08540142796249182
245,0.09884836139011402,0.07899749249860545
246,0.09579873652674463,0.08451284790312245
247,0.09607033243848809,0.10916761741347353
248,0.09711250936089828,0.08287473331175138
249,0.09679187510656351,0.09064377528088158
250,0.0997030693611162,0.08477607383323814
251,0.09797547721358683,0.0918101772780811
252,0.09911797590151047,0.08440078999390106
253,0.09567696901412102,0.08285447536593542
254,0.09619278544306017,0.0843235474163706
255,0.1004904250914397,0.08969760302826686
256,0.10022059355062206,0.10210270303012729
257,0.10071365134963374,0.07941513743513715
258,0.09892238034548376,0.09625509952288858
259,0.10036411023885843,0.08653807168956026
260,0.09986449572643127,0.09176676001462461
261,0.10136349925512765,0.09119901416739787
262,0.10185403144482896,0.10076255195524261
263,0.10122939502944474,0.09772523654097115
264,0.10208699050351967,0.0883755021521006
265,0.10708856001993473,0.09010052474873276
266,0.10025342426239846,0.10443950845923972
267,0.09908995028381572,0.0997296501380922
268,0.09715604041202014,0.09392338806524936
269,0.1010865148856908,0.08651747034767825
270,0.09614261987242928,0.07964622661776583
271,0.09491358313060849,0.08689374764208328
272,0.09554968063940855,0.08037747739023042
273,0.09516393012249039,0.08111295535408007
274,0.09558479681546082,0.07966468460091808
275,0.09906694321280113,0.08733456049366042
276,0.09499156544276467,0.07720763240363868
277,0.09418370148123381,0.08231999595613466
278,0.09489655726571412,0.07746430768840479
279,0.09570068000746769,0.08161665493166488
280,0.0950527161959702,0.07912138207940053
281,0.0952421039503059,0.08886156451917279
282,0.09959579865192136,0.08251014612939966
283,0.09662697347040267,0.07863145051899896
284,0.0992862210576813,0.11576961360145016
285,0.09722784734282432,0.08430652317211948
286,0.09834739543862497,0.08516308223166492
287,0.0980349153253058,0.08578891726560124
288,0.09647948890108449,0.08518553123896466
289,0.0944347783232567,0.08731331743482788
290,0.09939633335227983,0.085924982196587
291,0.09577264675590791,0.08127329507897432
292,0.09722408976818772,0.08297883407039977
293,0.10005633572290085,0.08453142896061905
294,0.1004524713397425,0.08242688414757258
295,0.09737566818863126,0.0898851254991575
296,0.09385597351785485,0.08532059322147383
297,0.09519323074827328,0.09831027761691
298,0.0953801364823307,0.0842991693055284
299,0.09683341911556924,0.08687531290969847
300,0.09669560065570244,0.08275818512602187
301,0.09561099775718054,0.08216155903790501
302,0.0984573338410093,0.07818641020255165
303,0.09888525433508187,0.10628901981383931
304,0.10378296391473872,0.09590528420068942
305,0.10024397521334624,0.09440788997462254
306,0.0998346901929121,0.08826121799096305
307,0.09785572106305586,0.07439473045329201
308,0.09675765712252013,0.07968806875656208
309,0.09911901015331581,0.08435574626613161
310,0.09512476432354887,0.07997643096926632
311,0.09782738171554871,0.08002007544596716
312,0.10070498456469947,0.09629874555588591
313,0.09843790241174386,0.09782602972836602
314,0.10111668493627789,0.08695020568048076
315,0.10233191707750543,0.08354554524185498
316,0.09837347208386732,0.08584548712163541
317,0.10000798964510098,0.08338751973740302
318,0.09712801631149058,0.08590542324245447
319,0.09988974427375381,0.08443047222157227
320,0.09487036394155385,0.07871275305252388
321,0.09471554983316215,0.09334565875581495
322,0.09655118472447273,0.09034309803810982
323,0.09944645401467031,0.09529249052190558
324,0.09697115887778125,0.07848640800858095
325,0.09438169933383309,0.08308752436554231
326,0.09364842970954418,0.08464391231597304
327,0.09984773819426133,0.09252574495613104
328,0.10191800550643335,0.0899914651655856
329,0.0979452982745878,0.0820668156025884
330,0.09584914344601767,0.08140956926686699
331,0.09788556188577668,0.08164765066753366
332,0.09487850631773925,0.09948496350082126
333,0.09600659599079103,0.10126271821245705
334,0.09845062490862821,0.07751904319971044
335,0.0928097360599973,0.08415206768339388
336,0.09526174227315047,0.08083567159717646
337,0.09674715996166354,0.0945127369396659
338,0.09846003256732896,0.10114054712144871
339,0.09904034079804573,0.08629460915654166
340,0.09620856091526699,0.07619210567738603
341,0.09452142906822426,0.08621704929850692
342,0.09581705936764429,0.08393412537130907
343,0.09437524118175396,0.08362339328218246
344,0.09529487379994624,0.09145986635855162
345,0.09804097590908513,0.08370555720164166
346,0.09669657817550344,0.0834463727015483
347,0.10143252631923076,0.09148559882659696
348,0.0968938403684582,0.09154432321345436
349,0.09464406408048429,0.09126891241858587
350,0.09481713882373659,0.08627187580027365
351,0.09655534845133024,0.08635239778915686
352,0.09669818476653948,0.08933047837851812
353,0.0938713756170709,0.09163960770355763
354,0.09790232992401326,0.08271998421938176
355,0.09847716460507464,0.08442623267802814
356,0.09660696440013956,0.08645203097207241
357,0.09673165264084668,0.08453287424180068
358,0.10018480116241349,0.08713380204896322
359,0.10771925728807777,0.09097475449578608
360,0.09686330640978486,0.08177547144571924
361,0.10009423548830002,0.10781169119452493
362,0.09936275960961216,0.08676362822153003
363,0.09909093327160697,0.09942922546864282
364,0.09594967022754275,0.08596956667637057
365,0.09854288632007656,0.0926266647036722
366,0.09604913200520077,0.08470527289986393
367,0.0999557770650402,0.08398811014785024
368,0.09856576178154516,0.08094387630665914
369,0.09653401985158544,0.08587699700951504
370,0.09793560187547762,0.08533060042551337
371,0.0999581506699641,0.09746378882616438
372,0.10021938499633323,0.08720086667406417
373,0.0957723980518858,0.07858672378918288
374,0.09600971672400997,0.08899517190991878
375,0.09592071369603154,0.09020078227851677
376,0.09756147767489005,0.08173724802264189
377,0.09729290932444117,0.08692507672759539
378,0.10060590224984862,0.07996483427882074
379,0.10344337815778297,0.08777549164643565
380,0.09723379495295364,0.08368848432388055
381,0.09898385024284714,0.10683165776955625
382,0.10027309122475803,0.08440853042489882
383,0.09986566215520842,0.08417408065267906
384,0.09912882822710896,0.09181238383151435
385,0.0972070572808069,0.08055406541411907
386,0.10299771202256115,0.09079294082112013
387,0.09860357966762492,0.08626615087598218
388,0.09774893252376417,0.08037015664253533
389,0.09437041928401016,0.07878229570507254
390,0.10238394536204155,0.09567746593324342
391,0.09972686068866136,0.07787672047246617
392,0.09442193628463623,0.08610146927122798
393,0.0985200496044982,0.09470794306695159
394,0.09880221981149866,0.09017923648979669
395,0.1007298666682752,0.0909167567392291
396,0.09984046504265662,0.08338934414147654
397,0.09948737819445519,0.08908468988332902
398,0.09922505898995956,0.09095195280450324
399,0.10119488737716381,0.1008242159262919
400,0.10024668896171678,0.08144330180753827
401,0.09891420252218461,0.08264353460815659
402,0.09931316727203984,0.09032291942110798
403,0.09938471453186344,0.0834908771151656
404,0.09780724027791259,0.09329179707628263
405,0.10314957142154267,0.0919336813581906
406,0.10163766846412844,0.08795476956109782
407,0.10081143088199802,0.09284495094066168
408,0.10261665190490817,0.07944593312042379
409,0.0960894754016125,0.08001527540450695
410,0.09783494298271446,0.08479363766965942
411,0.09811365630694135,0.09179368720464884
412,0.09819989569312164,0.08634048560265957
413,0.09462078734393681,0.09144994342721179
414,0.09615277640476948,0.08563032984141282
415,0.10150956004501392,0.0864174652703392
416,0.10312307749769772,0.0947340488195105
417,0.09657487663538723,0.0935450463133249
418,0.0987282636371494,0.08840240186820333
419,0.09854211690501792,0.09421497545161805
420,0.09992375058983223,0.09185732599507238
421,0.10128168370727714,0.08379647444123019
422,0.10215788304763444,0.0955720094288128
423,0.10018166763151336,0.09425800531510285
424,0.09939296503402364,0.09521076256642354
425,0.09867581599017522,0.08328396930181577
426,0.09604949477767984,0.08751768274019321
427,0.09820618397936764,0.0928687590828437
428,0.11197760848060437,0.08982401190858612
429,0.09859422760305461,0.08689901854935826
430,0.0966627445291426,0.08488827786056875
431,0.09691505032331703,0.07907779226950278
432,0.09665923293548863,0.07988391264206351
433,0.09612771999493246,0.08176215867245809
434,0.09475443361164795,0.08342482422028417
435,0.09557124658634789,0.08227508007283386
436,0.09646933478502627,0.08522034953366281
437,0.09625391151513135,0.09697294058899589
438,0.09466167074915192,0.09421171807470391
439,0.0948812164356423,0.0833588890252358
440,0.09843436041131923,0.08431609032954775
441,0.09674577785894047,0.07981686439736091
442,0.09834296888632243,0.08886647925515176
443,0.0984668878623274,0.08977775533327198
444,0.09879245384341381,0.08223088489986292
445,0.09962946850639874,0.09791033944525648
446,0.09931471031893944,0.08844613286290152
447,0.09702295709268012,0.08405996715078438
448,0.09982993404402983,0.08773302446270395
449,0.09832534688431308,0.08623983763737023
450,0.09826219756065162,0.0954379379247657
451,0.0965929371185337,0.08813261126038317
452,0.09790804269389732,0.09241828950217568
453,0.09937373892979404,0.09538523057905178
454,0.09880974074005294,0.09169891683482612
455,0.10083935864102754,0.0862867708254286
456,0.1095103039792048,0.08747786672869359
457,0.10973072768499832,0.09126032344185539
458,0.1007149447382385,0.10682754846838613
459,0.09827616493916635,0.0817021843951775
460,0.1019466629017803,0.09115413765688742
461,0.09873970742898881,0.08125494951180187
462,0.10076808677463983,0.09136037769816367
463,0.1002304434675061,0.08874526917571786
464,0.09983839774189802,0.09056183483653318
465,0.09951020309231415,0.08708831466488122
466,0.09820460802479263,0.08278589642506007
467,0.09462650259356992,0.08345932358450156
468,0.09734626533326653,0.08454820744450013
469,0.09667827227955572,0.08990302091890115
470,0.09626276144184963,0.09242234723855892
471,0.10048415362018925,0.09102475329027822
472,0.10007207307179913,0.08171462430670642
473,0.09829743250172396,0.07940148971967295
474,0.09821766296823034,0.08344493356849329
475,0.10156974662765868,0.0852038323459193
476,0.10162392316142246,0.08947879479432343
477,0.10122187395657842,0.09103450890161328
478,0.1015448131467348,0.08979485616544226
479,0.0987497948796908,0.09078391987238857
480,0.1024962390832782,0.08746023485491808
481,0.10358620843908727,0.08423414945306268
482,0.10027748131145148,0.09924342780640487
483,0.10237691112088572,0.0856296818448815
484,0.10321534231974548,0.09256659997987883
485,0.10245445109401365,0.09377329244898434
486,0.10117296301808419,0.09169301644339327
487,0.10171722105660141,0.08819870711811366
488,0.10223096345500594,0.09272106102896471
489,0.1018629666017768,0.09303282604416252
490,0.09763370483324889,0.08318307127443199
491,0.09665472189869459,0.08774809675456254
492,0.09685613237636445,0.09340823620793497
493,0.09793535692659042,0.0796106121520004
494,0.09844665532073557,0.0876256885262755
495,0.09877465290053598,0.08105482647274406
496,0.10145626721161155,0.09167608847798936
497,0.099853763976931,0.08281714068334742
498,0.10129165236122552,0.08610880358287805
499,0.10008180878271426,0.09421480125368935
500,0.09855070919925743,0.07942135714688037
