epoch,loss,val_loss
0,0.8031676286543997,0.7838444133676155
1,0.7821971315349803,0.7896779959474028
2,0.77952146788461,0.7780234186215614
3,0.7779350179573656,0.777915951422856
4,0.7778843420327665,0.7779009753781142
5,0.7778722828698766,0.7779011505173757
6,0.7778684848317686,0.7778863285308772
7,0.7778594803273351,0.777891805219834
8,0.7778797184395005,0.7779724344934515
9,0.7778907918469046,0.7779014034775057
10,0.7778704098671559,0.7778739247571573
11,0.7778814661277976,0.7781189650001016
12,0.7779169416469522,0.7778885479849508
13,0.777908170862361,0.7778753511225373
14,0.77795361200732,0.7782577788387393
15,0.7780823498152307,0.7780734196054454
16,0.7785586833099541,0.7779702690473993
17,0.7783077669896442,0.7780313962880507
18,0.7779880413402369,0.7778517243538684
19,0.7782922708015398,0.7780859664738287
20,0.7781097217784774,0.7778889458287297
21,0.7778756613140133,0.7778676059395467
22,0.7778796720606311,0.7778638596468005
23,0.7779065052568852,0.7781264851456408
24,0.7779471481815973,0.7779791948882834
25,0.7779510102530908,0.7778815918412612
26,0.7779200855370798,0.7779690453813275
27,0.7779882135332239,0.7778771052953317
28,0.7778871309546878,0.7778651325704118
29,0.7779741073813692,0.7782436635619461
30,0.7839986462032454,0.7786387105883558
31,0.7779949637683118,0.7778794250172066
32,0.7779056821840786,0.7778781118897728
33,0.7778666878470333,0.7778677115863923
34,0.7778492648544632,0.7778490489139878
35,0.777913445093659,0.7778380602277866
36,0.7778598682753544,0.7778587163739696
37,0.7778760321112403,0.7778610605372543
38,0.7778649915103681,0.7778306461642515
39,0.7778537349973019,0.7779599370639239
40,0.7778699845629704,0.777843740933615
41,0.7778536800188577,0.7778582227711164
42,0.7778437161822807,0.7778362937738484
43,0.7778860595097173,0.7779104719416313
44,0.7778852375491332,0.7781023434634335
45,0.7778748535785929,0.7779060536914315
46,0.777868253320252,0.7778925246579292
47,0.7778553919588751,0.7778899567143184
48,0.7778652753769348,0.7778561075858861
49,0.7778852652096215,0.7778679179361978
50,0.7787429961727177,0.7782429257021355
51,0.7781779354399273,0.777984920318749
52,0.7783020621993125,0.7795972255731156
53,0.778493375309453,0.7778782387385139
54,0.7778990574608742,0.7778557826795289
55,0.7778517596338497,0.7778472385211156
56,0.7778504063855658,0.7778330443597328
57,0.7778448128537453,0.7778425639866574
58,0.7778450099065155,0.7778739529095032
