epoch,loss,val_loss
0,0.7040263638358741,0.6759991999983763
1,0.6703554593672916,0.6679160444810458
2,0.6672190717441558,0.6669503996638637
3,0.6670037740368637,0.6668206095768022
4,0.6668455406784665,0.6668069369530393
5,0.6668216077633896,0.6669465898742204
6,0.6668334382194977,0.6668178796574785
7,0.66684893290046,0.6669733942920938
8,0.6668244305073502,0.6668125015561273
9,0.666855086609555,0.6674839906217699
10,0.6669258616185157,0.6670613994682519
11,0.6672107129211109,0.6671231368617435
12,0.6668739283949663,0.6668783495064029
13,0.6668356803027541,0.6669047971909005
14,0.666873263890422,0.6669984907123385
15,0.6668962522949282,0.6669107385930123
16,0.6713671574292129,0.6686933516754966
17,0.6703411220142141,0.6669577711543793
18,0.6670432159306029,0.6671997617210198
19,0.8360874439605988,0.800575533338213
20,0.6871358415843685,0.6720480672294387
21,0.6688525783033192,0.6676404219422178
22,0.6678339695722544,0.6671820424604407
23,0.667098523737749,0.6670256429911868
24,0.6669886422507073,0.6669491184722384
