epoch,loss,val_loss
0,0.39731224673199417,0.3416809765484144
1,0.34102158296479795,0.3364175552288095
2,0.23928014114403384,0.2231314774187891
3,0.2545205942919204,0.32428587836224176
4,0.3322929745795285,0.1348965583515322
5,0.1299657993394909,0.1188419488523268
6,0.11598048045940118,0.11350472164617013
7,0.06365092366845955,0.0011808355903005349
8,0.001041702645183273,0.0008504476615053431
9,0.0007072851118112133,0.0006335442875132503
10,0.0005748604212332355,0.0005368958715449726
11,0.0005049629919431484,0.0005422731855817806
12,0.00044003996578792336,0.00039333281090791496
13,0.00039247385465443214,0.00040765502030320566
14,0.0003760544803545208,0.0005286416961198407
15,0.0003637750082683512,0.0003408736157080125
16,0.00035083767294077266,0.0003118578858985304
17,0.00033091694434603556,0.0002941055431410699
18,0.00032748903478633986,0.00033403014785213415
19,0.0003417628877840938,0.00040389294475209344
20,0.00032483248704633604,0.0005978384040134782
21,0.00032762616029829094,0.000310502220439562
22,0.00035428608823082167,0.00030444613472798234
23,0.00033839349289028727,0.00040883609847604013
24,0.00034596156392216546,0.0003263380265687463
25,0.00034096462037040297,0.00029609081255520584
26,0.00034714243979194276,0.00030208698221220466
27,0.0004293301324183297,0.00026948918377738554
28,0.00033295523893651897,0.0002860047345853703
29,0.0003982205598834828,0.0005604684434573239
30,0.000487665878619645,0.0004640215314861256
31,0.0003531218792093861,0.00028519734552307077
32,0.0005430027702155847,0.000325361687144159
33,0.00041721564923177074,0.00044858197613045666
34,0.00041344832840859997,0.0003081738770669513
35,0.000444319621655817,0.0003271282779222271
36,0.0006636938582487009,0.00040964465800102755
37,0.0006945100583777512,0.0003997226348883865
38,0.0007510052879619128,0.0009511256248581965
39,0.0005530719876975345,0.0003719735430065135
40,0.00042683901157671277,0.0005278490500570347
41,0.0007797693520888334,0.000785071622327014
42,0.0006525315664458075,0.0012330787928835013
43,0.0005172152882139959,0.00039331569390702346
44,0.00042437356396949244,0.0004011144282583289
45,0.00044192443590374594,0.0003282806356135783
46,0.00037865526392754246,0.0003723215434154036
47,0.00039133279116105327,0.0004199390091199169
