epoch,loss,val_loss
0,0.4176904414143542,0.34363293922762195
1,0.338095823461664,0.3381439336921013
2,0.34290890693745146,0.33692903097781657
3,0.3557320930787576,0.34556378956934763
4,0.3514798947424654,0.33866324442391754
5,0.33704576029044747,0.33575913681748965
6,0.33509381370824587,0.3346250125032679
7,0.3342903716114776,0.33439419244056634
8,0.3341331134081999,0.33381451067105433
9,0.3337832912837957,0.3336823463584994
10,0.3337569790065881,0.3336589944952522
11,0.3336967154183806,0.33360416384285785
12,0.3336813563016162,0.33378700599228484
13,0.3337860443184095,0.3338119361456691
14,0.33375738247333403,0.3336392916607533
15,0.333657688647559,0.333733920313915
16,0.3340082339643747,0.33417524083998545
17,0.3338185932418491,0.33357364317027144
18,0.3336503707720231,0.33373483655854524
19,0.3340429809818677,0.33372275507418675
20,0.33531645607709737,0.3351529792292658
21,0.33389846237377463,0.33361507319722306
22,0.3336412238346121,0.3338667308430816
23,0.33360754304552453,0.33360385223905836
24,0.334012925999618,0.33370165036406874
25,0.3336689961193525,0.33379310196636897
26,0.3343211178036992,0.3336967944047244
27,0.33364343090502585,0.3340460521542405
28,0.33370967416772657,0.3335315646783886
29,0.3336252777243263,0.33366228104290435
30,0.33362971018055587,0.3335583053576103
31,0.3336534264943444,0.33358898500210615
32,0.33365383435154805,0.3341957587205573
33,0.33382498304030367,0.33389787850672953
34,0.33373580571281913,0.3340258156158116
35,0.33366689090796137,0.335121022091993
36,0.3354951698630474,0.3335916702451437
37,0.3336954434086767,0.33370789911509574
38,0.36550989348904034,0.33753865169743885
39,0.334564824325464,0.3337219577789597
40,0.33372064243585775,0.3337549096102938
41,0.33364778777848764,0.3336032498707227
42,0.33355331198050975,0.3335240587480313
43,0.33374843581252644,0.333719657185933
44,0.3336283816086997,0.33387507179450177
45,0.33358745496652326,0.33365815801761667
46,0.33376008804304974,0.3336863135123828
47,0.3335865950694828,0.3335123042732967
48,0.33356810188319247,0.33364319100846046
49,0.33389090168114227,0.33363972945451204
50,0.3337143855802219,0.33395191015348163
51,0.33360957790884704,0.3336495784663013
52,0.33356798305471824,0.33362283828872086
53,0.3336219891586424,0.3336975579570259
54,0.333557951660703,0.3336463549803875
55,0.3341070922511835,0.33395351883824037
56,0.3338649149748127,0.3351683278604541
57,0.33379616127094114,0.3335426341288231
58,0.333754649051715,0.3337569955190184
59,0.33430236285424814,0.33841088229854166
60,0.3346631602223525,0.3335615373593367
61,0.3338763367455949,0.3335792367053646
62,0.3367880586738495,0.3358842982732846
63,0.3346509092756446,0.33375669062995833
64,0.3962061932016665,0.33427978394191565
65,0.33439508797986844,0.3343821437381581
66,0.3342182787700548,0.33496304253757275
67,0.33396316252658403,0.33370591751752143
