epoch,loss,val_loss
0,0.3026963271249518,0.24804781794342542
1,0.22588260095236823,0.22324342234541789
2,0.26044534520246654,0.27803371264953397
3,0.24577416448155182,0.2257589966064775
4,0.22365329982353332,0.2228869391343483
5,0.22272799757292447,0.22273969093930332
6,0.22259761126902497,0.2226264395818486
7,0.2225533154099267,0.22257252646445067
8,0.2225022148712437,0.22266104535443912
9,0.2225017376361436,0.22250243397990532
10,0.2224964023071631,0.2224780586839955
11,0.22251342514849815,0.22253503473794767
12,0.22250754740052658,0.22246912245672099
13,0.2225518161905085,0.2225054155538832
14,0.22248935281875756,0.22259899352257306
15,0.2225325499098922,0.22248960576635712
16,0.22249650765094786,0.2226994945326772
17,0.2225021693275486,0.2224575132192015
18,0.22257639936985427,0.2226247333520519
19,0.2225909602917294,0.22282071404659198
20,0.22256785230820034,0.22249325494318023
21,0.2225522086428271,0.22289571163318772
22,0.22263435053479622,0.22302775515900305
23,0.22281444519425767,0.22273693312449813
24,0.22257708461170514,0.2245652331913782
25,0.22276328449381122,0.22252450297133142
26,0.2225300970302619,0.2224961248959472
27,0.222665755688584,0.22247164846191878
28,0.222746841005513,0.22256950506439221
29,0.22346604037930423,0.22320682085072915
30,0.22270604514417217,0.22253627604003176
31,0.22257431766725877,0.22248950208981316
32,0.2225234798306779,0.22248460320992683
33,0.22254442138121727,0.22248114437874178
34,0.22264996376617727,0.22360177955806823
35,0.22272954115329396,0.22260613691743936
36,0.22301945853838612,0.2226118159370281
37,0.222596980480738,0.22278409701009186
