epoch,loss,val_loss
0,0.4351173605349996,0.3813012371217536
1,0.3571023605734134,0.3181666546246153
2,0.3193293653136725,0.3029823402014885
3,0.312459090178152,0.31077557498767044
4,0.3137865873883001,0.29697703778884876
5,0.31117556898666326,0.29654020221570204
6,0.31117215943184023,0.3268273701889833
7,0.3113624211802757,0.3030624371536529
8,0.31084326632040965,0.2972872363787141
9,0.3100449453345496,0.30717327351069584
10,0.31281345537145266,0.30608982433459847
11,0.3120257270207508,0.30002898227161745
12,0.3101341137044626,0.29879916568111037
13,0.31173415838195073,0.29692027149185385
14,0.31166454914995995,0.31031880401304224
15,0.31314706087684174,0.3168003518654779
16,0.31676792446896135,0.3194347165566123
17,0.31692002855425927,0.3047811394379472
18,0.31553301240185755,0.3125843455825345
19,0.31618836299359177,0.3094426604971325
20,0.3134151095156666,0.31032721866466156
21,0.31504205430297255,0.3023740649458547
22,0.3157102907661625,0.3035968191151367
23,0.3156544412378308,0.32407887664571366
24,0.320031465291024,0.30213654855150074
25,0.315521660492384,0.31104242342988053
26,0.3165870423701932,0.3058877227432444
27,0.31721385678560804,0.3086987170490018
28,0.3142532857297231,0.3063953070538949
29,0.3147447865715416,0.30058030183144036
30,0.31507377475380993,0.3178227177358746
31,0.31294392795561793,0.3045449802371208
32,0.31435351498978886,0.2975753307483661
33,0.3107136900571706,0.3115778754993791
34,0.31658233360325594,0.2952007158308774
35,0.3107145400427514,0.3090015485141817
36,0.31090049726738156,0.3057186434188036
37,0.30917000977231635,0.30065741438797916
38,0.31081043526851876,0.30018972674268574
39,0.3088711038958445,0.30888251989680005
40,0.3106395573043328,0.3019076199303863
41,0.3113604766025627,0.30072899655554364
42,0.3102738998895831,0.2970584285428605
43,0.3109323865623116,0.29527227961603075
44,0.3093127972907204,0.30367200463516275
45,0.3093519318554041,0.29849097286751636
46,0.3083331501907963,0.3052456740234062
47,0.3085640360363763,0.3018729024829127
48,0.31002497364529413,0.28918671438613086
49,0.3079865049603555,0.29184656749584587
50,0.30327471963269154,0.3051139333159696
51,0.3030343037202871,0.28572982287397514
52,0.3024399223552047,0.2964809013099866
53,0.3010400740696277,0.28894176726371357
54,0.3007081370595262,0.2985133821087365
55,0.30211661742936124,0.28383767153206263
56,0.30002882366152783,0.28453441408786984
57,0.3028827071797362,0.28895775417502506
58,0.30070482099728046,0.2926388854762185
59,0.2993612406517771,0.2887818535529636
60,0.30026676513546474,0.29132888165626736
61,0.30161820045954507,0.28116926092186967
62,0.3007528852049014,0.2843698737841473
63,0.3014199760058324,0.28409599449894235
64,0.3019910360650002,0.2921137062460772
65,0.3022059982748245,0.2871281264001399
66,0.2991531787992572,0.2876018217302441
67,0.30266364302923926,0.301570360173178
68,0.3002041309452552,0.2897338406392318
69,0.29917458466869845,0.28902442393428995
70,0.3014128165279361,0.2923803910577777
71,0.30097196879480287,0.29496231855091
72,0.3010019200930683,0.2887679435248063
73,0.29945337265539324,0.30650869390582514
74,0.3003993916580622,0.29050037329509304
75,0.3021642353525646,0.3015455938317029
76,0.29985074794216215,0.288573766610899
77,0.30227963420317516,0.29212203207877835
78,0.3006240697823268,0.2898723912478999
79,0.30164017762950096,0.28701240367652303
80,0.30063154083266436,0.2902522696080693
81,0.2990679213468977,0.2870026328781033
82,0.3002978938994267,0.29309846685453955
83,0.30037376865280047,0.28878894415349593
84,0.29961477630406164,0.2877784383842676
85,0.3000254740865587,0.2872898238986707
86,0.2999284199768786,0.28530100286712584
87,0.302047022854348,0.293428139109826
88,0.3021190669134462,0.29759471852335295
89,0.29967098432383854,0.28697824859205157
90,0.29986486511884164,0.29064141192724124
91,0.30242113768458845,0.30006554558132237
92,0.3021838034538152,0.2887265888390432
93,0.3000791524585298,0.29180819450068307
94,0.3014156553956816,0.29407316733272226
95,0.3006477329156382,0.28870531814297823
96,0.30009092482850613,0.2861827436331792
97,0.30075343274812905,0.2837446546733332
98,0.30063574971388474,0.3038609955098183
99,0.3009632469283686,0.29473567314757637
100,0.3009850291801776,0.2899130178702188
101,0.30144017972320103,0.29245719391243985
102,0.3010333336228661,0.2880172913316299
103,0.3008535767344834,0.28720968497157
104,0.3007561333423896,0.29350904166557323
105,0.29958438090116474,0.2832664534061465
106,0.3002299295424176,0.29502198008354386
107,0.3010289113250949,0.28735216759327553
108,0.29920421387675666,0.29372609057996624
109,0.2995934262395286,0.285556478877188
110,0.2995860250495511,0.29647466232198944
111,0.2999148447450688,0.2832226719833681
112,0.29889314824776303,0.30236951311742966
113,0.29975152155644985,0.28650609411493283
114,0.29944922799448503,0.29660437024994546
115,0.30005280515082255,0.2902306813185104
116,0.3018485540561348,0.2883159241741251
117,0.3002854557238894,0.30185795667704013
118,0.29900154912714766,0.2873770926138879
119,0.299914110347712,0.2864589532388884
120,0.2992706878734626,0.28992855726449435
121,0.2986365501448024,0.29110689850519655
122,0.2989147780217427,0.30077108061021957
123,0.3001622626845309,0.28999288162567904
124,0.29889675679443173,0.2853298707679208
125,0.29946814419673407,0.2845707180326909
126,0.2988363064283566,0.28292854298450104
127,0.2977856411862907,0.29963080506204337
128,0.299091139911033,0.29016006448039317
129,0.3000138373457366,0.2911697415827576
130,0.2983429943807691,0.28902227659110674
131,0.29901130786902613,0.29346289810884063
132,0.29895649400713153,0.2887764221561548
133,0.2988582522415524,0.28818641508905174
134,0.29765287215570563,0.2989807400820099
135,0.2982731614824679,0.2894349265446697
136,0.2998215989362326,0.2905335743053748
137,0.29940453691662644,0.29444872161583724
138,0.300012944187287,0.29946287022205254
139,0.3001838203230731,0.28568884977319625
140,0.2990696710719765,0.2870293607628054
141,0.29973477855336655,0.28566569605020437
142,0.29879322779073797,0.290343428725978
143,0.29884116198542976,0.2851644175063933
144,0.29935994595408344,0.2892000731301289
145,0.30039616779600686,0.29141723471028463
146,0.30126645467240365,0.29908208663104174
147,0.29901738709611575,0.2793511486514497
148,0.2986468508613291,0.2864632369875437
149,0.29952813239453985,0.2870770880177723
150,0.3004585208950473,0.2858103790571112
151,0.29991937297091875,0.2865066808114018
152,0.2989982646062887,0.29029270009253094
153,0.3004161314986688,0.2865070186573027
154,0.29974752287570233,0.29419415852829706
155,0.299663766182298,0.2898842583938951
156,0.30002828353314664,0.2898821043939974
157,0.2999625318199039,0.2884958622581675
158,0.299296928163198,0.29516789295961277
159,0.2983660604789865,0.2894781131441422
160,0.29973861636470356,0.2979679587984424
161,0.29999987668485095,0.28669228009003395
162,0.2991211877273713,0.28798882017572186
163,0.3006729783652593,0.29100699829791793
164,0.298339939809484,0.29044223505630207
165,0.2987885645134367,0.2850800423097121
166,0.3004491148437623,0.30867949706791137
167,0.3003684713852873,0.28442692622577664
168,0.30085164933300895,0.28809873837369016
169,0.2999995456491824,0.2916997407210936
170,0.2996485708690852,0.2923074176721716
171,0.30105161956317134,0.2859726186779981
172,0.3007748194342609,0.29581009951179765
173,0.30000953089228444,0.28502852861911365
174,0.29899882242905435,0.2901929367124893
175,0.2977677588875917,0.28987519437154635
176,0.29974885228917086,0.28675690239211565
177,0.30039075445785796,0.28732322611579203
178,0.3007059432953286,0.2847613210906734
179,0.3006090889279124,0.2866997038791193
180,0.30027397692822916,0.2978319108203912
181,0.3001774832796898,0.2874373762317784
182,0.2996317705543016,0.29160067987140936
183,0.29874143483255694,0.2893916112095141
184,0.30025581760610415,0.29063920362690066
185,0.2994247376918793,0.29265610498523936
186,0.3000138008134733,0.28773057920639217
187,0.300197865864594,0.2933910242219374
188,0.2998608798086405,0.2801872123365056
189,0.29938123839126407,0.29147012006041567
190,0.3001411265725617,0.2898369137706395
191,0.2993132763331552,0.2873834277714155
192,0.3006042141875298,0.2841537181984842
193,0.29885600562051806,0.28761257126562784
194,0.2994012775288211,0.2940420282338676
195,0.2999065481632543,0.2837441591362174
196,0.30074604247494946,0.29557919685729583
197,0.30013507154348085,0.28403810833322785
198,0.29951558414575674,0.2908367974346984
199,0.2994358331072245,0.3009370990926672
200,0.2998810671001887,0.2890983848423119
201,0.2986576188382485,0.27989045982767297
202,0.2989854328781009,0.30544162020028437
203,0.300431572389212,0.29708617836260476
204,0.3002350182710982,0.287383920038979
205,0.30023020221222696,0.3016628168564475
206,0.30078783937447745,0.2975956538623021
207,0.2988677554005246,0.2866589265868903
208,0.29885588810860303,0.2935877792837117
209,0.2994797255555026,0.2822135700399516
210,0.29940419115251204,0.2853703049100471
211,0.300345316946173,0.2812533697794061
212,0.2999217415885102,0.2897548426321951
213,0.2986489298889677,0.2898637649574521
214,0.2995868680074061,0.2853393440958827
215,0.2994270320716712,0.2845570893977323
216,0.29897367064472585,0.28855891194085764
217,0.3000103115654297,0.2797100632300787
218,0.2997126007716147,0.2915766458861359
219,0.30070713781814973,0.28586130801532433
220,0.29980699920492304,0.29276544246131636
221,0.2995537318152299,0.28670468420707623
222,0.30063321978020535,0.29365186612015176
223,0.29914613599352224,0.2834735186013445
224,0.2989413589834691,0.2882984728444347
225,0.29906474491008084,0.2900020535432549
226,0.2988643533320164,0.2859579909360588
227,0.30033000149458144,0.2876833863821007
228,0.30005666531390135,0.29159245172540504
229,0.29935340582728864,0.2931032985707579
230,0.29986639714522134,0.28379853904811814
231,0.2995348546704609,0.2836518430436984
232,0.29857748063157596,0.2969249205365365
233,0.29900433795510245,0.28759608023168537
234,0.2971627351393898,0.2925429970567021
235,0.3009169997392798,0.2895901325352096
236,0.2999013067602063,0.2964915489011989
237,0.3010452591615329,0.3001917758228841
238,0.2991100696624993,0.2860758036092782
239,0.29888210145475197,0.284862950161958
240,0.299215440138829,0.2959068475413153
241,0.29837667037376303,0.2855079879230087
242,0.29882475929103974,0.29422899262116664
243,0.2997803355423476,0.293145205799105
244,0.2979796830293753,0.3000261297165736
245,0.29831691277470235,0.2855674732408847
246,0.2990266006532238,0.2826913177684808
247,0.29828902689530123,0.28178902195021216
248,0.29820487375477617,0.2865855865057002
249,0.3008251465636668,0.2879689122831718
250,0.2991417083713553,0.288267114368027
251,0.2986403601370651,0.29335170240974273
252,0.2994815482021712,0.2909506992411218
253,0.299483053791199,0.2819846312338288
254,0.29784321662881297,0.2848697974513437
255,0.2996454985140801,0.2848286686116725
256,0.2988977269124356,0.28915377705701245
257,0.29823476979010205,0.282583970579465
258,0.29944473859384285,0.28599082122850156
259,0.2985191182386008,0.28862044138755966
260,0.2986862226594076,0.2949413831133304
261,0.29838028649012627,0.29247704390568724
262,0.2998234088377034,0.28516250401852916
263,0.3008500696729413,0.29241591426172686
264,0.29927628099036924,0.2846309632627439
265,0.30016622502359747,0.28629924456905737
266,0.30014672130941866,0.2825008035764604
267,0.29953831056062935,0.2918451920963218
268,0.29888678751260545,0.2888399896747782
269,0.29902178155694553,0.28336737953543945
270,0.29998601832502275,0.2951273500401859
271,0.2990334875804248,0.2952018325829374
272,0.30106285093523427,0.2854778723586895
273,0.2999512850047111,0.29917013527562325
274,0.29988795895275355,0.2793093434848838
275,0.2989472811408847,0.29045253601616167
276,0.2991317052492421,0.29905457276007086
277,0.2989905557865433,0.2796879213041646
278,0.29948419658281056,0.2833673564133535
279,0.299390085458422,0.2833457648660032
280,0.29811701484673697,0.2853885847066647
281,0.3002178895530655,0.2937563863930593
282,0.30082289529123085,0.28009751153302737
283,0.2995737107466165,0.2892830023849302
284,0.30004848442155774,0.2850180651460375
285,0.29959613604725693,0.2995669409667966
286,0.30118493426093856,0.2893425843898198
287,0.2994893517949694,0.2803117476444877
288,0.2992388033907381,0.2932709522762916
289,0.29838231950998306,0.29704416096916136
290,0.29838291791488797,0.27967711027061837
291,0.29939602401187954,0.28752354062629104
292,0.30001670926166096,0.2889230278362509
293,0.3002226022686318,0.28457483584568455
294,0.2992002544142931,0.29190797217031494
295,0.2997167784390118,0.2942400664185198
296,0.30132660274501805,0.29194253699555583
297,0.29948900584027255,0.28969131377191176
298,0.30042206716956754,0.2908128972188073
299,0.29916173971290116,0.2926592807084816
300,0.301572325662505,0.2978042265563474
301,0.3012501151382113,0.28552201200914645
302,0.30070019615211074,0.2861271668299033
303,0.3004601325253122,0.28458586311660233
304,0.30001299677016163,0.28644360126758434
305,0.30089706855473947,0.2931585977325876
306,0.300737699152802,0.29258799517634543
307,0.2995236565371593,0.29432037279844847
308,0.3010546796851688,0.2819050486010647
309,0.2997061504448632,0.2902450275966852
310,0.2986869116802867,0.2945399144642355
311,0.3005785759535434,0.2923980879802448
312,0.29973121037443196,0.29993224668521623
313,0.3000692497256944,0.2926620735883148
314,0.3004485116266518,0.2999089502074536
315,0.29949897886823407,0.28836797808180104
316,0.30072664950701067,0.294748871024895
317,0.2993196727191325,0.2860042506442262
318,0.2996271908890715,0.2979866280363786
319,0.2987476461868492,0.2775198170987282
320,0.29788904964661805,0.3063520692235951
321,0.3002479434918633,0.2880785761734775
322,0.29983110324465495,0.28584475768252254
323,0.29884399218763186,0.2880155331945457
324,0.29968534815583014,0.28203950209606327
325,0.29978027485376546,0.2824527580811456
326,0.29871704357324075,0.2875599726364193
327,0.29978495705828107,0.2895464669345586
328,0.2985313630921187,0.2807575091543213
329,0.30017794855683444,0.28351664092706336
330,0.2988161544779317,0.2849982794971097
331,0.29951227761858656,0.28685316450499887
332,0.29958289392369924,0.2811247124479997
333,0.2993221027995471,0.2872688239403569
334,0.301081568514891,0.28417901914704946
335,0.29773835821165073,0.28448104370317784
336,0.2998292129591024,0.29985897644072323
337,0.2992358252132158,0.2946305162998853
338,0.29953384811548495,0.28968068846775585
339,0.2999746089013551,0.29084584327457264
340,0.29918540537142924,0.2970146288317588
341,0.29855134602573563,0.2912034968174435
342,0.30046044363320873,0.2917785291584251
343,0.30099551725706797,0.2904382257383455
344,0.30037133140767885,0.2869025279944961
345,0.30083779851905257,0.2882102815744533
346,0.2993411999538267,0.30247689186115384
347,0.3004611249355008,0.28088915864359987
348,0.30087766344312855,0.2851408425756769
349,0.2985932452560996,0.28365088308901887
350,0.29963507278741214,0.29233766780561976
