epoch,loss,val_loss
0,0.5029984503851996,0.5007207059462865
1,0.5006413307852215,0.5015904909769694
2,0.500470355550448,0.5002487347523371
3,0.5003906794521543,0.5002840525706609
4,0.5003432337707944,0.5002409600019455
5,0.4755409443643358,0.4725361941854159
6,0.47254136720630857,0.47255649052063625
7,0.4725197356144587,0.4724774601260821
8,0.47250108544031777,0.4724860330224037
9,0.4724943270948198,0.47245710281531017
10,0.4724867037799623,0.4724900195002556
11,0.47248156683974796,0.47243073519070944
12,0.47247695169846216,0.47242128489414853
13,0.4724776436885198,0.47241945066054664
14,0.47247099039289686,0.47243243672450386
15,0.47246374436881805,0.47251437304417293
16,0.4724641996026039,0.4725180105368296
17,0.4724583944876989,0.47242397552728654
18,0.47245431303315694,0.47263464508454006
19,0.47245213001966474,0.47241368639469145
20,0.47245302157269586,0.4724384125272433
21,0.4724524069428444,0.4726352875431379
22,0.47244980886247423,0.47242069846391677
23,0.4724472286237611,0.472409980237484
24,0.47244494145446353,0.47245393802722296
25,0.4724428545832634,0.47250831723213194
26,0.47244288479619556,0.4726196418205897
27,0.4724449453949928,0.4724051783482234
28,0.4724401932491197,0.472399749994278
29,0.47243959975904887,0.47241520742575327
30,0.47243759940067925,0.47242623595396677
31,0.4724394782185555,0.4724036741058032
32,0.47243960997131135,0.4724016170501709
33,0.4724372473094198,0.47240247557560605
34,0.47243249071306653,0.47248706849416094
35,0.4724369366036521,0.4724049274325371
36,0.4724346374008391,0.4724336315989494
37,0.4724322778450118,0.4724004938205083
38,0.47243365179830127,0.4723998947938283
39,0.47243215679460104,0.47240591341257093
40,0.4724289105004734,0.4724691689213117
41,0.4724302492009269,0.4724323441386223
42,0.4724281814032131,0.4724488986929258
43,0.4724304486380683,0.4724040037592252
44,0.47242741365565194,0.4723976368308067
45,0.47242840069532394,0.472398850719134
46,0.4724302177362972,0.47241754217942555
47,0.47242954258786307,0.47239648246765137
48,0.472427039762338,0.47242039306958516
49,0.4724268561800321,0.47240680634975435
50,0.4724266453054216,0.47242969288428627
51,0.47242735652128853,0.47241614244381586
52,0.47242891046735974,0.47251243601242704
53,0.4724267312751876,0.47248691723744074
54,0.47242586685551535,0.4724444643656413
55,0.4724276405374209,0.47239966481924056
56,0.4724280940294266,0.4724100111524264
57,0.4724249257047971,0.4724088621139526
58,0.47242827727397285,0.4724052880605062
59,0.4724270888898108,0.4725043417016665
60,0.4724267377058665,0.4724181011517843
61,0.47242602717876436,0.4723981217741966
62,0.4724277860588498,0.4724633757472038
63,0.47242550249232185,0.47239140353600184
64,0.4724248141580158,0.4723991753260295
65,0.4724238550199403,0.47239548999071124
66,0.47242717661460243,0.4724641243219376
67,0.4724259021083514,0.4724269324143728
68,0.4724268199337853,0.47243709592024485
69,0.47242572132084104,0.4724139151175817
70,0.4724250716169675,0.47244304696718853
71,0.4724265814224879,0.4723981861670812
72,0.47242492802275554,0.4724667041103045
73,0.47242359944846896,0.4724324542681376
74,0.47242436018255024,0.4725566355983416
75,0.4724263382686509,0.4724216018120448
76,0.4724252647889985,0.47242664696772896
77,0.4724246353374587,0.4724515517950058
78,0.47242409861750073,0.4724039809902509
79,0.4724248616430495,0.47239494117101033
80,0.47242338281207613,0.4724556955695152
81,0.4724226935704549,0.4723966620365779
82,0.47242533289723926,0.47242284176747
83,0.4724250995053185,0.4725240361293157
