epoch,loss,val_loss
0,0.12266789106212204,0.08171974474810433
1,0.07452011970226005,0.07264099139584242
2,0.06885414347768402,0.06746648862015302
3,0.06813581073559744,0.06722004308281444
4,0.06749863420024789,0.06769761757657766
5,0.0672038593817893,0.06715449722240538
6,0.0670491676834271,0.06596917945767744
7,0.06690034946446136,0.0654942977626635
8,0.06672244249515719,0.06516098679441412
9,0.06675861951998704,0.06602924988157172
10,0.06672336166057947,0.06594903178857481
11,0.06665275333593902,0.06607304630077475
12,0.06650104928758738,0.0651958644003377
13,0.06652864249493237,0.06558878743675117
14,0.06649861486704708,0.0688776306125176
15,0.0664911514567174,0.0662966111353134
16,0.0663323703515019,0.06703290394949217
17,0.06629709070705003,0.0655944354753618
18,0.06635287873226228,0.06573253993280323
19,0.06633147126506624,0.06573951011108173
20,0.06618926980442481,0.06636218781623043
21,0.06610599831283522,0.06647806865407119
22,0.0660852765615245,0.06579178531215332
23,0.06616644258405849,0.06701936009615683
24,0.06597394348115469,0.06456795802516659
25,0.06606603645122318,0.06517247637221703
26,0.06598021822412602,0.06586432913794135
27,0.06597596710567191,0.06517302779071425
28,0.06592605462681064,0.06494880145278194
29,0.06593151149109566,0.06427978929086903
30,0.06584044539028878,0.06532959220968701
31,0.06585454380063652,0.06526672584514548
32,0.06572673823073018,0.06475767477234978
33,0.0656886292432097,0.06511528105063354
34,0.0659600750530501,0.06614196063030665
35,0.06584359235685763,0.06381831408477565
36,0.06569870085484558,0.06497073348457506
37,0.06557282404280644,0.0650573178086451
38,0.06571793293892096,0.06701814925595695
39,0.06559027541873215,0.06429289636675749
40,0.06569673021952566,0.06512102699519073
41,0.06550315274499816,0.06460020992684345
42,0.06561748470344526,0.06469461245995561
43,0.06554634783199255,0.06503986994171665
44,0.06538834981023788,0.0657493853601661
45,0.06562946684915033,0.06462994306095228
46,0.06554834681262581,0.0652734226632534
47,0.06539970232521275,0.0642613387226285
48,0.0656210137568444,0.06513157686624987
49,0.06555162505019274,0.0653160665114769
50,0.06551155853894255,0.06516285518007557
51,0.06538290043083356,0.06541375085010533
52,0.06549672407505988,0.06626700329845839
53,0.0654621374121516,0.06631230288891413
54,0.06529481349150547,0.065769566581052
55,0.06542804075167884,0.06473353090609174
56,0.06537183960549253,0.06471313150344297
57,0.06549049159877295,0.06558918936626755
58,0.06538649266801948,0.06576575875125179
59,0.0652720961925552,0.06571055875316154
60,0.06537457384181032,0.06482761163213151
61,0.06555882550692492,0.06446397914539868
62,0.06523914616689193,0.06525545940105255
63,0.06512516654813118,0.06520505525951258
64,0.06532216406881428,0.06485660267511907
65,0.06526441543584494,0.06416851796953058
66,0.06533050950500276,0.06468568854668424
67,0.06520638903908677,0.06542566412605122
68,0.06529307104438377,0.0650121548302949
69,0.06531920044379438,0.06549605669790617
70,0.0652065582072334,0.06476374010692161
71,0.06532220098915531,0.06554004064453682
72,0.06515457508735079,0.06403311468594362
73,0.06526871643859067,0.06462368137669196
74,0.0652128631745676,0.06444522339944325
75,0.06521898981264299,0.06513378388170585
76,0.06530145695321173,0.06371124011418342
77,0.06508449957466679,0.06446657618334017
78,0.06527360207181247,0.06576133358978876
79,0.06523886476878264,0.06387785830914926
80,0.06519943346575893,0.06453229608701577
81,0.06513736451311623,0.06396793675309066
82,0.0651221472212226,0.06542951796454621
83,0.06526532778449302,0.0641927656182069
84,0.06502493393806527,0.06574085708601825
85,0.06508146426539788,0.06516948049859313
86,0.06518321568884546,0.0670203851069122
87,0.06505760206603069,0.06520604126499807
88,0.06516901956493851,0.06396306823978362
89,0.06503795307603857,0.06510949290424754
90,0.06542070525093638,0.06435639478888631
91,0.0650081948292933,0.0651542770843243
92,0.06510833494090815,0.0651576255341661
93,0.06505456850010219,0.06438074839835425
94,0.06504426688832746,0.06481083583416053
95,0.06511647369059398,0.0646337225416861
96,0.06517195767813248,0.06500182066049309
97,0.06515883101825956,0.06474934101999048
98,0.06512794141516721,0.0645760081237105
99,0.0649751045117028,0.0673695077903611
100,0.06511483143409602,0.06605665648276016
101,0.0650451439913747,0.06436130132553351
102,0.06516315365393606,0.06405228154321367
103,0.0649314970762325,0.06425746889831763
104,0.06509343960924183,0.0666520027753452
105,0.06506475069827801,0.06734208443291963
106,0.0650537941915045,0.06428402228717484
107,0.06498197364875133,0.06567556937946503
108,0.06502605709072062,0.06485914816930347
109,0.06512705645142935,0.06466148881315702
110,0.065004303736733,0.06475465059800063
111,0.06497670807469311,0.0658451856928972
112,0.06508075355069698,0.06377255176069382
113,0.06495786970965951,0.06450095699022963
114,0.06505810402727442,0.06430209142254893
115,0.0650137314860753,0.06440616097521801
116,0.06509445557852475,0.0647683870545849
117,0.06494658849864983,0.0638218342544872
118,0.06499704902169941,0.06512060132412435
119,0.06496323060969098,0.06439960965492429
120,0.06509115299086174,0.06408569374441231
121,0.0649549975734744,0.06484707566061255
122,0.06495640492939157,0.06493883991775624
123,0.06508296398405698,0.06732176727368304
124,0.06505203205611917,0.06385628817435308
125,0.06486286019669284,0.0651025972015618
126,0.06503405983002783,0.06516368024576899
127,0.064977230349059,0.06641776422877091
128,0.06508453664712137,0.06448855268899638
129,0.06487401385304688,0.06397228658090542
130,0.06500619307184238,0.06523508796074094
131,0.06491066144855381,0.06383923793155685
132,0.06499753336461665,0.0637254999785866
133,0.06497720844023604,0.06567564568295772
134,0.06495621771193008,0.06424303450723634
135,0.06489241026413498,0.06494702884907753
136,0.0649770843200654,0.06481867622575041
137,0.06497537180500998,0.06571320824427809
138,0.06502109173509338,0.06471315810618512
139,0.06492915830378823,0.06419065083163304
140,0.06500555365812406,0.06479730623844476
141,0.06497386782418928,0.0643700460774185
142,0.06488187287041576,0.06462617748434332
143,0.06494237475389476,0.06364836699094409
144,0.06495745535239017,0.06474512175257285
145,0.06498421138350824,0.06475912851779227
146,0.06488566663715722,0.06416399893558615
147,0.06487649319480189,0.06478353536597907
148,0.06489528044968772,0.0649644195314403
149,0.06493001005756226,0.06507012246528585
150,0.06501252940140838,0.06486693960943071
151,0.06485837519025688,0.06467199876348564
152,0.06485807148067115,0.0649480504336535
153,0.06504295985277793,0.06384063751375588
154,0.06490541157648981,0.0641031981523648
155,0.06485671362130521,0.06452247670520057
156,0.06485811727131911,0.06383655567722213
157,0.06490057614371718,0.06377493725169604
158,0.06490335913242294,0.06410737230842034
159,0.06489367310026344,0.06397020981162907
160,0.06484552494006408,0.06400235826021176
161,0.06489861116493292,0.06522610443678216
162,0.06481418449780624,0.06439503679008186
163,0.06489689302316802,0.06400350594571327
164,0.06485570939160806,0.06453522731642944
165,0.06492980477587283,0.06374761247093466
166,0.06485192694837709,0.06433164617779384
167,0.06486400061125179,0.06436301145735834
168,0.06483426125044581,0.06569292315637688
169,0.06494726518018423,0.06455592206238926
170,0.06482740015602761,0.06410348448307168
171,0.06497497029387779,0.06468525587823559
172,0.06484999859763728,0.06390927158241724
173,0.06470045176378673,0.06615512304473291
174,0.06481839518686883,0.06415914165253381
175,0.06481723830825668,0.06490428212181108
176,0.06494105975475428,0.0639347421354331
177,0.06493511050641299,0.06412760356844487
178,0.06476905077898665,0.06380320375442311
179,0.06482256634281672,0.06457082711806746
180,0.06488915386977341,0.06439823811059547
181,0.06486774583587988,0.0638720909162256
182,0.06485155036447762,0.06578316210806127
183,0.06489865020442429,0.06442740738440217
184,0.06478655799251017,0.06433508454218495
185,0.06480643666648359,0.064523804129161
186,0.06479325478641484,0.06412629634202348
187,0.0648564465188856,0.06549408110062571
188,0.06482237653047729,0.06468440961494547
189,0.06479447772704047,0.06391695111881207
190,0.06504534659169024,0.06492686683775832
191,0.06476586181118643,0.06381242539180747
192,0.06496423112155439,0.06346692358780372
193,0.06475757972581135,0.0643098975221316
194,0.06478328759773815,0.06557214661030777
195,0.06480184723857978,0.06457496127483812
196,0.06486966936819977,0.06412186372393723
197,0.06474645118012105,0.06439808694175947
198,0.06474464875105336,0.06485538178600148
199,0.06487045835277097,0.06519556714452966
200,0.06491270723094264,0.06406426181697981
201,0.06482594828005787,0.06375375878902731
202,0.06488327532738232,0.06503020150515962
203,0.06481910845916494,0.0652647009852062
204,0.06479591820344294,0.06366701882456438
205,0.06491610617209091,0.0638659710890862
206,0.06480235432545312,0.06471364440612452
207,0.06476095867596024,0.06396521127572025
208,0.0648163906630394,0.06481177916044834
209,0.06475258160313908,0.06508911275044264
210,0.06493839201591223,0.06462490393660074
211,0.06477919236284863,0.06435364319520662
212,0.06482500339402639,0.06557339246461087
213,0.0647658697449512,0.06397665950672857
214,0.0649218030909212,0.06449158008709635
215,0.06470708507116887,0.06493386145551226
216,0.0647678690909552,0.0641796706910551
217,0.06486486900505349,0.06486277492219901
218,0.06475082507507623,0.06440626045225213
219,0.06488812723464733,0.06455647731494439
220,0.06471451162528381,0.06419833338028613
221,0.06490660289390456,0.06459072533774357
222,0.06484068522425152,0.06425746048393524
223,0.0647800124188463,0.06433150455029342
224,0.06469903370772628,0.06402524826566282
225,0.06479846380555554,0.06391320050076943
226,0.06487191643109552,0.06374551215347292
227,0.06469108959774765,0.06500140310167686
228,0.06477797155181249,0.0646087404307271
229,0.06483226116326114,0.06516692922764064
230,0.06474045012966455,0.06422147157829367
231,0.06480881239953425,0.0653004423116197
232,0.06495147488796539,0.06483317046318224
233,0.06481021689959438,0.06464252705834594
234,0.06471047363280534,0.06421563588233857
235,0.06483940278188145,0.0642495077052014
236,0.0649440146496503,0.06806628219027976
237,0.06469611822514891,0.06457832379195619
238,0.06482099317419854,0.06553040370526395
239,0.0648056884856225,0.06518173113235688
240,0.06477727705659009,0.06386752092163928
241,0.06476815234872701,0.06431365444869504
242,0.06484287174297773,0.06460641696444877
243,0.06480576359093476,0.06434286268849443
244,0.06478079103583617,0.06527055880932525
245,0.06477526911169744,0.06377756525516896
246,0.06485849083979145,0.064065584953684
247,0.06484721253981726,0.0648223000479634
248,0.06481150389642264,0.06420241509898833
249,0.06481121088101494,0.06448257688224461
250,0.06479224051871568,0.06461257720177288
251,0.06473238083621184,0.06422738909467583
252,0.06478714645863343,0.06434498813127176
253,0.06481693720547937,0.06439744340616904
254,0.06477202880408785,0.06455176278936699
255,0.06473488133964393,0.06501279738093428
256,0.06490052638618683,0.06500875304807326
257,0.06479437925440489,0.06491785877764177
258,0.06471296869146767,0.06340297783474949
259,0.06489063959547861,0.06455563017849214
260,0.06469061020299423,0.064235286048439
261,0.06475478841410913,0.06431399693973937
262,0.06479540587760049,0.06350594141731297
263,0.06480913951819997,0.06536053561900847
264,0.06476429743980101,0.06547157515659142
265,0.06479212420256591,0.06560379647123359
266,0.06494579437502725,0.06456378102302551
267,0.06463780784435134,0.06415441843159105
268,0.064726210455056,0.06435611279377682
269,0.0648526906194665,0.06687626762607189
270,0.06471644588309923,0.06503923246991992
271,0.06473403890953482,0.06439454320573458
272,0.06471320654334928,0.06404796756338706
273,0.06490625684605159,0.064262284756021
274,0.06471931756890899,0.06561932799203166
275,0.06479808277308081,0.063887130592958
276,0.0647502706958066,0.06465668624927141
277,0.06481146351773563,0.0641063576336083
278,0.06476132705318537,0.06422891765107784
279,0.06486611297164706,0.06603848272201886
280,0.06467381922350682,0.06423392159515344
281,0.0647519874208278,0.06355515384664404
282,0.06482798790781377,0.06454720474108873
283,0.06483643533314487,0.06442687919987282
284,0.06479344067064594,0.0644745735839819
285,0.06469817758143377,0.06381639682318463
286,0.06482627601016036,0.0656191492838436
287,0.06475774917879804,0.06540637714100966
288,0.06491056450301881,0.0643358899239641
289,0.06483835168033719,0.0638455460384331
290,0.06477121342930964,0.06388003542560054
291,0.06482803843485965,0.06466265757842365
292,0.06472716775176236,0.06354935405003957
293,0.06487646677924262,0.0644299110181672
294,0.06474833457832865,0.06490543600404446
295,0.06477936375751984,0.06412921638650229
296,0.06471939503943758,0.06514443677381007
297,0.06478514836682044,0.06425952809558394
298,0.06477587992657988,0.06395578543320962
299,0.06475581816308874,0.06507252909647963
300,0.06478524742404922,0.06442802813318041
301,0.06475335188967596,0.06482541120013664
302,0.06517089438215316,0.06339568818790199
303,0.06473519471589569,0.06411384691734287
304,0.06478182011372667,0.06465459686597479
305,0.06466505360499537,0.06391252383638085
306,0.06481222658484483,0.06525302754181822
307,0.06474071066883251,0.06501577210832396
308,0.06480066230098566,0.06388167896144098
309,0.06477684290219154,0.06497629271444033
310,0.06470492147833849,0.06427410248265165
311,0.0647983963655724,0.06641086368290564
312,0.06483022454049323,0.06494270304379575
313,0.06466692185448446,0.06387796102201948
314,0.06473838134383182,0.06520777182700377
315,0.06482558130168074,0.06672312242839265
316,0.06481300926416086,0.06544935271530643
317,0.06479407972794136,0.06481323346785675
318,0.06464668153952942,0.06386357247648158
319,0.06474959995117399,0.06460253947504342
320,0.06476441241078991,0.06405120258675004
321,0.06481779525406939,0.06570829497008235
322,0.06478009609471234,0.06530912955565754
323,0.06473464381734165,0.06438598813850127
324,0.06474909849399275,0.06594424147312948
325,0.06471972057731558,0.06496632539660391
326,0.06468470140492277,0.0639239048882896
327,0.06479629282776216,0.06401708230243305
328,0.0648838834966823,0.06517395430032258
329,0.06472044989013309,0.06511601342518254
330,0.0647684992451349,0.06416933858179505
331,0.06474281781859356,0.06415646985801661
332,0.06478452857723944,0.06395315944797994
333,0.06474825097851938,0.06402008608587853
334,0.06473134989120227,0.06403670810156978
335,0.06474517942148986,0.06410399100774203
336,0.06474524350901,0.06370434474988576
337,0.064753313648035,0.0635186323211721
338,0.064802756679175,0.06413090079478974
339,0.06472829159340256,0.06416858158346994
340,0.0649736413838054,0.0646385466687484
341,0.06475276935448926,0.06478360027304435
342,0.06471579373807455,0.06390396688082116
343,0.06470286351046245,0.06384268358639847
344,0.06480052883179785,0.06644351815159787
345,0.06469529945913365,0.0648043909187928
346,0.06482212286773589,0.06410457327393913
347,0.06465461893265156,0.06382694275443958
348,0.06479578546797923,0.064655180370914
349,0.06465626588080815,0.06431645618725963
350,0.06475959221621434,0.0641669318085991
351,0.06466259339673697,0.06432046586857612
352,0.06483327862087061,0.06577644701397525
353,0.0647361804906419,0.06349848467019739
354,0.06472263434936133,0.06584230251761346
355,0.06473548203748498,0.06488087325865238
356,0.06481879844283275,0.06403980376040268
357,0.06469555192733642,0.06360715515579234
358,0.06468695710548121,0.06468256610080854
359,0.06474458525409166,0.06512569972983918
360,0.06484780343975707,0.06365432923800174
361,0.06458447592480598,0.06417137672648812
362,0.06478284282820095,0.06401321455074922
363,0.06468280689497057,0.06416153890856474
364,0.06470527195985361,0.06494634199376911
365,0.06466695873008622,0.06413997975325353
366,0.06481089637584214,0.06412636428551759
367,0.06473812431669693,0.0640026985759041
368,0.06466276236504817,0.06380601782904634
369,0.0646864025651502,0.06473679583752338
370,0.06477820214400108,0.06407533490551456
371,0.06479188300120392,0.06450695702798562
372,0.0647112509791998,0.06633352068013422
373,0.0647575702500329,0.06431248710647117
374,0.06460127718388747,0.06462419305875934
375,0.0647357065660105,0.06431403951923342
376,0.06461239364251697,0.06525333080703614
377,0.06486747459358602,0.06360118004998731
378,0.06468367013182517,0.0639847002542802
379,0.06480610112937762,0.06648268447003032
380,0.06474366424242863,0.06411948133885426
381,0.0646669574744039,0.06383049664210712
382,0.06474912998447713,0.06398570088296525
383,0.0646258760527003,0.06393710666450174
384,0.06472105748826165,0.06549180962223883
385,0.064776928548077,0.06412902273485453
386,0.06477306183991287,0.06434536561527004
387,0.06471739811084574,0.06558949013889465
388,0.06458872877914396,0.06348243899891169
389,0.06475287320180308,0.06456216279377999
390,0.06472091981954724,0.06448491058778395
391,0.06471449357596896,0.06463610900555407
392,0.0647295171915411,0.06470436349341953
393,0.06477495984698506,0.06500169444475731
394,0.06461770637475366,0.06433309087739761
395,0.06476064511478616,0.06378596498414162
396,0.06475751136121652,0.06737959154089196
397,0.06464041146584708,0.06395046744383841
398,0.0647250392852281,0.06347423903372167
399,0.06495719424055947,0.06463706564983022
400,0.06467081202243308,0.06550171373401438
401,0.0646916628674305,0.06357303192266486
402,0.06468962213908844,0.06391514520805151
403,0.06475919367577,0.06357289783940602
404,0.0646599410631186,0.06457273178074481
405,0.06481944378450501,0.06434135362566339
406,0.06473930710084062,0.06451682592020805
407,0.06473714652492868,0.06454894574176269
408,0.06465906495328327,0.06419241040135339
409,0.06495645811991561,0.06420011699973135
410,0.0646751666451999,0.06381222028934849
411,0.06466834896279154,0.06548669719758889
412,0.06465571690455163,0.06437786593610256
413,0.06484102769147118,0.06441213397818277
414,0.06484486782599727,0.06472850495168375
415,0.06459597988073543,0.0656936973158122
416,0.06472227850658975,0.06443198056950476
417,0.0648268445762541,0.06428899536844394
418,0.06467268150821746,0.0640571777922587
419,0.06469977415913196,0.0657671114485726
420,0.06470507869811608,0.06394036002124796
421,0.06476537952925845,0.06430309977071225
422,0.06483109932008078,0.06536967286179922
423,0.06460565341423281,0.06541669621628567
424,0.06471438244659247,0.06530505833000742
425,0.06467228582363017,0.06438860435881753
426,0.06476970378002278,0.0642211889215146
427,0.06474316045731378,0.0642326972345366
428,0.0646861783020777,0.06419758779651637
429,0.06474211699574638,0.06576604371027839
430,0.06458027251482344,0.06611061908927084
431,0.06470884269832658,0.06495413311967885
432,0.06477081997124695,0.06400870249908046
433,0.06470607894154383,0.06388471485852035
434,0.06470715112870841,0.0636562344324318
435,0.06461908870053779,0.0637186487981051
436,0.06471200381294549,0.06368514012608795
437,0.06486746878642813,0.06364365074925565
438,0.06464058458745432,0.0661891313467631
439,0.06462931893378186,0.06480120363534222
440,0.06469175687806906,0.06402032697287789
441,0.06472996933560213,0.06488911152514422
442,0.06473548478745908,0.06356177467849809
443,0.06474882216633464,0.06361669438852591
444,0.0647081531020548,0.0646435037037752
445,0.06471270688617821,0.06379621144495935
446,0.06468650857784493,0.0636529292479242
447,0.06463595930847814,0.06396697630496984
448,0.06470051926938747,0.06413143365632588
449,0.06468242217299698,0.06496504935324918
450,0.06476803842314584,0.06452732067932855
451,0.06472214557129063,0.06432113876537589
452,0.0646723796657508,0.06395561923329557
453,0.06468850856809448,0.06479171784677741
454,0.06470907592864109,0.06429971450303786
455,0.064693225382136,0.06473822185327054
456,0.06475714817225599,0.06356914752651692
457,0.0646605696514237,0.06421969417672958
458,0.06470803661589579,0.06386576180209595
459,0.06469105066264792,0.06409075253152886
460,0.06465632928381737,0.06370959954830271
461,0.06480919437302504,0.06461605391882826
462,0.06472890446778294,0.06412657917403923
463,0.06470190954086683,0.0636963207646298
464,0.0647117811276781,0.0645490930765408
465,0.06470546356176404,0.06368863048139183
466,0.06467436061049099,0.0645544305896962
467,0.06462053200744504,0.06399575545054476
468,0.06488361665524178,0.064133546832535
469,0.06461411328304759,0.06358785992858378
470,0.06469625229086037,0.06437803177043663
471,0.06465690692452739,0.06460399255881634
472,0.06453709328939335,0.06417746328282724
473,0.06482211541268136,0.06395412188715212
474,0.06461106288620383,0.06419472190319574
475,0.06472758582388285,0.06428577620097997
476,0.06470961321750768,0.06542942378086862
477,0.06465650613817145,0.0635389214727517
478,0.06466218394587477,0.06788124412672847
479,0.06465935869495854,0.06422644927916446
480,0.06475086725973864,0.06465857005274016
481,0.06476110104080722,0.06456892010178009
482,0.06468199013476614,0.06433917609226965
483,0.06465792830726258,0.06390370237010336
484,0.06466087217094471,0.06447949355644901
485,0.06471837779210271,0.06443639247944852
486,0.06471874319565735,0.06432345441851496
487,0.06475174664001497,0.06518515698243135
488,0.064646223084248,0.06370321085672019
489,0.0647150196308036,0.06525497211918344
490,0.06471073988816135,0.06494296090458335
491,0.06462843171518454,0.06423191150041585
492,0.06471704757415217,0.06392290061286862
493,0.06470986879061612,0.06417385946780998
494,0.06468552468065694,0.06449805430324698
495,0.06466481745320621,0.06575107098000377
496,0.06466975593245965,0.06411698349394261
497,0.0646923057275643,0.06573259708111304
498,0.06478363633442154,0.0645127905062902
499,0.06469043160529973,0.06390242178570131
500,0.0646842620085725,0.06380183754272802
