epoch,loss,val_loss
0,0.5280850040720863,0.5143025944286691
1,0.5125743313542569,0.5078765564188993
2,0.5051852630069937,0.4988058441954559
3,0.5021698197607201,0.49880193002263484
4,0.500086774797269,0.4961029265802793
5,0.49959900320168715,0.4978991826002591
6,0.500477938917334,0.5012614607385295
7,0.5009413235424448,0.4979019703396423
8,0.5008933166001219,0.5013720650716879
9,0.5010314959982437,0.49883723121738216
10,0.5010889131151239,0.49900663060394296
11,0.5011390437498839,0.49910877715300467
12,0.5012475229544091,0.4981778757389068
13,0.5007979214593288,0.4979533865775456
14,0.5011026591128992,0.5000391880097257
15,0.501366154901296,0.4997329476138508
16,0.5012540138601989,0.5000398737792234
17,0.5015460107666815,0.5005142137242273
18,0.5011548319099811,0.5025564533385972
19,0.5019454320871497,0.5009226608630888
20,0.5014767325804198,0.5009581693557574
21,0.5019262431164584,0.5011140279174454
22,0.501801580675897,0.4993641643021487
23,0.5018394854179538,0.49898777999571947
24,0.5019853156320435,0.5008766911802773
25,0.5020521731983352,0.5010514480866382
26,0.5019860021684428,0.5011486532508593
27,0.5020582077314276,0.5015302219748821
28,0.5020637788123185,0.49931079628612035
29,0.5024636275590132,0.49983142504641
30,0.502570687944642,0.5026233737903802
31,0.5021618011419657,0.499972830066255
32,0.5023508022557576,0.49951091110912815
33,0.502316806122471,0.5019379323310184
34,0.5025115422655321,0.500034647387736
35,0.5021501351273138,0.497815929397314
36,0.5000321712675094,0.49669837108878495
37,0.49873301957392047,0.4981304728571225
38,0.49425806035077763,0.4901423294384876
39,0.49261186316809646,0.4915845470947414
40,0.491876102137961,0.491408714209069
41,0.4907761563899311,0.48748968377624413
42,0.4901594896301026,0.4873506250916682
43,0.48929354034625705,0.4861491212571397
44,0.48912546322861394,0.4855883252275706
45,0.4881506079673547,0.48595788036589493
46,0.4872787980529334,0.48846131886893585
47,0.4867851322902617,0.48489133204464874
48,0.4865957140829364,0.4840908663134226
49,0.4860522272427374,0.48340106333667443
50,0.4851185723758409,0.4804488059866119
51,0.4845096593340291,0.4811522124774648
52,0.48350533089636993,0.47850525941141236
53,0.48270548611418995,0.4790081987009052
54,0.4828262396333425,0.48050682232310404
55,0.4825967456867327,0.4818218162873276
56,0.48243031930759966,0.481594758498696
57,0.48218226695114946,0.4794203374092687
58,0.4822565358037849,0.4793711665157875
59,0.4817494368852617,0.48110649589758303
60,0.48203135818614434,0.48072857168801764
61,0.48130856189000193,0.4761137444950247
62,0.4798949200101986,0.4768919131397877
63,0.4800378573100825,0.4754311058469554
64,0.4810471289462554,0.4801294930592558
65,0.4825548828582637,0.47988061579326025
66,0.48081241528776253,0.4797428874695523
67,0.48217387224296465,0.4795879737477449
68,0.48152942299045487,0.47961429854112286
69,0.48096154625617693,0.4771866820923766
70,0.4803129380979035,0.47792744648924823
71,0.4796994836249366,0.47477783202133866
72,0.4799925334434798,0.4761353063124657
73,0.47849434012729414,0.4768898397539557
74,0.4789278620812343,0.4777061821129355
75,0.4782222058181246,0.4726133334200208
76,0.476509252793445,0.47330332026644023
77,0.47437417973429374,0.472685157663436
78,0.47499058796528254,0.47406640627875557
79,0.4741113854050324,0.470457023060386
80,0.47248476330067435,0.4680993615427817
81,0.47284760764205136,0.47155912509638254
82,0.47262565358796993,0.46744256681650803
83,0.4713489079214597,0.4670408682065091
84,0.4709256347902667,0.4672310658179258
85,0.47157259224365,0.47166021883389225
86,0.47260674930001945,0.46828309710438887
87,0.47187063164320014,0.4687064584480231
88,0.47156439097670416,0.46650648443790244
89,0.470907264968222,0.4643766519589788
90,0.4700712523730703,0.46331083568556886
91,0.46788279783927034,0.4643943225394585
92,0.46925096822112805,0.46409982182683135
93,0.4696668964959916,0.46518644093132944
94,0.46943241716953904,0.46332407728959735
95,0.46896964153162635,0.46589474901552996
96,0.4690451031487612,0.46380558676196904
97,0.46918700245429096,0.4649102775941797
98,0.4690639399263602,0.4641385246112912
99,0.46924626737710456,0.4634661297725601
100,0.46908734350861025,0.4615293736715265
101,0.468774615179189,0.46576649566223544
102,0.46808952464558123,0.4641319984935567
103,0.4674359949662187,0.46448045162759927
104,0.46716400395936636,0.46058791201740973
105,0.4663573155906832,0.45982459616681404
106,0.46570244460403487,0.4602712331877673
107,0.46534330433403315,0.4610051742585071
108,0.46523418645223047,0.46122991586045364
109,0.4655468366998265,0.46130054062988335
110,0.4657501298457222,0.46218955696617076
111,0.4651497566920973,0.4627306095472323
112,0.4651032130925393,0.4615118918941517
113,0.4655567605184519,0.4611293423968719
114,0.4654099828343736,0.460037279035633
115,0.4645295577483339,0.4584598057192411
116,0.46530884543603224,0.4647803916746522
117,0.46601362432691373,0.4624878604062132
118,0.46619873313599947,0.46366139399003403
119,0.4659263898214295,0.4631103648865826
120,0.4660772336581974,0.4610825806740205
121,0.4659628504539525,0.4622472347318888
122,0.46634201942661396,0.46246199170447666
123,0.4664098071481152,0.46400929919210687
124,0.4667155548933742,0.46047568481334306
125,0.4667856496247255,0.4657011166765308
126,0.4671711046909987,0.4666028552355749
127,0.4670567045343815,0.45996656109324424
128,0.46690961530181924,0.4641035747942319
129,0.46731614286864265,0.463036538892188
130,0.46820667817607464,0.46211832842611844
131,0.4673661112931996,0.46329709727239465
132,0.4679760990213853,0.463299540494199
133,0.46748320072404087,0.4619924160696287
134,0.4671074760743333,0.4649588566170009
135,0.46695729377319956,0.46586938538556666
136,0.46783370784742445,0.4635243003384134
137,0.4673816395439233,0.463286175441559
138,0.46776830045389667,0.46092934778222955
139,0.46680138380687874,0.4642951346940592
140,0.46832571445231547,0.46375312271742325
141,0.46775005727722846,0.46356728760182003
142,0.4677898099496387,0.46393582092694674
143,0.46822404531948686,0.46306234659311496
144,0.4675193044373605,0.46369112858651307
145,0.4680553438225545,0.4629510373555349
146,0.4678151597144203,0.4645816091979572
147,0.46857276143021676,0.4638474033228695
148,0.4689031071293624,0.46545539469706987
149,0.46997221169712194,0.466711805054598
150,0.47170931215867756,0.4677197046274952
151,0.4736494287574616,0.47018832392239696
152,0.4735288872350866,0.4690478510079732
153,0.4737362751820641,0.4697497048888425
154,0.4741431771205263,0.4694631942371401
155,0.47475163230427625,0.4707365620636911
156,0.4736499958772928,0.4670035044203967
157,0.473008122997817,0.4695068309427559
158,0.47263809906787163,0.4680323745230015
159,0.47284784697895677,0.46877605693779834
160,0.47226264798489465,0.46859791476049384
161,0.47242757091669063,0.4684665042305211
162,0.47286623720563475,0.46880971296111995
163,0.47307640208980417,0.4695023526780318
164,0.47285583058801006,0.47397198028156057
165,0.47397112918670536,0.4692445304680562
166,0.4730239307940547,0.4678081620881878
167,0.47199739684264763,0.46737569390262984
168,0.47196575917275035,0.4661107405949483
169,0.47033991354729476,0.4643439084969686
170,0.4689410960424175,0.46189192465416107
171,0.4684072978491003,0.46479103767636143
172,0.4682835989289863,0.4667534589900878
173,0.4683303858524524,0.4678965024695762
174,0.4702952905341398,0.46918864967294044
175,0.47191399004003654,0.4669011922995241
176,0.4729400985813523,0.4703035391940622
177,0.4734427561040769,0.4665632315128144
178,0.4727481042829236,0.46883135104982454
179,0.47427939541602754,0.4713390956350413
180,0.4739870536522093,0.4691796432167001
181,0.47466536263518055,0.47074269927247514
182,0.4750411467089914,0.46992227728799013
183,0.4740076703169216,0.4749234206293499
184,0.474944514605705,0.4721289216242689
185,0.47411262523210007,0.46956484272702
186,0.4725905387847418,0.4696440661438923
187,0.4723553287871651,0.4685637241600991
188,0.47250385379390786,0.46941067288153554
189,0.4707485760647222,0.4644919203865638
190,0.47037933636399315,0.46510826965095786
191,0.4688620865495894,0.4649820848993672
192,0.4694896820210891,0.4636897118572029
193,0.46897275504824576,0.4642785398673447
194,0.4689819567452616,0.4660438440701591
195,0.46882175713199653,0.46551071106196273
196,0.4684683843495587,0.4667627709014694
197,0.47220228495560695,0.4679811863396548
198,0.4732019673671546,0.470701462820459
199,0.47452517501733693,0.47054271608605375
200,0.47429366925923505,0.4702871319013561
201,0.4736416931184809,0.4698963935413461
202,0.4745192733368609,0.4679041686901398
203,0.4733204251603021,0.4673117972516889
204,0.4739722054164181,0.4695536505722996
205,0.47432702406271315,0.47263157059406413
206,0.47328330086800224,0.4692990807657054
207,0.47370369370860077,0.47011900696871106
208,0.4728612309663635,0.4683918445096852
209,0.47425493124870227,0.46908716071435386
210,0.4739249524075444,0.46985853072556644
211,0.4738889835367687,0.47052973906559165
212,0.4742936990194664,0.4686019227511465
213,0.4734729348055026,0.4673944923111239
214,0.4749796979996218,0.47218060303978376
215,0.4749626510233011,0.47121846241457455
216,0.4745466852143319,0.4718201771185532
217,0.4739162855277225,0.4701242989894774
218,0.47059501295021783,0.46656136711809115
219,0.4709128128913537,0.466273424793826
220,0.4703563182307424,0.4670786900728844
221,0.46855685161796035,0.4630295091147286
222,0.4691712731959974,0.4623398129628588
223,0.46880120196999747,0.46446233950005356
224,0.46896431427947166,0.46254227097777934
225,0.46904281365620365,0.46271264144862595
226,0.4684202375630035,0.46389785838623976
227,0.46921387732821546,0.4653544029748968
228,0.4707859127143532,0.4687400896882271
229,0.4724859509252996,0.4673988017129636
230,0.4730734939023681,0.471156106551484
231,0.47417226166753706,0.46905183558625935
232,0.4740844163569975,0.469934993907027
233,0.47348174370346735,0.4671945425961271
234,0.47408579768917364,0.4699297980421522
235,0.4742164493307575,0.470150301040048
236,0.4730975552370869,0.4702671147060567
237,0.47264680337961584,0.4689404649285437
238,0.47017660671121475,0.4622073495832135
239,0.4691045611398181,0.4732453566458931
240,0.4705624592512938,0.4668341063744083
241,0.4720533383592644,0.46705535906677476
242,0.4735362213309297,0.4717241120333357
243,0.4750802213505728,0.4694440511077577
244,0.4743049780775179,0.47590374881789316
245,0.4750905117261952,nan
246,0.47339021519554075,nan
247,0.4723244147618325,nan
248,0.47117430594695553,nan
249,0.4722437272141916,nan
250,0.47307446023523936,nan
251,0.47365955855940245,nan
252,0.4738303553566324,nan
253,0.47281069785663865,nan
254,0.47127910857642014,nan
255,0.46923057968704013,nan
256,0.4682968118178292,nan
257,0.47000253502792455,nan
258,0.4691351718508954,nan
259,0.4692068502186092,nan
260,0.46847816317984203,nan
261,0.4690105414437473,nan
262,0.4690809261390761,nan
263,0.4685789356285884,nan
264,0.46917675092924493,nan
265,0.4686060729913534,nan
266,0.46832024315105814,nan
267,0.4701238288075185,nan
268,0.4709624492097832,nan
269,0.47313453157455154,nan
270,0.474197670684881,nan
271,0.47428389202364696,nan
272,0.4742373939761442,nan
273,0.47223177103781366,nan
274,0.47135657783247314,nan
275,0.4739721541582449,nan
276,0.47496126777373165,nan
