epoch,loss,val_loss
0,0.6714833216794582,0.6668462548295735
1,0.6671591926948749,0.666755683342884
2,0.6668605985401914,0.6668056325752372
3,0.6671032681798236,0.6667782643121308
4,0.6668921618842586,0.666785108649216
5,0.6669209821806974,0.6667474649964354
6,0.6669389700441745,0.6667686485973127
7,0.6668301132612696,0.6667967555704624
8,0.666867109884189,0.6670285792434633
9,0.6669268242039391,0.6667653022661242
10,0.6668273911092222,0.6667452205517169
11,0.6668451011617144,0.6667541106125456
12,0.666829750686231,0.6668750188621329
13,0.6668815137305553,0.6668801645886138
14,0.6668114407837304,0.6667680008984476
15,0.6668573894759273,0.6667544708770383
16,0.6668056335968107,0.6669059621862078
17,0.6668287551219221,0.6667925805663486
18,0.6668238920622972,0.6667629923928925
19,0.666808715589117,0.6669971579280453
20,0.666815264185135,0.6668901348605336
21,0.6668033837484275,0.6667534005453456
22,0.6668302333769756,0.666786047742684
23,0.6667918476963082,0.6667822462073607
24,0.6667839060526156,0.666819536054848
25,0.6668273722933162,0.6667580048638522
26,0.6667766539235636,0.666748309182028
27,0.66680365566347,0.6669603670907711
28,0.6667847988854947,0.6667628999733971
29,0.6667944714245216,0.6667451574103958
30,0.6667939482542363,0.6667662500000949
31,0.6667812200922791,0.666837288560781
32,0.6667890701963847,0.6668241782920317
33,0.6667920254414618,0.6667411939821228
34,0.6667839440063323,0.666749025094274
35,0.666778729091949,0.6667526950842958
36,0.6667835435467583,0.6667701120507041
37,0.6667862311759174,0.6667833972896346
38,0.6667864338475226,0.6667670586177353
39,0.6667804968792788,0.6667399773125031
40,0.6667819227570171,0.6668079139432808
41,0.6667845341780158,0.6667599818235944
42,0.666772697986289,0.6667425996627407
43,0.6667797027116622,0.6677376543952466
44,0.6667910504607121,0.6667507489169336
45,0.6667724926815584,0.6667705393108599
46,0.6667803382677003,0.6667391267100666
47,0.6667782893839792,0.6667470666438442
48,0.6667761680363598,0.6667528577396429
49,0.6667851261484133,0.6668476134321579
50,0.666786060073582,0.6667596328362285
51,0.6667693343243747,0.6668140154406706
52,0.6667780482165018,0.6667856113655272
53,0.6667740647224739,0.6667570564416061
54,0.6667719902275474,0.6667404801347028
55,0.6667809485259669,0.6667686565283625
56,0.6667695946804901,0.6667616684052634
57,0.6667737689638792,0.6667400559241362
58,0.6667712714139138,0.666748389583177
59,0.666781345756609,0.6667637416600207
60,0.666767932254892,0.6667392949139718
61,0.6667763848167176,0.6667597047980629
62,0.666769571809712,0.6667636777351246
63,0.6667706256769274,0.6667653742809028
64,0.66677913154931,0.6668277267432167
65,0.6667674702931284,0.6667853862889009
66,0.666779876593957,0.6667963510657483
