epoch,loss,val_loss
0,0.5653015513372892,0.5556848099143197
1,0.5579929774800969,0.5557128608724452
2,0.5557084467527548,0.5557585109358127
3,0.5562437405948696,0.5559127767146598
4,0.5563547814615522,0.5556746813073042
5,0.5557051747179631,0.55571856543615
6,0.5557745875832674,0.5563906011244272
7,0.5557961849592878,0.5559442139451215
8,0.5557977808508148,0.5559260092740542
9,0.5557153914343936,0.5558838621827548
10,0.5557383208500514,0.5557531741970406
11,0.5557351994865172,0.555681443273714
12,0.5557148071487695,0.5556866782959792
13,0.5557426744175253,0.5557122639047674
14,0.5557057299361399,0.5556861722971241
15,0.5557059374334947,0.5556768813847351
16,0.5559137332294566,0.5560744518093496
17,0.5556954941200188,0.5557306055743946
18,0.5559334544449106,0.5556708787554512
19,0.5556838910029676,0.5557623183691263
20,0.5556968876505507,0.5558620627660441
21,0.5557205778079547,0.5556693257415543
22,0.555694331909216,0.5556878828625417
23,0.5556979074438504,0.5557100715148425
24,0.5556838009514847,0.5557301230933785
25,0.5558003132300428,0.5556751626553131
26,0.5556531271308884,0.5556904152922529
27,0.5556685418744021,0.5557143516344846
28,0.5557090089864817,0.5556407639984128
29,0.5556720658746039,0.5557402458977034
30,0.5556866191187267,0.5556519134660072
31,0.5557121671530638,0.5556390996850983
32,0.5557142532873937,0.5556623588702801
33,0.5556826067944446,0.5556836579002269
34,0.5556649558467974,0.555713036308536
35,0.555665238846381,0.5556503641793858
36,0.5556716379924035,0.5556546402329089
37,0.5557388961138672,0.5556346654235459
38,0.5556462452574129,0.5556392800767715
39,0.5556638730448499,0.555638311154509
40,0.5556565708045238,0.5556695855072579
41,0.5556626140507986,0.5556308636552679
42,0.5556912114775119,0.5556685900175671
43,0.5556585168396305,0.5556335890773855
44,0.5556619309544899,0.555710263797796
45,0.5556633358194626,0.5556669961730589
46,0.5556705299435113,0.5556893238252127
47,0.5556918996946497,0.5556608390947878
48,0.5556742353102969,0.5556405915589671
49,0.5556544017316797,0.5556393864417842
50,0.5556670702424006,0.5557210714784433
51,0.555658810054047,0.5556385285224514
52,0.5556538505528447,0.5556613202945528
53,0.5556662850895331,0.5557246825203291
54,0.5556823369491941,0.5556411421686532
55,0.5556596424817548,0.5556897331054987
56,0.5556579603295986,0.5556522621039409
57,0.5556665914836961,0.5556358162622762
58,0.5556535046561505,0.555646047274074
59,0.5556601439305189,0.5556676490181058
60,0.5556557004061569,0.5556275361192906
61,0.5556565606066332,0.5556281154671197
62,0.5556544562098479,0.5556507326820049
63,0.5556547391134247,0.5557883775642952
64,0.5556577063565185,0.5556614346223818
65,0.5556519111266713,0.5556242695221534
66,0.5556559816211448,0.5556464073797339
67,0.5556528751598309,0.5556348729332676
68,0.5556614614011359,0.5556576173943808
69,0.5556494738985774,0.555633808436032
70,0.5556990982293603,0.5556362962337345
71,0.555664700346081,0.5556908979109241
72,0.5556550455174707,0.5556559618168687
73,0.5556549466164269,0.5556431014556024
74,0.5556474470639299,0.5556673877593742
75,0.555652577498044,0.555698533669355
76,0.5556532685713819,0.5556320689842277
77,0.5556495468806296,0.5556311449163399
78,0.5556573234746459,0.5556712859285557
79,0.5556684557662541,0.5556469357422432
80,0.5556849916974623,0.5556344356242918
81,0.5556576453145966,0.5556541552952793
82,0.5556570504795277,0.5556317532140888
83,0.5556556153413762,0.5556554122766565
84,0.5556960203625193,0.5556353299692737
85,0.5556631755249428,0.5556255284836458
