epoch,loss,val_loss
0,0.45184502155517,0.4445979790919245
1,0.44661179923247696,0.4448228458736438
2,0.4448621947360936,0.4446222491418093
3,0.4447428376251319,0.4448398442151047
4,0.44476195035279636,0.4447460500220673
5,0.4447107451548329,0.4446642831177033
6,0.4448251479376604,0.4445878076635938
7,0.4447708032916022,0.4446232780128543
8,0.44470012617234883,0.44456775409435373
9,0.4447703788254057,0.4445922598150107
10,0.44479182650929594,0.4445932195990944
11,0.44467721619875855,0.4446476601033762
12,0.4446984540987809,0.44457014687829216
13,0.44467184012226524,0.44466409106770466
14,0.44468080212400296,0.44458942183869665
15,0.444701346222967,0.4445871314754239
16,0.44467380466902134,0.44456561660762367
17,0.444693809649289,0.4446035802343172
18,0.44470408887597956,0.444577584238708
19,0.44462777752944843,0.4446687135672692
20,0.4451588733399228,0.44457858661115224
21,0.4446116434520296,0.444582403113817
22,0.4446313371728523,0.44455972681314065
23,0.44464061895745544,0.44491046874111045
24,0.4446505391154705,0.4445469064512607
25,0.44464654399404013,0.4445557084181398
26,0.44464618174443604,0.4445644248323937
27,0.4446371159297811,0.44458225634704157
28,0.4446502844152806,0.44455274743113854
29,0.44465120361824173,0.44455519886672507
30,0.44461965933503883,0.4446303657876342
31,0.44463348783711304,0.444646699964566
32,0.4446413284139631,0.44460182573575496
33,0.444654477448218,0.44457250035111956
34,0.4446186051247406,0.44458038133146666
35,0.4446393543575998,0.44455341596356884
36,0.44461664034008547,0.44457164274945227
37,0.4446448197775264,0.44457758405340314
38,0.44461637552530486,0.44460492781390726
39,0.44463938562896627,0.4445920314346628
40,0.4446034566170483,0.4445879811248637
41,0.4446087069995626,0.4445448276267676
42,0.4446272640741964,0.44481856022662136
43,0.4446322946881436,0.44454164348501657
44,0.4446088216457091,0.4445443368493865
45,0.4446119384722196,0.4445419603087462
46,0.44462764873854665,0.4445509193400588
47,0.444616726690368,0.444635524496047
48,0.44459939609668503,0.44483511628234634
49,0.44462159772278653,0.4451425342158285
50,0.4446154567635511,0.4445590492325368
51,0.44460088825718286,0.4446259168764058
52,0.44461010900480563,0.4445465489186917
53,0.4446199772429494,0.4445861639403009
54,0.44458924957317025,0.4459393920896743
55,0.4446234959550162,0.4445516612849961
56,0.44459199409054867,0.4446269024708149
57,0.4445943675666485,0.4447241045480343
58,0.4446026714790053,0.4445491863156873
59,0.44461064053544114,0.4445596171338174
60,0.44459312729037864,0.4445399226484131
61,0.444634019000664,0.44456234671205924
62,0.4445884310036095,0.4445859630221392
63,0.4446144271366215,0.44454565777683747
64,0.4445976844083428,0.4445389304094997
65,0.4445961832175655,0.44454716450686477
66,0.44460263433358044,0.4445419506623025
67,0.4445933304278987,0.444585482441822
68,0.4446242217072533,0.44465467445506024
69,0.44457827481800627,0.44557526361923233
70,0.4446178484992826,0.4445389501206467
71,0.444593027218194,0.4445475853395877
72,0.4446002786074295,0.44455259140970693
73,0.4445893978372004,0.4445811277396049
74,0.4446001772165643,0.4445697679138878
75,0.4446133446841101,0.44454625701582395
76,0.444589319030505,0.4445454392070604
77,0.4446097002420618,0.44511171509898095
78,0.44458416854157456,0.4445375461871892
79,0.44460172834001493,0.4445445618836574
80,0.44459105615215777,0.4445503801451544
81,0.4445861237665014,0.4445468376660817
82,0.44459074485035693,0.44458669730604256
83,0.4445990230329119,0.4445745719328382
84,0.44458191959890186,0.444759789252709
85,0.4445899606173185,0.4449460469590006
86,0.4445992507206218,0.44455021165535025
87,0.44458183452353217,0.4445696711688466
88,0.4445988536149297,0.4445519459027341
89,0.44458936623051637,0.44453656985802514
90,0.44458102012038087,0.4445448130088582
91,0.444591014535361,0.44456554569937995
92,0.44458026139406986,0.4445494931647188
93,0.4445987419082832,0.4445416868251855
94,0.4445796539425881,0.44457468067504813
95,0.44458196759591023,0.4445936444767586
96,0.4445850164157758,0.4445766971100285
97,0.4446031241274107,0.44455235758139494
98,0.4445898533432177,0.44455403746032107
99,0.44459613872056697,0.44463236178083687
100,0.44458334877898914,0.4446626890137683
101,0.4445883021759993,0.44457639762554313
102,0.4445742382506146,0.4445660510893761
103,0.4445872071360182,0.44455981853377186
104,0.44459426777613065,0.44453713470971656
105,0.4445824442474084,0.4445472864798446
106,0.44458674013319577,0.44454068534220487
107,0.444582958493304,0.44455192282433237
108,0.44458384702141107,0.4445399869915689
109,0.4445981501517829,0.44457057886637
