epoch,loss,val_loss
0,0.3419920187906321,0.333869989271125
1,0.3504001915456276,0.3336436890607025
2,0.33361952086622454,0.33352642752684164
3,0.33364536021602154,0.33350132890992024
4,0.33362754706995656,0.33352647249769374
5,0.3336252375103329,0.33349200425615616
6,0.33361661604938486,0.33368950236180384
7,0.3335911307039086,0.3334805487283997
8,0.33356703881978295,0.3335573585360824
9,0.33355055502869674,0.33352118564300076
10,0.33364675389550497,0.33357848730788686
11,0.33370693399822743,0.3335396642635381
12,0.3336062363467167,0.33361005287522805
13,0.33375314335291406,0.3335455937344474
14,0.3335634052843808,0.3334906322957356
15,0.33355825224209507,0.33348895415338115
16,0.3335189368210227,0.33354182597756027
17,0.3335302093544522,0.33399642089857984
18,0.3335176786402049,0.33345454945554104
19,0.33351916887421484,0.3334731589807543
20,0.3335278475911726,0.33358146238335495
21,0.3335050399600436,0.3334909074205682
22,0.3335033514869742,0.3334713825844473
23,0.33358021503099994,0.3334981486278055
24,0.33356324826820827,0.3335115593605089
25,0.33355474703379745,0.3334657598990364
26,0.33357084350128835,0.33345676028595067
27,0.33353879177949003,0.3335045457553389
28,0.3335599915747262,0.3336374346020591
29,0.3335042142506887,0.33347323947190854
30,0.33350610923916185,0.3334837267974444
31,0.3335270412179954,0.33398747692990843
32,0.33404077243781777,0.333492559773775
33,0.3335864347658698,0.33349826021312207
34,0.33352505493912915,0.3335197507742138
35,0.3335385342287476,0.3336752232479825
36,0.3616459808537218,0.4446724251714772
37,0.4446379574710682,0.4445851305372276
38,0.44477899632042894,0.44466580328498306
