epoch,loss,val_loss
0,0.23445199106601508,0.2225347523431749
1,0.2231780082399645,0.22257504913592596
2,0.22376789122514232,0.2238122256468405
3,0.2227417170185377,0.2228887047738414
4,0.22275768332456028,0.22253558844682653
5,0.22284114657053603,0.222470742524422
6,0.2226208651178352,0.222644397795338
7,0.22273086243520132,0.22250140660724838
8,0.2226367983527182,0.22239405340052643
9,0.2226003896230874,0.22240879987183673
10,0.22544396882764026,0.2224425313596214
11,0.2226588342186231,0.2225297936184577
12,0.2224956201510102,0.22250081059521437
13,0.22265095635233811,0.22288020107108253
14,0.7197548589442233,1.0
15,1.000000034308285,1.0
16,1.0,1.0
17,1.0,1.0
18,1.0,1.0
19,1.0,1.0
20,1.0,1.0
21,1.0,1.0
22,1.0,1.0
23,1.0,1.0
24,1.0,1.0
25,1.0,1.0
26,1.0,1.0
27,1.0,1.0
28,1.0,1.0
