epoch,loss,val_loss
0,0.5618118655577979,0.5558006452146019
1,0.556910774819162,0.5566093719943757
2,0.5557837195366718,0.5556908871950064
3,0.5565220781286039,0.55570862217639
4,0.5592724825348336,0.5556736628927501
5,0.5557412354094556,0.5556816277950394
6,0.5557655406480523,0.5558262039806517
7,0.5557568378418781,0.5557168654066396
8,0.5557865354661101,0.5556593827359269
9,0.5558723973101802,0.5557027726195426
10,0.556443787659943,0.5556713230213024
11,0.5557211871343913,0.5556840594506514
12,0.5557395318845086,0.5556969346363096
13,0.5557678324951414,0.555770206110455
14,0.555764864181855,0.5559284948904533
15,0.5557589663081137,0.55596846533745
16,0.5557464877283409,0.5560880195694254
17,0.5557604587340419,0.5561061726939638
18,0.5557352447452162,0.555737539493163
19,0.5557390625598766,0.5556460324179154
20,0.555750661359449,0.5556522019063205
21,0.5557191524639008,0.5556679438858521
22,0.5557505801758813,0.555935844199275
23,0.5557069317864246,0.5558746556423341
24,0.5557289992311292,0.5556830761804952
25,0.5557226815115149,0.5556582108677376
26,0.5557128895090631,0.5558086407292607
27,0.5557268661678658,0.5556575269867671
28,0.5556959360728517,0.555639204631205
29,0.5557056198644313,0.5556364188526342
30,0.5557241612334947,0.5556694770032972
31,0.5557059452707495,0.5563345408753066
32,0.5558584391750278,0.5556405906800924
33,0.5557260321588708,0.5557106567712506
34,0.5561617926936036,0.5556750459767591
35,0.5556821410686528,0.5556523467512193
36,0.5556860875506769,0.5556439771642057
37,0.5556987663016444,0.5557518913365105
38,0.5557244778311958,0.5556367062975954
39,0.5557057083854542,0.5556452705818206
40,0.5558748893637607,0.5556919691850246
41,0.5560447461093921,0.5557290066684154
42,0.5557510449077211,0.5556399928229511
43,0.5556870889685721,0.5556487469441049
44,0.555690158732728,0.5557166083199153
45,0.5556979064541341,0.5556624971818577
46,0.5556860099405359,0.5556540854088599
47,0.46525005770223204,0.4445533288226159
48,0.44484886068346985,0.4445756741528571
49,0.44459081497267944,0.4445415430338774
50,0.44459807639602944,0.44454107850625896
51,0.4446019186931103,0.4445672817998128
52,0.4445933376728767,0.4446722624208305
53,0.4445931629011078,0.4446182949893702
54,0.4445893116874025,0.4445356818187044
55,0.44459250052107346,0.44456002324803684
56,0.444603567058665,0.44462818553253314
57,0.444591447265195,0.4445758699407203
58,0.4446072611743097,0.44454251100314324
59,0.44460396899293064,0.444542729631159
60,0.4445793781540978,0.44464961659486857
61,0.44459417238074406,0.4446484861079108
62,0.4445894092316454,0.4446927497253089
63,0.44460860461121576,0.44455592240823866
64,0.44459396557873204,0.44455384394906095
65,0.4445760868713699,0.44457509808757206
66,0.44458735115386866,0.4445473545185095
67,0.4446085027593771,0.4446801112110692
68,0.44458308650626893,0.44455853530263195
69,0.4445764088193281,0.4445831799701976
70,0.4445760603064507,0.4445418714629882
71,0.44458714462928783,0.4445300691927024
72,0.44458237369023185,0.4445463910389167
73,0.44458064409804754,0.4445604119647733
74,0.4445827556127431,0.44454637427676486
75,0.44458096932011737,0.44452944691237517
76,0.44458370412105064,0.44454810060898226
77,0.44458166189850185,0.4445379948050583
78,0.4445790789244365,0.444569106153028
79,0.4446711977102175,0.4445780194934466
80,0.44456902698166295,0.44457177746611476
81,0.4445701617550149,0.4446042829369711
82,0.44457184804604916,0.44461321004289656
83,0.4445781280477278,0.44454361936469594
84,0.44458077971672155,0.4445420936329747
85,0.4445754824991626,0.44494165427457333
86,0.4445792491478869,0.44453620465383326
87,0.4445785699342031,0.44454237814482417
88,0.4445821896185176,0.4445386874906588
89,0.44458144710887165,0.44453442685450345
90,0.4445797818899013,0.44457008486468363
91,0.4445974750925077,0.44509355351924473
92,0.44457404205240403,0.4446598089573586
93,0.44458729928341256,0.44454230535705935
94,0.44457097177997723,0.4445467149836489
95,0.44457032738990865,0.44453136953542616
