epoch,loss,val_loss
0,0.5656477918851792,0.5573896505329067
1,0.5579156725458659,0.5577207497284835
2,0.5572093701965193,0.5568525451901413
3,0.5568212979520449,0.5563802079020141
4,0.5567195662445885,0.5563333569358268
5,0.556415697693709,0.5569246284680884
6,0.5562963980928924,0.5574761978748489
7,0.5561054211458342,0.5560143794973613
8,0.556128424610913,0.5559791625446103
9,0.5560518334626694,0.555897395624363
10,0.556024016312247,0.5558956090733476
11,0.5559718333091007,0.5561640167515873
12,0.5559833750891505,0.5557816729259271
13,0.5559843527919732,0.5559190560412208
14,0.5559344924484269,0.5558099979023502
15,0.5559230452392352,0.5558104783079514
16,0.5559201777090067,0.5559857427004409
17,0.5559173561984717,0.5558433938691408
18,0.5559385992080284,0.5557660962595442
19,0.5558820999586099,0.5558431846334363
20,0.555891892188372,0.5558905093024819
21,0.5558879014387772,0.5558198420504605
22,0.5558776215301565,0.5560208748682585
23,0.5558893597950253,0.5557514087496059
24,0.5558533433118051,0.5558629727613483
25,0.5558691252485631,0.5558097092926153
26,0.5558413916903477,0.5560540647124668
27,0.5558414604692821,0.555762738217086
28,0.5558525212302338,0.5558641722240845
29,0.5558270012270363,0.5557526243603406
30,0.5558398646554076,0.5558927213029595
31,0.555837587094966,0.556251128659322
32,0.5558323908016514,0.5558078769236395
33,0.5558380313731381,0.5559376462735467
34,0.5558096157055067,0.5559309230199777
35,0.5558171711762727,0.555988571162672
36,0.5558198110265565,0.5557525893430088
37,0.5558170089432642,0.5557641630423473
38,0.5558079711286878,0.5557806756149538
39,0.5557973401785422,0.5558310405867924
40,0.5557993280697567,0.5557986599637891
41,0.5558220915886201,0.5558767090535838
42,0.5558034300191389,0.5557954720735846
43,0.5558168732321133,0.5558308653836564
