epoch,loss,val_loss
0,0.6280755542818198,0.6131506570280498
1,0.6131063323757138,0.6125788711213922
2,0.6127514592816287,0.6122584655221772
3,0.6123750652018142,0.6142522658054814
4,0.5968139677654605,0.5841287932211265
5,0.5841473943020908,0.5840001908155927
6,0.584087266705869,0.5839030947433651
7,0.5839781260692032,0.5837751545010673
8,0.5839789416081987,0.5842616881670252
9,0.5838591976515575,0.5839464784325027
10,0.5838961329868907,0.5836696360881681
11,0.583817913087407,0.5839161384929495
12,0.5837866742079449,0.5839538092743675
13,0.5837641739762258,0.5841332298439929
14,0.5837421371788439,0.583631268930935
15,0.5837600904064837,0.5836244169698767
16,0.5837032172800587,0.5836244889528888
17,0.5837268657465431,0.5836789862028255
18,0.5836997953830073,0.5836098951966412
19,0.5837232378529478,0.5840672012183569
20,0.5836802662812424,0.5837669772499513
21,0.5836747084675512,0.5836941470132456
22,0.5836712273315277,0.5843805372979718
23,0.583704350849797,0.5835915763989332
24,0.5836481245940849,0.5835881495289406
25,0.5836609790599462,0.5835784795462587
26,0.5836589799444162,0.5841456508102797
27,0.5836508989159035,0.5835329097252075
28,0.5836251048304529,0.5835730629040137
29,0.5836349112099117,0.5835916190296491
30,0.583650196982511,0.5835296331110168
31,0.583629903815473,0.583735237697192
32,0.5836043747452876,0.5836484517037159
33,0.5836353644491821,0.583584292349203
34,0.5836080947446273,0.5837283138166547
35,0.5836185327918519,0.5835713459217521
36,0.583617127278834,0.5840557156923842
37,0.5836094990603851,0.5835328975586171
38,0.5836039650140054,0.5836213204296937
39,0.5835985848099289,0.5835922651613642
40,0.5835882886648771,0.5835558779393405
41,0.5836025758941353,0.5835344093077601
42,0.5835952758111368,0.5835223037410023
43,0.5836011934763817,0.5835547115244097
44,0.5835784604580073,0.5840976238568398
45,0.5835980478160873,0.5835659400589578
46,0.5835859831551841,0.5835412297669853
47,0.5835704066841092,0.58354125295657
48,0.5835906985042294,0.5835714602178146
49,0.5835722155496099,0.5835776805644731
50,0.5835848515366413,0.5835206813701285
51,0.5835794890429816,0.5835655497327158
52,0.5835691909382632,0.5835564464653633
53,0.5835822858783769,0.5835128627210554
54,0.5835717812617844,0.5835703957311678
55,0.5835696826748178,0.5838291112113155
56,0.5835776389863611,0.5835445804713695
57,0.5835658872396069,0.5835559732601812
58,0.5835622365966537,0.5835227578756631
59,0.5835670883119548,0.5835850642235288
60,0.583574465844142,0.5836090948383049
61,0.5835649438662472,0.5835429434243475
62,0.5835668071661482,0.5835510314855679
63,0.5835645360367452,0.5835761523920217
64,0.5835599979612911,0.5835220126111208
65,0.5835525462822644,0.5834986188416372
66,0.5835548543474304,0.583543095490843
67,0.5835615065756471,0.583543323024083
68,0.583553104346758,0.5835338109423539
69,0.5835632233848186,0.5835308579234633
70,0.5835664409075575,0.5835105782928338
71,0.5835449726704631,0.5835277130557623
72,0.5835503882177207,0.5835156706620923
73,0.5835585673072183,0.5842238813612215
74,0.5835584416428885,0.5836725817054516
75,0.5835424117475891,0.583744644568093
76,0.5835466523080902,0.5835298220690709
77,0.583559686268404,0.5835123291911866
78,0.5835399631215206,0.5835067564480935
79,0.5835613108673532,0.5835166513168022
80,0.5835417167930382,0.5835133467692214
81,0.5835437505133446,0.5834974766434097
82,0.5835520694267519,0.5835016643859117
83,0.5835485285632515,0.583534521719007
84,0.5835394609865907,0.5837613502389946
85,0.5835388773151273,0.5835567433979355
86,0.5835334477777135,0.5835069781151095
87,0.5835439828891475,0.5835217629471815
88,0.5835299864176632,0.5835547490830658
89,0.5835405751488522,0.5835050931936642
90,0.5835395265747134,0.5835582538022942
91,0.5835207789394403,0.5835211796497108
92,0.583532255684818,0.5834981323580353
93,0.58351978146488,0.5836987139531066
94,0.5835349093431277,0.5835563720575042
95,0.5835188351266067,0.5835586787858469
96,0.5835238718412165,0.5836200091169198
97,0.5835314111983835,0.5836222646481658
98,0.5835214146465479,0.5835252102960128
99,0.583526426983921,0.5835040462950996
100,0.5835236122051515,0.5834921648625604
101,0.5835075865948581,0.5835096047750098
102,0.5835180589249543,0.5835482990748083
103,0.583515509450882,0.5835896467607681
104,0.5835130094259199,0.5835367666508127
105,0.5835241491862864,0.5834899506384239
106,0.5835092443330693,0.5835313837022928
107,0.5835038730025554,0.5835910138767891
108,0.5835198027939031,0.5834969961107423
109,0.5835075701847677,0.5835664626399542
110,0.583507528712687,0.583475199309478
111,0.5835051877468639,0.5835412399746381
112,0.5834940646916672,0.5834981099202591
113,0.5834983863369057,0.5834888447811346
114,0.5835032690821444,0.5835012980328294
115,0.5834998618854166,0.5835728817922986
116,0.5835057096182347,0.5834708388839867
117,0.5834926702038918,0.5835345110030894
118,0.5834875888390965,0.5834709088868836
119,0.5834999020614067,0.5834748823216211
120,0.5834963543757814,0.5835596681445927
121,0.5835030709397977,0.5834595297471015
122,0.5834957483474581,0.5835237320182294
123,0.583489606949839,0.5835565934492102
124,0.5834929217386836,0.5834823574259981
125,0.5834895002694268,0.5835418868475728
126,0.583491307721652,0.5834895812039859
127,0.5834898310605926,0.5835415153377199
128,0.5834923874062049,0.583466160507053
129,0.583489065902537,0.5834680708311532
130,0.5834896050438232,0.5834844069934946
131,0.5834904657539821,0.5834976647649445
132,0.5834873411008058,0.5836680532878321
133,0.5834871931558568,0.5834627164513545
134,0.5834836756459918,0.5835767899679447
135,0.5834962668105902,0.5836647914980334
136,0.5834781247024289,0.5835039757627601
137,0.5834863210561944,0.5834834493165924
138,0.5834906614975727,0.5836010337892445
139,0.583479254765098,0.5834534151513023
140,0.5834929458660204,0.5835172576556136
141,0.5834865554707284,0.5835357190322062
142,0.5834852665282269,0.5834918163199263
143,0.5834866172835278,0.5834683147665238
144,0.5834822351568774,0.5834687975546166
145,0.583483311095756,0.5835171823265244
146,0.5834833324516046,0.5835056444598591
147,0.5834877082065147,0.5834558509047998
148,0.5834790820278245,0.5834539333273365
149,0.5834881259797718,0.583538001808567
150,0.5834839632058947,0.5834560043902015
151,0.5834914729802841,0.5837177654040349
152,0.5834767681231906,0.5834579592827773
153,0.5834839916182374,0.5834754253391009
154,0.5834880376987659,0.5835088272144706
155,0.5834848234487269,0.583486334471534
156,0.5834813424425948,0.5834603214119908
157,0.5834854463135233,0.583459660286462
158,0.5834810784001035,0.5834611357370222
159,0.5834813200800875,0.5836109822481305
