epoch,loss,val_loss
0,0.11079337089366477,0.08749277235206775
1,0.0845264170315963,0.0822727511725414
2,0.08124977846029267,0.08027538754634052
3,0.07901820713762582,0.07906524938949801
4,0.07851800865123458,0.07774443066238321
5,0.07817418708182101,0.07689244853986743
6,0.07770432914233562,0.07640662890403933
7,0.07755078606138811,0.07716982707691772
8,0.07741917957243118,0.07768754231631486
9,0.07727305345211247,0.07820010776030689
10,0.07716392134306876,0.07880594936005757
11,0.07705392588917151,0.07761286452673889
12,0.07702471257601694,0.0766444329005794
13,0.07695068697078444,0.07670867469213172
14,0.07686071182277786,0.07701995846277004
15,0.07684331266699801,0.07671251889191755
16,0.0767645392578865,0.0764458038610531
17,0.0767070678383127,0.07643710993687393
18,0.07667807843767606,0.07644570074657422
19,0.07661333589729917,0.07733439326672287
20,0.07662144055163282,0.07764210837444428
21,0.07656651173595318,0.07639258117244511
22,0.07654588409672539,0.07890661236363129
23,0.07653101086658871,0.07667767812224369
24,0.07653286732243313,0.07807702884973064
25,0.07645126666884382,0.07668963510926101
26,0.07646641864059496,0.07778874469538496
27,0.07643257307331136,0.07596400390538315
28,0.07638653916232084,0.07777435244184398
29,0.07640967019907788,0.07642403501332877
30,0.07639906210492536,0.07583226025706509
31,0.07639846430600714,0.07688451214829838
32,0.07631996459744404,0.07689223881454119
33,0.07634873494767562,0.07608236371200171
34,0.07634600994879813,0.07688291473397059
35,0.07626191915159793,0.07592862991548922
36,0.07632780009706358,0.07836354295372461
37,0.07628969846177167,0.07578690675748079
38,0.0762868862264623,0.07693292499255672
39,0.07626354652705572,0.07639619554467199
40,0.076276952819282,0.07600237254899353
41,0.07628517755080165,0.07558409322005742
42,0.07620636247485141,0.0757599615046244
43,0.07628408159725868,0.07544875413112687
44,0.07621703533410511,0.07606085494604597
45,0.07620002192136638,0.07662766569396336
46,0.07623208087179854,0.07696333856354681
47,0.07619897147302253,0.07827993857203304
48,0.07623401132504717,0.07651929588058143
49,0.0761352670489712,0.07603517273754756
50,0.0761968610762638,0.07631456549655385
51,0.07620776017025738,0.07607750702028507
52,0.07614138875979302,0.07596419761055144
53,0.07619253502002458,0.07642197129899604
54,0.07611484723043942,0.07607454775950678
55,0.0761713127131621,0.07660239838190389
56,0.07611537186000895,0.07604101679300707
57,0.0761491858735586,0.07601624473866665
58,0.07612319046178927,0.07597251552998088
59,0.0761656057385098,0.07851808886669887
60,0.07612777362285354,0.07563646991693954
61,0.07612642025191309,0.0755119052915782
62,0.07612407959357088,0.07530549641837382
63,0.07613141210987417,0.07536395199405088
64,0.07608145387770668,0.0758373395489241
65,0.07606775686399625,0.07622135535922124
66,0.07610416496383417,0.07585844014830499
67,0.07609669970298792,0.07609468615827661
68,0.07616633419336767,0.07676442210505793
69,0.07605772897086108,0.07560652787085123
70,0.07607527323212324,0.07610759755025405
71,0.0760873850810893,0.0765300443034522
72,0.07609540584754655,0.0783520795141641
73,0.07606097388815389,0.07611463768697081
74,0.07608932678403363,0.07615393391337176
75,0.07603871777982878,0.07559538579619923
76,0.0760870831489562,0.07571063877741983
77,0.07605783472557175,0.07554674509195786
78,0.07605719201152339,0.07625484783151781
79,0.07606681176884349,0.07521027356444954
80,0.07606267264534783,0.07639899612551578
81,0.07602092678799621,0.07573416045771754
82,0.07602593738706723,0.07574953374063792
83,0.07606240250764866,0.07605302026008406
84,0.07610017376605407,0.07569171456120857
85,0.0759921118363982,0.0761118960297642
86,0.07605486092347014,0.0763211761485766
87,0.07601500928101751,0.07604330356929663
88,0.07609378878453042,0.0759998570268154
89,0.07599367889702388,0.07546747394737224
90,0.07604966897619923,0.07598172906852318
91,0.07603200033751414,0.0769226917136213
92,0.07608469285281418,0.08189086501240851
93,0.07606597557106806,0.07539796155363628
94,0.0760381246846525,0.07610160237384593
95,0.07605750793913195,0.07593325163496206
96,0.07599125612061516,0.07557660230276446
97,0.0760296073215353,0.07544024538026209
98,0.07598914815858593,0.0765984436162644
99,0.0760001840921324,0.07666871286954464
100,0.07604067355475369,0.07657350241115007
101,0.07599804597318345,0.07644297861065913
102,0.07600487784520236,0.07650693696247758
103,0.07604558746894294,0.0775583612225854
104,0.07602727831513637,0.07640973692983731
105,0.07603238925862871,0.07590543167409577
106,0.0759848872448776,0.07594497791129452
107,0.076075475667083,0.07594118816312974
108,0.07595234687730358,0.07590224046331794
109,0.07601775721720547,0.07590551556509988
110,0.07600661152407676,0.07589223143720922
111,0.07596321472338516,0.07537457593190787
112,0.07605421569673118,0.07535101492312304
113,0.0759802644484638,0.07595546957484023
114,0.07600230280141188,0.07552910202180298
115,0.07593023016463664,0.07649307432795666
116,0.07597209753351311,0.07558450126869684
117,0.07598318682866063,0.07609319350912659
118,0.07598458713834488,0.07554984114711132
119,0.07602209279383322,0.07584661367728894
120,0.07602849438147066,0.07624846446766996
121,0.07594182215739743,0.07581737367737582
122,0.07595147730376757,0.07609219417632761
123,0.07595516217427417,0.07535550585220613
124,0.0760409413886954,0.07670241312699068
125,0.07591418335227246,0.07599106848347907
126,0.0759974757749473,0.07545542900236546
127,0.07595524682792988,0.07547412297407434
128,0.07597067727352753,0.0759067308555367
129,0.07597821488228503,0.0755707765709761
130,0.0759170373280799,0.07588911005611747
131,0.07600569744785005,0.07652949059542605
132,0.07596906377058106,0.07632479651922967
133,0.0759821022952292,0.07601578547428432
134,0.07590332421189241,0.07551987169195593
135,0.07604701170752623,0.07570807114684276
136,0.07597702062342071,0.0761517519590437
137,0.07596836912900577,0.07628978409791548
138,0.07601709353525812,0.07819787826450028
139,0.07594565793937134,0.075991120707828
140,0.0759826490617173,0.07581995030479798
141,0.07596430321734694,0.07696551926744166
142,0.07606334967876419,0.07597294347396964
143,0.07592357490140415,0.08306938212849162
144,0.07618185917872529,0.07667818866669734
145,0.07590990731212313,0.07623918420269196
146,0.07593960709943522,0.0755064041200734
147,0.07664321510906447,0.07593411530230985
148,0.07586352931765034,0.07580436522414395
149,0.07605171992072782,0.07613931474730207
150,0.07595723064450026,0.07665530469383518
151,0.07597210228510386,0.07691836085865214
152,0.07597211929220776,0.07607753010386185
153,0.07589238128846654,0.07625680682355837
154,0.0759349536378985,0.0759138830217771
155,0.07632212701107391,0.07736523315562233
156,0.07592683592845392,0.07563832274287238
157,0.0760105086074416,0.07537095925100562
158,0.07603232856266073,0.075950563284327
159,0.07585843233601354,0.07667410497023583
160,0.07641568760031538,0.07787853562376973
161,0.0759067358138134,0.07634734593826983
162,0.07596986736049299,0.07565462940608249
163,0.07588111576738915,0.07557766712268443
164,0.0760260161089942,0.07601103317408472
165,0.0759683340011056,0.07555501616163776
166,0.07623694492495976,0.0761227714087335
167,0.07588354869052252,0.07545834730103257
168,0.07598339625126554,0.07565725465228561
169,0.07611842420415785,0.0761631350401037
170,0.07589800138088719,0.07551869025295785
171,0.07592624902847257,0.07569739805810557
172,0.07596259445902634,0.07724694823800059
173,0.07594222939103434,0.07656643679283616
174,0.07601623109417108,0.07693283674270684
175,0.07596243348554593,0.07592561586715263
176,0.0759209854319623,0.07715591357847473
177,0.0759708023064724,0.07631752033812884
178,0.07586503504366227,0.07537769793444386
179,0.07608716810962514,0.07567124673106462
180,0.07590538282963417,0.07618489890634673
181,0.07598131377047476,0.07604080145046006
182,0.07634092931325033,0.07545423436849755
183,0.07608107054868041,0.07852729185141016
184,0.07579552813743524,0.0767804037966003
185,0.07598821663402718,0.07609246210179489
186,0.07586393940494188,0.07587892843647336
187,0.07599771662739552,0.07728951142427097
188,0.07608731550165787,0.07630948586002162
189,0.0761257118708501,0.07551856414146758
190,0.0757842941493772,0.07659138726005103
191,0.07589726477995355,0.07567587271924403
192,0.07587764731315505,0.07661231329315844
193,0.07603780354265009,0.07886797068203295
194,0.07594960657766459,0.07566306630647533
195,0.07590798271356865,0.0758975949105643
196,0.07589390624334169,0.07621953720709844
197,0.07655484249220229,0.07551902604450621
198,0.07591056677179463,0.07636235391679733
199,0.07587038007128123,0.07603369118068122
200,0.07700134690272122,0.0763023552529334
201,0.07578620084070121,0.07541803609334996
202,0.07588104191478875,0.07777889576125918
203,0.07616865236211325,0.07726489828573592
204,0.07587629423817563,0.07547604896325531
205,0.07591715114355915,0.07648613763212592
206,0.07592703928504906,0.07543061082852215
207,0.07584556233072691,0.07621986019292416
208,0.07588468862756698,0.07646739143487684
209,0.0759534450587607,0.08055975953475286
210,0.07610799188391958,0.07554923753770679
211,0.07584654096093771,0.07594169817588124
212,0.07590046016328439,0.07643659434065422
213,0.07587693853401391,0.07620350926779344
214,0.07620057087261867,0.07587203564438899
215,0.07590211130324784,0.07555250873610402
216,0.07597683441714499,0.07545486444705954
217,0.07589737656096547,0.07578096858796131
218,0.0758578491512299,0.07710301189660099
219,0.07587256369913542,0.0764113442130176
220,0.07591457913998727,0.07670284796126747
221,0.07670554333710768,0.07582270415621017
222,0.07585752130510136,0.07606391352791207
223,0.07586817029084944,0.0753107779476521
224,0.07600528025444954,0.07555022984878129
225,0.07583400966504499,0.0758915435611544
226,0.07588978010030488,0.07737768337917576
227,0.07588514219770141,0.07617114383767219
228,0.07587583164136223,0.07563420426776933
229,0.07591871205015444,0.07733661613233472
230,0.07589079414239812,0.07614357009063885
231,0.07589129586225463,0.07615151621962396
232,0.0758524119379721,0.07606053968916021
233,0.0763240819564873,0.07521392170750611
234,0.07580047337008532,0.07620853504357304
235,0.07588918282024497,0.07614220594047662
236,0.07587379691340661,0.07631301624832558
237,0.07588836471348438,0.07635441772456693
238,0.07595081126829473,0.07611812130017798
239,0.07587579315226604,0.07565483869540503
240,0.07621859389538133,0.07539191366565105
241,0.07579704116631199,0.07910228658024579
242,0.07585832663854934,0.07603530790028412
243,0.07588275907398163,0.07605878725963215
244,0.07584798542573053,0.07626208029073903
245,0.07588949441896024,0.0763509760991518
246,0.0758862480835429,0.07571518411563542
247,0.07674094711523959,0.07560667925387858
248,0.07585528946637393,0.07614170355242922
249,0.07634498501398901,0.07752035639547548
250,0.0757500617025939,0.07533422005727386
251,0.07610394267446921,0.07519030583452481
252,0.07585246101588143,0.07587291343500065
253,0.0758361576935924,0.07905979526866977
254,0.07589774339459861,0.07639048635095559
255,0.07583944299818224,0.07561473984416027
256,0.0758927942211401,0.07931562657931374
257,0.07633887567687944,0.07598854623421648
258,0.07577218398140623,0.07544661159105712
259,0.07586564798583147,0.07610715693595001
260,0.07591030973818025,0.07558759024613626
261,0.07584713117486191,0.07507598461505924
262,0.0758518485113004,0.07829068390158063
263,0.07599338492665271,0.07604064817292118
264,0.07584705192772324,0.0755423534474304
265,0.07598837836534517,0.08110977494706478
266,0.07633401305441713,0.07679580215171908
267,0.07582259673426456,0.07580901366413158
268,0.07584784800199873,0.07564050673664947
269,0.07669331490630034,0.08504069801903429
270,0.0760956196415329,0.07577620070479874
271,0.07578716846098975,0.07533457603762032
272,0.07597568741959022,0.07590422601584641
273,0.07581977948158192,0.07565672357237517
274,0.07593798633425901,0.07716500733472807
275,0.07582395008766708,0.07600076916840376
276,0.07651777229697199,0.07559285768630032
277,0.07586085094368678,0.07588281882763519
278,0.07582373646482457,0.07576527779785192
279,0.07586116390864074,0.07610587907858458
280,0.07587727568815643,0.07598380440247375
281,0.07586141196977834,0.07565518317446616
282,0.07587512447094663,0.07608225568791464
283,0.0758772525343682,0.07562256124114225
284,0.07617853809005155,0.07577077618099788
285,0.07584391444196681,0.0759029307810729
286,0.07588453701219952,0.07781881911823352
287,0.07590055870189343,0.0767858209873589
288,0.07586391787834366,0.07595254473452921
289,0.07650957956220131,0.07538351880228927
290,0.07578907959053792,0.07648518669295844
291,0.07594572796499446,0.07602852204267464
292,0.07582695833342444,0.07601061743065499
293,0.07587953943859037,0.0763924015901436
294,0.07586869360037457,0.07617325791480069
295,0.07583843621262716,0.07687324929982622
296,0.0758813425051701,0.0769168607243748
297,0.07595461738831596,0.07615515500091066
298,0.07589506396438775,0.07749090795998112
299,0.07582712644001562,0.07515175193619679
300,0.07673730489693928,0.07632117810344566
301,0.07587872352155754,0.0756486067697799
302,0.07732587820242863,0.07687001082950301
303,0.07571630551904796,0.07529060282926979
304,0.07594622034513632,0.07609555714397435
305,0.07584531468057276,0.07703866432927943
306,0.0758535527407952,0.07534505848036273
307,0.07587673995362883,0.0758595861649803
308,0.07586660314888742,0.07555214587380839
309,0.07587001870088216,0.07605994604907171
310,0.07666409778509624,0.07635473930628603
311,0.07588141719628262,0.07612873027572206
312,0.07578860403987041,0.07519720689082511
313,0.07586482478082453,0.07575649404896796
314,0.07585916622862582,0.07555257837081943
315,0.07594486025822336,0.07543127137810438
316,0.07588340354612585,0.07632682442129825
317,0.07583551614624727,0.0756767487471777
318,0.07588808083649608,0.07733161146262876
319,0.07586689934088554,0.07570396644794782
320,0.07589125047816658,0.07600788162773126
321,0.07592787515191993,0.07628696773477006
322,0.07633515102191771,0.07593052582398842
323,0.07580119412294133,0.07600284761195815
324,0.07619714361368433,0.07834567529837956
325,0.07585003448476499,0.0753484770829557
326,0.0758303792562647,0.0760236934009267
327,0.07594530743680411,0.07633582871340361
328,0.07583101998422397,0.07537960888904174
329,0.07587885585002112,0.0761696561763569
330,0.07588330915533913,0.07525964168885214
331,0.07586488989833905,0.07638704772395938
332,0.07585915531592331,0.07624009252865228
333,0.07589609047939844,0.07594672228547547
334,0.07593172787408885,0.07660011160442305
335,0.0758075221588368,0.0768194574210897
336,0.07586137798382976,0.07695523865073435
337,0.07585264367088955,0.07710141737903733
338,0.07619901677656842,0.07573496576807415
339,0.07577194901495572,0.07573403205105296
340,0.0759592729200577,0.07549084128791803
341,0.07583611870258018,0.0773723301991613
342,0.07587287331116598,0.07589588479523542
343,0.07589515511019213,0.07532365956430921
344,0.07586923322653819,0.07597593717189294
345,0.076249234327908,0.07600389842575549
346,0.07584359148508532,0.07573081557548854
347,0.07616691470067027,0.07556988749430135
348,0.07584014418127714,0.07619444854140174
349,0.07588469571143916,0.07562775346749069
350,0.07585992508169899,0.07531712722776414
351,0.07593811266997505,0.07528926252966171
352,0.07585191685725205,0.07580015023775474
353,0.07582863971561479,0.07547808035851566
354,0.0759139141955729,0.07585709705835263
355,0.07611668039801597,0.07614773734216719
356,0.0758652784039037,0.07551373161777773
357,0.07586757090339084,0.07630124561318277
358,0.07587847179995384,0.07644237632236965
359,0.07585878089028096,0.07653399948921183
360,0.07596605007370075,0.07737137138214548
361,0.07579559453316785,0.07609162510731121
362,0.07583835924138377,0.07564145710202339
363,0.07587910461605157,0.07527543838577014
364,0.07625719565854798,0.07594648843659639
365,0.0758011063996165,0.07592562924468339
366,0.07585770780210982,0.07524551968930825
367,0.0758130131761812,0.07592799651726333
368,0.07630598308696109,0.07552389645842686
369,0.0758041259725674,0.07595690357196193
370,0.07604541321672632,0.0761118198704797
371,0.07577627054627381,0.07539610832982027
372,0.07587694870999052,0.07593411645347081
373,0.07586953019377948,0.07543160468943495
374,0.07589999954031662,0.07595144872684338
375,0.07586678155647096,0.07552234510006772
376,0.07583443310506299,0.07553922453236937
377,0.07585917909796693,0.07532157640095516
378,0.07586633949565993,0.07575052885754317
379,0.07587653682926251,0.07565471130767078
380,0.0765694886299607,0.07658371759752014
381,0.07589994657772027,0.07559624238067082
382,0.07601567024749595,0.07697002185783693
383,0.07581992450235267,0.07631919873676936
384,0.07585813662607717,0.07589216097813707
385,0.07585827048927603,0.0754172833349407
386,0.07582945945241117,0.07590503116260236
387,0.07587717835231923,0.07615821060500648
388,0.07590078101455405,0.07587599376701873
389,0.07589153592496607,0.07715687090442143
390,0.0763899827855439,0.07631107464639997
391,0.07658772206883609,0.07595492808961007
392,0.07573839390145448,0.07540068166400046
393,0.0758016300951087,0.07554231211602647
394,0.07586230832262517,0.07657271145754567
395,0.07582483935644319,0.07577979178855092
396,0.07586585251528466,0.0761803134446719
397,0.07586765274144594,0.07591292471065264
398,0.07585836653392368,0.07582115401135499
399,0.07637052717845438,0.07550497096160362
400,0.07583956590751406,0.07563606527294106
401,0.07591801307770044,0.07597978050046554
402,0.07584078233539468,0.07582134316945732
403,0.07584111751641957,0.07622563033662282
404,0.07587364834560385,0.07628276906556135
405,0.07588049239272612,0.07704270315587708
406,0.07597912711510868,0.076237340832242
407,0.07579744224234473,0.07663740602663469
408,0.07593077777115903,0.07611663358922656
409,0.0757918691363843,0.07617562815840041
410,0.07588308563487689,0.07536661078315461
411,0.07581133403679567,0.07550050856614363
412,0.07601834369806311,0.07776876589620774
413,0.07589995856890687,0.0752502705818274
414,0.07584636265686111,0.07606750271357891
415,0.07581346179121858,0.07729912838020388
416,0.07587868698731305,0.07687143159244307
417,0.07580788030503433,0.0755823072202296
418,0.07616167903296701,0.07575607058295168
419,0.07579169558429553,0.07566962438828463
420,0.07584503032132416,0.07617696537183291
421,0.07584122443167868,0.07733697139752392
422,0.07582125908208426,0.07657828289871117
423,0.07587259760732143,0.07537885001466796
424,0.07581978204827614,0.0770529282091142
425,0.0761683149736903,0.07586353281531222
426,0.0757708391601789,0.07602741365732811
427,0.07583061865028422,0.07665777389915718
428,0.0762002212982387,0.07579136665763361
429,0.07584288933435933,0.07546338200496089
430,0.07621855093669125,0.07871307097111328
431,0.07592765291953674,0.07587742486539086
432,0.07582256134005241,0.07544907243011133
433,0.07583606214245578,0.07524793870774489
434,0.07590268087693476,0.07577707203675808
435,0.0758484604304717,0.07571584835655684
436,0.07587954647474611,0.07556834174641247
437,0.07588087667323531,0.07583125324615352
438,0.07584208148365428,0.07576547571256052
439,0.07583173316803554,0.07559514074464574
440,0.07585037209118786,0.07639065111389624
441,0.07624975858785718,0.07625938116613053
442,0.07591139342502548,0.07748849483752171
443,0.07584186588352473,0.07609474433181268
444,0.07582829653424449,0.07610027711954236
445,0.07585342145779145,0.07557034307250665
446,0.07584184790422327,0.07566200099337084
447,0.07640337497779508,0.07528306374825985
448,0.0757146110747977,0.0762157068303772
449,0.07584489979483437,0.07588979299754747
450,0.07584657460995928,0.07539395343948896
451,0.0762787566795032,0.07668151164867473
452,0.07586338253779101,0.07570492866642788
453,0.07582535857625283,0.07549517383130953
454,0.075848222354445,0.07543421274009673
455,0.07588570408282118,0.0752524157835846
456,0.07583131025865607,0.0754453566977447
457,0.0758589055010578,0.07583382291379707
458,0.07628032261234001,0.07549832899990871
459,0.07579590390105703,0.07652372841137607
460,0.07585132050200417,0.0755030258093054
461,0.07590142082008382,0.07534741685695819
462,0.07584535484603139,0.07992561634173113
463,0.0758167490285557,0.07590170324004383
464,0.07588595767205014,0.07556845484489966
465,0.07581937878522906,0.07609410769770866
466,0.07591287622133774,0.07590999306105972
467,0.07582716418861361,0.07604032114155287
468,0.07585631545729801,0.07566767497680998
469,0.07583285347476336,0.07568016868438673
470,0.07588328580817028,0.07515188143088519
471,0.07618058996852513,0.07577717523025766
472,0.075840350172799,0.07672549601204899
473,0.07587948368104186,0.07540531555623609
474,0.07578421405115203,0.07640730278985508
475,0.07586931238592098,0.07588435922514711
476,0.07647192961982234,0.07574513978902347
477,0.07614066942612045,0.0754248086520523
478,0.07580309880018173,0.07585194734514493
479,0.07584851424997847,0.07647108231781198
480,0.07586730757352328,0.07558590824351613
481,0.07585757911915546,0.07654530550800699
482,0.07586567525719733,0.07574838038139022
483,0.07585876031139338,0.07545566837713484
484,0.07585468568992978,0.07595690580876417
485,0.07587723628523424,0.07559271059342236
486,0.07578481398705182,0.07609355530484121
487,0.07653176990702004,0.07522365668702086
488,0.07574850950428122,0.07633671278040374
489,0.07581993152507369,0.07654529094715105
490,0.07585220462475131,0.07549652058242233
491,0.07583150869575947,0.07610797354388528
492,0.07582899034862459,0.07525164231976447
493,0.0758588054390966,0.07544267218243698
494,0.0758874123606022,0.07567613935099542
495,0.07638923922125353,0.0755018311353315
496,0.07578899817365813,0.07572807970267716
497,0.07580216655127292,0.07571388394464874
498,0.07591275682191044,0.07595685823909232
499,0.07582977632984814,0.07666307480161279
500,0.07582137730077795,0.07659144202576945
