epoch,loss,val_loss
0,0.5674717642766973,0.5576907630330146
1,0.5575720868973136,0.5571145955443404
2,0.5572190010375673,0.5566741752357672
3,0.5567600580360436,0.5563000631832191
4,0.5565369241099334,0.5561497723744931
5,0.5564372579066562,0.556070956365955
6,0.5562441808393476,0.556675351625396
7,0.5561894406674726,0.5558984167178966
8,0.5465385263685698,0.5288218049940365
9,0.5283378611228342,0.528179680121519
10,0.5282496651040047,0.5286289920474818
11,0.5283331464613664,0.5281098923053765
12,0.5281802469371527,0.5281235701365631
13,0.5282411734349697,0.5281217323566842
14,0.5282165892234245,0.5281309175182138
15,0.5281818319587419,0.5280494047833455
16,0.5281765105361937,0.5280296646441082
17,0.5281622497101963,0.5287741001852242
18,0.5007816097923967,0.4726441167010404
19,0.4726506955430145,0.47253334243231077
20,0.47263610964601666,0.4724776031683385
21,0.4726212645534552,0.4725816281349245
22,0.47259244426972324,0.47270631045235434
23,0.4725962642184155,0.47275497687182727
24,0.4726010706446625,0.47270508253208
25,0.472593025909515,0.47262236765020166
26,0.4725907541024176,0.4724836307131899
27,0.4725680330686472,0.4726194269090843
28,0.4725651544362295,0.47247964691726113
29,0.47256170773132306,0.4728035915594665
30,0.4725751767453983,0.47251621391680465
31,0.4725379646036212,0.4724689195477575
32,0.4725577643998725,0.47248578662981594
33,0.47254711593838283,0.4724920300601706
34,0.47252135007396745,0.4725856900765769
35,0.47254214030593317,0.4725591004805447
36,0.4725321986028798,0.47247782034038716
37,0.47252825677294624,0.47250608262022087
38,0.4725086404547206,0.4724581156420356
39,0.4725193021333711,0.47244104518520197
40,0.4725167027746289,0.4724573346454141
41,0.4725168317942526,0.47249084450589085
42,0.4725024181636717,0.4724629692168108
43,0.4724943804737235,0.47243717434055155
44,0.47250067399681966,0.4728231810775865
45,0.4725280801262225,0.472567267809907
46,0.47248963320173676,0.4724690704283017
47,0.4724879931640593,0.4724684197010251
48,0.47249403886132935,0.47251680019503695
49,0.4724923046015241,0.47245079859214983
50,0.4724713580571998,0.4725140001903442
51,0.4725023811142536,0.47245285406822546
52,0.47246550348319677,0.4724567248546372
53,0.47246634286574446,0.4724408767801086
54,0.47248047009062094,0.47241685887195434
55,0.4724741979692589,0.4724380114210247
56,0.47246496890293593,0.47255588318509983
57,0.4724824371540239,0.47265130324862653
58,0.4724681065283148,0.472471643413314
59,0.47246124973941944,0.4723998081633286
60,0.47248906151417136,0.4726703773173415
61,0.47247192351421125,0.4725781406490518
62,0.47245302266773803,0.4724705726898337
63,0.4724664172448357,0.47242315147164066
64,0.47244054518004175,0.472485574392172
65,0.47247145638008553,0.4725254582276584
66,0.47245804959389753,0.47243489949524053
67,0.47245630571718344,0.4724622004026629
68,0.4724458605428714,0.47245956727297445
69,0.4724569407635389,0.47284202269983455
70,0.47246837684583365,0.47258023749047556
71,0.472475560935062,0.47316645715583555
72,0.47243808020953443,0.4724031216637833
73,0.47245146617214645,0.4724181418542562
74,0.4724371623464318,0.47245074763330225
75,0.4724662664493341,0.4724501141446758
76,0.47243901659487536,0.4724125356133316
77,0.4724447263406183,0.4724959054103773
78,0.4724444930407506,0.4724929589936356
79,0.4724423662948708,0.4725378292992772
