epoch,loss,val_loss
0,0.5404447347803208,0.5303349860249457
1,0.5300121387976339,0.5292453120796311
2,0.5293150865633783,0.5297134615299566
3,0.5290085807007459,0.5294000985970144
4,0.5287559988088287,0.5285335919068791
5,0.5287249790364756,0.5283117694887773
6,0.5285604631942861,0.5282204927951706
7,0.5284251604826342,0.5296171287233187
8,0.5284234672769981,0.5282117776621678
9,0.5283249888463138,0.528188274488671
10,0.5282979518917059,0.5280731638470262
11,0.5282668657419984,0.5284670820603004
12,0.5282704729489686,0.5282064518828569
13,0.5282193945568266,0.5282158201044502
14,0.528221008813875,0.5280521733020885
15,0.528216178345709,0.5293887831068183
16,0.5281818665550471,0.5284585386678791
17,0.5281440153127482,0.5280725823178938
18,0.5281712589924217,0.5283214332875699
19,0.528154219265932,0.5283420431632982
20,0.528120015607078,0.5279902771875054
21,0.5281118594095364,0.5280697420490934
22,0.5281185586104544,0.5282564705780756
23,0.5281188188437377,0.5283096804036872
24,0.528074056804526,0.5283992806385669
25,0.5280943148782828,0.528023657323963
26,0.5281026538782734,0.5279870462959751
27,0.5280827330916666,0.5279851715186494
28,0.5280664983674346,0.5280660413831689
29,0.5280843171193039,0.5279989000386679
30,0.5280670707538725,0.5279890366294367
31,0.5280793204296148,0.5283889752506765
32,0.5280813249822315,0.5280590650878171
33,0.528050575405271,0.5280277245335689
34,0.5280508650773218,0.5279981181155219
35,0.5280701649220904,0.5280973133534261
36,0.5280528360586462,0.5279607702199509
37,0.5280289411330197,0.5280137209046012
38,0.5280359484731642,0.5279578272181138
39,0.5280345141242443,0.5282347019961003
40,0.5280191731237774,0.5280328873292784
41,0.5280474831374216,0.5279981010251156
42,0.5280157113924069,0.5284977487294538
43,0.5280405826118163,0.5280494824631596
44,0.5280144765609889,0.5280905630982861
45,0.5280128962973799,0.5281126157156124
46,0.5280302604122339,0.5279561636989633
47,0.5090729620759569,0.5002123574461728
48,0.500277638277235,0.5001780309840616
49,0.5002242586674654,0.5001782173372581
50,0.5002420961180559,0.500226583430432
51,0.5002423296967667,0.500217473354448
52,0.5002261621617107,0.5003222793282445
53,0.5002394314528579,0.5001870694582321
54,0.4912227392097825,0.47259469671007115
55,0.4724929896193791,0.4723986642550016
56,0.47245479108970045,0.47259380585941035
57,0.4724524360447737,0.4724284196105387
58,0.47247560062325317,0.4724226247874643
59,0.47245372939299557,0.4724226115514
60,0.47244683395857034,0.47242264859120237
61,0.47246566548465957,0.47249467195213357
62,0.4724468297258033,0.4724224095002312
63,0.47245024828026777,0.4724683250366932
64,0.4724568493736093,0.4724383849215817
65,0.472469797269543,0.47240518393260716
66,0.4724665272734823,0.4724271945863152
67,0.47249626186383253,0.47240576104618853
68,0.47243367981548706,0.4723967121419993
69,0.4724380644651377,0.4724102082949672
70,0.47244232458347907,0.4723915028400543
71,0.47244039646139147,0.47241894860825884
72,0.472446068612031,0.47243522126396376
73,0.47243110205472794,0.4724207771546592
74,0.47242944874482695,0.47244172905558357
75,0.47244105715495477,0.4725080208459445
76,0.47244358287371635,0.47247745134538643
77,0.4724767586076424,0.4724026032494999
78,0.4724279428843109,0.47242848958166905
79,0.47242406906455187,0.4723962605645462
80,0.47242391304091946,0.4724196385248746
81,0.4724213794319583,0.4723944033117696
82,0.4724146626561624,0.47240451495544505
83,0.47244786940661343,0.47249157269061576
84,0.4724251566385984,0.47240223475217524
85,0.47242957417408155,0.4724219811547182
86,0.4724562965584244,0.4724127952943244
87,0.47240752889351734,0.47239384703704784
88,0.47242907992582167,0.4723914535860118
89,0.47240952904323735,0.4724390712062214
90,0.47242318761199914,0.47243648125257476
91,0.47243195678070316,0.47242424643829634
92,0.47242027497272926,0.47241837289240585
93,0.4724308281517815,0.4725242601732395
94,0.4724367786590911,0.47242522794540875
95,0.4724107393950586,0.47241480847323297
96,0.4724180793822635,0.47242712845364354
97,0.47241725554998126,0.4723856379134889
98,0.47240912671364993,0.4724239214187957
99,0.47242294084930625,0.4724796668560684
100,0.47241191580709124,0.47246688700183964
101,0.4724409326709429,0.4724343004997977
102,0.4724189700415786,0.4724409031092877
103,0.4724136068723422,0.47250911510314714
104,0.47241728998251026,0.47242545280496356
105,0.4724086738697014,0.4724859357102554
106,0.47241271916523375,0.4726754674047025
107,0.4724044318599223,0.47243009208785763
108,0.4724115931602606,0.47248439201454767
109,0.4724196731581129,0.47238379424091426
110,0.4724036025503153,0.4724114801801528
111,0.4724238017472431,0.4725076410026655
112,0.4724169737681301,0.472505696534814
113,0.4724147791490264,0.47245610520034514
114,0.4723963423856417,0.47238736791474334
115,0.4724177989685081,0.47246200987745884
116,0.4723962419146056,0.47242415411939503
117,0.47243257768865665,0.4724371891278826
118,0.47240401237054497,0.4724290669546773
119,0.47239726897194345,0.4724168877689299
120,0.4724026369549288,0.4724277412569487
121,0.47240935331916645,0.47239185371223574
122,0.4723964513560966,0.4723840385098338
123,0.4723961684334596,0.4724140882672076
124,0.4724064370210521,0.4723947034792359
125,0.47240092130489736,0.4724820583428725
126,0.4724009927642547,0.4723878770584873
127,0.4723976373222101,0.4723891516703021
128,0.472404542653799,0.4725884489171097
129,0.4724047781455849,0.4725323384080058
