epoch,loss,val_loss
0,0.6037598215065605,0.585463586879001
1,0.5854342247333622,0.5856486043448896
2,0.585195626867352,0.5846837275954542
3,0.5847566146131327,0.5843679772577101
4,0.5845608329573594,0.585618783057869
5,0.5844196459879786,0.5841465961194034
6,0.5842238837721551,0.5850560794314603
7,0.5841356697026496,0.5837737559467464
8,0.5839770987421994,0.5839306278219442
9,0.5838942144548864,0.5837116415641684
10,0.5838746473471659,0.5838379252653686
11,0.5838296428260317,0.5836425645882123
12,0.5838441313376214,0.5837181734983695
13,0.5837989778225235,0.5838710586815876
14,0.5837445780438985,0.583788343360272
15,0.5837846257167218,0.5837481411339059
16,0.5837394247785382,0.5838180957879917
17,0.5609804149684002,0.5558804840956008
18,0.5559476737974154,0.555900126944471
19,0.5559626363506733,0.5558525450828127
20,0.5559606954900466,0.5559838388143625
21,0.5559531514553755,0.5558799642994722
22,0.555925707536738,0.5560455337937125
23,0.5559375493970969,0.5559993116252904
24,0.5559431379682362,0.5565409217513588
25,0.5559413286212902,0.5558686887398349
26,0.5559526912160856,0.5558902763477501
27,0.5559106186626337,0.5558392902021193
28,0.5559291161001498,0.555872637619026
29,0.5559024517928153,0.5559075043772821
30,0.55589645930586,0.5560458698309131
31,0.5559052873739828,0.5559961494871727
32,0.55593801072211,0.5558627278200368
33,0.5558922816029372,0.5558192839226898
34,0.5559045235444909,0.5558515505990628
35,0.5559019004403211,0.5558883055295417
36,0.5559159958072017,0.5558351499612049
37,0.5558726175157191,0.5561852388641173
38,0.5558995505981117,0.5559901049048592
39,0.5559047541004017,0.555829517687589
40,0.5558947715655477,0.555842498888828
41,0.5558952105788806,0.5558481726177973
42,0.5341790718117061,0.5281615528655446
43,0.528134365794157,0.5285428708220994
44,0.5281272226482666,0.5281895216224164
45,0.5281357897799981,0.5281435985890475
46,0.5281055426584607,0.5284312319471773
47,0.5281161621555689,0.5281135962220783
48,0.5281186062142588,0.5280463577672206
49,0.5280948736727101,0.5282841797704318
50,0.5281176757735695,0.5280993740074502
51,0.5281159078859974,0.5280819696417751
52,0.528116103462988,0.5280854881370993
53,0.5281047037333567,0.5280529323639042
54,0.5281109241868651,0.5280819643155829
55,0.5280834749624442,0.5281554218252592
56,0.5281102593374813,0.5284353130493564
57,0.5280952723999276,0.5280695018727649
58,0.5280925229127893,0.5281148907727005
59,0.528086349372684,0.5284719277093203
60,0.5280777039065253,0.5280473594937449
61,0.5280785649880044,0.5280889962341714
62,0.5280702881396606,0.5281593464665694
63,0.5280840045087055,0.5283133882594417
64,0.5280559464590596,0.5280555152812592
65,0.5280865930278651,0.5281184422734746
66,0.5280605878857516,0.5280437094848858
67,0.5280625005175779,0.5281080221130234
68,0.5280539035574044,0.5280315285678612
69,0.5280486912775585,0.5282349851843433
70,0.5280536288002805,0.5280644341119972
71,0.5280432732341263,0.5280338131125601
72,0.5280504638031025,0.5280211168043693
73,0.5280357943739018,0.5281622338557587
74,0.5280321125880617,0.5280531219467004
75,0.5280334942603514,0.5279941004193852
76,0.528026573067887,0.5279816057970478
77,0.5280201314332419,0.5279919029468116
78,0.5280181370248651,0.5281177249952667
79,0.5280193070446855,0.528024558922308
80,0.5280158862940673,0.5283561114054375
81,0.528012754664873,0.5281369097704234
82,0.5280150269788295,0.5280348035725465
83,0.5280089484839685,0.5280266829188414
84,0.5280085469132577,0.5280399932639386
85,0.5280105888859067,0.5279831520340798
86,0.5280015413450021,0.5279955798725312
87,0.5280008657047449,0.5282733215386076
88,0.5280057608659121,0.5280486169939758
89,0.5280030255143521,0.5279787948593658
90,0.5279994830300322,0.5280230375902546
91,0.5279969603997222,0.528017319186921
92,0.5279963572219515,0.5280500663853726
93,0.5279971835108763,0.5281602993361331
94,0.5280026877867006,0.527992357536793
95,0.5279963598804907,0.5279827840079591
96,0.5279849653620478,0.5279577936408659
97,0.528007631597863,0.5279906285573628
98,0.5279903108003955,0.5281956092272332
99,0.5279906471585393,0.5280120250894537
100,0.5279924710801531,0.5279737635877803
101,0.5279931245414452,0.5280712373643388
102,0.5279808399460809,0.5281125409159658
103,0.5279906561309323,0.5280379957512358
104,0.5279931742079823,0.5279927923573887
105,0.5279843363994126,0.5279874245403375
106,0.5279831554588275,0.5280055442146943
107,0.5280197406392859,0.528015674304149
108,0.5279774674331938,0.5283030641610509
109,0.5279876925685668,0.5280242044922725
110,0.5279830604418203,0.5279648119739581
111,0.5279768536325615,0.5279645356896462
112,0.5279864441818467,0.5280225846415452
113,0.5279783427759069,0.5280282655603447
114,0.5279839894607631,0.5279600158913518
115,0.5279857866402689,0.5280749652859669
116,0.5279793132330457,0.5279454818244598
117,0.5279808696573381,0.5279629803673797
118,0.5279755844999179,0.5279795255642374
119,0.5279807672238117,0.5281027841258799
120,0.5279812943670811,0.5279902023560922
121,0.5279796662737696,0.5280666362436653
122,0.5279812779922873,0.5280098745043144
123,0.5279836788168906,0.5279740879878331
124,0.5279828308389174,0.5279809092306332
125,0.5279773347236647,0.5279805186079035
126,0.5279830612028148,0.5280340194786859
127,0.5279734979448527,0.5280143402994664
128,0.5279808258373282,0.5279594790895279
129,0.5279769764872828,0.527973320253748
130,0.5279747765355705,0.5279525534618301
131,0.5279903326518081,0.5279678170264646
132,0.5279722963077594,0.5279556654935028
133,0.5279747936431215,0.5279498213369695
134,0.5279807852222486,0.5279417109438614
135,0.5279784253656908,0.5280751492354941
136,0.5279740017246036,0.5279756092034091
137,0.5279779834523901,0.5280406900421302
138,0.5279659538791207,0.527978390418185
139,0.5279869663793579,0.5280235138450259
140,0.527980029285074,0.5280570944919746
141,0.5279682069578477,0.5279666924798525
142,0.5279825007254463,0.5279728849990094
143,0.5279678119579501,0.5279756443689847
144,0.5279738549882098,0.5281401521720351
145,0.5279859278534522,0.5280263212142648
146,0.527972244098456,0.5280387335612267
147,0.5279812008028816,0.5279483824285357
148,0.5279639913703896,0.5279523376610377
149,0.527977878251611,0.5280369731011411
150,0.5279690229401685,0.5279474259905291
151,0.5279791565528967,0.5279756600404849
152,0.5279697777139674,0.528011620701217
153,0.5279798159962549,0.5279600454766027
154,0.5279752810367837,0.528057529545525
