epoch,loss,val_loss
0,0.4690634548659857,0.449008034360538
1,0.447770764847805,0.4477358017494675
2,0.44711460428359673,0.4487166087482132
3,0.44690537754483595,0.44673905240364875
4,0.446827149359125,0.446467580571228
5,0.4465569635325002,0.44627491977587963
6,0.4465527152046316,0.4469798208341905
7,0.4463234893497785,0.4460029201686308
8,0.4461738669663611,0.44655760932104227
9,0.44599919439711866,0.44564972862635693
10,0.44586349812778775,0.4455036854242046
11,0.4457346443225843,0.44543297046940755
12,0.4457044122176278,0.4456563005599444
13,0.44562753318192894,0.44554516853098547
14,0.44558195993461325,0.44531565180869315
15,0.4455225066465552,0.4453132783970585
16,0.4455545657545178,0.4457587807984097
17,0.4454963144614605,0.4461849052998371
18,0.4454907027399941,0.4454231730816652
19,0.44543462396966943,0.44597546814241507
20,0.4454049452538204,0.4453466559710141
21,0.44535360952906894,0.4453130764570726
22,0.44532443488946216,0.4452230957171108
23,0.44530321312209903,0.4462516231644024
24,0.44528785190162784,0.445152645647727
25,0.4453278821167581,0.4451450576608993
26,0.44523450007945126,0.44518188311842327
27,0.4452853350818424,0.44508870158574154
28,0.4452233937350719,0.4451161153385537
29,0.445258043309154,0.44509441101502345
30,0.4451849776259207,0.4450899828632383
31,0.4451777865719693,0.4460215855712132
32,0.4451763870417232,0.4454030792800841
33,0.4451763860032975,0.4449936132709305
34,0.4451240641193664,0.44548598454421695
35,0.4451359968642078,0.44509035869863706
36,0.44511663494403325,0.4449797372905669
37,0.44511613858786103,0.44497569693958255
38,0.44511165958336724,0.44540088826141555
39,0.4451014343449282,0.4453191899886922
40,0.44511964422960076,0.4452459063479565
41,0.44509425058678187,0.4454148505303296
42,0.44508573881492725,0.44496756479697364
43,0.44510068889437043,0.4449692327740307
44,0.4451004395416138,0.44534033982172216
45,0.4450715760569741,0.4453634073328095
46,0.4450802915508604,0.4450406954817502
47,0.44506054278430035,0.4449602213914366
48,0.4450912738037259,0.4454423495657513
49,0.44508288762701975,0.4449423177296494
50,0.4450692837905615,0.44524511888684126
51,0.44505358606017115,0.44561236682762406
52,0.44503838759509795,0.44499372314614755
53,0.44504071556471675,0.4449931862437295
54,0.44506206052564845,0.44504361753354466
55,0.44504142582810446,0.44504041425244467
56,0.4450591418188949,0.44498502736956513
57,0.44503592365948663,0.44498280192124606
58,0.44504558607615763,0.4452186376571147
59,0.44502027364232005,0.44499867797681464
60,0.4450433412158885,0.44499614044857144
61,0.4450031585286686,0.44499017326546764
62,0.4450310660835399,0.4450636940223537
63,0.445039056581242,0.44492866913428164
64,0.4450298033748755,0.44495357601357555
65,0.4450240605985841,0.4449359846329007
66,0.4450048394405026,0.4449960498344752
67,0.44501355627777706,0.4450074092789936
68,0.44501434768378845,0.44524516155461813
69,0.4450282860337907,0.4452669078523555
70,0.4449801307258854,0.4449861855993137
71,0.44501356639872114,0.44494705076623414
72,0.44501155592051306,0.44498797458576506
73,0.44501051111675594,0.44494051469179213
74,0.4449987192624872,0.4449564635457144
75,0.44501098532714195,0.44494297141650996
76,0.44497950265837166,0.44503866751021615
77,0.4449922789818193,0.444931453202753
78,0.4450037293825286,0.4449993259562843
79,0.4450026406436946,0.44492683477989625
80,0.4449928201187746,0.44493728897291596
81,0.44498592016215033,0.44521944372813643
82,0.44498639825304337,0.4450768749081532
83,0.4449958684522532,0.4449727024653386
84,0.444980071676103,0.44505600967697784
85,0.4449808999225767,0.4449642976915716
86,0.4449684801560992,0.4449990852187467
87,0.4449695620530423,0.4449719426623033
88,0.44499826759956257,0.4450232911372528
89,0.4449746513969847,0.44496994898276465
90,0.44497832571830204,0.44533388899282866
91,0.44496867486197,0.444922689503983
92,0.44497125112827146,0.4449212402237692
93,0.4449803610438972,0.4450110756952781
94,0.4449747949792753,0.44562416005503075
95,0.4449607801761542,0.4449169837384437
96,0.44497401510465967,0.44549893335415935
97,0.4449780396380322,0.4450806822673447
98,0.4449597671372098,0.4449185688789159
99,0.4449578915809211,0.44497843449652397
100,0.4449627250987125,0.44508436805063845
101,0.4449759114739354,0.44495674812639135
102,0.444961357344574,0.44508776030038133
103,0.4449469008293428,0.44492516590808123
104,0.4449643526378675,0.4448904280479138
105,0.44495850843470836,0.44489968283643605
106,0.4449576333595434,0.4454382827691105
107,0.44495004262748444,0.4449893966049808
108,0.44495554987881114,0.4451352859087663
109,0.44493103949714224,0.4448894625458503
110,0.44495625827712704,0.4450216834531158
111,0.4449607511595339,0.44489032319710675
112,0.4449837870431183,0.44493490114985446
113,0.4449355009119336,0.44495164219281413
114,0.4449309307391729,0.44494702322992596
115,0.44493579724445087,0.44519833411156423
116,0.44495249727656305,0.4448850276701445
117,0.44490199989663953,0.44493427606877606
118,0.44492769655997344,0.44507846487714164
119,0.44492543341536495,0.44506384384930714
120,0.44491742064975043,0.44489477255836135
121,0.4449367568916561,0.4451003847314486
122,0.4449260354029346,0.4449811922411106
123,0.4449311069835155,0.44522758897444903
124,0.44491623672025016,0.4448844300565467
125,0.44492312796638206,0.4451025453442302
126,0.44491566966077356,0.44493748678324974
127,0.4449036166781,0.444926190300042
128,0.44494050491719384,0.44491606019999846
129,0.44489464223431446,0.44488814546744676
130,0.44491597653214654,0.4453966346033133
131,0.4449220347815897,0.4448650287605556
132,0.44490227854415354,0.4449472843774747
133,0.4449161724338658,0.444977255941475
134,0.4449067179388146,0.44485437452295445
135,0.4449113646148153,0.4450407822044435
136,0.44490449585190495,0.4449459666637401
137,0.4448748729526707,0.4448837732406805
138,0.4449265703326317,0.44487270244825244
139,0.44488008321849326,0.4448725630672009
140,0.44488717769532826,0.44495501285718336
141,0.4448881538606315,0.4448365552596077
142,0.44487998773910087,0.4448222182247689
143,0.4448824201132077,0.4448716948555045
144,0.44487202420940497,0.44485771476555347
145,0.4448854345153689,0.4448704087971413
146,0.4448823340714174,0.44485057921387583
147,0.44486669212869867,0.44499791804671307
148,0.44487936554140994,0.44488225436524065
149,0.44489520453581083,0.44489084804411744
150,0.4448560813307878,0.44498088069592345
151,0.4448831544545169,0.4448563516838848
152,0.44487286495863665,0.4449034636017272
153,0.4448723653212935,0.4449901477992799
154,0.44484752520947435,0.44483807655989455
155,0.4449024088005697,0.4448644500586465
156,0.44486304730050563,0.4449989959070792
157,0.44486086233360733,0.4448779600088879
158,0.4448607839448236,0.44482406368685945
159,0.4448763499956393,0.4449217888533402
160,0.44487515012761103,0.44483327348335194
161,0.44484402118290656,0.44493501474705277
162,0.4448647540840338,0.4448538706048087
