epoch,loss,val_loss
0,0.5624624830817513,0.5592342226144398
1,0.5583187700662096,0.5582616430949928
2,0.5578441304917626,0.5575205569823386
3,0.5576382279261957,0.5573554666699014
4,0.5575421817481515,0.5573007212974889
5,0.557499391713211,0.5572930076577823
6,0.5574322052481309,0.5581978480218363
7,0.5573966319401567,0.5572238707956546
8,0.55735486275535,0.5571880352408359
9,0.5573362657030889,0.5572398001739464
10,0.5573002543162394,0.5573914184463823
11,0.5572885491160102,0.5571476896998309
12,0.5572811920360042,0.5571821119590078
13,0.5572401881612371,0.5571637442330865
14,0.5572381317351252,0.5573526604891414
15,0.5572297405219079,0.5571445495555774
16,0.5572033881103016,0.5572640226141691
17,0.5571930939840322,0.5570605174779301
18,0.5571823398502534,0.5577926988932986
19,0.5571626856349428,0.5572650056914715
20,0.5571702006225704,0.5570992039095971
21,0.557140364356118,0.5571373893664433
22,0.5571360855943998,0.5571380902756532
23,0.5571373279790348,0.5570641455520176
24,0.5571259615505259,0.5570134039256472
25,0.557128356123606,0.5572124624074837
26,0.5571130583246244,0.5570762594047907
27,0.5571127039569825,0.5572446285051389
28,0.5571087255802397,0.557198024387691
29,0.5571018511912857,0.5571266106281327
30,0.5570998455112783,0.5570147973136333
31,0.5570915537211738,0.5570761988831513
32,0.5571014396446458,0.5575099811660444
33,0.5570885142842261,0.5570137227439407
34,0.5570892656824922,0.5571165416140118
35,0.5570729236296339,0.5570882709091414
36,0.5570682785298064,0.5574052579349679
37,0.557068769931099,0.5569853550447128
38,0.5570552758374068,0.5575504848146557
39,0.557052390740211,0.5571974030795227
40,0.5570416368580684,0.5571086686834804
41,0.557044394247929,0.5569859744893114
42,0.5570209196329139,0.5572021308075406
43,0.5570347157870525,0.5572866286000898
44,0.5570453282709581,0.5570815261481121
45,0.5570219962697642,0.5570012119212754
46,0.5570123681566341,0.5571412297987168
47,0.5570060244510375,0.5569302276109643
48,0.557011709111214,0.557082384898704
49,0.5570110695648373,0.5570189169559526
50,0.556997565913703,0.5571001973992246
51,0.5570139986423586,0.5569834972729458
52,0.5569987417669932,0.5569143297654523
53,0.5569944109591816,0.5571016077072389
54,0.5569863840788724,0.5572663542650473
55,0.5570129448010644,0.5569739325170777
56,0.5569902532321013,0.5570032632084697
57,0.5569840777717193,0.5569413325922661
58,0.5569938407405456,0.5569049303644052
59,0.5569811418629461,0.5572029177663343
60,0.5569976461438377,0.557079438595263
61,0.5569973032173595,0.5571337277185237
62,0.5569752942782009,0.5569227659672721
63,0.5569964808371801,0.5576085398569888
64,0.5569839352864772,0.556972886522118
65,0.5569838312510861,0.556903561380306
66,0.5569704024707881,0.5569473854661283
67,0.5569815868874534,0.5572466562758605
68,0.5570031755066251,0.5568863974907262
69,0.5569740065501455,0.5569218347445315
70,0.5569854067318227,0.5569273118049868
71,0.5569856476596642,0.5571306641285236
72,0.5569717800045633,0.5570548621951499
73,0.5569884663809144,0.5570261023180656
74,0.5569780602244806,0.5571254949415884
75,0.5569896646779434,0.5569213704790726
76,0.5569997481784164,0.556967754133286
77,0.5569860441665065,0.5568972839611044
78,0.5569756491664694,0.5568602998558404
79,0.5569871752735192,0.5569476855895655
80,0.5569598950785144,0.5569238981892985
81,0.5569752439990827,0.5568949692302543
82,0.556973363059628,0.5569138573653645
83,0.5569827611078692,0.5571595957498101
84,0.5569769790684337,0.5569272195730848
85,0.5569726256259868,0.5569271581640315
86,0.5569718285261724,0.5570808243810687
87,0.5569740999142692,0.5575311274741482
88,0.5569816128675089,0.557043996756485
89,0.5569788420328612,0.5571242973171452
90,0.556959916628511,0.5569045075707637
91,0.5569814483416191,0.5569267663115604
92,0.5569633261694334,0.5569133589048835
93,0.5569950489271133,0.5569193197539072
94,0.5569592959856122,0.5569599540890299
95,0.5569664442643814,0.5569080758923041
96,0.556967400141106,0.5569387885536213
97,0.5569782171997073,0.5570005470114961
98,0.5569683174606989,0.5569300461939487
