epoch,loss,val_loss
0,0.8048429506077631,0.5462718841641448
1,0.5342352592051799,0.5322635215382243
2,0.5313969611813548,0.5315363504165826
3,0.5312635681425878,0.5314975325451341
4,0.5315614228716808,0.5316997346027877
5,0.5315462840619938,0.5318932962972064
6,0.5315319342822683,0.5314516383548116
7,0.5394731244067505,0.5314966842185619
8,0.5317991864157585,0.531946293143339
9,0.5314371575064746,0.5319879738859428
10,0.5312956118768499,0.5314602426780287
11,0.5312780933478698,0.5314574911612873
12,0.5312278855986682,0.5314496764841006
13,0.5312336062584121,0.531739869783091
14,0.5314689780698574,0.5320948833643004
15,0.5314956620066049,0.531818079856015
16,0.5321010272632274,0.5315055366634398
17,0.5317016883105886,0.5324398852133936
18,0.5389026009143169,0.5340482560239097
19,0.5317084937132606,0.5314525823260463
20,0.531355302309189,0.531909355359484
21,0.5314428290347413,0.5314530023308688
22,0.5312206805214401,0.5315564829249715
23,0.5314119810897867,0.5314496843389762
24,0.5315373341242472,0.5314920239670332
25,0.5321065828165651,0.5322088294251021
26,0.5313519119292267,0.5315011370089627
27,0.531207694717772,0.5315515440563823
28,0.5315986759286826,0.5318604217943295
29,0.5316915123961693,0.5321479347325111
30,0.5320099262612119,0.5318729780441107
31,0.5314708780256661,0.5320072608400684
32,0.5326913028416399,0.532262054986732
