epoch,loss,val_loss
0,0.6736023171903363,0.6694195708329269
1,0.6690282985542212,0.669293567323803
2,0.6685995037060216,0.6690614768056656
3,0.668360964923707,0.6681845008291618
4,0.668251698549674,0.6685752382349436
5,0.6681175259968547,0.6680268151884339
6,0.6680639349023256,0.6679570314606129
7,0.6680300929782973,0.6679237093878148
8,0.6679936171065499,0.667892154274744
9,0.6679902614938646,0.6684229424218682
10,0.6679666379930558,0.6679653935929386
11,0.6679360088470196,0.6678646079068148
12,0.6679134941254422,0.6678012640245499
13,0.6678890684021688,0.6679343403716833
14,0.667890475655045,0.6677485461270543
15,0.6678671323452107,0.6678511567210441
16,0.667858611891176,0.667901570891624
17,0.6678573579596744,0.667785626487164
18,0.6678462768834424,0.6677409701252693
19,0.6678288109255728,0.6684460385561581
20,0.6678359811818833,0.6677216316866815
21,0.6678395964184263,0.6677722874705312
22,0.6678157803701847,0.6677504439507761
23,0.6678140599761929,0.6679140955579488
24,0.6678031333304281,0.6677622142855641
25,0.6678166972054371,0.6687060523861396
26,0.6678006805039656,0.6678037369517476
27,0.6678102469772743,0.6677692795213931
28,0.6677978431143081,0.6677557196569798
29,0.667794207891226,0.6677320481234094
30,0.6677806135193313,0.667710982658727
31,0.667799384445096,0.6677153998509826
32,0.6677766303764887,0.6677077675871459
33,0.6677874905824128,0.6677421975668252
34,0.6677662650269246,0.6677608249501022
35,0.6677855400698918,0.6677856474892969
36,0.6677892233397085,0.6676817420990236
37,0.6677851016108013,0.6681975394857137
38,0.6677649823221269,0.6676824716717079
39,0.6677676184541111,0.6678673193709135
40,0.6677618440828742,0.667892414760353
41,0.6677702811632938,0.6677223795992565
42,0.667761621497654,0.6678364534236065
43,0.6677638742678285,0.6677001820308694
44,0.6677717395133032,0.6677799831548932
45,0.6677554132685612,0.6677455978121415
46,0.6677641267101947,0.6676991399996925
47,0.6677549629865144,0.667786080162815
48,0.6677553322472319,0.6676957590704224
49,0.6677544654931019,0.6677719514955658
50,0.6677443950997977,0.6677545168263741
51,0.6677550706000299,0.6677004954655177
52,0.6677619754574717,0.6676955971765163
53,0.6677557114755821,0.6676865764350512
54,0.6677398915346745,0.6676972937938889
55,0.6677524643614777,0.6676868601413282
56,0.6677439302307404,0.6676597785713063
57,0.6677508586654671,0.6677152127840974
58,0.6677500850640548,0.6677452350964321
59,0.6677449303717685,0.667957219976941
60,0.6677514405903131,0.667702114789125
61,0.6677406103283061,0.6677635279246062
62,0.66774458107077,0.6677503368694788
63,0.6677475499991011,0.6676880219438236
64,0.6677469608123031,0.6676960348491338
65,0.667749094208323,0.6680251784715108
66,0.6677412770009057,0.6677181339441399
67,0.6677341051511623,0.6676953617455645
68,0.6677387261333575,0.6676972373247738
69,0.6677449400554231,0.6677371929064578
70,0.6677394530700622,0.6676689753757221
71,0.6677421439506651,0.6676732055602536
72,0.6677328511510325,0.6676827914957373
73,0.6677395513880268,0.6677514485626599
74,0.6677386224347961,0.6676717289919889
75,0.6677378069497637,0.6678377340804259
76,0.6677433004342797,0.6684209932760329
