epoch,loss,val_loss
0,0.7804278694799721,0.7778071376585192
1,0.7778947210411598,0.7778076832702675
2,0.7778792668790822,0.7778054386155481
3,0.7778621828781193,0.7779759990074498
4,0.7778464739797631,0.7778030866724681
5,0.777843589682439,0.7778342235768699
6,0.7778368318120816,0.777850187357247
7,0.7778323315111294,0.777822491164243
8,0.7778271344153852,0.7778953652819688
9,0.7778285663278187,0.7778306762278819
10,0.7778258445795809,0.7778204604354745
11,0.777823833751681,0.777830601596359
12,0.7778234531988882,0.7778177067304664
13,0.7778181517727314,0.7778193174165768
14,0.7778163324107806,0.7778071367415246
15,0.777814861769251,0.7778785244111092
16,0.7778137651640045,0.7778381943406893
17,0.777812661319682,0.7777979566796542
18,0.7778088584982243,0.7778476760050204
19,0.7778108858812609,0.7777951606449951
20,0.7778095990122394,0.7777939221699244
21,0.7778084348769916,0.7778048969675826
22,0.7778073175366081,0.7777985581393277
23,0.7778062859497341,0.7777997449373193
24,0.7778099815158042,0.7777932724349256
25,0.7778051530765352,0.7778492491535158
26,0.777807091044322,0.7777972272548723
27,0.7778052467206928,0.7778002433682198
28,0.7778066940736488,0.77779414964373
29,0.7778063864361872,0.7778305314019064
30,0.7778041135485281,0.7777934909754296
31,0.7778050782632835,0.7777925905755376
32,0.7778036066696382,0.7778536996533794
33,0.77780512775594,0.7777964959665209
34,0.7778039708487247,0.7777955780549913
35,0.7778043647768877,0.777797262189406
36,0.7778036201814758,0.7778019253728408
37,0.7778043254601145,0.77781325605312
38,0.7778039886052467,0.7777951116005777
39,0.7778022026375473,0.7777938434858772
40,0.7778025025366045,0.7777942157560779
41,0.7778037680110287,0.7777945723486301
42,0.777802586578357,0.7777932508411833
43,0.7778029430087845,0.7777922891801403
44,0.7778029976098922,0.7778444612884048
45,0.7778029189621468,0.7778183952158793
46,0.7778029159291024,0.7777914114980484
47,0.7778018267396296,0.7778050342505386
48,0.7778024223474889,0.7777940883825789
49,0.7778033112929328,0.7778013624860985
50,0.7778005339409867,0.7777917544540045
51,0.777801438446855,0.7777953763457741
52,0.7778016595001709,0.77779640506574
53,0.7778019823990908,0.7778529790435772
54,0.7778013318548719,0.7779079063950343
55,0.777799881063414,0.7777955505747357
56,0.7778024265850738,0.7777952768370768
57,0.7778004799204565,0.7777945103775479
58,0.7778002591779389,0.7778223981040879
59,0.7778018155382697,0.777796420329262
60,0.7778004108088548,0.7778002715879871
61,0.7778000316357225,0.7777909664303139
62,0.7778001976390875,0.7778188895942555
63,0.7777990515648493,0.777834799331116
64,0.777798526637571,0.777805081342645
65,0.7777992673487931,0.7778130129608268
66,0.7777986804921935,0.7777996548056306
67,0.7777983065308488,0.7777966764073809
68,0.7777994013099581,0.7777899540091863
69,0.7777983160630484,0.7777912825272042
70,0.7777977952297882,0.7777923376329483
71,0.7777990693899992,0.7778079863221711
72,0.7777971051952538,0.7777998980754066
73,0.777798556879665,0.7778407501819412
74,0.7777979328913461,0.7777927839726432
75,0.7777986330071045,0.7777981008844399
76,0.7777976028140899,0.7778118559207869
77,0.7777976381480698,0.7777910996311651
78,0.7777979555196708,0.7777920673857848
79,0.7777977074821211,0.7778065899465575
80,0.777797666562449,0.7778252818448372
81,0.7777985249045155,0.777793033986766
82,0.7777966878507268,0.7777942226483272
83,0.7777976553287471,0.7777916510111049
84,0.7777972024041259,0.777800391388886
85,0.7777970591339997,0.777815745219995
86,0.777797931983405,0.7777920904881309
87,0.777796194278579,0.7777909748015865
88,0.7777975950023246,0.777817833394034
