epoch,loss,val_loss
0,0.7699735660577621,0.6135527944379999
1,0.5960842840739307,0.5916376220163448
2,0.5911432763402776,0.5913954580477042
3,0.5910623835962873,0.5913811875868213
4,0.5910828010364404,0.591293428757394
5,0.5910065730104767,0.5912522484165753
6,0.5911383290007441,0.5912684959958691
7,0.591096135226947,0.5914164421170257
8,0.5912959466300886,0.5917694550151973
9,0.5911287257221626,0.5915153562560562
10,0.5910452259295362,0.591555636058482
11,0.5911661286378708,0.5920025627742442
12,0.5911988890140247,0.5912497607312461
13,0.5911068438867574,0.5912451854971952
14,0.5911954730672122,0.5912499621857045
15,0.5916191642906623,0.5922530436700628
16,0.5913620715917542,0.5913446873657463
17,0.5916473475845593,0.5918906492780346
18,0.591304239530588,0.5914382643477861
19,0.5923062729281049,0.6043931652409161
20,0.5981594256344384,0.5924612667209418
21,0.5911526284168549,0.5913158853848776
22,0.5913704214786066,0.5913261581760968
23,0.5911300792250522,0.5914431315983912
24,0.5912019454847627,0.5914131310559059
25,0.5910401140996652,0.5912727745928505
26,0.5913012338855161,0.5912994908732038
27,0.591253436967076,0.5913519512775333
28,0.5910460215822363,0.5918276601059492
29,0.59110507284332,0.5912522844565932
30,0.5943363664686218,0.6052922911422197
31,0.5959289360416028,0.5912915981093119
32,0.591220974768163,0.5914879824764044
33,0.5910910492719605,0.5913636111473852
