epoch,loss,val_loss
0,0.672567189306944,0.6699220489035765
1,0.6689725756097756,0.6683367612935769
2,0.668505835284819,0.6688737032727036
3,0.6683333569729673,0.668230493695801
4,0.6682710024803173,0.6680829682361991
5,0.6681674005196084,0.6682282525019965
6,0.6681461807091558,0.6684289516941193
7,0.6681025573072371,0.6680972836153679
8,0.6680556448350218,0.6680594162668839
9,0.6680171316473135,0.6680411371640472
10,0.6680016005113838,0.6678616907401357
11,0.6679692144004934,0.6678443978797117
12,0.6679466746596532,0.6680356927308492
13,0.6679485493665767,0.6678933830770014
14,0.6679074727910396,0.6678954706298507
15,0.6679041095495972,0.6679363582625283
16,0.6678930174668459,0.6678914399655818
17,0.6678793349497147,0.6678181445923987
18,0.6678700842387977,0.6679475405375952
19,0.6678758181155409,0.6678553045535501
20,0.6678605801034233,0.6678228411426024
21,0.6678413481194302,0.6678296133543067
22,0.667841866741605,0.6678347494111168
23,0.6678291282853414,0.6678092893832375
24,0.6678317520224687,0.6677164572640033
25,0.6678156820190895,0.667937122562683
26,0.6678323189895551,0.6678916731484179
27,0.6678179998107917,0.667890862909795
28,0.6678047351091179,0.6677720821524968
29,0.667808500644246,0.6677394873155258
30,0.6678042987230679,0.6677759056943227
31,0.6678076226997997,0.6677475302450119
32,0.6677923333436458,0.6677304039226276
33,0.667800455928532,0.6677478493886905
34,0.667793790491481,0.6676910280589726
35,0.6677897208954383,0.6677693797991826
36,0.6677913668429836,0.667834655670611
37,0.667782756680255,0.6678503032949367
38,0.6677915574104575,0.6677571051174003
39,0.6677781091571474,0.6680598977185952
40,0.667771726656193,0.6677578106411634
41,0.6677829349136117,0.6677343987945291
42,0.6677711463626436,0.6678504330940341
43,0.667772579445698,0.6680022963814937
44,0.6677762217840102,0.6677114930697173
45,0.6677804485232999,0.6677525514704418
46,0.6677660705807825,0.6678922508845554
47,0.6677805393324091,0.6684214374563534
48,0.6677709032876118,0.6677235356631409
49,0.6677639506705689,0.6677326828019495
50,0.6677607582364551,0.6677259013907193
51,0.6677707454880598,0.6677564430177656
52,0.6677626368520221,0.667697472785306
53,0.6677683310191556,0.6676960012457211
54,0.6677633542233965,0.6678977394813935
