epoch,loss,val_loss
0,0.5630384973866219,0.5587750917924545
1,0.5588031358635004,0.5593300924703442
2,0.5583163675788163,0.5577539350495445
3,0.557854459437696,0.5577551146003212
4,0.5576410506073632,0.5573430983659351
5,0.5574947301458069,0.5572567627092745
6,0.5574527778747725,0.557461548768557
7,0.5573374794579946,0.5576458918249637
8,0.5573228852905785,0.5571787121278181
9,0.5572959791878638,0.5572930657834037
10,0.557263017052562,0.557106933848142
11,0.5572495973130235,0.5571907181302016
12,0.5572107324475775,0.5576501261803412
13,0.5572310501020811,0.5571650831338489
14,0.5571969984183895,0.557077613628236
15,0.557198549491994,0.5571042632642514
16,0.557172839828618,0.5571099460272871
17,0.5571669739004628,0.5571861005302694
18,0.5571585720254439,0.5570532684882284
19,0.5571403659345632,0.5571888569271003
20,0.5571264179302144,0.5569823052983722
21,0.5571201476810851,0.5572533777570606
22,0.5571150460019955,0.5571162719288771
23,0.5571129302110426,0.5569965143061749
24,0.557096605562889,0.5569671512833304
25,0.5570890336778749,0.5569572341353367
26,0.5570832247772628,0.5572080003416567
27,0.5570791768960818,0.5579802907430209
28,0.5570758569431624,0.557101467969104
29,0.5570713712047668,0.5577911751146056
30,0.5570675946552311,0.5572708867915511
31,0.5570639285724025,0.5569775348857378
32,0.5570582820623223,0.5570298955990718
33,0.5570651574791194,0.5570186655219672
34,0.5570480589345318,0.5570858707794777
35,0.5570451860231533,0.5569398288099701
36,0.5570385233611999,0.5571810300533588
37,0.5570456576288031,0.5571616396123067
38,0.5570393288186487,0.5569775125229033
39,0.5570463062230389,0.5570028393795118
40,0.5570382723474014,0.5569640925445273
41,0.5570390860031414,0.5570668854725273
42,0.5570192248742597,0.5569809536188471
43,0.5570381804370882,0.5570064837524377
44,0.5570217773170977,0.5570796750911117
45,0.5570179204277802,0.5569899846247349
46,0.5570213539135815,0.5569445278153526
47,0.5570235857040823,0.5569825228923012
48,0.5570217601048671,0.5571015453220302
49,0.5570117088879757,0.5569771650707159
50,0.5570164008915256,0.5572288888559743
51,0.5570157277402803,0.5570075383553138
52,0.5570100678153885,0.5569881908355221
53,0.5570026912978677,0.5572624652616439
54,0.5570147669325909,0.5571381813834974
55,0.557007643813496,0.5569346197189823
56,0.5570092077907515,0.5570685013056393
57,0.5569994787115607,0.556959699785739
58,0.5569897279687822,0.5571506470072063
59,0.5570127598216492,0.5569426173607706
60,0.5569942772843612,0.5569717127691132
61,0.5570101259465022,0.5569491094750151
62,0.5569888760217456,0.5569160941516791
63,0.557003544912487,0.5569467315011226
64,0.5570091589859532,0.5569414933029535
65,0.5570139708992721,0.5569219495759117
66,0.5570057393172658,0.557080823138689
67,0.5569832498508108,0.5569795317744499
68,0.5569992628574113,0.5570532061621806
69,0.5569931820540422,0.5574738682351692
70,0.5570065634912404,0.5569681910072307
71,0.556989145714206,0.5570016534097733
72,0.5569750278033706,0.5569724240019067
73,0.556992194000228,0.5570042140134807
74,0.5569852731437734,0.5569568849083212
75,0.5569891513204078,0.5569407083556315
76,0.5569954511308725,0.5571397801190985
77,0.556985979198619,0.557408663090642
78,0.5569907012502114,0.5572352161182659
79,0.5569916366513235,0.5570705855158955
80,0.5569843960086648,0.5573461352447718
81,0.5569848101071639,0.5569349448379157
82,0.5569833906211406,0.5569693582821129
