epoch,loss,val_loss
0,0.8028937915960948,0.8015705878734589
1,0.8015035295089086,0.8013666410446167
2,0.8013170730272929,0.8013701776663462
3,0.8012206700907814,0.8010912914276123
4,0.801165159477128,0.8010725529988607
5,0.801123432636261,0.8010854709943136
6,0.801094231473075,0.8012070157527924
7,0.8010724968910218,0.8010902136166891
8,0.8010587510532803,0.8010333848794301
9,0.8010491481224696,0.8009871238470078
10,0.801039948436949,0.8009027345180512
11,0.801026532318857,0.8009301757017772
12,0.8010117447243796,0.8012764251629512
13,0.8010044331683053,0.8010120989481608
14,0.8009954650402069,0.8009790411392848
15,0.8009848010540008,0.8010846741596858
16,0.8009734153350194,0.8009884147644043
17,0.8009493167002996,0.8008671471277873
18,0.800936071925693,0.8008523227771124
19,0.800931322614352,0.8008963313500086
20,0.8009187961949242,0.8008098927736282
21,0.8009187374512354,0.8009310309886932
22,0.8009129563437568,0.8009741741816203
23,0.8009071625736025,0.8008222833474478
24,0.8009094550212225,0.8010225091775258
25,0.8009022382497788,0.8009801165660222
26,0.8008973872661591,0.8008758252859116
27,0.8008883487383525,0.800803453763326
28,0.800894727839364,0.8009253396590551
29,0.8008856682115131,0.800961340268453
30,0.8008863412406709,0.8007840472062429
31,0.8008813327550888,0.800869771083196
32,0.800890779905849,0.8008586412668228
33,0.8008783571985033,0.8008735516468684
34,0.8008803462319903,0.8008219457864761
35,0.800876344429122,0.8007843061288198
36,0.8008749683300654,0.8009795913298925
37,0.8008681971099642,0.8008101989825567
38,0.8008662872049543,0.8009128461678823
39,0.8008722936709722,0.800821440021197
40,0.8008648727205064,0.800770575205485
41,0.8008667222128975,0.8009406473239263
42,0.8008675088749991,0.8010823442538579
43,0.8008706396553251,0.8009184308846792
44,0.8008622049623065,0.8007855452299119
45,0.8008702722390493,0.8009351995388667
46,0.8008609038326475,0.8009235246578852
47,0.8008573019239638,0.800875973701477
48,0.8008680628935496,0.800764173746109
49,0.8008694600661596,0.8008042698303859
50,0.8008596917920643,0.8009009858767192
51,0.8008572325706482,0.8007794063091278
52,0.8008619142638312,0.8010281616846721
53,0.800863694800271,0.8010512281656266
54,0.8008559442626105,0.8008437567154566
55,0.800869387851821,0.8008458939790726
56,0.8008632786009047,0.8007771628300349
57,0.8008594590822856,0.8008114401896794
58,0.8008543840911654,0.800855648358663
59,0.8008620775673124,0.8009070370594661
60,0.8008550009197659,0.8009024672508239
61,0.8008579950597551,0.8008352499802908
62,0.8008589247067769,0.8008667929172516
63,0.8008491099675497,0.8008901580174764
64,0.8008706167406506,0.8007598078648249
65,0.8008545324405034,0.8008305739561716
66,0.8008541879786385,0.8007947875658671
67,0.8008590049478743,0.8008093163172404
68,0.8008587179051505,0.8007867751121521
69,0.8008513308895959,0.800782867193222
70,0.8008513223462634,0.8009043862819671
71,0.8008474236991671,0.800777688384056
72,0.8008491017023722,0.8007660096089045
73,0.800850919816229,0.8008190250396728
74,0.8008487578895357,0.8008003681898117
75,0.8008507814937168,0.800856033484141
76,0.800853641377555,0.8007966465155284
77,0.800855296280649,0.8007701322635015
78,0.8008528077205023,0.8007652528683344
79,0.8008492480648889,0.8010619009335835
80,0.8008502684169345,0.8007537464698156
81,0.8008565472364426,0.8007564990123113
82,0.800851538684633,0.8007785748243332
83,0.8008491823143429,0.8009041182994843
84,0.8008446238173379,0.8007870617310207
85,0.8008456464078691,0.8008596815268199
86,0.800847732755873,0.8008265642722447
87,0.8008489377895991,0.8008018026749293
88,0.8008432633876801,0.8009769123792648
89,0.8008448252810372,0.8008134928146998
90,0.800848624587059,0.8007905601660411
91,0.8008514142963621,0.8009115176200867
92,0.8008427327341504,0.8008312159379324
93,0.8008446926408344,0.8011633718808492
94,0.8008424055046506,0.8007629740635555
95,0.8008491644064586,0.8009214307864507
96,0.8008444253073799,0.8010625578562418
97,0.8008437461588118,0.8009009410937628
98,0.8008459035025702,0.8007781111399332
99,0.8008482286400265,0.8011301846504212
100,0.8008457882139418,0.8008103391329447
