epoch,loss,val_loss
0,0.6343683341800519,0.6281844854946468
1,0.6277441990334341,0.6266659710010879
2,0.6269283244831683,0.6269376617803172
3,0.6266455597194125,0.6267361499831339
4,0.6262005177262149,0.6253746073535891
5,0.6259471397506804,0.6272146714532346
6,0.6256501317865122,0.6267549083783076
7,0.6253062619187467,0.6256415271285746
8,0.6252815975568111,0.6250835895242526
9,0.6251253947451745,0.6265468836718102
10,0.6250249868806403,0.6247499492564805
11,0.6249332619356116,0.6264262235490028
12,0.6248191849443044,0.6249135362599091
13,0.6247371798184126,0.626148534264813
14,0.6246808024195267,0.6278468204786997
15,0.6246014457983888,0.624495213232916
16,0.6245001574848791,0.6251748796432249
17,0.6244811063878607,0.6242065871028095
18,0.6243672125514091,0.6249957884807444
19,0.6244685722467682,0.6249183281183834
20,0.6242532193241869,0.6242701825373818
21,0.6242650794620995,0.6247706719131091
22,0.6242551102012988,0.6244383856617192
23,0.6241954313814336,0.6239868183881414
24,0.624190616400362,0.6239467973152993
25,0.6241215040681191,0.6242068447782739
26,0.6241863057005691,0.6247921849007051
27,0.6240422653207847,0.6241085457742658
28,0.6240967760303966,0.6242224672296207
29,0.6240486149844005,0.6241123649677627
30,0.6241179907820943,0.6244982395811057
31,0.6240831188243946,0.6242727734906501
32,0.6239953937414213,0.6239565999277177
33,0.6239938768777166,0.6240118083527899
34,0.6239743266268024,0.6240554017996965
35,0.6239390931128699,0.6241905930320323
36,0.6239720773393043,0.6243643102219916
37,0.623877985108339,0.6240172813903013
38,0.623886360297301,0.6238623370603651
39,0.6238857245885733,0.6240637240575502
40,0.6238900760415955,0.6239707597136201
41,0.6238791189557407,0.6240427972069449
42,0.6237984356171379,0.6248448611784809
43,0.6238294625368743,0.6244167663323377
44,0.6238425063895386,0.6237600749538791
45,0.6238773546997477,0.6245940010541722
46,0.6238220207193694,0.6237788445600505
47,0.6237771696917908,0.6240071684491841
48,0.6237546679961328,0.624440320963895
49,0.6237975490034701,0.6241607912125126
50,0.6237807003194139,0.626605487431841
51,0.6237721557240822,0.6239418353395486
52,0.6237907444794487,0.6248422072779748
53,0.6237319247115953,0.6239887374210594
54,0.6238223682084297,0.6237899811037125
55,0.6237301805328568,0.6240646535054626
56,0.6237689006238815,0.6237585636877244
57,0.6237309181944692,0.6239837165801756
58,0.6237196843506201,0.6250539385947045
59,0.6236813461699614,0.6245071407287351
60,0.6237073215714023,0.6241089404960424
61,0.6237087124198081,0.6236890856740492
62,0.6237496437996894,0.623765319008981
63,0.6237459553243957,0.6235815055612891
64,0.6236702093567092,0.6240244397750268
65,0.6237564142305576,0.623727475886901
66,0.6236957462398975,0.6246568393174827
67,0.6236716960990106,0.6245737381371907
68,0.6236991131336144,0.6238852145654096
69,0.6236503822468309,0.6248918495462196
70,0.6236814907763625,0.623723087062315
71,0.6236931534303559,0.6263493129100752
72,0.6236830912968715,0.6253303213983257
73,0.6237747955548817,0.6238425055449417
74,0.6236775704273969,0.6247731244297832
75,0.6236622914640542,0.6237777960803313
76,0.6236815889531268,0.6236188543345733
77,0.6236033151635069,0.6252773163336383
78,0.6236918868184417,0.6242341374641021
79,0.6236711678657535,0.6245133029320104
80,0.6236586310702542,0.6248660556731686
81,0.6236388962501155,0.6238225864417499
82,0.6236654895848304,0.6236361933405287
83,0.6237088219399213,0.6235901721358004
