epoch,loss,val_loss
0,0.4492818644311693,0.44798045098781586
1,0.44697861522436144,0.4466574194629987
2,0.4466896713177363,0.4466600570877393
3,0.4465775640275743,0.4463833578626315
4,0.4465119360221757,0.44641540428002674
5,0.4464675670398606,0.44631993454694746
6,0.44643928820557066,0.44630643717447915
7,0.44641151862012013,0.44627129910389585
8,0.4463906171719233,0.44648620502154035
9,0.4463765329122543,0.4463792096575101
10,0.44636944697962866,0.44649300158023836
11,0.44635800751050314,0.4462234538992246
12,0.44633282241556377,0.44633860778808593
13,0.4463440605799357,0.4463215570847193
14,0.4463419623110029,0.44621940608819327
15,0.4463313871357176,0.44624713850021364
16,0.4463281391792827,0.44630127425988514
17,0.44631766549746194,0.44635398864746095
18,0.44630457190672557,0.4462376461029053
19,0.4463073181377517,0.44639555110534035
20,0.4463048343261083,0.4463439670403798
21,0.44630072439379165,0.44624603154261905
22,0.44630137918392815,0.4464306381940842
23,0.4462963028616375,0.446193231622378
24,0.44629905386103524,0.4462190471887589
25,0.44629573403464423,0.44631019884347917
26,0.446292780260245,0.44626425592104596
27,0.4462868698702918,0.44623432332277296
28,0.44628700186808906,0.4461911050875982
29,0.4462784475485484,0.4462454881668091
30,0.4462785437901815,0.44619598299264907
31,0.4462845094866223,0.44646483677625654
32,0.4462741542524762,0.4462142820954323
33,0.4462722033063571,0.44620327101151147
34,0.44627029057343803,0.4463667186101278
35,0.446282100809945,0.44623633023103076
36,0.4462677857875824,0.4461976651350657
37,0.4462707929942343,0.4461540846824646
38,0.44626189506716196,0.44626449803511303
39,0.4462644180324343,0.4461810457110405
40,0.44626126200622984,0.4461561960776647
41,0.44626087700658373,0.446262166539828
42,0.44626305655638376,0.44619675624370575
43,0.44625949276155896,0.44622363438208895
44,0.4462576420373387,0.4462537658214569
45,0.4462578621970283,0.4461541744271914
46,0.4462518955535359,0.4461839123566945
47,0.44625712341070173,0.4461986427108447
48,0.44624782338407304,0.44631100205580393
49,0.4462600669662158,0.44613554487625756
50,0.4462512146366967,0.4462165567278862
51,0.4462565264172024,0.44623963512976966
52,0.44624970820215015,0.44632798514763516
53,0.4462558408975601,0.44618562467892964
54,0.4462463001012802,0.4461834566195806
55,0.4462515508996116,0.4462091479897499
56,0.4462465918329027,0.44623055640856424
57,0.4462480802271101,0.44622509376207986
58,0.4462473051216867,0.44613256539901097
59,0.44624512283669576,0.4462230860988299
60,0.4462491764028867,0.4462959011991819
61,0.4462419178287188,0.4461527275045713
62,0.4462416417863634,0.4464166773756345
63,0.4462378601498074,0.44621038242181144
64,0.4462430062227779,0.4463735942641894
65,0.446244545214706,0.446188845038414
66,0.44624221977260375,0.4462191963791847
67,0.4462443297902743,0.44647077504793803
68,0.4462436540921529,0.44614769172668456
69,0.4462441254523065,0.4465654861132304
70,0.4462430681056446,0.4466057760516802
71,0.4462402449581358,0.4461465099056562
72,0.44623356944322584,0.446359207769235
73,0.44623689578639136,0.4461494834025701
74,0.4462403580811289,0.44636437449852623
75,0.44624032119909923,0.44630878631273907
76,0.44623420763678023,0.4463208303451538
77,0.44622971076435514,0.4461448468565941
78,0.44623631623718474,0.4461305757959684
79,0.4462235743602117,0.4461712569594383
80,0.44623536045683754,0.4461570973594983
81,0.44623384277025857,0.4461989534497261
82,0.4462266012430191,0.44622232524553934
83,0.4462245968911383,0.4461296060085297
84,0.4462334548963441,0.4461498455405235
85,0.44622650476296744,0.4465810373624166
86,0.446234686964088,0.44617267604668936
87,0.446229249490632,0.4463259031375249
88,0.44622720396518706,0.44627864901224773
89,0.4462277896338039,0.44614992545048393
90,0.44623379009962083,0.44636293945709865
91,0.4462233337163925,0.4462884947061539
92,0.4462225903405084,0.4462031291127205
93,0.44622986858420904,0.4462061526576678
94,0.4462195585436291,0.44621429071823754
95,0.4462295550306638,0.4462052274942398
96,0.44622519926892384,0.44613798425594964
97,0.4462299728923374,0.4466281659603119
98,0.4462238263686498,0.4461398305892944
99,0.44622425082657075,0.44612403452396393
100,0.44622443504465953,0.44617610301574073
101,0.44622374025318357,0.4461574690937996
102,0.44622833894358743,0.44613690849145254
103,0.44622407262855107,0.4461412884394328
104,0.44621862865818873,0.4461400092840195
105,0.44623108945290246,0.44623905076583226
106,0.4462225291993883,0.44613829960425694
107,0.4462210906677776,0.44617799417177834
108,0.4462288292116589,0.4461416096885999
109,0.44621976719962225,0.4465099448164304
110,0.4462168452011214,0.4461608601609866
111,0.44621614581346514,0.4461773998936017
112,0.44622023283773,0.44620154243707655
113,0.44622129157516693,0.44625415988763173
114,0.44622405780024,0.44612632499138516
115,0.44621806863943736,0.44613132572174075
116,0.4462185491058562,0.44615174303452176
117,0.44621573837598166,0.44624615913629534
118,0.44621817973587247,0.44615342587232587
119,0.44621881058481005,0.4461961275935173
