epoch,loss,val_loss
0,0.561985310378135,0.5581953483243143
1,0.5583452150602107,0.5578307327502419
2,0.5578156028683556,0.5574633275900526
3,0.5576384967675104,0.5573287933990914
4,0.5574944318520149,0.5601120251875658
5,0.5574402552631924,0.5573166410029674
6,0.5573247373044934,0.5572287833720224
7,0.5573227978813187,0.5576440150921161
8,0.5573037840966611,0.5576662819379612
9,0.557284322828719,0.5570728681519369
10,0.5572277090322318,0.5570992721813193
11,0.557250543334918,0.5571236541194301
12,0.5571837744447026,0.5572831203860621
13,0.5571933958701476,0.5572542260361665
14,0.5571674963697525,0.5570428353681162
15,0.5571671276265062,0.5572036473390186
16,0.5571341204727812,0.5575520389724902
17,0.5571532388568419,0.5573340316268409
18,0.5571252167594845,0.5570361866548694
19,0.5571179429158373,0.5570595448129526
20,0.5571084267397899,0.557044569730167
21,0.5571048334208374,0.556988043583948
22,0.5570957017093816,0.5569977663882613
23,0.5570943588706354,0.5570535693215969
24,0.5570583697784364,0.5577001514860773
25,0.5570761308937173,0.5573150118882247
26,0.5570711927379169,0.557180072504001
27,0.5570548501352454,0.5569595564979477
28,0.5570659643801239,0.5571011723714786
29,0.5570563641426034,0.557016656446102
30,0.5570551664237854,0.5570236863332706
31,0.5570642326175406,0.5569927487420681
32,0.5570477925133417,0.5569742337054118
33,0.557042519281481,0.5573236565436086
34,0.5570402088314025,0.5570006562225872
35,0.5570467883461346,0.5569759783023048
36,0.5570416530511328,0.5570703719744907
37,0.5570323207706508,0.556967339829239
38,0.557043578076616,0.5569525360469487
39,0.5570255325477634,0.5571564040172189
40,0.5570319777629233,0.5570562122773296
41,0.557028306555867,0.5569750676971511
42,0.5570324741149014,0.5572648858018312
43,0.557015322038857,0.5570317153599362
44,0.557025738068264,0.5575592111121336
45,0.5570229740112279,0.5569574826408557
46,0.5570148954792393,0.5572347934725267
47,0.5570377626468732,0.5569488547871781
48,0.5569998639476262,0.5570746807839083
49,0.5570117534283691,0.5570221766940417
50,0.5570301164621345,0.5569321401953401
51,0.5570021878622127,0.5569427677478743
52,0.557015541071984,0.55693324360599
53,0.557012361326171,0.5570972137356515
54,0.5570039384170493,0.5573290951494544
55,0.5570212733529278,0.5569602645656311
56,0.5570092660488666,0.5571955923998622
57,0.5570023933298618,0.557236087825103
58,0.5570047944478493,0.5577104103772279
59,0.5570033756946473,0.5569323653322887
60,0.5569920715630536,0.5571172328504085
61,0.556993662634979,0.5570368292905556
62,0.5569938009552083,0.5569800623297395
63,0.5570023011616017,0.5570031920970225
64,0.5569970680542743,0.5576453777164146
65,0.5569970014803327,0.5571428733783088
66,0.5570011421821348,0.5573568327551148
67,0.5569941317179563,0.55716252495574
68,0.5569949937619934,0.5573993708300531
69,0.5569978158097318,0.5571364521388676
70,0.5569937791038794,0.5572506812606792
