epoch,loss,val_loss
0,0.517764226147033,0.5109763110541824
1,0.5113422437395783,0.5107333988764742
2,0.5105101231470962,0.5111413556647951
3,0.5098897868028125,0.5093193165421782
4,0.5095078842083736,0.5092086401234194
5,0.5092463404446234,0.5095093907256871
6,0.5090721883837668,0.508805577541995
7,0.508869948478303,0.5082853192726968
8,0.508721961711913,0.5083707853523141
9,0.5086516923667518,0.5100915740796413
10,0.5085103468882274,0.5080961759273822
11,0.5084538524611618,0.5080479873616998
12,0.508401340584529,0.5082912795301111
13,0.5083148949674249,0.5087459259825959
14,0.5082714486440186,0.5081144861488721
15,0.5082199469880602,0.508272872580488
16,0.5081376782160758,0.5079706640456509
17,0.5081124428427318,0.5077332142860659
18,0.5081787601824646,0.5078015917879772
19,0.5080548616029327,0.5078604793726067
20,0.5080227127526216,0.5080185658878488
21,0.5080306569258757,0.5076986786153713
22,0.5079988353935,0.5077084043185704
23,0.5079293772137482,0.508097792559167
24,0.5080045794516482,0.5076921735448814
25,0.5079465426517529,0.5078985594342423
26,0.5079233827334226,0.5081420132007551
27,0.5079104133974106,0.5093733189123736
28,0.5079508372799608,0.507860277574648
29,0.5078653713827014,0.5077380066474082
30,0.5078655480068488,0.5078673440528567
31,0.5078568115771851,0.5084644981708479
32,0.5078654606425521,0.5079105734233524
33,0.5077995064714171,0.5079778945771399
34,0.5078199118396682,0.5081817757994602
35,0.5078335854927374,0.5076584554487659
36,0.5077898067579324,0.5087253055560678
37,0.507852480377326,0.50842446979163
38,0.5077488151352442,0.5078353657320179
39,0.5078134971592577,0.507792774619299
40,0.5077202153143396,0.5078382856201001
41,0.5077507152834536,0.5077533524622101
42,0.5077694664640605,0.507611309653772
43,0.5077321112453302,0.5076367216725504
44,0.5077421320181877,0.5075718167697821
45,0.5077372660590961,0.5079335997181554
46,0.5077281294955582,0.5084526268187587
47,0.5076778732146823,0.5076415206303372
48,0.5077057304027793,0.5109391309487317
49,0.5077200472694874,0.5077785868798533
50,0.5076965194906096,0.508064417004881
51,0.5076727496669095,0.507809160217162
52,0.5077707732943787,0.5075337464105403
53,0.5076794274506988,0.5074477615190794
54,0.507686536897824,0.5095277178967856
55,0.5076436158472027,0.5078947352712266
56,0.5076745081967988,0.5075398034256682
57,0.5076719392232778,0.5137201667127775
58,0.5076570587356924,0.5084298065519215
59,0.5076491816009997,0.5074797530623878
60,0.5076062280790561,0.5076208513664549
61,0.5076404174724239,0.5079109133621007
62,0.5076020150874635,0.5082061451362913
63,0.5076421477338673,0.507588552925782
64,0.5076462163304647,0.5076054031144892
65,0.5076387086489637,0.5076853560750597
66,0.5076737008177646,0.5078719073726284
67,0.5075916266851851,0.5074539524745705
68,0.5076383800902016,0.5075593199386786
69,0.5076031346089569,0.5075443094776523
70,0.5076060948183705,0.50755855602307
71,0.5076253006164239,0.5074990472485942
72,0.5075610242512371,0.5076507745842188
73,0.507619515094312,0.5092508083833358
