epoch,loss,val_loss
0,0.12590905395460628,0.11666475054865735
1,0.11723859352524023,0.11701583130188083
2,0.11668224885983441,0.11560197042916016
3,0.11596891593771633,0.1149976899509986
4,0.11523864083657158,0.11495188818528101
5,0.11488214624844925,0.11453045106703236
6,0.11473934895634293,0.11492027144869858
7,0.11463007931774463,0.11457107508596652
8,0.11456849965569856,0.11536770523999525
9,0.1145298105631556,0.11445066627512498
10,0.11445155874072376,0.11419398298408494
11,0.11442307058327712,0.11439205643261041
12,0.11438844374811126,0.11414033725820759
13,0.114356378166008,0.1140966799211857
14,0.11434605982606656,0.11595600682585766
15,0.1143013362477778,0.1141021669206785
16,0.11431337919030654,0.12004383604594555
17,0.11432019534717679,0.11400561635902443
18,0.11422689082197003,0.11417566377752768
19,0.11425839036445162,0.11420353772326676
20,0.11417899150048107,0.11440745999588268
21,0.11423068825701316,0.11424729641406767
22,0.1142107164042664,0.11399487181943345
23,0.11417055961380464,0.11404542407164207
24,0.11417564098175231,0.1143429822239923
25,0.11417335438080863,0.11402618949747559
26,0.11415411267164889,0.1142330616194912
27,0.11416422495093966,0.11402150189906136
28,0.11411404130151535,0.11429112380550753
29,0.11415412045107223,0.11398940973778812
30,0.11409054600973653,0.1140232466068812
31,0.11414036763633607,0.11392369582398654
32,0.11409717514846515,0.11547633524863951
33,0.11411714205289285,0.11389585287488128
34,0.1141129511749146,0.11395179195602242
35,0.11408275365651982,0.11491212907337374
36,0.114090930970501,0.11403714318207417
37,0.11409038501779688,0.11392113046891636
38,0.1140786355521795,0.11388542045730515
39,0.11404496373924018,0.1138914208073474
40,0.11409141064527133,0.11398561805412728
41,0.11405366720022521,0.1139440121226216
42,0.11409240625586212,0.11396410393138086
43,0.11406763257397845,0.113922355281508
44,0.1140574129721511,0.11401582771436157
45,0.11404212420594217,0.11389299794550865
46,0.11404048774168914,0.11487294886973005
47,0.11407648526517943,0.11397391173517142
48,0.11407572098929362,0.11384711863459192
49,0.11404208814535295,0.11390212871152769
50,0.11404681535509265,0.1141582801753179
51,0.11404703618970598,0.11388081005651957
52,0.11404140464221707,0.11386801772762468
53,0.11401400677761672,0.11404534415261029
54,0.11403660227283147,0.11415233557336679
55,0.11403268375020031,0.11383942728376861
56,0.11401227284368529,0.1140441064096562
57,0.1140418213874319,0.1150962350386248
58,0.11404824317646602,0.11390998853421389
59,0.11401736753839174,0.11383246072098871
60,0.11402092790128684,0.11401582619836254
61,0.11403468218876517,0.11381572408800386
62,0.11400387537506063,0.11386873765337852
63,0.11403018667126684,0.11418862547679219
64,0.1140184199247909,0.11393397878254613
65,0.11402102484738057,0.11556246575365588
66,0.11402834769037086,0.11465295128727669
67,0.11398908063181466,0.11388953418722815
68,0.11400975815120498,0.11411490700676778
69,0.1139888515922052,0.11442118708977925
70,0.11403287321301903,0.1138687012435189
71,0.11407699274259273,0.11392431739098381
72,0.11408842683461219,0.11397221211538125
73,0.1140835254306117,0.11396501789022025
74,0.11407550844408104,0.11414051393495304
75,0.1140834683824604,0.11427107925894242
76,0.11405398638711707,0.11399493224863379
77,0.11406452394141879,0.11403716385512434
78,0.11405511585770567,0.11411767147167148
79,0.11404491041090668,0.11455250754767553
80,0.1140531403731529,0.11396138486510175
81,0.1140439879628461,0.1139907821236414
