epoch,loss,val_loss
0,0.4543469484622188,0.44821152790604396
1,0.44850457223029877,0.44775206153801
2,0.4477342309635115,0.44752009509514934
3,0.44735099014930974,0.44730514126735055
4,0.4469472766356402,0.4465554426237016
5,0.44678018793107355,0.4467329695118272
6,0.44669175797334154,0.45041261745741584
7,0.44661985109743163,0.44666152481109866
8,0.4465906900020191,0.4466567334554923
9,0.4465383033798604,0.4462961959188097
10,0.44653704641689207,0.4462483157886761
11,0.44646524916245983,0.4463355687208862
12,0.4464618548234392,0.44706897216458474
13,0.4464067250063827,0.4462955587703004
14,0.4464141046930206,0.44624882795970433
15,0.44641020149396815,0.44645350457125205
16,0.44637978992330457,0.4462364827137135
17,0.4464142785172224,0.44621475847719916
18,0.44637573892309695,0.4462049865101466
19,0.44636037032836545,0.4463480027822348
20,0.4463509880949456,0.4463313205810102
21,0.44633735648760076,0.4464106343963898
22,0.44634956799955244,0.44648674000285693
23,0.446312497283137,0.44627038203457153
24,0.44632850023336157,0.44626284620306333
25,0.4463141545949351,0.44623070067862425
26,0.4463060228864625,0.44641044343967295
27,0.44630071458764026,0.4461736622726355
28,0.44629851005391347,0.4461870729479541
29,0.4462885050860171,0.4464706683573001
30,0.44631050388163435,0.44631249812933116
31,0.4462675567555094,0.44621020972580827
32,0.44627783639889373,0.4461646249808981
33,0.4462803434162732,0.446969714679434
34,0.44628030959802667,0.44632117421396317
35,0.44626725696294395,0.44666053291881647
36,0.44628319734252986,0.4461511273685815
37,0.44625446037477773,0.44667830307489587
38,0.4462708723134726,0.4461694232287537
39,0.4462644146226009,0.4461385081778685
40,0.4462549804211818,0.44624616632390557
41,0.446252779254568,0.44762698104304655
42,0.4462637964771322,0.44613077741107043
43,0.4462538901967663,0.4462820049698832
44,0.44625224892263354,0.4465492496271583
45,0.44623381701470355,0.44622251981541183
46,0.44624796476572515,0.4461356634833381
47,0.44622995196416987,0.4461520321611731
48,0.4462377317527344,0.44626509982066476
49,0.44624110183647225,0.4464084045614853
50,0.4462332636446482,0.4461661732522193
51,0.44623667091374564,0.4465301618238832
52,0.44622062576003113,0.4461256651369573
53,0.4462212633867946,0.44612333913594854
54,0.4462041298482119,0.4462991390127698
55,0.4462469466145668,0.44620478273029657
56,0.44622452070794105,0.44657762282835345
57,0.44621690809888426,0.4460857774572396
58,0.4462203038463575,0.44614986404591694
59,0.44621469046390494,0.44609647904968736
60,0.44621299182737145,0.44635671377182007
61,0.44620583929326885,0.44613455767667026
62,0.4462070037097339,0.4461309667704419
63,0.44620683840527064,0.44629078535524846
64,0.44620847992867313,0.4461168643854392
65,0.44622914589774565,0.4463379466208276
66,0.44621242158428176,0.44617811513893657
67,0.4461986327307477,0.4461190366271708
68,0.4462130631500586,0.44612158831236676
69,0.44621847757032795,0.4460964383025915
70,0.44620084970863316,0.446253911688665
71,0.4462026535373742,0.4461564175987954
72,0.4462091631915122,0.4463119663760325
73,0.44622612241997495,0.4461019295616718
74,0.4461991426162562,0.4461240704686707
75,0.44619143086412066,0.4463561403988017
76,0.4462171363084493,0.4462081322894794
77,0.4461908988728862,0.4461196346703002
