epoch,loss,val_loss
0,0.7269933955305923,0.5758528321288353
1,0.572611421423673,0.5715721166411112
2,0.5711822696126401,0.57131429975347
3,0.5711795091629028,0.5713148408157881
4,0.5712008060410966,0.5713993227759073
5,0.571220592010853,0.5713114142417908
6,0.5712543770632387,0.5716027950131616
7,0.5714014183335218,0.5714057018590528
8,0.5713443876236908,0.5714705734289893
9,0.5722669289093609,0.571962368580722
10,0.5712995640067167,0.5720452462979989
11,0.5712009988705933,0.5725825659988463
12,0.5771024830889641,0.5724621405897214
13,0.5716318392630387,0.5713208521059318
14,0.5711130262653341,0.5713063686393028
15,0.5713848517846691,0.5714011742163074
16,0.5714488522334924,0.5713059477103773
17,0.5710871578495016,0.571750519811645
18,0.5713483301552075,0.5722238694050515
19,0.5711323136815113,0.5713104942972346
20,0.5711292539764128,0.5714360549468402
21,0.5712319783462111,0.5713048447934232
22,0.5713117821888098,0.571642678375392
23,0.5711372279073533,0.5714811631875445
24,0.5713264937548674,0.5713418980901556
25,0.5714410218465544,0.5720916173254796
26,0.5715648228499932,0.5713929090388986
27,0.5822322601187753,0.5723094584405884
28,0.5713359174494288,0.5718089235845463
29,0.5711674257458335,0.5719118506409401
30,0.5712809126814514,0.5715430277262548
31,0.5712002514252675,0.5713901552118996
32,0.571269184427976,0.5713087117025094
33,0.5710985518857182,0.571782603282337
34,0.5712456356647403,0.5713241322096004
35,0.5710824845065134,0.5713102032047833
36,0.5711280059752847,0.571350916873577
37,0.5711329808838915,0.571383862994438
38,0.571363421219572,0.5714175765828569
39,0.5713443401864025,0.5715438649635907
40,0.5717175766171103,0.5724585185679354
41,0.5713909664203338,0.5713073472644008
