epoch,loss,val_loss
0,0.5328874841001299,0.5030154918432236
1,0.5026942346360949,0.5022557298342387
2,0.5022844920423296,0.502047583858172
3,0.5020434982114368,0.5017952029705047
4,0.5019340468115276,0.5016235416730245
5,0.5018682780133353,0.5016975210905075
6,0.5018136292033726,0.5016085690259934
7,0.5017987011935976,0.5018617522716522
8,0.5017829054991404,0.5016762488683065
9,0.5017445219490263,0.5017053299347559
10,0.5017415188948313,0.5016467521190643
11,0.5017315213282904,0.5016625387271245
12,0.5017133607069652,0.5015519068638483
13,0.5017129025061925,0.5016209563016891
14,0.5016968141794205,0.501558819770813
15,0.5016930096016989,0.5016269504626591
16,0.5016829125218921,0.5015617688894272
17,0.501692109770245,0.5018480655352274
18,0.501674426542388,0.5017525375286738
19,0.5016664647658666,0.501998936454455
20,0.5016797109312481,0.5015966990391414
21,0.5016679729753071,0.5021009942293168
22,0.5016561714675691,0.5016137914260228
23,0.5016582715776231,0.5015630960067113
24,0.501647531469663,0.5015721499919892
25,0.5016469285753038,0.5015432405869166
26,0.5016590509944492,0.5015330406824747
27,0.501644085738394,0.5014772047201792
28,0.5016444212198258,0.5016100312074026
29,0.5016470701164669,0.501496688246727
30,0.5016379181146622,0.501600426475207
31,0.5016425519519382,0.5018374727964401
32,0.5016320168574651,0.502198660771052
33,0.5016174973911709,0.501429782350858
34,0.5016261570983462,0.5015928873221079
35,0.5016285837888718,0.501491369843483
36,0.5016316609912449,0.5014556348721186
37,0.5016172059112125,0.5020285791953405
38,0.5016121264961031,0.5014521937767664
39,0.501629116654396,0.5015471884409587
40,0.5016207151412964,0.5015943188269933
41,0.5016144041220347,0.5014929698308309
42,0.5016257228851319,0.5015491796731949
43,0.5016160142024358,0.5015019508600235
44,0.5016187372340096,0.5014668012857437
45,0.5016155800289578,0.5019852389494578
46,0.5016170617077086,0.5014784406820934
47,0.5016128473944134,0.5015961266358694
48,0.5016054481665293,0.5016765983502071
49,0.5016136215130488,0.5014376264015834
50,0.5015977821879917,0.5015504663387934
51,0.501608085208469,0.5014821962912878
52,0.5016067501836353,0.5019618893067042
53,0.5016036632458369,0.5016066931883494
