epoch,loss,val_loss
0,0.5807233063407691,0.5770966494941238
1,0.576960885938569,0.5776031493549015
2,0.5764512188786954,0.5770364579136851
3,0.576031170713348,0.5757954584753543
4,0.5757766967162998,0.5758068220491149
5,0.5755931266616818,0.5753969484168305
6,0.5754459586302964,0.5752474006588938
7,0.5753479187908307,0.5756769402742977
8,0.5752890514022101,0.5759387155620395
9,0.5752053596378611,0.5751222740627696
10,0.5751280908326742,0.5752322631793342
11,0.5750740574761142,0.5766524638490701
12,0.5749996593578104,0.5751832795498093
13,0.5749959081146709,0.5748490933744842
14,0.5749408195095473,0.5748746753626367
15,0.5749155349724883,0.5751982852483801
16,0.5748598405907215,0.5750478339254412
17,0.5748612274192589,0.5747137327939642
18,0.5748293433627855,0.5747475956273138
19,0.5748497217144608,0.5748593985886491
20,0.574803396150119,0.575023011977856
21,0.5747986800305144,0.5750963684938681
22,0.5747697706694948,0.5748380192160311
23,0.5747813067260341,0.5747425596708103
24,0.5747272949833657,0.5747733434139942
25,0.5747454730550702,0.5749931899844565
26,0.5747382779798592,0.5749410384641983
27,0.5746885115454955,0.5748585669041864
28,0.574695465715741,0.5748100278395282
29,0.5746578598949807,0.574612576878692
30,0.5746676365917835,0.5750598280364763
31,0.5747035890847223,0.5747775996589187
32,0.5746286834051922,0.5754341517429494
33,0.5746368906463278,0.574953667165032
34,0.5746308430944324,0.5748454765113944
35,0.5746301059171605,0.5752546169621773
36,0.5746591466267462,0.5748009371402542
37,0.5746294782063613,0.5745534431845615
38,0.5746259573917606,0.5761637916044325
39,0.5745858819795729,0.5747617119595075
40,0.5746122587533482,0.5745723353426154
41,0.5745939065202179,0.5748279688376056
42,0.5745840923580217,0.5745186895649723
43,0.5745780616334085,0.5745574023824176
44,0.5745685525647029,0.5751490959162747
45,0.5745862201549392,0.5757970871463899
46,0.5745689953718142,0.5748655069258906
47,0.5745457060959199,0.5745880943078261
48,0.574574846253861,0.5747319395133934
49,0.5745929559341638,0.5744873054270118
50,0.5745112088237091,0.5746957184659044
51,0.5745364399618347,0.5754244017837657
52,0.574567021442929,0.574747407702595
53,0.5745476428441784,0.5746072303272655
54,0.5745579972022109,0.5749347660736766
55,0.5745028431724684,0.5745318086212385
56,0.5745277122747535,0.5752543361252058
57,0.5745246425042076,0.5747750915901241
58,0.5745183582865093,0.5748153680015734
59,0.5745331501965802,0.5745132930521338
60,0.5745295588205116,0.5747572552181651
61,0.5745108071602971,0.5747328899634387
62,0.5745178222541081,0.5746561724849729
63,0.5745222949713172,0.5745560263285862
64,0.5745278102732426,0.5747836463208825
65,0.5745219729692949,0.5744637557058121
66,0.5744761689434256,0.574636963490517
67,0.5745041914864708,0.5745216328512055
68,0.5744899635664487,0.5747526031865672
69,0.5744901300904403,0.5748381990948622
70,0.5744977918766223,0.5746712816560239
71,0.5744881980688402,0.5746079701643724
72,0.5745121657708736,0.5745410448268389
73,0.5744815014565114,0.5756760296099831
74,0.5744873118409093,0.5750233899275068
75,0.5744687113193819,0.5744478981193183
76,0.5744858836667326,0.5745635069925199
77,0.5744639245523272,0.5745267117585497
78,0.5744787627350582,0.5745044250937904
79,0.5744871577393836,0.5745939038527514
80,0.5744981312786163,0.5748337818434457
81,0.5744667401632279,0.5753335167693145
82,0.574466733823416,0.5745004936128337
83,0.5744744877896906,0.5744317986533305
84,0.5744661922526523,0.5745419761974817
85,0.5744902342015588,0.5749073261658548
86,0.5744626327973039,0.5745996531126812
87,0.5744555220904203,0.5747012561663208
88,0.5744878669006346,0.5744901168139341
89,0.5744568695114692,0.5744353556159708
90,0.5744435340108902,0.5745270917196723
91,0.5744838603556269,0.5744324217067462
92,0.5744532531066717,0.5749765400555235
93,0.5744651335198347,0.5746096965396966
94,0.5744649610039044,0.5744752834215945
95,0.5744460756286394,0.5744480664617666
96,0.5744673059470721,0.5749348676825872
97,0.574457128726714,0.5744846118886773
98,0.5744434811254837,0.5745057407738849
99,0.5744402029749351,0.5746358143780427
100,0.5744704833729413,0.5750566584596563
101,0.5744587936124457,0.5745230000013157
102,0.5744340040824126,0.5752404988255749
103,0.5744264740273783,0.5744492483198199
