epoch,loss,val_loss
0,0.45342557255675997,0.44841040569558627
1,0.44863775145559326,0.4475607004562028
2,0.4477504190288298,0.4484224295497828
3,0.4472881332815843,0.44692295761617185
4,0.4470903692446982,0.4466718957382751
5,0.44694203348179734,0.4483807822019232
6,0.4468328602616653,0.4470645942551918
7,0.44675757934801635,0.446541453043817
8,0.4466935446068119,0.4469812032010952
9,0.44664585179895816,0.4467723899680391
10,0.44657003934134026,0.44634028693878325
11,0.44653445400531433,0.4464809461799508
12,0.4465192258898349,0.4463534043681237
13,0.4465126212079346,0.4463951701857612
14,0.44646033383889616,0.4464834556538177
15,0.4464398069583717,0.44619789664857734
16,0.44642591590899394,0.4464090754317291
17,0.44641876398820524,0.4466395085118249
18,0.4463853592493099,0.4467044615272257
19,0.4463619125087212,0.4463902306615863
20,0.44638176278135533,0.4462408696007788
21,0.4463549466421261,0.44627467080322153
22,0.4463730271756227,0.44630217318499354
23,0.44633103027505744,0.4462439370806105
24,0.44633471421537807,0.4467980659481314
25,0.44633127943668727,0.44640311363613044
26,0.4463142383992502,0.44641538960466315
27,0.44631407082769486,0.4461584633840225
28,0.4463151998443129,0.44628911916138814
29,0.4463019044970594,0.44615434523551695
30,0.4463001955836726,0.4461921036687146
31,0.4462919448962483,0.4465216491565515
32,0.4462718482832282,0.4472285942907073
33,0.4462832628109288,0.4476986369779033
34,0.44627176081007325,0.44683776095546507
35,0.44628139486544594,0.4462400624385247
36,0.44626583365899225,0.4462896726563314
37,0.44625278930857737,0.4478213675264685
38,0.4462618240541201,0.4461512525974965
39,0.44624810589536607,0.4464877858351241
40,0.44625589512186514,0.44643578996729316
41,0.446233121857519,0.44611130300585744
42,0.4462585178011739,0.44613808264803356
43,0.4462361092381186,0.44624847246162946
44,0.44621976872071434,0.44618450815861044
45,0.4462257428942365,0.4462612475709939
46,0.4462282428500263,0.4463207493348985
47,0.44623568730458374,0.4461495322861683
48,0.4462310902542517,0.44728121151107714
49,0.4462218545105602,0.4461736357241647
50,0.44620904839966036,0.4462521625807504
51,0.44623165435710305,0.44617230432205107
52,0.44620678524377433,0.446210524772592
53,0.4462215048348682,0.446130843124082
54,0.4462116537914056,0.4461131176788813
55,0.4461973012917518,0.44622393969270785
56,0.4054421938133332,0.33614422789874204
57,0.335436578833756,0.3353998432236333
58,0.3354567652615674,0.33534451765990436
59,0.33542886335282973,0.3355234314135227
60,0.3354360956425869,0.3353439835549584
61,0.33545196115173104,0.335671096507728
62,0.3354413797263567,0.335360702095789
63,0.33543626321493114,0.33589333915532965
64,0.3354388400499136,0.3353251381044648
65,0.33543590429811726,0.3354673924280455
66,0.33542663349811336,0.33536008136443995
67,0.33544856723276145,0.3353817366488814
68,0.33542034746177163,0.3353824087467146
69,0.3354356172222506,0.33560113551894727
70,0.3354121126802784,0.33537400310151927
71,0.33544181509442395,0.33535637460630524
72,0.33540758370542234,0.3353338245570512
73,0.33542022080633865,0.33541749693619705
74,0.33542399658913336,0.33559382565264073
75,0.33540819676965444,0.33533215425150564
76,0.3354306844569075,0.33534250942708244
77,0.3354022145540292,0.33539571513609023
78,0.3354287803716568,0.3354807904281332
79,0.3354208737340019,0.33530483077240936
80,0.33542198258659445,0.335390558313791
81,0.3354174120180127,0.3353296583846544
82,0.33542015152158905,0.3354853944506302
83,0.33541016538183765,0.335348486737637
84,0.33540554838322467,0.33570784250500774
85,0.33540180657683655,0.33526829102494876
86,0.335411877806693,0.33534998572789704
87,0.3354086427328672,0.3360718496679964
88,0.33539030968167133,0.33536266369500173
89,0.33543961702080544,0.33553683037497567
90,0.3353922196148996,0.33568505930249803
91,0.3354106644252975,0.335416820623147
92,0.3354045917677625,0.3353355086914659
93,0.33538937307089134,0.33555010432936716
94,0.3354040852118977,0.33569146051596177
95,0.3354094191653838,0.33547617970566
96,0.3353912482203474,0.3353539390392398
97,0.33539636494830627,0.3353999588388959
98,0.3353852325560415,0.3353149128019366
99,0.33542894199741985,0.3354063130194141
100,0.3353784862577933,0.33547745160666054
101,0.3354040113203916,0.33551063055436015
102,0.33539708848082306,0.33534672276553684
103,0.33539218318878716,0.3354004512649612
104,0.33542942368034945,0.33558932115363127
105,0.3353742870158701,0.3355893269514032
