epoch,loss,val_loss
0,0.4201538973261113,0.4157739933755794
1,0.4139303564650636,0.4136587149599941
2,0.4137170607077261,0.41299922921817295
3,0.4131199498255047,0.412876650728008
4,0.4130006322665278,0.4125469187501051
5,0.4127179572962649,0.41320502264032294
6,0.4123906658789591,0.4134743890750497
7,0.41222923177390536,0.4122064646065383
8,0.41219208766491766,0.41185209643160436
9,0.4120239606195303,0.4120085931593372
10,0.411874118572688,0.41285860689343057
11,0.4118416422123619,0.4118084311781095
12,0.41182909662892253,0.41160954361222224
13,0.4116824540695012,0.4126286074186377
14,0.4116742144509137,0.41163965917698503
15,0.4116308358752253,0.41157947234421155
16,0.41165083816648435,0.4130464895783228
17,0.41154097892892527,0.4116220288625722
18,0.41153028366894207,0.41185069038317756
19,0.41143993497465947,0.41131135303684263
20,0.41146207147364255,0.4115311216479791
21,0.4114347482859253,0.41161553676311785
22,0.4113676852132904,0.41187600882414255
23,0.41142611332204493,0.41132323571825147
24,0.4113501404526705,0.4156286880336979
25,0.4113435704764485,0.41124357717208765
26,0.4113533088381746,0.41367595393959405
27,0.4113498586698408,0.4123347364939176
28,0.4113080742421132,0.41243859072476996
29,0.4113341282345038,0.4113108649295258
30,0.4113128523482291,0.4113892513972062
31,0.4112983529068485,0.4114863931836916
32,0.41129373822581267,0.4119995181968727
33,0.4113154187130954,0.41184417905641846
34,0.4112478118830652,0.41129830698517356
35,0.41126410832785115,0.411302749971598
36,0.411212139150795,0.4112856747494738
37,0.4112503914134735,0.4115586443811137
38,0.41127867773119037,0.4116457348425986
39,0.4112484636708718,0.41124216279675885
40,0.41127590008580023,0.41154090133553406
41,0.41126526760667836,0.4115190805779497
42,0.41116417662918253,0.4122210275002804
43,0.4112763670172488,0.41124918076299855
44,0.41123861457818117,0.41119848156981076
45,0.411229301805814,0.4113722465322272
46,0.4112591685908447,0.41107327121658893
47,0.41120467227419155,0.41129882612240226
48,0.4111764829882549,0.4117743159641995
49,0.4111477261329615,0.4124039460352573
50,0.4111923496770915,0.41110352551375073
51,0.41118141208949116,0.41246547284848045
52,0.4111473366900754,0.4121150854207742
53,0.4111335101838012,0.4115030303634426
54,0.41119636367139795,0.4110705046884475
55,0.4111344786095986,0.4112660659454005
56,0.41119883193562184,0.411401960157579
57,0.4111366115011629,0.411466554716858
58,0.41113100179662154,0.4118430459321876
59,0.4111236162765994,0.4111290087918786
60,0.41112535021871494,0.4118219573503688
61,0.4111185956614359,0.41178376109665144
62,0.41106175599149825,0.4113227742333566
63,0.4111144608289098,0.41144830324217935
64,0.4110767552241478,0.4114148510892693
65,0.41113449482120057,0.4120069440777781
66,0.41109815640591574,0.4111852890356599
67,0.41118854654444115,0.4113534411928494
68,0.4110684584746806,0.4111154659658153
69,0.4111098448360527,0.4111097531786036
70,0.41110180481741593,0.41120642602591595
71,0.41106230225145096,0.4114942205159303
72,0.41111434396914487,0.4114303283300944
73,0.4110763029120516,0.411430644944643
74,0.4110810980588279,0.4110614979681247
75,0.41103215000489046,0.41115650006618454
76,0.41109736280376535,0.41124003912615714
77,0.4110449767428579,0.41121591573613453
78,0.4110372345001474,0.4112083566100071
79,0.41108575374946227,0.4112068662276635
80,0.41112785933911034,0.41141149604290944
81,0.4110761036654958,0.41125530650834585
82,0.41112703568773434,0.4124878862359683
83,0.4110482724787526,0.4116366283621445
84,0.4110651481182503,0.41143777493211825
85,0.41105962018403075,0.41196409571851156
86,0.4110871914850252,0.41107368522483123
87,0.41102667916250357,0.41171031137258185
88,0.41101548282467265,0.4110512165662373
89,0.41107207192334455,0.4119725141572597
90,0.4110005409299702,0.4120500211828104
91,0.4110502147578797,0.41119261491979026
92,0.4110875064045539,0.4111595936951507
93,0.4110586962887663,0.41110981565255383
94,0.41110102822003425,0.41125753660947456
95,0.41099779612665177,0.41177831902989087
96,0.41108502092257765,0.4116336776807941
97,0.41099553832690894,0.411168033402256
98,0.41099455006050556,0.41106081496988867
99,0.4110315203279372,0.4114334385241232
100,0.4110330859664649,0.411123030283315
101,0.4110013221778883,0.4109986640975138
102,0.4110214037854247,0.4111069356685241
103,0.4110608913612881,0.4112004360253403
104,0.41103965022723243,0.41111063541608767
105,0.4110561375869712,0.41124238916129685
106,0.411032049212372,0.41116060278847555
107,0.4110023419090694,0.4117665538421044
108,0.4109962816874104,0.41114084815269075
109,0.41103654935950285,0.41140785246865624
110,0.4110608933846323,0.4119896118605403
111,0.4110240232293548,0.41189086199102565
112,0.41102778378855476,0.411093929801922
113,0.41100345562439317,0.4114675119408307
114,0.41106239919882653,0.4112681371254602
115,0.4109686132714144,0.4112668193451524
116,0.411055733867873,0.4111956291251975
117,0.4109702396481329,0.4130761063868
118,0.4110226786189005,0.4114134760707543
119,0.41096834406013916,0.4116618263070696
120,0.4109741022753865,0.41099629902070567
121,0.4109844000590576,0.4114765392195794
122,0.41098805217134515,0.4112268329554101
123,0.41097102537028435,0.41126690582365316
124,0.41098928710273724,0.4114876055096278
125,0.41102815261028947,0.41201708378921964
126,0.4110277867833409,0.4111938049568432
127,0.4110741700078661,0.41178157075167293
128,0.41097537198384576,0.41113169610352435
129,0.41097137153569097,0.4113530545169603
130,0.4109797191712797,0.4118114717840853
131,0.411005017387408,0.41116212644884664
132,0.4110538248587569,0.4112588865585422
133,0.41102558837920333,0.4118795717768279
134,0.41101921168402417,0.41174040049240546
135,0.4109686640076585,0.4114260210588611
136,0.4109965085177094,0.4110151949058987
137,0.41095667465772073,0.411197257411687
138,0.4110280403730576,0.4113169352558647
139,0.4109862438798088,0.41120124129444435
140,0.4110110776544247,0.4113095041244261
