epoch,loss,val_loss
0,0.5627216509652821,0.5585345251388645
1,0.5586656181807332,0.5581825742058956
2,0.5582195058400122,0.5581055294195416
3,0.5578886621914464,0.5578701489616564
4,0.5577384838876681,0.557403577764336
5,0.5575937042970127,0.5573863508979381
6,0.5575175147759835,0.5572476811799458
7,0.5573717850733598,0.5572163722946981
8,0.5573572783254583,0.5583073912719935
9,0.5573274447449659,0.557264101978567
10,0.5572986348449227,0.557203890253829
11,0.5572722412604305,0.5571588186708928
12,0.5572573240268628,0.5571188156125563
13,0.5572376603487695,0.5571658877226022
14,0.5572009465885356,0.557175220419692
15,0.5571913979143456,0.5572553691733859
16,0.5571665486652876,0.557352620525928
17,0.5571887491839866,0.5570609772175772
18,0.5571691888644699,0.5574592798578533
19,0.5571514167797446,0.5571116532640481
20,0.5571362013470443,0.5570582636828458
21,0.5571347427966726,0.5570426230099301
22,0.5571152559833193,0.5570512998488641
23,0.5571375634489742,0.5570223012278157
24,0.5571187952919964,0.5569926393239137
25,0.5571165027696156,0.5571590619998298
26,0.5571106231592358,0.5576775634850817
27,0.5571151995016452,0.5574491205345609
28,0.5571120771549136,0.5570935604294239
29,0.5571229866026469,0.5570056490211865
30,0.5570974930624107,0.5570291767936782
31,0.5571086479540268,0.5570151693471904
32,0.5570930390151866,0.556995803812893
33,0.5570844075454205,0.5570151420444176
34,0.5570857142408492,0.5573411214144591
35,0.5570966516667397,0.5570250915830248
36,0.5570935795399642,0.5571076889783514
37,0.5570889580000674,0.5573119170908301
38,0.5570870859822592,0.5569993754178655
39,0.5570844409341502,0.5570054943744953
40,0.557053500283028,0.557190891205525
41,0.5570719746480562,0.5570197093279723
42,0.5570672142333839,0.5570752199175341
43,0.5570645450147912,0.5570379221409781
44,0.5570715406829199,0.5570626810230037
