epoch,loss,val_loss
0,0.4525825115345297,0.44999110632143896
1,0.44817818335822873,0.44739273440453314
2,0.4476066915913763,0.4478881543386663
3,0.44728016536341925,0.4470837807684915
4,0.4470136421033567,0.446745454688226
5,0.4468517140124149,0.4470218040067564
6,0.44680705037214946,0.4469407229506348
7,0.4466884449964241,0.4468464551729245
8,0.44664955511053195,0.4465577206156094
9,0.44662294253314294,0.44696186377156166
10,0.44658433314981233,0.44654200532596106
11,0.4465747955318378,0.4463770560531995
12,0.44650925352499526,0.44654415504216555
13,0.4465138920739993,0.4465411445786876
14,0.44646971457788104,0.4464230660469301
15,0.44646401836847144,0.4467766375606764
16,0.4464823890968612,0.44628727208296065
17,0.4464542651034148,0.4465123027489144
18,0.44644338569149705,0.4463879338860808
19,0.4464470957081102,0.44685748241675405
20,0.44643328685659905,0.4465597577929201
21,0.44642053265848064,0.4463057265831874
22,0.4464261518810225,0.4463074966932349
23,0.4464136473990801,0.4465536791396792
24,0.44642238074403123,0.4467573474861552
25,0.4463835303220288,0.44673491784419966
26,0.4463940384175428,0.44648267359059146
27,0.4463813179686485,0.4464431569830655
28,0.44639243014482505,0.44638513830991894
29,0.4463717610555427,0.44673761570128256
30,0.44636405150384334,0.44630757247839614
31,0.4463722605474513,0.4466502369485481
32,0.4463394894967004,0.4462226660168792
33,0.44634090391253073,0.4463019687987439
34,0.4463529816131948,0.44623956002905113
35,0.4463381137610589,0.446243560536032
36,0.4463325845706305,0.44652123973328184
37,0.44632076158731304,0.44620872139930723
38,0.4463364842412546,0.44633225570837265
39,0.4463216679481107,0.44631257496459903
40,0.4463312629667441,0.44647096920545876
41,0.4463123021384876,0.44633688133940214
42,0.44631516996153003,0.4463523596451241
43,0.44630234970418037,0.44623789930757757
44,0.44631312296507,0.4461803220341874
45,0.4463019360848943,0.44632237806509506
46,0.44628995604943944,0.44626743496203836
47,0.4463029429562043,0.44622919978042397
48,0.44629478097684544,0.4464798250062294
49,0.44629352564714586,0.4461890039461718
50,0.4463009477849657,0.44623479773625546
51,0.4462845697173689,0.446290888413602
52,0.44629816900326863,0.44622967373348643
53,0.44630122069821154,0.446195303047857
54,0.44627430684644337,0.44624155739105076
55,0.4462882201064613,0.4467522790798774
56,0.4462877721171434,0.446292164130483
57,0.4462953297993064,0.4463140437236199
58,0.44628586484897104,0.44619811246767827
59,0.44627468316244007,0.44624359246814815
60,0.4462748406314731,0.4461864127118889
61,0.4462716278534809,0.4461745210232273
62,0.4462791644041207,0.4462779278642782
63,0.44626780982183867,0.44615777015094427
64,0.4462641571005758,0.4463034713090797
65,0.44627057952254595,0.44623032735831686
66,0.44628499624148926,0.44670664907684987
67,0.44626717933278687,0.44623373948019135
68,0.4462646769746209,0.4461891735605803
69,0.44628820101287564,0.4462350603960288
70,0.44626524128217315,0.44624339228232507
71,0.4462565985309811,0.44632347283824797
72,0.44627434531956495,0.44644279713666174
73,0.4462654109961858,0.44617304748696074
74,0.4462684699345433,0.4462642177458732
75,0.4462645743961955,0.44615523460189405
76,0.4462712870828701,0.4464192095080913
77,0.4462616447380967,0.4462758380928939
78,0.4462451232560182,0.4462339105440428
79,0.446264863132151,0.4461808359652536
80,0.4462537434348923,0.4462202837833991
81,0.44624928436835454,0.44624220660839126
82,0.4462441951507778,0.44631194776991756
83,0.44624018063505594,0.4462432159531501
84,0.44626072169989406,0.44630536453303865
85,0.4462516011921646,0.4461399927328597
86,0.4462436074276504,0.44616724376938777
87,0.44623824954190666,0.4461813865761011
88,0.44624721160166725,0.4461566423068271
89,0.4462455191034001,0.4467388338249907
90,0.4462233750107627,0.4466570809668406
91,0.4462516738487602,0.446196422683394
92,0.4462343357910942,0.4461617100327541
93,0.44623587920162755,0.44630157444672314
94,0.4462347234338745,0.4462857264295109
95,0.44623728991035994,0.44630117905938593
96,0.44623118835410525,0.44624049727141707
97,0.44623935816731664,0.44615716875043165
98,0.4462228749591805,0.44620595507822913
99,0.44622511380929886,0.44640104008963327
100,0.44623620700626987,0.44617314310582634
101,0.44624789126035047,0.44637893839154585
102,0.44623497802658624,0.44619207459111365
103,0.4462376824308591,0.44615383352298593
104,0.44624043436084554,0.44638952149942557
105,0.44622896864174694,0.44630923450141036
