epoch,loss,val_loss
0,0.4500974113554572,0.4446282985044768
1,0.4447178957316725,0.4446398181891619
2,0.4446670070878834,0.44452105617109067
3,0.4446348461057896,0.4445820189735138
4,0.4446040771427226,0.4447415704614767
5,0.4445929383376793,0.44460915795922573
6,0.4445836344703933,0.4447217527749225
7,0.44456871900735045,0.4445680508246789
8,0.4445620773167881,0.44449996328531366
9,0.44455758252382843,0.4444980013902962
10,0.44455299754020083,0.44473112187077923
11,0.44454529319516173,0.4446915008146177
12,0.4445379967705196,0.4446542689581367
13,0.44453525267754096,0.4446940661216196
14,0.44453076732961533,0.44452804526679274
15,0.4445293138257718,0.4444947097053007
16,0.44453389427205986,0.44453133914074294
17,0.44452083247749896,0.44457684268726605
18,0.44452838823452684,0.44449456264599974
19,0.4445178005008936,0.4445578076703377
20,0.44452391579774614,0.44448589400085564
21,0.44451732747653633,0.44449418349833997
22,0.44451575439857033,0.4447155478574502
23,0.4445168730622131,0.4444975702401722
24,0.444515348956277,0.44448472430037506
25,0.4445178997930609,0.44451630658310637
26,0.4445144658166084,0.44453774208466407
27,0.44451438435511287,0.44448349372328955
28,0.4445140933477267,0.44448252197530663
29,0.44450951563472824,0.444488618007073
30,0.4445147228026248,0.4445372656468422
31,0.4445076282832838,0.44450282593518864
32,0.44451000311238953,0.44448890282261755
33,0.4445106931252312,0.44450677892114626
34,0.4445083815601441,0.4445350185073635
35,0.4445046769008574,0.4445043986843478
36,0.4445080972053402,0.4445024489616934
37,0.44450747066950075,0.4444922458001461
38,0.44450576664448205,0.44448036687545683
39,0.4445080074591769,0.44448378451408876
40,0.44450151382850533,0.44447907536260545
41,0.44450632981888266,0.4444835266463514
42,0.4445037527705221,0.4445293599411512
43,0.4445024505398609,0.44449869676795845
44,0.4445032308277752,0.44454504377197096
45,0.4444991586427985,0.4445022466017058
46,0.4445024818078261,0.44455431634675774
47,0.44450338756517016,0.44448178227131185
48,0.44450163431096357,0.444486078937947
49,0.4444989888073063,0.44451307610010093
50,0.444499725469079,0.4444774694833211
51,0.44449883345351593,0.4444898875120556
52,0.44449782366630264,0.44452146744313964
53,0.4444986538854619,0.44454679603020547
54,0.4444972555325394,0.4445447198362563
55,0.4444944316689184,0.44461621674651247
56,0.44449836765640227,0.4445944144767212
57,0.44449532486930143,0.44447820537143545
58,0.4444957285406755,0.44448113642614473
59,0.4444963304587657,0.4445413711201168
60,0.44449699505280305,0.4444785770796073
61,0.4444943859669756,0.4444893507744479
62,0.4444968298946675,0.4445470037738384
63,0.44449707644172637,0.4444806345343294
64,0.44449447772425627,0.44449321646844187
65,0.444494733824813,0.4444806547229994
66,0.4444936075639662,0.4444879959150224
67,0.4444944858353818,0.44447547345244265
68,0.4444955858085301,0.44449861123603274
69,0.4444949029290615,0.44447984856648126
70,0.4444936893693908,0.44454911513896495
71,0.4444946951517235,0.4444769012425141
72,0.44449399796093997,0.4444991140596328
73,0.444493212241155,0.4444916539837054
74,0.444494019779927,0.4444777308267636
75,0.44449278255896113,0.44452542136088197
76,0.44449254443067077,0.4444790317018334
77,0.44449371031672263,0.4444747855438488
78,0.4444910632977265,0.4445053647233002
79,0.4444913193493759,0.4445229438191312
80,0.44449492242731603,0.44455399099118065
81,0.4444902946584377,0.44451114300167
82,0.44449118422153405,0.4444780332426871
83,0.4444904931540291,0.44448021691726985
84,0.44449253966299335,0.44449546795624956
85,0.4444931647552773,0.44454657323011393
86,0.4444919221016519,0.44448208010226264
87,0.4444899201086273,0.4445494941387224
88,0.4444926569451757,0.4444918491704292
89,0.4444915625486481,0.44449829549410796
90,0.44448885980051994,0.4444914935096618
91,0.4444903704758677,0.4444857326985589
92,0.4444918093702192,0.44447560248244783
93,0.44448896245822256,0.44447614151254183
94,0.4444914859853811,0.4444788392808834
95,0.4444913950618918,0.4444766260110415
96,0.4444891237767371,0.4445365993467809
97,0.4444897075336365,0.4444780719487306
