epoch,loss,val_loss
0,0.30706262875634427,0.2983565189850242
1,0.29582004544255697,0.2942259690897636
2,0.29488256016054437,0.29433524142719675
3,0.29427489536372514,0.2933072135998653
4,0.2937528397887206,0.29843967551037337
5,0.29295682762709496,0.29295664122027737
6,0.29273531743529785,0.2924955183755671
7,0.2923907126790454,0.291316055689497
8,0.29219340691661316,0.2917518596199547
9,0.29194220747345156,0.29070660636087803
10,0.29173358985995324,0.29020505790083345
11,0.29150589904094965,0.2924773355571567
12,0.2914045766054944,0.2911945742353908
13,0.2913350409994976,0.293078770057735
14,0.2913069414620907,0.29037653948769676
15,0.2910304202700846,0.29094181999970903
16,0.2909128360217662,0.2929591079207863
17,0.29109392731640715,0.28987234273264484
18,0.29082809294313416,0.29135129743119326
19,0.2906728681076375,0.28977988650721886
20,0.290744538641164,0.292110187835788
21,0.29063552617790084,0.2899394834751527
22,0.2904860176381397,0.28986664418842895
23,0.2906274512922705,0.2895395022911706
24,0.2906395218035547,0.2897110973930832
25,0.29061980776430507,0.2911601639267233
26,0.2905425237564274,0.29098672155411015
27,0.29042919392461813,0.28992483993026225
28,0.2905244289195042,0.2894809728668582
29,0.29037902965305346,0.29000489404124596
30,0.2903607316427878,0.28927932936263734
31,0.2904233481159196,0.29548715407735954
32,0.2904257991197945,0.289158853215556
33,0.2905337171348618,0.2901115281558214
34,0.29035881107497263,0.2892588955888677
35,0.2903295785566918,0.2890670780360551
36,0.29035209366400616,0.2939996608137789
37,0.2903555889773701,0.28984342155326387
38,0.2903851224071691,0.2902434777681053
39,0.2903361972367422,0.2904333281901575
40,0.29033225779931837,0.29181418683629473
41,0.2903535151548363,0.2897520835583027
42,0.290447799339641,0.29025846042349085
43,0.290203596762838,0.2892281500192789
44,0.29026810950314463,0.28932522430313434
45,0.29016411080959414,0.28937218981996066
46,0.29035162743067056,0.28932296450321493
47,0.29018824367252405,0.2891182790175265
48,0.2901501541234027,0.28973022804366744
49,0.2903399311118576,0.2894138783882037
50,0.29011176334289335,0.28953458856116454
51,0.2901298670202138,0.29032646488610925
52,0.2903108148159685,0.28929222363692064
53,0.29019039538000646,0.28964234606799655
54,0.29031689013027673,0.29176030722504515
55,0.290291217885359,0.2895557436250871
