epoch,loss,val_loss
0,0.675774913453019,0.6720110930816707
1,0.6721018187497494,0.6732118545040008
2,0.6718069900630023,0.6732709437978475
3,0.6715525922344127,0.6713106196808164
4,0.6713595405623091,0.6718133911305563
5,0.6712263803316023,0.6714404281256512
6,0.6711357195473177,0.6713897889364446
7,0.6710724627054557,0.6713876846706305
8,0.6709451776014295,0.6707187830366509
9,0.6709211940242293,0.6708434678780529
10,0.6709118667038988,0.6708784819240902
11,0.6708469582167859,0.6705719601131847
12,0.6708033604502048,0.6706215811130722
13,0.6707470727702677,0.6707120662291648
14,0.6707688038139418,0.6705786608584762
15,0.6707197133469399,0.6706625547361729
16,0.6706743547888993,0.6715409668740209
17,0.6706741103925804,0.6704759990311142
18,0.6706582253062989,0.6711937009844532
19,0.6706314385485522,0.6713418394401115
20,0.6706326049501032,0.6706177349421878
21,0.6706442137815624,0.6708330160630844
22,0.6706025261844637,0.6709923538321597
23,0.6706184492267899,0.6705047918904212
24,0.6705820104701963,0.6704587409277412
25,0.6706085530501296,0.670387287352872
26,0.6706000801845202,0.6706863003983983
27,0.6705747826239081,0.6704722374899511
28,0.6705550460249619,0.6706881729603997
29,0.6705537785074728,0.6705003769758617
30,0.6705556188798617,0.670356941252725
31,0.6705562555612146,0.6704336865368316
32,0.6705552004428077,0.6706212718196898
33,0.67052518600926,0.670554334857032
34,0.6705370301773467,0.6703722758565293
35,0.6705483622421344,0.6709749114128851
36,0.670527945592063,0.6704470275649361
37,0.6705141390719334,0.6703830549793859
38,0.670509339398861,0.6707142507763714
39,0.6705239530369227,0.6707633986958204
40,0.6704915971673375,0.6704015046432059
41,0.6705168356928388,0.6706042215191105
42,0.6705178626508692,0.6707220033735555
43,0.6704939723825747,0.6704896394135639
44,0.6704777521105858,0.6703719612386623
45,0.670492514038876,0.6704148471799145
46,0.670476462703904,0.6703533830772854
47,0.6704869062484263,0.6703825300443853
48,0.6704868690693774,0.6730613096476192
49,0.670480312292617,0.6703218160432858
50,0.6704700636588565,0.6706839953995224
51,0.6704675589030473,0.6714030379397106
52,0.6704571107210043,0.6706202326578183
53,0.6704494702110955,0.6704113539927651
54,0.6704607999417407,0.6705418821008271
55,0.6704523924691973,0.6703250965764446
56,0.6704551086688177,0.6703965053960644
57,0.6704813748938478,0.6705221292694509
58,0.6704416387487645,0.6706388693885236
59,0.6704330384314002,0.6705049313919125
60,0.6704592468092947,0.6704641017961147
61,0.6704194601752649,0.6705381578310547
62,0.6704281437984049,0.6707235817873745
63,0.6704338935290165,0.6705587966270542
64,0.670403471795091,0.6703392972721356
65,0.670452889433306,0.6708210565020369
66,0.6704343174350162,0.6702695121540325
67,0.6704195083332243,0.6703581806447902
68,0.6704177451492487,0.670540710477616
69,0.6704460165802005,0.6705655345845755
70,0.670406637947817,0.6703728330934018
71,0.6704039090275535,0.6702962928906859
72,0.6704387498312738,0.6703331442092252
73,0.6704180770234555,0.6704873745849648
74,0.6703927195576551,0.6702942952920427
75,0.6704161614228913,0.6704428883107661
76,0.6704022399160694,0.6702742473659089
77,0.6704251888528417,0.6702972481031867
78,0.6704120785824238,0.670438186110693
79,0.6703852367321294,0.6703573396128993
80,0.6704322906672655,0.6702706419208802
81,0.6703927893003194,0.6702938114443133
82,0.6704003550805924,0.6703508241892453
83,0.6704072892840194,0.6705943990581976
84,0.6703789547286716,0.6703402329319464
85,0.670417021067313,0.6705282111913335
86,0.6704018957992495,0.670450515161377
