epoch,loss,val_loss
0,0.7825368884613964,0.5571201300436213
1,0.5526886574673714,0.5516371606856354
2,0.5512258593734228,0.5515609129454738
3,0.5511536399523417,0.5513884633086449
4,0.5511553048779491,0.5516516155050707
5,0.5512797096286941,0.5514500991318577
6,0.5513893509095953,0.5515952743301096
7,0.5512373629158474,0.5513983590658321
8,0.5513410891673362,0.551941877649736
9,0.5518122592637705,0.5516310666882714
10,0.5512402119254574,0.5514673854029456
11,0.5512622080416026,0.5514336186786031
12,0.5514563979720577,0.552158934201381
13,0.551436257454776,0.5536939321562301
14,0.5566480007282523,0.5519561236218888
15,0.5513136237474683,0.5520198437594628
16,0.5515111275113522,0.5515411131141722
17,0.5514362485217802,0.5525448627250139
18,0.5514706584218244,0.5513941077298896
19,0.5517869032630625,0.5523303252782008
20,0.5519146802197439,0.5516206381856933
21,0.5512904852859734,0.5514297665551652
22,0.5512632167000487,0.5518247522124948
23,0.5512853689896043,0.5516585721526035
