epoch,loss,val_loss
0,0.5625772201897072,0.5586523836067238
1,0.5587628587455852,0.5587271983806904
2,0.5582762059201015,0.5595397511427811
3,0.5580686815072674,0.5579161932391505
4,0.5579275485114409,0.557534664529133
5,0.5577601227835917,0.5576552761695521
6,0.5575861139029347,0.5574373897192791
7,0.557496480721153,0.5575278531824684
8,0.5574139847587696,0.5573518349869967
9,0.5574020232714257,0.5580215854029502
10,0.5573174445597346,0.5571392408079899
11,0.5572739559054427,0.5572726157403761
12,0.5572617935177647,0.5571923235805691
13,0.5572232642781922,0.5571233125241756
14,0.5572175705299265,0.5572524226333012
15,0.5572041690296727,0.5570800688367328
16,0.5571907148830275,0.5571082803215046
17,0.5571640583805311,0.5570934389720188
18,0.55716524303951,0.5570512123794177
19,0.4672799939857522,0.4463289116659472
20,0.4464431933404826,0.446463112721668
21,0.4464208612097488,0.4462782909201629
22,0.4463942468255489,0.44626139686362026
23,0.4463954948909299,0.44625587569868597
24,0.44637665981765906,0.446347175135506
25,0.44640189996696317,0.446547195692512
26,0.44636040925466874,0.44635946515476144
27,0.44633415368079093,0.4463079012505174
28,0.4463326587820064,0.4463453860347975
29,0.4463446930584689,0.4463499488664916
30,0.4463100671465278,0.4465316158666208
31,0.4463222577557165,0.44640857148407115
32,0.44630740109902434,0.4462589495678989
33,0.44630030376238355,0.4462430886683926
34,0.4463137706616193,0.44630036438369275
35,0.4462768723747574,0.4461556359201152
36,0.4462876087855394,0.44697233386726
37,0.4462714812588385,0.4466933604653361
38,0.4462917604780843,0.44619389454425123
39,0.44628241685740855,0.4461473095357862
40,0.44626862391380057,0.44631597538739815
41,0.44628198655598456,0.4463969794455592
42,0.44625868019210035,0.44619653295938194
43,0.4462602999761875,0.446199671373178
44,0.44626582420291466,0.4464183682839273
45,0.4462504881489225,0.4464879601232467
46,0.44626009073754536,0.4462420092031323
47,0.44624793311675603,0.44615819529623313
48,0.44626025993448115,0.44646690656470306
49,0.44625216594816564,0.4461409699680196
50,0.4462523081368084,0.44613534388116216
51,0.4462467018719523,0.44616567257320316
52,0.44624926568140977,0.4461576902984685
53,0.44625671299704694,0.4461426965799876
54,0.44623219248068763,0.4462060075096102
55,0.4462446602123092,0.4467592461381302
56,0.4462553330443301,0.4464392824888821
57,0.446237050274619,0.4470608984862013
58,0.4462460442464229,0.4471531969146161
59,0.44623898771625736,0.4461252143454019
60,0.44625022291846855,0.4461236707477948
61,0.4462368001991317,0.44617067748500455
62,0.446220240125213,0.44617358137005314
63,0.4462345180770557,0.4472568000516584
64,0.44622319962428675,0.44616250302596366
65,0.4462351184399712,0.44612132974948837
66,0.44624609672716053,0.44658021752355115
67,0.4462181197038388,0.44667565951276356
68,0.446225427285272,0.44648879112735873
69,0.4462266848094915,0.44623795262637267
70,0.4462155156381137,0.44643628783616474
71,0.44620804779401246,0.4461679786813466
72,0.4462196698568808,0.44628030835251065
73,0.4462188727649546,0.4461138545431511
74,0.44621020060861516,0.44617141288504114
75,0.44623385548545863,0.4462738938722066
76,0.44619724180858655,0.446173694352654
77,0.4462356744869149,0.4460949885638121
78,0.44622185759961125,0.4461648891196949
79,0.446225837927915,0.44622179843651744
80,0.4462146349828594,0.4461144566388047
81,0.44620062966620055,0.4462979821945834
82,0.4462036473208417,0.446226162191656
83,0.44620750948702526,0.44640932090525
84,0.44620376351246915,0.4463049571212409
85,0.44621102001294033,0.44614821033501445
86,0.4462073590109539,0.4463337484423635
87,0.44619947443445623,0.44613964544336493
88,0.446203026827426,0.4461315199695805
89,0.446206422505088,0.44644436617347205
90,0.4461966282872285,0.4461896431505236
91,0.4462042476182845,0.446121746301651
92,0.44621212956916756,0.44627217844165584
93,0.4462047065080243,0.44614550954946514
94,0.44620477581288903,0.4468221895600075
95,0.4461920442411232,0.4463440871268289
96,0.4461970879228054,0.44618926694612054
97,0.4462056395655279,0.4480891284516668
