epoch,loss,val_loss
0,0.34472913276838246,0.338297710909737
1,0.3380956070685743,0.3371965717884802
2,0.3373012727669316,0.33757315059157816
3,0.33699711256565457,0.3364631663185195
4,0.3366436833019467,0.3368256350900636
5,0.3363325230553335,0.3359883048250421
6,0.33625570322352766,0.33745537413556875
7,0.3361330091704008,0.336091198504119
8,0.3360469005493648,0.3358229376394163
9,0.3360195415007305,0.3358977721731361
10,0.3359508920938723,0.3358615923016598
11,0.33591542510139694,0.3358759631294175
12,0.3358849948059249,0.3356769155923545
13,0.3358602201740949,0.335735419725366
14,0.33585839949598434,0.3357529647592871
15,0.3358165511361006,0.3356707020669658
16,0.3358221214252651,0.3355849811811897
17,0.33575403581913704,0.3355755293339713
18,0.3357727195068176,0.3355754405629842
19,0.335749690399467,0.33593659528135955
20,0.33572616142945866,0.33554873670596935
21,0.3357135164378942,0.3355878118841583
22,0.3357224890281164,0.3355939996745391
23,0.3357054987655761,0.3354723613552065
24,0.3357011163092406,0.33556774672740153
25,0.33567632441035655,0.33615615455151787
26,0.33563676224960715,0.3355933901246073
27,0.33567102134580357,0.33554309474919036
28,0.33565740354886775,0.33549139899000635
29,0.33562059767993013,0.33546189294559486
30,0.3356518299998709,0.3355140167933244
31,0.33563218645030585,0.33550731456900945
32,0.3356227351861391,0.3355733276892537
33,0.33560225722400433,0.3355464194755696
34,0.33562482791372866,0.3364877135966611
35,0.33558070247198646,0.33578609086147904
36,0.33558005055007906,0.33558265235524615
37,0.3355851329324598,0.33552094149234574
38,0.3355910020817948,0.33555234047970167
39,0.33558946676424406,0.3355910070037132
40,0.3355783069688778,0.3358732659378951
41,0.3355920155015618,0.3356659813938898
42,0.3355482111937366,0.33544911226031204
43,0.3355848418808992,0.3354920092054987
44,0.3355890961846058,0.3359676553357032
45,0.3355508934745349,0.3354490050754831
46,0.33552872126963945,0.3355938277676443
47,0.33554352060494996,0.3356404637432572
48,0.3355195656712836,0.33544738595893897
49,0.3355613527246258,0.3355561567595224
50,0.3355284922779513,0.33548461725339107
51,0.3355318917092521,0.33572739572738003
52,0.33552150910998807,0.3354135862207294
53,0.3355241247478223,0.3366918244225807
54,0.33552514940917944,0.33549376788269497
55,0.3355016779234457,0.33537062542610074
56,0.3355269544594208,0.33539845916828503
57,0.33552039010202184,0.3359572350091437
58,0.33552660181694616,0.336165803094064
59,0.3355101423844853,0.33540794350964853
60,0.3355239512687328,0.3355636935819763
61,0.3355180189496441,0.3365619082013076
62,0.3355172507714254,0.3356519238676682
63,0.3354853110292054,0.3360992021507424
64,0.3355098876872538,0.33560915119003126
65,0.33549802239237697,0.3354540142616622
66,0.335500861000774,0.3354920481333957
67,0.3355083227693207,0.3354733406609992
68,0.33547728266826565,0.3354826798805824
69,0.33549102037575923,0.3353728449226313
70,0.33549173314589903,0.335619361510052
71,0.33550919055129386,0.3354090773142301
72,0.3354730406162436,0.3355112140143184
73,0.33549145721223017,0.33540998408871314
74,0.33547791089377504,0.33558916631466695
75,0.33548050223530745,0.33552397878530893
