epoch,loss,val_loss
0,0.35293151330620354,0.3467612139640316
1,0.3468451646483517,0.3463950421467017
2,0.3461790795833355,0.34672001542583586
3,0.3458543304811029,0.3453222797762963
4,0.345342183643664,0.34576267001055017
5,0.34507650882271923,0.3489251402856103
6,0.34486110459633185,0.34513635222728434
7,0.34458742796522,0.3441557575100409
8,0.3445070698490305,0.3456783788079955
9,0.3444749401506784,0.34513266089536415
10,0.3443785734228446,0.3440397205778742
11,0.34419554702189104,0.34478557757645034
12,0.3442490523293853,0.3445841857724391
13,0.3441150535715811,0.3443383918062925
14,0.3440462207164231,0.3452691349291032
15,0.34388333379696173,0.3436173590329977
16,0.3438943275175741,0.34418925660715505
17,0.34383439429786566,0.34462518409523124
18,0.34381575743384163,0.34375638361308475
19,0.3437429778647144,0.34363470086388787
20,0.34370006503249945,0.3439041409391919
21,0.3437362451220838,0.3435372774565486
22,0.3436309617851904,0.3435155323953841
23,0.34361332492572727,0.34455843748289067
24,0.34368676613630805,0.3442300468017682
25,0.3436038577725893,0.3433611466926026
26,0.34356890989057337,0.345100867526407
27,0.3435751352719456,0.3434818180707785
28,0.3436354330497725,0.3437465044759935
29,0.34357208050727794,0.3437079957489932
30,0.3434627775071646,0.34340871285563956
31,0.3435857549842781,0.34358866449916925
32,0.3435058518890207,0.34369009947658474
33,0.3434530772975069,0.3432572380780582
34,0.34347099975970014,0.3439845490100662
35,0.343457647729227,0.3434597749715999
36,0.34346526465672356,0.34346620687480006
37,0.34344920160883663,0.3449731902656129
38,0.3434378684298291,0.34341857233650924
39,0.343453363753749,0.3459227719910387
40,0.3434461225589107,0.3438409185734931
41,0.34341103044715915,0.34404350066599126
42,0.34338084447937794,0.3433613120326333
43,0.34336597688637216,0.3447797753083203
44,0.3433861770492595,0.343197648208727
45,0.3433188884123949,0.34345346767612484
46,0.3433975156869579,0.3432169743418398
47,0.34339221858002966,0.3435453149875991
48,0.34334989302485974,0.3441720377274837
49,0.34334334874787037,0.34473768766997176
50,0.3433779150784371,0.3446836725210138
51,0.3433692836749327,0.344211469690498
52,0.34332873777959766,0.3433376463264153
53,0.3432927812439145,0.343484218880793
54,0.343324624056902,0.34352072753918084
55,0.3432760284222008,0.3433810084836359
56,0.34325034441309427,0.3437804518503232
57,0.3433591188293164,0.3433757200134599
58,0.34329902517024247,0.34437300052595493
59,0.3432983251893737,0.3436050862295752
60,0.343238404427234,0.34338118747505303
61,0.34328300842144127,0.34361842693229466
62,0.3432370369620615,0.3431897253019934
63,0.3432187455673032,0.3436749730897009
64,0.3432614514248129,0.3432301015179447
65,0.34322666452645395,0.34321775545849104
66,0.3433047886059546,0.34566529465668255
67,0.3432284034965602,0.3445187161637299
68,0.3432673220606946,0.3434578714092671
69,0.34326295992575584,0.343398723797526
70,0.3432114349555866,0.3431617299912881
71,0.3432587474942313,0.34317008838168445
72,0.34321723079793726,0.3434416968236786
73,0.34324079452529216,0.34377826728832633
74,0.343166727639089,0.34361312964713897
75,0.34319033850878694,0.3432226210906547
76,0.3431664895983586,0.3432223453267336
77,0.3431935463625193,0.34310995136242056
78,0.34321658622396417,0.3433673955074907
79,0.34317836299213417,0.3445684603366899
80,0.34318193311835543,0.34322771156396226
81,0.3432204475520178,0.347539427780336
82,0.343163233053419,0.34309146893823117
83,0.34316377085121763,0.3444817021082412
84,0.34308418550422676,0.34349430870477377
85,0.3432153267249134,0.34330288764856587
86,0.34314170414065087,0.3430834136441091
87,0.34312460520007143,0.34394810519206614
88,0.34313827704277994,0.34439278298217074
89,0.34308760999028765,0.3446935925826837
90,0.3431476979425842,0.34311509786113614
91,0.3430993109340001,0.3431610282094544
92,0.34318815093802096,0.3430055289795026
93,0.3431157251788341,0.34327923026924984
94,0.3431455772052843,0.3429412596574788
95,0.34306767138704236,0.3431576531223269
96,0.3431282457706197,0.34410831409115944
97,0.3431557701572424,0.3443341495529298
98,0.3431790267882719,0.34307457020797444
99,0.3431368612177081,0.34323203437973193
100,0.3431589232659059,0.3430033348482241
101,0.3430905467616444,0.3454026845637385
102,0.34310792401854817,0.34301657636763144
103,0.3431809152697127,0.34294941772893994
104,0.3431094271858295,0.34442722004637233
105,0.3431185446396107,0.3431627172838074
106,0.34310548337672,0.34301629276488615
107,0.34316672142864485,0.34319507630528057
108,0.3431628930724252,0.34447893617170916
109,0.34314744474964803,0.34329386412653673
110,0.34315189060331414,0.3431365089292266
111,0.3431251387658069,0.3430708441485838
112,0.3430955658535807,0.3434224949729058
113,0.3431084100909121,0.3432800713898822
114,0.3431511226329516,0.343114901772208
