epoch,loss,val_loss
0,0.09119758831189165,0.07700512276467851
1,0.07371593606237181,0.07120182891711407
2,0.06847666711448555,0.06654979428345749
3,0.06547924890609187,0.06493204238249113
4,0.0625363621612804,0.06090166229135345
5,0.06065766725327939,0.060125456534085735
6,0.05997268618188702,0.0585895387099931
7,0.05906324132806995,0.05874373421590618
8,0.05848661930170028,0.06498692878718412
9,0.058298356488574433,0.05816598940760859
10,0.05762327376580684,0.05681423789846986
11,0.05727429935836506,0.056086701149162525
12,0.05717202048200052,0.055518319141628136
13,0.056847676553588515,0.05639779979811413
14,0.05663648665378672,0.05696215283116395
15,0.05643236589620628,0.057566913784881386
16,0.05625206900686604,0.055490532889037804
17,0.055994303703711,0.055358651561417595
18,0.05594172939100858,0.05535846707542836
19,0.055883513900038866,0.055941434995855945
20,0.05586030766965647,0.05520802790451582
21,0.055642282820829725,0.05771652535898218
22,0.05559165360236024,0.05491227520162947
23,0.05554839328838162,0.055299202687391275
24,0.05535434801956552,0.05634963726139542
25,0.055486414914866444,0.05466051171753306
26,0.055422973609704766,0.05432080892527074
27,0.055205099662744096,0.05470560386259266
28,0.05514386788427098,0.05542443804905078
29,0.055115139203454504,0.05469017421859074
30,0.05495796799939763,0.05578539505526978
31,0.05482760373638993,0.054595305772484386
32,0.05484285753093762,0.05464309018206951
33,0.05487341329874835,0.05477563877296507
34,0.054869574591895294,0.054209130183416915
35,0.05471434926821257,0.05417101004948983
36,0.05467279894311398,0.055223895997622466
37,0.05469155912676463,0.05416696428439162
38,0.05468838678390682,0.055330822609420446
39,0.05461718307977418,0.05436609823155048
40,0.0547001144927807,0.053970953086321764
41,0.054468616377765657,0.05415795032794659
42,0.05442268121685608,0.053680215323015715
43,0.054334025432411746,0.0541464980183257
44,0.054325813137549875,0.05485987682126592
45,0.05427230930501635,0.05403723316659998
46,0.054382115136295844,0.05482518475863241
47,0.054375653847529626,0.05418455607948765
48,0.054168391561751454,0.054155934988417045
49,0.05424134907596805,0.05400196241755639
50,0.054066227752564436,0.05352857758200938
51,0.05413758067281272,0.055018358862503586
52,0.054178545805221405,0.053986377244995484
53,0.05405639731309617,0.05352056300078077
54,0.053917298035878344,0.05358249316218473
55,0.054028757506566445,0.053676484081496674
56,0.053953693824213084,0.05427100384242777
57,0.05403718117562549,0.055155520274236834
58,0.053994439994859054,0.05535870693420654
59,0.053887589246965836,0.053085027572239006
60,0.05393476959681918,0.05453924585143035
61,0.05377737700101443,0.054179604410681474
62,0.05388343720684356,0.05334101240739929
63,0.053621712843350676,0.05389686977634063
64,0.0535417292698721,0.053129958477860346
65,0.05366174278999743,0.053814002056201696
66,0.053529568191057315,0.05415482012827698
67,0.053531296988534184,0.052712732054311644
68,0.05349611908151454,0.05428480771058251
69,0.05342002555229419,0.0529291290577233
70,0.05342030385777212,0.05293144287527643
71,0.05344239939207059,0.05349467194849445
72,0.05336592099275171,0.05312402320484961
73,0.05331288521505664,0.052737914950173194
74,0.05318860628196047,0.053361237076834475
75,0.05323552180055624,0.05332410586605001
76,0.053323575821348154,0.05300155377232703
77,0.053155306380250636,0.05283249209151966
78,0.05319202851754393,0.05258335894893476
79,0.05308872173874918,0.05291098886107097
80,0.053167777159066086,0.054594723007667156
81,0.053081493679181586,0.05291265024810512
82,0.05311718775581066,0.05287637845532178
83,0.05308723607024018,0.052381838621483844
84,0.053091348461714385,0.053785680731753854
85,0.05304314497747801,0.05260456493563451
86,0.05308798217142651,0.053872877191151344
87,0.053067926697496,0.05447610530530844
88,0.052977687889219686,0.053552842190114795
89,0.05294692158820121,0.05280585690926086
90,0.052950574706836236,0.05230790561726016
91,0.05292485489163618,0.05276075372514003
92,0.05291756059180131,0.0530629872906001
93,0.052828894979026444,0.05259702945169681
94,0.05290627896956714,0.05329824715630884
95,0.05290443077816564,0.05304592732090512
96,0.05287080414447188,0.05293465674884858
97,0.05287644790297144,0.05233916736233323
98,0.052847049084381134,0.05352695350056842
99,0.05267252564495118,0.05321038939594926
100,0.05277519036776167,0.05255650019934101
101,0.05275245032234987,0.05321154280406222
102,0.0527068250560843,0.05274066580251488
103,0.052703297048775785,0.05369789757703433
104,0.052744001909378335,0.0525103864243841
105,0.05271774711200321,0.052497626471312404
106,0.05274181056983792,0.05280297819534247
107,0.052812492028116394,0.05275316165561416
108,0.05268678565499597,0.05354395673862166
109,0.052749407406374196,0.05293848542103696
110,0.05267372163860195,0.05499370100702305
