epoch,loss,val_loss
0,0.8399786969122955,0.8386565444487201
1,0.8377337330743913,0.8374079464387065
2,0.8374901863099962,0.8383715861192708
3,0.8372734846805759,0.8370865589335894
4,0.8371719432770721,0.837220760107632
5,0.8371035090325611,0.8369933812848983
6,0.8370437188893215,0.8369803564424254
7,0.8369608183290853,0.8370154373994833
8,0.8369101529840116,0.8370181929384805
9,0.8368382533006369,0.8368451861826421
10,0.8368080714730203,0.8373021966470382
11,0.8367806181515323,0.8368189042022743
12,0.8367655764156381,0.8367276355587223
13,0.8367484448917225,0.8370685790371954
14,0.8366989279550294,0.8367007436586669
15,0.8366969738241536,0.8367397987812979
16,0.8366692378623797,0.8367849785400088
17,0.8366607272986726,0.8366283734442282
18,0.8366434210319649,0.8366387159593643
19,0.8366570702668583,0.8369600620814056
20,0.8365989783326073,0.836562573495633
21,0.8366051145850744,0.8366533853280042
22,0.836571166013845,0.8366623047267828
23,0.8366089251662346,0.8372254054836245
24,0.8365639756692365,0.8367047076485589
25,0.8365612211664869,0.836559918411908
26,0.8365747661040984,0.8365714268116442
27,0.8365537321399831,0.8365668029702331
28,0.8365309997389078,0.8365327137871357
29,0.8365376258386759,0.8364966919049436
30,0.8365197474207031,0.8365339469673024
31,0.8365194173615899,0.8366544600751796
32,0.8365244417591844,0.8367695383635112
33,0.8364946894390363,0.8365702081259072
34,0.8365060539065184,0.8365720025067294
35,0.8365266450548454,0.8365051340524375
36,0.836487822144014,0.836670986121109
37,0.8365168246080551,0.8367639010064951
38,0.8364948992121095,0.8365183814287778
39,0.8365032461649675,0.8366682571157924
40,0.8364854801163553,0.8365061850169161
41,0.836498459479162,0.8366377701830332
42,0.8364721898164188,0.8369423635248511
43,0.8364877181409649,0.8366382689097384
44,0.8364656136778711,0.8365234072687608
45,0.8364687149597355,0.8368155889416451
46,0.8364860500139383,0.8366459862470035
47,0.8364563070398262,0.8365568106878484
48,0.8364719257877445,0.8366295672527909
49,0.8364534633971279,0.8364913804655335
50,0.8364569994250686,0.8368666711871144
51,0.8364594062944022,0.8365184727141046
52,0.8364575672267351,0.8367991140995072
53,0.8364527040758717,0.8365114882033753
54,0.8364615904333712,0.836631487735152
55,0.8364550666730136,0.8370427490168115
56,0.8364230292233821,0.8365251263672897
57,0.8364557592657178,0.8365045305221311
58,0.8364463274729854,0.8365379971546807
59,0.8364426564418377,0.8364461880168016
60,0.8364396110476597,0.836540146353227
61,0.8364359664982622,0.8365019446567034
62,0.8364464317111053,0.8364491441705386
63,0.836439861116442,0.8367275523784439
64,0.8364379728503513,0.8365385283903212
65,0.8364342848483545,0.8365528863062042
66,0.8364333094859966,0.8365050193985402
67,0.8364278414482882,0.8365626782104928
68,0.8364307738672856,0.8372663055400991
69,0.8364355688097553,0.8364575338127004
70,0.8364208848768497,0.8365174429884028
71,0.8364292998132852,0.8366351345040958
72,0.8364287364140686,0.8366062348001352
73,0.8364308409444995,0.8364947843196671
74,0.8364185446272097,0.8370881509248436
75,0.8364414500301334,0.8365052278225239
76,0.8363992910443127,0.8365323068486253
77,0.8364320950700529,0.8366178624387415
78,0.8364098167050578,0.8366902867854381
79,0.8364160471917259,0.8364726642816889
