epoch,loss,val_loss
0,0.09174333073662133,0.07670665113047394
1,0.07479100571290952,0.07077620262395655
2,0.0692520882774397,0.0662417593428278
3,0.06601503720566114,0.06243844908608988
4,0.06363772897572408,0.061040795633278175
5,0.06226814490757908,0.06080782057407772
6,0.06165081242335338,0.0600120518143952
7,0.06094876647177369,0.05981718184560463
8,0.06033460540511037,0.06237860476556546
9,0.06008021473360801,0.05992491554755431
10,0.059485571044727,0.05896329494475135
11,0.05891620099894173,0.05736135569754664
12,0.058070278972570916,0.05898631288492059
13,0.05775223830096454,0.0576536897283334
14,0.05743886255246199,0.05816280968653653
15,0.05734158207601109,0.05762996837570709
16,0.057208175273791774,0.05767153044307498
17,0.056967238344512325,0.056899674845022834
18,0.056861146342400415,0.05702455305394996
19,0.05670164754554998,0.05579738474402475
20,0.056674850384712816,0.05757402602222658
21,0.056622335149816565,0.056945833171863414
22,0.05658084759820872,0.05671139120981652
23,0.05643147011978166,0.05610314222334632
24,0.05633509661428699,0.055426291330132826
25,0.05624024013992581,0.056277146924370275
26,0.056111914029258664,0.0559514289236542
27,0.056141062011956,0.0557395719121171
28,0.05597906862265706,0.055441611384043916
29,0.0559382754753466,0.05655990654866098
30,0.055853162373693165,0.05572729255477193
31,0.05586650996878277,0.05617684553338044
32,0.055894825010148794,0.05580165558136427
33,0.05584261021017062,0.05598359680538142
34,0.05575401384674666,0.05618178049476803
35,0.05578702254780739,0.055970900958732105
36,0.05563207886812058,0.0555558214560336
37,0.05547255405369597,0.055843548957378635
38,0.055502124115245105,0.055830347144204394
39,0.0554221489241997,0.05509629958949373
40,0.05548348531888787,0.055551779765644974
41,0.05544533065811514,0.05519862873086858
42,0.05534399072852196,0.055459071085707426
43,0.055284824930053045,0.05516773852018209
44,0.055096342895664674,0.05544711188702074
45,0.05516687544727001,0.05492418121463312
46,0.05498807405139213,0.05503803535963111
47,0.0550860797010238,0.05530867927497433
48,0.05493683148047244,0.05535737870274939
49,0.05486429500119217,0.054367971786346385
50,0.05482327699488896,0.054930607828475704
51,0.05476804414992289,0.05509258628852906
52,0.054664504239028876,0.05533266985978441
53,0.05478033797091668,0.05457149119146409
54,0.054676608322198735,0.05624974580763587
55,0.05466990407805614,0.05558132077417066
56,0.05452856094304162,0.054758985187146565
57,0.05451055913792347,0.05408395290300805
58,0.05461957892735424,0.05440668540616189
59,0.054521656048648164,0.05474442819840559
60,0.05462998340126689,0.05472325879165316
61,0.05447181104091073,0.05413852796217348
62,0.05443225252484326,0.054781330844604646
63,0.054534843353534715,0.05467307367373637
64,0.054454876449967285,0.05406942208188935
65,0.05440736797424601,0.054110009079017946
66,0.054391769024879175,0.05449176655513773
67,0.054404165044379,0.05420410674499815
68,0.05434964994538214,0.05443524322368519
69,0.05433521223858091,0.05381715366103809
70,0.054369019176650504,0.054128439349143145
71,0.05421679635688228,0.05429233087055736
72,0.054287735138844904,0.054423177384635056
73,0.05414183875411882,0.05441004773671219
74,0.05410132504654722,0.05382565845996511
75,0.05414405812057593,0.05397247152019375
76,0.054133223980985475,0.054122302457505364
77,0.054164504697185596,0.05403128044111261
78,0.05414635132721596,0.054114799038795916
79,0.05421872760700841,0.05402523213835715
80,0.05418936620226669,0.05395825982981225
81,0.05406830666885747,0.053785577152044545
82,0.054014233745120536,0.054086229800438465
83,0.05408984219994319,0.054808589812395885
84,0.054173972472536455,0.05392756967183674
85,0.054031659074050664,0.05347853427193597
86,0.05398692218596293,0.053752563518492814
87,0.05397985498911508,0.054382133391447755
88,0.0540938610083693,0.05447781913481634
89,0.05407203050465541,0.054291442088394544
90,0.05406966392395597,0.05421153473536075
91,0.053984298229393435,0.053966701154599415
92,0.05408660020693582,0.05385315864908488
93,0.05396280691646477,0.05395411743086857
94,0.05392203154386859,0.054501932104194434
95,0.05404824117870742,0.05423368351815948
96,0.053751125697457845,0.05388828086350159
97,0.05387856354864114,0.05438962097906001
98,0.05385475701559003,0.05350297353144911
99,0.053946960119359996,0.05346248102358198
100,0.053836012995472145,0.05442841501153137
101,0.05387410295404461,0.054219538383832935
102,0.05383479144245777,0.05399435763212646
103,0.0537563753716557,0.05399780730085988
104,0.05388028709365639,0.05417512835699039
105,0.053910996374083246,0.053782525388685706
106,0.05398539784066681,0.05398019301351483
107,0.053802136673260635,0.05405803272505256
108,0.053742079179246345,0.05363730695237297
109,0.05386426086146441,0.053998837257659166
110,0.053734127299634095,0.05407497834220122
111,0.053708105435967955,0.053580154506281646
112,0.05372915668725246,0.054073591813186266
113,0.053855704083667785,0.05384708383760736
114,0.05381303045856424,0.05415743450742797
115,0.05370645109070605,0.05442505364974143
116,0.05365912409175646,0.05374043351663253
117,0.05370995870335544,0.05393453835701528
118,0.05360003116523318,0.053995956737483405
119,0.05379038140157217,0.05361811042793335
