epoch,loss,val_loss
0,0.3022274285327309,0.29896117956111806
1,0.29199137120010804,0.2893696353098299
2,0.29045225694290255,0.2885838475180027
3,0.28940410809272304,0.2885301148477322
4,0.2887992409298052,0.2909262654355383
5,0.28838737329784375,0.28732689453413707
6,0.28821744396074706,0.2891090533721536
7,0.28802108867708837,0.2886878739663448
8,0.2877228612536036,0.28669948305740545
9,0.2874586399554342,0.28672945705004427
10,0.28739753508688975,0.2865352776890653
11,0.28721761606504786,0.28661947201558435
12,0.287053850065622,0.2869343249289037
13,0.28693239265643317,0.2860836537393092
14,0.28677760771135563,0.2866760859122643
15,0.28677940347669517,0.2863477594947105
16,0.286551570855969,0.28899894554916744
17,0.2865954614647505,0.28629779873355743
18,0.28656639173457105,0.2866691180405487
19,0.2864814267715926,0.2858458896576619
20,0.2864790336519282,0.2857740724796693
21,0.2864118998754419,0.28597108057651566
22,0.28633901330059125,0.2862966356295214
23,0.28635092717623933,0.28558748873232614
24,0.2863501170678596,0.2857596511876317
25,0.2863338674569849,0.2951692020774775
26,0.2862935512778767,0.2887112364727569
27,0.28623118958953636,0.28610635466374473
28,0.2861808686314561,0.28588496269126684
29,0.2862116498509407,0.2864995419387486
30,0.2861649741802067,0.28545587608595346
31,0.2861283004526075,0.2854742918505562
32,0.2861664661595382,0.287430030284981
33,0.28611961934977354,0.28551314181784543
34,0.2860241487240271,0.28797038617560056
35,0.28616244178109784,0.28596036278876125
36,0.2861289766159932,0.2856670588920489
37,0.28600033286037135,0.28624055520180736
38,0.2861206880316863,0.2859013209863573
39,0.28599719958600317,0.2857739672027806
40,0.2859822407681757,0.285523796081543
41,0.28604874394477986,0.28703957092081644
42,0.2860433857076131,0.2860263172509357
43,0.2859622906586884,0.2854394188737751
44,0.2859139098073025,0.2875053591822868
45,0.28592460039505657,0.28780751961928147
46,0.2858802048254208,0.2866586448536913
47,0.2859524797129389,0.2857227690610341
48,0.2859870458656249,0.2860258952263863
49,0.28593788214685667,0.28687911199280997
50,0.28590047437126687,0.2869465258074162
51,0.28588826083794294,0.2851145412578772
52,0.2858238197252056,0.28542744603109715
53,0.2858150897875977,0.2854191649492562
54,0.28595813200789033,0.28597743219832333
55,0.28586962169183905,0.285583493446298
56,0.28575413392869314,0.2854075932177361
57,0.28584525476071737,0.2855919466864678
58,0.28596696147391953,0.2860888045715635
59,0.28586962549399075,0.2853805988953072
60,0.2857820118858469,0.2856131893381587
61,0.2858076938917243,0.2862618861068271
62,0.28577752746163904,0.2857222173852897
63,0.2858088573683006,0.2854539788686312
64,0.28580846989117425,0.28697687449585413
65,0.2857715573955451,0.28525487861917276
66,0.28572837426859937,0.2851807569155918
67,0.2858873428403523,0.2851650581762158
68,0.2857633565955858,0.2859246217287504
69,0.2857642728112137,0.2852908372583224
70,0.28573665039967605,0.2855939655682585
71,0.28580170114327097,0.28538233120151546
