epoch,loss,val_loss
0,0.6192430250027284,0.6138125363118003
1,0.6144003409501999,0.6151194991899779
2,0.614077992299395,0.6133245892027768
3,0.6136719871835127,0.6132939646616763
4,0.6132986557805358,0.6132464662083326
5,0.6129355025066469,0.6140698392692926
6,0.6127021495098582,0.61213924875922
7,0.6124597759869432,0.6119108848772925
8,0.6122987497308975,0.6116939852018806
9,0.6121843525881588,0.6122970341748695
10,0.6121247655863141,0.6122536601854613
11,0.6119970376002378,0.6116411924362183
12,0.6119587046471434,0.6117378874097213
13,0.6119001174589631,0.6117724529566895
14,0.6118475208961053,0.6121853253681666
15,0.6117934580657698,0.61254124360404
16,0.6117419335771801,0.612101643286627
17,0.611700303216664,0.6117816874762031
18,0.6116750241154197,0.6128348376555715
19,0.6116277584343511,0.6115391944833193
20,0.611579216625734,0.6114052303079932
21,0.6115752738417066,0.6121089823192757
22,0.6115243390747406,0.6113193333001053
23,0.6115238103460994,0.6123807065540153
24,0.6115018081317009,0.6117346636414823
25,0.6115346675197679,0.6123088001021676
26,0.611409069424948,0.6130597555903584
27,0.6114631312021979,0.6116288262916262
28,0.6114042513453594,0.6112752348554341
29,0.6114090614183422,0.6115558678695641
30,0.6114027374831458,0.6118258007998502
31,0.6113845070214189,0.6122790047311901
32,0.611389336855336,0.6112210960009553
33,0.611408492334041,0.6112828534235137
34,0.6113777540552062,0.6118942817742417
35,0.6112886741172674,0.612043858905584
36,0.6113152343566967,0.611272495349051
37,0.6113273002257271,0.6132372290857376
38,0.611301465044014,0.6124244763892578
39,0.6112971029007924,0.6114634244081104
40,0.6113214236831002,0.6110685268347672
41,0.6112040291542654,0.611581492157787
42,0.6112274839318298,0.6116465309713378
43,0.6112489126933968,0.6112453430521281
44,0.6112296281016647,0.6112435396492629
45,0.6112210393256453,0.6109665868300066
46,0.6111961007354874,0.6116044929838063
47,0.6111855828620538,0.6118303382071313
48,0.6111637969561698,0.611880998280149
49,0.6112496065734686,0.6116089398156916
50,0.6111523828990053,0.6111961197912249
51,0.6111756034419352,0.6110227783323813
52,0.6112244327934052,0.6111214508785503
53,0.6111655546364914,0.6110702553694657
54,0.6111936669426596,0.6112043278684687
55,0.6111403287432842,0.6113437007437864
56,0.6111568382209758,0.6112417710034487
57,0.6111074503562908,0.613224242047104
58,0.6111583640370913,0.6110896502180075
59,0.6111039603801383,0.6112042640633973
60,0.6111091657964418,0.6117612408349296
61,0.6111657488672833,0.6117798493754479
62,0.6111199854621201,0.6110760689373348
63,0.6110991393479657,0.6127387166319059
64,0.6111173612043662,0.61227961541997
65,0.6111195664910294,0.6110256378171461
