epoch,loss,val_loss
0,0.6719517478717456,0.670786629125439
1,0.668802351267906,0.6688867049536693
2,0.6685207090389672,0.6694233127622391
3,0.668373944882079,0.6682614356944934
4,0.6682490042108485,0.6684480420413147
5,0.6681782842263012,0.6680266971919436
6,0.6680932223944356,0.6683066157194284
7,0.6680604857511858,0.6679348133633806
8,0.6680077159025013,0.667893966995457
9,0.6679854905688458,0.6678644146576117
10,0.6679643833896447,0.6681587188770398
11,0.6679427867378357,0.6679478995557458
12,0.6679439704872958,0.6678450098700323
13,0.6679137540987509,0.6678244168350181
14,0.6679173552491894,0.6680737735911575
15,0.6679111078768656,0.6678372328985418
16,0.6679018581109646,0.6678678054963388
17,0.6678853121886231,0.6678336230460231
18,0.6678822375060444,0.6678309463685559
19,0.6678709461787095,0.6677701249607739
20,0.6678698128929534,0.6677573095776012
21,0.6678710198639368,0.6677862433878423
22,0.6678638752461192,0.6680274438917193
23,0.6678514538695903,0.6678570678452996
24,0.6678663480551766,0.6678806265293812
25,0.6678530259954407,0.6678111294954645
26,0.6678538711553998,0.6678754177637787
27,0.667859718478254,0.6679397993288916
28,0.6678559483545126,0.6678656268060651
29,0.667842540706921,0.6678391127373385
30,0.6678454287464459,0.6677298019896666
31,0.6678302329681882,0.6678692870045418
32,0.6678303726388914,0.667935582633054
33,0.6678366129527809,0.6677612903100385
34,0.6678322542598938,0.6678800087412888
35,0.6678364083552092,0.667733644995441
36,0.6678219232424977,0.6677797474872977
37,0.667808271387906,0.6681050724486264
38,0.6678147725546474,0.6677296048358415
39,0.6678037283766417,0.6677118146389944
40,0.6678120355331189,0.6677285463283434
41,0.6678012686077026,0.6679236729150966
42,0.6678007332489607,0.6677438522982538
43,0.6677985027892132,0.6677997940231494
44,0.6677969765652735,0.6677231437810893
45,0.6677903258690544,0.6677326443177595
46,0.6678024087176111,0.6681049195471828
47,0.6678044499508925,0.6677868577741808
48,0.6677910551651441,0.6679209426082393
49,0.6677912090702516,0.6678945134058779
50,0.667801848671703,0.6679629140988769
51,0.6677885127325355,0.6677415312667638
52,0.6677858002167426,0.6677462184103784
53,0.6677777294050153,0.6679563306105639
54,0.6677846216309518,0.6677876665337802
55,0.6677813152214231,0.6678117811827743
56,0.6677776209277329,0.6676918986121715
57,0.6677836735991232,0.6678737582698945
58,0.6677808085531504,0.6678102648287789
59,0.6677782916296667,0.6677077977888046
60,0.6677673104671987,0.6677950351173174
61,0.6677664170569875,0.6678919449929268
62,0.6677726343173738,0.6678452849979732
63,0.6677683412904871,0.667698671030939
64,0.6677750597983191,0.667917473026304
65,0.6677708082204082,0.6681129611455477
66,0.6677690233073721,0.667732190612528
67,0.6677725789148167,0.6677879919780987
68,0.6677625034162166,0.667709696529521
69,0.6677699149624408,0.667769781383628
70,0.667767366346997,0.667726444310645
71,0.6677553317360713,0.667740966693935
72,0.6677636896323423,0.667776917346358
73,0.6677623427563736,0.6679043636132707
74,0.6677602958340634,0.6677449865909132
75,0.6677528940227676,0.6677828875428098
76,0.6677696815750077,0.6677040756488261
