epoch,loss,val_loss
0,0.6795001641278534,0.6748153727344485
1,0.6751970021410526,0.6741847019633348
2,0.6744072804967072,0.6761889075227174
3,0.6739986042461685,0.6746865995764436
4,0.6737392831122575,0.6733001490088906
5,0.6735365267428528,0.6731488517437029
6,0.6733282806658413,0.6729649105971268
7,0.6731505463241046,0.6728396868587427
8,0.6729943413195256,0.6735893905014909
9,0.6729171836428726,0.6734878796501728
10,0.6728307003316149,0.6736821337609965
11,0.6727787674098898,0.672557716629937
12,0.6727114280375699,0.6729561700122824
13,0.6726470149163999,0.6726406045054679
14,0.6726583625234689,0.6725029050268547
15,0.6725753110959025,0.6727243486172508
16,0.6725558138487191,0.6725671272419819
17,0.6724944696461604,0.672380927656188
18,0.6725076780570566,0.6726267552849081
19,0.6724988883373176,0.6723827707560424
20,0.6724329161446144,0.6726177873149994
21,0.6724300575615106,0.672800398642017
22,0.6723973349696569,0.6723962425889803
23,0.6723684209095879,0.672239909544772
24,0.6723365159712553,0.6725493492027075
25,0.6723429797183552,0.6722218070077541
26,0.6723225384789322,0.67244624224845
27,0.672352064331248,0.6725994762652565
28,0.6722869080172024,0.6725981370982698
29,0.6722925733984186,0.6723522017079014
30,0.6723161017113332,0.672297899155108
31,0.6723029241609724,0.6723950066874104
32,0.6722126236928828,0.6722922345248996
33,0.6722286254555265,0.6721930659438481
34,0.6721928374190607,0.6721964868659122
35,0.6721987261143744,0.672322248110996
36,0.6722050063548012,0.6724287663440847
37,0.6722263274933867,0.672134734383292
38,0.672186073348514,0.6727594544810633
39,0.672186509923094,0.6722843846967144
40,0.6721742987037975,0.6724078549640646
41,0.6721753899607891,0.6721221555551288
42,0.6721823913526548,0.6720664570704288
43,0.6721035175290608,0.6723705034693772
44,0.6721568954940528,0.6722857106412314
45,0.6721486112759097,0.672147861810831
46,0.6721501119426058,0.6721663748064349
47,0.6721339941196744,0.6720563389527295
48,0.6721396776108076,0.6725100505440762
49,0.6721538029074412,0.6723732691544753
50,0.6721418474562104,0.6721290924413033
51,0.6721192836032598,0.6723542032407472
52,0.6720945340242178,0.6725468792039763
53,0.6721171239045537,0.6721162897481516
54,0.6721000266883526,0.6720853426616186
55,0.6721277783336079,0.6723710654391248
56,0.6720903990035562,0.6725149528264408
57,0.6720588931136701,0.6730835479778924
58,0.6720908824842251,0.6720623744332761
59,0.6720773534967192,0.6720614733826138
60,0.6721036690826715,0.6721778394862381
61,0.6720839831769783,0.6721755168869833
62,0.6720409069543916,0.6721748198232343
63,0.6720749826586895,0.6725395476256055
64,0.6720531743406197,0.6720529790255922
65,0.6720598349437317,0.6721004826555181
66,0.6720376456114048,0.6720356194316306
67,0.672041091175743,0.6721740826483695
68,0.6720516260791877,0.6721293851992037
69,0.6720549760848823,0.6733662259194159
70,0.6720026441525745,0.6721081187648158
71,0.6720240734994519,0.67288684989915
72,0.6720666386189739,0.6719875432125688
73,0.672030518075661,0.6719844501308413
74,0.6720035195309628,0.6733941062804192
75,0.6720363400021926,0.6723459008905491
76,0.6720487584419143,0.6724768798345372
77,0.6720042770402807,0.6720376728781992
78,0.6720640174250285,0.6723547976898496
79,0.6719973394188611,0.6723306627782344
80,0.6720008172612589,0.67254954304352
81,0.6720153753531967,0.6724590366294899
82,0.6720339052675041,0.6725883961019682
83,0.6720227731659225,0.672158519890409
84,0.6720003674272663,0.6734127483651893
85,0.6720141720494753,0.6723025782824155
86,0.6720181181805005,0.671969558464978
87,0.6719667815844685,0.6724294483809554
88,0.6719900083165441,0.6725185809301087
89,0.6719525336211116,0.6720235185942638
90,0.6720337173284056,0.6725397422355103
91,0.6720246674752258,0.6722306163080277
92,0.6719712127548871,0.6719735108593261
93,0.672003731585327,0.6719711213490508
94,0.6719935098143208,0.6723754159865841
95,0.6719633889678542,0.6721927090554912
96,0.6719420478293194,0.6720251205245555
97,0.671978998587453,0.6720959383559878
98,0.6719503962904169,0.671992377903562
99,0.6719840420683785,0.6721959829922054
100,0.6719651336845736,0.6721052173645266
101,0.6719641822599951,0.6720064621113666
102,0.6719764828235469,0.6722498949940684
103,0.6719577063641526,0.6732327356527816
104,0.6719812632523674,0.6720071654165944
105,0.6719941931438159,0.6719732380386617
106,0.6719705645550654,0.6720171689987182
