epoch,loss,val_loss
0,0.544430000773399,0.537498680504025
1,0.536389140154092,0.5356785647626551
2,0.5356799513801663,0.5352822291939785
3,0.5350215222557211,0.5406064468341193
4,0.5345560561446158,0.5344546259189066
5,0.5343427664249691,0.536103786339535
6,0.5341554021147784,0.5337320992431924
7,0.534105491370613,0.5339306645890324
8,0.5341186726379321,0.5374110531570302
9,0.5339688467526013,0.5347876072225737
10,0.5337360226982263,0.5347034851019791
11,0.5337570492063378,0.5343575653603887
12,0.5336172920830144,0.5334763897263974
13,0.5335601262937659,0.5355863347834452
14,0.5336639947813677,0.5356958993019596
15,0.5334920118433473,0.5338172612651702
16,0.533506935531107,0.5359161887216213
17,0.5333101341903649,0.5346931828162806
18,0.533391659699268,0.5336006883356175
19,0.5333718176395184,0.535626128471223
20,0.5331559561357558,0.533841511599775
21,0.5331600932665328,0.5330160406328017
22,0.5331330859540097,0.5331690122708493
23,0.5331304860039955,0.5339171112027417
24,0.5331458999153272,0.5329472000486501
25,0.533137837031323,0.533212206115202
26,0.5330041202965466,0.532924480976597
27,0.5330169146736276,0.5333519338969853
28,0.53295567872038,0.5327696824192113
29,0.5329779780847695,0.5356106379783478
30,0.5329153853731141,0.5341940816815378
31,0.5329713641124456,0.5331894778732035
32,0.532920435728677,0.5327902344261151
33,0.5328197881613516,0.5328579429657229
34,0.5328614495251809,0.5339526335595559
35,0.5328626904899252,0.5345036290715409
36,0.5327543255768837,0.5354883927861159
37,0.5327666853672316,0.5331362145118619
38,0.5327301196164034,0.5326679201339078
39,0.5328478340560769,0.532757563123632
40,0.5327135262570916,0.5328133108893932
41,0.5326947598733994,0.5326670811726497
42,0.5327550919660402,0.5329519256172938
43,0.5327194756803413,0.5355496358339011
44,0.5328185159053718,0.5326052890226208
45,0.5326936982305948,0.533327920620258
46,0.5327366459822604,0.5328015210019151
47,0.5327835087030837,0.5328302504998579
48,0.5326291565943294,0.5332555671483648
49,0.5327318602469929,0.5326616195827797
50,0.5327646325760399,0.5328337078650596
51,0.5325732282910929,0.5357374255177992
52,0.5326743425141715,0.5336319662205339
53,0.5326270406921517,0.5332152487918106
54,0.5326831174402271,0.5325749873227577
55,0.5326862493191582,0.5331733175601912
56,0.5326825567813995,0.5324678217802686
57,0.5325049819659597,0.5328132209943482
58,0.5326333348837934,0.5327652444910471
59,0.5325596700459504,0.5326609505317347
60,0.5326143717939665,0.5330105402333565
61,0.5326553887104297,0.5331348618266009
62,0.5326314785139694,0.5325960706244627
63,0.5326916954700405,0.5357184192678769
64,0.5325303569066705,0.5338382871511852
65,0.5326035931678622,0.5343830975350317
66,0.5326282241773543,0.5404707814860285
67,0.5326390195013732,0.5330821641325655
68,0.5325327071744281,0.5355521516527787
69,0.5326122976073886,0.5350410136040624
70,0.5324702859074744,0.5325236628428286
71,0.5326377718102911,0.5324256111907012
72,0.5326219040561421,0.532469596105533
73,0.5325090926899252,0.5324680863184018
74,0.5326810759261228,0.5327880288767756
75,0.5325548589127825,0.535606598410358
76,0.5325853724355419,0.53254150882844
77,0.5325474456626895,0.5349274140433697
78,0.532536192655049,0.5325704715979602
79,0.5325898942991121,0.5328857554395501
80,0.532472647017675,0.5325080672505476
81,0.5326489066238639,0.5324681064331206
82,0.5324974455285167,0.5325317728016572
83,0.5325594047078214,0.5327399328979606
84,0.5325057950119355,0.532590214431138
85,0.5324898643818713,0.5324415475499837
86,0.5325147623923421,0.5338435347855239
87,0.5324743771623719,0.5325636317948845
88,0.5325031723657575,0.5333195638419972
89,0.5324943247862616,0.5341082757519138
90,0.5324572655658334,0.5324876812196547
91,0.5324646594383625,0.5325518516689612
