epoch,loss,val_loss
0,0.8382123835019055,0.5337668745092643
1,0.532115644570777,0.5323291065156922
2,0.5317601784871222,0.5344548049823258
3,0.5319709012366697,0.5317163037699323
4,0.5313847226689953,0.5314902732538622
5,0.5328237830206405,0.5361181474471277
6,0.5323351469150809,0.5320220959278964
7,0.5314104643286969,0.5314448055370834
8,0.5313374284625978,0.531543261321016
9,0.5313873312578029,0.5314545076946879
10,0.5312306860928696,0.5314590917077175
11,0.5313470389799863,0.5316757453504459
12,0.5321704010630763,0.5395898911380028
13,0.5336112290697812,0.531817424666974
14,0.5312652621774402,0.5316802508147188
15,0.5312148323354795,0.5314741264017977
16,0.5312321805214697,0.5314713240593902
17,0.5312457546707272,0.5315031936002332
18,0.5313249965046727,0.53202345574549
19,0.5325743808610803,0.5319486010906308
20,0.5316568110956394,0.5315014350321866
21,0.5314041043436805,0.5314395996027215
22,0.5317631656501336,0.5314411470132281
23,0.5311671894342093,0.5315826918727667
24,0.5312633231012704,0.5317597504734068
25,0.531353208137729,0.5314924217933832
26,0.5312113785004431,0.5314951492834461
27,0.5314765458575207,0.5314419218736102
28,0.5313399565004255,0.5314612393231355
29,0.5313864621389128,0.5314993336219196
30,0.5365310711762086,0.5337170237718627
31,0.5260566705573129,0.5216132725856101
32,0.5215821914586602,0.5215583286544149
33,0.5212866072506868,0.5219486822453581
34,0.5213409893272459,0.5214673881382905
35,0.5212002732340988,0.521495828332827
36,0.5216313542013636,0.5221998686938323
37,0.521670494430749,0.5217783779136894
38,0.5214937110587916,0.521591538606688
39,0.5214474704838539,0.5214697755584421
40,0.5213035828691428,0.5214737108511518
41,0.521457565539259,0.5214825411175572
42,0.5219062896353945,0.5220290759737177
43,0.5213912679243458,0.5214970236600831
44,0.521606036550931,0.5216781801955644
45,0.521506123456536,0.5217769635740177
46,0.516502785590268,0.5132912147876828
47,0.5121287227601043,0.5118492347325465
48,0.5113463671324481,0.5118033280668333
49,0.5115007702694383,0.5115069095478502
50,0.5114993603962644,0.5115020436833996
51,0.5115070110451652,0.5116292529327925
52,0.5112913186235946,0.5114955791207247
53,0.5112596192717244,0.5114965665248014
54,0.5119440909812001,0.5117141992546791
55,0.5114565912143204,0.5121044340983841
56,0.5116867584775585,0.5119780509970909
57,0.5113202017715119,0.5115622425264166
58,0.5114349180721806,0.511494192042092
59,0.5112718679492172,0.5116430253021477
60,0.5113056915058954,0.511842203232669
61,0.5114820474802062,0.5128594396650329
62,0.5113488387999917,0.5115872362787409
63,0.5117892342636443,0.5153458899305773
64,0.5120491895256732,0.5118897118309672
65,0.5117381761856473,0.5115193992622139
66,0.5113160443860431,0.5115101060201955
67,0.5113623002086807,0.5114955255227496
68,0.5113122135169746,0.5116514674452848
69,0.5128291808357535,0.513012312179388
70,0.5120201412713496,0.5117782927298731
71,0.511604555355486,0.5121419485225234
72,0.5113725127791866,0.5115449451660925
73,0.5118517173353092,0.5119123421898184
74,0.5119173736227267,0.5122036744457806
75,0.5113232925880787,0.5114939536235129
76,0.5113321096090075,0.5118163191070852
77,0.5114572655014905,0.511531650095947
78,0.5114570997790157,0.511490709559862
79,0.5113890699329918,0.5117354619410611
80,0.5114120938057123,0.5121918602507244
81,0.5113168831635507,0.5116786711899809
82,0.5113238642998136,0.5115430567615716
83,0.5115206845354973,0.5128646700881249
84,0.511524698684998,0.511902110983235
85,0.5114827507226042,0.5116215274315472
86,0.5115080213978,0.5120302789895109
87,0.5113661715842649,0.5117851916209671
88,0.5114565425448947,0.511510293151057
89,0.5115069421994902,0.5116430516390837
90,0.5113818021707757,0.5115829886392106
91,0.5113125141584904,0.5120014594506848
92,0.511444089948669,0.5132910461388818
93,0.511632183109451,0.5116671952166298
94,0.5112817188874079,0.5114947113879892
95,0.5120465362718863,0.5115080369535343
96,0.5114289486747071,0.5115737744080003
97,0.5113575524753995,0.5115199990050737
98,0.5113286369838764,0.5126949012741562
