epoch,loss,val_loss
0,0.7213182947683012,0.7201558337909708
1,0.7179361934156132,0.7174998661424623
2,0.717596453015948,0.7172455315850212
3,0.7172564324324078,0.7174300804623304
4,0.7171250148532683,0.7170198755879555
5,0.7170074759720352,0.7168777190721952
6,0.7169398632936329,0.7170997474684608
7,0.7168726634019087,0.7167376647220356
8,0.7168738636181565,0.7169455447800402
9,0.7167642372008631,0.7166616593341969
10,0.7167688332000816,0.7168548228131334
11,0.7167228776442665,0.717537330900765
12,0.7167006998887816,0.7166653098302799
13,0.7166832855747028,0.7166207058553956
14,0.7166357176501796,0.7169549810383515
15,0.7166236308464385,0.716824810735641
16,0.7166213179833347,0.7166828648919799
17,0.7166119196037856,0.7169249775983559
18,0.716569457531253,0.7167473642761003
19,0.7165636380493,0.7168234771297824
20,0.7165561222121045,0.7165050030346248
21,0.7165366629438418,0.7168569159271108
22,0.7165411886095636,0.716599245313971
23,0.716510278497135,0.7167580993536389
24,0.716547875257415,0.7165287996344176
25,0.7165141378160432,0.7164057684595473
26,0.7164774512877351,0.7169554923367559
27,0.7164948533300141,0.7164172339380231
28,0.7164881835883279,0.7164339028280367
29,0.716464755897545,0.7165203717447096
30,0.71645919840199,0.7164258940639922
31,0.7164410525689037,0.7164575075689084
32,0.7164541914169883,0.7164355075388925
33,0.7164230331778724,0.716448106629677
34,0.7164183631013789,0.716385024504981
35,0.7164248802505676,0.7164279828296406
36,0.7164090071039892,0.7164283396292561
37,0.7164245519765725,0.7163841068596757
38,0.7164090754133527,0.7164563812629756
39,0.7163650331484129,0.7165621695684145
40,0.7163816106956643,0.7163489020196143
41,0.7163729918929008,0.7165341961176757
42,0.7163678544278329,0.7163487724275802
43,0.7163714817989194,0.716616892548412
44,0.7163524758347044,0.7165293975148544
45,0.716365714284177,0.7164045338003571
46,0.7163662784319914,0.7163899642953802
47,0.7163439057192039,0.7165293285332011
48,0.7163685458964569,0.7164617719780423
49,0.7163530821611608,0.7163789671348875
50,0.7163439173496864,0.7163556510106506
51,0.7163705375779198,0.7164278861606683
52,0.716365536032677,0.7163619643997022
53,0.7163376240367992,0.716877288735534
54,0.7163530529603198,0.7163608080400131
55,0.7163463791246154,0.7165208580476179
56,0.7163279872820566,0.7163284757297033
57,0.7163186450465632,0.7163291077755817
58,0.7163323145007,0.7163578947779559
59,0.7163351603410736,0.7164069687758131
60,0.716326569587462,0.7164975736040631
61,0.7163205337047015,0.7163201795618233
62,0.7163296579128239,0.7163369137655121
63,0.7163055753858079,0.716338849067688
64,0.7163362743052726,0.7164799026165056
65,0.7163267659788543,0.7164093581086057
66,0.7163245222581165,0.71685446929695
67,0.7163354054781021,0.7163974485089702
68,0.71629786102344,0.7167330633026199
69,0.7163221715872676,0.716418366692498
70,0.7163019437298067,0.7163392492322709
71,0.7163048750972961,0.7164680049673795
72,0.7163150859998278,0.7164719985377404
73,0.7163119831261082,0.7163997673515055
74,0.716304588983011,0.7163104910412734
75,0.7162934687020195,0.7166109254579095
76,0.7162813559971057,0.7164822752659138
77,0.716295910381551,0.7162951153797784
78,0.7163013623531963,0.7163493031011917
79,0.7163107770851531,0.7164285604474562
80,0.7163011464233192,0.7163136385510637
81,0.7162923606650753,0.7163743128551738
82,0.7163075240958565,0.7163896265160061
83,0.7162829075542618,0.7167452209936478
84,0.7162916276591267,0.7168852843066895
85,0.7162860803284115,0.7163150018261325
86,0.716290667627644,0.716313338900914
87,0.7162869169138084,0.7167324380306689
88,0.7162863824661629,0.7163083995542219
89,0.7162985998438409,0.7164690319125173
90,0.7162979791583455,0.7162668577198946
91,0.7162914090708987,0.7163185634920674
92,0.7162785215900075,0.7168082005628581
93,0.7162743514917351,0.7169845995772861
94,0.7162863701777978,0.7163344408974754
95,0.7162885396926816,0.7165510995808073
96,0.7162596014116439,0.717377197357916
97,0.7162798088258342,0.7162885070734522
98,0.716280006509327,0.716642643588944
99,0.7162798615093007,0.7163115335161574
100,0.7162716547895804,0.7162814179661848
101,0.7162958338257779,0.7163799493543563
102,0.7163074768584597,0.7163783344086583
103,0.7162806594523724,0.7166334436785791
104,0.7162665274017922,0.7171796735403851
105,0.7162736939159019,0.7167576258294931
106,0.7162689720780819,0.7163757200868195
107,0.7162599199104804,0.7165115632726892
108,0.7162684366380908,0.7164131392616196
109,0.7162595530959189,0.7163267673393041
110,0.7162710263972338,0.7162916844595159
