epoch,loss,val_loss
0,0.561902261822692,0.5587091998190206
1,0.5582492835154641,0.5576267606567212
2,0.5577908277825551,0.5576782163260297
3,0.5576339499951135,0.5581613328557452
4,0.5575468722134866,0.5572727633173353
5,0.5574834571366395,0.557517688741755
6,0.5574461267163001,0.5572744298217907
7,0.5573502574455927,0.5573825365852185
8,0.5573145776955128,0.5572750435277782
9,0.5573232359475726,0.5573351164313759
10,0.5573217392849683,0.5572713486314116
11,0.5572659853813838,0.557062468428174
12,0.5572183579831613,0.5571720974912714
13,0.5572294773435904,0.5577300562752092
14,0.5572235700374538,0.5573239143965558
15,0.5571913275059103,0.5571101268526933
16,0.5572204127030379,0.5574745123794593
17,0.5571828963511678,0.5571732039782901
18,0.5571621505720115,0.5570626420359458
19,0.5571731990593854,0.5571055866352678
20,0.5571491601316908,0.560008355405727
21,0.5571598810565928,0.5571043389902517
22,0.5571404532499524,0.557397270912568
23,0.5571450580327725,0.5573529029306644
24,0.5571496790165453,0.5570838479782748
25,0.5571235445352843,0.5575292114288576
26,0.5571290898055804,0.5570320475781821
27,0.5571034809607541,0.5589583510204816
28,0.5571119411230747,0.5570223172604298
29,0.5571155941066229,0.5571068324462948
30,0.5570913121141513,0.5570386901091109
31,0.5571063687936061,0.5572352604593888
32,0.5570843408436889,0.5571997290213706
33,0.5570843414092786,0.5570356789061213
34,0.5570820654735875,0.5571435659754069
35,0.5570794475162041,0.5570555807343192
36,0.5570736049436731,0.5571228780758292
37,0.5570963127932607,0.5569663383528849
38,0.5570594485041037,0.5570717949133653
39,0.5570678826532379,0.5570122098508603
40,0.5570596954625365,0.5570601649674825
41,0.5570604670500705,0.5570082041820876
42,0.5570585318471265,0.5569511678911024
43,0.5570449618768422,0.557961325846594
44,0.5570615607476964,0.5570914423495309
45,0.5570587991155179,0.5570213251906648
46,0.5570450717700711,0.5569617476711793
47,0.5570522889064393,0.5569844156281823
48,0.5570451930184814,0.5571202203594425
49,0.5570565709496826,0.5569692692449016
50,0.5570507530982375,0.5569696832531439
51,0.5570369021544611,0.5569907054711808
52,0.5570372566143958,0.556964413019327
53,0.557054684987759,0.556954863852366
54,0.5570278300563272,0.556938386791693
55,0.5570404310553394,0.5571123453582782
56,0.5570315923556821,0.5569924826361701
57,0.5570195626520564,0.5570583731010001
58,0.5570468038284649,0.5569535836984147
59,0.557012286183978,0.5571895716503891
60,0.5570390322232038,0.5569277831105973
61,0.5570163702605393,0.5570728150254148
62,0.5570324760254433,0.5572722059621409
63,0.557011121420823,0.5569410787622627
64,0.5570268075883067,0.5569981855139248
65,0.5570224202830446,0.557015399157853
66,0.5570092518886123,0.5569244473507031
67,0.5570136276998593,0.556976754996676
68,0.5570167746114888,0.5569701080582574
69,0.5570362940570855,0.5569547747559938
70,0.5570180460833735,0.5570738750415167
71,0.557013063216004,0.5571359923104791
72,0.5570178815732602,0.5578099354916708
73,0.5570102505032579,0.5569158546090421
74,0.5569880874775615,0.5569211195183746
75,0.5570077206185389,0.5569229108524086
76,0.557012151988531,0.5570011740582752
77,0.5570127839511139,0.5570549362942243
78,0.5570054825686866,0.5571439465281389
79,0.5569964179872964,0.5569368730111985
80,0.5569948049149536,0.5569521839210473
81,0.5570160424803506,0.5570414396136926
82,0.5570026467708844,0.5569599005779616
83,0.5570023302070435,0.5569959625712695
84,0.5569968452592258,0.5569062797070733
85,0.55700481448724,0.5571774619980426
86,0.5570002609703621,0.5571729702630055
87,0.5569836460436995,0.5569037074190807
88,0.5570169541345796,0.5568849041207553
89,0.556992667184323,0.5569606219864365
90,0.5569827792722153,0.5569282097496998
91,0.557000914600477,0.5569958955123466
92,0.5570002541107125,0.5569753479425132
93,0.556988585333046,0.5569049996418634
94,0.5569913521943664,0.5569212098571266
95,0.5570054520244714,0.5569296972923184
96,0.5569970560814405,0.5571060085119148
97,0.5569810334101174,0.5570418170900557
98,0.5570057378902756,0.5572323824572504
99,0.5569916543928577,0.5569963687406876
100,0.5569990005665255,0.5570509633118698
101,0.5569919815632821,0.5569310864207171
102,0.5569994207421568,0.556931717431279
103,0.5569879657968733,0.5569167263158793
104,0.5570060838474317,0.5569198511374499
105,0.5569915385250442,0.5570305321411815
106,0.5569922800921449,0.5569093986717111
107,0.5570013075291947,0.5569538484140306
108,0.5569951760120632,0.556960747880912
