epoch,loss,val_loss
0,0.7789292144907846,0.7779865417480468
1,0.7780415036943223,0.7780162858168284
2,0.7779757830434375,0.7779150049686432
3,0.7779459810919231,0.7779178740978241
4,0.7779303629133436,0.7778946030139923
5,0.7779179714520772,0.7778765483697255
6,0.7779070900811089,0.7778830000162125
7,0.7779011757506265,0.7778748441934585
8,0.7778950254122416,0.777914420167605
9,0.777893729713228,0.7778613775173823
10,0.7778879546721776,0.7779866690238317
11,0.7778842246664895,0.7778972719510396
12,0.7778806595404942,0.7778626181681951
13,0.7778767280181249,0.7778574072917303
14,0.7778744636774063,0.7778536103566488
15,0.7778723180558946,0.777893014272054
16,0.7778695542547438,0.7778499816656113
17,0.7778677723937565,0.7778521869579951
18,0.7778674491908815,0.7778496191104253
19,0.7778656255669064,0.7778604520161947
20,0.7778656078577042,0.7778537681500117
21,0.7778630059162776,0.7778465972741445
22,0.777863153245714,0.7778787256081899
23,0.7778626861572265,0.7778452518781026
24,0.777861295249727,0.7778790318568548
25,0.7778608280817668,0.7778498175144195
26,0.7778595245944129,0.777848450978597
27,0.7778605292770597,0.7778565397659938
28,0.7778589842451943,0.7778537424405416
29,0.7778582282728619,0.7778716682990392
30,0.7778589070108202,0.777848666747411
31,0.7778572509421242,0.777849680741628
32,0.7778563619454701,0.777844289024671
33,0.7778561248249478,0.7778451651334762
34,0.777857686969969,0.7778585199912389
35,0.7778558422591951,0.777849721511205
36,0.7778551212681665,0.7778447152376174
37,0.7778568400674396,0.7778473884661993
38,0.7778552186754015,0.7778403472105662
39,0.777856200589074,0.7778454718589782
40,0.7778549023866653,0.7778573117256165
41,0.7778550806045532,0.777866216580073
42,0.7778541093667348,0.7778916712204615
43,0.7778546413448122,0.7778595127662022
44,0.7778542426294751,0.7778409096002579
45,0.7778555085394118,0.7778903710842132
46,0.7778543054660161,0.7778514048258464
47,0.7778560311264462,0.7778442266782125
48,0.7778534608814451,0.777886686762174
49,0.7778540041314231,0.7778435999155044
50,0.777854029946857,0.7778470883369446
51,0.7778539368708929,0.7779064259926478
52,0.7778538724184036,0.7778379782438278
53,0.7778541725873948,0.777906688173612
54,0.7778538402451409,0.7778501234054566
55,0.7778530133167902,0.7778580559094747
56,0.7778535063796573,0.7778393981059393
57,0.7778525076839659,0.7778544226090114
58,0.7778526389863756,0.777858257929484
59,0.777853536274698,0.777845388174057
60,0.7778526656097836,0.7778418020407358
61,0.7778528908226225,0.7778545161485672
62,0.7778514938619402,0.7778394625186921
63,0.7778527315192753,0.777848453481992
64,0.7778526258468628,0.777844645301501
65,0.7778529666132397,0.7778411766688029
66,0.7778523142735163,0.7779042017857234
67,0.7778526689476437,0.7778446647723516
68,0.7778520258002811,0.7778417188723882
69,0.7778526424037085,0.7778870880206425
70,0.7778521805736753,0.7778399110237757
71,0.7778522920078701,0.7778869584401449
72,0.7778520455227957,0.7778550402323405
