epoch,loss,val_loss
0,0.5577966791126463,0.5562728419303894
1,0.5560692241589228,0.556207889119784
2,0.5559585093657176,0.5558198541005452
3,0.5141942309935887,0.4447691315213839
4,0.44482937769095104,0.4447449380159378
5,0.4447956735690435,0.4449497864643733
6,0.44477266596423254,0.44472372831900914
7,0.44475764313671323,0.44471428976456323
8,0.4447457310292456,0.44470891726017
9,0.4447299409972297,0.4447068247397741
10,0.4447313625547621,0.4447210279107094
11,0.4447202736536662,0.44467828508218127
12,0.44471124936474693,0.4446806160211563
13,0.4447110490004222,0.44479977057377496
14,0.4447054376867082,0.4446800318360329
15,0.4446962191992336,0.44467759946982066
16,0.4446985558801227,0.4446626719435056
17,0.444689255701171,0.44498769837617874
18,0.4446895278890928,0.4447041163245837
19,0.44468458724021914,0.4447116140325864
20,0.4446793544623587,0.444641739487648
21,0.4446770132382711,0.4446366463104884
22,0.44467472294304106,0.4446733567317327
23,0.4446728873848915,0.444659138460954
24,0.4446676343149609,0.4447450420856476
25,0.44466711956924865,0.4446277634700139
26,0.44465926080279883,0.44464308150609333
27,0.4446610912349489,0.44463173671563466
28,0.44465939657555686,0.4446815872192383
29,0.4446534390250842,0.4446653165022532
30,0.4446550732387437,0.4446641246875127
31,0.4446519782145818,0.4446025884151459
32,0.4446510408586926,0.44464297487338383
33,0.4446509751942423,0.4447831234931946
34,0.4446506743563546,0.44471822839975356
35,0.4446484558118714,0.4446724341313044
36,0.4446486701634195,0.44462381927172345
37,0.4446489910085996,0.444624192516009
38,0.4446457780665822,0.4446263957420985
39,0.44464761627382704,0.44464335892597834
40,0.44464705402321286,0.444618354121844
41,0.44464659309387206,0.44469806746641793
42,0.4446444817251629,0.44460386149088543
43,0.44464461366997826,0.44462948642174405
44,0.44464221654335656,0.4446520814299583
45,0.44464493659469817,0.44462234644095106
46,0.44464348260561626,0.4446114172140757
47,0.4446405645079083,0.4446037765145302
48,0.44464234265353947,0.44470963801940283
49,0.4446421914166874,0.4446104238231977
50,0.444639286339283,0.4446906988620758
51,0.44464034929540425,0.44462647920846937
