epoch,loss,val_loss
0,0.5575097721682655,0.5565985291401545
1,0.5560938890510135,0.5559077288309733
2,0.5559729027483198,0.5559906072219213
3,0.5559141194555495,0.5559464143514633
4,0.5558788873751959,0.5558072764873505
5,0.55585477203793,0.5557947976191838
6,0.5558336397806803,0.555771524866422
7,0.5558176534043417,0.5557731112639109
8,0.5558053003019757,0.5558613450129827
9,0.5557927998304367,0.5557854121526082
10,0.5557849951452679,0.5559340651432673
11,0.5557757790088653,0.5557844914595286
12,0.5557680877049764,0.5557467593352
13,0.5557633624739117,0.5557234815359116
14,0.5557608508004083,0.5558179283539454
15,0.5557590786748462,0.5557473528782527
16,0.5557507856819365,0.5558116312424342
17,0.5557511234548357,0.5557108604510625
18,0.555748366938697,0.5558197920719783
19,0.5557421206765705,0.5557103745937347
20,0.555741131398413,0.5557263933420181
21,0.5557392566336525,0.5557233008146286
22,0.5557396020359463,0.555740000128746
23,0.5557373181449042,0.5557537049055099
24,0.5557356589635213,0.5557654314835866
25,0.5557362552881241,0.555721441189448
26,0.5557335571977827,0.5557427190144857
27,0.5557332858774398,0.5557350378036499
28,0.5557329669925901,0.5557208534479141
29,0.5557308405770196,0.5557961780230204
30,0.5557320546971427,0.5557233732144038
31,0.5557303511169221,0.555711592833201
32,0.5557302646769418,0.5557124768495559
33,0.5557327322032717,0.5557026170889536
34,0.5557273467381795,0.5557375385761261
35,0.5557272379133437,0.555701781908671
36,0.5557281927135256,0.5557169045209884
37,0.5557284533580145,0.555755961338679
38,0.555725973116027,0.5557223216692606
39,0.5557260369857152,0.5557073302666347
40,0.5557256956895192,0.5557756943305333
41,0.5557250629133649,0.5558127859036128
42,0.5557217746045854,0.5557015062570572
43,0.5557223601208793,0.5556995948155721
44,0.5557211045424143,0.5556926263570785
45,0.5557209041515986,0.5557027010122935
46,0.5557226432032055,0.5557009615898132
47,0.5557198982503679,0.5557757154305776
48,0.5557201911078559,0.5557264864444733
49,0.555719448712137,0.5557025795777639
50,0.5557197607755661,0.555697214404742
51,0.5557203609016207,0.5557015743255616
52,0.5557219120131599,0.5557056489388148
53,0.5557192006773419,0.5557093152205149
54,0.5557191681994332,0.5557299456993738
55,0.5557190189758937,0.5556895528634389
56,0.5557182261413998,0.5556923475662867
57,0.5557181995444828,0.5557299110492071
58,0.5557169419791963,0.5556931642691294
59,0.5557174874809053,0.5557981336911519
60,0.55571781595548,0.5556967997550964
61,0.5557166425651974,0.5557138690551122
62,0.5557173618608051,0.5556845579942068
63,0.5557153712511063,0.5557034661372503
64,0.5557159742116928,0.5557195026079814
65,0.5557161257531907,0.555767292380333
66,0.5557163288195928,0.5557040779193242
67,0.5557177139520645,0.5556916217803956
68,0.5557166959444682,0.5557146524588267
69,0.5557150296105279,0.5557386583089828
70,0.5557148481872347,0.5557750854492187
71,0.5557155713240306,0.5557215462128321
72,0.555715709845225,0.5556836638847987
73,0.555716333799892,0.555747000336647
74,0.5557151907020145,0.5557641008297602
75,0.555712874253591,0.5557526387373606
76,0.5557145996226205,0.5557006259361903
77,0.5557125348647436,0.5557037544250488
78,0.5557159177727169,0.5556944522857666
79,0.5557142180866665,0.555721068541209
80,0.5557116718424691,0.5556944150527319
81,0.5557158306174808,0.5557212432225546
82,0.5557124883068932,0.5557357725302379
83,0.555714107963774,0.5556946159601212
84,0.555712930838267,0.555848544160525
85,0.5557134639422099,0.5557178779443105
86,0.5557099078893661,0.5557101374864578
87,0.55571175315645,0.5557040031353633
88,0.5557137370242012,0.5557050258318583
89,0.5557120983600616,0.5556923456192017
90,0.555712212310897,0.5557258125940958
91,0.5557128865453932,0.5556859730084737
92,0.5557130739688874,0.5556966352462769
