epoch,loss,val_loss
0,0.44677189519670274,0.4449948012828827
1,0.33731114806731544,0.33424030715227127
2,0.3339402866032388,0.3337548507452011
3,0.3338269691798422,0.3336649505496025
4,0.3337614279985428,0.3336959521770477
5,0.333728133685059,0.33365363655487695
6,0.33369380245606106,0.3336918529868126
7,0.3336858362025685,0.33405506306886673
8,0.33367028989394504,0.3335901391307513
9,0.3336637682782279,0.33383274257183077
10,0.3336529383924272,0.33356177459160485
11,0.333646465116077,0.3337300462325414
12,0.33363308742311265,0.33360770072539647
13,0.3336287254095078,0.33356389675537745
14,0.33362553806437384,0.3336157041192055
15,0.3336156458523538,0.3335975148479144
16,0.3336129769881566,0.3336647107203801
17,0.3336087717347675,0.33368473960955936
18,0.3336007293264071,0.3336106839776039
19,0.3335974876350827,0.33359770907958347
20,0.3335941719876395,0.3335812077919642
21,0.3335932380888197,0.333671229382356
22,0.3335887966685825,0.3335638025601705
23,0.33358888963858285,0.3335514372785886
24,0.3335840338534779,0.3335346388022105
25,0.33358619138267304,0.3335451206366221
26,0.33358510884311465,0.3335475862026215
27,0.3335814354552163,0.3335868109265963
28,0.33358013119300206,0.333558356265227
29,0.33357790668143167,0.33358537036180497
30,0.3335770231021775,0.33352082618077594
31,0.33357655213276544,0.3335549641052882
32,0.33357732881440055,0.3336975385944049
33,0.33357333570718767,0.3335320026874542
34,0.3335743003620042,0.3336189672350883
35,0.33357354057497446,0.3336975433031718
36,0.3335688770810763,0.3335874550938606
37,0.33356683814525606,0.33354485694567365
38,0.33356691204839284,0.3335345026254654
39,0.33356484202543896,0.33362410571177803
40,0.33356682618459066,0.33352992876370746
41,0.33356659837563835,0.3335288435816765
42,0.3335650205545955,0.33354141235351564
43,0.33356620677312215,0.33354674563805264
44,0.33356323946846855,0.3335768600106239
45,0.3335662972331047,0.3335566815932592
46,0.33356217291620044,0.33360676336288453
47,0.3335683436062601,0.3335457519690196
48,0.3335604138175646,0.3335244253476461
49,0.33356190129121144,0.3335157044728597
50,0.33356180093685783,0.3335474033355713
51,0.33355995525254145,0.33356888123353323
52,0.3335620197057724,0.33353324788808825
53,0.33356070354912015,0.33354544136921566
54,0.33356001738707225,0.3335242890516917
55,0.3335593170921008,0.3335118080377579
56,0.3335600826144218,0.33352464373906454
57,0.3335583781401316,0.3335237105290095
58,0.33355739684237373,0.33366669696569445
59,0.33355590030882093,0.3335134179194768
60,0.33355927356084186,0.33355716274182
61,0.33355776723888186,0.3335562305847804
62,0.3335553546945254,0.3335231772462527
63,0.3335588173005316,0.33356017037232716
64,0.33355491644806334,0.33367407049735387
65,0.3335559743642807,0.33362717924515406
66,0.3335576713350084,0.3336064364115397
67,0.33355602200826007,0.33357559206088383
68,0.33355679618650014,0.3335191049774488
69,0.3335635240541564,0.3335909659465154
70,0.33355673470762043,0.33351902107397713
71,0.3335528631740146,0.33353730008999505
72,0.3335532894399431,0.333518569846948
73,0.3335560854607158,0.33361140183607735
74,0.3335538226498498,0.3335216748714447
75,0.3335508621864849,0.333578601082166
