epoch,loss,val_loss
0,0.5794507691117041,0.5665863368175144
1,0.5668384828384383,0.5648566716731666
2,0.5660756214566706,0.5655381450456124
3,0.5662945127956762,0.5660549493647655
4,0.565448954829767,0.5643805404971498
5,0.5648890394598197,0.5654124784169318
6,0.5646490197913598,0.5649088083715169
7,0.564536466678884,0.5640058801292953
8,0.564313379756549,0.5640732150405485
9,0.5642200722704849,0.5651952151811482
10,0.5640214846162376,0.567079362305784
11,0.5638227513590655,0.5644797797798338
12,0.5639910663307326,0.5639552378195218
13,0.5637667882263254,0.5635963525015196
14,0.5637525295102063,0.5632051138839008
15,0.5636130839349812,0.5634228804416624
16,0.5633810003472182,0.5630929348954097
17,0.5632343834148591,0.5631182241448651
18,0.5636258774676187,0.5653440504189795
19,0.5632379279251329,0.5630082284704273
20,0.5631273505190386,0.5626231683009332
21,0.5632146531697301,0.5629334171892736
22,0.5631606236412545,0.5630501533883835
23,0.5631054150455765,0.5637521311229502
24,0.5628062858503672,0.5634399851752026
25,0.5629116605620089,0.562694219013655
26,0.562817694756784,0.5627364704489244
27,0.5626774863624449,0.5630127839036155
28,0.5628149276479972,0.563630323108423
29,0.5628249122144573,0.5628009740677912
30,0.5626537606961471,0.5626597029342765
31,0.5627299039526448,0.5628480178644357
32,0.5626462886403608,0.5629641769064381
33,0.562705465821961,0.5627451648114234
34,0.5625151304236987,0.5624888372279954
35,0.5625614192016745,0.5624383559468102
36,0.5625971590449927,0.5631183656658767
37,0.5624776233182113,0.5625193551373185
38,0.5625114729418949,0.5625697890240343
39,0.5625468828574132,0.5631781424454217
40,0.5624899904420206,0.5622829327121401
41,0.5624638131908476,0.562486484881396
42,0.5625041680102238,0.5624283282464027
43,0.5623026029279695,0.5623408045166398
44,0.5622501523015646,0.5625331845851403
45,0.562299561839854,0.5624314362770055
46,0.562292519243694,0.5624043181508221
47,0.5622644676800932,0.562828247691552
48,0.5622524866975219,0.5626136562430786
49,0.5623692727830836,0.5623253663395661
50,0.562153872300419,0.5630760793995915
51,0.5621886310103985,0.5626034250655071
52,0.5621483937516296,0.5624080949369283
53,0.5620906261840894,0.5621967850890197
54,0.56204210674465,0.5622070404771832
55,0.5621297155092525,0.5622203833064584
56,0.5620977208609418,0.5626971414186795
57,0.56209045069144,0.5623588632004949
58,0.5620566486035324,0.5622072691033341
59,0.5620866152752444,0.5626227274760646
60,0.5620426613348373,0.5621952522372864
61,0.5620583793849284,0.5622667257466522
62,0.5619931031575455,0.5623237446163027
63,0.5620259254424683,0.5631695957311018
64,0.5621390444595808,0.5622604883231593
65,0.5621070049472425,0.5638873479083238
66,0.5618670942334899,0.562096090753071
67,0.5618661181676408,0.5621374323315522
68,0.561927902004083,0.5624038973082479
69,0.5618737267089186,0.5621603586250244
70,0.5618345124758402,0.5621544182311607
71,0.5618719718081856,0.5623224917816484
72,0.5619688311352711,0.5621703548615984
73,0.5618814238263822,0.5623675537983739
74,0.561849278071566,0.5622182048941392
75,0.5618016438456518,0.5623214482201274
76,0.5619784257423954,0.563483510840533
77,0.5619216555631699,0.5623459129625834
78,0.561822606787995,0.5621190838933896
79,0.5618355051701948,0.5623827182180154
80,0.5618348831809233,0.562537824054364
81,0.5619089027802147,0.5627174143284245
82,0.5617268353059381,0.5621936927792938
83,0.5617287353127831,0.5625442643919837
84,0.5617724229891788,0.5623640830615292
85,0.5618256364328578,0.5621768885860843
86,0.5618926407643682,0.5622210563233792
