epoch,loss,val_loss
0,0.4780717871263676,0.4581474088964517
1,0.45837545981872474,0.4569027744237748
2,0.4579085369335035,0.45532202350804046
3,0.456841091539744,0.4556049494461608
4,0.4566044053557597,0.45633112472899645
5,0.45571602447669657,0.45471489049699887
6,0.4556701531667603,0.4548930398930795
7,0.45489878947029067,0.4542102183119238
8,0.4550271881499597,0.4544864537583874
9,0.45488915824714965,0.45383630884777815
10,0.45436512949279534,0.4534355902267752
11,0.4543103850913122,0.4536169745299877
12,0.4541830027993639,0.45408288031336247
13,0.45399397045251555,0.4536976290203991
14,0.45379970950335174,0.4535080936412543
15,0.45391849305569154,0.45323657949206164
16,0.4537491467808822,0.45306179242611905
17,0.4535403218646705,0.4534438851200269
18,0.4537492222209721,0.4534832608602647
19,0.4535464387478695,0.4531497055346225
20,0.4536036086837614,0.4529963218574061
21,0.4533570774291255,0.45299530683413414
22,0.45341176342475453,0.45395733760250656
23,0.45369835808499187,0.45292266336695575
24,0.4532879055948472,0.45438439300334504
25,0.45315068087915505,0.4529772228632929
26,0.45350571140544355,0.4531862989501349
27,0.4533632502911565,0.45434253575471095
28,0.4531333901776332,0.4531440208975662
29,0.45294618381437624,0.45321556860085965
30,0.4530389703656341,0.45396569360735506
31,0.4530783675131917,0.45308618445951954
32,0.45293397112755757,0.45289446480584644
33,0.45305992342232443,0.4530095058495214
34,0.4529863145629404,0.452955596666465
35,0.4530798687947167,0.4538001336252541
36,0.4529324709243001,0.45309781453017284
37,0.4528618044814275,0.4535735572106442
38,0.4527782410115498,0.452993518479512
39,0.4528652654250436,0.4528843427415379
40,0.4529456606807137,0.4532460718381005
41,0.45279104634164913,0.45268599273077004
42,0.45276636424556443,0.45419730743692416
43,0.45286266734022074,0.45283864591160977
44,0.452705707157346,0.4529466688147208
45,0.4527943978825065,0.45269528537530507
46,0.4527880611615238,0.45253638975883903
47,0.45257294842266027,0.452711598241433
48,0.45276944199937796,0.45422081018094773
49,0.45268248356629204,0.45249810839145355
50,0.45272955588507185,0.4528006363696667
51,0.45270903393392986,0.4524685515311277
52,0.452589205013128,0.4524584286664234
53,0.45260649449929874,0.4526056955425491
54,0.45258624377661516,0.45267766643440444
55,0.4527040740714092,0.452658901790443
56,0.45249517691126945,0.45248038375967187
57,0.4524416593381704,0.45258024933272367
58,0.452621740143985,0.45320732382342294
59,0.45252037548648644,0.4529424647387144
60,0.45251402180210976,0.45279362518978594
61,0.45247925775875386,0.453195961995751
62,0.45276423007800926,0.4524822391653794
63,0.452360466385294,0.45260419839398686
64,0.4524503419922056,0.45261307281793367
65,0.45244422299663256,0.4525890190704241
66,0.452379173468569,0.45280617154247343
67,0.4524526992912288,0.452438708747354
68,0.45252821718656877,0.45252728999312397
69,0.4523819579179593,0.45251058248220316
70,0.45232477017409184,0.4526643912799713
71,0.4523221977110044,0.45246714816134953
72,0.45233492436529116,0.45300364288980816
73,0.45230359293710665,0.4525409245694163
74,0.45233671592988206,0.45238098209048666
75,0.4523412569240874,0.4541728390733673
76,0.45252706820597616,0.45271530008289546
77,0.45238823499013614,0.45260359566837444
78,0.4523195465031026,0.452560865463957
79,0.4523257171975581,0.452426446126686
80,0.45222771273465834,0.452960954615089
81,0.45212096434783594,0.45256788393571923
82,0.45228098635707675,0.4525122732271815
83,0.4523786983049336,0.4531107604404272
84,0.4522827884835378,0.4533293967027094
85,0.45228251984494566,0.453784276868794
86,0.4523205033561003,0.45308706718565117
87,0.4524437421067707,0.4533664046845893
88,0.45224901791655653,0.45254768200727896
89,0.4522797518842171,0.4529469393650499
90,0.452351329701484,0.45260942241155916
91,0.45221952485364014,0.4525146080147538
92,0.4522405464769245,0.45245235941988116
93,0.4522281009008682,0.45313152914291005
94,0.4521830516108004,0.4524864020955234
