epoch,loss,val_loss
0,0.48068315192407984,0.4601388536055544
1,0.4583852317116243,0.4580104177109421
2,0.45742178782997805,0.4555231178219748
3,0.45683433162633535,0.4557373596520573
4,0.4565844313329145,0.4552042842474353
5,0.4561697445954515,0.45485479265015355
6,0.4557530504761167,0.45514322081237485
7,0.4556401314150793,0.45470505725412286
8,0.3935821546480905,0.346175833291799
9,0.3465216855965565,0.34665976811126553
10,0.34611094162731537,0.3472548882692782
11,0.34634455788228635,0.34655068903350017
12,0.345697467627156,0.34487026560017303
13,0.3456227459358241,0.3448427587907653
14,0.300424003709729,0.2368893106572384
15,0.23637086205517738,0.23602712932428313
16,0.23635336322961142,0.2349706271866512
17,0.2357932182765311,0.235099054427252
18,0.23645513770101365,0.23484779461586247
19,0.23537187688003203,0.234855819334143
20,0.23514832663430454,0.23489644768823625
21,0.23522644662392997,0.2348863617631766
22,0.23537398933457176,0.23484308016611527
23,0.23510985604796977,0.2347369853170476
24,0.2350916868122937,0.2347338917101284
25,0.23511912698759418,0.23436289440042157
26,0.23474857029638332,0.2342802166502704
27,0.2351193846751462,0.23501389657905708
28,0.2349651418843664,0.23427874063215645
29,0.23452163965326026,0.23439617436789742
30,0.23455948888283978,0.2343024680776317
31,0.23469773097113786,0.23423341642509768
32,0.2346618244696962,0.2357727555234822
33,0.23492116774438254,0.2344774137930553
34,0.23438957127019475,0.23418958982475865
35,0.23450435406154913,0.23528288632140024
36,0.23431929363800846,0.23543701713218537
37,0.23456815037495363,0.23701921853064872
38,0.23437685793508875,0.2358070783900826
39,0.2344235302055548,0.23470721577224654
40,0.23424176619506126,0.2355025358240038
41,0.2342282485491598,0.23480706504758453
42,0.2341853329845759,0.23419592633172745
43,0.2342354176168152,0.23379285308437714
44,0.23421357262030773,0.2340865530201982
45,0.23399822571153378,0.2346467234858055
46,0.23416506090170588,0.2339543484028544
47,0.23401491635208518,0.23408843184438188
48,0.2340561087457078,0.23398632172424058
49,0.2340076371520924,0.23461590674458266
50,0.2339907395126857,0.2346430378592573
51,0.23402622919194443,0.23447189832654436
52,0.2338177295008325,0.23405847182470818
53,0.23397958233068838,0.23441623152130334
54,0.23384330510997456,0.23477499415519437
55,0.233759417115135,0.23400603847760673
56,0.23410673658238312,0.23406450328705022
57,0.23362115692767393,0.2338978564778971
58,0.23372637016782496,0.23386610105735856
59,0.23349958982020666,0.23415018440087784
60,0.23355980634365484,0.23369691078089677
61,0.2337752029102391,0.23397031057971698
62,0.233679363282499,0.23373061602072354
63,0.2334900802485577,0.23532999928327905
64,0.23372364638340654,0.23373730784269323
65,0.23354053852259532,0.23451385378649905
66,0.23347459937547396,0.23508885106205343
67,0.2335003714694424,0.23399627640371434
68,0.233453052035561,0.23448234086655803
69,0.23367926941525774,0.23483370162531456
70,0.23374355100657637,0.23371776481384832
71,0.23355680492787415,0.23375316878605118
72,0.23345410921390516,0.23365834022224072
73,0.23361583029133068,0.2343284652274634
74,0.23338252560739015,0.2337204807774847
75,0.23340649539181285,0.23372089858959508
76,0.23348895417839116,0.2337478920113579
77,0.23349874530668277,0.23418784757017272
78,0.23340462166130005,0.23384013707703144
79,0.23338710979670052,0.2339053070502141
80,0.2335143801627256,0.2344272548781653
81,0.2335529635306055,0.23502908538592968
82,0.23331462040539416,0.23429331551615584
83,0.23360288123791464,0.23475623397964926
84,0.2333880242858345,0.23370447458989488
85,0.23319358432079124,0.2335337924088432
86,0.2335238031532597,0.23409905371444714
87,0.23338772949189324,0.23395953986915885
88,0.23332008473107974,0.2337660667167193
89,0.23315113677954005,0.2338157534063867
90,0.23325325895451707,0.23401322194681629
91,0.233171033236581,0.23353482476482348
92,0.23315141976451925,0.23446775925371421
93,0.23326369324642177,0.23360737117435518
94,0.23321192465830434,0.23388231993218356
95,0.23319291609251697,0.23367343151330905
96,0.23333417721136632,0.23369985179926295
97,0.2330742438984459,0.23387382961264538
98,0.23327708715053772,0.23575713633276574
99,0.23343124299265325,0.23456518672466012
100,0.2332158630283537,0.23386388838810046
101,0.2329774570747351,0.23416386033831138
102,0.23316199649722777,0.23348779813252812
103,0.23321127158925786,0.2337393863049011
104,0.23303305324458776,0.23354358034103884
105,0.233228690403597,0.23366575029729186
106,0.23301235324405098,0.2337552164716618
107,0.23325794574531214,0.23397447339670152
108,0.2333420261676743,0.23415381487187775
109,0.2330812385830003,0.23379878199670157
110,0.2329804521501736,0.23428248007566008
111,0.23303852006077705,0.23369226540254429
112,0.2333470791816579,0.2335394248711354
113,0.23296345886742018,0.23373865929714593
114,0.23318355451999404,0.23368939638115738
115,0.2330430928385755,0.233867882923255
116,0.23301697015905853,0.2344221948892855
117,0.2331486580507505,0.23374834557907917
118,0.23312781269247526,0.23374703957606607
119,0.23311835008434767,0.23448704790022445
120,0.23309827646481465,0.23381155865361103
121,0.23301066637721843,0.23393747176002808
122,0.23296314521115638,0.23418901190589503
