epoch,loss,val_loss
0,0.48305668858343487,0.4566407093937297
1,0.4579410989511283,0.4559728265206093
2,0.45707293660312526,0.45626060078708874
3,0.45654903226907384,0.45696953093040693
4,0.45659950714861625,0.45477152827890477
5,0.4559828888678843,0.4544164704093008
6,0.3657033600756552,0.3505761375591079
7,0.3467863498775021,0.34581412264297884
8,0.3463140253648192,0.34840293184190485
9,0.3460645017465142,0.3449120911862546
10,0.3458073140524708,0.344691361822802
11,0.34550068902162684,0.3447037985764691
12,0.3454397427405704,0.34471125917029305
13,0.34524821286195145,0.3454387125692493
14,0.34529494730392796,0.345015059739136
15,0.3449310272480321,0.3492282535007959
16,0.3447796874585754,0.3440308282388142
17,0.3447126473933509,0.34443993528345423
18,0.34463791149961565,0.3455462145416753
19,0.34453702544388043,0.3442804036725117
20,0.34455408584879094,0.3446160734781713
21,0.3442653356056106,0.3441866925081118
22,0.34421867409849993,0.343598443388961
23,0.34418331339780067,0.3441371896031124
24,0.3442946920891931,0.3438410390845315
25,0.3442363030641551,0.3440533994601642
26,0.3439729223724456,0.34395093587421227
27,0.34395574249787886,0.34369929827326073
28,0.3439495243228487,0.3443778581002351
29,0.3439984659951294,0.34360134163859335
30,0.34398529818587725,0.34393214897372854
31,0.343954713752402,0.34590581660028696
32,0.3437902107712913,0.34346647391409363
33,0.3437426135533237,0.34373074554142896
34,0.3439130009221658,0.34386397843273464
35,0.3436845679160301,0.3443668021617454
36,0.3437352200896279,0.3432229679366972
37,0.34342865199444045,0.343240855534577
38,0.34359031373678806,0.3457147337966858
39,0.34351579503576896,0.3432185088545995
40,0.34351663037665825,0.3446264702051872
41,0.3434008158377902,0.3432697189706501
42,0.3434095487757117,0.34316014373582876
43,0.3433949055670367,0.3430585785913653
44,0.34343778070440645,0.34328190757402954
45,0.34336269924983126,0.34351642091178436
46,0.34334320074575053,0.3435605347686442
47,0.34364823945637407,0.34313971192820425
48,0.34324737052755117,0.3431837773528402
49,0.343290890354853,0.3433167617957798
50,0.3432521740274718,0.3431252038330916
51,0.34340011345134214,0.343042811882189
52,0.3435057262512745,0.3428995032225699
53,0.3434281696067803,0.3432291227979867
54,0.34297123173055033,0.3430972693253058
55,0.34312623931987485,0.3430891028762548
56,0.34308314140892626,0.34355505562354116
57,0.34313999633795983,0.3435072512908387
58,0.343156451761154,0.34361691016977775
59,0.34326591227707665,0.3435845961281935
60,0.343051625834351,0.3439132972798274
61,0.3431198210148851,0.34315138313368
62,0.343167426145055,0.3431568672743566
63,0.34289642934395415,0.3430456899121683
64,0.34315193282359285,0.34311632168118567
65,0.3430230411695528,0.34332063100827714
66,0.343017944679857,0.3431851400183536
67,0.34327513857025893,0.3435352100036965
68,0.3430683670858571,0.34310766955198324
69,0.34288557153255517,0.3430125190717553
70,0.34279256496318894,0.34294455481759045
71,0.3430554075027717,0.34321834366947307
72,0.34307913051664163,0.34307448056190626
