epoch,loss,val_loss
0,0.477731745286792,0.4570643757919312
1,0.4580539222450758,0.45871705191624257
2,0.4571093970843185,0.4562428116599682
3,0.45700670238099544,0.45669425643358125
4,0.45692290096819077,0.4597110243158487
5,0.4559326086478415,0.4549497370864312
6,0.4564015868978421,0.4557603139152216
7,0.3896024395000628,0.3466550771020743
8,0.3467621971169586,0.34573779552816175
9,0.34668769694245344,0.3466165063226194
10,0.34665639913284896,0.3507851097987391
11,0.3464169377181101,0.34507598580420296
12,0.3458461327508708,0.34566377885784566
13,0.3457679413885795,0.34587846103255937
14,0.34571833699482546,0.3447538902305148
15,0.34540180984819063,0.3447348464416296
16,0.34522592120045764,0.3451435658794395
17,0.3453355603591903,0.3450144532820233
18,0.3453324682925706,0.3441486851189573
19,0.34474094214677276,0.34456835215478987
20,0.34458136505447357,0.3448751273144614
21,0.34458695700076386,0.34596649861640455
22,0.34460513649930247,0.345590201168728
23,0.3446137010287558,0.3442818310707228
24,0.34439704686038025,0.343661637902591
25,0.34435769228691177,0.3437274652435771
26,0.34418741800000247,0.344403813604647
27,0.344475852044894,0.3438186097043513
28,0.3443957796328427,0.3436530133401228
29,0.34413399220109114,0.3444438551416837
30,0.34400262042764596,0.34374988016143376
31,0.3439435942807894,0.3438969070181888
32,0.34409096451645904,0.34364318302283137
33,0.34403770304203135,0.3435743772601569
34,0.3439723652567937,0.34499004499782876
35,0.34385910540983855,0.343516627458052
36,0.3437243942913679,0.34418468299585925
37,0.343897012451397,0.3440479071333709
38,0.3437000762108753,0.34364876289636165
39,0.3435457554504009,0.3434419404424811
40,0.34382331009186107,0.3434666273637621
41,0.34356233470416286,0.3433425786937248
42,0.3434622476161864,0.34313804407454485
43,0.3434928316752121,0.3433272656543892
44,0.34344329616822017,0.3434504491021223
45,0.34330576218661657,0.3437989196980037
46,0.34353202170155117,0.3445205154750585
47,0.34334429336018124,0.34428244364396315
48,0.34350273579297413,0.3435590582978926
49,0.3433052894868042,0.3445286206248337
50,0.34334163978873894,0.34421310218468176
51,0.3432324387258935,0.34323749985048385
52,0.3433008441078848,0.3432096843477487
53,0.34335219217072455,0.34472662097305073
54,0.34318375565566817,0.3442839897988262
55,0.34326871220770305,0.343182760292699
56,0.3432903548183532,0.3438839784406428
57,0.34315479943108496,0.3439306783927858
58,0.3432938139964441,0.3433513348467771
59,0.34312432068991344,0.34397300960267335
60,0.3434286627117946,0.3454466931443233
61,0.34302946187304395,0.34334642927080067
62,0.34329818373378845,0.3430644962374293
63,0.3432041941763159,0.34362961694937677
64,0.3429905804327189,0.34339387017414513
65,0.34297607858382007,0.34435198349099533
66,0.3430582339926375,0.3430400294525841
67,0.3432493551360804,0.3438061314073839
68,0.34303795474462423,0.34307037975903376
69,0.3431063151779457,0.34336770911706027
70,0.34297848458520913,0.343567451965502
71,0.3430350708222892,0.3438516392776714
72,0.3428972625531489,0.3435528288065979
73,0.34287808856804985,0.34316006696407475
74,0.34301774911413413,0.3433534423605913
75,0.3427596713764421,0.34356673636752644
76,0.34278586181523246,0.34316015615576306
77,0.3429147287905612,0.34345231460937636
78,0.34291668428310557,0.34330222069676175
79,0.34285809080123725,0.34354971312531546
80,0.34274972709689266,0.34330442126072386
81,0.342913058316708,0.34300426139414675
82,0.3428589014459347,0.3437687020143727
83,0.34274901150350673,0.34324260765611075
84,0.34278523485875395,0.3435810547467624
85,0.3427354935194966,0.34321620861100455
86,0.34292622855942234,0.3436010943604611
87,0.3426787104461412,0.3431590438816454
88,0.34266700275104095,0.3431011401772345
89,0.3427046476438533,0.34425031395284394
90,0.34291209973958614,0.34490301274970675
91,0.3427140290999248,0.34323306275442983
92,0.34269762654220304,0.3430650850085555
93,0.3426118237589603,0.3439274866683855
94,0.34271528041933547,0.34320665473937106
95,0.34269927754743823,0.34382869077183664
96,0.34265176703616873,0.34328009044379965
97,0.34274257376761985,0.343167438068132
98,0.3427794790489118,0.3433426057084619
99,0.34270916421787395,0.34300037869084077
100,0.34295955357464575,0.3432915374832609
101,0.34266139239691973,0.343057058385885
102,0.3426638901458159,0.34309488072905814
103,0.34257997242455585,0.34327285099656607
104,0.3427441706405102,0.3433281661051471
105,0.3425449459702471,0.3432762682007339
106,0.342432753890647,0.3450667830137527
107,0.3427924556045914,0.3433310448858424
108,0.34280583721903296,0.34311777498461976
109,0.34260412264215434,0.34479474981066516
110,0.34249502535336357,0.3433893407124196
111,0.3426468594199446,0.3432984542826808
112,0.342758497907583,0.3430501309660413
113,0.34246479451069367,0.34321077719708903
114,0.3426855157259104,0.3439121341170989
115,0.34253501032971867,0.34373689449082967
116,0.3424211268374497,0.3432629075861127
117,0.342592005662624,0.3431024453908917
118,0.34244392862255324,0.3431826834657453
119,0.3425092220608164,0.3431041792413221
