epoch,loss,val_loss
0,0.6261101066756265,0.6136300234121672
1,0.614198196840015,0.6134846547280436
2,0.6140154710878923,0.6134488048477333
3,0.6138081976913374,0.6141745305363246
4,0.6133244617850057,0.6130336731437106
5,0.613355435201748,0.613033407214454
6,0.6129003087300339,0.6123300932223348
7,0.6127910734666862,0.6122298245365236
8,0.6127997779070278,0.6122230168306887
9,0.6127407780960735,0.6128161922575771
10,0.61232631543933,0.612293631828341
11,0.6123273116066134,0.6119720436691428
12,0.6122934945119575,0.6128916453278203
13,0.6121544879445565,0.6118889783342775
14,0.6121583463271006,0.611890990879803
15,0.6120062375962716,0.6123414107540766
16,0.6121062133343874,0.612144216569679
17,0.6119219756508527,0.6118582414364373
18,0.6119476350001212,0.6116380265577711
19,0.6118106330659635,0.6120796197050098
20,0.6118134656593895,0.6116525965626031
21,0.6117940840060728,0.6118896081045497
22,0.6118081184879475,0.6116101967454898
23,0.6117045489620301,0.6118715312923285
24,0.6117933851692329,0.6115783672526158
25,0.5693345848351741,0.5006281975913122
26,0.5005996929926122,0.5007556687146945
27,0.5007248128810308,0.5009041376169897
28,0.5007016620825882,0.5007001777420702
29,0.5007940718155867,0.5005463928580394
30,0.5005802291026062,0.5004485791200759
31,0.5006183483093501,0.500469797465709
32,0.5006287004770165,0.5004805749458968
33,0.5006340162217482,0.5005961137203847
34,0.5007027861262094,0.5010218931613963
35,0.5006083004473327,0.5004546007315464
36,0.5005538984381139,0.5005185091620215
37,0.500603593656643,0.5005136862832005
38,0.5005781700933877,0.5004607815549098
39,0.5005947725666534,0.5009083289753562
40,0.500621081415853,0.500480546778901
41,0.5005879748149801,0.500717546638381
42,0.5006059621600716,0.5004156465091975
43,0.5005406433415718,0.5010195635375374
44,0.5005958631307464,0.5005236469970797
45,0.5006122275354695,0.5006827603219561
46,0.5005282842180244,0.5005120909811269
47,0.5005371177634778,0.500720585490787
48,0.5005884007546503,0.5004523804722018
49,0.5005588436729064,0.5004175748272016
50,0.5005108601326329,0.5004044212886315
51,0.5005828201380638,0.5005076610072859
52,0.5005521771229173,0.5004406938707747
53,0.5005171794318756,0.5004030518475794
54,0.5005014011996554,0.500654403759506
55,0.5005025048609457,0.5004646648593202
56,0.5005341023489293,0.500524760069246
57,0.5005183892161968,0.500475335786224
58,0.5005310529808448,0.5004016318262597
59,0.5004931934975029,0.5007131842981458
60,0.500506414946791,0.5004966585849223
61,0.5005182434260141,0.5004163346042938
62,0.5005051626986726,0.5004211788790929
63,0.5005132205742845,0.5004143257122736
64,0.5005275307827902,0.5004491582663262
65,0.5004879290659274,0.5004786192266016
66,0.5004998788327816,0.5004691494716638
67,0.5004503157019666,0.5005402822060462
68,0.5004818456693768,0.5004377601058752
69,0.5004850439560948,0.5006672164828958
70,0.5004917933480444,0.5009646911558963
71,0.5004600560496676,0.5004072557744421
72,0.500463367485669,0.5004379013346453
73,0.5005089989815195,0.5004045678117031
74,0.5004352095032741,0.5004084705759525
75,0.5005183262424512,0.5004816075534334
76,0.5004602665346085,0.5003931652976736
77,0.5004483171287294,0.5005422416116627
78,0.5004858580679604,0.5005460890810913
79,0.5004906919328213,0.5005432271830509
80,0.5005122661196785,0.5003731808414764
81,0.5004393136624554,0.5003985476878876
82,0.5004896804441507,0.5004230425169236
83,0.5004442896749322,0.5004266715526668
84,0.500430799893533,0.5003838951072686
85,0.5004538974390341,0.5004150723072122
86,0.5004739884813313,0.500533151175915
87,0.500469772926695,0.5004925115608605
88,0.5004663117006152,0.5007989559507868
89,0.5004550590021877,0.500420669838581
90,0.5004849743936421,0.5003670421646896
91,0.5004478078293364,0.5003863318532208
92,0.5004591721529303,0.5006114912593139
93,0.5004242342707214,0.5005162432119811
94,0.5004389218586318,0.5005168227738996
95,0.5004314214525335,0.5003852664516439
96,0.500413044538747,0.5004727417317021
97,0.5004563295980502,0.5003607633311195
98,0.500413767232759,0.5004022374768327
99,0.5004958569759214,0.500981155142344
100,0.5004310861795971,0.5003921246721146
101,0.5004174197355293,0.5004277712140615
102,0.5004634682050122,0.5003928079323323
103,0.5004094527563626,0.5004568778608759
104,0.5004292572974692,0.5011688803703244
105,0.5004217548130294,0.500390409143458
106,0.47726877107090515,0.47267784127665785
107,0.4726619693003,0.4726541538832712
108,0.4726763964592663,0.47261250233470814
109,0.472630314351645,0.47285664939162797
110,0.47267982196339686,0.4726227882980841
111,0.4726409048576738,0.47261695870895476
112,0.4726444723489868,0.4726347256404672
113,0.47265424088009156,0.4726518900662655
114,0.47267389870852355,0.47261431470313714
115,0.4726649268530936,0.47261892892741614
116,0.47266883146050376,0.47267342212113095
117,0.4726543519783802,0.472628559349086
118,0.4726541602094509,0.47261294573791574
119,0.4726586306635492,0.4726068740220086
120,0.4726499788909321,0.4727852415067162
121,0.47265366119420177,0.47264993587837983
122,0.4727084667644581,0.4726035957063835
123,0.4726438770846518,0.472777778975656
124,0.4726332460637267,0.47262947486942897
125,0.47262051443029207,0.4726068217189055
126,0.4726472835209112,0.4726076248775471
127,0.4726532340020574,0.4727650861288128
128,0.4726590250926462,0.4726339879769276
129,0.4726748500966644,0.4728395393144583
130,0.47265653220412857,0.4728242308585047
131,0.4726599932041432,0.4726240605657353
132,0.4726150749476742,0.47261814291509147
133,0.47262786464522855,0.4726986884578562
134,0.4726358232490439,0.47271198580671525
135,0.4726645779342048,0.4730898873163683
136,0.4726296553934372,0.47261923698137215
137,0.4726351126604593,0.4726240792161151
138,0.4726471880448224,0.47262937152663553
139,0.47261590925226765,0.4726265799366984
140,0.4726369427075523,0.4726115324165126
141,0.4726370182461481,0.472881713024431
142,0.4726758703727084,0.472787569982018
