epoch,loss,val_loss
0,0.632209748170088,0.6139214388994716
1,0.6137500731283031,0.6132049223418016
2,0.6137283962130393,0.6132650139419764
3,0.613405168636236,0.6128051017572911
4,0.6132611765798505,0.6129853013218554
5,0.6133192580993397,0.6127069349966261
6,0.5932855196645838,0.5849819302143231
7,0.5852910867267963,0.5859005058286474
8,0.5853205193268266,0.5850897700026574
9,0.5850259831989111,0.5860796041675918
10,0.5850217502883007,0.5846882952771333
11,0.5849230268712277,0.5845644149261344
12,0.5656484178230217,0.5591106259466245
13,0.557220989606822,0.5568056533940015
14,0.5572058066662834,0.5576380426171811
15,0.5570931525932522,0.5568824830701055
16,0.5569827772356534,0.5577685264058673
17,0.5570450170897574,0.5566923907315497
18,0.5568080929621225,0.5566318003622451
19,0.5569020761746095,0.5565479723417031
20,0.5567396031342245,0.5565438412114838
21,0.5567298424406548,0.5565358826733003
22,0.5566734717024527,0.5579454544969251
23,0.5566871087653357,0.5581330379382649
24,0.5566150776441654,0.5568937960294961
25,0.5565743735312482,0.5563602466871157
26,0.5564209962354972,0.5563194342196852
27,0.5565448357780797,0.5563306848288326
28,0.5564819051124505,0.5564480234251304
29,0.556433439994942,0.5563844117271198
30,0.5564514666790261,0.556233685549125
31,0.5564060650003382,0.556226575247715
32,0.5564083323906327,0.5564391716267345
33,0.5563661089371984,0.5562898914821434
34,0.5563826874767216,0.5562196284570832
35,0.5564062555951869,0.5562927314044577
36,0.5562778234941235,0.5568030628835986
37,0.5563668460811527,0.5562120000470295
38,0.5562664515754677,0.5561602687940704
39,0.556256380654799,0.5561629047545189
40,0.5562440997461678,0.556189823421913
41,0.5563150005339993,0.556216146567914
42,0.5562871714509605,0.556692376292546
43,0.5562479816796022,0.5561873120853804
44,0.5562171411418022,0.5561853438085275
45,0.5562531825029909,0.5561830754301093
46,0.5562443637757475,0.5561209338633243
47,0.556260254555626,0.5566164657902906
48,0.5561936858590462,0.5561882125104014
49,0.5561866925500282,0.5560579744144895
50,0.5561611436226758,0.5561024741877939
51,0.556185026092107,0.5560849645987063
52,0.5563459360994039,0.5561091026202717
53,0.5562000282534023,0.5561069002565407
54,0.5561701342652184,0.5564065209811577
55,0.5562558841171517,0.5560828233053978
56,0.556123613603853,0.5561412874985932
57,0.5561847464603816,0.5562824747894506
58,0.556156692107008,0.556304141105173
59,0.5561703053163652,0.5560671268941985
60,0.5561746802688513,0.5560679841553493
61,0.5562043659962842,0.5562888164108096
62,0.5561642122755811,0.5565520763440971
63,0.5561148025336569,0.5560662598867201
64,0.5561842261567177,0.5561502681541582
65,0.5561384975950295,0.5560721194641287
66,0.5561492600965742,0.556084008649153
67,0.5561410980924099,0.5560477058544884
68,0.5561343205808652,0.5562019468141403
69,0.5561433078615995,0.5561350400917332
70,0.5561434657572095,0.5562690681745249
71,0.5561719616268755,0.5560639513853735
72,0.5561576964673322,0.5560614148462162
73,0.5561037606446833,0.5562658331157483
74,0.5561214376423508,0.5562779526028814
75,0.5561170735264098,0.5563626487685204
76,0.5561214421490701,0.5560433901128561
77,0.5561084865087135,0.5562389789972639
78,0.556147462203611,0.5562518233333209
79,0.5561115865773905,0.5561561549031465
80,0.5561027480548563,0.5571884704546264
81,0.5561143509173544,0.5560455878495426
82,0.5560890086281881,0.5560299492818672
83,0.5561062869780901,0.5560413923891865
84,0.5560955995848881,0.5561001263511008
85,0.5560614105509772,0.5564649956426307
86,0.556098295981318,0.5560536720179969
87,0.556065730423769,0.5562749526701535
88,0.5561128592078398,0.5560474620103443
89,0.556036444532767,0.5560226701097458
90,0.5561534613981636,0.5560404808723854
91,0.5561122927139489,0.5561739765278548
92,0.5560323074993289,0.5559830537168755
93,0.5560007593591928,0.5561207358520782
94,0.5560862428807859,0.5560236946992599
95,0.5560552295525957,0.5559955110985723
96,0.5560744822575877,0.5560420364125056
97,0.5560679393215137,0.5559992665740454
98,0.5560156483165115,0.5560303731213186
99,0.5560203372371112,0.5560152325680068
100,0.5560372578789278,0.55600008867841
101,0.5560653549367487,0.5560292470540491
102,0.5559893035922217,0.556007987152526
103,0.5560507474597852,0.5559861494611438
104,0.5560199147576972,0.5560154189186636
105,0.5560569655182763,0.55607581788366
106,0.5560207699040445,0.5560917122732895
107,0.5560179395129311,0.5560007898670574
108,0.55599081083825,0.5559628123667376
109,0.5560249717926742,0.555988695429408
110,0.5559842371573075,0.556031292634265
111,0.5560336867012934,0.5559981465339661
112,0.5560553590332673,0.5561913918586888
113,0.5559912300798269,0.5559694846631584
114,0.5559886736578699,0.5560302787646173
115,0.5560100825764742,0.5560912310716143
116,0.545106656078666,0.5282875732295687
117,0.5282441640094186,0.5283403605315681
118,0.5282811620712805,0.5282913032727059
119,0.528242192246786,0.5286978350295607
120,0.5282313757776419,0.5282242223852861
121,0.528352011312598,0.5282987762993904
122,0.5282467295323234,0.5285750465954
123,0.5282411987631155,0.5282785237809019
124,0.5282012516003818,0.5282988865389958
125,0.5282342636585965,0.5283030377744338
126,0.5282819287823765,0.5282549882923973
127,0.5282499343311778,0.5282391424593871
128,0.5282315729539052,0.5284126090071446
129,0.5282177260806307,0.5282015643834761
130,0.5282471843026002,0.5282172978766622
131,0.5282089231487822,0.5283762434465685
132,0.5282590558107836,0.5281853743880621
133,0.5282374746560131,0.5282632800434068
134,0.5282320541446418,0.5283256787447825
135,0.5282445307819896,0.5281943071433264
136,0.5282050362747291,0.5282286781414997
137,0.5282599435615679,0.5282856332400366
138,0.5282316817240867,0.5285946876002049
139,0.5282257254089997,0.5283450897318832
140,0.5281810213967172,0.5281989258524474
141,0.5282519939638989,0.5282964246232349
142,0.5282087655740388,0.5283400243434322
143,0.5281878423492442,0.5283266269060248
144,0.5281959954384176,0.5282656142396169
145,0.5282433615070954,0.5281946106358698
146,0.5282055229019694,0.5282442730968208
147,0.528203950534576,0.5281986005373188
148,0.5282191248335897,0.5283744127012258
149,0.5281873531623624,0.5282412383245271
150,0.5281704047619258,0.5282027343912592
151,0.5282083417382336,0.5282052991302282
152,0.5282051487749867,0.52817179114693
153,0.5282254029014551,0.5285396271067861
154,0.5281963836069667,0.5282167578141697
155,0.5281826015378369,0.5282790969765324
156,0.5282184422078129,0.5283445809867147
157,0.5282190531162251,0.5283825469686474
158,0.5281882342405769,0.528225348047826
159,0.528188751619978,0.5282291823908876
160,0.5281857351626126,0.5282166671984829
161,0.5282111097499341,0.5284870743839035
162,0.5281967494388148,0.5283948889258236
163,0.5282180197867383,0.5284890789004679
164,0.5281723199936712,0.5281837459966051
165,0.5281696720918749,0.5281947530350743
166,0.5281914116928335,0.5282135873918119
167,0.5281811377109136,0.5281920092524597
168,0.5281710376898185,0.5285039283109599
169,0.5282060546912045,0.5283882297557698
170,0.5281780477349544,0.5284136871412973
171,0.5281891041686719,0.5285091038077528
172,0.5281645111689955,0.5282491374112068
