epoch,loss,val_loss
0,0.601125958728347,0.5861512166050558
1,0.5866890048123123,0.5855196992023907
2,0.5862059247904308,0.5857803068766574
3,0.5858942476289968,0.5856092663002924
4,0.5859175064355625,0.5853714063137382
5,0.585414203444103,0.5849938143347574
6,0.5852171225183752,0.5849360730105921
7,0.584783732603032,0.5844227453616152
8,0.5848474075737776,0.5843425827368528
9,0.5848281088754541,0.584669469310332
10,0.5845957734887153,0.5847282983508979
11,0.5845799750200126,0.584372326110914
12,0.5845570460024788,0.5843706453014982
13,0.584285216972632,0.5846374535980652
14,0.5844781988839852,0.5840447604667158
15,0.5843904741920156,0.583989332774119
16,0.5841947871187364,0.5845869607521998
17,0.5841729535585136,0.5839172897699405
18,0.5843803503793803,0.5840120208024935
19,0.5842026669898733,0.5845610608112092
20,0.5841705495810782,0.5839020559100366
21,0.5840362282844175,0.5846679892905766
22,0.5840225167950337,0.5840364681359583
23,0.5840017598557853,0.5843381014170396
24,0.58399768557732,0.583813810298193
25,0.5839793245901921,0.5837833641056271
26,0.5840261998858854,0.5838197723378346
27,0.5839235204005742,0.5838308853170241
28,0.5839038756182925,0.5838510265348592
29,0.5839842221106405,0.5838661983617404
30,0.583904642836212,0.5839669609818027
31,0.5838949006289424,0.5841140959279912
32,0.5838898349925489,0.5842120665479175
33,0.5839305946081211,0.5837108470864593
34,0.5838938559889028,0.5837658944425724
35,0.5839043550077998,0.5837608059845314
36,0.5838528989855869,0.5837607162548744
37,0.5838639458224716,0.5839127001357223
38,0.5838812822055006,0.5845265725398856
39,0.5838572028624418,0.583759719744847
40,0.5838123188329748,0.5837469953181526
41,0.5838209820784013,0.5837218246343574
42,0.58383347293598,0.5837011136337472
43,0.5839287158129828,0.5839455510459048
44,0.5837572239849366,0.5843432151323985
45,0.5837813459923342,0.5842072660386136
46,0.583870315242559,0.5837830155677677
47,0.5838201165367005,0.5838754849163496
48,0.5837782078353158,0.5837928657576368
49,0.5837901352472376,0.5837972374832243
50,0.5838393367393495,0.584590161419895
51,0.583802694504127,0.5837302183116067
52,0.5837940279442928,0.583706055503085
53,0.5837577581733799,0.5837093805868618
54,0.5838180736692672,0.5836801771440294
55,0.5837431939040411,0.5837455250884791
56,0.5838097705201957,0.5837648310865212
57,0.5837249851171384,0.5836737162696263
58,0.5837639715173175,0.5836768142781928
59,0.5837737562029691,0.5837992286984035
60,0.5837846799291164,0.5836983369258286
61,0.58372995399033,0.5840825378993254
62,0.5837580006246706,0.5837186140125007
63,0.5837867567136236,0.5837658546149873
64,0.5837710542314795,0.5838018843265252
65,0.5836992298068348,0.5836756585781498
66,0.5837665113891134,0.5837279511036227
67,0.5838850222502001,0.5837248378794091
68,0.5837078778803687,0.5838513815593317
69,0.5837582592323314,0.583688109002872
70,0.5837113464061672,0.5837282979022387
71,0.5837682211239374,0.5837497425573772
72,0.5837031875012839,0.583979294844386
73,0.5837269304629574,0.5840571705497368
74,0.583711821886934,0.5836994830545624
75,0.5836022521272933,0.5579142397774494
76,0.5301672952280297,0.5283724126148102
77,0.5282324549254419,0.528249105000019
78,0.5282498585774554,0.528190083165938
79,0.5282724006479214,0.5285952080278402
80,0.5282144342320858,0.5282475369351569
81,0.5282069994614687,0.5284044036713844
82,0.5281861398594455,0.5281586697788977
83,0.5282255671925229,0.5285009546528433
84,0.5281968215390317,0.5285463618956524
85,0.5281842980697234,0.5282133298196756
86,0.5282226605518021,0.5285147427199937
87,0.5282177407602845,0.5281618010518659
88,0.5282415730323005,0.5282693974554791
89,0.5281940204780561,0.5282284843088138
90,0.5282220616868317,0.5281538408619479
91,0.5281723701546241,0.5282133495529806
92,0.5281847441109662,0.5281946425876348
93,0.5281884076654083,0.5281518580476435
94,0.528199947627085,0.5281690967413324
95,0.5281796760972417,0.528534662846054
96,0.5282178451294869,0.5281731612224232
97,0.528317237006799,0.5281955826214682
98,0.5281628094923024,0.5282134345243296
99,0.5281426787937921,0.5283734608317848
100,0.5282094062246109,0.5281908433576049
101,0.5281863362444805,0.5281819690584283
102,0.5281905458594357,0.5282875298906803
103,0.5281764179579365,0.5281600194975835
104,0.5282108733112487,0.5281842021925512
105,0.528155964142964,0.5281704111829069
106,0.5281901118944506,0.5281818291641721
107,0.5282196394345764,0.5281623048090152
108,0.5281427623540565,0.5282374947502932
109,0.5281456488020494,0.5282687864777889
110,0.5281761789049163,0.528183404295395
111,0.528187128242064,0.5282042886187427
112,0.5281535725043135,0.5284331387873198
113,0.5282268257558823,0.528424874175074
