epoch,loss,val_loss
0,0.5029003786743179,0.47516539449494
1,0.47577364110958326,0.47511588639459557
2,0.47547877881514844,0.4748104863438962
3,0.4750329650067522,0.47572738402566683
4,0.47457057306720857,0.4744125344399291
5,0.47422149185632034,0.4738391411809839
6,0.4741114560741893,0.4734944100280621
7,0.47385477013724175,0.4735424114675954
8,0.473806438387268,0.4733257119776809
9,0.473775335455215,0.4732314574705349
10,0.47362365705409665,0.47402591903530406
11,0.47351134850532994,0.4741011773868315
12,0.47353279506014545,0.4738787851611022
13,0.4736641744480896,0.4730714193712267
14,0.473191108225303,0.4732646800483295
15,0.4734490786283076,0.47331220252313927
16,0.4732101847616884,0.4734785230438914
17,0.47324309010800875,0.4730421482674418
18,0.47314017498617894,0.47328951598241975
19,0.47322123252288817,0.47307084493952994
20,0.47326258506739605,0.4729434394698599
21,0.4669713270699219,0.44544485462961075
22,0.44530993389552426,0.44511507618621987
23,0.44523173691687207,0.44519254648919543
24,0.44533781198002026,0.44519075158977317
25,0.44527971085484347,0.44512239767993605
26,0.44529385504944574,0.4450060639453166
27,0.44523325415899345,0.44546031660936497
28,0.44525521870759704,0.445003496679522
29,0.44523717466753876,0.44534761465608713
30,0.44521655472563026,0.4450600499088643
31,0.44516391100967784,0.44494279147091426
32,0.4451246914195892,0.4450817441126473
33,0.4451349740029256,0.444981804750976
34,0.44512805629995844,0.4450886323487437
35,0.4450910288751428,0.44501759417342757
36,0.44506142406629307,0.44497808905386405
37,0.4451571019310437,0.44499083809796597
38,0.4451343463638649,0.44494309476656224
39,0.4451740870853079,0.44501934361186546
40,0.44506928825689074,0.4451124985396567
41,0.44508914860146503,0.4450622884958988
42,0.4450772386166184,0.4449168062522928
43,0.44511496922820615,0.4449763311543887
44,0.44508007263571375,0.4451517327638214
45,0.4450587060204732,0.445067896626809
46,0.4450645658968712,0.44491807894108165
47,0.4450265615075533,0.4448903456951067
48,0.4451327825596028,0.4450885870409003
49,0.44498004905016714,0.44502932711639936
50,0.44506158408764535,0.4449245486648438
51,0.444995173448932,0.4449820484857337
52,0.4450928982758133,0.44556888998659583
53,0.445042326604291,0.4450689236884556
54,0.4450040698605677,0.4450288381154744
55,0.44497914940725886,0.44500781303371806
56,0.44500561265535016,0.445032475869313
57,0.44503159698976497,0.4449423633927401
58,0.4450447771001126,0.44500748057565814
59,0.4450247624058705,0.44490475828198256
60,0.4450081083004049,0.4449788559290395
61,0.4449466144724301,0.44491961608241076
62,0.4449316217220106,0.44494716663123446
63,0.44499843196562033,0.4449148682043692
64,0.4449738131434631,0.44494895351810354
65,0.4449943318391507,0.44497166071644306
66,0.44493493280432933,0.4455058196801224
67,0.4450200310232968,0.4451135802452751
