epoch,loss,val_loss
0,0.6477912257532538,0.6141625170883596
1,0.613982920381369,0.6137347699830589
2,0.6136907834324726,0.6133077724370678
3,0.6136041249406005,0.6142181540371234
4,0.6137192601996284,0.613221804403038
5,0.6135238548801705,0.6131087207295387
6,0.6134381470070882,0.6130525622155212
7,0.6133804264991533,0.6133166497115543
8,0.6131335355320013,0.6138014061819809
9,0.6129530210622467,0.6128839827892123
10,0.6129477542241706,0.6127122300089904
11,0.6130082165712887,0.6126500386385814
12,0.6127769123737095,0.6128781946083016
13,0.6127644101034839,0.6130911662920305
14,0.6127556923034178,0.6124537709787977
15,0.6126134350714483,0.6126587282825904
16,0.6125537207558767,0.6126449330396927
17,0.6125280393652502,0.6134399744234384
18,0.6124939508100326,0.6123186304145263
19,0.6123640791475937,0.6121291849433359
20,0.6122713703449082,0.6121612210342875
21,0.6122219911436645,0.6120635556680256
22,0.6121707757933903,0.6119796549711649
23,0.6121492585859044,0.6122287410096218
24,0.612130518684316,0.6121118575044675
25,0.611987650842924,0.6118650669831927
26,0.6120923091863983,0.6118546551051414
27,0.6119998990669012,0.6118525700036223
28,0.6119621987480516,0.6118483382051069
29,0.6119983763828069,0.6124859306326174
30,0.611887239276608,0.6117469665325548
31,0.611797971995867,0.6117313617105812
32,0.6118650896735766,0.6117020103117154
33,0.6118067623665115,0.6118816412530004
34,0.611790724695294,0.6118922916808944
35,0.6117719341405139,0.611837470295189
36,0.6117181429230285,0.6119551785299813
37,0.611787217344619,0.6119669300631704
38,0.6117572132116313,0.6119030210420088
39,0.6117240760664316,0.6117134712599553
40,0.6116664188130008,0.6118381638814822
41,0.6116887846328202,0.6122229568869461
42,0.6116709182581391,0.6116065124368029
43,0.6116078975784485,0.6116690314085161
44,0.6116978853946433,0.6115813745032934
45,0.6116353525308583,0.6115450777467576
46,0.6115934886778941,0.6115503480596747
47,0.6115890610886764,0.6115248709408422
48,0.6116277151401819,0.6115503898671536
49,0.611614587292829,0.6118319546285956
50,0.6115920096863707,0.6115709061052935
51,0.6115541783991943,0.6114959092200579
52,0.6116156790419413,0.6118843590454085
53,0.611613834820195,0.6115243006220737
54,0.6115982531152122,0.6114831832400767
55,0.6115141675006566,0.6115004164097527
56,0.611620837095251,0.6116289443697573
57,0.6115710616527423,0.6115145327564029
58,0.6115978604326513,0.6115088826429955
59,0.6115119175027983,0.6117930092446672
60,0.6115693509553182,0.6115518886466752
61,0.6115978376766356,0.6115362549029396
62,0.611545936145527,0.6114873787441873
63,0.6115182581834343,0.6115308905286644
64,0.6115441769097145,0.6118339803770586
65,0.6115511141983152,0.6114976951716733
66,0.6115519493233066,0.611490715324474
67,0.6115502008802849,0.6114823565961768
68,0.6115041846980186,0.6114703012094692
69,0.6115135009400945,0.611512706167743
70,0.6115461889994636,0.6115135386638147
71,0.6115263921883286,0.6114828234901121
72,0.611502103935493,0.6115198034959269
73,0.6115386058352675,0.61152657191017
74,0.6115320332190192,0.611670756989782
75,0.6115383351622878,0.6114623506893082
76,0.6115533484481792,0.6114509326205338
77,0.6114946811937327,0.6117423041345089
78,0.6115271166507539,0.611491431225591
79,0.6115253516685097,0.6115130606780995
80,0.6115536679257207,0.6115177040538519
81,0.6114978870025882,0.6115889650219011
82,0.6115530170475211,0.6115982770963554
83,0.6114916868397109,0.6114774099904083
84,0.6115145574376191,0.6114694386977715
85,0.6115128893389019,0.6114705876377355
86,0.6115135856525624,0.6114616209508126
87,0.6115187015957575,0.6119238743214984
88,0.6115036526571949,0.6114777595783772
89,0.6114783598544321,0.6117279384087633
90,0.6114638267857384,0.6114926789195894
91,0.6115206767675992,0.6116575418776121
92,0.6114725680382469,0.611487107772218
93,0.6115340480361355,0.6115255388213333
94,0.6114947472157125,0.6114801116483236
95,0.611494586880786,0.6115123974574687
96,0.6115110603255103,0.6115610376916515
