epoch,loss,val_loss
0,0.4496735882759094,0.4466256073911985
1,0.3725400263203515,0.33552618249257404
2,0.3355730441345109,0.3353604885339737
3,0.33542947491672304,0.335631416896979
4,0.3353444028960334,0.3352885876496633
5,0.3352982272240851,0.3352815842231115
6,0.33526853555440905,0.33510684553782144
7,0.33521768101056415,0.3351216484904289
8,0.3352025464706951,0.3351127422253291
9,0.335276150809394,0.335464129447937
10,0.33517530538638435,0.33566424294312797
11,0.3351647414167722,0.3350048834880193
12,0.3351539562278324,0.3350758854945501
13,0.3351429463095135,0.33500014424324037
14,0.33633206322458054,0.33508002175887425
15,0.3351936272382736,0.3350985859632492
16,0.3351508428653081,0.33500789614518484
17,0.3351370053158866,0.3351216082374255
18,0.33513928304778207,0.3349970776438713
19,0.3351239455607202,0.3350863135258357
20,0.3351291873719957,0.3351600942413012
21,0.335125044465065,0.33498369377851483
22,0.3351231845087475,0.3350638691584269
23,0.3351104471617275,0.33503333882490793
24,0.3351182557609346,0.3349987899462382
25,0.3351479747162925,0.3350238573551178
26,0.33512156430217954,0.3349971535205841
27,0.3351172517008252,0.33507204488913217
28,0.335108696228928,0.33499444093306857
29,0.33512131326728395,0.33499273560444515
30,0.33512938150432375,0.33503705710172654
31,0.3351603526737955,0.3350857375264168
32,0.3351527576380306,0.3355466719865799
33,0.33510883498191835,0.3351199462811152
34,0.33516825752125845,0.33509862997134526
35,0.33509088048670027,0.3349728312095006
36,0.33511634351147546,0.3350994260708491
37,0.3351018742918968,0.33505412278572716
38,0.3351036580536101,0.33502359201510745
39,0.33510114785697726,0.33499643808603285
40,0.33509701319535573,0.3349791665275892
41,0.33510678169462416,0.33500432070096337
42,0.33510492009586756,0.3353297064304352
43,0.33510978790786533,0.33501359941562014
44,0.33510314287741977,0.335103766421477
45,0.3351016548143493,0.33498092359304427
46,0.3350968300369051,0.33521325180927913
47,0.33511534957753286,0.3350348283449809
48,0.33509786459472446,0.33541888773441314
49,0.3350912357634968,0.3350057523647944
50,0.33508813709020613,0.3351428715189298
51,0.33509600555234487,0.33502496661742526
52,0.3351001860168245,0.5675475541353225
53,0.3427818806436327,0.33513211927811304
54,0.3352983091937171,0.33502486326297126
55,0.33520586097240446,0.3350979423324267
