epoch,loss,val_loss
0,0.4486723102728526,0.44737252364555996
1,0.4468409536017312,0.4465391494234403
2,0.4465045099788242,0.4462507414619128
3,0.3376488214598762,0.3356676319440206
4,0.33547498373852835,0.3354456591010094
5,0.32449661073419783,0.22544983712832134
6,0.1150617578079303,0.11405200027922789
7,0.1138669206003348,0.11366352513929208
8,0.11377345399889681,0.11364726802706718
9,0.11373050062523948,0.11351772640645504
10,0.11370637134545379,0.11351988950868448
11,0.1136802199565702,0.11349910668035348
12,0.11389236589603954,0.11354606292645136
13,0.11368474579354128,0.11357085168858369
14,0.11364304987092813,0.11399862583974997
15,0.11364903605149852,0.11375477690001329
16,0.11362517175078392,0.11347320566574733
17,0.11361984651618534,0.11376794139544169
18,0.11449784549739626,0.11357738695542018
19,0.11366976940631866,0.11353099804123243
20,0.1136223814189434,0.11409386017421881
21,0.11359519704679648,0.11353034379084904
22,0.11358146053883765,0.11354421290755272
23,0.11357123750613796,0.1135765579243501
24,0.11356152061455779,0.1134316622018814
25,0.11356947950025399,0.11390655400852362
26,0.11354469427631961,0.1135277896374464
27,0.11357706394294897,0.11359828740855057
28,0.11361754027174578,0.11357809433341026
29,0.11354284324910906,0.11338802773753802
30,0.11442276476654742,0.1140920276492834
31,0.11366804519626829,0.11359281553328038
32,0.11357680638300048,0.11338814306755861
33,0.11357026876178053,0.11345387414594492
34,0.11354022212657663,0.11360895587007205
35,0.11359821968277295,0.11345148789385955
36,0.11358521711991892,0.11348749029139678
37,0.11357394189635912,0.11342678462962309
38,0.11357270922097895,0.11337322810292244
39,0.20795862530834144,0.11379235710700353
40,0.11360978800886207,0.11348424955209097
41,0.1136001487241851,0.11504159270226956
42,0.11361037227842542,0.11398453406492869
43,0.11357365645137098,0.11339841035505135
44,0.11356054446763462,0.11337770969172319
45,0.11354307649864091,0.11352149204413096
46,0.11353842489918073,0.11357468889653682
47,0.11354158122671976,0.11378256893157959
48,0.11355524134470357,0.11377105292181174
49,0.11353296487530072,0.11364770898222923
50,0.11352235843903488,0.11339854187270006
51,0.11353844990995195,0.11340118685364724
52,0.11353158640695943,0.11336126913626988
53,0.1135427706953552,0.11342519676188628
54,0.1135307463788324,0.11343250295023123
55,0.1135213667502006,0.11349857509632906
56,0.11353814402222634,0.11369687910874685
57,0.11352805830538273,0.11366371274491151
58,0.11350340438385804,0.11442647659778594
59,0.19715912367403507,0.3355825622280439
60,0.3352515047854847,0.3351517691016197
61,0.3352504024969207,0.3351874159574509
62,0.33519041646851433,0.3351469156940778
63,0.3351567565732532,0.33523710123697914
64,0.3351418138742447,0.3354717533389727
65,0.3351532921128803,0.33539266894261044
66,0.33513808975617093,0.33504631455739337
67,0.3351737816068861,0.3352482398351034
68,0.33517607997523413,0.3352158617575963
69,0.33515329103337393,0.3354477456609408
70,0.3351330548259947,0.3352120266358058
71,0.33512726903624007,0.33505005194743476
72,0.335219178934892,0.3351403366525968
