epoch,loss,val_loss
0,0.6691671310530769,0.6682630966901779
1,0.6679855322970284,0.6677311153411866
2,0.6678483632008234,0.6676608423391978
3,0.6677735249731276,0.6680567200581232
4,0.6677265034384198,0.6676308594544729
5,0.6676950180663003,0.6675842526356379
6,0.6676548328929477,0.6675905521313349
7,0.667636034488678,0.6675649007956187
8,0.6676281392176946,0.6675428185065587
9,0.6676132869058186,0.6675370852549871
10,0.668578325510025,0.6682118074496587
11,0.6676859265036054,0.6676656504869461
12,0.6676292598379983,0.6676595398982366
13,0.6676064366499583,0.6675360621213913
14,0.6410980588859982,0.5567983391682307
15,0.556825708217091,0.5568692483107249
16,0.5567897606425816,0.5567294543981552
17,0.5567821507453918,0.5566802874008815
18,0.5567770600981182,0.5567029151121775
19,0.5567814683119456,0.5568618004719417
20,0.5567693716155158,0.5566932564179102
21,0.5567595760689842,0.5568043241500854
22,0.556757518225246,0.5567088572978973
23,0.5567655184666316,0.5567890461683274
24,0.5567617639303207,0.5568187290430069
25,0.5567665615081787,0.5572572189569474
26,0.5567849435276455,0.556832462588946
27,0.5567624873320262,0.5567958284219106
28,0.5568288783894645,0.5570957424640656
29,0.5568011196984185,0.5567473624944687
30,0.5567809985081354,0.5566766964991887
31,0.5568961480723487,0.5569050993919372
32,0.5568294587797589,0.5568197559118271
33,0.5568563479317559,0.5567225136359533
34,0.5567869806422128,0.5566972279548645
35,0.5567765839762158,0.5567964145739873
36,0.5567793810764948,0.5567078740596771
37,0.5567712123261558,0.5566963013013204
38,0.5567938849661085,0.5567410089572271
39,0.5567607146104177,0.5568002430995306
40,0.5567651603354348,0.5567380928198497
41,0.5567710366778904,0.5566950658559799
42,0.5567668499416775,0.5567934254010518
43,0.5567543306880527,0.5566941837072372
44,0.556774460779296,0.5567315620978673
45,0.5567588264147441,0.5567151313225428
46,0.5567593415048387,0.5567149008115133
47,0.5567710356977251,0.5566687670151392
48,0.5567601334253947,0.5567410499652227
49,0.5567573125362396,0.5567515292565028
50,0.5567591325177087,0.5568901424805324
51,0.5567761155101988,0.5567817565202713
52,0.5567561354372237,0.5566738780736923
53,0.5567544686396917,0.5568068086703618
54,0.5567701015207502,0.5571739893754323
55,0.5567542266580794,0.5567185064951579
56,0.5567553763389588,0.5568087373971939
57,0.5568063055144415,0.5570100704828899
58,0.5567548218833076,0.5567120269139608
59,0.5567550866471397,0.5567051612536112
60,0.5567538027233547,0.5569420207341512
61,0.5567530801693599,0.5566935105323791
62,0.5567517006397247,0.5567051648696264
63,0.5567639221217897,0.556694450934728
64,0.5567544558975431,0.5566664565006892
65,0.5567497324546178,0.5567469479640325
66,0.5567575169801712,0.5568442617654801
67,0.5567471150689655,0.5569632038672765
68,0.5567680552270677,0.5567048749526342
69,0.5567491292423672,0.5567697990735372
70,0.5567572741508484,0.5570578203996023
71,0.5567565378745397,0.5567665723959605
72,0.5567593403657277,0.5567863487005233
73,0.5567537455293867,0.5566796823342641
74,0.5567618361579048,0.5567341372172038
75,0.5567574655744765,0.5566919909318289
76,0.5567453652885225,0.556704265276591
77,0.5567771356238259,0.5569006578922272
78,0.5567572554747263,0.5567797830899557
79,0.5567624373833339,0.5568062903881073
80,0.5567505290905634,0.5567682715654373
81,0.5567806139919493,0.5567236209710439
82,0.5567582763168547,0.5566786390145619
83,0.5567501504156325,0.5566956474781036
84,0.5567514325115416,0.5567176813284556
