epoch,loss,val_loss
0,0.5587189339531793,0.5571195955276489
1,0.5572360164059533,0.557107128739357
2,0.5570437151590983,0.5569604690074921
3,0.556955659058359,0.5568456441561381
4,0.5569287993643018,0.5568833916584651
5,0.5568744741148419,0.557055542031924
6,0.5568646459447013,0.5567811377843221
7,0.5568401614692476,0.5568447913726171
8,0.5568266393740972,0.5567517851591111
9,0.5569239731762144,0.5567798366943996
10,0.5568174103498459,0.5567386759916941
11,0.5568052265114254,0.5567478122313817
12,0.5567859654426575,0.5568899687925974
13,0.556783863650428,0.5567428313891093
14,0.5567801652087105,0.5567134521007537
15,0.566490819838312,0.5572093539237976
16,0.55691619292895,0.5567643405199051
17,0.5568246451218923,0.5568020251194636
18,0.556797272602717,0.5569005527893702
19,0.5567994225422541,0.5567351455291112
20,0.5567870151864158,0.5568315298954646
21,0.5567809473805957,0.5567244101762772
22,0.5567724151876238,0.5567332671880723
23,0.556769030769666,0.5567192947864532
24,0.5567754748264948,0.5567569264570872
25,0.55676230416033,0.5567674646774928
26,0.5567581583658854,0.5568539291620255
27,0.5567532417244382,0.5568488360643387
28,0.5567954224083159,0.5569729480743408
29,0.5633941571977403,0.5570197390715281
30,0.5568715582821104,0.5569766275485357
31,0.5568132293356789,0.5568510460456212
32,0.5567722221480476,0.5567457976738612
33,0.5567569566435284,0.5567937181393305
34,0.5567521128919389,0.5568185629049937
