epoch,loss,val_loss
0,0.5587819162607193,0.5579955484469732
1,0.5573428444200091,0.5581199293136596
2,0.5571651969750723,0.5569574300050736
3,0.5570513227515751,0.5568354649146398
4,0.5569680729309718,0.5569615283409755
5,0.5569167283111148,0.5568428184588751
6,0.5568795827892091,0.5567893501122793
7,0.5568670769929885,0.5567784214019775
8,0.5568498477803336,0.556803224682808
9,0.5568306629127926,0.5567438633441925
10,0.5568280972507265,0.5567612890005111
11,0.5568096448050605,0.5567266667286555
12,0.5568027136590745,0.5567360535462698
13,0.5568009290165371,0.5567317533095678
14,0.5567920147975286,0.5566978017091752
15,0.5567845784690645,0.556710857073466
16,0.5567886440489027,0.5570947151581447
17,0.556786932124032,0.556682474732399
18,0.5567776765690909,0.5567816083431244
19,0.5568531614012189,0.5571885985533397
20,0.5567757492992613,0.5566922367811203
21,0.557890426463551,0.5569694196780522
22,0.5568471248944601,0.5572203214963277
23,0.5568072657850054,0.5567594780127207
24,0.5568082595798705,0.5567899466355641
25,0.5567830375432968,0.5567425934473673
26,0.5567881916761398,0.5567590348323186
27,0.5567836408350203,0.5568778620560964
28,0.5567770714627371,0.5566987030506134
29,0.5567724794281853,0.5567377566893895
30,0.5567763490544425,0.5567077949841818
31,0.5567744388712778,0.5567050522565842
32,0.5567649689647887,0.5566681607961654
33,0.556835032860438,0.5568027245203654
34,0.5567670641475254,0.5566617476145427
35,0.5567711388932334,0.5567100053230921
36,0.5567623136970732,0.5567159481048584
37,0.556763976626926,0.556675963918368
38,0.5567674232853783,0.5571307005484899
39,0.5567621159553527,0.5568247146209081
40,0.5567607190344068,0.5566869294246037
41,0.5567612297534943,0.5567189267873764
42,0.5567568480438656,0.5567115938663483
43,0.5567562221023772,0.556759933312734
44,0.5567614243692822,0.5566623451312384
45,0.5567556448645062,0.5570510205030441
46,0.5567612465355132,0.5566615347464879
47,0.5567498933871587,0.5567719096342723
48,0.5567552601628833,0.556679233511289
49,0.5567613732417425,0.556685158054034
50,0.556761669198672,0.5567159747282664
51,0.5567585691346063,0.5566992273330689
52,0.5567436401181751,0.55710673280557
53,0.5567662753131655,0.5567606068452199
54,0.5567670802937613,0.556676824092865
55,0.5567498832676145,0.5566552329063416
56,0.5567501651446024,0.5568111087083817
57,0.556745255139139,0.5567456989685694
58,0.5746542039049997,0.5568945461908976
59,0.5569201916456222,0.556735717177391
60,0.5568725561565823,0.5571947060028712
61,0.556807755668958,0.5567756712039311
62,0.556794393936793,0.5566863861878713
63,0.5567877909607357,0.5568763640721639
64,0.5599800446960661,0.5567065495649973
65,0.5567588913440704,0.5567042913834254
66,0.5567883890999688,0.5568068364063898
67,0.5567792294687695,0.5566939805746078
68,0.556779016772906,0.5566812286774317
69,0.5567754489183426,0.5570133744080862
70,0.5567668212387297,0.5569524416923523
71,0.5568127150800493,0.5568168484369914
72,0.5567806606027815,0.5567916196982066
73,0.5567735532654656,0.5567284641663234
74,0.556774998943011,0.5567057953278224
75,0.5567693420118756,0.5568632327715556
