epoch,loss,val_loss
0,0.5588422910372416,0.5571443672974904
1,0.5572657595872879,0.5573153154850006
2,0.5570676531261868,0.5571093152364095
3,0.5570005072885089,0.5568445933659871
4,0.5569665604167514,0.556901273727417
5,0.5569200992186865,0.5567724407911301
6,0.5568852701319589,0.5568178102175395
7,0.556841573132409,0.5644166880448659
8,0.5571510866350597,0.5567693458795547
9,0.5568284765084585,0.5571912277142207
10,0.5576916608545516,0.5569084431727728
11,0.5569194304148356,0.5568857918580373
12,0.5568404637442694,0.5567787036895752
13,0.5568140079710219,0.5567465929985046
14,0.556794444905387,0.5567392769654592
15,0.5567898573875427,0.5567563458283742
16,0.5567839606867896,0.5566795602639516
17,0.556786269068718,0.5567590299844741
18,0.5567767471207513,0.556687647541364
19,0.5567723915047116,0.5567266567548116
20,0.556774596479204,0.5567239290475845
21,0.5567636510398652,0.5569481074810028
22,0.5567668195830451,0.5567412608067195
23,0.5567646400531133,0.5568109565973282
24,0.5567550349500444,0.5567265514135361
25,0.556759831574228,0.556746578892072
26,0.5567551035086314,0.5566841779152553
27,0.5567511266602411,0.5567060978015264
28,0.5567510971095827,0.55667072168986
29,0.5567457014719646,0.5567415875593821
30,0.5567478899161021,0.556765056014061
31,0.5567524187962214,0.556652283112208
32,0.5567443451351589,0.5566687748034795
33,0.556746166229248,0.5566757725874583
34,0.5567432599067688,0.5566669752597809
35,0.5567429315646489,0.5568353077967961
36,0.5567552400694953,0.5567155372301738
37,0.5567338471280204,0.5568500201304754
38,0.5567422821521759,0.5568464082876842
39,0.5567414031161202,0.5567210561037064
40,0.5567427566581302,0.5566770902077357
41,0.5567428009112676,0.5566598942279816
42,0.5567351519134309,0.556672398408254
43,0.556735384967592,0.5566809535821279
44,0.5567378775808546,0.5566686472892761
45,0.5567321304082871,0.556656866033872
46,0.5567430787218942,0.5566460835138957
47,0.5567234588729011,0.5566642030874888
48,0.5567306862804625,0.5570980769395828
49,0.5567289675871531,0.5566930604378383
50,0.5567212249967787,0.5569984424114227
51,0.55673641594251,0.5566362316608429
52,0.5567267378171284,0.5568504916032155
53,0.5567254210710526,0.5567322345972061
54,0.5567254304356045,0.5566849672794342
55,0.5567311890257729,0.5567047131458919
56,0.5567336572011312,0.5566429959932963
57,0.5567341138521831,0.5566548853317896
58,0.5567233549488916,0.5566619917154312
59,0.5567293665276634,0.5567310482263566
60,0.5567232922315598,0.5567386475006739
61,0.5567307913038466,0.5566745386918386
62,0.5567662204504014,0.5566503645976385
63,0.5567271809577942,0.5566329272588094
64,0.5567300673193402,0.5566330165465673
65,0.5567250633239746,0.5567175150314967
66,0.5567244606547885,0.5567052394946416
67,0.5567197228272756,0.5567490151723226
68,0.5567258470985624,0.5566375258366267
69,0.5567288970947266,0.5566259413560232
70,0.5567129994763268,0.5566689457893371
71,0.5567193559540643,0.5566307274103165
72,0.5567266684903038,0.5566523072322209
73,0.5567266115215089,0.5566504594087601
74,0.5567203021314409,0.5568376791874567
75,0.556719327741199,0.5574522640705109
76,0.5567144520945019,0.5566935720046361
77,0.5567181543244256,0.5567765372594198
78,0.556713868909412,0.5567406181097031
79,0.5567162350018819,0.5566279927889506
80,0.556711375090811,0.5567014726400376
81,0.556710099697113,0.5567078127066294
82,0.5567173517015245,0.5566304490963618
83,0.5567093170881271,0.556741218606631
84,0.5567129586140315,0.5566336908340455
85,0.5567088570462333,0.5567046365737915
86,0.5567142877313825,0.5568768233458201
87,0.5567144978576236,0.5566924137671788
88,0.556712935063574,0.5566664466460546
89,0.5567448017199834,0.5569110450744629
