epoch,loss,val_loss
0,0.6693776959710651,0.6680023496548335
1,0.6679938084814283,0.6677808634837469
2,0.66779512752427,0.6676974562009176
3,0.6055137765275107,0.556943604628245
4,0.5569289721382988,0.5568468040625254
5,0.5569007947974735,0.5569615744749705
6,0.5568826957676146,0.557289428114891
7,0.5571382475429111,0.5571222391525904
8,0.5568490503099229,0.5568049558401108
9,0.5572256647083494,0.5568231196006139
10,0.5571078180736966,0.556755910317103
11,0.5568230080074734,0.556771475036939
12,0.5568034990628561,0.5567791646718979
13,0.556814174162017,0.5567743152777354
14,0.5568826812505722,0.5567146916786829
15,0.5567886172268126,0.5567091121673584
16,0.5567938952445984,0.5567135413487753
17,0.556784864809778,0.5568783504168192
18,0.5567941164175669,0.5567430835962296
19,0.5573657167222765,0.5568330257733662
20,0.5568126796616448,0.5566797686815261
21,0.5567738442023595,0.5567480976581574
22,0.5567542709377077,0.5567369691133499
23,0.5567616966962814,0.5567334367831548
24,0.5567567130857044,0.5567733620802562
25,0.5567614500257704,0.5566749057769775
26,0.5567584174606535,0.5566372500658036
27,0.5567545386685265,0.5566804160277049
28,0.5567553397549523,0.5567059985001882
29,0.5567416944901149,0.556791788538297
30,0.5567528457509147,0.5566837495565414
31,0.5567442052496804,0.5567793670892716
32,0.5567447210550308,0.556717527548472
33,0.5567362805075116,0.5570279108285904
34,0.5567444738944372,0.5567280127207438
35,0.5567939820686976,0.5566551719506582
36,0.5567396327522066,0.5566506966352462
37,0.5567417573531469,0.5567048011223475
38,0.5567626290453805,0.5567176123062769
39,0.5573410592608982,0.5568201066255569
40,0.5569208208190071,0.5569255271752676
41,0.5567779201666514,0.5567733598947525
42,0.5567635279364056,0.5569487996498743
43,0.5567469934622447,0.5567098733584086
44,0.5567545469734404,0.5567214141686757
45,0.5567438875039419,0.5567039336363474
46,0.5567512399752935,0.5566904476086298
