epoch,loss,val_loss
0,0.11873658092485534,0.11483462618788083
1,0.11493481618993812,0.11588871805369853
2,0.11443425203694238,0.11401220173637072
3,0.11414080998632643,0.11381740265587965
4,0.11395201135509544,0.11364252895116805
5,0.11380914605988396,0.1135860832631588
6,0.11375026656024986,0.11450945935149988
7,0.11372217469082939,0.11351372025410335
8,0.11372016406555971,0.11348643399775028
9,0.11364327386352752,0.1137257554580768
10,0.11362871817085478,0.11359276598195235
11,0.11364316810667514,0.11358314575751623
12,0.1164144917594062,0.11378536743919054
13,0.11377066112392478,0.11490635148187478
14,0.11369561380313502,0.11356572479506334
15,0.11364775324861208,0.11388867578903834
16,0.11396265541844898,0.11361985568205515
17,0.1136661998530229,0.11338714995483558
18,0.1136182229883141,0.1139653123319149
19,0.11363664505879084,0.11362800183395545
20,0.11360141411258115,0.11343395619094372
21,0.11359904693067074,0.11346299311518669
22,0.11359615851773155,0.11337219223380089
23,0.11356940778427654,0.11338782267769178
24,0.11357834761010276,0.11376351509491603
25,0.11361723065045144,0.11444640678664049
26,0.11356781452728643,0.114591814716657
27,0.11355574652883742,0.11493814428150653
28,0.11357628216346105,0.11343011313676835
29,0.11356015077067746,0.11354367205003897
30,0.11354226903286245,0.11356434515118599
31,0.11354824262857437,0.11343760282794635
32,0.11355562183923192,0.11339530992011229
33,0.11352991791235076,0.11351723556220532
34,0.11352376636862754,0.11340057494739691
35,0.1135231678303745,0.11372597128649553
36,0.11356177976893055,0.11342963874836763
37,0.113600645840168,0.11537922509014606
38,0.1136220276074277,0.11351046854754289
39,0.11358393194940355,0.11337747000654538
40,0.11356903662615352,0.11385337808231513
41,0.11354145209160116,0.11385491128762563
42,0.12333756866388851,0.11397015382349492
