epoch,loss,val_loss
0,0.5708904992537214,0.5557182481101203
1,0.5556856199215696,0.5557131905646735
2,0.556562326570939,0.5556510267596351
3,0.5556519069262963,0.5556596499623498
4,0.5556465002887656,0.5556171122527512
5,0.5558428595414211,0.5556596485512654
6,0.5556800389914087,0.555615703159132
7,0.5557558527158774,0.5556315114288554
8,0.555748507397805,0.5556913770586225
9,0.5557971517412701,0.5558983717824061
10,0.5557599543774027,0.5556524988160612
11,0.5557412520208701,0.5556306999240321
12,0.5557945365715283,0.5563900717946888
13,0.5557194932043688,0.5560071685922804
14,0.5557466179411397,0.5556598555540728
15,0.5557091215549861,0.5556410450435687
16,0.5557159246520077,0.5559132861684147
17,0.555702988537122,0.5556871500731083
18,0.5557488590276533,0.5557753629018504
19,0.5556942253088873,0.5557225203925392
20,0.555714631274606,0.555774091383496
21,0.5556766243748704,0.5558145974924595
22,0.5557146904672287,0.5556430963118769
23,0.5557602138382773,0.5557651747517858
24,0.5559435223573398,0.5557368832961159
25,0.5556338981305334,0.5556644985032182
26,0.5556626473354361,0.5557415759613764
