epoch,loss,val_loss
0,0.5701703317028132,0.5558159268652765
1,0.555654574360856,0.5568744054429573
2,0.5054884457461307,0.44457736805527115
3,0.444543250022244,0.444560511617797
4,0.44453541332591584,0.444527884774699
5,0.44453097542885384,0.4445232460314603
6,0.4445211745923015,0.44452861632900864
7,0.4445376982599645,0.44456553613402294
8,0.44458393922032674,0.44482681698855137
9,0.4445790919939181,0.44452918612819176
10,0.4446681448518081,0.4445387506773765
11,0.44462170183654953,0.44458287384974277
12,0.4446748864572697,0.44494399189358347
13,0.4446216283033709,0.44470262710688024
14,0.4446080369931693,0.4445323558504767
15,0.444612818981534,0.4446697399515168
16,0.4446065704935719,0.44456231654248207
17,0.44462597785998303,0.44463455644763483
18,0.4445962360683782,0.44453533493962766
19,0.44466386015038756,0.4445738312924186
20,0.44458413610306985,0.44506639953183785
21,0.4446138107095529,0.44469033889123816
22,0.4446420007950306,0.4446804442248622
23,0.444595863831957,0.44461814265313293
24,0.44460892404752705,0.6265069625917586
25,0.5310390351335958,0.4445831722886349
