epoch,loss,val_loss
0,0.6772053500501477,0.6668313932344441
1,0.6668331441787679,0.6668905645997224
2,0.6668471441893444,0.666900672689887
3,0.6730202942286281,0.6670008246276024
4,0.666778190132893,0.6669435864261453
5,0.6667762634629772,0.6667088017504813
6,0.6667355231176408,0.6667063592726823
7,0.6667465106561627,0.6667231963651731
8,0.6667359734322453,0.6667142658960843
9,0.6667527631604285,0.6667968812043962
10,0.6667613643983559,0.6667015306182598
11,0.6667506310264073,0.666701779734828
12,0.6667529260440581,0.6667112380041947
13,0.6667713408164747,0.6667053712619775
14,0.6667370241578146,0.666896977716027
15,0.6667837721313943,0.666705752057884
16,0.6667464907369008,0.6667037811338803
17,0.666737544997472,0.6667744278207703
18,0.6667410951583344,0.6667109480427479
19,0.6667674746346808,0.6667033215907107
20,0.6667288971281259,0.6668586266830572
21,0.6667396079883551,0.6667824623496801
22,0.6667338983979204,0.6667054316432657
23,0.6667437376965513,0.6667076363369268
24,0.6667485172802384,0.6667435795566449
25,0.6667392101135867,0.6667425627116873
26,0.6667548362403832,0.6667090442163569
27,0.6667210435024306,0.6667155161716015
28,0.666746492107877,0.6672273110000119
29,0.6667382440822543,0.6667452047321419
30,0.6667280547654015,0.6667465303858217
