epoch,loss,val_loss
0,0.4931073775831155,0.4528035513303284
1,0.44830003410309777,0.4482870634968597
2,0.4412139492349726,0.43665752572889915
3,0.4394156868320186,0.4345063407730894
4,0.4392414747476359,0.4363240327861773
5,0.43833031035121545,0.4352833014613971
6,0.43833134194419326,0.43797295247552415
7,0.4379986506095609,0.4353291736127784
8,0.4375785283619908,0.4360175994059912
9,0.4381624347251541,0.43356245522062414
10,0.43822303942954527,0.436296083775545
11,0.4377858684377553,0.43585002534453815
12,0.438488446880227,0.43753171884306946
13,0.43805593754539013,0.43342725542909094
14,0.43811653387898764,0.43612398264888974
15,0.4382802495050264,0.4393567434143071
16,0.438105703923413,0.43585519649869126
17,0.4385870838246229,0.4341837174193665
18,0.4383545409027295,0.43770307364825217
19,0.43825031591623415,0.4365055354708246
20,0.43879511921225084,0.4376178781556129
21,0.4384585061922579,0.43683218714796657
22,0.4379920567486522,0.43589037746480896
23,0.43797036496230846,0.4364223973940088
24,0.4384828917306155,0.43460113063911315
25,0.4388810315029755,0.44091000467686503
26,0.4386721789935331,0.43612768211306113
27,0.4390304713052092,0.43456551485115025
28,0.4391428162349782,0.43511787616434305
29,0.43923417682121774,0.43487076608166386
30,0.4391419880842808,0.437378179022841
31,0.43973075803988,0.4362239393647121
32,0.4394258412117695,0.4360803599630196
33,0.4387772712664421,0.4367750785037517
34,0.43917109605467064,0.43688506409758315
35,0.4399128342893369,0.4359283479042372
36,0.4402293833921231,0.4370252999565452
37,0.4401670954444689,0.4361378408874103
38,0.44009067252166206,0.43565403395649444
39,0.43967543673648773,0.43580528960837905
40,0.44001897904255516,0.44539577116176915
41,0.4403183105495528,0.43854000509211855
42,0.44077448234588296,0.4355097139706457
43,0.4406360834372068,0.4360953316565587
44,0.4404269782506691,0.44145010868154066
45,0.44124597002550275,0.43722704535319096
46,0.4411827453064643,0.4385887428606775
47,0.4412051110360399,0.44028698536076005
48,0.4416916190861431,0.4368255110831846
49,0.4412959290329612,0.4360334492097275
50,0.4408672489738613,0.4373136191088949
51,0.44149831844198745,0.4383430061405526
52,0.44178235750993383,0.4385007207853944
53,0.44175651894838225,0.4366093523722435
54,0.4422327972542454,0.4383761382065775
55,0.4416899453157415,0.43723933005206056
56,0.44013604077642654,0.436298972194316
57,0.43991124089605593,0.43651215940205235
58,0.43968058334980387,0.43550912536247255
59,0.44033045066149,0.435733439900893
60,0.44021170357866757,0.4374980783108113
61,0.43980289589846805,0.43660364914080446
62,0.4399480222561837,0.43509289474635193
63,0.4392083739360378,0.4379997481762061
64,0.4399079791989583,0.43846761022473413
65,0.43971799134901846,0.4354601325704802
66,0.4396770837755898,0.4354478457331067
67,0.439731255239315,0.4357891211839614
68,0.43992841554401246,0.4385731472107528
69,0.4400733251307159,0.43800978767563387
70,0.4393759085719007,0.43561791451529946
71,0.44020843272319427,0.43719869062843225
72,0.4399536292139249,0.43566761581935803
73,0.4399485363694895,0.43836635127485857
74,0.4396444231375661,0.4368276273762333
75,0.43986262402680626,0.43796722195218035
76,0.43959932759127984,0.43558082684045935
77,0.43938073806039435,0.43834381880487167
78,0.43941290600296773,0.4357150538314655
79,0.43987885088816897,0.43618106213069263
80,0.4395001359731041,0.43678682891026094
81,0.44008168377697326,0.4370896755489522
82,0.43970491772267684,0.4384028497563084
83,0.4405420684260958,0.4368813238924502
84,0.440642146752239,0.43752885836158284
85,0.44044742160465633,0.43793268527737844
86,0.4403052604686319,0.43800507320966564
87,0.44039372064188265,0.4398665510748347
88,0.4400034220333733,0.43723536073713043
89,0.440468746522716,0.43751613830487474
90,0.4403662169377811,0.437826565114221
91,0.4402961009909285,0.436218079590408
92,0.4409273223311207,0.4384373191748875
93,0.4402964191084325,0.4411474228463144
94,0.44103591611438286,0.438280641890421
95,0.44102576303633007,0.43845282007978914
96,0.44120082768371816,0.43758823792198026
97,0.4413608652689103,0.44035298595911515
98,0.44094914214876646,0.43912786438959983
99,0.4415478875525918,0.4393642418623889
100,0.44161154280279424,0.44009714089176766
101,0.44192039761757235,0.4389741778767509
102,0.44149461396245,0.4425733781315948
103,0.44147293147941885,0.4381989614693128
104,0.44150584437340024,0.4388781693916317
105,0.4418026348810105,0.4381004888807049
106,0.442251480179197,0.4406364425691383
107,0.44206905721316403,0.4410554574627158
108,0.4423394953686068,0.44299461430727965
109,0.4419643966227108,0.43887878283051573
110,0.44198815275450587,0.43798742069631874
111,0.44153246774129157,0.43868754030499113
112,0.4415556828780751,0.43893886657127834
113,0.4419468747003075,0.43864503347517086
114,0.4423081020512347,0.43955959504100023
115,0.4422634887840796,0.4383087795652322
116,0.4420573723427767,0.43770361326226054
117,0.4428945664671238,0.4384712139156504
118,0.4434279402197337,0.44226392727857294
119,0.4451648544080543,0.4408177930754376
120,0.44571460478840497,0.4406515514660284
121,0.4466401665998087,0.44475526446748337
122,0.4470618109617524,0.44843960588821513
123,0.4462540514136831,0.44112472582637857
124,0.44540090748182587,0.4469072911406377
125,0.4443620055159159,0.4426364471473088
126,0.44394586658746876,0.44169795431113285
127,0.4436200759535121,0.4398259407972104
128,0.44359632786708614,0.4419051102267031
129,0.4430067275183685,0.4423479950904934
130,0.44345708780440524,0.44024093783017715
131,0.4435970425622182,0.43966220531207223
132,0.4432193293120144,0.44024455612964597
133,0.44353790874655347,0.4401162722216197
134,0.4442852744653173,0.4405920999840785
135,0.44443852680717,0.4421951194316187
136,0.4452041121584972,0.4402455320750317
137,0.445288365005703,0.44108374499688346
138,0.44558894288585826,0.4412395171253676
139,0.4460015743642712,0.44154783810447346
140,0.44567864729649737,0.44387384512967465
141,0.44596375102492775,0.4436439300025356
142,0.445467353988337,0.4400577559769099
143,0.4451846818346171,0.4437486018898684
144,0.44358734447139186,0.4428530672992735
145,0.44297776526159094,0.44000129907869334
146,0.4424955329259047,0.43869985841593406
147,0.44243324940839934,0.43766175494060144
148,0.44276391200285087,0.4419559024849995
149,0.44221712628085147,0.4381895765818069
150,0.4416780241871563,0.43868319185682775
151,0.44218388889213944,0.43823760922927774
152,0.44236615963333525,0.4380243899385127
153,0.4417646822469522,0.4379767349694361
154,0.4421349849519784,0.4369446671945411
155,0.4425260770821882,0.44140329629943054
156,0.4427262530439074,0.43986919912247946
157,0.44202866087891374,0.43681278973024773
158,0.4422524664315155,0.44123486986092897
159,0.442722458793693,0.4385356554953981
160,0.44239500490683636,0.4372851781548437
161,0.44298772228367944,0.4395667911779117
162,0.4423134042612236,0.4390323049793726
163,0.44221459964389737,0.4368075468186217
164,0.4427545673722717,0.44091616468399814
165,0.44234706862877654,0.4392163255035735
166,0.4420238949603215,0.43801485562372655
167,0.44234849584225144,0.43849592463513826
168,0.44236835577844985,0.43843657857979257
169,0.44225110087914954,0.438707361605916
170,0.44282945810621827,0.4391703213884494
171,0.44321477952178934,0.4376170685103583
172,0.443289796397388,0.4434265053300688
173,0.44257813023742043,0.43858179251498797
174,0.4427676157440302,0.4392356419917705
175,0.4426305703989714,0.4381612134014801
176,0.44226157780381864,0.4394545531432592
177,0.44197613212532416,0.4375992920130059
178,0.44181557523644194,0.43836961592812346
179,0.4420297295265317,0.4374110358070728
180,0.44176655739770065,0.436194286595399
181,0.4416513661656561,0.43874236795306754
182,0.4409294382686636,0.4361464658074914
183,0.4405958246618132,0.44086911301368703
184,0.4412487392678001,0.4403208375939712
185,0.4415661950060196,0.43934952069650246
186,0.4408288007866332,0.43843619922231725
187,0.4416892363059672,0.4368134961420953
188,0.44144378794477845,0.43918560200556633
189,0.4415476555249126,0.438839945208591
190,0.4408609631915205,0.438119855052201
191,0.44106501969564377,0.4365692223610408
192,0.4407276940998801,0.4378606454782211
193,0.4406905542723431,0.4418669658465043
194,0.44098530622507853,0.4375257786041357
195,0.44091725583513147,0.4385596965131114
196,0.4411635338045912,0.4362589080829449
197,0.4397938366651885,0.43923181372512304
198,0.43949796925019424,0.4379163990821023
199,0.43981720081084935,0.435834425767642
200,0.4391464040293171,0.43471289544088904
201,0.43904395912859195,0.4434433462674912
202,0.4395609811853544,0.43634366701449534
203,0.43875510707035437,0.43641278672205197
204,0.43910325796456706,0.4356841818851864
205,0.43908838255292976,0.43633538806169353
206,0.43939889078677125,0.4344139698941372
207,0.4398177419179819,0.4390207789462298
208,0.4445918161735816,0.4402863564054164
209,0.4457181204451533,0.44031592476125114
210,0.44512715209381454,0.4404017803679477
211,0.44524659877644696,0.4398220281827163
212,0.4446111670802068,0.4396976468748599
213,0.4448421533052189,0.4400274020572347
214,0.445074180358155,0.43948558726580256
215,0.4447218462275155,0.44053659403645723
216,0.4445907342546597,0.44026334567077885
217,0.4448809834314412,0.44336157866542897
218,0.4446147766752535,0.440048343485748
219,0.44455957790923173,0.43866046595341524
220,0.44420702317905636,0.43978481168352285
221,0.4437454947502728,0.44067105358293196
222,0.44421609839095305,0.4393472807202608
223,0.44468983642211374,0.4396371520436298
224,0.44414216504225623,0.44070627815593466
225,0.44397892206387685,0.4407713963670848
226,0.44390457468221856,0.44059805205861985
227,0.44315851870961837,0.43771737995530996
228,0.44186697637494454,0.43896742513757775
229,0.4410972092092136,0.4380858930388073
230,0.44041372686870645,0.4401398572895063
231,0.440255290508861,0.4353429570419457
232,0.44009913839119513,0.43646904303297296
233,0.43927852386103833,0.43652468103184616
234,0.439314417167746,0.43395995390395503
235,0.43888864778754777,0.43784187381629397
236,0.43817306995380906,0.4395035166470452
237,0.43859176916099507,0.43514614458870815
238,0.43846596325946785,0.43702539141997654
239,0.43921907284944994,0.4367147835706829
240,0.4404712387193647,0.43673611791511485
241,0.44134117387526406,0.4389824609752969
242,0.4419338508092235,0.43691028140732774
243,0.4415531573349849,0.43819319241461263
244,0.441686036056675,0.4384570525455615
245,0.44211292312787986,0.4369238408131651
246,0.4415006756038704,0.4363891391781278
247,0.44118079042124037,0.43781740822077103
248,0.44104139939166576,0.4413312723777079
249,0.44095298904118174,0.43793543313463623
250,0.4406420302283854,0.4374592747244622
251,0.4407274370172479,0.4350006915512687
252,0.44044928408299133,0.43573499804440935
253,0.44044594054573016,0.4401556665327685
254,0.44039154144345477,0.4362377973516439
255,0.4401135367551054,0.43857244195293166
256,0.4399355554946039,0.4369386928489305
257,0.43953646136973185,0.43494050234014736
258,0.4394798216020805,0.43539799683945923
259,0.4387820089879572,0.4376753661682418
260,0.43929169202730356,0.4345248928965287
261,0.4384383923483674,0.4397585130236656
262,0.43891494887031357,0.4376166413564992
263,0.43920371650686874,0.43718212944123697
264,0.4393555198372734,0.43765520092915516
265,0.4395486095707927,0.4367182784768327
266,0.4393316977454842,0.43485755029129836
267,0.4399367275588511,0.43587899108527234
268,0.43986551445555216,0.4366103368989917
269,0.44023922178740454,0.43468025204762994
270,0.4399823961366883,0.4385564435696597
271,0.44061697029557706,0.43750147812190154
272,0.44066511960636917,0.4363130096296232
273,0.44095673804918456,0.43598028567870356
274,0.440550109414272,0.4370560940853454
275,0.44070138751224414,0.43662526024374576
276,0.44130974884951174,0.43773143413220444
277,0.44153425883953673,0.436362930083848
278,0.44117179934388673,0.4368562547082878
279,0.44166781330933413,0.437762414879658
280,0.44193023056541153,0.4372435239919458
281,0.4418545343647705,0.4369848884886876
282,0.4413446972382837,0.43699253776419555
283,0.4412735502289772,0.438272186863814
284,0.4412422976098513,0.4369840922104501
285,0.44088077347176646,0.43895822322615835
286,0.44148401638732565,0.43525064070851766
287,0.4409047861748123,0.4364381221909767
288,0.4411427397496286,0.43716100183161577
289,0.4404492373886754,0.43614332664229494
290,0.440766371938368,0.43652501408059263
291,0.44083511963648014,0.4390421472387284
292,0.44008733966598207,0.4397804361075343
293,0.4404681673682618,0.4386502502981425
294,0.44041060046616726,0.4351721082472718
295,0.4402841862231619,0.43764578104347324
296,0.4398062962783676,0.43777125571753744
297,0.4404385062719096,0.4350772214813131
298,0.43997422057863855,0.43521161374421835
299,0.44027821491849295,0.43814099607259377
300,0.4396789354656919,0.43800580889331153
301,0.43924598378049146,0.4355011814492496
302,0.4393030680041944,0.4346049144620698
303,0.43898795802979584,0.43440563955160866
304,0.4391025573994221,0.43708542513834225
305,0.43900182017614525,0.4359616804919258
306,0.43919771882093683,0.4387997211305608
307,0.4396739748311187,0.43459732686954805
308,0.4395942477036625,0.4355986409065679
309,0.43990596105831875,0.4354666528088781
310,0.4399338048966702,0.4369809673037698
311,0.44044977065827307,0.43802296655903084
312,0.44079701089710244,0.4360287230612926
313,0.44055961555112366,0.43995330134188937
314,0.44072196838406824,0.43623975274277993
315,0.44133763827737654,0.43693967613961243
316,0.44085986478806943,0.4364915175883349
317,0.4413788047492515,0.43588626529125146
318,0.4411699966452148,0.4391229788159685
319,0.44175497662487284,0.43806134530504287
320,0.44085682817534977,0.43794541508588336
321,0.4403714224884851,0.43556198275927166
322,0.4406253885109286,0.439576103678973
323,0.4402625510032559,0.43761557487746644
324,0.44050099046148494,0.4386006482020718
325,0.44027071790610744,0.43925674106248214
326,0.4399399766464324,0.43911860031389405
327,0.4400807198969065,0.43535389054541324
328,0.44005293540887647,0.43568057750513584
329,0.4397051608147895,0.43735532843535
330,0.4395323791899229,0.43717875493668834
331,0.4397986387113712,0.43577981638917135
332,0.43926792334888937,0.4368018885449896
333,0.4393572737031255,0.4372263889090471
334,0.4396225453697447,0.43527832053564824
335,0.43958647413786717,0.43422071600992934
336,0.44002823744384184,0.43506597878627107
337,0.4401563958720037,0.43654156443853515
338,0.4401484597306839,0.4353398759445153
339,0.4411829718210693,0.43778166359751614
340,0.4412488630166249,0.4384791944842532
341,0.4407328609688213,0.43916765617261044
342,0.441198849143687,0.4382351147546574
343,0.4409524024211063,0.43620087491041765
344,0.4410019288108554,0.43792860515403365
345,0.44071678978070183,0.4382009611017749
346,0.44071193362654054,0.43579671145098037
347,0.440730056334557,0.4366301341731956
348,0.4403797029289418,0.4366210375024236
349,0.44013642373271417,0.43511577000594354
350,0.4402185855988823,0.43731167272572824
351,0.43975820756490175,0.44014166135550814
352,0.4397982100042253,0.43589263107606435
353,0.43976857915047574,0.4369900095985666
354,0.43971371719062297,0.43577317922765957
355,0.43951459005023824,0.43445542793270425
356,0.4395176405030711,0.43679872245980217
357,0.43983249657251217,0.43652577881179483
358,0.439549325767253,0.4349532163751346
359,0.4402141159341891,0.4356359699206038
360,0.4402715317189836,0.4355873952362161
361,0.44024888582077787,0.4350381916292131
362,0.4397805945755998,0.43407840630530786
363,0.4397779939168745,0.43653354090842705
364,0.4395299933824786,0.43567456570562474
365,0.43940804800564576,0.43650022281990464
366,0.43923205436151125,0.43767504432613114
367,0.44019062552381644,0.43631423122402857
368,0.439792137566368,0.43391785586201875
369,0.4394970233723929,0.43551221927998807
370,0.43990916918069645,0.43511061249774274
371,0.4399650393221045,0.43635787933676545
372,0.43996696975947,0.4353119683311628
373,0.43999781843652896,0.4347682022615231
374,0.4398793234346459,0.437715794366748
375,0.43985509134898776,0.43682426693330534
376,0.43961000565017644,0.43581417353902746
377,0.4397330637436697,0.43594285713398995
378,0.4401701436001875,0.43742893802767435
379,0.4400738118591386,0.43462061113032713
380,0.43964107415286263,0.4366922388712973
381,0.4403525512685336,0.4361115933602218
382,0.4400970219996987,0.43868166797859864
383,0.4406760725751451,0.44201763606789046
384,0.4399031561232418,0.43722553679999526
385,0.44049477470831205,0.4361548057103905
386,0.4405314998711812,0.4389231532489429
387,0.4405279483657777,0.43653779204098714
388,0.44027956311670785,0.436272524457215
389,0.4406780227841008,0.43634151748986083
390,0.44035312800281395,0.43686077097705317
391,0.4404264432472972,0.43741946973851414
392,0.4396588722184768,0.4376878994695636
393,0.44035294212251874,0.4355878519134623
394,0.43983217409049113,0.43513773104142084
395,0.4400123507085252,0.43669905474829573
396,0.439963721713794,0.4364509572182517
397,0.4405564551458247,0.43587176130110683
398,0.44099492065992724,0.43904540216754306
399,0.4407373756870346,0.4389281460759311
400,0.4411599329905371,0.4379013060681162
401,0.44056111647735324,0.44029081887795435
402,0.4407308016770213,0.43898168451787356
403,0.44084743459982967,0.4376314854234659
404,0.4411331066370535,0.4363862647662843
405,0.44027839305970096,0.43612909150749285
406,0.44056030973630733,0.43693570528233416
407,0.44053770382976637,0.4429873061532339
408,0.4406236827914967,0.43586619038891633
409,0.43994335429310516,0.43668564352820305
410,0.4396970678489347,0.4362841514102427
411,0.44017909957544804,0.4353009387536276
412,0.43978806368078216,0.4349465140959039
413,0.43955866748268485,0.4392660919417589
414,0.4393664120145622,0.43745601615855007
415,0.43904895944581335,0.43648059406637557
416,0.439752170177179,0.43646260756355926
417,0.44074350475696145,0.43681480741146445
418,0.4410557848343085,0.4384726400680773
419,0.44178244878467365,0.44041651652523917
420,0.44100569564610537,0.43659532582088223
421,0.44111937014558683,0.4359558043807641
422,0.4409383229075889,0.4369942872081028
423,0.4403752255579773,0.43752359559085746
424,0.4405254119715574,0.4360793942069762
425,0.44032426350465453,0.43622450022702697
426,0.4405140328169919,0.43597407736654
427,0.4405464928157615,0.4365832521338313
428,0.4403691060976449,0.4381042489886918
429,0.44067972962474317,0.4356565983782429
430,0.44072526049605204,0.4381471298269929
431,0.440187450821716,0.4358485211339822
432,0.4396470262438119,0.43717451682110886
433,0.4389977153615572,0.43964873213552735
434,0.4394143846526586,0.4346426711331422
435,0.4393650816135132,0.43388738400740545
436,0.43977341506268525,0.434825498306504
437,0.43955049963637566,0.4359110476861724
438,0.44000596778013,0.4398303449668016
439,0.44057814814362267,0.4362304773619906
440,0.4407365956772881,0.4377609283514123
441,0.44065409542431766,0.43696390396193596
442,0.44121206618105735,0.43857480741724175
443,0.4411153133379514,0.4388446919544834
444,0.4411110488629862,0.436812882681334
445,0.4413697651535639,0.4365419772791849
446,0.4412931921690358,0.4379485997667573
447,0.4409037600019302,0.43757971922155475
448,0.4411368127902028,0.4359034687023597
449,0.4412715391847798,0.4375159023310815
450,0.44058121537359335,0.43656662035959753
451,0.4405563333522816,0.4366261110510995
452,0.4406475332362386,0.43684526742500085
453,0.4407606511066585,0.436539004933705
454,0.44055767633550036,0.43789903351113785
455,0.4411270078507492,0.4378445336557918
456,0.44043048089590614,0.4393346130268183
457,0.4400136103940067,0.438922107886953
458,0.44018991839275334,0.4368194275808938
459,0.4400531724984109,0.4373261267973931
460,0.4398867253465026,0.43626723318586524
461,0.44112316784967653,0.4367365740126132
462,0.4409246899694844,0.43651744800437414
463,0.44006490210783245,0.4373485068210354
464,0.4404151108116595,0.4357023101965207
465,0.44043875220259915,0.4375251683812116
466,0.44030914771642177,0.43671094881742234
467,0.440054486026609,0.435929478631367
468,0.4402119061376528,0.4377893228435936
469,0.4407505096618485,0.4355496095668112
470,0.44150084401515893,0.43670959333954307
471,0.44057704020714755,0.43918954237685726
472,0.4406620702911548,0.43566337242588515
473,0.4404483476425009,0.43600580748734635
474,0.44023635569713077,0.43789560029344354
475,0.440589256326219,0.4368655252049748
476,0.44036455539677816,0.43508479850710935
477,0.4402286061252404,0.43625197849332314
478,0.44058504406958243,0.44192463871119636
479,0.44038579193883737,0.44019386895338664
480,0.44025518284257037,0.4380151556323134
481,0.4408592131213762,0.4372645017859651
482,0.4403646009480063,0.43785569993896994
483,0.44041074771665834,0.4359441403840349
484,0.4400102447442865,0.43619882772769114
485,0.4404522503657305,0.4375443558536291
486,0.44053237864863526,0.43653031242377255
487,0.440641800396638,0.43652706644276473
488,0.44095512005216947,0.43721914008071083
489,0.440770925587198,0.4394727483060868
490,0.4406449785854296,0.43486742020900326
491,0.43990932280567946,0.4379862085966522
492,0.44001343164843887,0.4386924295594745
493,0.44019036091540054,0.4368459167426213
494,0.4410023890076088,0.43671746680246054
495,0.4406523698950103,0.43741163987701237
496,0.44042782004184955,0.4356273427252858
497,0.4400745488144013,0.4362857190047432
498,0.4407742291956916,0.436855272823221
499,0.44044772797679654,0.43989233396691696
500,0.4410843194860081,0.4362020133164721
