epoch,loss,val_loss
0,0.3647821644759655,0.3362740262820537
1,0.33371849615777927,0.3710784502621418
2,0.6277264147976849,0.6667496142288505
3,0.6667325259961433,0.6667417816709741
4,0.6667260367469101,0.6667405018064381
5,0.6667234132164019,0.666735617025858
6,0.666719114185364,0.6667076519901194
7,0.6667078452649347,0.6667165249657206
8,0.6667117907591549,0.6667358244005792
9,0.6667157723290071,0.6667187520070215
10,0.666714480774712,0.6667508568801361
11,0.6667277148763594,0.6667126929197733
12,0.666742632412696,0.6667694122359433
13,0.6667616079544492,0.6667973716382828
14,0.666803788666974,0.6667313959690864
15,0.6668103619942338,0.6667409647515244
16,0.66681351999759,0.6667144056153224
17,0.6668003962485807,0.6668020323955328
18,0.6668033647545982,0.6667612708146516
19,0.6668154315977073,0.6667172595828492
20,0.6667800470215833,0.6667377834124047
