epoch,loss,val_loss
0,0.6832204460477861,0.6667798158115674
1,0.667189970587914,0.6668285604550611
2,0.6667381001407017,0.6667347986296921
3,0.6667522677968618,0.6667469319104492
4,0.6667751387812686,0.6667457156322225
5,0.6667724614399482,0.6669931397304161
6,0.5910648252830276,0.5556345048968475
7,0.5556352090024653,0.5557404104165581
8,0.5557055662967177,0.5556748034232558
9,0.5556902799678081,0.555737331430285
10,0.5557206042674716,0.5556801033908237
11,0.5557528485972969,0.5557343578924934
12,0.5557317778139061,0.5560435755665444
13,0.5557152352333361,0.5559854852341581
14,0.5558113653542995,0.5557507074060823
15,0.5556849687370881,0.5558143603646398
16,0.5556744575471319,0.5556600174131164
17,0.5557748291691837,0.5557914550073826
18,0.5558877719384258,0.5658408576883424
19,0.5560710004705125,0.5556796824719888
20,0.5559819391570544,0.5556663072290804
21,0.5556338168199824,0.555648260826276
22,0.5556677181421599,0.5556587493185561
23,0.5556745300265549,0.5557114011783253
24,0.4684464864634721,0.4631743052778473
25,0.45129852806996035,0.44476509869240866
26,0.44469185295203867,0.44459629330663075
27,0.4445229470164665,0.4446406519769594
28,0.44454246653856805,0.445045635123322
29,0.44471352902320416,0.4450245787078338
30,0.444559267830716,0.4445208128788511
31,0.4445474334683281,0.44456237207795307
32,0.4445633063051922,0.44455245546319766
33,0.4449250057595815,0.4445349373200942
34,0.44451376298607587,0.444576345090145
35,0.44453943521741507,0.4445712693756185
36,0.44454373379996875,0.44453143824085356
37,0.44455476254252124,0.44454633279510936
38,0.4445411871972635,0.44472290142607657
39,0.44455692366393634,0.444615225175867
40,0.44456682297923394,0.4445775459339518
41,0.4445899570707284,0.4445743822005719
42,0.4445538136702674,0.4445222035463326
43,0.4445629600972628,0.44467002255672883
44,0.44457632057665464,0.44452085590051893
45,0.44455749935722283,0.4445573918632158
46,0.44464774689499653,0.44459193119610707
47,0.4445496505190052,0.4447602153338518
48,0.4446956580725257,0.44459791288154454
49,0.4445386556370102,0.44458584455989614
50,0.4445699441029682,0.44462668963540997
