epoch,loss,val_loss
0,0.3290884116356321,0.17847789146576515
1,0.1954696206547183,0.17150375859748687
2,0.18837577370192699,0.17722644349346975
3,0.18919111017009718,0.17212878228786335
4,0.18926103182619425,0.18166200022765192
5,0.18903594456321235,0.18188805591194482
6,0.1896535131833155,0.1929600892357687
7,0.1924103879087644,0.1787869705162184
8,0.1924027263177194,0.1750996169040969
9,0.18806522085869626,0.1810565747632318
10,0.18488403127419292,0.16448627074779068
11,0.18250526243048035,0.1845795819984239
12,0.18043481290852614,0.1758058682942635
13,0.17806999809998308,0.16019530838389234
14,0.17856241523814526,0.16958219019935747
15,0.17498741228636697,0.16696260769534693
16,0.1778698434545506,0.16728069768496734
17,0.17646125593869616,0.17647704122192576
18,0.1765122988419853,0.17184971247659298
19,0.17762914672493935,0.16050270114508594
20,0.17841381098416975,0.15784775578044208
21,0.1800990967001084,0.1683188715762949
22,0.17843231541826,0.15933547955191596
23,0.1781538735619552,0.16539210794991926
24,0.17751338847761722,0.17870118654235292
25,0.1788679499396508,0.17237795410705722
26,0.17787804775577273,0.17912064929622878
27,0.17686181347206723,0.1621212953526671
28,0.1799598278479277,0.1937918114139983
29,0.18091357920726808,0.17440217424069415
30,0.1808769194115933,0.1750793595105151
31,0.18203376693655546,0.16435591450759343
32,0.1815629864005829,0.17662365245320427
33,0.1840910737594064,0.1734889905779213
34,0.1916468342681297,0.18653837285036165
35,0.19685965399447677,0.1844201703050895
36,0.20023710850021725,0.19098216234085216
37,0.21076643028609948,0.20328716470344668
38,0.20349044034735475,0.19382723828376328
39,0.21143610656952305,0.20048975904531713
40,0.2096284461452616,0.19154647011500978
41,0.21124543478901533,0.19493824621072978
42,0.21245939348289053,0.1994817806753288
43,0.21641919061505824,0.21301086703293326
44,0.21697962059558248,0.19858792094894537
45,0.21669578491497954,0.22741610680919233
46,0.32247185693394176,0.35214546087602977
47,0.3135785169417052,0.2646128242069469
48,0.26938585995984593,0.2338597018862674
49,0.24150784239828063,0.22372304525258696
50,0.230355780217335,0.2232360340942994
51,0.22302373720230245,0.20559562905011633
52,0.22045645292857283,0.22533580491461902
53,0.21577364290885026,0.2028132967104005
54,0.20916469172715282,0.21420518851647155
55,0.22283739959307425,0.22958483292347065
56,0.3651316291738233,0.43557327837575205
57,0.4046675360722126,0.3868322416657807
58,0.3890981608919865,0.38069346827038086
59,0.34719233160658325,0.2987831478384224
60,0.2890878008495418,0.2824756166505927
61,0.28400586741409906,0.28161553728034766
62,0.28414914388355494,0.276360438520643
63,0.2822853939043437,0.275324399370609
64,0.28215776290372313,0.268271058986012
65,0.28129445952024584,0.2793630557377318
66,0.2823041371173329,0.2792842923865698
67,0.28091507138822863,0.2796935335260352
68,0.2809582242457796,0.2882528505460804
69,0.28035234642638673,0.2688042721766229
70,0.2820401183611674,0.2814544904109711
71,0.28086307016517714,0.27530886532757914
72,0.280759738170081,0.29436410270813607
73,0.28112843290840883,0.27267252247495355
74,0.2806769938205929,0.276880218990694
75,0.27951888138537023,0.27642875321756316
76,0.27850358973709133,0.27525636406752096
77,0.278863268695194,0.2732641560384958
78,0.2780042880837866,0.27382855399584527
79,0.2783768848001623,0.27026531397825915
80,0.2748172077641403,0.27259704992821954
81,0.27289750254887946,0.27150058968620405
82,0.2707838653612861,0.2552698884032896
83,0.2688377233122369,0.26433890010064853
84,0.26639078641466674,0.2522629412639395
85,0.2633991467056991,0.25938672654113154
86,0.258841756269705,0.23095298860142716
87,0.25189040052733547,0.2402677055692334
88,0.24736346498572473,0.23443764812756263
89,0.24294421968938446,0.24066253231092993
90,0.24082274382396474,0.2346706495641627
91,0.23835625846108657,0.23426444868497615
92,0.23460753677750854,0.22504164083274972
93,0.23140054431965026,0.2241798462177132
94,0.22889309386602885,0.21657966567760578
95,0.23632260391728388,0.22540577435785142
96,0.21397256054919211,0.2033918000575399
97,0.21192951097214918,0.20739837384826101
98,0.21313954598540596,0.2037882469094637
99,0.21477764860379228,0.20132430221212128
100,0.21525666657254564,0.20715188984806931
101,0.21256846805913843,0.19310159157982187
102,0.20898296006863637,0.2011651384049546
103,0.20746967448390646,0.19723781758673847
104,0.203727906103805,0.20629106490228152
105,0.20128271013474483,0.19424972062799623
106,0.19736604976782696,0.18786443393580446
107,0.19492100134527654,0.18154117143944482
108,0.19070031088914613,0.17683945124602826
109,0.18937694222973786,0.17848959563398512
110,0.18897377830936754,0.1898432154658279
111,0.19030204611263876,0.17398036340723474
112,0.1898460026374824,0.17655293696987037
113,0.19034606927661873,0.17084628225384307
114,0.19023659590074865,0.17623168328848993
115,0.19109836184411502,0.1743703813136988
116,0.19009112703690617,0.1787084114885556
117,0.1849607977715375,0.16614863838068405
118,0.17683250294755593,0.1737248419057034
119,0.16987673199172024,0.1445314199873191
120,0.1641142534540235,0.14292563075212955
121,0.15575410158252068,0.14020358541158587
122,0.1484186949162222,0.12941755716642622
123,0.1410217976761903,0.13288251347634014
124,0.13642405359138496,0.1152194807954256
125,0.1353451274722505,0.13378287005019923
126,0.13687169158475385,0.12997323730938437
127,0.1318138362936598,0.11614870578756273
128,0.12701589776743516,0.11290403929463314
129,0.12439267322432986,0.10632652264814632
130,0.1213474282168513,0.10532380098325583
131,0.12562290021329284,0.12898533229716858
132,0.12340301286271341,0.10233852188466756
133,0.12280134810842008,0.10856296774220447
134,0.12202670715516992,0.11593526964617604
135,0.12165369082102291,0.11115899704390844
136,0.12421799933226656,0.10665843798687069
137,0.12366157855025584,0.11380168797937829
138,0.12364679113697472,0.12156648960349686
139,0.12463362233565865,0.10529355798872231
140,0.1192604286058677,0.10960375911599553
141,0.12302620468629921,0.10989183786118605
142,0.12119888382063781,0.10578689096758662
143,0.12197231361977488,0.10477120272268342
144,0.12169379462524474,0.10632808901657716
145,0.12239231673671569,0.0988600899560205
146,0.12379841706294903,0.1346113689731874
147,0.12733915492856532,0.10538486256642707
148,0.12276418785825907,0.09914492240621052
149,0.12357168803981644,0.1150368600789731
150,0.12114751831792908,0.09246559958572734
151,0.1220297912697045,0.1223429351598142
152,0.12266217020275495,0.11445566668412585
153,0.1231519010105579,0.10181430392055504
154,0.12151746824979305,0.09755882727248329
155,0.1213861566564019,0.10412655807531718
156,0.12122317025963542,0.11130853791169135
157,0.12138064342032043,0.10394373811904897
158,0.12117342708958424,0.10396946912547596
159,0.12209542556781229,0.11037809608155758
160,0.12421857432829295,0.1015862672932993
161,0.12709462315701753,0.11112663563820162
162,0.1278185180182175,0.11495924772784384
163,0.12931249428876965,0.10690947878450131
164,0.13231772184371948,0.13512368282654574
165,0.13166050640322702,0.13053216101291523
166,0.13549664581743934,0.12221189511861967
167,0.13960134398510798,0.1385753762032822
168,0.17617548483131315,0.19969067613769914
169,0.19543334000783383,0.17755466581990423
170,0.18575604351387798,0.17520469859912816
171,0.18025224118364705,0.15649297482965496
172,0.1698317353953894,0.14879317008305837
173,0.16129849177243993,0.12935142585421136
174,0.15562343117382696,0.14207830789904002
175,0.15064304751410282,0.1313435846988197
176,0.15185174769718202,0.13517338529099793
177,0.155716409092303,0.1494219578220417
178,0.157330804636224,0.1366696295746688
179,0.15525461066600613,0.1591566659057338
180,0.1494131119792267,0.13212973212833562
181,0.1536424801551657,0.13727845192167265
182,0.15396810453727566,0.1369273388183484
183,0.1593424587381734,0.14623179012687543
184,0.1597302966087842,0.15911846143952862
185,0.15317353905795766,0.13740290831936186
186,0.1509887674610487,0.1617616389443673
187,0.14835408134318942,0.12899731759984567
188,0.14142219579631954,0.128486274585022
189,0.1415034391218238,0.12583283595476172
190,0.14129337269089204,0.11594453318766373
191,0.1372204038748543,0.11880241034533344
192,0.13620317018301273,0.13010003549453303
193,0.13763181060004673,0.12080947287974625
194,0.13176021548352843,0.11317921356954438
195,0.13070874096309062,0.11187316675471243
196,0.1331451627984941,0.10986099856146321
197,0.13582475807705371,0.1367765805656833
198,0.13337079171153854,0.11449929208574844
199,0.1317813072523339,0.12006613363430269
200,0.13131846349945459,0.11838029399690612
201,0.1298688849408945,0.1200149542201478
202,0.12943974722751514,0.11013330372775175
203,0.12628059517100845,0.10720911152196289
204,0.12547288425594305,0.11023824050987246
205,0.12413625482865852,0.09651637904128411
206,0.12648375621206945,0.20718514722872647
207,0.13077918714959083,0.10939168944166887
208,0.1290197690530456,0.13022065678965697
209,0.12950734255149018,0.11031524460077662
210,0.1276915747401335,0.11567315541578262
211,0.12618414031789837,0.11995499821022541
212,0.12691984878336307,0.10531885362720528
213,0.1190866882578551,0.10351287077262633
214,0.12165282977272948,0.1124759405357403
215,0.12394035838955313,0.11050397550485787
216,0.11786301688348456,0.12246773431361334
217,0.1173774975863435,0.10106251845702283
218,0.11727206943501577,0.10643235062437915
219,0.11722365222114929,0.1184215143722818
220,0.11812444933824878,0.10716898498825887
221,0.11766810292343823,0.09034490834071868
222,0.11668617337894478,0.10575628135979599
223,0.11557859869943343,0.11013703857384616
224,0.11483922264546895,0.10913234625684999
225,0.11511135941667618,0.10398303842041186
226,0.11456843755609221,0.10779313170354764
227,0.11649895525224012,0.0904166668171288
228,0.11482524906964801,0.09528963218995126
229,0.1141956136595431,0.09626548096608156
230,0.11642901516622967,0.10179223119036457
231,0.11579958630873145,0.10792442481750189
232,0.11481390198578033,0.10139684616672588
233,0.11515456846327804,0.11692912096264989
234,0.11566822646821527,0.10594939128234807
235,0.11787650158567775,0.09794244653565166
236,0.11442253715712294,0.10310887051974119
237,0.11504814001790387,0.10470165586321017
238,0.11525530560756568,0.1072932649300902
239,0.11709875759663436,0.12020312697753816
240,0.11823644071257562,0.09958445390755488
241,0.11466637893105677,0.1006534351557846
242,0.11437940924650998,0.10555527228700334
243,0.11508373697872737,0.10274616995239785
244,0.1201767554100183,0.11706515532736714
245,0.12100159232731728,0.12324073486141832
246,0.11772002423737499,0.11063130054661112
247,0.11892281557551676,0.10947980806995962
248,0.11659096489897926,0.10212116987218797
249,0.12223917833394665,0.1013065604662086
250,0.1214931202407697,0.10282082430542033
251,0.11760793947022882,0.1024129912610024
252,0.12032478533202795,0.10794351487505031
253,0.12048893589243519,0.1098360569049452
254,0.1203144023613297,0.1014562732324698
255,0.11937029886660244,0.09985255265950968
256,0.12158225811452127,0.12351936893427382
257,0.12102358858529136,0.11183357721557745
258,0.12351737525775659,0.11943089044649204
259,0.1253461494869132,0.11266010513951107
260,0.12404235875863823,0.1090540518629899
261,0.12294668254020402,0.11183947696987813
262,0.12033025613374752,0.10256035250171301
263,0.11699154843195832,0.1052958884268364
264,0.11949926107633504,0.09962698955150599
265,0.12136046962141038,0.10556060050473781
266,0.12091086415959586,0.08505911217751047
267,0.11955509057564796,0.10451879598723685
268,0.11652826136357779,0.11596003265341343
269,0.11712111734586368,0.10538670591768921
270,0.11669928939353458,0.11087688739575452
271,0.11535354606884655,0.10174475489706154
272,0.11574854623737763,0.09156004705223025
273,0.11614657863140773,0.11029095808962902
274,0.11830063561777131,0.09879669183078674
275,0.11387939469443618,0.10672024959123502
276,0.11441081324272113,0.09418706233365477
277,0.11448733387686175,0.0910874743193929
278,0.11558456800812535,0.10761732593378685
279,0.11804495124424771,0.1178279193243175
280,0.11717186720489407,0.10451944269998485
281,0.11741276177392303,0.10585995481276757
282,0.11513040256466892,0.11273885812336945
283,0.11558922130665143,0.10957096342435481
284,0.11738538776459596,0.10011696987201026
285,0.11944111721287909,0.10263910625591556
286,0.12223590276748252,0.10873158851192989
287,0.12192537121885687,0.10624879089955185
288,0.1197943890528332,0.10246621391014876
289,0.12049362822461852,0.11202041371398397
290,0.1225982913963324,0.10287368818588302
291,0.12359305544436978,0.11719943218421258
292,0.12405333254072401,0.11139690664309447
293,0.12210068103971242,0.1031451006232516
294,0.12229749147626136,0.10943806623038854
295,0.12224673735294983,0.10168144165081779
296,0.12234848853257253,0.11036035023341521
297,0.12309959471273384,0.12671582125591874
298,0.12430867757335555,0.11878728133280068
299,0.12110639049066342,0.10396412884097637
300,0.11831566686634061,0.09896955029317123
301,0.12068521942225673,0.11805096970196305
302,0.11945620594884185,0.11184580043699201
303,0.12093253149021921,0.09081321910917524
304,0.11920068975237252,0.09946546215496387
305,0.11876551531475606,0.11237729067936975
306,0.11801429640808456,0.09629572117032267
307,0.11604554242164873,0.09886796273226425
308,0.11546263289894704,0.08730474287304431
309,0.1148044503391456,0.10354358806982696
310,0.11510576568037677,0.0973501498763168
311,0.11432988113529391,0.11756821308981837
312,0.11599682181251707,0.09716014778087152
313,0.11578113466596528,0.12164441877189544
314,0.1180505180429164,0.09901590310125344
315,0.11888392072179907,0.09474773817323001
316,0.11963318229960404,0.10554674924619573
317,0.12067632645749742,0.10418612909839205
318,0.11764199507655762,0.11349445663174966
319,0.11830525608550159,0.09463955446689638
320,0.11794216259956646,0.08962676773213832
321,0.1155657352630993,0.09912398542206213
322,0.116159595561018,0.11944974176791491
323,0.11589072090830449,0.11419296539855361
324,0.11866127057886905,0.10233097325866394
325,0.117754131659782,0.11107082414457717
326,0.11854631121424462,0.10168073879115301
327,0.11829712902375167,0.10062140166971188
328,0.11882239316316913,0.11569022566621098
329,0.11983699299436774,0.10579046265949107
330,0.11850519067377781,0.10299558183670797
331,0.12078754667588752,0.09825542214566925
332,0.12148399976529568,0.1141119434923851
333,0.11796037987362948,0.11008538226960866
334,0.11723998903358679,0.09335041822661258
335,0.11770234809373971,0.10543662067958474
336,0.11804963320457965,0.11473724394801478
337,0.11858065050098297,0.11605393946547159
338,0.11618986830925293,0.10138884476064788
339,0.11702634337589704,0.10657573728906704
340,0.11313180306213175,0.1045613909329875
341,0.1155740835165663,0.09440570516069291
342,0.11616181267751492,0.1177941697172603
343,0.12027747229301482,0.09260874565311464
344,0.11687245243470923,0.09998017363691292
345,0.11737186195467302,0.11360430270551036
346,0.12008832388227697,0.1013040425992426
347,0.12212785819082332,0.1042940087716412
348,0.12040216934909638,0.1018842818258123
349,0.11790642249498436,0.10673240932100103
350,0.11694639121933426,0.13063378448009302
351,0.1168027048011859,0.10553909500071451
352,0.11706796042222103,0.09866865448530207
353,0.11817799255454378,0.10057612129243793
354,0.11795484329120433,0.09177704746434326
355,0.11668600450805146,0.10176510329122325
356,0.11918444921680206,0.11479841597854573
357,0.1186069140224148,0.11358247547988921
358,0.11807861044216784,0.10176173911004341
359,0.11659438996244487,0.09993575747994428
360,0.12036253826366626,0.09772348425688476
361,0.12024065713099628,0.107909554858187
362,0.11952497415560231,0.11812459132924452
363,0.12199715445105501,0.09616793129643118
364,0.12236727666642835,0.09551560644122119
365,0.12479822840288483,0.11142519052304334
366,0.12347666729542373,0.10386445245102059
367,0.12281288483219562,0.101144663654356
368,0.12169034437214632,0.1054216297821163
369,0.12036935217994199,0.09954386419119003
370,0.11946912512159366,0.1046407004875655
371,0.11918048602011469,0.12585804704356213
372,0.1206934616821323,0.10430199476495539
373,0.1193147025031628,0.10154704585518533
374,0.11977332465046887,0.09330780339598561
375,0.11729471187749736,0.11143175385533681
376,0.11922329746716791,0.11543940430493833
377,0.11804256531641447,0.09665731647608312
378,0.11934699554987949,0.10463816827220435
379,0.12189386540548883,0.10998704088609239
380,0.12173557000087319,0.11365739894176714
381,0.12033329254312576,0.10630799081373515
382,0.12022644518424186,0.10443724906505707
383,0.1199510759717936,0.11206977723876416
384,0.11782876204112641,0.09660905880681529
385,0.12002868666280088,0.09523999087671266
386,0.12037631525672216,0.10643419682767886
387,0.12104619283684724,0.10684138374151728
388,0.12056184871841391,0.10656407570735432
389,0.11987571980205657,0.10810627498985184
390,0.1207455776655655,0.12203078579977919
391,0.11874254348931267,0.10330397105866186
392,0.11717106780405048,0.10381923471860464
393,0.11426661411325613,0.09655310328235378
394,0.11452315141447633,0.09971774849914243
395,0.11680590903623213,0.09485578517581689
396,0.11629322334099636,0.102276121155192
397,0.11506298663530895,0.09319945985499854
398,0.11499670882829183,0.08883201905130023
399,0.11339684075517334,0.09049030731784234
400,0.114210492829315,0.11252182257532979
401,0.11830718048530327,0.1174963928506237
402,0.11863489936200454,0.10977674266815939
403,0.12022810529092615,0.11130788415999703
404,0.11979988336170035,0.11424045789848657
405,0.11871625130011929,0.12393733842596823
406,0.11817556472389484,0.10179357655822713
407,0.12004581645583744,0.1089035815720306
408,0.12001317204069271,0.10125002018583978
409,0.11836174128653049,0.10059320537965882
410,0.11890880808496265,0.09863272433969668
411,0.1198136164523143,0.10343489478964832
412,0.11770803789547879,0.09712738727220138
413,0.11673795176650599,0.11352809977253873
414,0.11828992163820519,0.1004568032961524
415,0.11881173391946309,0.09172307655521049
416,0.12034575099484335,0.10748855032220823
417,0.11974981000764574,0.11619726887183013
418,0.12267197477672216,0.11447875562176144
419,0.12113146814439509,0.11103217885333341
420,0.11840289560772722,0.10528587009507837
421,0.12097609381405093,0.1211154431739753
422,0.12239005458619383,0.11804976542469264
423,0.12003113807355471,0.094840850254731
424,0.11991849513672334,0.10296089614975988
425,0.1225641629398822,0.10828228781753953
426,0.12401408944234288,0.10894697518238611
427,0.11961907887761351,0.10830826939163757
428,0.12319903248708121,0.10949944423683629
429,0.12445013289102357,0.12890339972070566
430,0.12216405917128785,0.10073830149979598
431,0.12300728145632431,0.10183236549219563
432,0.12217089194926521,0.10747630490194462
433,0.11826919931933272,0.10684481932360447
434,0.11774039501659304,0.10974156540166513
435,0.11817971029453617,0.09659724680217308
436,0.11928918119147718,0.09798093972802632
437,0.11883660767087452,0.10785520206122486
438,0.11743838179835694,0.10243770763595554
439,0.11963551568327475,0.10448748548386505
440,0.12225189265742195,0.10597272851190515
441,0.1223663303265564,0.10488555456887293
442,0.12089314025273616,0.11661397303500887
443,0.12041309210274527,0.10161897988185792
444,0.11539803864620476,0.11346455390587884
445,0.11616428167545062,0.10152342246335232
446,0.11603492553785837,0.09808147462245133
447,0.11542067630923719,0.11159700107038162
448,0.11580808431529503,0.09935985448540151
449,0.11628378682928406,0.11771481178389258
450,0.11517122520698156,0.10783248846937374
451,0.11596156959589436,0.1044159893419861
452,0.11764697182914621,0.10528419537862267
453,0.11995846382695899,0.10161605602587502
454,0.11759805899384401,0.11351917705836029
455,0.11818127888295767,0.10129253079948598
456,0.11853444223388207,0.10286099698332792
457,0.12020788134502278,0.10404862198852231
458,0.11912537442682554,0.09755478723484791
459,0.11825654187576948,0.09399279708302953
460,0.11961152817872311,0.12396795445525373
461,0.11909470571685943,0.10677780998957467
462,0.11815749009331163,0.10028934746910101
463,0.11727820268328146,0.10863144000684924
464,0.1183216702803481,0.10834095303054485
465,0.11561671784408183,0.10065483198381354
466,0.1160875738119717,0.09830986868057932
467,0.11778601099678176,0.09374709724909505
468,0.11724799140382537,0.09623868115710854
469,0.11835542745548758,0.10824526595899978
470,0.12219596131861829,0.11124632415826996
471,0.12133858823995415,0.09969699022896006
472,0.1192661214718144,0.10779995494173
473,0.12026327846945523,0.09960969283459407
474,0.1207979266508687,0.11186436516098272
475,0.11926418564302459,0.11059705131549767
476,0.11639065916041771,0.10785764271147907
477,0.11447729631889161,0.10147604895513078
478,0.1150314274797146,0.09750771192626494
479,0.11530478207541885,0.08868838544426326
480,0.11648176886516509,0.09654476698826125
481,0.11653488235686608,0.10307491289623723
482,0.11663370466918396,0.10038500018094408
483,0.11457198365724726,0.09269372877189279
484,0.11715017776969049,0.10822394137412615
485,0.11718844994902611,0.0968375057746504
486,0.11651732960491062,0.10607927389025405
487,0.11592332152820986,0.10253002309338163
488,0.1149965986031756,0.1170104069322136
489,0.11749914094960566,0.10251553053214217
490,0.11800747523776633,0.10407667600012428
491,0.11576358385556798,0.0928125885839338
492,0.11641133590031871,0.10574037015979085
493,0.11634205995227316,0.09890413233729545
494,0.11540186132708613,0.09341664208009569
495,0.11605620049803758,0.10578971917740265
496,0.11700091300179347,0.10439200124217472
497,0.11765840698143752,0.10012204169450827
498,0.11610147599681771,0.11482433826554546
499,0.11733726631823203,0.09810116728319365
500,0.11811344334773785,0.09834288808663436
