epoch,loss,val_loss
0,0.49177452189336307,0.3971304601754779
1,0.41019604523913017,0.41554150384127947
2,0.40391430962648844,0.40882149362892806
3,0.39913870302365245,0.3920317698520852
4,0.33109749708059216,0.2875434709146365
5,0.3102635590909862,0.29211651745938905
6,0.31174937901113203,0.2975397727906172
7,0.2936460405969925,0.2647826347352041
8,0.2877161965919457,0.28255493700842693
9,0.28513794057101033,0.27312999278524497
10,0.28242929445041287,0.2789734813587896
11,0.28232095923850403,0.2697798669314056
12,0.2841561193390786,0.2733014628158192
13,0.28289527988271584,0.2704134543712605
14,0.2826327889191331,0.2702562813824594
15,0.2812335672285005,0.27794468860895
16,0.2819207038661783,0.27276172122139325
17,0.2827274932908573,0.26314180957671596
18,0.28026648402643545,0.26928774952066686
19,0.28234524653256654,0.2558783633092121
20,0.28134639338672973,0.25915121448446077
21,0.28214708627988283,0.26878204936915456
22,0.2803453416216841,0.26789899982530124
23,0.2818898089749036,0.2709068392266709
24,0.2822385954620649,0.27272914549440075
25,0.2807047926157928,0.26379087581831756
26,0.28088449422505685,0.2597460259486289
27,0.28145505149689937,0.27213197316904914
28,0.2834833334442422,0.2676266394585782
29,0.2799681906727813,0.26866389565707605
30,0.2805261633651938,0.26175328565871725
31,0.2812728908798807,0.25718783375120513
32,0.279946847932877,0.2604063567188051
33,0.2801029663488233,0.25940942917765397
34,0.2809651831002403,0.27912617624047703
35,0.2813199392860655,0.2662606952834303
36,0.27996588376066606,0.27945576406356676
37,0.27965725332593994,0.2666079401849057
38,0.28164699404620475,0.2873075615919806
39,0.2798241856302902,0.2648544736079636
40,0.2798820487122902,0.2667726485446905
41,0.2800456646373503,0.26503680668173046
42,0.2815857680978252,0.2727192060331552
43,0.28134261575744474,0.26760445281391887
44,0.28227451453216557,0.2631876537302888
45,0.28058005133278374,0.2724707308138471
46,0.2814882869979112,0.2592588750115276
47,0.28004077736070576,0.27585017150577645
48,0.28028837147596075,0.280984688776833
49,0.2794401633729927,0.26620627878066105
50,0.27922611490929955,0.25162021481014324
51,0.2798631051846081,0.25737134389585337
52,0.2792733565414305,0.26195541680439255
53,0.2795343125422446,0.26230561290924276
54,0.28066873717441665,0.2958537839286616
55,0.28029114968949453,0.27141243119067715
56,0.2790955984778553,0.2570751070710381
57,0.2793938871428335,0.2632782440043424
58,0.27928164393139226,0.26940065618704123
59,0.28020503858120754,0.2607856746355112
60,0.2812475384391242,0.2650258121143389
61,0.28091245991669245,0.2645767757492344
62,0.28225203759795287,0.27532832063462614
63,0.28227594586684285,0.2699715026683761
64,0.28131239547478476,0.2826357224634384
65,0.2822708864155724,0.26442458212907394
66,0.2835967970774878,0.2651282669273896
67,0.28489824382661344,0.2663023649486022
68,0.28204114138602826,0.266508922029199
69,0.28452934667145946,0.2737410174862505
70,0.28515177096625727,0.2770416481119776
71,0.28608504906475685,0.27332508844374065
72,0.28668322027612436,0.2631334080409926
73,0.2896147579241028,0.26268527454365004
74,0.2892894144591281,0.2747536306809528
75,0.28740452742987005,0.26634200190443963
76,0.28750479039404275,0.2746416958409988
77,0.2872910605873271,0.2724875402058998
78,0.2862938971484633,0.2707319527816115
79,0.28754733331066024,0.28689781057331876
80,0.28659602075075513,0.26398141834422617
81,0.2860818677861467,0.2695815165958459
82,0.28733798983790954,0.26365995014332605
83,0.28650149213876414,0.25675667167338334
84,0.2865165012826721,0.2718885829679771
85,0.2870245615096451,0.2677983509773949
86,0.2860779729638222,0.2693438688648105
87,0.2855232603388657,0.2694331435826573
88,0.2853010257928251,0.27127999951949666
89,0.2865309581351433,0.2630226252795426
90,0.28619000551889573,0.2720898341716834
91,0.2853801688962311,0.26227612189181143
92,0.28672625506826166,0.26335776839571473
93,0.2883451288227466,0.2747006309003435
94,0.28560612264206353,0.27978031311882096
95,0.2861033171725521,0.2784852707593884
96,0.28794224957545533,0.2648514565639349
97,0.2877509771966285,0.26268751229199566
98,0.28705475134573716,0.2810372849813053
99,0.2866581610028891,0.2810286521210674
100,0.287593559951807,0.2747107159530643
101,0.2891434716512624,0.2749796220058362
102,0.287788933675417,0.26570425725814684
103,0.2875063866376877,0.26640960713130907
104,0.28751167527335086,0.2734872701442638
105,0.2888849658833398,0.2718950579394583
106,0.28893607387168585,0.2721234586358747
107,0.28775591943696366,0.26542365506279303
108,0.28783462795498277,0.26913438974264087
109,0.28750171397236274,0.262643630765167
110,0.2879520159623354,0.2635850867336587
111,0.2882367405500576,0.2707480967818289
112,0.2886431220832398,0.27230976028889053
113,0.28824517889629847,0.26539504610225617
114,0.28812224851597584,0.2707957389846819
115,0.29142946389028795,0.2723928646570478
116,0.28819512081943194,0.26986101811142926
117,0.28818430601238154,0.2677139052992803
118,0.28893416685710627,0.2769206455226652
119,0.2877820922946147,0.28569914370364324
120,0.28840060561919234,0.2694247844542127
121,0.28738908235839694,0.268182653713207
122,0.2880336905690171,0.2748919883856228
123,0.28813429166069976,0.2851537415411834
124,0.28818037066820434,0.2837441347521297
125,0.28904955693370726,0.26814068442955313
126,0.2886561531248429,0.27919638538785996
127,0.2882867165094762,0.2780265844723894
128,0.2882572579636776,0.27111398855893476
129,0.2883748916612328,0.289910187444741
130,0.28967134641398423,0.2729697424830795
131,0.28787863802155844,0.2662960688152259
132,0.2886183386664089,0.28057414706606065
133,0.2891705290878936,0.2770620861361883
134,0.288555875814276,0.2659220391308884
135,0.2873884206883806,0.266444800664812
136,0.28788979281727267,0.26642727799900934
137,0.28727881213108764,0.2713413832517339
138,0.2880152532095619,0.2777419165441493
139,0.28892565608692705,0.2826700007780142
140,0.28884654575056606,0.2793157025506993
141,0.28745658578779143,0.2711456507468552
142,0.28804717776630284,0.26348000902619095
143,0.289298856778561,0.2840973479251792
144,0.2862843533245633,0.26703701002126
145,0.2895813296743638,0.2757919236642988
146,0.2885950001492035,0.27377721583901243
147,0.2879926464837298,0.27365768752200564
148,0.28711667788133705,0.2789273220933944
149,0.2889218425290216,0.2718692793898339
150,0.2882857123931185,0.2642664963746593
151,0.28684111753160996,0.27518914687082424
152,0.28805152944224277,0.2754954272958194
153,0.28838890799887185,0.2784664550160163
154,0.29065776076481,0.2810573845932567
155,0.2878984333074885,0.2742897284316127
156,0.28919642524804184,0.2656952190814904
157,0.28715897649765204,0.287708165497192
158,0.28923698909598605,0.2770136362855645
159,0.2884385692025777,0.2655876331448265
160,0.28914357068015634,0.2743991176867427
161,0.28883396067602146,0.2857620057205021
162,0.2876952044886527,0.2666830767583576
163,0.2883638072195198,0.2674942390036989
164,0.28838492832702095,0.2667736557205808
165,0.28912787967987114,0.2721163468059252
166,0.28784519941020337,0.2796417946677235
167,0.2898457320429403,0.27305952914584875
168,0.28769972622752477,0.26658788932500965
169,0.28836890928047576,0.2709399883764504
170,0.28736873005656266,0.28313922146085985
171,0.28741122296063587,0.2722756580932297
172,0.28759960914321475,0.28167161460292117
173,0.28756017903025577,0.2773659522951084
174,0.2891420785119955,0.2704265183630941
175,0.2874638533310665,0.26338448270925735
176,0.2878981728771861,0.2743757338975371
177,0.2886041944162,0.2698817637666685
178,0.2886629922925424,0.274242778014866
179,0.28754410821738674,0.27889904207025035
180,0.2885304017900657,0.2676807546630103
181,0.2866515370967199,0.2706246754790551
182,0.2888580957790009,0.2767358241725142
183,0.2879489004087028,0.27526265927813254
184,0.2867462856290911,0.2825419818687903
185,0.28663939770886765,0.26906023324986156
186,0.2871996959666904,0.2680496848509356
187,0.2879080078284964,0.26812208141143595
188,0.28750075724384516,0.27003072510380527
189,0.2860064247579838,0.2739510845577243
190,0.287452093755798,0.26955100144686395
191,0.2874226774856317,0.27143765373241585
192,0.2880884612425028,0.261907792064782
193,0.2891601018899913,0.2718344384083783
194,0.28775464110464166,0.2727929011458608
195,0.2864918547024051,0.2724534855175096
196,0.28657355571122434,0.2789486928843717
197,0.2873386044362433,0.27345787393592375
198,0.28775378424015113,0.27079496973187384
199,0.2872832021456036,0.27712496565254546
200,0.2883548240443532,0.2700744629969755
201,0.2852843543701023,0.27447011121771536
202,0.2874344169759483,0.2791499722347159
203,0.28845632486671713,0.2664486263838611
204,0.28561127589668056,0.26522012190275435
205,0.28757920056533776,0.2683618273419862
206,0.28771724930112125,0.27555218886429955
207,0.2867656310288022,0.2765768457986626
208,0.2878097957723421,0.27246565910151405
209,0.2870066516143117,0.2680260314751909
210,0.28916001837071276,0.270155925373188
211,0.2864306185773318,0.26515912434383804
212,0.28756480167110604,0.27700799910256463
213,0.2866461456979247,0.2664510844470231
214,0.28773166224945057,0.26734675570947797
215,0.28673607942531165,0.2761087072325836
216,0.2869370647484632,0.27014098060827185
217,0.28616890517041815,0.2842871795097987
218,0.2882416792231812,0.2759100026530361
219,0.2884887637401982,0.27805000172575994
220,0.28972484088473743,0.2719105556788526
221,0.2873021698921466,0.26582610512881966
222,0.2887870766717592,0.27640764387467964
223,0.2884217687935424,0.26780614614583376
224,0.2867527983134226,0.26981139777640645
225,0.2871101345177934,0.2665672012803425
226,0.2875481357662271,0.27033794520835225
227,0.2863968157107301,0.27280696398682064
228,0.2875192037897648,0.2617264868690053
229,0.2871796180180209,0.26550583795184346
230,0.2875401943898182,0.2670692456923939
231,0.28815043698534,0.2786890222401708
232,0.28902361626692824,0.2694042372273316
233,0.28776946983593193,0.26930889961009863
234,0.28889514443824726,0.2826507730229734
235,0.28803406828780287,0.26768542444280563
236,0.28735100588887286,0.26900479178165676
237,0.2872558213991103,0.2701683976692778
238,0.28872487664198854,0.28276304300007354
239,0.2875148037775122,0.2738753046360039
240,0.28678907970006795,0.2746909415320662
241,0.28874675396254196,0.26957404756101283
242,0.2886462405717688,0.2762860247906107
243,0.28701621770644015,0.27299353897281514
244,0.28752959598365835,0.27503939701692903
245,0.2868755222011128,0.26581984623021837
246,0.2861012253310797,0.2648871494978304
247,0.2865168846386065,0.26672087360810964
248,0.2874703677751428,0.2706833354772249
249,0.28752612734170224,0.2710309413783645
250,0.2886784161695296,0.2804956816360415
251,0.28761940516286894,0.26294418992980745
252,0.28776814512986004,0.26748284704783826
253,0.2871974653857436,0.2871525892859441
254,0.2881162802251078,0.2628948220081283
255,0.2890181123160476,0.2703129997460318
256,0.288505088361957,0.27122570361582515
257,0.28751231129881477,0.27628186114271386
258,0.28700862955555523,0.2688101134765274
259,0.2873866800919736,0.2737106225738077
260,0.2877869330662742,0.27970820917942035
261,0.29021279730374,0.27248888438007063
262,0.28595738791770414,0.2710390851953024
263,0.28777242664865155,0.27696729598254183
264,0.2881835572379794,0.26556189271220326
265,0.28783982551937776,0.28154369959092584
266,0.28780593476694427,0.27441625125458446
267,0.2882486571780771,0.27075928032688273
268,0.286753026203359,0.27613163398033413
269,0.28787477622874935,0.2694503113397813
270,0.28810357335832615,0.2792565381367421
271,0.28700881811072104,0.2765348606470244
272,0.28787700853364956,0.26717314770670314
273,0.2880007396217248,0.26658167809078775
274,0.28688956883022365,0.2782704588222194
275,0.28750958486353523,0.27604132582526425
276,0.28768465734177157,0.2726210193815796
277,0.2876952934601576,0.2804146298816894
278,0.2876244037269687,0.27582245333979794
279,0.2875794623437836,0.2729442001766822
280,0.2882014221554284,0.2734142408342934
281,0.28854512801472904,0.28297297545351446
282,0.288943519190944,0.27096880256936307
283,0.2879439065213486,0.2761943490279949
284,0.2877559379530583,0.2776525310767151
285,0.2885776607034873,0.26934104079844406
286,0.2878089975222671,0.2788597639870663
287,0.2872052585021604,0.2753392001258969
288,0.2887840368825975,0.27467225647900806
289,0.287394894073733,0.2717088831215493
290,0.28698075801324996,0.27688225963593305
291,0.2879277891498074,0.2686960605084171
292,0.2890467872444967,0.2657336245463906
293,0.28727681106858677,0.2691274900215966
294,0.2871688357811627,0.27146108192297275
295,0.286352504632347,0.28406086956835913
296,0.2886543396869309,0.2736011223273846
297,0.2889909545202748,0.2640025958672637
298,0.2870863639146352,0.28187128801173733
299,0.28792623842091825,0.2742511775565167
300,0.28810008236462825,0.27200428814010125
301,0.2879093294922975,0.26576226773246553
302,0.2870067885642151,0.2857427290925531
303,0.2886438982261478,0.273850863009377
304,0.2885811629476215,0.26687752941905823
305,0.28779258298649607,0.2689458687955156
306,0.28973362780958295,0.2816260358181216
307,0.28802107604409904,0.2705394631102137
308,0.28832545609856913,0.26824248573060744
309,0.28872621754367794,0.27506656125369155
310,0.2869898564069628,0.2751811700604935
311,0.28824836145743454,0.2728407826857749
312,0.2870173137530601,0.27409775752124027
313,0.2866916567075243,0.28487782160972835
314,0.28631389602195556,0.27563159704353396
315,0.28717828123831,0.26250426401138693
316,0.2849901787954583,0.27322771301718135
317,0.28358049366811067,0.2754877398556456
318,0.2870868509821743,0.2803500561770248
319,0.28845670318202654,0.2799192207645616
320,0.28613582338759,0.27791097908849555
321,0.2865130412008306,0.2762603820554628
322,0.28743669847615533,0.2709520927963466
323,0.2884187107268956,0.2974829366317341
324,0.28742727170809446,0.2723383644515677
325,0.28695890893212694,0.28147600728955
326,0.2849637535844353,0.2736392962985762
327,0.28203098807600235,0.26055249913813905
328,0.2861755799242647,0.25870460543754326
329,0.2760996996425838,0.25950619452674506
330,0.2809529466579875,0.27597996462000546
331,0.27644306219654907,0.25662517511351557
332,0.2698912418859782,0.25420633138482973
333,0.2746934838431945,0.24702579065831037
334,0.27004570065974426,0.258134365831075
335,0.27395272198870624,0.2553630124865174
336,0.2663030384169568,0.19407721695286997
337,0.23934428628871116,0.24551476689247417
338,0.2640361462751802,0.32372467308052166
339,0.2767477270135219,0.25253379462167486
340,0.2712184728396903,0.2430665060962397
341,0.2718378317186697,0.24172613580634897
342,0.2693065269123181,0.2651973756004521
343,0.27133813966289344,0.2571346349258879
344,0.26940326202359555,0.24391344824121527
345,0.2616053417778378,0.2308972655808355
346,0.23269834540623296,0.2438053172821933
347,0.2870947188847632,0.25947100334987344
348,0.2843990282918378,0.26691955054860145
349,0.2879430061941437,0.2554575296697439
350,0.270362060084593,0.24963035802481529
351,0.2505100061289304,0.20182659061865796
352,0.22757488999178735,0.24766724220109199
353,0.2854275407912351,0.26406085858573203
354,0.2832673305244423,0.25973476913046856
355,0.2278553523343978,0.20374663716781846
356,0.23038546556682946,0.2348127657092884
357,0.2788458175605254,0.2509203894730032
358,0.2689000753293618,0.24831853817849264
359,0.2713537302443846,0.25399005321207224
360,0.268820134184664,0.24426184734820547
361,0.2700905053674268,0.25416752548596766
362,0.26932607289311217,0.25605439681738057
363,0.27250441856938806,0.25924200713876194
364,0.2735175828846862,0.2544317592693748
365,0.2709555482332281,0.2571140444940991
366,0.27242104468152845,0.2689066904401354
367,0.2715382867330928,0.25977603031287616
368,0.27234613562556054,0.26175653105427943
369,0.273480967910076,0.2641656992885995
370,0.271073483604732,0.24463893778906154
371,0.2274070874429207,0.2176336722459043
372,0.20398737505090248,0.19869449564285233
373,0.20901941864775886,0.19275069807181006
374,0.20633755994735478,0.230142893836156
375,0.20199806246163848,0.17265631963060044
376,0.2021073512464547,0.19703302958440896
377,0.18945604444647712,0.19307909182001687
378,0.19255677810471186,0.18394513261434225
379,0.1893183069946386,0.1781762011609035
380,0.18969444070962832,0.16429535738839818
381,0.1894132200661328,0.20812012482395234
382,0.20048519053322683,0.17961202228301343
383,0.18691414938844425,0.1685989199981202
384,0.18990364887888095,0.180157347667633
385,0.22291215614760942,0.22046387751510446
386,0.22191616009363085,0.1945509543190714
387,0.2305378457777399,0.2649811449228799
388,0.22833762478360756,0.21559062876888918
389,0.23281940596522666,0.21843987835053014
390,0.2584202017447202,0.2890074337075033
391,0.2289597211096934,0.15995347162667853
392,0.2011550379286202,0.23752947441707853
393,0.2303759511634767,0.2019479290702337
394,0.23178325427637947,0.2239346199541293
395,0.2354895304784095,0.20511120985604261
396,0.2585015707821537,0.25074006331856424
397,0.2610144567749708,0.24953563672105955
398,0.2580307400804028,0.22982720946115107
399,0.24853918431185074,0.22626719765806236
400,0.24643701130003812,0.22903389381569572
401,0.24407594582383588,0.22505503178657987
402,0.2435217734942253,0.22699913696747723
403,0.2394511332217935,0.2258012670863477
404,0.2335166868696316,0.2126733048698908
405,0.22873782089727224,0.19604441205708845
406,0.23321428259102414,0.22791064421239174
407,0.23006035291475713,0.23212329468056137
408,0.2283014194835559,0.19676434731493128
409,0.23045199218871978,0.21692297777458602
410,0.22038525733067763,0.1892915489053881
411,0.21063621754380013,0.18761687220013054
412,0.20543142141486473,0.17552457654369816
413,0.19901727294449428,0.187863849677502
414,0.1931261059711035,0.1632044093089672
415,0.18697669737345224,0.16269423837402636
416,0.1828755196079528,0.16505279828887207
417,0.17497726676879738,0.13780135566494084
418,0.1737811917974483,0.1576426828647182
419,0.17159235352475802,0.135889406863597
420,0.16040990071846925,0.13846271098361013
421,0.1532378002368898,0.12577933825353058
422,0.1564847846374548,0.1266241230838007
423,0.15829441394862698,0.135266966138878
424,0.15579515699747565,0.13269097962857065
425,0.1457463964593229,0.11797783531653426
426,0.13887149393200587,0.10955871575166806
427,0.13498781869908252,0.10487871681130813
428,0.13385352753609825,0.1389836984333814
429,0.14426612993888707,0.12887964598284635
430,0.14267843118529494,0.117134268405422
431,0.14678596220224546,0.13590004814778125
432,0.14645856694043208,0.11742605849049097
433,0.14341761592665225,0.1133099660966228
434,0.1435254310892285,0.12031367284586443
435,0.14532527724822297,0.10978443200329117
436,0.13879925786279695,0.10553860243195358
437,0.1310212196375104,0.10007123588693886
438,0.13154537571941594,0.099954895221984
439,0.1347116633617372,0.12029182286109755
440,0.14171775731685354,0.10564017489806289
441,0.1440661361275481,0.12180212550983135
442,0.13848883163532894,0.11398265553700276
443,0.1371366623654854,0.11799259167179671
444,0.13166256474436905,0.08532233837771397
445,0.12141482691594464,0.10147596473313886
446,0.12435994916159311,0.1074073757773865
447,0.13286395421366484,0.11626045669324013
448,0.12417391394738486,0.10578340830980813
449,0.12455752508653652,0.09736606578998999
450,0.1278891932186458,0.105350706082771
451,0.1255513843450191,0.08341409182606532
452,0.12366041262821258,0.09933403369404877
453,0.12057357577322196,0.08864520108878661
454,0.12424518907661912,0.11577378504056807
455,0.12424823014830665,0.12237108374333246
456,0.12073885967986311,0.12312880658755337
457,0.1251894592570724,0.10843689566280236
458,0.1255343765336528,0.07785144891508304
459,0.11950182572329301,0.0912803524662495
460,0.11734385266482496,0.10016534350576772
461,0.11840804444672204,0.10388502326324908
462,0.12588045125405153,0.11983213986406845
463,0.13336188798312476,0.10256164403751625
464,0.13125708516093615,0.12400171199370862
465,0.13171598473317725,0.11299389215837333
466,0.13243059539277138,0.11773155155891533
467,0.1373130375052615,0.11746121853565841
468,0.1319866266140373,0.10338585934354731
469,0.1257425577217956,0.10288992354952989
470,0.11435858055269174,0.104171728414679
471,0.11744271425919546,0.11205335119731621
472,0.11715781924466165,0.09918871799911412
473,0.11730264478606926,0.09331161233944711
474,0.11591853445665755,0.08652296569878168
475,0.11016811150684655,0.08638397025341729
476,0.120275932001032,0.10754490838312851
477,0.12108600489777312,0.10994140191089788
478,0.11897550939654616,0.0850131258743136
479,0.11757146050516752,0.10417940654918031
480,0.11601829646323757,0.11041538717054489
481,0.11821558874986285,0.09725435023760273
482,0.12207657979239074,0.10358960842539988
483,0.1222449342956583,0.11493927191426284
484,0.1264743937747635,0.09622007925048265
485,0.1316713913768124,0.12447663849190978
486,0.13576858931238217,0.09868693725181032
487,0.1292664731343428,0.11216860849467701
488,0.14036877862244151,0.11410862162697151
489,0.12607130107042597,0.09095381602149423
490,0.12159988954901886,0.10900540490969352
491,0.12854204025325344,0.11694480750078316
492,0.12272993994174336,0.08958450617798924
493,0.12075078854854819,0.07832251727242637
494,0.11490099209907344,0.10622488245645965
495,0.11350433658167207,0.07654098405322213
496,0.11638060114007172,0.09752543122543132
497,0.11589636386419125,0.09483840594495686
498,0.11467056618846827,0.0854520046628788
499,0.11518209563304273,0.08961319100392706
500,0.11850225764384166,0.11603986467057288
501,0.11817965306359544,0.09068402742841625
502,0.12309603193838946,0.10925418001940264
503,0.11960601420988075,0.08639489259912246
504,0.11567704361662853,0.1035480785870204
505,0.11910215899753895,0.10586133050609196
506,0.13086179234654163,0.10780204817447252
507,0.12334913413545148,0.09179054134784437
508,0.12083017302929067,0.11692383839459508
509,0.12665505380667239,0.1012760705502654
510,0.12556900500093965,0.09297003000612096
511,0.12783764380278637,0.1132519264846726
512,0.12989853383053104,0.1032610317240473
513,0.12900870624449465,0.09649019783237361
514,0.1279455792722557,0.10670757371047021
515,0.12709300432076828,0.11446979345220526
516,0.1328510329711905,0.09716679891216397
517,0.12882739648795585,0.10948095513569661
518,0.12484220242958435,0.11783748826454639
519,0.12509801935813158,0.10442926269402276
520,0.12293356896830712,0.10704293197499767
521,0.1260546098580305,0.1257763049668736
522,0.12903566295213945,0.09989770613640958
523,0.12228473561932986,0.11106811394342445
524,0.12006838634920368,0.09291004673528748
525,0.12498324024107,0.10346254337781441
526,0.1342206823321177,0.1002597146322354
527,0.13862448815313028,0.12695474240442456
528,0.13958452301348945,0.1398288110771125
529,0.1388565752419641,0.13983581178283072
530,0.14324740382184306,0.0989614151061693
531,0.14513584868229323,0.12400764793713501
532,0.1560138191452162,0.13881906728046461
533,0.1611451112759934,0.1282033433009238
534,0.15323361784243603,0.13734732483666987
535,0.15587019868749824,0.1251277844002357
536,0.14935015221003345,0.12734266621908905
537,0.1464392948534796,0.15304833197994921
538,0.14582973888354173,0.11687854263517591
539,0.1430708599941219,0.12193021410887356
540,0.14319759893944686,0.10176957808344324
541,0.13462499849754778,0.10757931654204804
542,0.1341574748424743,0.08869655510684096
543,0.14221095320305602,0.12335631105103148
544,0.1447356940449191,0.1457606199448996
545,0.14282391931685665,0.11282926344064223
546,0.12970332903049295,0.0943460858639236
547,0.129741565577143,0.12086579441685844
548,0.1339999653303547,0.12893521174824732
549,0.13414211228513737,0.09654655609663579
550,0.132702368434617,0.12625643417589663
551,0.1306944977405598,0.1295313741603907
552,0.12742019141968294,0.10644333115314335
553,0.1223403415989408,0.1008042975994309
554,0.12345366477608394,0.09125152511245722
555,0.12616019032066397,0.08795350140439526
556,0.1285738731034285,0.12180333326526126
557,0.11940240659851661,0.09840742954855901
558,0.11853901700402279,0.09125813723988196
559,0.12073372357530152,0.1142564261240004
560,0.11962915373573883,0.09077245849641667
561,0.12063329805544704,0.10321022979824503
562,0.12014349075175935,0.0953858405025336
563,0.12235479325867349,0.09281786692548552
564,0.1239390835983215,0.09355148124989705
565,0.12191114711871234,0.07561096636652463
566,0.118487783501132,0.08627046277899135
567,0.12204469307016334,0.10123408069744984
568,0.11965608443793438,0.08315203173897272
569,0.12053251354168472,0.09499503594777106
570,0.12273764995048292,0.10557523425985717
571,0.12075769588697234,0.0888034490579913
572,0.11770126185983157,0.07553196844659196
573,0.1188770168639117,0.08170941899872754
574,0.11933709808690153,0.10076343924991503
575,0.12338220801434105,0.11025086828996182
576,0.12347239660944721,0.1079570820973544
577,0.12425567715572682,0.11538651309430067
578,0.1240506743590196,0.09716231606157447
579,0.1262961527536973,0.10475510260919585
580,0.12891390676005446,0.0948865590896533
581,0.12851614406029638,0.09819186467372201
582,0.13174600762913855,0.09904677733863551
583,0.13457603407524127,0.12763257255205177
584,0.14664020091354896,0.12556050894275875
585,0.16724086569561014,0.1581013834848698
586,0.18412582651436854,0.17831834182687048
587,0.19426034235233683,0.18635388736258846
588,0.20981732445110599,0.1850267330612096
589,0.21170383633626663,0.193289110501994
590,0.21746881460671047,0.19348837727709506
591,0.21745561666971594,0.19169814826653242
592,0.21229262710858385,0.1974630585092891
593,0.215270724078958,0.22651545427866515
594,0.21068891138434886,0.20424247980842916
595,0.21835913903432622,0.20437572675319773
596,0.22200419806283983,0.19312136909725797
597,0.20910500194594037,0.2017993750798441
598,0.21488467636134168,0.19034432665129938
599,0.21367803512452793,0.1829341113422329
600,0.22072192620310047,0.20510587757279597
601,0.22042617111730042,0.2042326213669603
602,0.22486926693979314,0.2007768724932481
603,0.22424799505117132,0.21304478719286676
604,0.22466849897793525,0.2301901918378963
605,0.22336371908720443,0.21096366167745256
606,0.21963106375560462,0.19153938925275935
607,0.2175498935815284,0.1979014883897987
608,0.22182506068741636,0.20913291433093417
609,0.22676373950785117,0.19631307640408271
610,0.22125709025238494,0.1885107669492901
611,0.2217583404935962,0.22579608438272158
612,0.22688871201536387,0.20505960750947227
613,0.22533131074652468,0.20378422905107096
614,0.22483320796103168,0.1926161756335674
615,0.21907872429268183,0.18850776179718565
616,0.21988855827871182,0.21856228738950698
617,0.22501231039209876,0.19967920431642153
618,0.22595762694664628,0.2022193919229778
619,0.22188818078335998,0.19577124865917492
620,0.2247522384811154,0.20658515833638494
621,0.2212039651610166,0.2053872918512216
622,0.2181553884362392,0.19466436923226976
623,0.22098174223525702,0.20056240120411692
624,0.22601613938641416,0.20038233056894086
625,0.22318626244107279,0.19392659160439213
626,0.22148402013761506,0.20932464308837326
627,0.22363704070150614,0.2128474890025573
628,0.22286233392427024,0.23690183425665096
629,0.22420916542279615,0.20732143875407863
630,0.22210676523687556,0.2152373476523456
631,0.22347034134561297,0.20798167077535937
632,0.22724965478989292,0.20096206814896644
633,0.2307057716220832,0.2020394294148814
634,0.22750577210688036,0.22021697163098436
635,0.2269570640116047,0.21231631698979658
636,0.22571811270866515,0.22167617543045331
637,0.2275790311545253,0.2159406009091658
638,0.22961658522713366,0.2293702137247876
639,0.22697719220546267,0.1951416724838093
640,0.2287579368087079,0.22267383729792764
641,0.2280505720057709,0.20498319601055479
642,0.2270838847940115,0.2366729034390376
643,0.2266943195314289,0.19449984201888001
644,0.22649001386807002,0.22841483338857607
645,0.22656573708936442,0.20564526604716601
646,0.22690746720859392,0.21053231606034853
647,0.22001930580342455,0.1786417748540374
648,0.22524111616530354,0.2054547180466215
649,0.22862625168599157,0.22348765036678855
650,0.2293182934184758,0.2055244210137648
651,0.2304092949633602,0.21333897050956546
652,0.23000954196537085,0.214935406232789
653,0.23044678077304526,0.19665342704706432
654,0.22942635803531894,0.22881202571341785
655,0.23046268661132902,0.2110574160735006
656,0.22990171286800176,0.20565183886114602
657,0.23029596414014375,0.2198967223764916
658,0.23189284316032194,0.22921464179505785
659,0.23036178218736184,0.20407070374208452
660,0.2337578336258618,0.23727553784363847
661,0.23305048676635667,0.22215202447126672
662,0.23185814495941845,0.22636569538497384
663,0.22864811727888973,0.1986381075823104
664,0.23351874368919956,0.22267476201589187
665,0.23476523230131194,0.1995200614859588
666,0.23403431092790836,0.21555960915577865
667,0.23031211757750583,0.20724229048106696
668,0.23131320879066153,0.2081113760537088
669,0.2329511089061049,0.19420972909998913
670,0.23251156285822724,0.22478568290465262
671,0.23580585682602095,0.20815528682693657
672,0.2364098542780758,0.22922688722610474
