epoch,loss,val_loss
0,0.4620678427881665,0.4539882668058077
1,0.45588334331247543,0.45220299043258033
2,0.4536848379241096,0.45217465090751646
3,0.3877162678771549,0.23306840338309606
4,0.23482429293129178,0.232653997639815
5,0.2351121693352858,0.23459419830640157
6,0.23438134413295322,0.23300170608361562
7,0.2343551240728961,0.23670643966396648
8,0.23545730258689987,0.23205565518140792
9,0.233202876114183,0.23196800756454466
10,0.2336765478319592,0.23210140739878019
11,0.23465170023507542,0.2365446532468001
12,0.23424034172296523,0.23202421683073043
13,0.2333839977880319,0.23189473057786625
14,0.23315845548113187,0.23291162093480428
15,0.23503032136625715,0.23214248359203338
16,0.24061447573701542,0.2321934713423252
17,0.2327095380226771,0.23337186121940612
18,0.23308006952868568,0.23194273882110913
19,0.23264516749315792,0.23201908039053282
20,0.23277552769912613,0.2321144996682803
21,0.23220988508396678,0.23192975650231043
22,0.23312866779168448,0.23241970772544543
23,0.2350242266456286,0.23443166374166807
24,0.23232327611909973,0.23187246039509773
25,0.2346148730383979,0.23331405806541444
26,0.23497681857479943,0.2327552571396033
27,0.23269195990098848,0.23200030517578124
28,0.23253290343615743,0.23229198369383813
29,0.23305456325411797,0.2319210458000501
30,0.2322409965991974,0.23197302408019702
31,0.2347055838207404,0.23210699314872424
32,0.23227536052796577,0.2316981419722239
33,0.2330098170340061,0.23300798079371451
34,0.2323318384124173,0.2319662530819575
35,0.23274901519881355,0.2320129001736641
36,0.23253787186410693,0.23201349226633708
37,0.23239823248320154,0.2317350023885568
38,0.23220467946926754,0.23306868175665538
39,0.2322585936354266,0.23208361424009005
40,0.2325218846168783,0.2321892305612564
41,0.23204255784220165,0.23174171111981073
42,0.2320239686270555,0.23173812159895896
43,0.23261156859000523,0.2317325438261032
44,0.23207168825798563,0.23196377248565356
45,0.23214826419287257,0.23237413541475932
46,0.2319888503981961,0.2317743653357029
47,0.23247260258595148,0.23170182785391807
48,0.23203551700380112,0.23169006004929543
49,0.2320129707025157,0.23257725435495377
50,0.23204214590125613,0.23162342591087023
51,0.23199467385808628,0.23210311567783357
52,0.2359472067852815,0.2319131600658099
53,0.23204285705420705,0.23183196265498798
54,0.23211125478479597,0.23245812497536342
55,0.23246619012289577,0.2320280904273192
56,0.23204667124152184,0.23176805906494458
57,0.23381303674644893,0.23191540245215098
58,0.23195085372196303,0.23263165234525998
59,0.23267501203550234,0.23241525116562844
60,0.7925102972156471,1.0
61,1.0,1.0
62,1.0,1.0
63,1.0,1.0
64,1.0,1.0
65,1.0,1.0
66,1.0,1.0
67,1.0,1.0
68,1.0,1.0
69,1.0,1.0
70,1.0,1.0
