epoch,loss,val_loss
0,0.5653741789712228,0.5113669441926169
1,0.4894985402707192,0.5030235560888744
2,0.48827452481174166,0.486713513461454
3,0.4856520602338129,0.47513645496910356
4,0.4847492573024939,0.47290470982124794
5,0.4849324623624579,0.47929062733710426
6,0.4841223173290134,0.4729491339815632
7,0.4841217610904639,0.4775936992599349
8,0.4847769692456789,0.47905438072867723
9,0.4844800408819406,0.47536370402823874
10,0.48420886689429277,0.4756850077114241
11,0.4838327822996844,0.47403054234543085
12,0.48301780167862857,0.4705348790820979
13,0.4831099208477113,0.47616793651607153
14,0.48274525558109954,0.475162803256427
15,0.4823359993817233,0.4754177860462863
16,0.4827722614998821,0.471224339792083
17,0.4820274010264902,0.4748228315349254
18,0.48197946028648425,0.4729310193679045
19,0.4819722869437185,0.47474069548763437
20,0.48199626668799317,0.4762288079594851
21,0.4817980131942877,0.47094971534296953
22,0.48193799777568386,0.47690028674318363
23,0.4813059312429169,0.4719965743237626
24,0.48140771608415556,0.4726455310666853
25,0.482069902652078,0.4707315589088855
26,0.4811995553312828,0.47151851976303577
27,0.48154902365282,0.47435897459359083
28,0.48087837616745516,0.4833894532406151
29,0.4811085856599297,0.4764999187924115
30,0.4809768871485377,0.4701605817419201
31,0.4823297738885994,0.47968339550749184
32,0.48081135025603783,0.48094374221332825
33,0.4799907002017367,0.47332316284209797
34,0.48043714525650066,0.47722348671968096
35,0.4805205132392385,0.4733969858996776
36,0.48060733289550917,0.47280997174314937
37,0.4804988435322909,0.477925111528636
38,0.4804101353235763,0.4687037913462451
39,0.4806030230056182,0.4830061404274125
40,0.4804029668287503,0.4744341761320712
41,0.4821395789333385,0.4737467675483782
42,0.4804220713800092,0.4747222335016812
43,0.4798464127105298,0.48061154134742085
44,0.4812786249543647,0.47498772787878435
45,0.48056393513957757,0.47088048967585006
46,0.48148463965415195,0.4712685636158712
47,0.48086183789155656,0.46895186303164327
48,0.4800613396030536,0.4695535668634296
49,0.4806197547583843,0.4703297323378975
50,0.479713125968818,0.47309197018536037
51,0.4803969514765423,0.47077621304339656
52,0.47978328703214035,0.47187048387320474
53,0.4811279647927776,0.4701737515693023
54,0.48011471632477953,0.4697238588154363
55,0.48106626925660934,0.46856631574992036
56,0.48012448115933903,0.4707456527493935
57,0.4809393957912398,0.4721086244462697
58,0.4796278127353731,0.4759620859007621
59,0.4805543092395857,0.47259840889059845
60,0.48103579078361,0.4692090399733847
61,0.4806264841751896,0.47350480362196656
62,0.4805123711899697,0.4720268507547612
63,0.48137161936119593,0.47542884767102556
64,0.48143577448231617,0.4754336696726747
65,0.4805257155550279,0.47635333530528395
66,0.48165633683677295,0.4738240497923311
67,0.481524519878421,0.46991207678203234
68,0.48156455902458667,0.4707368347902607
69,0.48070784201391403,0.4762657380706227
70,0.481151644238751,0.47161263396820874
71,0.4809114581151165,0.47583694844238383
72,0.4812875210190658,0.46997971278810086
73,0.4811868160534248,0.47674703111117905
74,0.48163587898373317,0.47548465667132234
75,0.48031424937678946,0.4738261111627532
76,0.48104140000472917,0.4801735103883043
77,0.4812560151163623,0.47678156901553753
78,0.48096508005683086,0.4724242571262083
79,0.4802470081549087,0.47538960377532097
80,0.48093534938151317,0.4769182354329417
81,0.48154291886982203,0.47612692369846443
82,0.4810138697937715,0.4727369339426578
83,0.48066352000482365,0.47016021463470187
84,0.48131402339533175,0.47281453185130407
85,0.48091378830653203,0.47329046738928665
86,0.48065953412883095,0.4730889358055714
87,0.48049745282871453,0.4716266322860402
88,0.4802959282978547,0.46996259221244063
89,0.48027179271673603,0.47164719744093697
90,0.4801473974776592,0.4769332940736528
91,0.4799088236215494,0.47302071363227804
92,0.48180688790184895,0.47458845854464154
93,0.48048555725912967,0.4779315616262175
94,0.4818568104129139,0.4720987008844856
95,0.4805362118090943,0.47157613760199996
96,0.47992859550898403,0.47622983330521135
97,0.480962537389865,0.4732382536498975
98,0.4809048865720046,0.4710565809198694
99,0.48110505004676224,0.4678415735594005
100,0.48037496213909153,0.4716284967306193
101,0.4804511511449715,0.47314476235324976
102,0.4806944394616677,0.4695597256885896
103,0.4816868426821691,0.4735354496535111
104,0.47955065177117795,0.4717511090596266
105,0.48056563583733464,0.47182459841117014
106,0.48089349686765936,0.47107758518270176
107,0.4797314401629636,0.47526398962091626
108,0.48114881300621276,0.4724018482731004
109,0.4810886989108664,0.4730161201464631
110,0.48120038357855893,0.4748580396975131
111,0.48153654504403604,0.4726231180031467
112,0.4803001221826227,0.4725182401258925
113,0.4810410251767992,0.4721839203313287
114,0.4806531776579545,0.47560663999961694
115,0.4796985656761532,0.470084944129837
116,0.48125115051258094,0.4741307566414316
117,0.4806615203428421,0.47050778039723
118,0.48073286576856145,0.47126049817125915
119,0.47955822904142353,0.4717180524271308
120,0.4813807856598251,0.47328446943080604
121,0.4806733046837753,0.47237551002965356
122,0.4818321254423006,0.4735110980512217
123,0.4824639192040113,0.47349314644474066
124,0.48155989574728536,0.473121598751035
125,0.48204681532179045,0.4744881092090727
126,0.4831674954326128,0.4743974398418779
127,0.48174561832925017,0.47419250604197466
128,0.4813353137599288,0.4782180642178422
129,0.48248369399782753,0.4737404515730083
130,0.48131929145013685,0.47536164011744503
131,0.4821981479771894,0.4745378164014387
132,0.48203005643485547,0.4723693532979479
133,0.4827049386253555,0.47125538941340456
134,0.4814247187259767,0.4702700900815092
135,0.48205948414371835,0.4772439705826865
136,0.48234658850897416,0.4731891566877207
137,0.48353628312750496,0.47278377910063035
138,0.4832590509661668,0.4766327817325246
139,0.48393183482064905,0.47238378500787875
140,0.48305511376935895,0.4767753817523288
141,0.4825375397785676,0.4777702996602845
142,0.48334483593869076,0.4818803330246821
143,0.4842259753093445,0.48148681469196963
144,0.4840011501864945,0.4785668256486036
145,0.4841616939154746,0.47541694628881864
146,0.48439801887547274,0.4846632499674125
147,0.48520664775447786,0.47442414382826936
148,0.4854371829046239,0.4777199486954154
149,0.48582398370920804,0.4751498817268468
150,0.48627870395886813,0.4824843747510436
151,0.48593872178086844,0.4820774353058581
152,0.4871797389764008,0.4823132926964252
153,0.48822370830247347,0.48259728883511455
154,0.48812404162973333,0.4845034588531142
155,0.4879798894401172,0.47896631794739825
156,0.4880190944547752,0.4805324347167854
157,0.4884276211404686,0.47658189291453495
158,0.4894190527480855,0.4817872497869836
159,0.48861403203458426,0.48147900439004965
160,0.4881223435643956,0.4799059496070799
161,0.4896325595873437,0.48539839653208583
162,0.48864255749064384,0.4796225493972285
163,0.48980946794783564,0.4801445577026072
164,0.48810471103583974,0.4777251785678382
165,0.4894278921859918,0.4792202244194455
166,0.48895175809816394,0.48707855476952955
167,0.4883787788146977,0.4831519121482039
168,0.4893355578017368,0.47799603486964337
169,0.48824003336431504,0.4835080559694024
170,0.4868136668186203,0.47670361844215603
171,0.4881895339245991,0.48350504487635304
172,0.487692672988589,0.4793953864990301
173,0.48733654089397094,0.47939024012956266
174,0.4876381187892551,0.4788162833419294
175,0.4872616735174597,0.47856423350517074
176,0.4864374068524721,0.4785645784782253
177,0.4862046821488084,0.4826203281237746
178,0.4849158750830604,0.4795072155386421
179,0.4862984313929586,0.4788172608204686
180,0.4861859026953852,0.4765908209564372
181,0.48585336598799195,0.4823041868990768
182,0.4870319949160758,0.4821196148596886
183,0.48634015928974733,0.47533954916361665
184,0.48690477660376963,0.4765031089581367
185,0.48804514948650896,0.4754392336274849
186,0.48777929583280016,0.4769316461957527
187,0.48751868800722437,0.4875977914824482
188,0.48893947630143947,0.47493399530296354
189,0.4877074656369303,0.4867362598311553
190,0.48765215665983447,0.4778778703314353
191,0.48932835746773906,0.47716215812698914
192,0.4886662215947343,0.47901184272370945
193,0.48936717389680023,0.4869329958283817
194,0.4896469438295189,0.47723269973011967
195,0.4890768550258937,0.47489843348771826
196,0.48826649755263307,0.48648286371505817
197,0.4875960715478368,0.48201800646420623
198,0.48619690253961384,0.4784800288897381
199,0.4851792776446453,0.48151456056002473
200,0.4864087126237883,0.47722085207206766
201,0.48565286104913524,0.47764129759104307
202,0.4859406639703458,0.48363808023242755
203,0.4867713850774735,0.47534037506665033
204,0.48670464459893037,0.4755121956637457
205,0.48662648151675575,0.4776970818462387
206,0.48663399726462114,0.48112334483894853
207,0.48661695329024257,0.47690588002987705
208,0.486989361764811,0.4740271052461773
209,0.4859758169411851,0.474522439955536
210,0.48643509131207835,0.476139260683835
211,0.4865817624411518,0.48173103531515304
212,0.4865073050907571,0.48012740821845906
213,0.48717773496675837,0.4771889314090726
214,0.48629205330289144,0.4763913532599936
215,0.485842907195278,0.4829563962820485
216,0.48693677893788406,0.48243458760753805
217,0.48776585761782265,0.48490907751676504
218,0.48748864163216543,0.480410683385575
219,0.48843040276202654,0.4787255399746507
220,0.48788848078603464,0.47668192595031755
221,0.4886436758877086,0.4765172016695906
222,0.48888540388249474,0.48776466204787017
223,0.48916797515013805,0.48362826548322696
224,0.4896894081247796,0.4826199895957369
225,0.4884491301626324,0.48525235950711587
226,0.4892961872424439,0.4809087591794126
227,0.4886581176857678,0.48346172154373135
228,0.48928359134210575,0.4803838574143028
229,0.4887430960659405,0.48084623788225433
230,0.4882735320203882,0.4911595341391514
231,0.48852666020155144,0.4791276914544621
232,0.4895718647278756,0.47846424821896544
233,0.4879038797127162,0.48760651438934366
234,0.48811795436840455,0.48052867367310886
235,0.4884785524518084,0.4843581539020824
236,0.4886197134626093,0.48080262880487146
237,0.4900690575869535,0.4839630445440453
238,0.48906314625538033,0.481137561369996
239,0.4883807911623201,0.4836092693135789
240,0.4887747274909755,0.48059940815630536
241,0.4883183088305471,0.4821895559236772
242,0.4876488393945374,0.4762643102171295
243,0.4881894743556885,0.47986997940357784
244,0.4879278917487958,0.4822114332275496
245,0.4884203238357648,0.48086989920912715
246,0.48873586372601135,0.48446710780556973
247,0.48979748961784475,0.47986367575371464
248,0.4887975713403391,0.483822670007373
249,0.4903555069085982,0.4838602686831588
250,0.4897665667543404,0.4819478770834118
251,0.4922787149270757,0.48579967826393144
252,0.4930590721223947,0.4898861490936851
253,0.4945028037618962,0.48263576179860423
254,0.4947327254630393,0.484250321455047
255,0.4953314731423136,0.48323781664858867
256,0.493933753227349,0.48625704295633343
257,0.4937624199737271,0.48376453696693505
258,0.49125415850266946,0.48515142075829176
259,0.48914249722572634,0.49307352803124155
260,0.48770351661480876,0.4791132012924625
261,0.48574005166213097,0.48573781798087245
262,0.48568512630357824,0.48086776435610434
263,0.48444007466927613,0.47577632317979596
264,0.48438851722329257,0.4771195537430523
265,0.48306675807987565,0.4752960595777868
266,0.48431486521455214,0.47301524106027953
267,0.48445776748142655,0.473443566647306
268,0.4848474931659744,0.47777203369912147
269,0.4829868262262939,0.47230353071732883
270,0.48389010404130156,0.48172433226242156
271,0.4842260403098534,0.47555858052049743
272,0.48502206729708625,0.47366416870653866
273,0.48339910779020295,0.4752573821614272
274,0.4841435643837606,0.4745649530977928
275,0.4850276969462562,0.4769100544955096
276,0.48438639400436057,0.47269890796696
277,0.482920306442167,0.4764238354627222
278,0.4843997288998559,0.4751658094098649
279,0.4849774466453792,0.4755042480876715
280,0.4836277197972,0.4781942423065535
281,0.48438466736357466,0.4804669948619656
282,0.4844875360230843,0.474939865772425
283,0.4852164089679718,0.4721898351632053
284,0.48458622647322813,0.47472656982191547
285,0.48501794040203094,0.48528418100153076
286,0.48450591533685283,0.47580806166521655
287,0.48422128040727663,0.4741707248958717
288,0.48566837761280157,0.4776260517155362
289,0.4843004691562683,0.47838688181344224
290,0.484881844177997,0.47652602461537885
291,0.48480871922487645,0.47613048435857
292,0.48493425908992044,0.47416165894472234
293,0.4848175178424155,0.47964492962411187
294,0.4843958332765398,0.47270728368973675
295,0.48495221432212066,0.47926800151744414
296,0.48496956210866343,0.47501003384684237
297,0.48462310631116995,0.4796772153008709
298,0.48478547571231423,0.4742469111576547
299,0.48604260008636235,0.488404200880567
300,0.48498561443518295,0.47566584239536697
301,0.4845719339964773,0.47473106700882917
302,0.48480208468237085,0.47670385587281283
303,0.48527156358523715,0.47991304258333006
304,0.48549662177844777,0.48238502279359147
305,0.4842057483826133,0.47666104153186767
306,0.48542331735626587,0.47940255930881004
307,0.4856773453245727,0.4788057195124141
308,0.48512820730344663,0.4778845072168954
309,0.4862414162269504,0.48515654424089283
310,0.48534165633668147,0.47665132018836726
311,0.4854193144350601,0.47789754859085803
312,0.4858339976111381,0.47662459068065
313,0.48672597069772694,0.48341557169487465
314,0.4850715992571734,0.4767786168449962
315,0.48627130622915227,0.47462826567366073
316,0.4845977751232928,0.4751141901174303
317,0.48543015949064783,0.4740693460511898
318,0.48618920502378693,0.4783515968987014
319,0.484631312419947,0.4821431402296369
320,0.48481773371271475,0.47422567788502695
321,0.484754006103646,0.48205388949532724
322,0.4837971728006236,0.4756501730775494
323,0.4855661337657703,0.4776937560293744
324,0.48432817720442556,0.476752267828492
325,0.48413232439379994,0.4727200041065653
326,0.4849723770583181,0.4755271302731656
327,0.48490425159367057,0.47406455152318905
328,0.4838018258460325,0.4730575975462877
329,0.48424107766599295,0.475088736746569
330,0.4849403711984293,0.47916959389609054
331,0.4855937555992155,0.4787074558454512
332,0.48581754307238034,0.4824322463493227
333,0.4859517004302175,0.47299208070409515
334,0.48666142215498154,0.47677586068294137
335,0.4874860080573961,0.48329257412321847
336,0.4848709158259902,0.475078084944926
337,0.4557778527982515,0.44330898016667686
338,0.44580968253189424,0.42970160656588796
339,0.4441849327654385,0.4395727490052146
340,0.44290613926810135,0.43765930604445435
341,0.4418185185328376,0.4279970468596012
342,0.44283145744737673,0.4475470760156531
343,0.40073456445472133,0.352583255862851
344,0.37114338582749373,0.3554440110851294
345,0.3711337796408686,0.3535032950947392
346,0.36951251948575414,0.3512196662911488
347,0.36902838029402146,0.35581487438390835
348,0.3492956677024408,0.31738514150327457
349,0.3319815273026673,0.31046943574696895
350,0.3307236783581672,0.3172613627438293
351,0.3297474126187827,0.3130799928752098
352,0.327477232777148,0.30918013588499627
353,0.3282010488325267,0.31306413822787527
354,0.32589818926738034,0.30660060386819543
355,0.32524093936720816,0.30481276958122344
356,0.2974080830740986,0.2502131007888135
357,0.27525557042192594,0.2630605718801599
358,0.2759406509206926,0.24794837867733804
359,0.276890379395321,0.27439569435490335
360,0.2791204064024343,0.25452692315111786
361,0.2821637328377635,0.2845627858635
362,0.2802173597611588,0.25353062286937716
363,0.27869703804703355,0.2609035995007502
364,0.27720882111101697,0.2604507275613726
365,0.27466847734461775,0.25055587102365756
366,0.27527651107377954,0.2511660691994612
367,0.2699426075608896,0.26672809335220116
368,0.27229158459402486,0.2541098336159195
369,0.2715112703809921,0.27137403126626664
370,0.270921299009205,0.24860212352676664
371,0.2700139139886859,0.2509853178789602
372,0.26689638939502236,0.24041611037342775
373,0.26617435719088306,0.265171530073613
374,0.27139830431468387,0.24801463822539435
375,0.2698015189713997,0.2591552486571159
376,0.2698180156467344,0.2716983141467246
377,0.2685295486931416,0.24667347591273317
378,0.26821009196537576,0.25674353155359664
379,0.26674018187417115,0.2558471285976946
380,0.2652941137302122,0.23637317551480755
381,0.26467670266815035,0.24204175972806816
382,0.2670134581047759,0.257597218008143
383,0.2634244452861192,0.23376164235462799
384,0.2620830190577191,0.2383933825081695
385,0.2558768966751133,0.22078190140584933
386,0.255120137606641,0.24458197157921147
387,0.25223228791587166,0.22137629387175464
388,0.2505762055278015,0.21686322905928862
389,0.24755790970213026,0.22174927204165198
390,0.24467433018864487,0.22304387051897342
391,0.241842655421828,0.20243422141344225
392,0.24217163318162152,0.21183241953178006
393,0.24524345525282082,0.21964394385267075
394,0.23792645612733065,0.21991330728628736
395,0.23829925742199856,0.2267382148221053
396,0.24028359014067432,0.1982693562920675
397,0.2382450375935252,0.22015285695408307
398,0.2363473884910226,0.2190057248959131
399,0.23943699234061772,0.23030662033251165
400,0.23448380353830034,0.21547212815698716
401,0.23117835862006691,0.23076773277868318
402,0.260981414493897,0.24594206290632697
403,0.27382257777890806,0.2544743227695233
404,0.2775575377100663,0.2652137670092632
405,0.27152800121658044,0.24489433668265687
406,0.2689309117795943,0.24762871261647865
407,0.2686279667236155,0.2375249103499663
408,0.25952242103388173,0.23018917377858814
409,0.2619006421735628,0.26125479850038924
410,0.2610218912053356,0.24550573084424027
411,0.2607463938798264,0.2237749770224894
412,0.25567891762601574,0.21018950817569937
413,0.23658116790149614,0.23398490595883428
414,0.23380041226661272,0.20122330872769797
415,0.22995738383177086,0.23845618917373756
416,0.22170991158123307,0.17933031606128486
417,0.2041795251252268,0.1690400880250577
418,0.19710736013621355,0.1538662609439152
419,0.18835996924866016,0.16300528373601592
420,0.18296973415904288,0.14910112514256865
421,0.17497180536877718,0.153845228013695
422,0.1675029267950786,0.15959872415358378
423,0.17526949228321334,0.14132582109300942
424,0.16842328191256162,0.14595295254202836
425,0.16266250959355577,0.1248291101080278
426,0.161110050547466,0.14752492505024997
427,0.15801242362561937,0.11949237461930293
428,0.16007951714342636,0.1192047942515048
429,0.15769935543124053,0.12685320545767081
430,0.15289317168217958,0.15162767826828696
431,0.15333413158198722,0.1341725764435958
432,0.1530195112398965,0.13865535797429254
433,0.15343108527261098,0.12527239720771513
434,0.15340278409629893,0.12520949892411576
435,0.15321818643884597,0.11330349754539172
436,0.15440650425738187,0.11983814921991601
437,0.15494015912929598,0.14126339436000787
438,0.15359764820713695,0.1199709688619826
439,0.155476671656211,0.10832804533775717
440,0.1521343086555088,0.11252987904043393
441,0.14950579052551283,0.1287792347777332
442,0.15214843272591094,0.11502690056975469
443,0.15530597736283266,0.12223918270834243
444,0.14991543595667936,0.14510187048585563
445,0.15226800375871902,0.1507231449824482
446,0.14802532213078223,0.08689822956931431
447,0.158982787912579,0.12403215841928993
448,0.1554600395393267,0.11096361176579038
449,0.1549746053938052,0.1421377373228604
450,0.15387930518252957,0.1289706461737263
451,0.15147672330947232,0.11716077991870791
452,0.14552620237322447,0.12919349958436546
453,0.15056404224235853,0.10432341697184044
454,0.15168036426678835,0.16329372425482042
455,0.1610862997522076,0.12195392055900058
456,0.16269087376926156,0.13226569564491159
457,0.1548554471743812,0.15721853586662068
458,0.14602061004625808,0.1069365472318906
459,0.1445988197382882,0.13240358678016872
460,0.1501628804555852,0.16296371691746325
461,0.16459011766228746,0.13467749736867934
462,0.1540020606149253,0.13203915630797278
463,0.14782518951548376,0.1131956925661242
464,0.15079874352966663,0.12224120386209465
465,0.14662337114663718,0.11932868128840907
466,0.1563641840069414,0.1631194167515379
467,0.16748387598210007,0.15436440433986373
468,0.165648115639516,0.15352566788397912
469,0.15749019376641746,0.1546920754056609
470,0.15736930995441073,0.12469943135318176
471,0.14873639728835256,0.12053421681310214
472,0.14982149083551458,0.1340208482041355
473,0.14350760815669591,0.13202520736861437
474,0.15299282144966553,0.1194198909550082
475,0.1564960323488541,0.15908536897132786
476,0.14634719496365073,0.13020844911625748
477,0.1570435225439491,0.13139555546225012
478,0.1505446194214739,0.1403687933978831
479,0.15878410503375445,0.12504158307810703
480,0.16307518294425033,0.15925497561693192
481,0.1644777011522334,0.13078494565215934
482,0.15340076084379003,0.13198600066700786
483,0.152503526828391,0.11930538092952313
484,0.14724649980866747,0.13691030620305483
485,0.1573702352349278,0.12596429314614283
486,0.1476335298689864,0.15266666720138353
487,0.1481058072123072,0.11695585891475052
488,0.1492464538696382,0.13357496818479064
489,0.1489862527588098,0.13700242906267848
490,0.15146726727795354,0.13655966127492727
491,0.15298087179636974,0.13538396773652572
492,0.14958809602329676,0.11813684839875847
493,0.1537071480769381,0.12448870298917969
494,0.15025464473642128,0.11169856483294631
495,0.15143563215740674,0.1202372556997738
496,0.14616263656319378,0.1331936936022827
497,0.14667249245525932,0.14033936280477866
498,0.14918890779467223,0.1030562200540149
499,0.147399638658114,0.13387292445929105
500,0.17227242298299175,0.15423568138219093
501,0.15564235188454079,0.14586224626887945
502,0.14876398463531745,0.1076157954951488
503,0.1530921708533375,0.13558493413460376
504,0.1496091058446492,0.10836168091623634
505,0.14635219868960425,0.1389999476032833
506,0.14992759531314712,0.1287836668735051
507,0.15967923254489327,0.13306089413029618
508,0.15238696273615795,0.11879668428894094
509,0.14972418141986826,0.12349355505410385
510,0.14355727689240952,0.13068948148058077
511,0.14898736854430011,0.1323954306995671
512,0.1468852908044553,0.10747477488082134
513,0.14739586381937006,0.1679161135710029
514,0.15900430797065476,0.12499167846593691
515,0.16372863658302597,0.12118241858933983
516,0.16737675108462216,0.15858982271134806
517,0.15917187346388206,0.12359497476819
518,0.1470116598667096,0.13245886119689732
519,0.1426964663534904,0.11305963948380787
520,0.14711791033939206,0.10568701001891209
521,0.14971810555774911,0.12086152647575621
522,0.14312919779873484,0.10020433509782627
523,0.14276288602527953,0.10118362764462582
524,0.1468688619228528,0.14390941461711393
525,0.14972294119002816,0.11412084274340918
526,0.15053200965031063,0.12805013527363046
527,0.15486043849163394,0.1452023351319493
528,0.15097056975145992,0.10827546378549104
529,0.14015347802107758,0.12378092892262159
530,0.14655302268126125,0.1282341411394591
531,0.1442998340465039,0.11976512022839819
532,0.14797665652551717,0.12234044189681759
533,0.14092575055923012,0.11984475326872097
534,0.14217560679065905,0.11826306924917798
535,0.14320209306433238,0.13438514381317804
536,0.14656216294454824,0.1388692810731604
537,0.15376430865731552,0.10805697490967628
538,0.1418490105187245,0.12108186150194626
539,0.15430006524510712,0.12537612878932855
540,0.1555119425588422,0.17761161496484948
541,0.14645382204203963,0.1745532983833161
542,0.1418702123548201,0.12165336035068522
543,0.14074250629289353,0.12030773645159572
544,0.14339675932681914,0.10837912323701636
545,0.14618792745778314,0.1216902622001888
546,0.1476033872736396,0.09755212499597643
