epoch,loss,val_loss
0,0.5595866457091437,0.5582786338329315
1,0.5580114151239395,0.5577348600228628
2,0.5577805164787505,0.557539189696312
3,0.5576698029968473,0.5575766185124715
4,0.5575984867546293,0.5582726316054663
5,0.5575491764280531,0.5574060731728872
6,0.5575287227630615,0.5574482811689376
7,0.5575005113813613,0.5574160652558009
8,0.557491067065133,0.557431239883105
9,0.5574849321842194,0.5573488194147745
10,0.5574705513715744,0.5573748448292415
11,0.5574661089711719,0.5573404982884725
12,0.5574593369695875,0.5573561580578487
13,0.5574297420051363,0.5573590644200643
14,0.5574244949155384,0.5572778515021006
15,0.5574330391354031,0.5578566247224808
16,0.5574290786849128,0.5573604826132457
17,0.5574289968808492,0.557317939956983
18,0.5574238857825597,0.5572592629988988
19,0.5574105130301581,0.5573473985989889
20,0.557425868180063,0.557286299387614
21,0.5574041652679443,0.5573242011864981
22,0.557417380200492,0.557274096806844
23,0.5573989329205619,0.5577264006137848
24,0.5573971377478706,0.557590058406194
25,0.5574062858952417,0.557403490503629
26,0.557409510784679,0.5572754620313645
27,0.5574046669801076,0.5574244248469671
28,0.5573943353361553,0.557387886206309
29,0.5574010554552078,0.5573502140045166
30,0.5573933805757099,0.5572901347875595
31,0.5573912451267242,0.5575240066051483
32,0.5573871675994662,0.5574799015124638
33,0.557387936313947,0.5573701363801956
34,0.5573991369538837,0.5572873035669327
35,0.5573928626643286,0.557288663983345
36,0.5573949766821331,0.5573139974673589
37,0.5573950335184733,0.5572891898949941
38,0.5573865646256341,0.5572258350451788
39,0.5573910808430778,0.5572995292345683
40,0.5573883508576287,0.5574053994019826
41,0.5573895476261774,0.5573052255709966
42,0.5573918150001103,0.557301743666331
43,0.5573803385363685,0.5573088422616322
44,0.5573728000852797,0.5574246623516083
45,0.5573497378561232,0.55724882376194
46,0.5573252388238907,0.5572372843027115
47,0.5573194705380334,0.5572025299866994
48,0.5573151055309508,0.5572010464668274
49,0.5573190602858862,0.5575808405081432
50,0.5573104952971141,0.5575507071018219
51,0.5573020806709925,0.557298224290212
52,0.55728969209724,0.5573898364702861
53,0.5572847742239634,0.5572973663806915
54,0.557286519408226,0.5572806644837062
55,0.5572940682437685,0.557162389755249
56,0.5572906370692783,0.5572630441586176
57,0.5572756919066111,0.5572099279562632
58,0.5572843850851059,0.557160873055458
59,0.5572796995639802,0.5572383016347885
60,0.5572775483661228,0.5573687300682068
61,0.5572765836185879,0.5571652818123499
62,0.5572836250729031,0.5573048202594121
63,0.5572747330930498,0.5574449898401896
64,0.5572781086630292,0.5571983800729116
65,0.5572652275164922,0.5574107991456986
66,0.5572670571804047,0.5572937159935634
67,0.5572621291213565,0.5571530776023865
68,0.5572635886934069,0.5571628701686859
69,0.5572610704104105,0.5572330057621002
70,0.5572590993377897,0.5571970982154211
71,0.5572726091411379,0.5571631946166357
72,0.5572595341205597,0.5576790461540222
73,0.557257298707962,0.5574906803369523
74,0.5572637704345915,0.5571626423199971
75,0.5572625826994578,0.5573997261126836
76,0.5572581520345476,0.5575475522279739
77,0.5572409051656723,0.5574672393401464
78,0.5572642749415504,0.5570984808603923
79,0.5572478968434864,0.5573137267033259
80,0.5572535218662685,0.5573430033524831
81,0.5572585674656761,0.5571102222998937
82,0.557250258869595,0.557925307671229
83,0.5572465851042006,0.5571854811112086
84,0.5572461778587765,0.5572565962870916
85,0.5572574140495724,0.557292036652565
86,0.5572539864513609,0.5573762615919113
87,0.5572519380384021,0.5571899210611979
88,0.557258489370346,0.5571587955156962
89,0.5572452749146356,0.5576826142072677
90,0.5572424887286292,0.557084327896436
91,0.557242695291837,0.5571464695533117
92,0.5572461550500658,0.5571726123094559
93,0.5572516713142395,0.5571746716896693
94,0.5572517293161816,0.557090915441513
95,0.557246851073371,0.5570733315149943
96,0.5572384091350767,0.5571137597958247
97,0.5572410428391562,0.5573309510946274
98,0.5572409621344673,0.5575582593679428
99,0.5572228734493255,0.5571014878749847
100,0.5572386226256688,0.5574767958323161
101,0.5572388151884079,0.5574706157843272
102,0.5572347155941857,0.5571006513436635
103,0.5572302448219724,0.557128915866216
104,0.5572107332017686,0.5570441450675329
105,0.5572274450858434,0.5571445381244023
106,0.5572151347928577,0.5572347761392593
107,0.5571918068197038,0.5570864940484365
108,0.5571980266968409,0.557553022702535
109,0.5571966894600127,0.5571123617092768
110,0.5571879861354828,0.557129856189092
111,0.5571900967624452,0.5570362928708394
112,0.5571825205749935,0.5571196645100911
113,0.5571740979221133,0.5570138454039891
114,0.5571712349653244,0.5570399763981502
115,0.5571755307118098,0.5570985853274664
116,0.5571695942348904,0.55701930697759
117,0.5571722830533982,0.5575145987272263
118,0.5571713753541311,0.5570825861692429
119,0.5571657299333148,0.5572623385190963
120,0.5571599932511647,0.5570822118123372
121,0.5571535715659459,0.5570709641377131
122,0.5571538268327713,0.5571286671161652
123,0.5571484473546346,0.5570035524368286
124,0.5571458591885037,0.5571187938451767
125,0.5571532430251439,0.5570765459140142
126,0.5571557492017746,0.5572712040344874
127,0.5571477462450664,0.557064152042071
128,0.5571514253218969,0.557157472372055
129,0.5571401755015055,0.5570235034624735
130,0.5571561224460602,0.5572679532766343
131,0.5571373878584968,0.5571224576632182
132,0.5571501264969508,0.5570223724444707
133,0.5571458568572998,0.5569774899085362
134,0.5571485671069887,0.5570850842793783
135,0.5571358654234144,0.5570626147985458
136,0.557141481531991,0.5570056829849879
137,0.557140821841028,0.5570408702294032
138,0.5571427196264267,0.5570967118342718
139,0.5571437183883455,0.5574824447234472
140,0.5571424063841501,0.5571113449335098
141,0.5571306833293703,0.5572648531993231
142,0.5571329798963335,0.5570021440585454
143,0.5571407605144713,0.5569603666861852
144,0.5571288155317307,0.5572574082612991
145,0.5571248219675488,0.557411889632543
146,0.557126051598125,0.5569703420003255
147,0.5571277216937807,0.5574787139892579
148,0.5571275917689006,0.5570507386922836
149,0.5571288243134817,0.5570832259257634
150,0.5571373178296619,0.5569879765113195
151,0.5571169936127133,0.5570580145517985
152,0.5571321101453569,0.5573502552111943
153,0.557123875896136,0.5572771090269089
154,0.5571371827920278,0.5569813826481501
155,0.5571150540245904,0.5571553624868393
156,0.5571315929624769,0.5569695057868957
157,0.557131748954455,0.557131643017133
158,0.5571270173125796,0.5570422980388006
159,0.5571378505759769,0.5572494614521663
160,0.557133228580157,0.5573842671712239
161,0.5571292494005627,0.5570518190860748
162,0.5571227650377486,0.5570690265496572
163,0.5571285579734379,0.557115633447965
