epoch,loss,val_loss
0,0.4766349767976337,0.44761228263378144
1,0.44755468441380397,0.44710805612802507
2,0.4472575910422537,0.4469740870197614
3,0.44715656950738697,0.4468407673637072
4,0.44704899440871343,0.44689038185278573
5,0.4469898235466745,0.4469754068056742
6,0.44696773880057866,0.4467946294148763
7,0.44694455485211476,0.44679238454500836
8,0.44692278425561055,0.44684619271755216
9,0.44690453365114,0.44684657313426335
10,0.44689470704396567,0.447782078842322
11,0.44687638304630917,0.4470608522693316
12,0.44687304195430544,0.44682548731565475
13,0.44685645456446543,0.4467203388412794
14,0.4468352394832505,0.4468255523443222
15,0.44683900645706387,0.44710246405998866
16,0.4468362017008993,0.44669161361455917
17,0.44682706632879043,0.44668061612049736
18,0.4468208481272062,0.4467829059759776
19,0.44682181029187307,0.4468720400532087
20,0.4467980589138137,0.44670608892043434
21,0.44680127865076064,0.44667203398545585
22,0.4468020238743888,0.44666091571251554
23,0.44680510561333764,0.44660079044103623
24,0.446804401854674,0.4478279737035433
25,0.4467834488219685,0.44699581497907637
26,0.44678926776515115,0.44662921577692033
27,0.44677670624521043,0.4468303067485491
28,0.4467847466601266,0.4473180784980456
29,0.4467730622622702,0.44666158680121104
30,0.44677689878145854,0.44670327969392143
31,0.4467676280472014,0.4467119749188423
32,0.44676120418310167,0.4465782794555028
33,0.44676401893960105,0.4466231606801351
34,0.446777431415187,0.4466312578121821
35,0.4467759349147479,0.4466922431588173
36,0.4467586172421773,0.4480168972214063
37,0.44676215773820876,0.44665898007154464
38,0.446762501027849,0.4466803058385849
39,0.44677344514264,0.4467417941292127
40,0.4467616196340985,0.4467331955631574
41,0.4467647438181771,0.4466407489379247
42,0.4467580447859234,0.44671277767419815
43,0.44675361400842667,0.4466391294002533
44,0.44673955951134364,0.4469905176560084
45,0.44675584785143535,0.4474698205192884
46,0.44673703741365006,0.44663531734546025
47,0.4467585074967808,0.4466507239143054
48,0.4467569192316797,0.4468451462189357
49,0.44673996697531804,0.4465917373299599
50,0.446750112036864,0.44693628446261086
51,0.44674512065781485,0.4466505297422409
52,0.4467407646179199,0.4465664582649867
53,0.4467456030249596,0.44654410550991697
54,0.44674453234010275,0.44659573928515117
55,0.44674158849981094,0.4465673261086146
56,0.44675288501050736,0.446676269253095
57,0.4467389451265335,0.446664692958196
58,0.44675644599729114,0.44662080947558086
59,0.446739768743515,0.4465793680349986
60,0.44674089478784135,0.44659554078181585
61,0.44675280702114106,0.4465628069837888
62,0.446745728512605,0.4466585439244906
63,0.4467465615603659,0.44682208730777107
64,0.4467450426287121,0.44670435827970506
65,0.44673668222294916,0.44680914105971653
66,0.4467418488793903,0.4466121425827344
67,0.4467456861866845,0.4468374074101448
68,0.4467392649385664,0.4471920919020971
69,0.44673440713352625,0.446696007112662
70,0.446739524450567,0.44696875917911527
71,0.4467443925473425,0.44664689791202544
72,0.4467512060271369,0.44674347362915673
73,0.4467411452796724,0.44661055676142375
