epoch,loss,val_loss
0,0.5579330796392592,0.5572649809115097
1,0.48286741185914556,0.4519991028486761
2,0.4520314426443523,0.45196371956095216
3,0.4520001843785913,0.4519754979798501
4,0.4519896613520037,0.4515910671339257
5,0.4518456319722712,0.4538053850241126
6,0.45177829548320164,0.4556472658645114
7,0.4509773995086403,0.406280905866013
8,0.4017958810080554,0.40149898405904394
9,0.40174209901504754,0.401807197892956
10,0.40158494311393084,0.40205210690854987
11,0.4016444899732477,0.40149593535929173
12,0.40156378899318745,0.4016198329369411
13,0.40146901338793434,0.40228850533598415
14,0.40144339318266076,0.4013156271633108
15,0.40140209891336015,0.4016821512449146
16,0.40139269509009284,0.4012685117299698
17,0.4014470738157142,0.401299301468049
18,0.4013408191595101,0.40122332964089186
19,0.401329669800589,0.40122240636716794
20,0.40133210137769887,0.4027704551463907
21,0.40126746607026703,0.40128104042193674
22,0.4013313543804446,0.40124938933903126
23,0.4012869142341284,0.4011634290959573
24,0.382578546020854,0.35128055748242343
25,0.3513570091228662,0.3514238161343117
26,0.3513096039225507,0.35142107486068347
27,0.3513324327838724,0.3513529691524204
28,0.3513180115920561,0.351353865721061
29,0.351295563189849,0.35131239238779
30,0.35129261964912095,0.3512659229432145
31,0.35127950457936225,0.3512550775344894
32,0.3512838687449902,0.35123187612737555
33,0.3512404306215528,0.3511968992609477
34,0.35128107192583136,0.3512832653270477
35,0.3512604574574687,0.35131571775834713
36,0.35126501377137653,0.35118547991529664
37,0.35121159700559307,0.35118077624159694
38,0.3512118907960499,0.3517916180520355
39,0.35124252457619504,0.3513262897841057
40,0.35124359374518793,0.35126425917522586
41,0.351199415798881,0.35133774565070536
42,0.35121296206307206,0.3511628349311484
43,0.3512052834170917,0.35119045870324017
44,0.35119760514454923,0.35142064530804135
45,0.35120958793007145,0.35123602519409763
46,0.3511739733655864,0.3511765727005286
47,0.3511995310768364,0.35127375076223294
48,0.35119233028949753,0.3513535190791257
49,0.35117730802358726,0.3512140091559586
50,0.3511744141366895,0.351237171569627
51,0.3511481689650605,0.3511543683820221
52,0.35118886000293964,0.3513787007973532
53,0.3511391243643618,0.3511837403946648
54,0.3511808727722899,0.3511472082483258
55,0.3511409050787145,0.35120517250529654
56,0.35114893664894004,0.3511462398555059
57,0.3511648911542538,0.35136181466065664
58,0.3511414146012205,0.3512461531234266
59,0.3511600413188491,0.35118740770041273
60,0.3511391376739998,0.3511785375730969
61,0.35112703815065516,0.3513944042175823
62,0.35118276148573524,0.3512158756104471
63,0.3511122864479281,0.35114723607582743
64,0.3511140665332955,0.35114250697829535
65,0.35116481215695683,0.35122135557402384
66,0.35113496002261013,0.3513546639086828
67,0.3511537158226903,0.35137780078733594
68,0.35111426474623547,0.3512077071374889
69,0.35112919904104384,0.35111381432518357
70,0.3511275111376614,0.35115259867257476
71,0.3511098425431313,0.3513276321222143
72,0.35111509738925234,0.35119310971220424
73,0.3511169924412593,0.35124756433142507
74,0.3511184200005272,0.35110188102315554
75,0.35110442597368463,0.3514811174974155
76,0.35114229417246506,0.3512756961777867
77,0.35111706990668434,0.3512123870974558
78,0.3511053137626811,0.3512337235484036
79,0.3511326208766792,0.35113584622542204
80,0.3511176583664831,0.35126068149881096
81,0.351122025182179,0.35170982684625746
82,0.35111753039446225,0.35172660699913993
83,0.35115304025232047,0.35112033353687966
84,0.35110573409988255,0.35161565283111873
85,0.3510938466949223,0.3523953081469147
86,0.35109298719402443,0.3511447396323278
87,0.3511406448941405,0.3511809596457984
88,0.351120281966923,0.35142475256468353
89,0.3511129402360666,0.35115990029979843
90,0.35110436797009315,0.3511074812337293
91,0.35108795343938676,0.35111441217173606
92,0.3511024927752415,0.3515795671689953
93,0.35108289225223965,0.35143009159594196
94,0.35112804730697467,0.3512017073619004
