epoch,loss,val_loss
0,0.5625805472069384,0.5534079994395479
1,0.5519272644502242,0.551581775057822
2,0.5516697861363458,0.5512472663685576
3,0.5515052338426624,0.5512935023342532
4,0.5513559552515565,0.5518622562927217
5,0.5513557125451476,0.5512730624837124
6,0.5512922815764101,0.5511558151389125
7,0.5512465202723951,0.5515048965337879
8,0.5512156115812329,0.5510146312295152
9,0.5511713854515516,0.5511930115609636
10,0.551137554781642,0.5511069133875107
11,0.5511712336465676,0.5510021446123494
12,0.5511028416320488,0.5511159354489615
13,0.5511076969193648,0.5514939349759512
14,0.5510871836780912,0.5511547985032854
15,0.5510545678461993,0.5509369688339864
16,0.5510311034090734,0.5509318157588425
17,0.5510201266977724,0.5509247921525023
18,0.5510166685864201,0.5509238291176413
19,0.5509990530680776,0.5511237297224986
20,0.5509800189741553,0.5510935559855576
21,0.5509741324249717,0.5517343514807208
22,0.5509769441202312,0.5509811027856042
23,0.5509500372476743,0.551053579682926
24,0.5509617188276321,0.5510001373367255
25,0.5509380732427613,0.5511391784649671
26,0.5509173727954363,0.5508494812973356
27,0.5509252006697497,0.5508515612654247
28,0.5509216243190581,0.5509737771428654
29,0.5508956463821439,0.5508663794100231
30,0.5509287949341664,0.5508864717450483
31,0.5508905887903075,0.5509428162624748
32,0.5508745902157899,0.550861339688534
33,0.5508850886088876,0.5514129452985777
34,0.5508749959444388,0.550915329912497
35,0.5508698949349735,0.5508345062047809
36,0.5508476091187408,0.5522000923379528
37,0.550874233138548,0.5508290171771474
38,0.5508365766543589,0.5508782194295644
39,0.5508314999741268,0.5508658325593793
40,0.5508530065066088,0.5510267144643851
41,0.5508136331948941,0.5508560926479225
42,0.5508307513913496,0.5511083781962751
43,0.5508146089253434,0.550872352898788
44,0.5508309228170019,0.5508274354780519
45,0.5508203220609708,0.5508459369016807
46,0.5508207516543498,0.550824751341866
47,0.5507975790183649,0.5507804027648183
48,0.5508067097561548,0.5508109100505797
49,0.5508080808408794,0.5508815891938812
50,0.5508221001577284,0.5507915290110614
51,0.5508337691678648,0.5508266008541922
52,0.5508282640548054,0.550793723412868
53,0.5507860510703425,0.5508123101085176
54,0.550788449875981,0.5508178775677738
55,0.5507887766461592,0.55083432643785
56,0.5508068164224482,0.5508119126453898
57,0.5507838201677567,0.5509111428053262
58,0.5507859310351129,0.5508749328724422
59,0.5507723536767442,0.551016462243118
60,0.5507684168659857,0.5508353542870708
61,0.550782652004537,0.5507731623093894
62,0.5507754223114092,0.5508320923490282
63,0.5507626349824849,0.5508565222588033
64,0.5507853003895361,0.5508344555477157
65,0.5507528780111921,0.5508968841121048
66,0.5507761234640411,0.5507847661022438
67,0.5507715928841708,0.5508445786802949
68,0.5507779306296581,0.5508152795401279
69,0.5507634198318018,0.5508202265774003
70,0.5507640716948643,0.5509140629034776
71,0.5507608486658575,0.5508405378686956
72,0.5507954133975274,0.5507841492698806
73,0.5507603066867256,0.5512461374805164
74,0.5507812848447932,0.550934966439823
75,0.5507570811629557,0.5510053480046324
76,0.5507664787373149,0.5507835417027626
77,0.5507529915193765,0.5508091322883109
78,0.5508145091447085,0.5508403716237279
79,0.550756544636441,0.5508075827369683
80,0.5507670326834025,0.5508292856786534
81,0.5507393508050415,0.5509352733365044
