epoch,loss,val_loss
0,0.8058324328624793,0.8010533005396243
1,0.8008659086059235,0.8009445951683396
2,0.8007494394329725,0.8009033457469211
3,0.800727580298856,0.8005786585773916
4,0.800642765369985,0.8005048861446845
5,0.8006514912827185,0.800531659727305
6,0.7548582837535156,0.7507385343530288
7,0.7507500846004131,0.7511434252636113
8,0.7507247248324371,0.7506023846589178
9,0.750696196517858,0.7506319587386127
10,0.7506617686564793,0.7506251725237331
11,0.7506320208447326,0.7506772056844057
12,0.7506548453419839,0.7509477261455852
13,0.750619118992494,0.7512373846427313
14,0.7506349005720505,0.751381837425869
15,0.7506082686712208,0.7505462628991593
16,0.7505930530400042,0.7505216525024113
17,0.7505883350945418,0.7505168901135304
18,0.7505631518772828,0.7508102888894941
19,0.7505765637398263,0.7507078396022415
20,0.7505528464675822,0.7506563858635198
21,0.7505517133821132,0.7506025561665447
22,0.7505556974112373,0.7505778817284232
23,0.750535469832322,0.7505132977292008
24,0.7505306458912013,0.7506509500130982
25,0.7505414473238743,0.750543830047007
26,0.7234758833321735,0.7007799599538753
27,0.700632210184957,0.7007171082483936
28,0.7006160565666403,0.7005702023142755
29,0.700617647420638,0.7006275582470253
30,0.700620616763173,0.7006188696496841
31,0.7006044170672764,0.7006027394087366
32,0.7005978924517613,0.7005971939637026
33,0.7006017549970837,0.700579388693523
34,0.7006216654403778,0.7005920007674007
35,0.7005830271377838,0.7006831917760215
36,0.7005794543859324,0.7005667409775714
37,0.7005819300011852,0.7005689346381584
38,0.7005661531386649,0.7005635309037233
39,0.7005772093378854,0.7006125288548404
40,0.7005619954037289,0.700544956586441
41,0.7005644391461613,0.7005911146923118
42,0.7005779381108046,0.7009381833159494
43,0.700556698889278,0.7005581065316165
44,0.7005654086446447,0.7011088320492724
45,0.700560852133076,0.7005395718801718
46,0.7005464083465008,0.7005377542932327
47,0.7005552773812574,0.7005391021904883
48,0.7005495842249115,0.7006350589234783
49,0.7005479047002335,0.7007815703487582
50,0.7005399538695447,0.7005992773096352
51,0.7005370126470967,0.7006734558989172
52,0.7005440474621064,0.7005543655433458
53,0.700535793046863,0.7005256655309823
54,0.7005276607168752,0.7006305688375011
55,0.7005299365138992,0.7005424852544025
56,0.7005219230388232,0.700580467136276
57,0.7005255012390561,0.7005271547364604
58,0.7005239533042994,0.7005642800649629
59,0.7005341293957672,0.7007091070051662
60,0.7005254046139364,0.7008201737326782
61,0.7005312641456984,0.7006424156233184
62,0.7005203259458004,0.7009903810167847
63,0.700528288473779,0.7005259334183349
64,0.7005164186556974,0.7005148065155831
65,0.7005258359114348,0.7005448185713513
66,0.7005110692203639,0.7005313936972368
67,0.7005150536433981,0.7005887298711898
68,0.7005228294100623,0.7005325112869736
69,0.7005132380687217,0.7005249781027465
70,0.7005080090865295,0.700612414844677
71,0.7005222980749698,0.7005435547707538
72,0.7005101739364896,0.7005394956616191
73,0.7005167752882022,0.7005402658734955
74,0.7005078530374836,0.7005256808848168
75,0.7005185816829416,0.7006507357709847
76,0.7005046260397282,0.7005340192135411
77,0.70050608835343,0.700533580432715
78,0.7005068264601794,0.7005286600264039
79,0.7005134127049516,0.7006932537156283
80,0.7005039365970928,0.7005357106131376
81,0.7005154059287749,0.7005176990085987
82,0.7005101978492231,0.7005365780730255
83,0.7005113964931656,0.7005321114731208
84,0.7005112961844938,0.7006007717565949
