epoch,loss,val_loss
0,0.8298091872069571,0.7712463003794352
1,0.7705757481389576,0.7700927739143372
2,0.7692498438225852,0.7690548675855001
3,0.7729841029114194,0.7557954215606054
4,5.573336418721411,0.9999999994039536
5,0.9999999962647756,1.0
6,1.0,1.0
7,1.0,1.0
8,1.0,1.0
9,1.0,1.0
10,1.0,1.0
11,1.0,1.0
12,1.0,1.0
13,1.0,1.0
14,1.0,1.0
15,1.0,1.0
16,1.0,1.0
17,1.0,1.0
18,1.0,1.0
19,1.0,1.0
20,1.0,1.0
21,1.0,1.0
22,1.0,1.0
23,1.0,1.0
