epoch,loss,val_loss
0,0.5393743331829707,0.5137762876749039
1,1.0839498942891757,0.666536764105161
2,0.6680672872861226,0.6700102716286978
3,0.6670950993564394,0.6670346035559972
4,0.666034566283226,0.6656273701190949
5,0.7880857418245739,1.0
6,1.0,1.0
7,1.0,1.0
8,1.0,1.0
9,1.0,1.0
10,1.0,1.0
11,1.0,1.0
12,1.0,1.0
13,1.0,1.0
14,1.0,1.0
15,1.0,1.0
16,1.0,1.0
17,1.0,1.0
18,1.0,1.0
19,1.0,1.0
20,1.0,1.0
