{
  "encoder": [
    {
      "batch_input_shape": "(None, 27, 4)",
      "dtype": "float32",
      "sparse": "False",
      "name": "input_1",
      "type": "<class 'tensorflow.python.keras.engine.input_layer.InputLayer'>"
    },
    {
      "name": "gpre5",
      "trainable": "True",
      "batch_input_shape": "(None, 27, 4)",
      "dtype": "float32",
      "gs": "27",
      "numericC": "10000",
      "type": "<class 'gpre5.gpre5'>"
    },
    {
      "name": "gssort",
      "trainable": "True",
      "dtype": "float32",
      "gs": "27",
      "param": "4",
      "index": "-1",
      "type": "<class 'gssort.gssort'>"
    },
    {
      "name": "gcutparam",
      "trainable": "True",
      "dtype": "float32",
      "gs": "27",
      "param1": "1",
      "param2": "3",
      "type": "<class 'gcutparam.gcutparam'>"
    },
    {
      "name": "gpartinorm",
      "trainable": "True",
      "batch_input_shape": "(None, 27, 3)",
      "dtype": "float32",
      "gs": "27",
      "param": "3",
      "alpha": "0.01",
      "type": "<class 'gpartinorm.gpartinorm'>"
    },
    {
      "name": "ghealparam",
      "trainable": "True",
      "dtype": "float32",
      "gs": "27",
      "param1": "1",
      "param2": "3",
      "type": "<class 'ghealparam.ghealparam'>"
    },
    {
      "name": "batch_normalization",
      "trainable": "True",
      "dtype": "float32",
      "axis": "ListWrapper([2])",
      "momentum": "0.99",
      "epsilon": "0.001",
      "center": "True",
      "scale": "True",
      "beta_initializer": {
        "class_name": "Zeros",
        "config": {
          "dtype": "float32"
        }
      },
      "gamma_initializer": {
        "class_name": "Ones",
        "config": {
          "dtype": "float32"
        }
      },
      "moving_mean_initializer": {
        "class_name": "Zeros",
        "config": {
          "dtype": "float32"
        }
      },
      "moving_variance_initializer": {
        "class_name": "Ones",
        "config": {
          "dtype": "float32"
        }
      },
      "beta_regularizer": "None",
      "gamma_regularizer": "None",
      "beta_constraint": "None",
      "gamma_constraint": "None",
      "type": "<class 'tensorflow.python.keras.layers.normalization.BatchNormalization'>"
    },
    {
      "name": "gtopk",
      "trainable": "True",
      "batch_input_shape": "(None, 27, 4)",
      "dtype": "float32",
      "gs": "27",
      "k": "4",
      "param": "4",
      "free": "19",
      "self_interaction": "True",
      "self_interaction_const": "100.0",
      "numericalC": "10000",
      "flag": "0",
      "emptyconst": "100000000.0",
      "type": "<class 'gtopk.gtopk'>"
    },
    {
      "name": "glm",
      "trainable": "True",
      "dtype": "float32",
      "gs": "27",
      "param": "23",
      "iterations": "1",
      "alinearity": "ListWrapper([])",
      "self_initializer": "<tensorflow.python.keras.initializers.TruncatedNormal object at 0x2afe27f0a2e8>",
      "neig_initializer": "<tensorflow.python.keras.initializers.TruncatedNormal object at 0x2afe27f0a2e8>",
      "learnable": "True",
      "type": "<class 'glm.glm'>"
    },
    {
      "name": "gcompool",
      "trainable": "True",
      "dtype": "float32",
      "gs": "27",
      "param": "23",
      "c": "3",
      "metrik_init": "<tensorflow.python.ops.init_ops.Identity object at 0x2afe7bac85c0>",
      "learnable": "True",
      "paramo": "41",
      "type": "<class 'gcompool.gcompool'>"
    },
    {
      "name": "gtopk_1",
      "trainable": "True",
      "batch_input_shape": "(None, 9, 41)",
      "dtype": "float32",
      "gs": "9",
      "k": "1",
      "param": "41",
      "free": "0",
      "self_interaction": "True",
      "self_interaction_const": "100.0",
      "numericalC": "10000",
      "flag": "0",
      "emptyconst": "100000000.0",
      "type": "<class 'gtopk.gtopk'>"
    },
    {
      "name": "glm_1",
      "trainable": "True",
      "dtype": "float32",
      "gs": "9",
      "param": "41",
      "iterations": "1",
      "alinearity": "ListWrapper([])",
      "self_initializer": "<tensorflow.python.keras.initializers.TruncatedNormal object at 0x2afe27f0a2e8>",
      "neig_initializer": "<tensorflow.python.keras.initializers.TruncatedNormal object at 0x2afe27f0a2e8>",
      "learnable": "True",
      "type": "<class 'glm.glm'>"
    },
    {
      "name": "gcompool_1",
      "trainable": "True",
      "dtype": "float32",
      "gs": "9",
      "param": "41",
      "c": "3",
      "metrik_init": "<tensorflow.python.ops.init_ops.Identity object at 0x2afe7bac85c0>",
      "learnable": "True",
      "paramo": "59",
      "type": "<class 'gcompool.gcompool'>"
    },
    {
      "name": "gtopk_2",
      "trainable": "True",
      "batch_input_shape": "(None, 3, 59)",
      "dtype": "float32",
      "gs": "3",
      "k": "1",
      "param": "59",
      "free": "0",
      "self_interaction": "True",
      "self_interaction_const": "100.0",
      "numericalC": "10000",
      "flag": "0",
      "emptyconst": "100000000.0",
      "type": "<class 'gtopk.gtopk'>"
    },
    {
      "name": "glm_2",
      "trainable": "True",
      "dtype": "float32",
      "gs": "3",
      "param": "59",
      "iterations": "1",
      "alinearity": "ListWrapper([])",
      "self_initializer": "<tensorflow.python.keras.initializers.TruncatedNormal object at 0x2afe27f0a2e8>",
      "neig_initializer": "<tensorflow.python.keras.initializers.TruncatedNormal object at 0x2afe27f0a2e8>",
      "learnable": "True",
      "type": "<class 'glm.glm'>"
    },
    {
      "name": "gcompool_2",
      "trainable": "True",
      "dtype": "float32",
      "gs": "3",
      "param": "59",
      "c": "3",
      "metrik_init": "<tensorflow.python.ops.init_ops.Identity object at 0x2afe7bac85c0>",
      "learnable": "True",
      "paramo": "77",
      "type": "<class 'gcompool.gcompool'>"
    },
    {
      "name": "ggoparam",
      "trainable": "True",
      "dtype": "float32",
      "gs": "1",
      "param": "77",
      "type": "<class 'ggoparam.ggoparam'>"
    }
  ],
  "decoder": [
    {
      "batch_input_shape": "(None, 77)",
      "dtype": "float32",
      "sparse": "False",
      "name": "input_2",
      "type": "<class 'tensorflow.python.keras.engine.input_layer.InputLayer'>"
    },
    {
      "name": "gfromparam",
      "trainable": "True",
      "dtype": "float32",
      "gs": "1",
      "param": "77",
      "type": "<class 'gfromparam.gfromparam'>"
    },
    {
      "name": "gcomfullyconnected",
      "trainable": "True",
      "dtype": "float32",
      "gs": "1",
      "param": "77",
      "type": "<class 'gcomfullyconnected.gcomfullyconnected'>"
    },
    {
      "name": "gcomdepoolplus",
      "trainable": "True",
      "dtype": "float32",
      "gs": "1",
      "param": "77",
      "c": "3",
      "metrik_init": "<tensorflow.python.ops.init_ops.Identity object at 0x2afe803934e0>",
      "graph_init": "<tensorflow.python.ops.init_ops.Identity object at 0x2afe7ba7e198>",
      "learnable": "True",
      "paramo": "77",
      "type": "<class 'gcomdepoolplus.gcomdepoolplus'>"
    },
    {
      "name": "ggraphstract",
      "trainable": "True",
      "dtype": "float32",
      "in1": "1",
      "in2": "3",
      "type": "<class 'ggraphstract.ggraphstract'>"
    },
    {
      "name": "glm_3",
      "trainable": "True",
      "dtype": "float32",
      "gs": "3",
      "param": "77",
      "iterations": "1",
      "alinearity": "ListWrapper([])",
      "self_initializer": "<tensorflow.python.keras.initializers.TruncatedNormal object at 0x2afe27f0a2e8>",
      "neig_initializer": "<tensorflow.python.keras.initializers.TruncatedNormal object at 0x2afe27f0a2e8>",
      "learnable": "True",
      "type": "<class 'glm.glm'>"
    },
    {
      "name": "gcomdepoolplus_1",
      "trainable": "True",
      "dtype": "float32",
      "gs": "3",
      "param": "77",
      "c": "3",
      "metrik_init": "<tensorflow.python.ops.init_ops.Identity object at 0x2afe803f0320>",
      "graph_init": "<tensorflow.python.ops.init_ops.Identity object at 0x2afe7ba7e198>",
      "learnable": "True",
      "paramo": "77",
      "type": "<class 'gcomdepoolplus.gcomdepoolplus'>"
    },
    {
      "name": "ggraphstract_1",
      "trainable": "True",
      "dtype": "float32",
      "in1": "3",
      "in2": "3",
      "type": "<class 'ggraphstract.ggraphstract'>"
    },
    {
      "name": "glm_4",
      "trainable": "True",
      "dtype": "float32",
      "gs": "9",
      "param": "77",
      "iterations": "1",
      "alinearity": "ListWrapper([])",
      "self_initializer": "<tensorflow.python.keras.initializers.TruncatedNormal object at 0x2afe27f0a2e8>",
      "neig_initializer": "<tensorflow.python.keras.initializers.TruncatedNormal object at 0x2afe27f0a2e8>",
      "learnable": "True",
      "type": "<class 'glm.glm'>"
    },
    {
      "name": "gcomdepoolplus_2",
      "trainable": "True",
      "dtype": "float32",
      "gs": "9",
      "param": "77",
      "c": "3",
      "metrik_init": "<tensorflow.python.ops.init_ops.Identity object at 0x2afe8046e4e0>",
      "graph_init": "<tensorflow.python.ops.init_ops.Identity object at 0x2afe7ba7e198>",
      "learnable": "True",
      "paramo": "77",
      "type": "<class 'gcomdepoolplus.gcomdepoolplus'>"
    },
    {
      "name": "ggraphstract_2",
      "trainable": "True",
      "dtype": "float32",
      "in1": "9",
      "in2": "3",
      "type": "<class 'ggraphstract.ggraphstract'>"
    },
    {
      "name": "glm_5",
      "trainable": "True",
      "dtype": "float32",
      "gs": "27",
      "param": "77",
      "iterations": "1",
      "alinearity": "ListWrapper([])",
      "self_initializer": "<tensorflow.python.keras.initializers.TruncatedNormal object at 0x2afe27f0a2e8>",
      "neig_initializer": "<tensorflow.python.keras.initializers.TruncatedNormal object at 0x2afe27f0a2e8>",
      "learnable": "True",
      "type": "<class 'glm.glm'>"
    },
    {
      "name": "gremoveparam",
      "trainable": "True",
      "dtype": "float32",
      "inn": "77",
      "gs": "27",
      "out": "4",
      "type": "<class 'gremoveparam.gremoveparam'>"
    },
    {
      "name": "gssort_1",
      "trainable": "True",
      "dtype": "float32",
      "gs": "27",
      "param": "4",
      "index": "-1",
      "type": "<class 'gssort.gssort'>"
    }
  ]
}