epoch,loss,val_loss
0,0.5581354640457366,0.5558385037183762
1,0.5558960499366125,0.5556920502185821
2,0.5557935220797857,0.5556851720015208
3,0.5557488533390893,0.5556626708904903
4,0.5557226702504687,0.555828261256218
5,0.5557091993225945,0.5557049544254938
6,0.5556981723573473,0.5556688611110051
7,0.555689072198338,0.5556536337534587
8,0.5556846433348126,0.555668498078982
9,0.555679258108139,0.5556560366551081
10,0.5556759220494164,0.5557176994085312
11,0.5556726709074444,0.55564872777462
12,0.5556685940027237,0.555664389650027
13,0.5556655454635621,0.555678195754687
14,0.555662234822909,0.5556893095175425
15,0.5556631969478395,0.5556490507523218
16,0.5556597208976746,0.5556400539477666
17,0.5556596779028574,0.5556534298658371
18,0.5556580567095015,0.5556834962368011
19,0.5556578721205393,0.555698896408081
20,0.5556567931042777,0.5556631945371627
21,0.5556571096446778,0.5556442247629165
22,0.5556551811297734,0.5556472677787145
23,0.5556542801989449,0.5556220947106679
24,0.5556526638931698,0.5556308709383011
25,0.5556475595765644,0.5556177936792374
26,0.5556439813640383,0.5556501876513164
27,0.5556422138081657,0.555627601424853
28,0.5556416135629018,0.5556207308371862
29,0.5556380423969692,0.5556248356898625
30,0.55563895172543,0.5556195869843165
31,0.5556390346421136,0.5556338631709417
32,0.5556380694707235,0.5556301215092341
33,0.5556372112565571,0.5556143174171447
34,0.5556380335754818,0.5556241859197617
35,0.5556378420856264,0.5556531925996144
36,0.5556373977396223,0.5556188581784566
37,0.5556362510389752,0.5556304475863775
38,0.5556353624794218,0.5556628032128016
39,0.5556358510388268,0.5556166638930639
40,0.555634761982494,0.555632540067037
41,0.5556354437801573,0.5556226227680842
42,0.5556325990888807,0.5556167815526326
43,0.5556315584315195,0.5556127124230067
44,0.5556318563222885,0.5556391794681549
45,0.555631280263265,0.5556088785727819
46,0.5556300607124964,0.5556134955485662
47,0.5556325000392066,0.5556144622166952
48,0.5556302177111307,0.5556216716368994
49,0.5556290440294478,0.5556503318150838
50,0.5556287260055542,0.5556124174197515
51,0.5556290466123157,0.5556190795103709
52,0.5556288487381406,0.5556094255447388
53,0.5556292984750536,0.5556379911104838
54,0.555629187464714,0.5556711066563924
55,0.5556303806304932,0.5556194532712301
56,0.5556287642717361,0.5556204327344895
57,0.5556285636689928,0.5556131347417831
58,0.5556284827921125,0.5556217641035716
59,0.5556283520725038,0.5556693561871846
60,0.555627974126074,0.5556497606436411
61,0.5556281057596206,0.5556095896959304
62,0.5556274323993259,0.5556140516996384
63,0.5556283380058077,0.5556157911618551
64,0.55562782714102,0.5556262132724126
65,0.5556284079154332,0.5556124142011006
