epoch,loss,val_loss
0,0.11524642338355383,0.11197772289315859
1,0.11181459361314773,0.11182632999618848
2,0.11158310060368644,0.11152265772720178
3,0.11147853023310503,0.11135082626839479
4,0.11145241147114171,0.11129230047265688
5,0.1114134625626935,0.1114203161795934
6,0.1113911472161611,0.11135175429781279
7,0.11136360397107072,0.1112504558612903
8,0.1113482979055908,0.11128128228584926
9,0.11134949559966723,0.11124234319229921
10,0.11133603007760313,0.11125525267918905
11,0.1113293884396553,0.11128828187286854
12,0.11131888179646598,0.11123408587773641
13,0.11131316799090968,0.11124678787092368
14,0.11131178593138853,0.11127418010433515
15,0.11130464090406894,0.11131752437353135
16,0.11130330626832115,0.11124290146927039
17,0.11129596483872996,0.11131160385906697
18,0.11129372397396299,0.11124531607329845
19,0.11128603431416882,0.1112711999118328
20,0.11128225074211756,0.11125677508612473
21,0.11128336670994758,0.11121091258525849
22,0.11127625770204597,0.11126983893911044
23,0.11127981189390024,0.11124760939677557
24,0.11127745672067006,0.11127633475760619
25,0.11127305927375952,0.11140761512021223
26,0.11127294799685478,0.11130360621710618
27,0.1112744272036685,0.11129034751156966
28,0.11127281156513426,0.11125858255724112
29,0.11127398222022586,0.11125402329862118
30,0.11127031840715143,0.11130049720406532
31,0.11126735242870119,0.11127099817991257
32,0.11126821976734533,0.11127095436553161
33,0.11126478745208847,0.1112226742953062
34,0.11126541754437817,0.11123566781481108
35,0.11126390530996852,0.11141599545876185
36,0.11126765936281946,0.11131725683808327
37,0.11126008386082119,0.11124189460774263
38,0.11126008600989977,0.11125757751365503
39,0.11125967691342036,0.11122476737201213
40,0.11125743957857291,0.11140443766613801
41,0.11125993604792489,0.11124317914247513
