epoch,loss,val_loss
0,0.4473626485996776,0.4447438577810923
1,0.4447898376584053,0.444799590408802
2,0.4447034474876192,0.4445653103192647
3,0.4446573474738333,0.44457770375410716
4,0.4446339581078953,0.4445544500549634
5,0.4446100979447365,0.4446019550561905
6,0.4446030240191354,0.4445505688985189
7,0.4445945950481627,0.44456516645352046
8,0.4445864171716902,0.4445463223059972
9,0.44458041974571016,0.4446164446870486
10,0.44457374492618773,0.44453214770555494
11,0.44456949957874087,0.4445400492747625
12,0.44456523596578174,0.4445503281553586
13,0.4445628640254339,0.4445414901177088
14,0.4445636879735523,0.44452718194325763
15,0.4445581429666943,0.44452392224470777
16,0.4445567509929339,0.4445310411254565
17,0.44455567318201067,0.44454384380578993
18,0.44455266473028393,0.4445323912302653
19,0.4445546414123641,0.4445308302243551
20,0.444552929063638,0.4445247076352437
21,0.44455018585920336,0.4445323502421379
22,0.44454897974597085,0.4445596043864886
23,0.4445474924378925,0.4446015143195788
24,0.44454933377106987,0.44453242208560306
25,0.4445477319624689,0.44455569177865983
26,0.4445469283329116,0.444553070684274
27,0.44454621203740435,0.44452313480774563
28,0.44454478141996595,0.4445246247649193
29,0.4445452281435331,0.4445571336150169
30,0.4445429194635815,0.4445168211460114
31,0.44454448764191734,0.44453535799185434
32,0.4445433403849602,0.4445157235662142
33,0.4445420503351423,0.4445347199042638
34,0.44454221331410937,0.4445372278292974
35,0.44453909723626245,0.4445163801709811
36,0.4445381489925914,0.44453414356708526
37,0.44453851475318273,0.4445129302938779
38,0.44454014944367937,0.44452199747165044
39,0.4445373129381074,0.4445450851917267
40,0.4445382352736261,0.44451927600304286
41,0.4445372938447528,0.4445246189634005
42,0.4445384901828236,0.4445253222783407
43,0.44453807993067634,0.4445650067925453
44,0.4445364970167478,0.44452009463310244
45,0.44453657203912733,0.4445148918231328
46,0.4445387325353093,0.44452434678872427
47,0.44453779272238414,0.4445766038497289
48,0.4445354602734248,0.4445216609835625
49,0.4445363405413098,0.4445303370555242
50,0.44453457083966996,0.44452263198296227
51,0.44453441816568373,0.44452094052235286
52,0.44453469043307836,0.4445316764911016
53,0.4445353110167715,0.4445246965289116
54,0.44453442753685846,0.4445655332803726
55,0.44453592667977015,0.44450943764050804
56,0.44453459296623865,0.4445133470694224
57,0.4445348997447226,0.44453147530555726
58,0.4445351686411434,0.44456486264864603
59,0.44453511452674865,0.44451642139752706
60,0.4445344329675039,0.444530529042085
61,0.4445351446999444,0.4445182425181071
62,0.44453445886241066,0.44454582343498866
63,0.4445336354308658,0.444532945116361
64,0.44453475734260345,0.4445181063214938
65,0.44453407952520585,0.44452180663744606
66,0.4445336649152968,0.444545980155468
67,0.44453286251094604,0.44457555506626767
68,0.4445342443452941,0.4445383328596751
69,0.4445343873500824,0.444523307065169
70,0.44453313154644436,0.44451730356613794
71,0.4445327239765061,0.44452807190020877
72,0.444533494287067,0.4445193022886912
73,0.4445326181716389,0.4445226071874301
74,0.44453254724873437,0.44451322092612583
75,0.4445317555533515,0.44453468871116636
