epoch,loss,val_loss
0,0.6681773662169774,0.6668561852773031
1,0.6668717638916439,0.6669739448626836
2,0.6668202850023905,0.6667960275411606
3,0.6668029155598746,0.6669420548677445
4,0.6667890157169766,0.6669399017890294
5,0.6667807204193539,0.6667272942860921
6,0.6667670363850063,0.6667597719430923
7,0.6667648407088386,0.6667229168017705
8,0.6667589364581638,0.6668134311040242
9,0.6667533727354473,0.6667226488590241
10,0.6667510846323437,0.6667862136363983
11,0.6667487758662966,0.6667264557679494
12,0.6667470232115852,0.6669012142419815
13,0.6667431328429116,0.6667175719340642
14,0.6667415686713325,0.6667298559347788
15,0.6667415659030278,0.6667280013958613
16,0.6667382731702592,0.6667391207615534
17,0.6667391284439299,0.6667253975868225
18,0.6667381737497118,0.6667190843423207
19,0.6667373022635777,0.6667198671499888
20,0.6667357172436185,0.6667249481678009
21,0.6667353264358309,0.6667349587281545
22,0.6667350678311454,0.6667255987723668
23,0.6667347783512539,0.666724020520846
24,0.6667335824701521,0.6667152549028397
25,0.6667325785557429,0.6667145282030106
26,0.6667321210039987,0.6667231382528941
27,0.6667329311105941,0.6667159624099731
28,0.6667309689786699,0.6667154290278753
29,0.6667316995461782,0.6668517235120137
30,0.6667302745448218,0.6667473785479864
31,0.6667306939893298,0.6667489234606425
32,0.6667304688294728,0.6667167808214823
33,0.6667304197152456,0.6667306431531906
34,0.666730296558804,0.6667343635956446
35,0.6667296790281931,0.6667115382750829
36,0.6667296112113529,0.6667179493904114
37,0.666728745341301,0.6667236208120982
38,0.666728178554111,0.6667328954935073
39,0.6667288012107213,0.6667173432509105
40,0.6667280523512098,0.6667146160205205
41,0.666728346572982,0.6667155976692836
42,0.666728003581365,0.666716796875
43,0.6667279318173727,0.6667196242014567
44,0.6667277531756295,0.6667296636899313
45,0.6667276760472192,0.6667107430696487
46,0.6667272190120485,0.6667165934642156
47,0.6667275049024158,0.6667158470153809
48,0.6667276138332155,0.6667119706074397
49,0.6667280238469442,0.6667157851457596
50,0.6667274493243959,0.6667280811866124
51,0.6667273909648259,0.6667120543718338
52,0.6667272473971049,0.6667142286300659
53,0.6667272801796595,0.6667150401274363
54,0.6667265436516868,0.6667391530275345
55,0.6667266709672081,0.666733253121376
56,0.6667275818453895,0.6667221112648646
57,0.6667260208262338,0.6667184189955393
58,0.666726469622718,0.6667417131662369
59,0.6667261971765094,0.666710531393687
60,0.6667247737248738,0.6667177989085515
61,0.6667258011102677,0.6667410142421722
62,0.6667249951362609,0.6667232619126637
63,0.6667247154712677,0.6667624657551448
64,0.6667248002025816,0.6667179744243622
65,0.6667245432403353,0.6667125604947408
66,0.666724433792962,0.666709760983785
67,0.6667244599660238,0.6667163416544596
68,0.6667255331807667,0.6667296822071076
69,0.6667246176401774,0.6667166490952174
70,0.6667254142363866,0.6667109523614247
71,0.6667241679959827,0.6667201932271322
72,0.6667240363359451,0.666726263721784
73,0.6667249486578836,0.6667161540985107
74,0.6667234989139769,0.6667105485598246
75,0.6667235046625137,0.6667135226329167
76,0.6667240749994914,0.6667215195496877
77,0.6667244475417667,0.6667184921900431
78,0.6667240935431586,0.6667128468354543
79,0.6667246502637864,0.66673391020298
80,0.6667236172490649,0.6667208157777786
81,0.6667242688205507,0.6667203433513641
82,0.6667235193649927,0.6668392653862635
83,0.666723688059383,0.6667083277702331
84,0.6667232643100951,0.6667501615285873
85,0.6667228645881017,0.666715930779775
86,0.6667239135901133,0.6667305572827658
87,0.666723200029797,0.666713892698288
88,0.6667239103449716,0.6667259837388992
89,0.6667230714824465,0.6667131083011627
90,0.666723023030493,0.6667099710305532
91,0.6667229739427567,0.6667145690520604
92,0.6667237664461136,0.6667182646592458
93,0.6667229762342242,0.666710239370664
94,0.6667228240436978,0.6667180216312408
95,0.666723517285453,0.6667307330369949
96,0.6667235538562138,0.6667099115848542
97,0.6667231203582552,0.6667284207344055
98,0.6667236039770974,0.666714540998141
99,0.6667226872973971,0.6667198928197225
100,0.666722656276491,0.6667129893700282
101,0.6667230170170466,0.6667130991617839
102,0.6667234955363803,0.6667729069391887
103,0.666723169989056,0.6667122238477071
