epoch,loss,val_loss
0,0.4469021359814538,0.4446682066520055
1,0.44484881980551616,0.4446088620026906
2,0.44473334221045174,0.4446511314709981
3,0.44468021838532557,0.44456307419141133
4,0.444649435725477,0.4446047306458155
5,0.4446400002969636,0.44454819470643997
6,0.44462173732121785,0.444580307106177
7,0.4446135168340471,0.444547586898009
8,0.4446110577450858,0.444552961230278
9,0.444593180305428,0.4446177571018537
10,0.44458876526355745,0.444792916059494
11,0.44458295448621116,0.44458446888128916
12,0.44457218095991347,0.4445450278321902
13,0.44457340235842596,0.4445660275022189
14,0.44456990383068723,0.4445410924752553
15,0.4445663021273083,0.44454036990801493
16,0.44456619846820833,0.44455338386694593
17,0.4445625623265902,0.4445676925778389
18,0.4445635591944059,0.444559190650781
19,0.4445594956345028,0.4445384743611018
20,0.44455901276403004,0.4445224785606066
21,0.4445606173674266,0.4445386667251587
22,0.44455832680066426,0.44455059492588045
23,0.444557627260685,0.4445608129501343
24,0.44455790589915384,0.44454794623454413
25,0.44455635674132243,0.44456364746888477
26,0.4445578287243843,0.44454172883431115
27,0.44455492034223343,0.4445576465527217
28,0.44455311793088914,0.44453825970490773
29,0.4445542998777495,0.4445261981685956
30,0.4445513055125872,0.4445389912525813
31,0.44455439200666214,0.4445785603920619
32,0.4445522162649367,0.4445311389962832
33,0.44455088029967416,0.44453920594851176
34,0.44455099952220917,0.4445245609680812
35,0.4445505011545287,0.4445426659584045
36,0.4445517527129915,0.44451811055342355
37,0.4445483439763387,0.44451429541905724
38,0.44454908289511996,0.44451512199640275
39,0.4445475018223127,0.4445413246154785
40,0.44454699536826875,0.444570333023866
41,0.4445484529799885,0.4445386577049891
42,0.4445448992782169,0.4445452669262886
43,0.4445461080736584,0.44452370699246724
44,0.444544858429167,0.44454028391838074
45,0.4445463241934776,0.44454586454232536
46,0.44454598243369,0.4445218785603841
47,0.4445461734003491,0.4445220292607943
48,0.44454417670435376,0.4445355641643206
49,0.4445438103808297,0.4445148616631826
50,0.4445445113910569,0.4445140652259191
51,0.4445444237126244,0.44458440971374513
52,0.44454450941085816,0.4445248688459396
53,0.4445438001089626,0.4445268565416336
54,0.4445457435117828,0.44454657085736593
55,0.44454243310954833,0.4445246504942576
56,0.4445438812308841,0.4445272504091263
57,0.4445403668549326,0.4445413022637367
58,0.4445406267709202,0.44452327956755955
59,0.4445409355494711,0.4445196133653323
60,0.44454230809874007,0.4445555063486099
61,0.4445400137570169,0.4445756142338117
62,0.44454152267509034,0.4445536144971848
63,0.44454014816549087,0.44452841438849766
64,0.4445409695174959,0.4445428676009178
65,0.4445390834344758,0.4445270622968674
66,0.44454084275828465,0.44453982887665433
67,0.44453952115111883,0.4445650052030881
68,0.44454159156481426,0.4445128384033839
69,0.44453994519842993,0.4445263963143031
70,0.4445395799809032,0.4445299830238024
71,0.4445387158062723,0.4445190259416898
72,0.4445398194326295,0.4445471344192823
73,0.44453935863574345,0.4445537323156993
74,0.44453911968072257,0.4445727630853653
75,0.44453977162970437,0.44451906394958496
76,0.44454107494486705,0.4445354011853536
77,0.44453863259156545,0.4445616264541944
78,0.4445405059191916,0.44455197743574776
79,0.44453923161162273,0.44452589243650437
80,0.44453948305712804,0.4445285849173864
81,0.44453750510348217,0.4445299850900968
82,0.44453919730583824,0.444518997391065
83,0.4445397336946593,0.4445283979177475
84,0.44453746177090536,0.4445369851787885
85,0.44453905617528494,0.4446082145770391
86,0.4445398509568638,0.4445279969771703
87,0.4445369011561076,0.4445568911830584
88,0.4445390813946724,0.4445499636133512
