epoch,loss,val_loss
0,0.22591981478532155,0.22255301207304
1,0.22267749116155836,0.2226086144844691
2,0.22255235341522428,0.22237284417947134
3,0.22251763810714087,0.22239379169543586
4,0.2224845167398453,0.22251054163773853
5,0.22246281617217595,0.22235012753804526
6,0.22244900311695204,0.2223641928533713
7,0.22243368712729877,0.22243788183728855
8,0.22241936430335044,0.2224724943637848
9,0.222414960824781,0.2224098580678304
10,0.22240732892023193,0.22235116213560105
11,0.22239843548337618,0.22250892470280328
12,0.22239497073160278,0.22236448762814204
13,0.2223942048119174,0.22235782799124718
14,0.22239009881681865,0.2225502192378044
15,0.2223905551367336,0.2223474609653155
16,0.22238265711069108,0.22255141911904017
17,0.22238250748647584,0.22234656884272894
18,0.2223799161447419,0.22238148398200672
19,0.22238089608483844,0.22236216049393018
20,0.22237910719712575,0.22241544624169668
21,0.22237729122903613,0.22235892973343532
22,0.2223759334385395,0.22237525895237922
23,0.22237589592072698,0.22233942781885466
24,0.2223742479317718,0.22236114385724068
25,0.2223713095055686,0.22234767373402914
26,0.22236853401528464,0.2223876034915447
27,0.2223693982164065,0.2223694760501385
28,0.22236985822518668,0.22239396153887112
29,0.22236990713410906,0.22233411614100138
30,0.2223682662712203,0.22237217609087626
31,0.2223679447737005,0.22235469339291256
32,0.22236639392707083,0.22234743764003118
33,0.22236861564715704,0.22234420389930407
34,0.22236494105392032,0.22235488186279934
35,0.2223662890460756,0.22242912497123082
36,0.2223647884130478,0.2223812693953514
37,0.22236338858471977,0.22234444046020507
38,0.22236452722880576,0.22244013517101605
39,0.2223661101029979,0.2223579976360003
40,0.22236303784449896,0.2223349972764651
41,0.22236439057853488,0.22237273168563843
42,0.2223612193663915,0.22235242159167926
43,0.22236441023813353,0.2223303347925345
44,0.22236187585857178,0.22238390749692916
45,0.2223665089474784,0.22232861617207528
46,0.22236342261897193,0.2226812774737676
47,0.22236280522743862,0.2223638592461745
48,0.22236174854305055,0.2223343777656555
49,0.22236189016368654,0.22233819287021955
50,0.22236152427395184,0.22234122623006503
51,0.22236210204164186,0.22236150606473287
52,0.22236194363236428,0.22234660122791927
53,0.22235886416170333,0.22235394838452338
54,0.2223609657453166,0.22234405723214148
55,0.22236246195435524,0.22236255643765132
56,0.2223588187860118,0.22240970646341643
57,0.2223603768216239,0.22232452575365702
58,0.22236193108227517,0.22234560653567315
59,0.22235991782612272,0.222386318475008
60,0.22236027015248935,0.22233416098356246
61,0.22235805257492594,0.22232678232590358
62,0.22235684531595973,0.22232854122916856
63,0.22235763043496343,0.22234400353829065
64,0.22235677406854099,0.2223244006931782
65,0.22235589321785504,0.22232663316528004
66,0.2223556052909957,0.22239508562286694
67,0.22235621805654632,0.22234250627954802
68,0.2223567276696364,0.2223226426144441
69,0.22235684180590842,0.22233790264527004
70,0.2223562344180213,0.22238811784982682
71,0.22235752726925745,0.2225410883029302
72,0.2223564648065302,0.22236067031820614
73,0.22235789531469344,0.22234946279724438
74,0.22235629589690104,0.22238151186704636
75,0.22235575446486472,0.22239913314580917
76,0.22235665437579155,0.22235683407386145
77,0.22235672238137988,0.2223269487420718
78,0.22235395488474105,0.2223320044974486
79,0.222358462098572,0.2224199316998323
80,0.2223560563955042,0.2223399116297563
81,0.2223555334839556,0.22236088318626085
82,0.22235482797357772,0.22233644100030264
83,0.22235812084873519,0.22235813176631927
84,0.22235712643464406,0.22232278981804848
85,0.22235412305262353,0.2223420954445998
86,0.22235621808966,0.22233714671929677
87,0.22235621038079262,0.2223275625606378
88,0.22235489748252762,0.2223445601761341
