epoch,loss,val_loss
0,0.5575115588506063,0.5558093732992808
1,0.555904892484347,0.5560822653373082
2,0.5557904153797362,0.5557206464211146
3,0.5557701318793826,0.5557290731668473
4,0.5557520289553536,0.5556948996782303
5,0.5557370635138618,0.5558396491209666
6,0.5557260922855801,0.5556977273225784
7,0.5557194682227241,0.555778235356013
8,0.5557179412576887,0.5558571940263113
9,0.5557048776547114,0.5557336180607478
10,0.5557006559107038,0.5556819399197896
11,0.5556996239821116,0.5557423356771469
12,0.5556966697110071,0.5557090529203415
13,0.5556928815576765,0.5556625646750132
14,0.5556919266515308,0.5557070761919022
15,0.5556898578537836,0.5556604065895081
16,0.5556878136926228,0.5556839968760808
17,0.5556846825414233,0.5557061123053233
18,0.5556840531163746,0.5557688374519348
19,0.5556793971326616,0.5556831429402034
20,0.5556807301176919,0.5556592976252238
21,0.5556761905749639,0.5556566320260365
22,0.5556758733060625,0.555709118882815
23,0.5556777759128146,0.5556583021084468
24,0.5556741293271382,0.5556656408707301
25,0.5556743938790427,0.5556711613337199
26,0.5556706006526947,0.5556960231860478
27,0.555673144446479,0.5557238692045212
28,0.5556703623135885,0.555698808312416
29,0.5556717633273867,0.5556535200277964
30,0.5556697900427713,0.5556874938011169
31,0.555669284582138,0.55569278383255
32,0.5556700171762042,0.5556535786390304
33,0.555668631474177,0.5557123463153839
34,0.5556694660054313,0.5557472136815389
35,0.5556683294508192,0.5556475485165914
36,0.5556691664854686,0.5556438280741374
37,0.5556673296954897,0.5556523209810257
38,0.5556684303018782,0.5556505773862203
39,0.5556679247882631,0.5556612944602967
40,0.5556682525078456,0.5556498560508092
41,0.5556689765055974,0.5556469015280405
42,0.555665976524353,0.5556551197369893
43,0.5556671881278356,0.5556631716092427
44,0.5556681859228346,0.555655856013298
45,0.5556676976680756,0.5556547160943349
46,0.5556677734057108,0.5556455078125
47,0.5556661599609587,0.5556766985654831
48,0.555666981710328,0.5556529614925384
49,0.5556667809089025,0.5556504077514013
50,0.5556666434208553,0.5556607346534729
51,0.5556671028137207,0.5556638043324152
52,0.5556658458842172,0.5556915347178777
53,0.5556656377447976,0.5556661760012309
54,0.5556654733816783,0.5556608585119247
55,0.5556653799878226,0.5556531145572662
56,0.5556672904491424,0.555651359796524
