epoch,loss,val_loss
0,0.33656594571140075,0.33372301822900774
1,0.33380173488458,0.33359497638543445
2,0.3337024944755766,0.3336335568030675
3,0.33367232312758766,0.3335980045994123
4,0.3336391786204444,0.3335371063351631
5,0.33021500579516094,0.22252312314510345
6,0.2225179500579834,0.2224698165555795
7,0.22250899896025658,0.22243648958206177
8,0.22249304440617562,0.2224219287733237
9,0.22248032297028436,0.2224289708038171
10,0.22247215219338734,0.22245837982495625
11,0.22246767623225847,0.22243237175544103
12,0.2224588780204455,0.22248403462767602
13,0.22245519627134006,0.22244532730182012
14,0.22245384103059768,0.22243237042427064
15,0.22244969738523165,0.22241747868061065
16,0.22244653122292624,0.22239319241046906
17,0.22244145718879169,0.2224197179377079
18,0.22244178603423967,0.22244564307729403
19,0.22243381115131908,0.2223983478844166
20,0.2224334961473942,0.22240301757057507
21,0.2224316632416513,0.2224484776854515
22,0.22242907700604864,0.22239630043506622
23,0.22242809862560697,0.22245160971085232
24,0.22242605196436246,0.22237860878308613
25,0.22242790619863403,0.22238420588771501
26,0.22242524537444114,0.2225243782500426
27,0.2224233115547233,0.2223869083126386
28,0.22242412075731488,0.22238724661866824
29,0.22242195555567743,0.22244093445936838
30,0.22242412590649394,0.2223901496430238
31,0.22241896603835953,0.2224015707075596
32,0.2224197624988026,0.22239007903138797
33,0.2224185290402836,0.22244605540235837
34,0.22241966634657648,0.22239942741394042
35,0.22241785469651223,0.2223865985373656
36,0.2224208456410302,0.2225475729505221
37,0.2224171187347836,0.22241007612148922
38,0.2224174323214425,0.22242970500389736
39,0.22241476403342353,0.2223764150341352
40,0.2224171320266194,0.22239001232385636
41,0.22241411750846438,0.22243900934855143
42,0.22241585129499436,0.2224602949023247
43,0.2224176002310382,0.22242703832189242
44,0.22241656482219696,0.22252606965104738
45,0.22241505025161637,0.22240014611681302
46,0.22241371265716023,0.22241883204380672
47,0.22241719348563088,0.22244475910067557
48,0.22241578122311167,0.222386646737655
49,0.22241307609942224,0.22240934854745864
50,0.22241306205259428,0.22251489721735318
51,0.2224133538338873,0.22237907976905505
52,0.22241281104418967,0.22238320850332577
53,0.22241496551699108,0.2223818611005942
54,0.2224129879143503,0.22238578096032144
55,0.2224136933883031,0.22240779728690782
56,0.22241034260723325,0.22241354400912922
57,0.2224113573829333,0.22240785642464955
58,0.22241215957535637,0.22242456803719202
59,0.22241394423445066,0.22239902397990227
