epoch,loss,val_loss
0,0.5353774482740297,0.44488802035649616
1,0.44485437218348184,0.44515816471974057
2,0.4447867249382867,0.444751879076163
3,0.444730304075612,0.4447877975900968
4,0.4446962191197607,0.4449457467397054
5,0.4446836893426047,0.4446366393566132
6,0.4446645647552278,0.44466785933574043
7,0.4446617242892583,0.44458618048826853
8,0.44464863293700746,0.4445893068909645
9,0.4446383328437805,0.44459027642011645
10,0.44463503597842324,0.4446176843047142
11,0.44462561478217444,0.4445776126583417
12,0.4446244934664832,0.44482475833098095
13,0.4446195162402259,0.4446149062514305
14,0.44461733162403105,0.44464393198490143
15,0.44460844232638674,0.44457700566450753
16,0.4446028103960885,0.4445932096838951
17,0.4446016577217314,0.4446030747493108
18,0.4445994093683031,0.4445873559315999
19,0.44459642577833597,0.4446047336061796
20,0.44459855214092464,0.4446091840863228
21,0.44459548040893343,0.4445790058771769
22,0.4445951568616761,0.4446062179803848
23,0.44459405209620795,0.4445883013010025
24,0.44459453146987493,0.4446330197056135
25,0.44459470812479657,0.44456247868140536
26,0.44459663094414603,0.4445899846951167
27,0.4445913214948442,0.4445797468423843
28,0.44458971161974803,0.4445857880314191
29,0.444587688697709,0.4448273509343465
30,0.44458709588978024,0.44455777875582375
31,0.4445893771184815,0.44456300950050354
32,0.44458667043182587,0.44456292887528737
33,0.4445850920147366,0.44455920753876366
34,0.44458719082011117,0.444561582227548
35,0.44458832480510074,0.4445787229736646
36,0.4445829211937057,0.4446157040397326
37,0.44458644516600504,0.4445764214992523
38,0.44458347051011193,0.4446036613384883
39,0.4445859863493178,0.4445635802348455
40,0.4445855917400784,0.4445833311676979
41,0.4445823284188906,0.44455350283781686
42,0.4445846314628919,0.44458181007703146
43,0.44458432606193754,0.44456253631909687
44,0.4445830323298772,0.44457192355394365
45,0.4445830781724718,0.44457309061288836
46,0.4445834323035346,0.4445702858964602
47,0.4445846071044604,0.44462122962872186
48,0.4445838551455074,0.444651669661204
49,0.4445822871062491,0.4445555780529976
50,0.4445823683010207,0.444602729678154
51,0.44458275555902055,0.4445562128225962
52,0.44458130748404395,0.4445728771686554
53,0.44457950348324243,0.44455679484208427
54,0.44458160050710044,0.44457115268707276
55,0.4445835908253988,0.44477622224887214
56,0.4445829426182641,0.4445834340453148
57,0.44458188133769566,0.4445787900884946
58,0.44458101818958917,0.4445873224933942
59,0.4445819478233655,0.4445645038882891
60,0.44458199968602924,0.4446416527231534
61,0.4445812116463979,0.4445560728708903
