epoch,loss,val_loss
0,0.2267589166594876,0.22312653676668803
1,0.22290421955784162,0.22272431898117065
2,0.22274131757683224,0.2231398573219776
3,0.22264653936359619,0.22276245818535487
4,0.22258652101622686,0.2225177765885989
5,0.2225378362668885,0.2224463802278042
6,0.22250100206335385,0.2225113758345445
7,0.22248476054271063,0.22242396689454713
8,0.2224727468987306,0.22240062833825747
9,0.2224597290654977,0.22242030807336172
10,0.22245874844325914,0.22251588055491447
11,0.22244506913092402,0.22241137558221816
12,0.22244501303301917,0.2225399166047573
13,0.22244500875473022,0.22245455636580785
14,0.22244647858871355,0.22252817598978678
15,0.22243797139989005,0.22245667271812758
16,0.22243034987979465,0.22239714567859967
17,0.2224317055212127,0.22240006277958552
18,0.2224303985801008,0.22246797419587772
19,0.22242461795277066,0.22245016415913899
20,0.22242345003286998,0.22237575852870942
21,0.22242218502362568,0.2223931060830752
22,0.22241935398181278,0.22242191714048384
23,0.22242064962122177,0.22268712596098583
24,0.222417128354311,0.2224399304886659
25,0.2224169841574298,0.2224403644800186
26,0.22241483281387223,0.2224019758005937
27,0.22241447280512916,0.22240440738201142
28,0.22241081432501475,0.2224087885916233
29,0.22241428303718566,0.22246288592616717
30,0.22240953561994764,0.22237762903173763
31,0.22241003282202615,0.22242100298404693
32,0.22241001131799487,0.22237662403782207
33,0.22240955920351876,0.22239892976482709
34,0.22241157901618216,0.2223688397705555
35,0.2224052621093061,0.22239198591311773
36,0.22240566116902563,0.22240959296623866
37,0.2224016373289956,0.22239843865235648
38,0.2224038770861096,0.2223936384121577
39,0.22240082814296086,0.22248612255851427
40,0.22240356020463836,0.22236492615938186
41,0.22240144283241695,0.22240729836622875
42,0.22240454355875652,0.22237948209047317
43,0.22240170117881564,0.22245033252239227
44,0.22239868977997038,0.2224017583926519
45,0.22239839992920557,0.22238116381565728
46,0.2224012825820181,0.22237870120008787
47,0.22239731123712328,0.22239043013254803
48,0.22239831410513983,0.22239906006058058
49,0.2223984130885866,0.22238453896840413
50,0.2224016156527731,0.2223978517949581
51,0.22239754038055737,0.22240113653739293
52,0.2224000002907382,0.22245248840252557
53,0.22239899788300196,0.2224108794927597
54,0.22239718658725421,0.2224316051999728
55,0.22239510482549668,0.2224193285803
56,0.22239701943265067,0.22238359763224919
57,0.22239857611722416,0.22237376674016315
58,0.22239598314960798,0.22242650946974754
59,0.2223938591712051,0.22242212132612865
60,0.2223973804546727,0.2223744405110677
