epoch,loss,val_loss
0,0.6679734058645036,0.667060220360756
1,0.6561397818856769,0.5557655774752299
2,0.5557859342628055,0.5557391942342123
3,0.5557748259438409,0.5557251719633738
4,0.5557566918399599,0.5557076622645061
5,0.555742749677764,0.5557723857164383
6,0.5557365722921159,0.5557917244434357
7,0.5557281280358632,0.5556796758174897
8,0.5557190563413832,0.5556805872917175
9,0.5557154586977429,0.5557076391379039
10,0.5557107974555757,0.5556894855101904
11,0.5557078816625807,0.5556662877798081
12,0.5557043487495846,0.5556518596808115
13,0.5557008681297302,0.5556865737835566
14,0.5556944276226892,0.555684186021487
15,0.5556958725849788,0.5556649959484736
16,0.5556940842734442,0.5558159052928289
17,0.5556885757446289,0.5557977598905564
18,0.5556885048680835,0.555674069126447
19,0.5556873883008957,0.5556643653710683
20,0.5556868904564116,0.5556729310750961
21,0.5556830064323214,0.5556578389008839
22,0.5556835106743706,0.5558401978413264
23,0.5556852549579409,0.5556812136570612
24,0.555684128165245,0.5556627478202184
25,0.5556833904716704,0.5556787829796473
26,0.5556836130751504,0.55567052090168
27,0.5556819714837604,0.5556687906980514
28,0.5556803747812907,0.5556576628684997
29,0.5556848097112443,0.5556587786277135
30,0.5556790433989631,0.555695562283198
31,0.5556818775600857,0.5556550377607345
32,0.5556805158985986,0.555669048666954
