epoch,loss,val_loss
0,0.779958806183603,0.7791607343355814
1,0.7788572000794941,0.7789155326684316
2,0.7787131363153458,0.7786338557402293
3,0.7786452980703777,0.7786671886046728
4,0.7786112000279957,0.7785929434299469
5,0.7785917627149158,0.7785357553561528
6,0.7785768117242389,0.7786691048542659
7,0.7785596067508062,0.7786100624799729
8,0.7785508408149083,0.7785336003303528
9,0.7785467305580775,0.7784988801081976
10,0.7785417458613714,0.7784952761332194
11,0.7785375625027551,0.778570416490237
12,0.778534121023284,0.7784691982269287
13,0.7785297573407491,0.7785284782250722
14,0.7785292807420094,0.7787498904466629
15,0.7785214831431707,0.7784940208991369
16,0.7785261793533961,0.7785373162428538
17,0.7785219609340032,0.7784876684745152
18,0.7785207169983122,0.7784904795487722
19,0.778516568713718,0.7785056861639023
20,0.778515094558398,0.7785127607186635
21,0.7785131923490101,0.7786062994798024
22,0.7785147562689252,0.7786528532107672
23,0.7785128813319736,0.7784692551692327
24,0.7785120539930132,0.7785534284512202
25,0.778511450873481,0.7784778074423472
26,0.778505062394672,0.778454806248347
27,0.77850379216671,0.7784719627300898
28,0.778505206823349,0.77856615960598
29,0.7785061302582423,0.7784849732716879
30,0.7785042628579669,0.7784638892014821
31,0.77850341741244,0.778487668911616
32,0.7785053131447898,0.7785922083457311
33,0.7785029877291786,0.7785234651565551
34,0.7785011658006245,0.7784673664967219
35,0.7785012271536721,0.7784914832512537
36,0.7785012524922689,0.7786260792414348
37,0.7785021066533194,0.7785300610462824
38,0.7785033262438245,0.7784510280688604
39,0.7784966047737334,0.7784515361388524
40,0.7785010480350918,0.7784612703323365
41,0.7784990238216188,0.7784484395583471
42,0.778497298028734,0.7784734863440196
43,0.7784961786932415,0.7785620270967484
44,0.7784977231820425,0.7785710163116455
45,0.778500135368771,0.778455377737681
46,0.778500683148702,0.7784538635015488
47,0.7784977634218004,0.7784708283344904
48,0.7784966494904624,0.7784506889979045
49,0.7784973091946708,0.7784647657871246
50,0.7784949187305239,0.7785716402133306
51,0.7784958846039243,0.7785109082063039
52,0.7784981847339206,0.7784777766863505
53,0.7784992054435942,0.77845914097627
54,0.7784943169355393,0.7785211472113928
55,0.7784986228810417,0.7785270202557246
56,0.7784960874451531,0.7784767591555913
57,0.7785002091858122,0.7785176063378652
58,0.7784985658592648,0.7784522337118784
59,0.778494493259324,0.7786352985699971
60,0.7784950340986252,0.7784618753989537
61,0.7784957894881567,0.7784486078421274
