epoch,loss,val_loss
0,0.7812383934435213,0.7794053114969145
1,0.7792466943038497,0.7790145265848998
2,0.7790652657078642,0.778839753194719
3,0.7164640930389294,0.6684455555662624
4,0.6681627137081254,0.6681230618699313
5,0.6680873403820741,0.6678883129550565
6,0.6680458983850461,0.6678785302798742
7,0.6680434316152571,0.6682063231101403
8,0.667978149665339,0.6679451074848696
9,0.6679864649948647,0.6678480150681867
10,0.6679464905992227,0.667819919479692
11,0.6679420309883936,0.6678540806616506
12,0.6679230595448765,0.668370560055631
13,0.6679199773037463,0.6682646602022441
14,0.6679092952167989,0.6681577540804672
15,0.6678812429838392,0.6678948515993786
16,0.6678988577099674,0.6678885589758161
17,0.6678620482025599,0.6677939278316262
18,0.6678590973320829,0.6677535094930871
19,0.6678502748499439,0.6677575027380629
20,0.667839539602289,0.6680312239206754
21,0.6678424246056144,0.6678492076639502
22,0.6678364464059132,0.6677490104812547
23,0.6678193523292483,0.6677770368810327
24,0.6678205622693809,0.6678172718502452
25,0.6678226218168859,0.667979848621501
26,0.667825137732247,0.6677422811908107
27,0.6678068688995519,0.6684540671982777
28,0.6678097968869126,0.667803284695959
29,0.6678088354970679,0.6679194099849862
30,0.6678151042529455,0.6677603815684543
31,0.6678022303193891,0.6677572796125861
32,0.6677961736652055,0.6677520012441404
33,0.6678072591667634,0.6677520759939851
34,0.6677977161713473,0.6677659967105383
35,0.6677860039095284,0.6677488821907611
36,0.6677907126267695,0.6679536489931585
37,0.6678067268655195,0.6683484466732583
38,0.6677809645912491,0.6678807922095874
39,0.6677910099179608,0.6679355334111537
40,0.6677887202274729,0.6677394410516725
41,0.6677888979512467,0.6678585270202485
42,0.6677828416599241,0.667716864675801
43,0.6677711834281013,0.667716175805842
44,0.6677885035560975,0.6677172809617395
45,0.6677756480905861,0.6677830326054291
46,0.6677767644536114,0.667776172835537
47,0.6677898296890408,0.6677586580032746
48,0.6677742895036745,0.6678461808424729
49,0.6677720535663041,0.6677434231152309
50,0.6677742465630246,0.6679106349388956
51,0.6677701815753161,0.6677233349892401
52,0.6677636383671889,0.6677646232006271
53,0.6677663173238653,0.6685685182623473
54,0.6677696234951678,0.6679852271494143
55,0.6677678392794557,0.6677160379904375
56,0.6677607375620578,0.6677395605271862
57,0.6677683634557696,0.6677572352418829
58,0.6677605848630686,0.6677356904848634
59,0.6677617500277371,0.667711621744757
60,0.6677618930951345,0.6677326270131851
61,0.6677502465655775,0.6679438782389051
62,0.6677532738127635,0.6677293556499718
63,0.6677459013411424,0.6678267908155474
64,0.6677556686264363,0.6682026874634528
65,0.6677569862526568,0.6677807951979247
66,0.6677510145347567,0.6678233669945974
67,0.6677442235265171,0.667769158063988
68,0.6677510192369613,0.6678491249273788
69,0.6677505624431379,0.6677297785027743
70,0.6677624844409552,0.6677323705801005
71,0.6677433232629667,0.6679033253092328
72,0.6677479655608766,0.6677284397499141
73,0.6677400072265792,0.6677200199356742
74,0.6677442725135347,0.6677013535653391
75,0.6677480377197215,0.6677006289621736
76,0.6677436180243862,0.6676881286405748
77,0.6677443548490519,0.6677670247501534
78,0.6677515187442521,0.6676852365285528
79,0.6677521889389695,0.6678835439327041
80,0.6677444839076498,0.66779362903931
81,0.6677399834662862,0.6679662948802446
82,0.6677507702370413,0.6676911320639012
83,0.6677382112628495,0.6676776659104132
84,0.6677424041306467,0.6679910229690021
85,0.6677404233594663,0.667752691977669
86,0.6677398944990907,0.6676856635817818
87,0.6677473888912038,0.6678164760764715
88,0.667726208449587,0.6679587685144864
89,0.6677358273989004,0.6677024643711061
90,0.6677441531827657,0.6677455088340911
91,0.6677407931881401,0.6676804376299269
92,0.6677435429618647,0.6677190391360678
93,0.6677395243517302,0.6677007986949041
94,0.6677397265907057,0.6677162740129987
95,0.6677278525788832,0.6677621338858498
96,0.667742333003589,0.6676899907902512
97,0.6677369024005099,0.6677567187077355
98,0.6677442320868803,0.6677059511392939
99,0.6677305826855442,0.6677175199423475
100,0.6677268158914463,0.6677373077378379
101,0.6677432133752595,0.6677573958934093
102,0.6677321542418607,0.6677245230887723
103,0.667731541031301,0.6677150539665601
