epoch,loss,val_loss
0,0.45214223256978664,0.44815683418113006
1,0.4482489487678402,0.4475091215102903
2,0.44745997493417033,0.44687646605240794
3,0.44713992405736985,0.4469436668876383
4,0.44704066528591935,0.4467847481259046
5,0.4468756083916874,0.4467107271586103
6,0.4467482739665746,0.4468032536968108
7,0.4466981918242485,0.44651692613182825
8,0.446634540859383,0.44636090181897353
9,0.44659193822240484,0.44655759151165303
10,0.4465409858846858,0.44659523171171656
11,0.4465367771291005,0.4465091187072451
12,0.4465078424514298,0.44633642511983074
13,0.44646253779638395,0.44653270562588426
14,0.44646787670292215,0.4466102178723877
15,0.44645391948624374,0.4463423535782409
16,0.44644787739580005,0.4480452356060445
17,0.4464350900952966,0.44637671291976055
18,0.44639559796395056,0.4467588130800659
19,0.4463861000200885,0.4462298225824058
20,0.4463742273567678,0.44623487006050183
21,0.4463490699125468,0.44630545175105113
22,0.44636373952348835,0.44669960326059877
23,0.4463456572549642,0.44632700656543
24,0.4463282545260102,0.446389921575267
25,0.446330168074438,0.44632774805904324
26,0.44630512649724163,0.4462611539931806
27,0.44632929915181935,0.4463278791301008
28,0.44630046159861614,0.4462126456626296
29,0.44631800009199635,0.44644589477378144
30,0.44629395929201804,0.44656306070370355
31,0.4463033842799243,0.44631335384792487
32,0.4463063563422698,0.4461738495613742
33,0.44628711307054003,0.44643681603980717
34,0.4462743999680024,0.4462345064721687
35,0.4462905828519029,0.44644168538431966
36,0.44628039179155465,0.4462006752603403
37,0.44630019903795115,0.44616485948006507
38,0.4462717804901527,0.4462093542586485
39,0.446288173148704,0.4462431076294731
40,0.4462514207390454,0.44671477861794884
41,0.4462686424268087,0.4462391393947838
42,0.4462597105491912,0.44630144040282843
43,0.44624811194804453,0.44620417770617654
44,0.44627262544777735,0.4465678662431447
45,0.446277730601655,0.446151867427542
46,0.44625575357098995,0.4466345763383965
47,0.44625089088395753,0.4466299485775732
48,0.4462661897932148,0.4463726521869451
49,0.44623215886950846,0.4468752430035518
50,0.44622831962114956,0.4470973880060257
51,0.44626970190428006,0.4461712080846649
52,0.4462275842222907,0.4461974468923384
53,0.4462407097675772,0.44618495056410284
54,0.4462278129741751,0.44617217354679817
55,0.4462203005514223,0.44621989802450457
56,0.44624071795640236,0.44641333002014727
57,0.44625904875983236,0.44614247540682184
58,0.44621651002897894,0.446285698298485
59,0.4462128394589013,0.446170618338857
60,0.44621934896197873,0.4462856272609891
61,0.4462231395601496,0.44618841847474167
62,0.44622192334212796,0.4461914414063873
63,0.4462333309719207,0.44612522286457695
64,0.44622331585732766,0.44622088899979223
65,0.4462194555456791,0.4462253660037559
66,0.4462217485105926,0.44613093276769294
67,0.44622973565131674,0.4463285602795575
68,0.4462090065681029,0.4461095954141309
69,0.4462211383362325,0.4461287636023301
70,0.446196622592678,0.4461933420106732
71,0.44621406643969436,0.4462786931701689
72,0.4462226622982074,0.44636580430840145
73,0.44621452868077066,0.44612460970582796
74,0.44620551662941965,0.4463252841390984
75,0.4462134536858661,0.44699924449175227
76,0.446195792840505,0.44692723771774445
77,0.44620152291982945,0.44618008678071847
78,0.4462131634566589,0.44616700364993167
79,0.4462133615018294,0.4461957232088368
80,0.446196014040543,0.44660630560394554
81,0.4461947976091433,0.44615039701201487
82,0.44620929832369266,0.4461604174402157
83,0.4461969795666081,0.4463422719065664
84,0.44618985557112517,0.4463008855176031
85,0.44617864407990526,0.4461764856840186
86,0.4461977313273407,0.4462707688879434
87,0.4461785378606435,0.44617742801422516
88,0.4461977211033389,0.44612541961906566
