epoch,loss,val_loss
0,0.4532210467826809,0.44833798315329826
1,0.44796666036597366,0.44785847866505607
2,0.4475740312668568,0.44784852465979813
3,0.4473420267477524,0.4470610468766234
4,0.4471982014802246,0.44683134248179773
5,0.4470068841864585,0.4472243599797005
6,0.4468095164931273,0.44724857268794893
7,0.44672377765067456,0.44651925837431594
8,0.44662464613140557,0.4464904850529086
9,0.4466014739148498,0.4464784317809358
10,0.44660403256537107,0.44675236314756994
11,0.44652451943007665,0.44638124624493697
12,0.4465182822407356,0.44644204563005985
13,0.44649175607473884,0.4466774213698603
14,0.4464861667712659,0.44626092887102226
15,0.44645594814797085,0.4466564189855277
16,0.4464306373559495,0.4465056050208307
17,0.44642560954627875,0.44667231470124596
18,0.44640319992224947,0.44659207531299544
19,0.4463825435390168,0.4465418184365587
20,0.44636309787527895,0.4464102375596096
21,0.44638685969789493,0.4462160321382376
22,0.44633229968652294,0.44645778529401453
23,0.44633846573066316,0.44628408693202376
24,0.4463290601420135,0.4464598690605637
25,0.44632154310067185,0.4463423838982215
26,0.44631332707672344,0.446457763936916
27,0.44630757881806515,0.4468765767573127
28,0.44628376505703093,0.44624812962399524
29,0.44631825079026344,0.44650071917041656
30,0.44629400766059446,0.447219061378214
31,0.4463063303898232,0.44772282792971685
32,0.446299058095829,0.44697495564337697
33,0.44627984650264946,0.4462435342833659
34,0.44629916868401553,0.44651473308023687
35,0.4462776017710284,0.4461259364933885
36,0.446286456485475,0.44647066914118255
37,0.4462599439579227,0.44656060780248336
38,0.44624909294618526,0.44628593204335004
39,0.4462572097276626,0.4461608551572038
40,0.446249706693937,0.4461901621842207
41,0.4462542409432925,0.446123509504659
42,0.44624988165247365,0.4461557999438151
43,0.4462384164445357,0.4461227158754694
44,0.44624372032789233,0.44617946264761554
45,0.4462505932212281,0.4463633547054035
46,0.44623623589828454,0.4462681766183441
47,0.44623064303009713,0.4464280345303841
48,0.44622415423099804,0.4461258603976323
49,0.4462183561941274,0.44611353961468925
50,0.44624285754156795,0.4462672241716172
51,0.44623216847585784,0.4461608984630102
52,0.44619505181887903,0.4465134638858492
53,0.44622758339717644,0.44618908033773264
54,0.44622692520960694,0.44610322003920677
55,0.4462358620300217,0.44672361977638736
56,0.44620931356385274,0.4462027797923786
57,0.4462039869973479,0.4461272661354642
58,0.44620514310390264,0.44613123368980273
59,0.44620181552893123,0.4462943191563817
60,0.44620778978804126,0.44615025836835726
61,0.4462096589092725,0.4462627148509913
62,0.44618763177894766,0.44634019492873483
63,0.44619385136637707,0.4460956930522587
64,0.44619852645547914,0.4462932250339991
65,0.4461967356069056,0.4461287710270278
66,0.4461934922626109,0.4462914894887295
67,0.44619709257176415,0.44609863945923134
68,0.4461964851870948,0.446980024567313
69,0.44618946414788596,0.446242177190615
70,0.44620447329728874,0.44641867291838594
71,0.44619855100815015,0.4461867586702626
72,0.4461833149677086,0.4460998733937001
73,0.4461929526181656,0.446330131283469
74,0.4461988459486335,0.4461880969202548
75,0.4461915529549995,0.44620459764530285
76,0.44619989632854967,0.4465711279927057
77,0.4462049810367902,0.4463464413476049
78,0.4461805097815664,0.446126250519646
79,0.4461872658486626,0.4462112467726762
80,0.44618907743316205,0.4461264651407379
81,0.4461751136636881,0.44621150254020026
82,0.44618497093061055,0.44629426545304046
83,0.4461998246457625,0.4462040224235052
