epoch,loss,val_loss
0,0.7814345324723058,0.7800387330445699
1,0.7793845046718406,0.7790113254752999
2,0.7790977798881621,0.7790170618381453
3,0.7789706104429098,0.7787518700654098
4,0.7788298466415393,0.779061413994498
5,0.7787695019954872,0.7787884788536849
6,0.7787177718775387,0.7788123390810662
7,0.778675783099537,0.7785928327155764
8,0.7185982337038815,0.557301231560577
9,0.5573121324717762,0.5574808653175979
10,0.5572441084076549,0.5575712532026892
11,0.5572309378415787,0.5570904854509434
12,0.5571888902217291,0.5575498916966743
13,0.5571801267194829,0.5570373006553271
14,0.5571753326115932,0.5570845189224698
15,0.5571349620940571,0.5572005308295598
16,0.5571341905554305,0.5571026432602932
17,0.5571238331966956,0.5571143138201597
18,0.5571053575537658,0.5569723290486016
19,0.5571281511071666,0.5571898387324425
20,0.5570961701920607,0.557014435219114
21,0.55710446209339,0.5571443515734992
22,0.5570951264367235,0.5571400168811713
23,0.5570842277320409,0.55732622244222
24,0.5570911198388644,0.5569918310376019
25,0.5570760596830437,0.556962614733883
26,0.5570862864907178,0.5569945092828339
27,0.5570756857698177,0.557122329062327
28,0.5570635343334411,0.5572259584668257
29,0.5570709450742717,0.5570401896909803
30,0.557060789088379,0.5570296384560559
31,0.5570567393715948,0.5571473801698046
32,0.5570569180175087,0.5572779481523386
33,0.5570495386018333,0.557012656308877
34,0.5570409521765218,0.5569615534754012
35,0.5570397623507184,0.5570343688167354
36,0.557048325919734,0.5569516954291843
37,0.5570346312380836,0.5570107934492693
38,0.5570384220165017,0.556924945929506
39,0.5570307725178959,0.5570558466923148
40,0.5570188201864805,0.5573716075485456
41,0.5570332275893632,0.5569488880060447
42,0.5570237991688712,0.5569426581818177
43,0.5570287315378283,0.5571235811444133
44,0.5570165331559213,0.5569250874720495
45,0.5570161363903433,0.5570153581889037
46,0.5570185448625758,0.5569985869208873
47,0.5570159438918181,0.5572148556153177
48,0.5570115122331147,0.557029996113505
49,0.5570156496328822,0.557033919223189
50,0.5570216494638291,0.5576165488280966
51,0.5570114195024202,0.5570178358193958
52,0.5570027119833086,0.5570095535247557
53,0.5570014733179984,0.5569572541021531
54,0.5570075198609827,0.5574609095937857
55,0.5569988470581986,0.5569268504384138
56,0.5570067078057751,0.5570340867669648
57,0.5569936621979681,0.5569037101404839
58,0.5569915773535328,0.5570053624751846
59,0.5569864022400631,0.5569177856220501
60,0.5569931448110982,0.5572469567542632
61,0.5569838496331488,0.5569266063699652
62,0.5569860953701313,0.5569641121859586
63,0.5569820045120144,0.5570069227857566
64,0.5569846023487579,0.5570476726621907
65,0.556988508331585,0.5575257138637988
66,0.5569884393469845,0.5569535182664176
67,0.5569944145538716,0.5568938381618661
68,0.5569752853115912,0.5569215504762257
69,0.5569779376816032,0.5569754514741543
70,0.556978355586987,0.5568742416928483
71,0.5569732682290728,0.5570528922542449
72,0.5569753198038915,0.556887996965839
73,0.556982362016037,0.5569889200828212
74,0.5569685569694385,0.557111107859363
75,0.5569631007791404,0.5569454638301291
76,0.5569791288334267,0.5569063751632464
77,0.5569769137976363,0.556990147465216
78,0.5569615690460248,0.5571628371184281
79,0.5569788095615387,0.5568912813148783
80,0.5569723979244272,0.5570959658539917
81,0.5569619382247042,0.5568591988412086
82,0.5569652695541032,0.5571064182901501
83,0.5569688888113034,0.5569272322335255
84,0.5569760092933457,0.5569032745680798
85,0.5569571757677557,0.5568634758812027
86,0.5569799820599426,0.5569243979217396
87,0.5569610197747206,0.5570639742811028
88,0.5569640396400527,0.5573256789306849
89,0.5569598037077595,0.5570679272374799
90,0.5569559400786942,0.5568643971649057
91,0.5569455110415107,0.5569912228335814
92,0.5569430803251129,0.5569246927502729
93,0.5569498014621092,0.5573391108891509
94,0.5569558303369202,0.5568823089078994
95,0.5569489364575999,0.5569890528991264
96,0.5569522679581748,0.5570077621907218
97,0.5569427490409495,0.5568979325128844
98,0.5569608248821017,0.5569160661093946
99,0.5569402461444083,0.5568970307818714
100,0.5569503247801779,0.5574380202861341
101,0.5569368894281524,0.5569200542961101
