epoch,loss,val_loss
0,0.672319267980017,0.6688054713954404
1,0.6686186817562556,0.6691570070186265
2,0.6682516725041457,0.6681606287695929
3,0.6681470114785226,0.6679652429987716
4,0.66808238888009,0.667978044094578
5,0.6680686107782838,0.6679570943782702
6,0.6680191092403054,0.6678594596332711
7,0.668000770976533,0.6678661327208242
8,0.6679657114962361,0.6678511988732123
9,0.6679282072986302,0.6678686606972745
10,0.6679398553048735,0.6678888196980687
11,0.667917338866806,0.6678759326118393
12,0.6678823884412137,0.6678859306624154
13,0.6679077727208611,0.6678482274263727
14,0.6678847767841292,0.6677932258279389
15,0.6678685987728202,0.6677649126455151
16,0.6678651874799104,0.6677827103262208
17,0.6678685653880349,0.6678002571645505
18,0.6678593306138131,0.6679809566171234
19,0.6678506745507514,0.6678380658253843
20,0.6678470354229699,0.6678193994254688
21,0.6678409922332942,0.6677713834322416
22,0.6678396985109335,0.6677687998445099
23,0.6678339163066329,0.6677703599480187
24,0.6678474238514229,0.6677823573424857
25,0.6678261038684707,0.6678321886890876
26,0.667831445061033,0.6677668537454629
27,0.6678325472851024,0.6678415147009913
28,0.6678268366709017,0.6678891832124506
29,0.6678147541875725,0.6677697513002911
30,0.6678086113065824,0.6677514152846324
31,0.6678224703855435,0.6677473285062141
32,0.6678185486782159,0.6677891161542376
33,0.6678219767763209,0.6677233953629771
34,0.6678053035710336,0.6677989229375021
35,0.6678026527920881,0.6677389109105094
36,0.6678166812853071,0.6678158711854637
37,0.6678047878044168,0.667795408452415
38,0.6678091166417356,0.6677259094366069
39,0.6678029250750602,0.6679264761082292
40,0.6677965429866628,0.6677807733083777
41,0.6677937679862136,0.6681233847703295
42,0.6678073203388097,0.6678062430682312
43,0.6678050904604285,0.6677717662330892
44,0.6678044870479034,0.6677196586694079
45,0.6677943728288841,0.667793491756354
46,0.6678022077549596,0.6677793612255352
47,0.6678061708292249,0.6677526353606515
48,0.6677855757533225,0.667771465281399
49,0.6677898742286453,0.6677183392917548
50,0.6677909371241091,0.6677326672426228
51,0.6677806703843758,0.6677290038494555
52,0.6677922817093208,0.6679644998782326
53,0.6677887459945449,0.6680045981265179
54,0.6678016974486113,0.6677717499638314
55,0.6677809208649265,0.6679356979673021
56,0.6677761351974981,0.6677740069240258
57,0.6677816662815085,0.6677145695863823
58,0.6677773074860738,0.6677098430711638
59,0.6677899614241327,0.6677348066500339
60,0.6677750843269309,0.6678146190442164
61,0.6677781573797906,0.6677308385484567
62,0.6677839060210305,0.6678364407631658
63,0.6677754526844402,0.6679721111399364
64,0.6677767241752567,0.6677176343004402
65,0.6677753449107925,0.6677230069122598
66,0.6677763039309973,0.6677162530404462
67,0.6677780844250181,0.6678547144823571
68,0.6677684010647299,0.6680742406963415
69,0.6677769077190047,0.6677081881326719
70,0.6677856106976213,0.667720863363583
71,0.6677699569841058,0.667745965970657
72,0.6677758264438447,0.6677065593433144
73,0.6677652087520956,0.667789968752092
74,0.6677701272124345,0.6677627315888038
75,0.6677755096133798,0.667710636803885
76,0.6677634621642757,0.6679745644552831
77,0.6677616016231285,0.6678256650420631
78,0.667764131376902,0.6678241354655983
79,0.667760923487278,0.6677306196825676
80,0.6677623258257548,0.6678395563556302
81,0.6677647749044946,0.6677492528044556
82,0.6677618245025816,0.6678053587009534
83,0.6677760505096955,0.6677429513067524
84,0.6677667241335922,0.6682835854904232
85,0.6677649392891841,0.6677799517404353
86,0.6677597170495423,0.6677179476759274
87,0.6677595354100255,0.6678038754475027
88,0.6677746739800985,0.6677319641444582
89,0.6677563670722455,0.6683526720361733
90,0.6677635330294426,0.6677453003509465
91,0.6677599355383779,0.6678410603745699
92,0.6677648573236274,0.6677526217240554
