epoch,loss,val_loss
0,0.890987517822319,0.889781770339379
1,0.8897373262220482,0.8897387777901169
2,0.8896192624695436,0.8900698947551529
3,0.8895357991372091,0.8894749708270316
4,0.8894500146590752,0.8894738337242278
5,0.8894111571328863,0.8897391359208535
6,0.889396052902081,0.8893272238688789
7,0.8893761158902965,0.8894214549963882
8,0.8893679130153247,0.8894118969848671
9,0.8893531407257766,0.8893876053855082
10,0.8893437503772871,0.8895899254985837
11,0.8893348841909124,0.8893026449544258
12,0.8893337183525847,0.8892983602235098
13,0.8893321918281014,0.8894066642886652
14,0.8893269156602224,0.8893090900357249
15,0.889322163581886,0.8893333553676274
16,0.8893154451908005,0.8895344414131221
17,0.889309305438303,0.8892913596801663
18,0.8893088926926441,0.8892663523813631
19,0.8893026459521717,0.8894996148776771
20,0.889300185268192,0.8892619327339286
21,0.8892980144059898,0.8893235986049358
22,0.8893000196813283,0.8893749201859789
23,0.8892977476440259,0.8892652754156525
24,0.8892936785749205,0.8893323447804888
25,0.8892919176272728,0.8892708192983869
26,0.8892918644326456,0.8893478151290647
27,0.8892859904537102,0.8892617491575388
28,0.8892890768172564,0.8892454161241687
29,0.8892844757293075,0.8893233651262951
30,0.8892834034010365,0.8892904441350743
31,0.889278628283396,0.889289160579369
32,0.889283177516148,0.8892622547173322
33,0.8892771919353818,0.8892874350322979
34,0.8892765703719206,0.8892514789074881
35,0.8892834836682462,0.8893476974283792
36,0.8892782927040633,0.8892465073772459
37,0.8892758714678024,0.8893261148971009
38,0.8892772715107892,0.88934660667817
39,0.889276145860101,0.8892711652715508
40,0.8892766245620489,0.8892749737273374
41,0.8892701162784998,0.8892498708244588
42,0.8892754031389447,0.8892519773383886
43,0.8892717594667241,0.8892816106379772
44,0.8892720330465298,0.889278312415698
45,0.8892750121176135,0.8892547133246959
46,0.8892705596685552,0.8892537673117209
47,0.889274784493359,0.8892582767950394
48,0.8892707575681869,0.8893077464612483
