epoch,loss,val_loss
0,0.5626957140089595,0.5602205344524336
1,0.5585951276434223,0.5586416169964055
2,0.5541408260095394,0.34685862596810013
3,0.3366343347763375,0.3361646644974465
4,0.3362704694300274,0.3369182692568
5,0.33620359191423,0.33805410317688367
6,0.3361338918328284,0.3366970674127858
7,0.33604177308821553,0.33584794646161364
8,0.3359763848456746,0.33583976719574654
9,0.3359561598749304,0.33576074822369045
10,0.3359340825199164,0.33717401083882337
11,0.3358956565584599,0.33564656604608295
12,0.33589173558592567,0.3360682042153834
13,0.3358661728023535,0.33564191012465333
14,0.3358192023887375,0.335782719146525
15,0.3358464350347583,0.33560480889552285
16,0.33579640355965384,0.3356289362049576
17,0.33578411517955303,0.3371924339098019
18,0.3357454865953561,0.3361066640606589
19,0.33573535520828074,0.3355833465792701
20,0.33573127635139544,0.3355449694114051
21,0.3357276528471445,0.3356346430760755
22,0.3356802447873255,0.3356546951878455
23,0.3357025138094399,0.33566147775271393
24,0.33568506427181716,0.33600000322012985
25,0.33567569858406804,0.335618086236878
26,0.33569036234821525,0.335718871242651
27,0.3356550208598782,0.3355126957591651
28,0.3356418683784764,0.3356696080037441
29,0.335636198520266,0.33566164646491814
30,0.3356306014239596,0.33549350248672827
31,0.335616553678206,0.3358584889111389
32,0.33560743702114126,0.3355195343050708
33,0.3355893223984356,0.3354982326403445
34,0.335615691053197,0.3355478187204886
35,0.33560631131720714,0.33588479198238097
36,0.3355887292722297,0.33561988498081935
37,0.3355918188139646,0.33554298144120437
38,0.3355739909078143,0.33544778934779296
39,0.3355767135671486,0.33544297102958925
40,0.33557926348415884,0.3356807969492068
41,0.3355669655612093,0.3358708188344468
42,0.33557157930551174,0.3354957107278904
43,0.3355464731702242,0.33544264301176996
44,0.33554818260857605,0.3357915092047036
45,0.3355652556712533,0.3357940392074159
46,0.33553815558977723,0.3354803995666078
47,0.335527666848951,0.33542838222335647
48,0.3355398985687082,0.3354119040090452
49,0.335546968740868,0.33548354997528396
50,0.3355374810541385,0.33548730236129193
51,0.33553860127413926,0.33550288461278155
52,0.3355315890295756,0.3355057965289274
53,0.3355218196933284,0.33550041205533976
54,0.3355275408825594,0.33565387611945274
55,0.3355481752543311,0.33540467140692337
56,0.33552311510614774,0.3359141951311315
57,0.3355189371511469,0.3356103293061552
58,0.3355051334952524,0.335374889480269
59,0.33552870676151186,0.33541224659524543
60,0.3355309203107557,0.33536431228848307
61,0.3355247401375198,0.3355034168837384
62,0.3355106040674657,0.33537031520093347
63,0.3355124995813096,0.33538489869747207
64,0.3355040390644108,0.3354226933815343
65,0.33549417553971456,0.3358045774417243
66,0.3355033976563996,0.33549427833805606
67,0.3355060226635403,0.33539541195107453
68,0.3355274514850582,0.33544698935880257
69,0.3354955461787372,0.3354001177155942
70,0.33547029273334006,0.3355842112163752
71,0.33549847778524156,0.33562902191436617
72,0.335493325997815,0.3357418023179246
73,0.33550531261643535,0.33555403983326765
74,0.3355034326018816,0.33555871430165124
75,0.33547083464882166,0.33567745704804697
76,0.3354792473796936,0.3355267824665193
77,0.3354904442113309,0.3356030104621764
78,0.33549272644108197,0.33544803406701196
79,0.3354588909369316,0.33578724677746113
80,0.3354881354173971,0.3356008239330784
