epoch,loss,val_loss
0,0.7368123823974175,0.5346653974333475
1,0.5317043577361784,0.531654206357261
2,0.5312845608368708,0.5315866664398549
3,0.5312188849892727,0.5314779295477756
4,0.532718239212529,0.5327575248341228
5,0.5332533014837162,0.5314560356990311
6,0.5313353720253444,0.5331540472747743
7,0.5315063192246804,0.5314411331516827
8,0.5313385692677757,0.5319027318510898
9,0.5319676132781253,0.5320351844610169
10,0.531331916342102,0.531867244908976
11,0.5315242175600018,0.532238710758298
12,0.5316129138919427,0.5354941468830257
13,0.5323575451700571,0.5321135160534881
14,0.5317126712749787,0.5315374944561212
15,0.5319550832112631,0.5326496533645216
16,0.686012254204861,0.9999779370404029
17,1.0,1.0000566613766575
18,1.0,1.0000631254772807
19,1.0,1.0000632386799007
20,1.0,1.0000632456106733
21,1.0,1.0000632456106733
22,1.0,1.0000632456106733
23,1.0,1.0000632456106733
24,1.0,1.0000632456106733
25,1.0,1.0000632456106733
26,1.0,1.0000632456106733
27,1.0,1.0000632456106733
