epoch,loss,val_loss
0,0.08096751782776022,0.010855470444689425
1,0.0034334372698379928,0.0032826059880529264
2,0.0024650544707256654,0.0030677852062003094
3,0.002440962953840741,0.0030720391935242933
4,0.002429262052250434,0.003074043347363093
5,0.0024463335436874715,0.0030827433296818606
6,0.002437218006348926,0.003069008561573172
7,0.0024509659132953897,0.0030693990411236882
8,0.0024321472476229304,0.0032057963959627256
9,0.002435353886003989,0.003065823113488019
10,0.002423441324813787,0.003088284558219503
11,0.0024423876153702247,0.0030734960635936306
12,0.0024422212844974426,0.003078339224349159
13,0.0024651895825888296,0.0030771633817691557
14,0.002476353652971419,0.003066283939478471
15,0.002533746816793057,0.0031626240960358418
16,0.0024903714058208412,0.0030740710830879075
17,0.0024822785467022517,0.0030855243392072097
18,0.0025016457943103786,0.0030885048683501723
19,0.0024450516240377682,0.0032109675636558337
20,0.0025274970151185606,0.003083615242539681
21,0.002465703132085849,0.0030618186186378202
22,0.0024577067144881714,0.0031424231841698175
23,0.0024388787313785586,0.0030724579367295717
24,0.002432693929462008,0.00315474435802578
25,0.0024620963664224865,0.003061788551448014
26,0.002475462214526713,0.0030596606061584495
27,0.0024700946777996436,0.003094901031157536
28,0.0024588415542080785,0.0030753286456140553
29,0.0024317567268607883,0.0031445604620876817
30,0.0024656141594952352,0.0030713439648321203
31,0.002506024563367399,0.0032038014290074624
32,0.002532261037520429,0.0034663189453426604
33,0.00252561555009393,0.003135057270902303
34,0.0024872939240726468,0.0030864535590864775
35,0.0024236588322531036,0.0030900191645636117
36,0.0024418900231951103,0.00318544265514514
37,0.0024423612358688692,0.0031755935227455096
38,0.0024802715497125104,0.0030546232646461143
39,0.0025051768961060522,0.0035074713798745197
40,0.002477244650572057,0.0030701223331279764
41,0.002479798629162809,0.003055779173132754
42,0.0025453607654632175,0.003333190201543445
43,0.002570210588742192,0.003149181645897816
44,0.0024492019445705167,0.0030515727933582873
45,0.002436139228277255,0.003056623627316178
46,0.002480245437033869,0.0032277080679832156
47,0.002495572596634389,0.0030958627083504846
48,0.00243513009695033,0.003090090070519048
49,0.0024442465604975995,0.0035134003291902847
50,0.0025451325084075564,0.0030456864321965348
51,0.0024351587101518724,0.003064777226504949
52,0.0024386839223700728,0.0030940122064924977
53,0.0024158061418540354,0.0031105222603732127
54,0.0024778110836091083,0.00318518478618285
55,0.002437919906511402,0.003057531799485748
56,0.002474767556028965,0.0030403713345556528
57,0.0025181840471706764,0.003053435910485916
58,0.0026637054787279715,0.003041734037263853
59,0.0024695569719729383,0.0030764943158412858
60,0.0024868124342121625,0.003061201286235059
61,0.0024172746764678866,0.003044372871193255
62,0.0025330320522862966,0.0033873706973020653
63,0.0025095432588845027,0.003037170784966659
64,0.002431854538893861,0.0032489547107094363
65,0.0025981430416127777,0.0031799598282939473
66,0.0027660737818862658,0.003253784842875808
67,0.0025227536632046487,0.0030400420650984195
68,0.0024751299710641076,0.0031260325818849625
69,0.0024494734413450154,0.0032728974411422892
70,0.002448992426771892,0.00311807972602835
71,0.0025372843270717086,0.0036790333038499187
72,0.0026033803347127573,0.0030469099103018296
73,0.0026730746924227408,0.0030292916624236475
74,0.0024998668680215395,0.0030358560354441636
75,0.0025802306183078387,0.0034058434733500085
76,0.002556556674533882,0.003091034820563225
77,0.0025059756039562384,0.003350149921336493
78,0.0024655648445209982,0.003027021001425189
79,0.002498659380177368,0.0031519616338561555
80,0.002509182737177618,0.003035542353005834
81,0.0024390493020853294,0.00304044229465775
82,0.002524987258406919,0.0031182290679349226
83,0.0024549278279631676,0.003029681065358048
84,0.00241500120616015,0.0030299842586856366
85,0.0025709613245305453,0.0039056002292348897
86,0.0026247134716165773,0.0031657597273876963
87,0.0025497681935960355,0.0030224133912806015
88,0.002429145565184281,0.0030255893384315826
89,0.002420629080786858,0.00312881805219276
90,0.0024374383643091455,0.0032559192447035117
91,0.0024648796079935415,0.0030249093646587907
92,0.0026125061868398766,0.003021684781171728
93,0.0024947175327134957,0.0031259095507435676
94,0.002452132436482943,0.003287368462161096
95,0.0024632270837765795,0.0031616999749671812
96,0.0026004323657621326,0.0031266236919620933
97,0.0024501863693775134,0.003142246160685092
98,0.0024348344850577703,0.003039289903899207
99,0.0025248133307575545,0.004116392853243869
100,0.0025854549281664903,0.0030420611273179682
101,0.0025368264974973305,0.003132833564986092
102,0.0025384245928887095,0.0030911868652906413
103,0.002680546368558913,0.00306605833470677
104,0.0026096063413361247,0.005000512888149697
105,0.0028503541329283587,0.003083047331599591
106,0.002574530970401465,0.0031241622551293796
107,0.002469303638996792,0.003266216977679914
108,0.002549049053738226,0.003568616103698579
109,0.002577804884805948,0.003058319460138563
110,0.0025127454852151084,0.0030200842329365916
111,0.0024236904569114592,0.0030226603934591883
112,0.002432829434490096,0.003181518037449713
113,0.0025218855675360435,0.0030845125519865474
114,0.0024323859218193956,0.0031516577655001897
115,0.002448071450571402,0.0031349167043646406
116,0.0025425640203164605,0.003094155188873699
117,0.0026688059815686937,0.003029750903721812
118,0.0025723276088899846,0.003013307672687048
119,0.002542419731647055,0.003007548376592959
120,0.0025046193780911756,0.0031020002170689693
121,0.0025894713325748456,0.00310972226917195
122,0.00245570444179463,0.0030135050237308754
123,0.0025908557802814154,0.0030785184073832263
124,0.002442274491864591,0.0034993421557077834
125,0.0026243472798518084,0.003012822511382112
126,0.0024714310832793323,0.004111195522786457
127,0.00253807190485005,0.003157321575761939
128,0.00248392716709534,0.003143712743763025
129,0.002454826641991465,0.0030291392558160447
130,0.0027061955890803568,0.004219283403958692
131,0.002624443578184883,0.0035608636193670508
132,0.0025376979579297145,0.003162813271836255
133,0.0024234295067033255,0.0031581913344850836
134,0.0025774222282447324,0.0030210697536118504
135,0.002411942358985447,0.003069649481164046
136,0.0024282538403638996,0.0030782252329928698
137,0.0025605380534975326,0.003856258169033153
138,0.0027191799650815836,0.003070755340086744
139,0.0025401971882295818,0.003128297465434659
