epoch,loss,val_loss
0,0.452374458966138,0.4496622004077097
1,0.4479004422158606,0.447040889132999
2,0.44722670957185195,0.4472001420061287
3,0.4469777794567623,0.4468119654702785
4,0.44688544329927554,0.44656935255817387
5,0.4468150475278359,0.44658689248946404
6,0.4467284721500768,0.4469550984964773
7,0.4466758280370517,0.4464791701685998
8,0.4466163691834973,0.4463418233039657
9,0.446582506730216,0.4463013503303007
10,0.44655254898186014,0.44744231520456357
11,0.44654244347071503,0.44658574343615076
12,0.446491607670919,0.44669985025751385
13,0.44649278424559247,0.44642183941883723
14,0.44650812859687367,0.4469999805573494
15,0.4464548394752311,0.44709523292096615
16,0.4464562255681863,0.44640077314069193
17,0.44643595984381834,0.44668554140083844
18,0.44643499863382646,0.44624109895294417
19,0.4464146589725948,0.446329419518227
20,0.4464100248844141,0.4463366475057957
21,0.44641157929949465,0.4462971738343203
22,0.44642679647116656,0.4462535984019192
23,0.446382917938161,0.4464319171444062
24,0.4464020768987535,0.4465432677020506
25,0.4464173172667063,0.4464609383649329
26,0.44636457392777545,0.446387983551688
27,0.4463769100375019,0.44628972764642305
28,0.44637819057893835,0.4462374814242938
29,0.4463616642873745,0.44652658507190923
30,0.44636693873915795,0.446218518110422
31,0.4463407139402276,0.44619836934446994
32,0.44635455142541225,0.44626533193860396
33,0.4463633841946594,0.4464104181779525
34,0.44633225222312684,0.4466165452382109
35,0.4463334113650923,0.44624751463125717
36,0.4463230785475904,0.4462722614444515
37,0.44633295641357706,0.4470797269279253
38,0.4463306646366388,0.4462327129048094
39,0.4463054895124122,0.4466237066253539
40,0.44630840507691266,0.44622586286689153
41,0.4463123725469229,0.4466462694681608
42,0.44632589782220355,0.4462830071413783
43,0.446302925826012,0.4462665623529969
44,0.44632698336176857,0.44641391371674927
45,0.44630142770723086,0.4467487019433573
46,0.44631613051916097,0.44619338522773816
47,0.44631964179130745,0.4468569193673193
48,0.44629034196429157,0.44628220826165554
49,0.44632007681702335,0.44618041657336593
50,0.4463065531201878,0.44616265604572913
51,0.44629856783044897,0.44648714228244335
52,0.44629867029055015,0.44626369037048397
53,0.4463101949540444,0.44637966201855583
54,0.44631143500256476,0.44630075384014595
55,0.4462978993297401,0.4462649438576426
56,0.4462890243467483,0.44640722589812265
57,0.44628523111152485,0.44656478057132465
58,0.44629354727010906,0.4463556921807471
59,0.4462855330852002,0.4465672029011303
60,0.4462988044370898,0.4465391444213337
61,0.4462784796429025,0.44632477791374436
62,0.4462922070924747,0.4462246083739969
63,0.44626879361045896,0.44621630945513324
64,0.44628963265671306,0.4463746722371643
65,0.4462579411965795,0.44651827825506035
66,0.44627174300977135,0.4462022260164209
67,0.4462748453861349,0.4467738794777589
68,0.4462817312138861,0.44659707600958
69,0.4462693308568667,0.44629337883764697
70,0.44627165246176426,0.4461722124303245
