epoch,loss,val_loss
0,0.8023252412478129,0.8015990401506424
1,0.7127152444521586,0.7015297708908717
2,0.7015945204231474,0.7022382865746816
3,0.7014903036355973,0.7013247050444285
4,0.7014064869615767,0.7017672968308131
5,0.7013397652175691,0.701322695295016
6,0.7012976655562718,0.7012562431494395
7,0.7012554386456807,0.7012065485318502
8,0.701217862341139,0.7010671734809876
9,0.7011753577656216,0.7010103493531545
10,0.7011545743279987,0.7010403978029887
11,0.7011062810288535,0.7010408784151078
12,0.7010822851525412,0.7009385073582332
13,0.7010644760131836,0.7009897348086039
14,0.7010551911989847,0.7009669174750646
15,0.7010485232008828,0.7010752205053965
16,0.7010388620297114,0.7010327022075653
17,0.7010271623664432,0.7009985362291336
18,0.7010214214987225,0.7009286029736201
19,0.7010282973713345,0.7012089946667354
20,0.701013957619667,0.7009609338045121
21,0.7010050312810474,0.7010402172803879
22,0.7010116741524802,0.7011202762524287
23,0.7010040153529908,0.7008970237175624
24,0.7010100025733312,0.7010584846735001
25,0.7009927068418926,0.7009137324492136
26,0.700995513452424,0.7012086041371027
27,0.7009944256941477,0.7009168347517649
28,0.7009945310354233,0.7009555756648381
29,0.7009943888319863,0.7011563110748927
30,0.7009815255271064,0.7012773165305456
31,0.7009920309914482,0.7009975951512655
32,0.7009855461120605,0.7008668072621027
33,0.7009853573242824,0.7008989738623301
34,0.7009859757820766,0.7009550441503525
35,0.7009735691812303,0.7008905770381292
36,0.700985145105256,0.7009936562776565
37,0.7009755333926942,0.7009160941441854
38,0.7009762770202425,0.7010418865680694
39,0.7009725744591819,0.7009373899300894
40,0.7009701404041714,0.7008957154750824
41,0.7009722116258409,0.7008852467139562
42,0.7009709300994873,0.7008694477478663
43,0.7009716645876567,0.7008827704191208
44,0.7009633512496948,0.701021858215332
45,0.7009675809807248,0.7009666667381922
46,0.7009667534960641,0.7011000372171402
47,0.7009612149662442,0.7008906898895899
48,0.7009602592123879,0.7008903706073761
49,0.700964132282469,0.7009014205932618
50,0.7009587520360947,0.7009629169305166
51,0.7009588031503889,0.7013528664509455
52,0.7009458765718672,0.7008561726808548
53,0.7009502446916368,0.7008960907856623
54,0.7009541051785151,0.70085034430027
55,0.7009520184861289,0.7008448338508606
56,0.7009416874647141,0.7009557150999705
57,0.7009478137360678,0.7009587351878485
58,0.7009482664002312,0.7008588449160258
59,0.7009425987799962,0.7009134730100631
60,0.7009479911327362,0.7008442533016205
61,0.7009554287460116,0.701089593887329
62,0.7009430728620953,0.700972738345464
63,0.7009423763222165,0.7009739685455958
64,0.7009440076351166,0.7008995184898377
65,0.7009469469388326,0.700889144619306
66,0.7009488807916642,0.7009051985343298
67,0.7009488370551004,0.7010520492394765
68,0.7009482904275258,0.700891388853391
69,0.7009486431148317,0.7008621929089228
70,0.7009449085526996,0.7008945498863856
71,0.7009415261215634,0.701166667342186
72,0.7009520916806327,0.7008957531849543
73,0.7009430578152339,0.7009034059842427
74,0.7009446948634254,0.7008947700262069
75,0.7009459141227934,0.7009702401558559
76,0.7009382148451275,0.7008676960468292
77,0.7009414183696111,0.7008319286902746
78,0.7009447530905406,0.7008726283709208
79,0.7009377027220196,0.7008798199892045
80,0.7009457689258788,0.7009626726309458
81,0.7009331589010027,0.7008886806964875
82,0.7009396868414349,0.7008531302611033
83,0.7009475417931874,0.7008824287652969
84,0.7009350788858202,0.700871704975764
85,0.7009382675223881,0.7008493613799412
86,0.7009387418693966,0.7012096613645553
87,0.7009416038062838,0.7009077888727188
88,0.7009395547707875,0.7008877954880397
89,0.7009348048236635,0.7010020170211791
90,0.7009374130302005,0.7008338936169942
91,0.7009349902338452,0.7011679965655009
92,0.7009337526427375,0.7009159558216731
93,0.7009358472294278,0.7008959536155065
94,0.7009410963323381,0.7008650101423264
95,0.7009345238076315,0.7008884896834692
96,0.7009288496043947,0.7009088551600774
97,0.7009299734301038,0.7008758959372838
