epoch,loss,val_loss
0,0.5246790096510242,0.5209547746566034
1,0.520219392560098,0.519651778489721
2,0.5194067895547335,0.5195878756844968
3,0.5188720052477445,0.5195075537371576
4,0.5186693657945058,0.5186792071640639
5,0.5185466797266864,0.5203855582561445
6,0.5184046813887324,0.5181603297997941
7,0.518339972519319,0.5215398090057278
8,0.5181523362984831,0.5179246415867107
9,0.5180500295344547,0.5177769119627127
10,0.5179717770589717,0.518747626729402
11,0.5180080041019748,0.5175970105320289
12,0.5179479898991951,0.5176843616861859
13,0.5178925773570537,0.5180447195954714
14,0.5179030961794474,0.5178144216537476
15,0.5177224848078604,0.5175366906019357
16,0.5178121820519549,0.5185142366821062
17,0.5177788124577206,0.517753204074746
18,0.5178203932821945,0.5176375642603739
19,0.5177907621355181,0.5176153603321861
20,0.5177884478951202,0.517568088287751
21,0.5177490199712312,0.5174727702554934
22,0.5176053921793401,0.5173110256715685
23,0.5176588084095973,0.517747701160961
24,0.5177134643030326,0.5174088563280129
25,0.5176135808120194,0.5172626428509468
26,0.5176071254257092,0.5174090474770028
27,0.5175893641297866,0.5173716453701331
28,0.517618482370926,0.5175430853668572
29,0.5175730648724338,0.5174164471496128
30,0.5175520772235752,0.5184710814106849
31,0.5175772308333025,0.5177255267836616
32,0.5175255302553909,0.5184234386933945
33,0.5175766391664287,0.5182222656813212
34,0.5175349533946784,0.5190826893740197
35,0.517506775857154,0.5173410715595368
36,0.517507538616912,0.5176761514495679
37,0.517569357182075,0.5186358017601979
38,0.517537555655959,0.5172746642943351
39,0.5175096533342698,0.517514941739681
40,0.5175419858860946,0.517306733782179
41,0.5175401314410113,0.5173830526046658
42,0.5174391856611432,0.5173844864883139
43,0.5174929301922158,0.5173443618838308
44,0.5174427374262057,0.5186085723765731
45,0.5174987688071958,0.5174466450811911
