epoch,loss,val_loss
0,0.7482497114543767,0.48571710762127424
1,0.48279290551979104,0.4816586719464886
2,0.48140539040245134,0.48160759145899334
3,0.4817168198968705,0.48170600981675377
4,0.4818793987272938,0.48162382402161297
5,0.48226970426487986,0.4816189521504927
6,0.4816984836137264,0.4816126530022584
7,0.4820293206577153,0.4822037970834924
8,0.48203721211246126,0.48201323294824405
9,0.4826177498012858,0.4820608034614445
10,0.4822703635353759,0.4824134363222492
11,0.4820558750660228,0.48182459926420407
12,0.5058821318069477,0.8255409977232763
13,0.9854090247659412,1.0000000739282415
14,1.0,1.0000000831692717
15,1.0,1.0000000831692717
16,1.0,1.0000000831692717
17,1.0,1.0000000831692717
18,1.0,1.0000000831692717
19,1.0,1.0000000831692717
20,1.0,1.0000000831692717
21,1.0,1.0000000831692717
22,1.0,1.0000000831692717
