epoch,loss,val_loss
0,0.6796053382814632,0.6687583600912733
1,0.668823360876163,0.6684301964698299
2,0.6684548578580258,0.6683774971784492
3,0.6683434114035447,0.6681171042451788
4,0.668210661324041,0.6680330648611557
5,0.6681362814197794,0.6679413832742582
6,0.6680940296267477,0.6679346656680994
7,0.6680156953852816,0.6681662930744162
8,0.6680150064235534,0.6679713172593129
9,0.6679618722987565,0.6682167288978993
10,0.667949765151926,0.6678376446882489
11,0.6679315338500971,0.6679356333635581
12,0.6679223114368127,0.667831459915076
13,0.6679092841937142,0.6678200280104323
14,0.6678880117447582,0.6679224827449316
15,0.6678985112929247,0.6677791442232156
16,0.6678799715056439,0.6677830195308619
17,0.6678744945391896,0.6678850072784992
18,0.6678609413283484,0.6680320073593935
19,0.667860864737078,0.6677957411735288
20,0.6678590589074743,0.6677651120770363
21,0.6678381552301624,0.6677936233894405
22,0.6678545440132011,0.6678282107372142
23,0.6678318466629163,0.6677987622268147
24,0.6678429277667572,0.6683542889637628
25,0.6678321764530392,0.6677689020450298
26,0.6678352218487947,0.6677962201700612
27,0.6678321761177871,0.6677747995918502
28,0.6678243686658077,0.6677575185931942
29,0.6678290500974827,0.6677378580528809
30,0.6678130688033521,0.6679132676302055
31,0.6678116574761784,0.6678062871431298
32,0.6678110411300268,0.6677515555847963
33,0.6678137030109399,0.6677323007997745
34,0.6677965593706238,0.667742481391424
35,0.6677979744896945,0.6677601801254613
36,0.6677975746989605,0.6678719356988855
37,0.6677971771942506,0.6677696470587189
38,0.6677961397258738,0.6677726057859568
39,0.667797794400225,0.6677477863527114
40,0.667802642055348,0.6677911930876985
41,0.667791123289922,0.6677957622939836
42,0.6677784651040233,0.6683096587510026
43,0.6678025004102078,0.667850374288062
44,0.6677779277037941,0.6678533610871649
45,0.6677875985587893,0.6677097237435523
46,0.6677850724983092,0.6677821283304958
47,0.6677731028237178,0.6679696644210342
48,0.6677879933475639,0.6680173099780496
49,0.6677842372357771,0.6677116699313408
50,0.6677865195657092,0.6677553633306518
51,0.6677799169525108,0.6677655174182011
52,0.6677697692414255,0.6677216475713933
53,0.6677745508897743,0.6677332678740433
54,0.6677761027506293,0.6677203513552474
55,0.6677686805426037,0.6683652342105326
56,0.6677777617075286,0.6677408791949081
57,0.6677675441086345,0.667726099846085
58,0.6677700630562511,0.6677282451695898
59,0.6677596810190272,0.6677054514955942
60,0.6677674384585123,0.6677169303148616
61,0.6677708294682836,0.6677849170883595
62,0.6677606199304246,0.6678652139218806
63,0.667759276055947,0.6678777212540505
64,0.6677574601806168,0.667817410257259
65,0.6677726420463121,0.6677629377942523
66,0.6677558135065608,0.6678266017667709
67,0.6677715903600966,0.6677174530017465
68,0.6677553470495924,0.6676993508492747
69,0.6677531301395462,0.6677240694131212
70,0.6677617582536371,0.6677370006334101
71,0.6677656958211439,0.6676982274422278
72,0.6677642130072068,0.6680112447987123
73,0.6677531888386162,0.6677884471623536
74,0.6677623783585551,0.6678289395703867
75,0.6677683429328274,0.6677421543793406
76,0.6677488465888521,0.6677269990035973
77,0.6677478136893681,0.6678084897935834
78,0.6677580187269625,0.6677296981918013
79,0.6677473644462079,0.6677724983792743
80,0.667759317297461,0.6677329513038655
81,0.6677444167270994,0.6677094417529426
82,0.6677536631909657,0.6678850831819823
83,0.667752849308832,0.6677191311017455
84,0.6677600824505237,0.6678147012483393
85,0.6677510621768223,0.6677220601597732
86,0.6677621198161807,0.6676820237346678
87,0.6677442471534982,0.6679704241657967
88,0.6677491227173615,0.6677321028768572
89,0.6677583493374666,0.6679782351252459
90,0.6677506822819124,0.6676991318354831
91,0.6677548775201383,0.6684133280891342
92,0.667742514196629,0.668204374467173
93,0.6677402033095396,0.6677307370282876
94,0.6677445670769584,0.6677038209018281
95,0.6677413250326525,0.6678159911638454
96,0.6677422787448326,0.6677079014979285
97,0.6677373274416333,0.6677015747385049
98,0.6677366692505141,0.667836760439293
99,0.6677447688371151,0.6677273850582965
100,0.6677442441764607,0.667688205372311
101,0.6677383259616195,0.6677376304015924
102,0.667747912225838,0.6677208552881151
103,0.6677422831993453,0.6676857069171688
104,0.6677422309623555,0.667741850942891
105,0.667736041944384,0.6677003365888193
106,0.6677400762261674,0.6676776211255833
107,0.667744689609581,0.6677788184239314
108,0.6677373820348528,0.6677071666895013
109,0.6677346284771194,0.6677321076688932
110,0.6677504688029244,0.6677721539442948
111,0.6677494086297067,0.668125561804097
112,0.6677188043065151,0.6677754184152589
113,0.6677358224182393,0.6677288756477034
114,0.6677446519051724,0.6680928245371683
115,0.6677332576436505,0.6682007359807604
116,0.6677379346918074,0.6678587197961642
117,0.6677342238658566,0.6680552398300644
118,0.6677322045990729,0.6677172598412847
119,0.6677317076964927,0.667741015649611
120,0.6677403739512142,0.6677589244937187
121,0.6677309513435971,0.6677056309602988
122,0.6677443405799393,0.667726814894759
123,0.6677354762244349,0.6676909550543755
124,0.6677315019898287,0.6677708854154677
125,0.6677336434161193,0.6678027095037418
126,0.6677354147849758,0.6677148318468193
