epoch,loss,val_loss
0,0.7649266434388533,0.7693408184252661
1,0.7623754322944551,0.7620813685078774
2,0.761594240658431,0.761172933821051
3,0.7614293069460272,0.7609336747129265
4,0.7611713711213707,0.760814389224088
5,0.7610318489142294,0.76084968558612
6,0.7608917632636971,0.7607309747570502
7,0.7607947817129388,0.7608811105451276
8,0.7606980598452004,0.7605474814883533
9,0.7606660183622905,0.7607267161752687
10,0.7605818007414237,0.7603107220777506
11,0.7605697729893589,0.7608624557111754
12,0.7605229224677632,0.761044036425077
13,0.7604844331570946,0.7616690373006588
14,0.7604708732057168,0.76027941931566
15,0.7604296052178708,0.7603580540817961
16,0.7604267254184448,0.7601356810730681
17,0.7603791415162072,0.7605987947572845
18,0.7603913964578822,0.7604408976162041
19,0.7603910011965996,0.7601351609596839
20,0.7603455323848355,0.7602369025978202
21,0.7603547725775178,0.7605962847953399
22,0.7603754479584937,0.7602963233999815
23,0.7603651370562158,0.7605765768966959
24,0.7603297752654139,0.760740591544963
25,0.7602918900322525,0.7601374204637986
26,0.7603406465559512,0.760629794615374
27,0.7603083931953746,0.7605058591951508
28,0.7602830783909789,0.7600936131796825
29,0.7602919032806215,0.760285353128135
30,0.7602701795343967,0.7602365059237326
31,0.7602801633853632,0.7602264750092557
32,0.7602331287702063,0.760465956680828
33,0.7602594265246981,0.7601028367840031
34,0.7602368942627377,0.7605141655682925
35,0.7602434097309337,0.7601524497675837
36,0.7602184666752195,0.7602509056959791
37,0.7602311312987449,0.760148907861402
38,0.7602326408381801,0.760310141235664
39,0.7602581826357678,0.760047786910244
40,0.7602254681869872,0.7601011083972069
41,0.7602355925787344,0.7604101614975752
42,0.7601940804296403,0.7603521787203276
43,0.7602237548348644,0.7600632193662392
44,0.760216233763794,0.7606066947243646
45,0.7602051271713376,0.7601168937481958
46,0.760212279350862,0.7600384515804925
47,0.7602103179241144,0.7605089460058189
48,0.7602150809127332,0.7600950987404097
49,0.7601885022297126,0.7601366351615111
50,0.760184420440753,0.7600509889959993
51,0.7601970013222805,0.7600066179968878
52,0.7601732009172903,0.7600525709298941
53,0.7602236194790511,0.7600991854005061
54,0.7601839385637716,0.7601141738240831
55,0.7601768467027815,0.7600390094977159
56,0.7602172915105764,0.7600985816039755
57,0.7601828177202022,0.7600426769434074
58,0.7601636682918093,0.7600664055377023
59,0.7602017759082509,0.7611138150650574
60,0.760195120037319,0.7612120254459807
61,0.7601756560005901,0.7600103011202279
62,0.7601237280571597,0.7608034838517901
63,0.760178682160771,0.7601185930278106
64,0.7601697949402935,0.7600259554297397
65,0.7601688195171957,0.7601072360209141
66,0.7601265486084912,0.7600190233060208
67,0.7601652302015462,0.760040216144202
68,0.7602084763156318,0.7600535456063434
69,0.7601623627165167,0.76007154017465
70,0.7601613898421228,0.7602198316204932
71,0.7601879116104026,0.7599868126601794
72,0.7601387192686101,0.7606258026719389
73,0.760150289664417,0.7601043209840287
74,0.7601525960354651,0.7603422788769081
75,0.7601512004856434,0.7603112436701583
76,0.7601519135571156,0.7606090296290944
77,0.7601370567998478,0.7599980827004975
78,0.760160258570245,0.7615471477544041
79,0.7601381533199009,0.7602077193650655
80,0.7601581853831124,0.7599937544567118
81,0.7601598264462336,0.7599441243756202
82,0.7601435477709853,0.760683888122994
83,0.7601528356625289,0.7606334620610656
84,0.7601732274234942,0.7600246232141632
85,0.7601224082261645,0.7608995281437194
86,0.7601567500487424,0.7608832081849167
87,0.7601261214359541,0.7602461577940816
88,0.7601360809594601,0.7599453141020782
89,0.7601305665552212,0.7599824887943031
90,0.7601839282435328,0.7600341181897052
91,0.7601249067904614,0.7601560018494466
92,0.7601414285076108,0.7599874274606444
93,0.7601199036746619,0.7603796085707899
94,0.7601116291267633,0.7601105784068333
95,0.7601225575694787,0.7600644644081741
96,0.7601387527078247,0.7600212476093775
97,0.7601623117227201,0.7602074160173572
98,0.7601241093459291,0.760023986760795
99,0.7601291650110943,0.7599486761294287
100,0.7601317208955897,0.7602478091829172
101,0.7601445363280718,0.7600002991946104
