epoch,loss,val_loss
0,0.6125407914545444,0.6072197648490925
1,0.6072998392720931,0.6080305790782862
2,0.6068712917041681,0.6063111214424777
3,0.6065215225037413,0.6064582215940982
4,0.6062612836290031,0.6059491991109351
5,0.6060321838674534,0.6056315385378324
6,0.6059600137706292,0.6056592931226821
7,0.6057891683646267,0.6062621627492881
8,0.6057370976306777,0.605473503167221
9,0.6057516648170154,0.605950519050617
10,0.6056288522369353,0.6056439552946067
11,0.605603031391385,0.6054747058795049
12,0.6055843904708121,0.6051964270269901
13,0.6055851155458825,0.605342251047603
14,0.6055402310530578,0.6057348415810181
15,0.6055203424792667,0.6053145673967177
16,0.6055191915056167,0.6053967462284098
17,0.6054630697572612,0.6053508792858265
18,0.605451898496672,0.6054084565444264
19,0.6053956136225966,0.6054485405349258
20,0.6054128354058081,0.6056118340705228
21,0.605399026056152,0.6053911264717727
22,0.6054047046076433,0.6051681143770147
23,0.6053855361629698,0.6051478731720974
24,0.6053577400475266,0.6052634762475272
25,0.6053459426790373,0.6052758142315129
26,0.6053643981681964,0.6052226240522512
27,0.6053229099056079,0.6050814947182724
28,0.6053711226876879,0.6052123606944498
29,0.6053477755686022,0.6053006221875363
30,0.6053505787199621,0.6057898660747348
31,0.6052992698812155,0.6051675064983794
32,0.6052990668896979,0.6050350660130048
33,0.6053058689525754,0.6051225195155842
34,0.60530989629346,0.6052431947540112
35,0.6052903416937362,0.6050060117806749
36,0.6052881897602544,0.6051205659326785
37,0.6053115425849342,0.6054981393198813
38,0.605278746657304,0.6050367489937813
39,0.6052636696410701,0.6055329563895763
40,0.6053019801788235,0.6052603818938395
41,0.6052943975507588,0.6055071921265747
42,0.6052668315932862,0.6060274545962994
43,0.6052723581233916,0.6050604231600134
44,0.6052573294717902,0.6056715661775386
45,0.6052602417030972,0.6050803603072912
46,0.6052426234374971,0.6051273036535562
47,0.6052665283322434,0.6055729134207032
48,0.6052709404414183,0.6050646846406809
49,0.6052152838255886,0.6050793176845048
50,0.6052302468206556,0.6050706462587967
51,0.6052729331649231,0.6051494989146665
52,0.6052428566505992,0.6050534273791254
53,0.6052673332745874,0.6050868180194504
54,0.605241687977223,0.6051032674519655
55,0.6052131930475879,0.6049402072175265
56,0.6052515830132378,0.6050414083317551
57,0.6052135481188645,0.6050208562361099
58,0.6052203898661092,0.6050723363388857
59,0.6052812697517902,0.6054127691993051
60,0.6052042022232084,0.6050098804918768
61,0.6052337045645008,0.6051477778934071
62,0.6051881532704975,0.6051265690226117
63,0.6052348884109866,0.6054239761740635
64,0.6052321106378064,0.6055454107431265
65,0.6052016850780642,0.6050247281124219
66,0.6052463519710626,0.6055723376072961
67,0.6052298846081178,0.6052367715918396
68,0.6052038020199173,0.6050173467501222
69,0.6052298123230603,0.6056404259305438
70,0.6052404382272994,0.6052777335010746
71,0.6051985256745519,0.6061374860720954
72,0.6052104217909171,0.6050510322189805
73,0.6051837264346895,0.6049689365379863
74,0.6052270493522405,0.6051229221945069
75,0.6052011427618579,0.6049562176167226
