epoch,loss,val_loss
0,0.09037216150536702,0.0825248611402275
1,0.0737154776949348,0.0678840458300658
2,0.06490322826959333,0.06389730815999857
3,0.062091336833901944,0.061017301697145324
4,0.06040825371685547,0.062016082590182424
5,0.060089489687728904,0.059220497857400266
6,0.06014988140927092,0.05882011168352132
7,0.05898643542031372,0.059508360393585695
8,0.058564873226655,0.058336330175621634
9,0.05795917767007411,0.05641919984932869
10,0.05764134756394349,0.05763174532069166
11,0.057440955212656006,0.057425413426779044
12,0.05723746459041189,0.055867538113082316
13,0.057014319464885575,0.0577156065933166
14,0.05686556149388836,0.05676477583629026
15,0.05664472331458914,0.056451728666390734
16,0.056569299314339835,0.05613582219290674
17,0.05652005618212051,0.05631276449701626
18,0.05649597588388918,0.05548498600388579
19,0.056247138944343994,0.0561437839646789
20,0.056035883779315836,0.05611106473813873
21,0.055890659028844554,0.05503384229858815
22,0.05590563691785005,0.05551332981133875
23,0.05577849374557968,0.05445099570799998
24,0.05566826461227172,0.05588310906668159
25,0.05547878604061667,0.055542157028360344
26,0.055356249176686086,0.055961649323219696
27,0.05532472456041391,0.05455011437755661
28,0.05523893296754292,0.055097900063871746
29,0.05518992639771608,0.05533399724265186
30,0.05502906571046496,0.05498211131091449
31,0.05500443929860855,0.05506578724526294
32,0.054950679283628026,0.0551154750267566
33,0.05491797615837711,0.05486864420971267
34,0.05481652384497796,0.05549967625079025
35,0.0547190282357609,0.054430775974805536
36,0.054699551867626386,0.05502681294386795
37,0.05466469296730066,0.05495856699369681
38,0.054729798970822724,0.05405345419907097
39,0.054686378598630486,0.05498197014367314
40,0.054509540915006434,0.05462813554863184
41,0.05456225845615038,0.054553076501002086
42,0.05446599058416328,0.05449541661490873
43,0.05441028749361038,0.05476949498538048
44,0.05432994605302637,0.05423406657968502
45,0.054397875892018104,0.05471274619251859
46,0.0543056012314023,0.0542977239150859
47,0.05424522241649413,0.05423418013725624
48,0.05422447516977234,0.05467468835136139
49,0.054233982182397375,0.05384599729706868
50,0.054149858090149515,0.054155780920393706
51,0.05427286584611161,0.053857357607733816
52,0.0540154329262287,0.05360232308396039
53,0.054073771651286455,0.05399934908666327
54,0.05407995200548444,0.05463854469747165
55,0.05401558482963539,0.05405518820985375
56,0.053988015112903666,0.0540507531565413
57,0.053961854646509,0.055467302178404766
58,0.05385212689072942,0.05379226892890764
59,0.053922433293386106,0.05397599683820314
60,0.053858202320157283,0.05383737660741096
61,0.05381168573506109,0.05626291850253607
62,0.053949900788957623,0.0536546392823863
63,0.053874830367448064,0.05355449436837923
64,0.0538099120957599,0.05532784342174199
65,0.05378775679254318,0.05337718580999682
66,0.053707725765676756,0.05407504668417699
67,0.05379558993000006,0.05398652172524935
68,0.05374275293902329,0.05377456110627125
69,0.0536641717166181,0.0537442374724904
70,0.05371778055955891,0.05394493697520817
71,0.05360299918498225,0.0538935076010878
72,0.05369008762118784,0.053983233809914835
73,0.05363487789379246,0.05368900870992144
74,0.053646901651724484,0.054008610248935426
75,0.053603781735403574,0.054366027739444385
76,0.05353711108589689,0.05386894619827235
77,0.05354114048616524,0.05340191566803615
78,0.05354491536059968,0.05337625960484332
79,0.05355801293859995,0.05354806507565543
80,0.05347597734402314,0.05350141104486385
81,0.05356040874811905,0.05319695126995555
82,0.05336191023564815,0.053950193137965785
83,0.053465331295331306,0.05348193873062027
84,0.05338566377088476,0.05441976474510233
85,0.053333893393463984,0.053446789843864535
86,0.053362349036301195,0.05407892361320278
87,0.053371266429160125,0.05396629468383032
88,0.05322716882561153,0.053334044249122844
89,0.053351884965188334,0.05356834262942262
90,0.05338831443052009,0.053190169429808636
91,0.053313156202723616,0.053318237021528464
92,0.05332008988611573,0.053159564885105155
93,0.05321448418902274,0.05312107556843876
94,0.0533035153868964,0.05387920911606429
95,0.05328792924819752,0.053673587961321136
96,0.05315947516226462,0.053449450429556684
97,0.053298933082178535,0.05405423769879874
98,0.05326151560533348,0.05319950681170518
99,0.053085485279815076,0.05322120370477364
100,0.05323046027294335,0.05327474148412496
101,0.05319127769499918,0.05288372178083614
102,0.053192376526392665,0.053118197276042056
103,0.05315214432701529,0.05329923292543397
104,0.05312951255314965,0.05383645610759039
105,0.053117692997068686,0.05333966097468626
106,0.05304212385529701,0.053633432007087374
107,0.05310768696408172,0.05397227078343444
108,0.053060228103137465,0.054476457386839185
109,0.052988861933534165,0.05324729829102237
110,0.05296798766058085,0.053503269404542655
111,0.05301021679122037,0.05312567597842098
112,0.052937125040833546,0.05336473806953016
113,0.052899104545828135,0.05266956377487916
114,0.05283960073715395,0.053802720640344595
115,0.05292731313754525,0.05316792522041733
116,0.052985107444909176,0.05299376297751372
117,0.05289723912632096,0.05329330174931817
118,0.05297434431913031,0.053759897102789014
119,0.05288190677745466,0.05333839636989326
120,0.052951866482788025,0.05321786389605283
121,0.05291406993119238,0.05282330177631923
122,0.052931057864668236,0.05255414141208008
123,0.05285672826220373,0.052785416559383236
124,0.05288387635960071,0.054423118541687354
125,0.05282991049754473,0.05329065587990929
126,0.052810977091617486,0.05357936352824159
127,0.05275647998125525,0.053481819330906455
128,0.05269847045563591,0.05378649226267344
129,0.05274472512922337,0.053009627966519916
130,0.05277107503738489,0.05347721315827914
131,0.05283122437510583,0.05406590919229884
132,0.05282345862339333,0.05378056781518992
133,0.052708729689225464,0.054027026468337916
134,0.05277999717149548,0.05344865163857529
135,0.0525806542199805,0.05281142926689413
136,0.05277092776243977,0.05272951062315747
137,0.05269804348582765,0.052990684933757075
138,0.05281576217913385,0.05320156241210164
139,0.05269699339383378,0.0536926667055776
140,0.05261662255690273,0.052772811206783315
141,0.05275562039959459,0.052690673077816406
142,0.05281667225119544,0.05357433863113595
