epoch,loss,val_loss
0,0.8025453559557597,0.801621679743131
1,0.8012712852425046,0.8012294615507126
2,0.8011167486773597,0.8009958302577337
3,0.801005983127488,0.8008705739577612
4,0.8009102063179017,0.8007723141908646
5,0.8008433623711269,0.8007560495138168
6,0.8008070082929399,0.800834461847941
7,0.8007783732016881,0.8006847212314606
8,0.8007476898564233,0.8007172130346298
9,0.8007310241328346,0.8011453077793121
10,0.8007175368335512,0.8008572838703791
11,0.8006973446607589,0.8006451408863068
12,0.8006935585339864,0.8006724594434103
13,0.8006819384760326,0.800623044292132
14,0.8006790458626217,0.8006017054319382
15,0.8006717989577188,0.8006917286316554
16,0.8006695314910677,0.8006105772654215
17,0.8006659620602926,0.8006323826710383
18,0.8006591333415773,0.8006549866199494
19,0.8006555747323566,0.8006057890256246
20,0.8006563441223569,0.8006767471234004
21,0.8006532187726763,0.8006065632104874
22,0.8006471523576313,0.8008187822500865
23,0.8006471128198835,0.8008027793566386
24,0.8006408134433958,0.8005957046747207
25,0.8006449159516229,0.8006508055925369
26,0.800641185508834,0.8005719689130784
27,0.8006418147087098,0.8006331781546275
28,0.8006419089237848,0.8005970832109451
29,0.800637233350012,0.8005898612737655
30,0.8006380990611183,0.8006061617533365
31,0.8006382190783818,0.8006403930981953
32,0.8006360760264927,0.8005779217084249
33,0.800631774769889,0.8006662869850795
34,0.8006369797786077,0.8006038293043772
35,0.8006285515096453,0.8005946212609609
36,0.8006331810553868,0.8005819435914358
37,0.8006320092413161,0.8005832190910975
38,0.8006331743664211,0.8006811945438385
39,0.8006327981683943,0.8006424988905588
40,0.800628022842937,0.8006068420410156
41,0.8006326157781812,0.8005798483689626
42,0.8006269186735153,0.800604133884112
43,0.8006265100770527,0.8005998525222142
44,0.8006204704443614,0.8005765761534372
45,0.8006276129616632,0.8005634367863337
46,0.8006248646974563,0.8006044376691183
47,0.8006215227444967,0.800568668961525
48,0.8006264188024733,0.8008249768416087
49,0.8006220967769623,0.800700407465299
50,0.800623019920455,0.8005611835320791
51,0.800619344221221,0.800585903565089
52,0.8006204826434453,0.8006584378083547
53,0.8006201669507557,0.8006542350451151
54,0.8006217446592119,0.8006831438938776
55,0.8006193573209974,0.8006185901959737
56,0.8006165519952774,0.8006090441544851
57,0.8006211707194646,0.800637121518453
58,0.8006188493039873,0.8006500071684519
59,0.8006185519165463,0.8005489596128463
60,0.8006122693353229,0.8006361199617386
61,0.800615451309416,0.8005691836675008
62,0.8006178554296494,0.8005893698136012
63,0.800613446937667,0.8006575544277827
64,0.8006150731113222,0.800603376309077
65,0.8006192464563582,0.8005849911371867
66,0.8006178249915441,0.8006286095380784
67,0.8006142421828376,0.8005537141561508
68,0.8006126116514206,0.8005877639055252
69,0.8006118458244535,0.8005645090341568
70,0.8006113121906916,0.8006909263928731
71,0.8006113425890604,0.8005953821341196
72,0.8006103363831838,0.8005792235136032
73,0.8006090852022171,0.8005657280286154
74,0.8006127260128657,0.8005758949518204
75,0.8006105048126645,0.8005433698495229
76,0.8006136277516683,0.8006876150767008
77,0.8006080325576994,0.8005932774543763
78,0.8006131423181958,0.8005427302122116
79,0.8006118704213037,0.8005869290033977
80,0.800610841208034,0.8006299994786581
81,0.8006062286959754,0.8006624244451522
82,0.8006100863483216,0.8005732022126516
83,0.8006073667075899,0.8005640454689662
84,0.8006096636719174,0.8006376436948777
85,0.8006090355979072,0.8005618478854497
86,0.8006067529784309,0.8005571327209473
87,0.800609479520056,0.8006854118108749
88,0.800610469089614,0.8005855249166489
89,0.8006092024246851,0.8006195018291473
90,0.8006076544390784,0.8006225206851959
91,0.8006087211370468,0.8007548694213231
92,0.800609277844429,0.8008956218957901
93,0.8006054892539978,0.8005689851442973
94,0.8006059182882309,0.8006618491808574
95,0.8006023586061266,0.8005876177549363
96,0.8006047124200397,0.8005831498305003
97,0.8006100007163154,0.8005579653978347
98,0.8006068204243978,0.8005539415280024
