epoch,loss,val_loss
0,0.779987419962883,0.7796949184338252
1,0.7788288966682222,0.7787037548621496
2,0.7787169365088145,0.7786797619263331
3,0.7786673894988166,0.7785723146994908
4,0.7786354817019568,0.7785895328124364
5,0.7786032500664393,0.7787180051008861
6,0.7785857741700278,0.778538996219635
7,0.7785870699087779,0.7787769091924032
8,0.7785720092720455,0.7785080107053121
9,0.7785641654332479,0.7785604975223541
10,0.7785585960812039,0.7785039829413096
11,0.778550632794698,0.7785875494480133
12,0.7785499488910039,0.7785171202023824
13,0.778551400701205,0.7785062737067541
14,0.778540078441302,0.7789326705535253
15,0.7785379588206609,0.7785277997255325
16,0.7785328916841083,0.778591038664182
17,0.7785322455300225,0.7785042636791865
18,0.7785330712265438,0.7786491583188375
19,0.778529962738355,0.7785551921526591
20,0.7785319059027566,0.7784970697561899
21,0.7785324948363834,0.778484433611234
22,0.7785281365580029,0.7784918288787206
23,0.7785254632631937,0.7785518113772074
24,0.7785231297678418,0.7785010125637054
25,0.7785227656364441,0.7784746241966883
26,0.7785224230421914,0.7785751963059108
27,0.7785205592579312,0.778570828517278
28,0.7785209601190355,0.7784783820311229
29,0.7785207754108641,0.7785148533185323
30,0.7785203101502525,0.7784906736214956
31,0.7785206475655237,0.778544027209282
32,0.7785152427620358,0.7785103478034338
33,0.7785187036328846,0.778500311255455
34,0.7785153221951591,0.7784889320532481
35,0.7785199360715018,0.7784813988208771
36,0.7785177387131585,0.7784884672164917
37,0.7785160826709535,0.7785023404359818
38,0.7785178454849455,0.7784882994890213
39,0.778515437550015,0.7784864377975463
40,0.7785137135187785,0.7785148452917735
41,0.7785161231623755,0.7785677942832311
42,0.7785138258139292,0.7784969975550969
43,0.7785156601137585,0.7786476868788401
44,0.7785123235517079,0.7784693567355474
45,0.7785108708937963,0.7785727743705114
46,0.7785159603357316,0.7785246965487798
47,0.7785151397917006,0.7784788884719213
48,0.7785123274988598,0.7784686836401622
49,0.7785128628147973,0.7784949129025142
50,0.7785104569594066,0.7784888469775518
51,0.778515088531706,0.7789465480248133
52,0.7785135200685925,0.7784734529654185
53,0.7785120239655177,0.7784783128499985
54,0.7785111608505249,0.7784850445191065
55,0.7785121142864228,0.7784680914084117
56,0.7785132961538103,0.7784858060280482
57,0.7785136890808741,0.7784751876195272
58,0.7785117995341618,0.7788230170011521
59,0.778510536260075,0.7784787735541662
60,0.7785147823890051,0.7785343103806178
61,0.7785109391874737,0.7784846319754919
62,0.7785092863374287,0.7785995457967122
63,0.778511194229126,0.7784672536849976
64,0.7785106139183045,0.7784780925114949
65,0.778511235051685,0.7785027156273524
66,0.7785129799842835,0.7784902456601461
67,0.7785097832812203,0.7785935706694921
68,0.7785077933602863,0.7784828749100368
69,0.7785080922709571,0.7785677491823833
70,0.7785114325417413,0.7784668473800024
71,0.7785091191132864,0.7785469247897466
72,0.7785051182243559,0.7784880163272222
73,0.7785111667050255,0.7784747074842453
74,0.778505018485917,0.7785037960211436
75,0.7785071576436361,0.7786142543554306
76,0.7785106920931074,0.7784926896095276
77,0.7785075293514464,0.778509942094485
78,0.7785063141187032,0.7785409910678863
79,0.7785057563251919,0.7784778387546539
80,0.7785041153033574,0.7784697043895722
81,0.7785094556278652,0.7784803865353266
82,0.7785089231861962,0.7784741186698277
83,0.7785041615565618,0.7785155694882075
84,0.7785052018827863,0.7784791187047958
85,0.778510008626514,0.7784582768281301
86,0.7785044716464149,0.7786537224054336
87,0.7785059335894055,0.778526527484258
88,0.7785027110179266,0.7785245374043782
89,0.7785069484445784,0.77847824994723
90,0.7785065087344911,0.7784816450277964
91,0.7785044910907746,0.7784721282323201
92,0.7785038734939363,0.7785002866586049
93,0.7785044326252407,0.7784632929166158
94,0.7785066490040885,0.7786060304641723
95,0.7785067422522439,0.7784630399545034
96,0.7785044528378381,0.7784675318797429
97,0.7785025392770767,0.7785333024263382
98,0.7785063881874085,0.778466710527738
99,0.7785023330582512,0.7784681386947632
100,0.7785052368905809,0.7784715652068456
101,0.7785040942033132,0.778523484190305
102,0.7785046913888719,0.7785744828383128
103,0.7785011609925164,0.7785155490636826
104,0.778505898780293,0.7785968543688456
105,0.7785057108799617,0.778548649986585
