epoch,loss,val_loss
0,0.72412952677111,0.7178977561647779
1,0.7175566837132616,0.7176038204884115
2,0.7173434007641271,0.7171995615840846
3,0.7172134505189608,0.7172331886906778
4,0.7170719447418767,0.716989188010876
5,0.7169831174774307,0.7171984776965442
6,0.7168896066262312,0.7166987153200003
7,0.7168188647453918,0.7169822760610367
8,0.7167755187483065,0.7171929668256131
9,0.7167180449445365,0.7168593886176646
10,0.7166606546910791,0.716603981442842
11,0.7166179443837897,0.7164745358911992
12,0.7165687022345982,0.7164617379013422
13,0.716556772446314,0.7164232272072406
14,0.7165119755678445,0.7165217890928756
15,0.7164901720852914,0.7163619163314403
16,0.7164676974377624,0.7164928715223118
17,0.7164867469445032,0.7166565912828847
18,0.716420001901352,0.7166142160484276
19,0.7164402164189398,0.716319423307556
20,0.7164141742289961,0.7162631415255903
21,0.7163994514541918,0.7165861702142815
22,0.7163821912092967,0.716294182027244
23,0.716364757692774,0.7164049308294103
24,0.7163432464142594,0.716429463420849
25,0.7163497983618138,0.7162609148262157
26,0.716340328699019,0.7163121869191342
27,0.7163219461330793,0.7164636353405178
28,0.7163299574647968,0.7162402696999959
29,0.7163309629643345,0.7162219050504434
30,0.7163086008518199,0.7161900914632358
31,0.71631364942542,0.716254361125435
32,0.716310651121128,0.7163145104945445
33,0.7162833487135111,0.7162386525357627
34,0.7162921764555563,0.7161846270040602
35,0.7162787070024894,0.7164636221772093
36,0.716269714575211,0.7161974381572259
37,0.7162730592247625,0.7163142946754436
38,0.7162743825005702,0.7162143554344367
39,0.7162732165683718,0.7163900711400337
40,0.7162668644286245,0.716634199104593
41,0.7162493682262941,0.7161736310563668
42,0.7162743257475392,0.7163458092041111
43,0.7162503829338231,0.7165403938175136
44,0.716247948578561,0.7161879082767306
45,0.7162459788336206,0.7162962796374527
46,0.7162348301595481,0.7163584293561893
47,0.7162477894522,0.7161576677788576
48,0.7162420957583634,0.7166037635235277
49,0.7162207140204208,0.7161938321205877
50,0.7162418133989004,0.7162035129206352
51,0.7162517478747457,0.7162156990384937
52,0.7162213651215524,0.7162622919153635
53,0.7162370293635575,0.7164957713548362
54,0.7162100704716733,0.7161582013217747
55,0.7162303137033951,0.7162369622486106
56,0.7162175756226137,0.7166291687979591
57,0.7162152557917906,0.7164190152738585
58,0.7162358264944805,0.7162845572526046
59,0.7162041133194852,0.7171611222380739
60,0.7162282188952713,0.71641989860582
61,0.7162315919946992,0.7161330871487374
62,0.7162088085091122,0.7161457922559222
63,0.716204187003135,0.7161563596713632
64,0.7162067821357756,0.7161833848314308
65,0.7162023801614649,0.7162068675528684
66,0.7162187486574207,0.7161392967103433
67,0.7162054431362561,0.7161798201187077
68,0.7161875217255708,0.7161672966356017
69,0.7161994876989805,0.7162480564626216
70,0.7161976923607913,0.7161115011861248
71,0.716202315337933,0.7162476449687191
72,0.7162010218135683,0.7161447999495135
73,0.716203755088163,0.7161035517605008
74,0.7161964175332317,0.7161595266746824
75,0.7162009539498926,0.7162988140032842
76,0.716201726159812,0.7162944264506583
77,0.7161853324142555,0.716085701899848
78,0.7161767254865112,0.7161651304282858
79,0.7161823213104378,0.7164925095756948
80,0.716181013119391,0.7162085431681081
81,0.7161883009252966,0.7162668626894134
82,0.7161856151941639,0.7161415258944774
83,0.7161728369896381,0.7161159079068944
84,0.7161710112823535,0.7164000923225365
85,0.7161949251224112,0.7161149794351375
86,0.7161793906781362,0.7161338526912717
87,0.716164969051104,0.7161006308962631
88,0.7161727319855661,0.7161262846170525
89,0.7161759073628485,0.716503115623228
90,0.7161559384492756,0.7161632072836827
91,0.7161760906044754,0.7164867672671751
92,0.7161674681549594,0.7165425066912441
93,0.7161674709269016,0.7160760944889438
94,0.716152347627753,0.716193995286454
95,0.7161632001378696,0.7163632522741559
96,0.716172375869881,0.7161028821770075
97,0.7161957045942827,0.7161082657927614
98,0.7161581687954318,0.7164249128502592
99,0.7161651706763711,0.7161254752066828
100,0.7161523211373256,0.7161054038823982
101,0.7161548352399597,0.7163687047532415
102,0.7161784949527142,0.7161207557020353
103,0.7161644766756087,0.716143191659421
104,0.7161534415825369,0.7161506383649765
105,0.716156534479158,0.7161642691633542
106,0.7161494602240236,0.7164615345356187
107,0.7161690126063515,0.7161466445579718
108,0.7161650760958744,0.7162781684629379
109,0.7161781538137206,0.7161225124269206
110,0.7161709068383495,0.716098869083537
111,0.7161471201250498,0.7161040837356529
112,0.716163018410004,0.7163609432523363
113,0.7161543814925907,0.7161132476761678
