epoch,loss,val_loss
0,0.4184807558178395,0.4153700155448677
1,0.4128385238261976,0.41170904003361025
2,0.41217274134540977,0.4116501819850789
3,0.4116858628137073,0.41167253032511575
4,0.4114147395175982,0.41070479602730897
5,0.41096718196006804,0.4135434788598612
6,0.410832669514998,0.4105181973861997
7,0.41056414057650575,0.4101200946211519
8,0.4105818897430121,0.4107094019577462
9,0.4103591024388145,0.40999225688631424
10,0.41023615177751993,0.41019280385734425
11,0.4101710660430854,0.41044715688778804
12,0.41004030935088537,0.409641177379168
13,0.4099698489184125,0.4104822685641627
14,0.4099475356651254,0.41211866100431965
15,0.410006720115732,0.41160030143136717
16,0.40986670461647706,0.4107130413019923
17,0.4098224319040667,0.41040374116033834
18,0.40988767403867216,0.4105119200705299
19,0.40980096440196545,0.40997463600807094
20,0.4097423249480032,0.40941476311636327
21,0.40973697291970296,0.4098601412388586
22,0.40973096514249546,0.40951159089138134
23,0.40968945440067084,0.4099038858123808
24,0.4096704939640675,0.4099423380406855
25,0.409664196494056,0.4103924707354742
26,0.409699033672322,0.40943197056318337
27,0.4096407311379115,0.41125066762526635
28,0.4097060416355208,0.4094272663072676
29,0.40960988559304,0.4093650357155291
30,0.4095887487014428,0.4096162384260381
31,0.4096128618428798,0.40940350699365585
32,0.40962479662444623,0.40931916170321386
33,0.40956870469142875,0.40952875342025946
34,0.4095556163551667,0.41014192999148785
35,0.4094856821199854,0.40927345465785514
36,0.40957618241915245,0.4100427955462974
37,0.4095050656019768,0.4121231589660455
38,0.40959050411309444,0.4094596776565902
39,0.409486517469683,0.4113942211378301
40,0.40950415636235077,0.4094542687495352
41,0.40951332671731505,0.41036959698714925
42,0.40950092286933665,0.409213712685753
43,0.4095053000318463,0.4093510213324213
44,0.4094647161355034,0.40940086579796103
45,0.4095077530507828,0.40944281908181995
46,0.40941526710271625,0.4098143650787344
47,0.4094771902645214,0.40923257767414634
48,0.40947311499798744,0.4099653166369824
49,0.40945507948212523,0.4091973269251972
50,0.4094086789128464,0.4090510479569731
51,0.4094349963158644,0.40915610547692843
52,0.4094536255578363,0.40936872999070595
53,0.4094122479883485,0.40917843238591556
54,0.40940905486874296,0.40963113884772023
55,0.40940575326830525,0.41116584132682005
56,0.40941223486382555,0.410279393639813
57,0.4093535743426296,0.4090860551995024
58,0.409407094458795,0.4091700139027967
59,0.40945070584567744,0.4093304498763593
60,0.4093462776754228,0.41048129035284736
61,0.40946066895085764,0.40916868250068306
62,0.40940942239916595,0.40982398637766876
63,0.40935508940031223,0.40915456405348577
64,0.409339660693325,0.4094108110917709
65,0.4094021251699191,0.40941759157121627
66,0.40936245281934136,0.40921808118855685
67,0.40938665369385213,0.41000217938837286
68,0.4093368418659774,0.40934430891763485
69,0.40935871743085916,0.40945432231976436
70,0.4093542281967716,0.409057093613201
