epoch,loss,val_loss
0,0.7226276168716151,0.7188580806142935
1,0.7189433118355198,0.7183597972907736
2,0.71847682846266,0.7180957631496875
3,0.7182786874921248,0.717905701744941
4,0.7180579866956067,0.7193812929962764
5,0.717896146077031,0.717815467057098
6,0.7177872367124254,0.7176134142035586
7,0.7177628784970661,0.7175636601211415
8,0.717630475221131,0.7175981557990422
9,0.7176024135766625,0.717620574984302
10,0.7175872651588588,0.7174319268456169
11,0.7175357029390406,0.717922297038748
12,0.7175126294352577,0.717653329940351
13,0.7174789171740698,0.7174591105274172
14,0.7174427362380728,0.7173299788837102
15,0.7173986442738034,0.7172750647843033
16,0.717424300514581,0.7175226917929448
17,0.7173622932435786,0.7173299955375141
18,0.7173490860577326,0.7176275766517033
19,0.7173552979603981,0.71723451874688
20,0.7173149058305479,0.7171544453346403
21,0.7172879456292091,0.7174204427018651
22,0.7172790563964309,0.7171431330534128
23,0.7172689798660435,0.7174097478833447
24,0.7172523964341342,0.7172782870735187
25,0.7172324374597959,0.7172623758280543
26,0.7172418892658876,0.717290690578243
27,0.7172114418627048,0.7175109520147811
28,0.7172140000024598,0.7170982222699054
29,0.7172129993471157,0.7174149305885542
30,0.7172077054132487,0.7171251899255416
31,0.7171729459952965,0.7171029312734865
32,0.7171882673068791,0.7170368749213869
33,0.7171837718414434,0.7174359259475254
34,0.7171952913262808,0.7170202051735398
35,0.7171501218826926,0.717159002146709
36,0.7171394691267428,0.7171207193997007
37,0.7171421173049219,0.7171065999911381
38,0.7171579759481057,0.7170519007938375
39,0.7171205864958109,0.7170179491895008
40,0.7171114130640224,0.7171020756288439
41,0.7171113943869379,0.7172403958240159
42,0.7171069857099543,0.7170343848966783
43,0.7171042838409752,0.717204788009227
44,0.717100676611038,0.7169599858170408
45,0.7171003876538162,0.7180304289455746
46,0.7170940306257008,0.7171737970844392
47,0.7171183850988593,0.7171871554171181
48,0.7170802552792714,0.7170948766597152
49,0.7170790667763329,0.7172978016046377
50,0.717096222324799,0.7177771323076253
51,0.7170943785572936,0.7181994951688326
52,0.7170819638013994,0.7170641821903863
53,0.7170673104474174,0.7169927130561904
54,0.7170658094730784,0.7173063568382642
55,0.7170679064646786,0.7170357537032949
56,0.7170435425705454,0.7173149520055236
57,0.7170679526008713,0.7170306944965429
58,0.7170625981299646,0.7172518963257669
59,0.7170470483769015,0.7169803654881328
60,0.7170209509902847,0.7170007033916028
61,0.7170289444234912,0.717157008985136
62,0.717033619185624,0.7170318165428881
63,0.7170352647813518,0.7175190995112246
64,0.7170258274944313,0.7169298805906518
65,0.7170179789113739,0.7170903779436874
66,0.7170232209813668,0.7170758730424545
67,0.7170231379177614,0.7169441477832368
68,0.7170200215172164,0.7169969576464101
69,0.7170167025479658,0.7172670637407611
70,0.7170004246852104,0.7169379522723537
71,0.7170167857346285,0.7169874674333236
72,0.717002513834281,0.7168990609959397
73,0.7170164532419804,0.7169948269948179
74,0.7169955253444886,0.7169580906555612
75,0.7170132185416648,0.7168882091051296
76,0.7169793698005834,0.7169206175555662
77,0.7169975300400385,0.7172953956772021
78,0.7170126185810517,0.7181847772586435
79,0.7169677568459195,0.7170933011152016
80,0.717005277346237,0.7169032006938167
81,0.7169790459511255,0.7169605098350468
82,0.7169713704006808,0.7170414204928774
83,0.7169959925437444,0.716922400932454
84,0.7169695293270237,0.7171308712982954
85,0.7169659217918101,0.7172045993449966
86,0.7169721636186719,0.7168965689005982
87,0.7169716456251931,0.7169588177139055
88,0.7169580136609035,0.7182842210859578
89,0.7170000197118755,0.7177205781487023
90,0.7169626150075882,0.7169118154433466
91,0.7169765404435632,0.7170450866666088
92,0.7169715803607063,0.7171964293673967
93,0.7169607884105055,0.7168947673613025
94,0.7169722780910484,0.7169932628979458
95,0.7169572789850057,0.717033562707546
