epoch,loss,val_loss
0,0.23973797804763963,0.23135824459362267
1,0.2287651831757339,0.22952627375463103
2,0.22712264442147723,0.2258131755862579
3,0.22639761142020232,0.22535423675630584
4,0.22592776882024662,0.22570571823983868
5,0.22571319934878045,0.22548771292045158
6,0.22530934199919775,0.2251865079178112
7,0.22514710733689572,0.22373474622630599
8,0.2247987786408186,0.22394886382904006
9,0.22464510132131135,0.22434690447510325
10,0.2245216267578207,0.22452723904519756
11,0.22447609416358064,0.22359299993988302
12,0.22437070867087658,0.2236953117933226
13,0.22418708745227234,0.22307451955290053
14,0.2240319171366341,0.22280830653666267
15,0.2239752537853701,0.22376256711577658
16,0.22386462528436196,0.22309579591153572
17,0.22378104504611626,0.22374598748482782
18,0.2238457635415998,0.22294850164548338
19,0.2235535600653138,0.22316528121679652
20,0.2236033549497512,0.223132793032206
21,0.22352270168048907,0.22262541906857314
22,0.2235415453724964,0.22294493214811936
23,0.22352660079972228,0.2274811334334887
24,0.22337701996366285,0.22500965512420049
25,0.22355821468136697,0.22300533695936794
26,0.22327635848476118,0.22293531686881043
27,0.22326604128704292,0.2224002167471585
28,0.22329195111655117,0.22263037541663971
29,0.22324497505058702,0.22289933704264997
30,0.22325151026334913,0.22232537492185314
31,0.2232505641929418,0.22292788982687162
32,0.22311117723768564,0.22255079102131628
33,0.22311441493574552,0.2224246684729905
34,0.2230968817348107,0.2230634419779032
35,0.22307624960193057,0.2240541971572871
36,0.22305826630905637,0.222602148668346
37,0.22308576138617714,0.22259371345007686
38,0.22305041484362087,0.22339723454071925
39,0.222979074225838,0.22238047526728721
40,0.2230444089858295,0.22320509702336996
41,0.22299426913066572,0.22298350249123633
42,0.2228806137437548,0.22282260017418684
43,0.22288364557206045,0.22298613222449945
44,0.22297725949687225,0.22263475660206958
45,0.22294055630259704,0.22228053058347394
46,0.22295381626301916,0.22220799614566727
47,0.2229018923605582,0.2222241725874302
48,0.2228734173204365,0.22323129811594564
49,0.22294078889686342,0.2220575171280144
50,0.22282980138300157,0.22313512644312222
51,0.22278827920809874,0.22232297469605286
52,0.22277230082257476,0.22240251963842594
53,0.22286064118954263,0.22252237711000086
54,0.2227483904602633,0.2225854966687801
55,0.22279488548875648,0.22367162172019334
56,0.2228333282745373,0.22245312358250394
57,0.22275538370846437,0.22202747331807393
58,0.2227077669771707,0.22379179724836468
59,0.22274069306065897,0.22223740175699183
60,0.22273649007081592,0.22228339671644917
61,0.2227130260497631,0.22210923942087898
62,0.22268453364871676,0.22220618580618212
63,0.22279364626002576,0.2220301582632822
64,0.22267567002761138,0.22265685205128294
65,0.2227857649461214,0.22263635787419586
66,0.22269848168954878,0.2228496502631947
67,0.22265533271314347,0.22217278870252463
68,0.22269616582909507,0.22257705052052776
69,0.22260530658530794,0.22240496305171076
70,0.2226778348890006,0.22322414705238627
71,0.222664464858652,0.2221417904048049
72,0.22268607185732273,0.2222920720763597
73,0.22263528821622522,0.22193731525843552
74,0.22268111831404858,0.22204528286794278
75,0.22259698614910586,0.22240122613628804
76,0.22261176118988943,0.2221263171795284
77,0.22269845722266288,0.2221586902591194
78,0.22264514125522591,0.222027985474312
79,0.22260803488200262,0.22215015360942253
80,0.22258216014647328,0.22271492371783955
81,0.22265989638539505,0.22230519908977206
82,0.22259352182978645,0.2217973933178497
83,0.2224835910806159,0.22212456678486345
84,0.2226181512288858,0.22229187005654755
85,0.22256484587197647,0.2270689500546633
86,0.222605845797081,0.22222282384376668
87,0.22259486247125176,0.2285727680321071
88,0.2226987234446738,0.22439159476579568
89,0.2225470212227005,0.22246498234070855
90,0.2225272546287606,0.2227001688394594
91,0.2225338347834296,0.22249828859535103
92,0.2225320693084999,0.22239556277064473
93,0.22252822377673023,0.22246461592004554
94,0.2225097020062848,0.2221146810439325
95,0.2225880352303598,0.22178642255053035
96,0.22247451458141246,0.22370850643508192
97,0.22250645871425,0.22295398622677284
98,0.22258222938685127,0.22187300193546428
99,0.22253279762013212,0.2233094531830132
100,0.22247368144536384,0.2230425832215373
101,0.2226162163606021,0.2218671705601529
102,0.22255977276660938,0.22219996410918885
103,0.22239264805578407,0.22195415243913164
104,0.2224835777220082,0.2233551551479264
105,0.22251059093930464,0.22288533509073424
106,0.2225225207047128,0.22618264383624861
107,0.2225807763620237,0.22935808945826205
108,0.22260030319972915,0.22193360736884787
109,0.2225149481801563,0.22200910011237077
110,0.22244658946574467,0.22187347562969767
111,0.22248675402044482,0.22214442669014187
112,0.22241583380587018,0.22467689854335549
113,0.2225166248975216,0.22215043728611902
114,0.2224574345206462,0.22223390816311092
115,0.22244017141585462,0.22240234770934575
