epoch,loss,val_loss
0,0.8192392596668667,0.8185757127602895
1,0.8186604186296463,0.8187828622659048
2,0.8186137255032857,0.8185013895432154
3,0.8185753398338954,0.8186198892196019
4,0.8185512627893023,0.8184864801963171
5,0.818529162870513,0.8184545999765396
6,0.8185144175158606,0.8184624173641205
7,0.818511873934004,0.8184527450005213
8,0.8184893905851576,0.8184481807152431
9,0.8184846759504742,0.8184356587727865
10,0.8184824818637636,0.818428586880366
11,0.8184754453367658,0.8184526205460231
12,0.8184770549005932,0.8184802324771882
13,0.8184699291918013,0.8184221644004186
14,0.818471718788147,0.8184422147274018
15,0.8184749894936879,0.8184740759531657
16,0.8184638609223895,0.8184223151206971
17,0.818462310022778,0.8184308444658915
18,0.8184616669019064,0.8184484371741613
19,0.8184580445157157,0.8184747098286946
20,0.8184602830939822,0.8184655671119689
21,0.8184594650533464,0.8184521528085072
22,0.8184575199153689,0.8184771332740783
23,0.8184574529197481,0.818516294002533
24,0.8184571858512031,0.8184215641419093
25,0.8184566336472829,0.818449929356575
26,0.8184541950093376,0.8185096811056137
27,0.8184572231902016,0.8184487682978312
28,0.8184559924734963,0.8185008598566055
29,0.8184544939067628,0.818425764520963
30,0.8184532500372993,0.8184264965057373
31,0.81845089744197,0.8184256956179937
32,0.8184500277704663,0.8184802368879318
33,0.8184527036481434,0.818416475256284
34,0.8184481486082077,0.8184506533543269
35,0.8184514800310135,0.8184281168778738
36,0.8184482460286883,0.8184229395389557
37,0.8184501302772098,0.8184417310158412
38,0.8184502223200268,0.8184190566937128
39,0.8184502514070935,0.818437438249588
40,0.8184468981689877,0.8184447519381841
41,0.8184467925760481,0.8184669282039007
42,0.8184471398327086,0.8184171013832092
43,0.8184481349123849,0.8184333887497584
44,0.8184472541809082,0.8184292952617009
45,0.8184474725988176,0.8184409333467484
46,0.818446208053165,0.8184456924200058
47,0.8184464452531602,0.8184299847284953
48,0.8184469569391675,0.8185968478918075
49,0.8184456555710898,0.818433441956838
50,0.8184469896819856,0.8184236965576808
51,0.8184478022919761,0.818434202671051
52,0.81844912870725,0.8185147684017817
53,0.8184459631972842,0.8184258515437444
