epoch,loss,val_loss
0,0.5619799027654527,0.5581033256154498
1,0.5581033056987742,0.557463332973698
2,0.557606226012484,0.5574427335493026
3,0.5575038010102136,0.5587936676465548
4,0.5574343385329259,0.557340644458979
5,0.5573413536613014,0.5572934233521114
6,0.5572825926587798,0.5575003965616818
7,0.5572629510915399,0.5571415159305922
8,0.5572149765868387,0.5573486336703336
9,0.557225808432024,0.557262569236992
10,0.557185720989418,0.5572217600517179
11,0.557169228590645,0.5571043905785894
12,0.5571451905850905,0.5574560086721226
13,0.5571481928729646,0.5574042407809653
14,0.5571431737202885,0.5570712664582889
15,0.5571425125623866,0.5570180877858297
16,0.5571218196031641,0.5570265521482558
17,0.5571114703078307,0.5570159126747927
18,0.5571089797067541,0.5569911506276568
19,0.5571082007271113,0.5571168653722437
20,0.5570975858672552,0.5570461193917703
21,0.5571004849330202,0.5571536848030374
22,0.5570913871545855,0.5575896569872021
23,0.5570758218750176,0.5570050320021863
24,0.5570818885985928,0.5574048520021936
25,0.5570765301835453,0.5570365309123662
26,0.5570885417291356,0.5571148255326908
27,0.5570723191774333,0.5573525414573347
28,0.5570594603601909,0.5570172633190013
29,0.5570619804886834,0.5572760644385004
30,0.5570604828219008,0.5571156436397183
31,0.5570727570267595,0.5569178025124978
32,0.5570281811392885,0.5569422983649942
33,0.5570372196443863,0.5575563122261843
34,0.5570423554939343,0.5571334167094739
35,0.5570444414624498,0.5569633567599446
36,0.5570118337910269,0.5569631827972071
37,0.557016104120172,0.5570349910714786
38,0.5570148300806518,0.5573422793123326
39,0.5570225701185875,0.556975878379481
40,0.5570166995032153,0.557018894267733
41,0.5570079853429595,0.5571931966481078
42,0.5570101657641814,0.5570491986889993
43,0.5570292869233395,0.5575874368251109
44,0.5570251777573098,0.5570687494266122
45,0.5570091948026958,0.5569566654212421
46,0.5570139553380589,0.5569082556528134
47,0.5570044334130319,0.557379481041106
48,0.5570092488942205,0.556953747870017
49,0.5570035266668917,0.5569935165622986
50,0.5570087983881464,0.5570034134772516
51,0.5569997520263201,0.5571842587615361
52,0.5570152735172479,0.5570138232287934
53,0.5570082689621811,0.5573613562891561
54,0.557020937875354,0.5569394839904445
55,0.5569922156362068,0.5572502383523189
56,0.5570084817746093,0.5573164649104362
57,0.5569997493166954,0.5569701294745169
58,0.5570034666063042,0.556913814621587
59,0.5570014623572311,0.5569163198210761
60,0.5570007715977635,0.5569251528744662
61,0.5570045281899467,0.5569073846559075
62,0.556999611817636,0.5569603339909915
63,0.5569984354421417,0.5569258001838665
64,0.5569954790798431,0.5570745202802843
65,0.556992756598784,0.556996344159318
66,0.5569971043569352,0.556966245174408
67,0.5570010127748748,0.5569023918573082
68,0.5569885894838598,0.5569145143179977
69,0.557001945370125,0.5568987393793338
70,0.5569998517341999,0.5570205688180758
71,0.5569889090917887,0.5572003140343035
72,0.5569919519885367,0.5569591663611438
73,0.5569930007829081,0.5569342243168549
74,0.5569849158006718,0.5572161455012433
75,0.5569892666873154,0.5571170932601758
76,0.556988356205285,0.5571274599129745
77,0.5569924390702062,0.5568958960750854
78,0.5569799789188289,0.5569509978034064
79,0.5569896969370711,0.55711666073456
80,0.5569980875010829,0.5569156582538898
81,0.5569815802873281,0.5569002542543057
82,0.5569890816266508,0.5571870196250177
83,0.5569923550252984,0.5570369078267006
84,0.5569795524633365,0.5569849281689665
85,0.5569963568941328,0.5569112112445216
86,0.5569794734203882,0.5569439422995518
87,0.5569879944210807,0.556968395615334
88,0.5569871206140381,0.5569413453118677
89,0.5569826197206759,0.556899927922573
90,0.5569797114051118,0.5569743806316007
91,0.5569884535301148,0.5569273431307034
92,0.5569763174159366,0.5569342212404862
93,0.5569822637193709,0.5569014318823519
94,0.5569821380487898,0.5569630258136589
95,0.5569697278113034,0.5569390033374058
96,0.5569776592560263,0.5569935791841512
97,0.5569812229197728,0.5572331662509341
