epoch,loss,val_loss
0,0.765644884314908,0.7631146330987254
1,0.762516497550452,0.7619903867652931
2,0.7621416224573022,0.7617443629884838
3,0.7616390754566591,0.761474821733186
4,0.761361093488997,0.761090075969696
5,0.7611227604504215,0.7607512664854083
6,0.7609816209877818,0.7610692349024505
7,0.7609087473035665,0.7607161169016627
8,0.7607695610315194,0.7606183637756272
9,0.7607261430341437,0.7605758895649212
10,0.760721035713355,0.760480405763716
11,0.760660423754737,0.7608932244274812
12,0.7606309075766099,0.7605874553211865
13,0.7605490905554705,0.7603431182522927
14,0.7605639207063531,0.761486671994401
15,0.7605561020127837,0.7603739892874403
16,0.7604927718288346,0.7603527049864492
17,0.7604783754987327,0.7604958105619729
18,0.7604814681026986,0.7614750728122058
19,0.7604599087293309,0.7602894821178824
20,0.7604263324013784,0.7607957646213749
21,0.7604768286903221,0.7606378166906296
22,0.7604229134844442,0.7603921319059935
23,0.7604189888079674,0.7609239042840584
24,0.7603641608324575,0.7602939925773564
25,0.7603743779714647,0.7602111801911821
26,0.7603658085698538,0.7603528286032286
27,0.7603409454673956,0.7601561747177067
28,0.7603954853944138,0.7601514998204063
29,0.760317291108418,0.7602580985715313
30,0.7603024432956726,0.7607338030640008
31,0.7603151333376078,0.7604182535602201
32,0.7602573662593596,0.7602084665677092
33,0.7602804785348353,0.7601087253383608
34,0.7602763575395384,0.7603732718427483
35,0.7602395298220327,0.7613936581919271
36,0.7602899419185579,0.7604563017341103
37,0.7602639632300701,0.7602779612647689
38,0.7602166423965029,0.7600938041216091
39,0.760251859831751,0.7600902005993108
40,0.7602372615221982,0.7602905400929321
41,0.7602253857023816,0.7601638982077095
42,0.7602560088533237,0.7616231634658265
43,0.7602085724769402,0.7601777944612148
44,0.7602902798620086,0.7600905250378933
45,0.760197424609839,0.7601283296166224
46,0.7602541483484625,0.7602298991260102
47,0.7601933981185224,0.7600109151220203
48,0.7601775428617779,0.7601792003321588
49,0.7602125645177644,0.7601193649893068
50,0.7601839764511883,0.7601644298870569
51,0.7602272413283406,0.7606929613697914
52,0.7601950114417124,0.7601817344317661
