epoch,loss,val_loss
0,0.6388732884724935,0.6371636693080266
1,0.6091065423091253,0.45566024698813756
2,0.45585184022453096,0.45563389553626377
3,0.45583729957871966,0.45579420900344847
4,0.45579250301917396,0.4556750875314077
5,0.45577241018745634,0.4567309089899063
6,0.45573860385682846,0.45557814025878907
7,0.45574416983789867,0.4555740220149358
8,0.45573228518830405,0.4556611387729645
9,0.45573392113712097,0.4557007508079211
10,0.4557096649209658,0.45558342383305234
11,0.4557047024501695,0.45558310427268345
12,0.4556894584496816,0.45622622871398927
13,0.4556920390592681,0.45559775952498116
14,0.45568323777781594,0.45566411429643633
15,0.45567484061585534,0.4555521816809972
16,0.45567471998267706,0.45555660740534465
17,0.4556638581554095,0.45555850710471474
18,0.45567445340421464,0.45556596541404726
19,0.4556668848991394,0.4555778512358665
20,0.4556660424272219,0.45582385156551997
21,0.4556567733883858,0.4555581322709719
22,0.455652627825737,0.45557156548897426
23,0.4556603135334121,0.4559628590544065
24,0.4556595926814609,0.4555961917638779
25,0.4556580413646168,0.4555558689037959
26,0.4556536686155531,0.4556051763296127
27,0.4556541060540411,0.45572215467691424
28,0.45564808085229663,0.45583846674362816
29,0.4556539192795753,0.455616128385067
30,0.4556559794412719,0.45573222706715266
31,0.455652266131507,0.455556581457456
32,0.4556515804131826,0.4555736529032389
33,0.45564847368664213,0.4556733194390933
34,0.4556519394119581,0.45594393054644267
35,0.4556412185165617,0.4555830036799113
