epoch,loss,val_loss
0,0.44970635216765936,0.44802010770638784
1,0.4470253139866723,0.44674959099292755
2,0.44667020457983014,0.4464374399185181
3,0.44652112158139545,0.44640851773818335
4,0.4464181336230702,0.44629268370072045
5,0.4463749869465828,0.44676340025663375
6,0.44635535261366105,0.4466436106959979
7,0.44632577445109684,0.446255628546079
8,0.4463249470724,0.44618764412403106
9,0.4463027649323146,0.44650289219617845
10,0.44629022157192233,0.44621713147560754
11,0.4462807701031367,0.44650959289073944
12,0.4462679614490933,0.4461639121770859
13,0.4462676079803043,0.4464576937158902
14,0.4462555482983589,0.4461991181174914
15,0.4462400356001324,0.44621580036481223
16,0.4462429727713267,0.4463245810071627
17,0.4462321912712521,0.44615621787309645
18,0.4462365752591027,0.44612649913628893
19,0.44623515018489623,0.44615593244632085
20,0.44622599679231645,0.44618639498949053
21,0.4462280345161756,0.44614330077171327
22,0.4462217030591435,0.4462909828424454
23,0.44621782136625715,0.44611740758021673
24,0.44620506042904323,0.4461496235728264
25,0.4462116641468472,0.4461114554405212
26,0.4462107537719939,0.4460971770087878
27,0.44620471928517025,0.4462669654687246
28,0.44619196608993744,0.44643107895056405
29,0.4461965326666832,0.44695169281959535
30,0.44619209158420564,0.446135068833828
31,0.4462011743982633,0.44641012175877887
32,0.44619181092580157,0.4460989734729131
33,0.4461954597168499,0.4461408885916074
34,0.44618533646398123,0.4461947780450185
35,0.44618964007165696,0.4461288272937139
36,0.44619382367531457,0.44609963301817573
37,0.44618897797001733,0.44610122722387313
38,0.446184451215797,0.4461936578551928
39,0.4461819466882282,0.44609247223536175
40,0.44618921336862777,0.4460793524583181
41,0.4461902334888776,0.4461240210135778
42,0.4461831365691291,0.44634538269042967
43,0.44618004519409604,0.4461231525739034
44,0.44617888093656966,0.4460948009292285
45,0.44618014429675207,0.4461245963573456
46,0.44616939755943086,0.44630833514531454
47,0.4461766342719396,0.4460961443781853
48,0.44617323164807426,0.4461244963208834
49,0.44617095386981964,0.44621201799313226
50,0.4461722866959042,0.44627099498113
51,0.44616895967059667,0.44614635660250984
52,0.4461753890911738,0.446058841586113
53,0.4461746468014187,0.44605778241157534
54,0.4461729885538419,0.4461673462986946
55,0.446162571767966,0.4464376728932063
56,0.4461669054892328,0.4463998771309853
57,0.44616936118072936,0.44610329327980675
58,0.4461636936002307,0.44613706177473067
59,0.4461603906088405,0.4464417368769646
60,0.44616367372539306,0.4465575344761213
61,0.44616100910637113,0.4463681170344353
62,0.4461682350370619,0.44614938002824783
63,0.44616266424126094,0.4460423326293627
64,0.44616200951072904,0.4463006032506625
65,0.4461548437608613,0.4460939445296923
66,0.44615940627124573,0.44640320058663685
67,0.4461598725583818,0.446131007373333
68,0.4461601704955101,0.446096184472243
69,0.44616084514723886,0.4461000059445699
70,0.44615600332948896,0.44605982226133345
71,0.44615972096390194,0.4460979748169581
72,0.44615877084599603,0.4460523367126783
73,0.4461544957955678,0.4461160640120506
74,0.4461600699490971,0.4460865534146627
75,0.44614708934227626,0.44617313202222186
76,0.4461507254905171,0.44624327164888383
77,0.4461615115205447,0.44607742577791215
78,0.4461613067587217,0.446084154744943
79,0.44614083274205524,0.4460476078391075
80,0.44615944429238635,0.4460526167949041
81,0.446157031291061,0.44610226889451343
82,0.44615262193812266,0.4460432123740514
83,0.4461520283023516,0.4460676309466362
