epoch,loss,val_loss
0,0.6721743933190026,0.6690559777373416
1,0.6688852031329908,0.6685749196828743
2,0.668522002760539,0.6683506960608527
3,0.6682217984433585,0.668049138118848
4,0.6681370346686364,0.668137651992495
5,0.6680689895790892,0.668054132721856
6,0.6680316851569484,0.6679922819137574
7,0.6679845094717072,0.6679640637142191
8,0.6679536519378309,0.6679712033449272
9,0.6679443557296719,0.6677855866718528
10,0.6679083214431409,0.6678231563224982
11,0.6678794630483088,0.6678168304800691
12,0.6678919829124004,0.6678387051776384
13,0.6678858045333542,0.6677723058104219
14,0.667855433862642,0.6680911535956428
15,0.6678583790354131,0.6677522320605389
16,0.6678383815938695,0.6686619628451894
17,0.6678333657929244,0.6677924496955966
18,0.6678329322766312,0.667774790628968
19,0.6678170394716662,0.6677615894573202
20,0.6678030248839099,0.6678492311804229
21,0.6678193242793076,0.6677436114540762
22,0.6677998190302513,0.6677208779171738
23,0.6677991610363392,0.6679810836060763
24,0.6677961167559866,0.6678171288878391
25,0.6678077404458129,0.6678583404266509
26,0.6677821803300577,0.6676799950765321
27,0.6677865832549063,0.6677341360016437
28,0.6677911473933552,0.6679836625200939
29,0.6677836309992471,0.6677725736911481
30,0.6677804657323752,0.667693110139435
31,0.6677752874572821,0.6676834351963205
32,0.6677697646110042,0.667787694723967
33,0.6677756245416989,0.6677741299491958
34,0.667765658476441,0.6676686024843316
35,0.6677649596046646,0.6676939995353925
36,0.6677670033109224,0.6677389510807861
37,0.6677503424444853,0.6677067933839841
38,0.6677562738792976,0.6676947660540824
39,0.6677572125430029,0.6677095477101821
40,0.6677525002255501,0.667688196409429
41,0.6677511208222521,0.6678721328231301
42,0.6677473032828386,0.668524752864175
43,0.6677479012287846,0.6677889186750274
44,0.6677484247211845,0.668106032127778
45,0.6677405328922007,0.6677882959765773
46,0.6677276552227541,0.6677704170383235
47,0.6677493792056274,0.6677153303368808
48,0.6677345478352164,0.6678285210659132
49,0.667740369348402,0.6677283437021317
50,0.6677306801003005,0.6677155413047847
51,0.6677393905120448,0.6677551050931585
52,0.6677423463316297,0.6678653205298904
53,0.6677331849531354,0.667715051126835
54,0.6677229143654985,0.6679147491384085
