epoch,loss,val_loss
0,0.7956161133232659,0.4903878703597904
1,0.4829372481012221,0.4817850525064986
2,0.48135537032317127,0.4816191804039386
3,0.48146477341651917,0.4817789125350095
4,0.48145794714452067,0.4818441971789959
5,0.48143183792284294,0.4817945033080818
6,0.48138876209271353,0.4817379137804342
7,0.48147954451021296,0.4816080717615379
8,0.48137535312687085,0.48251976338467856
9,0.48181907374421445,0.4821396303731342
10,0.48199491014160234,0.48192044977069826
11,0.481471211257215,0.4822503617105558
12,0.4821730948387806,0.4816980549069338
13,0.4816321420269111,0.4817857134711835
14,0.48139949023569584,0.4820220664490101
15,0.4815202214459116,0.4820962455845618
16,0.4816184420456258,0.48160470017167023
17,0.48158927781637323,0.48259349987488387
18,0.489249114457335,0.4866123915642731
19,0.48211253551857725,0.4816130769345187
20,0.4813771495831413,0.4817025594471037
21,0.4815399145433145,0.4816056446049565
22,0.4813739363229244,0.48160092174544816
23,0.4813669209178412,0.4816047572350317
24,0.48134009074179085,0.48339114239973613
25,0.4814164044013011,0.48161152906196064
26,0.4814196439984541,0.48171323052672455
27,0.4817736868094412,0.48323320395262664
28,0.4818010937797931,0.48312652827233304
29,0.48204649133891714,0.4877888299236002
30,0.48270291752285427,0.48227725749792055
31,0.48144870827056335,0.4818103054697199
32,0.4814482570772639,0.4817462059878564
33,0.4814904980573235,0.48160510539084445
34,0.48145429378024057,0.48247714952905046
35,0.48195975887991044,0.48205318053563434
36,0.48146350708734775,0.4816040405931399
37,0.481376310189565,0.4820207586122114
38,0.4824443963146949,0.48482871610064837
39,0.4868195206311938,0.48315578676009363
40,0.4819535558383902,0.48164626701857693
41,0.481384858681558,0.4816028489622959
42,0.48136338306643855,0.4816004148749418
43,0.4813548030779343,0.4815958615883376
44,0.4813967698304228,0.48161733219789904
45,0.48174514211425484,0.4816735666389613
46,0.48183254316179636,0.4827785473461299
47,0.48159889056701066,0.48189817958099895
48,0.48159840364172785,0.48163067070088644
49,0.481565595366234,0.48159408892771993
50,0.48136456761249274,0.48170688471128775
51,0.48137031884464493,0.4816375171491342
52,0.48146606200117165,0.4821748356948527
53,0.4816622637809093,0.48163553725841435
54,0.48141958862928147,0.4819531912027403
55,0.48197644879651624,0.4821147442788117
56,0.48170984130189093,0.4815956836985063
57,0.4813866917939149,0.48211036356844644
58,0.48157652265341705,0.4817240850407948
59,0.4815327206323313,0.4816068976886513
60,0.48169833313895133,0.4819417538106904
61,0.48151208826121744,0.4816929030325986
62,0.48159496220507364,0.48277325131172355
63,0.48264243836858783,0.4816974510056104
64,0.48147516749625985,0.4815973840480627
65,0.4812918906834082,0.4815906861493754
66,0.4817398574771191,0.48223113089568853
67,0.4820753080284257,0.48178581165712936
68,0.48148437625986046,0.4825117883756179
69,0.4815445698662938,0.48159175441246627
70,0.4814813230234831,0.48160842407581417
71,0.4820289561760826,0.4816940724849701
72,0.4816858842391376,0.4816329975922902
73,0.48218036444920287,0.4822803225166114
74,0.4814168166282565,0.4815894469272259
75,0.48144934135814044,0.48161883917889853
76,0.4818384203799935,0.48255973130233526
77,0.48171470092864616,0.4826422908971476
78,0.4818140491650702,0.4833276754663896
79,0.4816983118845819,0.482782358809035
80,0.481671007720691,0.48173632617144624
81,0.4817406121612519,0.48228872492331865
82,0.48166461285078555,0.4820954501628876
83,0.4814009801977981,0.4817880470623342
84,0.48161566827340335,0.4823953125827996
85,0.4815557244828197,0.4817706166311752
86,0.48178967325262323,0.4822734906229862
87,0.48167145044304605,0.4817497582398644
88,0.4815345182437305,0.4819915858350059
89,0.4818576689838439,0.4817674210829328
90,0.481454387037637,0.48183719132297725
91,0.48137220748019155,0.4815863260003023
92,0.4815471575087663,0.4817504804263743
93,0.4814675159232561,0.4816319600556248
94,0.4814807861966372,0.4817885950554249
95,0.4816566497780556,0.4815865595673406
96,0.48148996431082103,0.4821872357712236
97,0.48157313504576377,0.48158546034679856
98,0.4813792324343393,0.48158567797305973
99,0.481413731510325,0.4815954187119654
100,0.48149123518349896,0.48167419757029806
101,0.4815856160581574,0.4816645266011704
102,0.4814940403752241,0.4816495591355849
103,0.4819030121777409,0.48301120229469713
104,0.48143818550947715,0.4816403120987175
105,0.48165020716282747,0.48173568137856415
106,0.4816512654148023,0.48182958803435627
107,0.48142847680614287,0.4815840002640273
108,0.4815317041190096,0.48209398661473
109,0.48213635504399777,0.4816880736702172
110,0.4815195518562652,0.4815894286761912
111,0.4813646369972278,0.48158803697704344
112,0.4814217584231719,0.4824775711510533
113,0.4815221579807981,0.4817732900612114
114,0.4814095172155119,0.48208385405614396
115,0.48170880753864614,0.4822220058404198
116,0.4815044590207033,0.4818952025831208
117,0.48165357043576795,0.4816594073014666
118,0.48183779206694866,0.4818681875864665
119,0.48181564355081363,0.48158809080604437
120,0.4813833244395194,0.48158696016599967
121,0.48131257996386645,0.4819740507491799
122,0.4813976468811972,0.48234830415526103
123,0.4817075399003288,0.48179376379464023
124,0.48188128928805507,0.48161430044691694
125,0.4813149649967519,0.48158229621805887
126,0.4815706573715506,0.4816896106845649
127,0.48219258578864793,0.48257757203523505
128,0.4814785628817802,0.48224879212157673
129,0.4818803861313704,0.48215812860533247
130,0.48141528146211493,0.4815829384696576
131,0.48133628482350393,0.4819177130396052
132,0.4813990698458304,0.48219716502714527
133,0.4816375826064314,0.48194633412730786
134,0.4815197358297747,0.4817404520604037
135,0.48145064796280185,0.48161392710929696
136,0.4815243253874224,0.4815931010615918
137,0.48143823055949936,0.4840440228003864
138,0.48165579059327296,0.48162897450979364
139,0.48175518726809696,0.48219323597213093
140,0.48136450754579646,0.48173633864683696
141,0.4816717074977027,0.4818518094776213
142,0.48146714897734866,0.4825378734936086
143,0.48162136960399243,0.4816728613173315
144,0.48143783281015795,0.4816449247589407
145,0.4815805783105451,0.48159518029338627
