epoch,loss,val_loss
0,0.5627034204223059,0.5603014428917291
1,0.558305186334818,0.55783985841363
2,0.5578077348501499,0.5573715837954292
3,0.5575772602407848,0.5577852977712456
4,0.5574693202079458,0.5573315678400083
5,0.5574104610483807,0.5572258652291878
6,0.5573905710586429,0.5574112939183824
7,0.5573495375499682,0.557110019830557
8,0.5572604739825802,0.5574415929855839
9,0.5572619637074407,0.5572954347944141
10,0.5572202360867788,0.557422376684752
11,0.557214268526792,0.5570413413769554
12,0.5571866740957782,0.5571370274198262
13,0.5571750604272246,0.5581071583863819
14,0.5571595128876133,0.5571840199879914
15,0.5571584863042763,0.5570310076472186
16,0.5571394155472937,0.5571073284811773
17,0.5571405694680056,0.5569946717683494
18,0.5571405887911403,0.5570192519251821
19,0.5571101591452682,0.5572354438878763
20,0.5571171895305131,0.5586111552366252
21,0.5571155201058642,0.5569858347511765
22,0.5570857844039588,0.5571210587586718
23,0.5570961037253997,0.5569698443483774
24,0.5570918965127624,0.5569836471571816
25,0.5570763892672824,0.5569795376018023
26,0.5570712309692626,0.5570649139046965
27,0.5570583418933608,0.5571350986549339
28,0.5570659757171622,0.5570121107562895
29,0.5570652364013772,0.5573172892589427
30,0.5570764403675708,0.5569784252874312
31,0.5570606275000852,0.5569767543754862
32,0.5570663222872376,0.5569814479972234
33,0.5570574573188137,0.55727154347796
34,0.5570663807181061,0.5569682209130848
35,0.5570583132028918,0.5569670377239104
36,0.5570466163524086,0.5569652423669328
37,0.557047598685641,0.5569905687502537
38,0.5570393065634397,0.5570785850508337
39,0.5570394781548634,0.5570249935533509
40,0.5570523618998645,0.5570251912692049
41,0.5570504946576219,0.5569582684164307
42,0.5570237464783053,0.5570072145675016
43,0.5570484130134625,0.5569928505876224
44,0.5570370808437606,0.5573577593337218
45,0.557018697877885,0.5570111732329092
46,0.5570445345749372,0.5570147151686713
47,0.5570198794730554,0.5572651219427142
48,0.557018191913247,0.557124724163311
49,0.5570220857520645,0.5569723630957213
50,0.5570250039824097,0.5569462304967213
51,0.5570271208114604,0.5569950810437166
52,0.5570162720782532,0.556980438741206
53,0.5570191502006305,0.5569755345656913
54,0.557033476131763,0.5569332013650804
55,0.5570083614238853,0.5569744274574829
56,0.5570186032145614,0.5569677903693604
57,0.5570187378872495,0.5573921539943212
58,0.5570154328471266,0.5569882679518044
59,0.5570018935330712,0.5570871885893658
60,0.5570188736295885,0.557097435027139
61,0.5570132868235456,0.5570302485532264
62,0.5570078088820996,0.557136192866058
63,0.5570266193959944,0.5571907658139175
64,0.5570036716826946,0.5571798761784291
65,0.5570096118498347,0.5569332931236949
66,0.5570108025267836,0.5570957823071823
67,0.5570206719889894,0.5570959802300995
68,0.5570121473636315,0.5569734767707938
69,0.5570154856796816,0.5571835386546019
70,0.5570092078112611,0.5569730590354124
71,0.5570118766685704,0.5569602215852099
72,0.5570044987461468,0.5569199116886697
73,0.557018552477134,0.5570119291913717
74,0.5570052082844575,0.5569488994241056
75,0.5569977394014696,0.5573620973686426
76,0.5570030854713564,0.5570673819215363
77,0.5569979458125571,0.5570093569921205
78,0.5569848232466746,0.5569206173603352
79,0.5569965272336862,0.5569261597640461
80,0.5569946408773484,0.556957527958134
81,0.5569912390558983,0.5571766285387517
82,0.5569980070327221,0.5569170338048532
83,0.5569850357333167,0.5569712909220466
84,0.5569858478342764,0.5569073216790893
85,0.5569839257045814,0.5569617372884348
86,0.5569837300594206,0.5570876779982233
87,0.5570080501215282,0.5569840255801198
88,0.556986151440826,0.5569419671524843
89,0.556996013777547,0.5574723560816005
90,0.5569738471350734,0.556905383832993
91,0.5569860518725689,0.5577726055315647
92,0.5569964015875588,0.5571756649845587
93,0.5569776190084357,0.5581443044742934
94,0.556989289852832,0.5574700629149122
95,0.5569939120584997,0.5571011321124605
96,0.556989814790365,0.5570051655875837
97,0.5569744293746618,0.5569026388246427
98,0.5569806792333719,0.5569578933656659
99,0.5569790106464585,0.5576754092282752
100,0.5569826789553602,0.55691475862309
101,0.5569809290962701,0.5569343188560334
102,0.5569748619625042,0.5569201621169192
103,0.5569791865914248,0.5572395237444648
104,0.5569748814891565,0.557020374326493
105,0.5569828527247385,0.5569941225477839
106,0.5569868607022581,0.556959872210292
107,0.5569725317207271,0.5568974105359307
108,0.5569649302096937,0.5569038927111377
109,0.5569739747856131,0.556920835516293
110,0.5569745191922141,0.5569712895317646
111,0.5569763267674944,0.5569061748738916
112,0.5569750412268595,0.556903746110334
113,0.5569686971481471,0.5569076571216063
114,0.5569751615507632,0.5571498907529391
115,0.556966124263616,0.5569594510731567
116,0.5569641398504159,0.5569875403018506
117,0.5569717746523642,0.5569472743618873
118,0.5569843545052598,0.5570480099091163
119,0.5569730167932513,0.5569443276739002
120,0.5569732535836891,0.5571308836747636
121,0.5569651578836444,0.5570896817791846
122,0.5569689358956675,0.557146118799451
123,0.5569711437625877,0.5568955247218792
124,0.5569697828517883,0.5576783861475014
125,0.5569630228634274,0.5569364602453359
126,0.556971020597325,0.5569288243135211
127,0.556959389913748,0.5570301409394807
128,0.556968155731205,0.5570700046442283
129,0.5569648762656798,0.5570362636824103
130,0.5569569655237521,0.5569158449362288
131,0.5569631206307899,0.556890094664789
132,0.5569716496302,0.5570179455925158
133,0.5569654024621826,0.5568976324486081
134,0.5569554892397345,0.5569580311514899
135,0.556970110760556,0.5573975677821535
136,0.5569709683421922,0.5569024975483234
137,0.5569512037430014,0.5570193780563014
138,0.5569726965779248,0.5569253026403801
139,0.5569748754356892,0.5570008243875527
140,0.5569588952396074,0.5571801258967473
141,0.5569624392323461,0.5569398235742271
142,0.5569654270807208,0.5569619930411687
143,0.5569615602292923,0.5570129941769925
144,0.5569691491301187,0.556894364191344
145,0.5569530781959222,0.5569631685394212
146,0.5569574840252361,0.5571722322303071
147,0.5569641503315758,0.5568991997105903
148,0.5569562638058837,0.5569235393782112
149,0.556972155314804,0.5568860394783115
150,0.5569480227768714,0.5569699232690684
151,0.5569660052696765,0.5569098352202706
152,0.5569710641714037,0.5569739942515163
153,0.5569528007082619,0.5568771203161765
154,0.5569635266288125,0.5569536839466237
155,0.5569615406915964,0.5570638562254515
156,0.556962417914265,0.5569012054142822
157,0.5569535754100895,0.5571182691133939
158,0.5569580287481571,0.5569407565422153
159,0.5569734290687686,0.5571268661738034
160,0.5569509603603268,0.5569180463738832
161,0.5569583870670393,0.5569723059758359
162,0.5569515874447962,0.5582083161356431
163,0.5569548571548834,0.5568957404226582
164,0.5569580559958596,0.5569424679202418
165,0.5569513235013154,0.5569095564835125
166,0.5569471304473547,0.5569572784764595
167,0.5569589730811705,0.5569288646317002
168,0.5569462567641581,0.5568830515847313
169,0.5569794427972902,0.5569069828939793
170,0.5569439952924201,0.5569799482674516
171,0.5569493320896318,0.5568926752353128
172,0.5569504948034113,0.5569343308361233
173,0.5569482197235986,0.5570145248479346
