epoch,loss,val_loss
0,0.562410670791573,0.5598045214825765
1,0.558576455362197,0.5579427949548064
2,0.5580547546230038,0.5579552587741066
3,0.5578279382050305,0.5578478034317641
4,0.5577096045983557,0.557594402256438
5,0.5576194380464679,0.5574137295446088
6,0.5575245036483576,0.5573290690594808
7,0.5574241930447583,0.5577484956154457
8,0.4479378012824946,0.44662612428144544
9,0.44671882610846025,0.4465771939559255
10,0.44662592983722615,0.44642088274210323
11,0.44657538465000784,0.44652278710239873
12,0.44657346645972074,0.44641472070152055
13,0.4465643017089862,0.44643524182641475
14,0.4465123369805265,0.4464193636667048
15,0.44651936404519926,0.44643094740789524
16,0.44648365148972813,0.4464975074118479
17,0.44649297316678205,0.44672783917883785
18,0.44646636142476204,0.44668885374779144
19,0.44647056022573034,0.44637957395750005
20,0.44644641364271226,0.4466768474939739
21,0.44642939763360956,0.44723143184155445
22,0.44645593782654874,0.44636567150688644
23,0.4464116687506362,0.44655220649082666
24,0.4464339016546755,0.4462922718033897
25,0.44642269899596454,0.4470473344805223
26,0.44638804609781757,0.44628751862137844
27,0.44638943755046573,0.4464645114932995
28,0.4464054397931114,0.4462793638333493
29,0.4463907746686301,0.44631209022945567
30,0.4464127558173725,0.44629389961659166
31,0.44638874459884476,0.4464222061279098
32,0.4463868542707572,0.44626902239790034
33,0.44637427240240557,0.44633112882562076
34,0.44636965476641943,0.4462756047177847
35,0.4463590305605273,0.44629745984787383
36,0.4463721508766719,0.44678675714260885
37,0.44635143118642945,0.4463013795262235
38,0.4463666703735065,0.44654402828985645
39,0.44635924509417846,0.44624828937331734
40,0.44634809842767376,0.4464257925083265
41,0.4463471411255366,0.4463778032410529
42,0.44635390420570953,0.4462907945251938
43,0.44634879809616657,0.44651564491298
44,0.44634806920553444,0.44675056861884543
45,0.4463387768523787,0.44632493985202115
46,0.4463363557920264,0.446282994377406
47,0.44632434239663415,0.44645331790370324
48,0.44634195916503844,0.44621779227966707
49,0.44631729562703387,0.4462158310502102
50,0.44632680678219,0.44624294876756504
51,0.446328195322879,0.4463490853534443
52,0.4463239662092165,0.44675708019703847
53,0.4463512448703449,0.44621714939254686
54,0.44630692812554645,0.4465920319184476
55,0.44633975372889223,0.44644136414042773
56,0.4463082837058395,0.44621158808691624
57,0.446320915086174,0.44697128287320104
58,0.44633493557830906,0.4463160757982997
59,0.4463263696463588,0.44627962146444294
60,0.4463080567666823,0.4463836871364868
61,0.44631454074288596,0.4463156819047762
62,0.44631619149952206,0.44670364580142585
63,0.44631841140356554,0.4462115658424037
64,0.4463113994607287,0.4462437537408644
65,0.4463091883047895,0.4466219472382264
66,0.4462921528984023,0.446325200145357
67,0.44630785107185067,0.4463055525021281
68,0.4463160711618138,0.4462603003895904
69,0.4462988559538794,0.4462145076496134
70,0.44629812965139254,0.44622302192908064
71,0.44631349270894477,0.44662103895513944
72,0.44627824745606587,0.44618391305873767
73,0.4463085463264555,0.44622074253210064
74,0.44629877261063433,0.4462927424582299
75,0.44629975477387424,0.44618001491496934
76,0.4462936796102322,0.4468516363843203
77,0.44628830037012124,0.44653524886585644
78,0.4462884080853956,0.44636665835569866
79,0.44628277611972916,0.4464449894487414
80,0.4462899985645165,0.44645318033973275
81,0.44627686336752304,0.44638307499826396
82,0.4462900419650532,0.4462577076467036
83,0.44629302634100626,0.4469985526045854
84,0.4462899230862826,0.4463354848306765
85,0.446285063446099,0.4464762178899041
86,0.446280362199455,0.44621725242131993
87,0.44631780447405006,0.4462798753683975
88,0.4463019683262734,0.4462326024809191
89,0.44627752099265805,0.44644245909106345
90,0.4462715405940984,0.44699424471216226
91,0.4462722715849855,0.4462714559978646
92,0.4462641519641212,0.44629081069092
93,0.44628064731587247,0.4461797311051608
94,0.4462748545278644,0.4462607014563776
95,0.44628232207694396,0.44667811932102325
96,0.4462780827096986,0.4462292792187731
97,0.4462645047998588,0.44626167597013433
98,0.4462581126262934,0.44666952126966813
99,0.4462826451458564,0.44630185983908677
100,0.44626413893622974,0.44685759264837127
101,0.44629016335190286,0.44657862026697354
102,0.44627238180912787,0.44626476301744616
103,0.44626460682610447,0.44627611845657783
104,0.4462737351810965,0.44682806728791363
105,0.4462878345663025,0.44634234813543466
106,0.4462496491930969,0.4461976623712639
107,0.44626261424971614,0.44673572598260924
108,0.44626944684537084,0.44620311522010536
109,0.4462526596094509,0.44625431970686236
110,0.44626982875455357,0.44646401350610604
111,0.44626603296628786,0.4464694364047228
112,0.4462584588579616,0.44626181527935244
113,0.446268423587339,0.4461950407726297
