epoch,loss,val_loss
0,0.6718403633536852,0.6723114216593892
1,0.6687097540390617,0.6686969740515015
2,0.6684475928879067,0.6691488469504837
3,0.6682154079215993,0.6682111525358101
4,0.6681922073336554,0.6683305425916061
5,0.6681202254693739,0.6680085778236389
6,0.6680615683634095,0.6681349386944073
7,0.6680085441144873,0.6681727958376296
8,0.6679767176653456,0.6678702734540177
9,0.6679597132437343,0.6677957919040329
10,0.6679408858930911,0.6679312592996262
11,0.6679313868795781,0.6681377577130907
12,0.6679082551082143,0.6678386249554068
13,0.6679010986887385,0.6681046664862715
14,0.6678839537397565,0.6679405071303507
15,0.6678706485301789,0.6678797724525035
16,0.6678615946161117,0.6679155014584733
17,0.6678536252311208,0.6678105474109981
18,0.6678567920756491,0.6678430735621204
19,0.667834573080228,0.6678978597259995
20,0.6678338484776657,0.6680006915818965
21,0.6678393104484966,0.6678024102381382
22,0.6678317167776264,0.6677672291216129
23,0.6678269634529416,0.6677834179206167
24,0.6678245802216327,0.6677369272146864
25,0.6678105417592033,0.6677372423945822
26,0.6678140309930686,0.6679211644913363
27,0.6678172562692541,0.6677933661872637
28,0.6678319221253737,0.6677198146176397
29,0.6677865432494859,0.6677716882589733
30,0.6678099844812931,0.6678973082573183
31,0.6677997964823871,0.6677414754779996
32,0.6677970100391966,0.6677064759855531
33,0.667797102591616,0.6677389892691714
34,0.6678068482851055,0.6677966402422997
35,0.667786384714746,0.6679212482632242
36,0.6677943558935323,0.6677308964374343
37,0.6677937961071487,0.6678211242626086
38,0.667800094840863,0.6678416911780686
39,0.667773678173681,0.6677412850093605
40,0.667774570313879,0.6677695181470356
41,0.6677833663529205,0.6677805348602182
42,0.667766785179426,0.6677679356806923
43,0.6677733414308268,0.667815048345561
44,0.6677719721016533,0.6677292363519408
45,0.6677629172228493,0.66772701494747
46,0.6677659032616522,0.6677829397819178
47,0.6677621684766236,0.6679466106755562
48,0.6677799789646591,0.6677214605932495
49,0.6677609280214623,0.6678215841501581
50,0.6677577122743209,0.6677074146921522
51,0.6677618088396096,0.6677322786735838
52,0.6677425732009756,0.6680463264952818
