epoch,loss,val_loss
0,0.8882594764694687,0.5463080267573512
1,0.5338890312253967,0.5315068558205006
2,0.5312927684118581,0.5318101011505423
3,0.5314090225739688,0.5315092118211495
4,0.531339029933131,0.5317619831063026
5,0.5314161372431181,0.5315338881440865
6,0.5314265079892575,0.5321769903796588
7,0.5316910917752781,0.531950149887292
8,0.5364380765330884,0.5914216947185901
9,0.5366337014415159,0.5320898081905158
10,0.5312848490029959,0.5314981045649033
11,0.5315303215684817,0.5317291950070581
12,0.5313420844016458,0.5314532957335775
13,0.5314282232784794,0.533067712026049
14,0.5313348029319014,0.5328690026157586
15,0.5314995501700606,0.5314904737842175
16,0.5316471301924043,0.5337042979491774
17,0.5318033310178022,0.5314547336378763
18,0.5312791457471921,0.5316913959591888
19,0.5314322268007954,0.5322800846986993
20,0.5314815783685491,0.5321389621542406
21,0.5313762885347509,0.5317825471708016
22,0.5360116333308454,0.5563019546427468
23,0.5439552727903815,0.5315292768700178
24,0.5316775872417815,0.5314833734386651
25,0.5312210001070679,0.5315343732981719
26,0.5312326798451347,0.5315352932427281
27,0.5312190382363569,0.5314762241156527
28,0.5312639037460012,0.5314405250918958
29,0.5312799523351113,0.531449789224669
30,0.5312938486882882,0.5314370158106781
31,0.5312586545328145,0.5314740968305011
32,0.5313218309897785,0.5317509941352431
33,0.5314051325623071,0.5315355543018312
34,0.5312442197356113,0.531482738117839
35,0.5312007374541704,0.5314371165379074
36,0.5313758888601948,0.531559569891109
37,0.5312719953460595,0.5314570702323618
38,0.5312106395260616,0.531535780707071
39,0.5313837737692111,0.5328201402065366
40,0.5314267963093997,0.5314961690311284
41,0.5315069548535408,0.5318459286246189
42,0.5313291233947419,0.5314815404803254
43,0.5313645917007781,0.5319001850231674
44,0.5316758918207746,0.531435161597969
45,0.5312816927291318,0.5317361442617667
46,0.531268325732968,0.53175115539122
47,0.5313386522830302,0.5318404731824417
48,0.5314569080522819,0.5319191143494244
49,0.5318471481325706,0.5314581828523975
50,0.5315569207957856,0.5353537109471107
51,0.5316513308566978,0.5321910954261011
52,0.5325939281042232,0.5318439764569897
53,0.5315656218417856,0.5315613506376281
54,0.5313434300496597,0.5320036933403607
55,0.5316632775065203,0.5314348187557486
56,0.5315343732981719,0.5328006490256435
57,0.5317182761138107,0.531942510789679
58,0.5314625971385059,0.5314398463382277
59,0.5318871896704346,0.531479211278664
60,0.5312704169781017,0.5315472959548004
61,0.5314084849000286,0.5316627658614816
62,0.5320317976234495,0.5317196693531302
63,0.5318957083601052,0.5318593576897023
64,0.5313922453296277,0.531631024308907
65,0.5313789531858084,0.5317780786706495
66,0.5314763907622305,0.5316984048185422
67,0.531986324824104,0.5330356724502504
68,0.5317936997080959,0.5317881906679435
69,0.5318322896341329,0.5321473497752995
70,0.5314775528217779,0.5314405962478282
71,0.5312591030308135,0.5324058528094329
72,0.5315012773186045,0.5315132016359374
73,0.5311970610643234,0.5316516142482905
74,0.5313205007434816,0.5314868540726891
75,0.5312203718710315,0.5314336885777555
76,0.5313416911958108,0.5319400702336038
77,0.5313080507655477,0.5316637560378673
78,0.5313167173117014,0.5314392345820287
79,0.5313048439740519,0.531639788039895
80,0.5317103348345104,0.5319950922515041
81,0.5322446410354101,0.5335431274517562
82,0.5327565768584417,0.5314319397127906
83,0.5312680140022159,0.5314408891884855
84,0.5311722180948085,0.5314342023790345
85,0.5312470907696766,0.5317189855168957
86,0.5312892138495926,0.5314975893774698
87,0.531351629461737,0.5314410522926686
88,0.5313395719195522,0.5314516503681508
89,0.5315102820864636,0.5314331641492918
90,0.5313166062653218,0.5315166295960893
91,0.5312034507746536,0.5317198680352795
92,0.5312289786585234,0.5318163605623467
93,0.531757370908131,0.5315670241681181
94,0.5313571865552463,0.5315041260201802
95,0.5313244455852558,0.5314326960911122
96,0.5313502132738591,0.5319369218146154
97,0.5316853179796106,0.5315269753914471
98,0.5314620411365223,0.531611632007037
99,0.5312962008385079,0.5314606548279754
100,0.5312505053303347,0.5315591873124589
101,0.5322729587862965,0.5318561482799146
102,0.5325768174127091,0.5316953732985858
