epoch,loss,val_loss
0,0.6795349252008345,0.5048256770584935
1,0.5019241759327339,0.501711110273997
2,0.5044676164015935,0.5021913809369701
3,0.50319567268825,0.5025395607763483
4,0.5014077711474988,0.5015549096026162
5,0.5013246456165954,0.5015793026879777
6,0.5019766110782475,0.5016620223836381
7,0.5055175043199721,0.5022656483243603
8,0.5015868432146018,0.5020261605580648
9,0.5013920601640253,0.5020071249599605
10,0.501567855207803,0.5017336546912674
11,0.5090459953290856,0.5046090368152589
12,0.5017760850354375,0.5017360721447671
13,0.5013224950748513,0.5023003580958344
14,0.5012897440937446,0.5015615589858949
15,0.5013746631545922,0.5020048100818959
16,0.5013724326779369,0.501543382803599
17,0.5016579338438443,0.5021812241206798
18,0.501549687958503,0.5015586720880612
19,0.501609074823,0.5024022566255673
20,0.5014661678356102,0.5017102758089701
21,0.5076199899348177,0.517289631126463
22,0.5031496720720631,0.5019732016001561
23,0.5013941669648931,0.5015338663907014
24,0.5013785363783824,0.5018039886341539
25,0.5016066501306933,0.5020328348921251
26,0.5016276941126939,0.5020854209744653
27,0.5015215484054821,0.5015480467515399
28,0.5028333215750465,0.5017551530239194
29,0.5018349420808699,0.5015473559845326
30,0.5014052512725811,0.5015529297118964
31,0.5012890425455354,0.5019129149673521
32,0.5015277138668129,0.5016611361688421
33,0.5014409047072556,0.5021222742028939
34,0.5015207302662753,0.5018380871114805
35,0.5026248802818377,0.5036798105683438
36,0.5068436683918462,0.5024208962455277
37,0.5014152805626546,0.5015576735947483
38,0.5013597977253818,0.5017639865246855
39,0.5015315408854522,0.5016228311745695
40,0.5013706175855888,0.5015337185342182
41,0.5014366245701023,0.5015872883242231
42,0.5013444573072192,0.5015350940615632
43,0.5013777173150725,0.5015801320704378
44,0.5015194138815237,0.5015437894089277
45,0.5016284364754532,0.5027398573335751
46,0.5033898737079413,0.5035603157309598
47,0.5016604925310889,0.5015308588974235
48,0.5014397166188065,0.5015894682832467
49,0.5014521729114444,0.5015329104061275
50,0.5014091346615045,0.5018369597057963
51,0.5016018372481491,0.503384067568668
52,0.5020356855959239,0.5025923510854559
53,0.5015559173369593,0.5026996750240178
54,0.5017260842853122,0.5040250780970551
55,0.5016520078792128,0.5016798820606497
56,0.5016098250406349,0.50260467261307
57,0.5035161123411291,0.5032525945079419
58,0.5015297693799633,0.5016096155772838
59,0.5015046066708035,0.5024292228757873
60,0.5014329893028397,0.5017794832702756
61,0.5016859052101155,0.5017925523972326
62,0.5015784728434659,0.5044321949167769
63,0.50292850218386,0.501639701137247
64,0.501340266962076,0.501526228679243
65,0.5012988970261212,0.5015507150990094
66,0.501615391837226,0.5031722654667936
67,0.5019714293245814,0.5016809128975683
68,0.5015842039763774,0.5024856754051622
69,0.5017239882656462,0.5015698994776999
70,0.5014854085845849,0.5016072364740594
71,0.5021052050960156,0.5022387606228969
72,0.5016387681012314,0.5015804494998252
73,0.5014031648019796,0.501530529454697
74,0.5014455892934971,0.5015471975008646
75,0.5013757428149537,0.5021346035853836
76,0.5046849019767702,0.5042999151141144
77,0.5021132055179093,0.5015821577042572
78,0.5013230846525779,0.5015351069990055
79,0.5014504610106002,0.5030668599661007
80,0.501763779525609,0.5020489392354507
81,0.5018133066729366,0.5040265732957411
82,0.5021219898871981,0.5026477469030277
83,0.5017824670449091,0.5023065491240154
84,0.5013612022079547,0.5015283056007799
