epoch,loss,val_loss
0,0.6048241106271743,0.6021528089443843
1,0.6023759143220053,0.6021569428841272
2,0.6019407442145878,0.6016090213457743
3,0.6016832879516814,0.6016203089555104
4,0.6015534612735113,0.6014376046260198
5,0.6014848773082098,0.6012492243448894
6,0.6014408274756537,0.6013537403742473
7,0.601403415189849,0.6012098905245463
8,0.6013926511605581,0.6014086754719417
9,0.6013621576892005,0.6015069505771001
10,0.6013412852419747,0.601643971045812
11,0.6013291056023704,0.6013885324796041
12,0.6013208161327575,0.6013860083818435
13,0.6013065638542175,0.6012886490821838
14,0.6013080592287912,0.6012044665018718
15,0.6012855915360981,0.6011510289907456
16,0.6012900163332622,0.6011955551703771
17,0.6012726965612836,0.6012346785863241
18,0.6012746198574702,0.601194136540095
19,0.6012762944830788,0.6012501886288325
20,0.6012702762418323,0.601211130340894
21,0.6012630223698087,0.6012262038389842
22,0.6012567380269368,0.6015121279557546
23,0.6012564506265852,0.6012163857618967
24,0.6012511812845865,0.6013677614132563
25,0.6012426424688763,0.6011915226777395
26,0.6012451645400789,0.6011051283280054
27,0.6012481304274665,0.6014277367989223
28,0.6012478695180681,0.6013528573513031
29,0.6012494816117816,0.6013143668572108
30,0.6012382580571705,0.6011742578744889
31,0.6012525745365355,0.6011416246891021
32,0.6012424904902776,0.6011289723316828
33,0.6012387590408326,0.6011323540210723
34,0.601238623936971,0.6011555134852727
35,0.6012388476663165,0.6011333348353703
36,0.6012426086001926,0.6011276603539785
37,0.6012342262003156,0.6013217691580455
38,0.6012359319395489,0.6010888649622599
39,0.6012311316993502,0.601125861565272
40,0.601241651919153,0.601196165839831
41,0.6012232282426622,0.6011931409438451
42,0.6012362362278832,0.6013017111221949
43,0.6012265751891666,0.6011172196865082
44,0.6012239876058366,0.6011667035420736
45,0.601226729883088,0.6012265885273615
46,0.6012208940320545,0.6012323087851207
47,0.6012282957500882,0.6014610632260641
48,0.6012299924161699,0.6011115621328353
49,0.6012243877516853,0.6011849831342697
50,0.6012274896568722,0.6014556739330291
51,0.6012175192965401,0.6011498291095098
52,0.6012280739810731,0.6011808377901713
53,0.6012196640173594,0.6011596564849218
54,0.6012185192108155,0.6011932189861934
55,0.601232524143325,0.6011431301037471
56,0.6012182533608542,0.6012920895814896
57,0.6012256087727017,0.6013638122479121
58,0.6012177906566196,0.6011263238986333
