epoch,loss,val_loss
0,0.08188440178121495,0.004553299960355426
1,0.0031981319748587153,0.0032123080869891152
2,0.0024506203031278086,0.0030793570263614486
3,0.002433162577689724,0.0030790380267209784
4,0.002433725608210741,0.0030894028131178645
5,0.002445036733104277,0.0031213830414682973
6,0.00243319389777311,0.003078049633565337
7,0.002443596150651478,0.003077900383708089
8,0.002440022573582539,0.0031517344119041694
9,0.002450442006294098,0.003079481947221324
10,0.002443797510954761,0.0031872909667706767
11,0.002451361788410299,0.003116174563115766
12,0.00245876291535737,0.0031502839546044205
13,0.0024344260986047276,0.0030810034539651616
14,0.0024325850397740665,0.0030966361658828147
15,0.002430537650277429,0.003133521924271833
16,0.002434207224864657,0.0030894618781009153
17,0.002430335376098829,0.003092233297350102
18,0.0024504831803178065,0.003113106914702081
19,0.0024590548358012945,0.003342174273345244
20,0.002443943898559329,0.00307924449786746
21,0.0024424318295785583,0.003101816907156865
22,0.002458209967847134,0.003074737540049146
23,0.0024430324416427128,0.003169326556579376
24,0.0024741366087490313,0.0031279570913996346
25,0.0024515211018757747,0.003081629577980832
26,0.0024695536873762997,0.003099301080002861
27,0.0024556369248185626,0.0032012303460880304
28,0.0025115508800649233,0.0033992026614877145
29,0.002492862988506427,0.003072571217862153
30,0.0024597541482045825,0.0031030662141220515
31,0.0024893475285531516,0.0030715610189435555
32,0.0024583819639647634,0.0031546497990037926
33,0.002446289374300541,0.003087448440817033
34,0.002465217034344487,0.0030938484633789044
35,0.0024805650744768874,0.0031697553322585516
36,0.0024934239403972794,0.003070391730816905
37,0.0024430148555591546,0.003123215311242975
38,0.002479743955624398,0.0031551221302573303
39,0.0024629537356374858,0.003280718441756601
40,0.0024400631667328976,0.003072543840407748
41,0.0024417841419558345,0.00307123746376398
42,0.00244426003188612,0.003127228232216119
43,0.002584055300293014,0.00307110588015743
44,0.0026343303292782772,0.0031760058838643077
45,0.0024628717670679206,0.003078961031522255
46,0.0024982151275775,0.003210439633708014
47,0.0025457546415134725,0.0030664204035040945
48,0.002464086309018802,0.0035449286919202686
49,0.002531565706250414,0.0030644781528358428
50,0.0024747778375775044,0.003078316879826923
51,0.0025035178572184935,0.0031872351884899676
52,0.002534326330460223,0.003095913073769951
53,0.002443002924643149,0.0030840934153155302
54,0.002464659189268735,0.003061477374646437
55,0.00250118856350783,0.0034081055340537615
56,0.0025067502973861126,0.003060598919067041
57,0.0024294611451622745,0.0030727312573441126
58,0.0024425015412992976,0.0031847961990581464
59,0.0024831791783476043,0.003087485831794004
60,0.002458978386430999,0.0031101225650609406
61,0.0026476663355029717,0.0030587575327994864
62,0.002570086025851911,0.003074021457672812
63,0.002444340777944398,0.0031246722760689695
64,0.0024359719397606043,0.0030699142493134323
65,0.0024939185820305743,0.0031406638291917107
66,0.002525323277245485,0.0030681405111771913
67,0.0024882624147204773,0.003361362635425126
68,0.0025585187004652904,0.0030676461381714992
69,0.002468955446183874,0.0031490936070362957
70,0.0025175484826846064,0.00308795185947372
71,0.0024803211134605744,0.003146233412530995
72,0.00255118055811792,0.0031532245587066626
73,0.0025390839238485048,0.0030574101698404364
74,0.0024731096239142044,0.0030585637166301986
75,0.0025234030531382417,0.003060754338033902
76,0.0024786118110545576,0.0033668558142155177
77,0.002448028594090601,0.003067308284212337
78,0.0025803433535367885,0.0032875746336960515
79,0.0025611993729182606,0.0031788333349810666
80,0.0025676874117805436,0.0030809575394012555
81,0.0024640621889372976,0.0031192090647482826
82,0.0024512809402254007,0.0034647668394180695
83,0.0026421582904459008,0.0031195358213492084
84,0.0024681885116697513,0.0032512723619854728
85,0.002539272641357593,0.003371364653630312
86,0.0025198726860074763,0.003098749041254091
87,0.002518106495915823,0.0031219306365810624
88,0.002447710161937223,0.003052351809496623
89,0.0024631223542067085,0.0030531903165717457
90,0.002472951659302225,0.0030512058360198904
91,0.0024294377092839983,0.00332764409078184
92,0.0025249038063692416,0.0030932025659049667
93,0.0024873129292499532,0.0032210581233840466
94,0.0024920194124013607,0.003077440585601757
95,0.0025521493291251304,0.0030393136815030793
96,0.0025194389889984167,0.003054000363259237
97,0.0024931629534897417,0.0034240176901221275
98,0.002533123377098122,0.00317339146827427
99,0.0025087900728845212,0.003169547382005772
100,0.002421755591546996,0.003052571983358195
101,0.002446708510971558,0.003274468410861238
102,0.0025012434625069223,0.003038690889311969
103,0.0024890143078937165,0.00315659198650094
104,0.0025571212978691862,0.0032964674286659838
105,0.0026001430032967328,0.003907124019162946
106,0.002533074870262805,0.003980928421915732
107,0.0026975257174191316,0.003225724575607929
108,0.002516970363895599,0.0030392527854604316
109,0.0025100132401729394,0.0030952938597707093
110,0.002454421420410776,0.0032693422958976768
111,0.002471021951708067,0.003374587536912209
112,0.002573716418110123,0.0032123387917558583
113,0.0025498247506862233,0.003033669492186502
114,0.0024187435132501894,0.0030586994722370028
115,0.0026856957717006904,0.0030475784681535277
116,0.0024829752743544984,0.0033709267082140427
117,0.0025692551808301793,0.003359269395889353
118,0.002430228428320733,0.003184221271613194
119,0.0024460490667549965,0.003131026184626732
120,0.0024544132860781728,0.00304539539028219
121,0.0024163551957681003,0.003360302631505007
122,0.00260937967017601,0.003049909972852861
123,0.002538587121011386,0.0030854714695046576
124,0.002437947124834786,0.0031507963498751093
125,0.0025044764336126374,0.0030340681217119908
126,0.0025095918867977705,0.0031835123853281486
127,0.0025139582260374645,0.003106831630706325
128,0.0024731807162244,0.0032631199889953514
129,0.0025995716167426155,0.003422469838320227
130,0.002706167116058504,0.003073308476095283
131,0.0025801908020868665,0.003025697387191792
132,0.0025436151002651655,0.0030942196892791017
133,0.0025492051669856104,0.0033891504727910425
134,0.0024666327577642613,0.0031590602241543145
135,0.002515278145964486,0.003056562736688196
136,0.0024346010821139877,0.0034583900268225706
137,0.002505758343786675,0.003241890191295466
138,0.0025890282498436767,0.0030637729024991047
139,0.002470832762972618,0.0030835993658361394
140,0.0024689897363620403,0.003019117297200385
141,0.0024718253731003236,0.0030908190420568856
142,0.0025444176476400646,0.00313330966755459
143,0.0025767254888607086,0.0030206274015597942
144,0.0024308975219235634,0.003017943597925726
145,0.0025827845526036133,0.0030201499430686524
146,0.0024132232809829157,0.003450938229730656
147,0.0026143200127576364,0.0030747620522427236
148,0.0025612984986095005,0.0032053605216562516
149,0.002517531993973384,0.003016435266869475
150,0.002456893974154687,0.003397057434839969
151,0.0025080595558355213,0.0031110199850572402
152,0.0024487225574053805,0.003024237586885633
153,0.00242562599790593,0.003094795765535718
154,0.0025889989775569403,0.0030638867007323012
155,0.002505205323479261,0.003177814418449998
156,0.002503476638373382,0.003045440498060843
157,0.0024943640515766555,0.0036657857582290737
158,0.002494644606485963,0.0031056190812021726
159,0.002403825197190778,0.003424142404322245
160,0.002578517112842441,0.0031841758678327926
161,0.0025340808752216688,0.0030527430236368448
162,0.00243612362230702,0.0030774292337542126
163,0.0024850631929279453,0.0030119506553782857
164,0.0024359950648972077,0.003030784523778761
165,0.0024200084908607895,0.003020791733067107
166,0.0024361342010605666,0.003197072726284522
167,0.0025711782951658778,0.0030326444895707014
168,0.002485760471372064,0.0030231671480014342
169,0.002468002208349721,0.003009990000259853
170,0.002591843372066469,0.0031420097103371293
171,0.0024352924499988016,0.0031980939350242533
172,0.002495243986563165,0.003109232763499888
173,0.002471986045045369,0.003010197760096874
174,0.002436617838738616,0.0030112536678220643
175,0.0024145680267029282,0.0030787870849215593
176,0.0027316164761391837,0.0030682710768265087
177,0.0024291496950704654,0.0030064009682297015
178,0.0024136211452355913,0.0030121624744100166
179,0.0024201910714474473,0.003027163043459372
180,0.0024303853269955216,0.0031238671833497666
181,0.002473027342196448,0.003162354238100292
182,0.002478090850082864,0.003038438191355834
183,0.0026775963245879004,0.003143911895183341
184,0.0025357624185897254,0.0030028021500929612
185,0.002423628698132008,0.003131492339551102
186,0.002509465744629868,0.0030602836591559785
187,0.0026237123338409365,0.0030124405229305343
188,0.002492339443836544,0.003053691901461503
189,0.002514541561556475,0.0032088776351884007
190,0.0024479744993198362,0.003041081848850315
191,0.0025452560593569,0.003267289446161468
192,0.0025794386120094348,0.0030105528250235574
193,0.0024446610885357017,0.003384450026390742
194,0.0025350517884813713,0.0030004587917870215
195,0.0024625295872417415,0.0030171788936524196
196,0.002609248982696705,0.003011090432784643
197,0.0023976630977660574,0.0030060909361787893
198,0.0025109558479646243,0.0030058514400811273
199,0.002432198480291422,0.003112912742067273
200,0.0026138499499483935,0.003006226785639806
201,0.00246513159331945,0.0030062166475799193
202,0.002473771218054035,0.003253099109703141
203,0.002469620048471556,0.003060464965641614
204,0.002408611922686106,0.0031206362064956695
205,0.0024557301506294223,0.0032473004417667207
206,0.002452145501169874,0.0030151152100717257
207,0.0024705108847602655,0.003170290111759028
208,0.0025500414005025875,0.002999113295082898
209,0.002586535551135238,0.003445056785085751
210,0.002426780304253024,0.0031539927076100725
211,0.0024049420734549793,0.00307208411359452
212,0.00243151720113287,0.0029963706520768677
213,0.0024191283310152282,0.0030161643521715853
214,0.0024509300551201563,0.0030049721704969224
215,0.002439950133471699,0.002996237756316225
216,0.002439154766846535,0.0034540937446389895
217,0.0025388432846546595,0.003199914860170941
218,0.002462950355832968,0.0030114792870328754
219,0.002461449399852803,0.003005261042032593
220,0.0026606476143151716,0.0035908775324680546
221,0.002621565983950784,0.0029960596498982734
222,0.0025186374466457146,0.0030161528830062742
223,0.002492964911023131,0.003249289745883655
224,0.0024175671258946105,0.002996581767202001
225,0.002422088272544707,0.0029920187684916713
226,0.0024322755801736906,0.00301225430173294
227,0.0024847139018402465,0.0033517197070484475
228,0.0024212805224276923,0.003205736104557796
229,0.002482130382335155,0.0030110819859054776
230,0.002688230071890647,0.0032359354645591374
231,0.0025360024056171166,0.0031105553290929444
232,0.0023887714409288646,0.002996896648086434
233,0.0025198916036476807,0.0029903952025108096
234,0.002412791601237805,0.003152619393961143
235,0.002575661169150868,0.0032384641461305377
236,0.00246368304138055,0.0033168743090169835
237,0.0025501625268847636,0.0031920108301637246
238,0.002402654202842666,0.0031097179239023796
239,0.0024699239452545185,0.003027741203460005
240,0.0024505712405371765,0.00298699880444784
241,0.002473902797749993,0.003173321144395443
242,0.002665875617652958,0.0029852405287931825
243,0.0025023445378729078,0.003040380535878299
244,0.0025292484228708603,0.0029919168753044087
245,0.002407981774971871,0.00299987212624834
246,0.002429640798670666,0.0029846244589100744
247,0.0024487294635112166,0.0029947038012549513
248,0.0025305328752306465,0.00304733284987336
249,0.0024959573542364714,0.0030941445210789756
250,0.002528533455614934,0.0031073727570979518
251,0.002474661589358291,0.00298972958662771
252,0.0024524580047150606,0.0030712117729780747
253,0.00242186194070367,0.003205334161256635
254,0.002698266952574128,0.0034591559692495324
255,0.002503379792707806,0.003000926322036589
256,0.002429473206932712,0.0029826129203691155
257,0.0024048107933705475,0.0029881138051318567
258,0.002644840972040821,0.003269686197587686
259,0.0024250357216873833,0.003013861824058054
260,0.0023878646481454912,0.0030341033432127315
261,0.002467315660570616,0.003114392802249207
262,0.002398878390400235,0.0030962953762721647
263,0.0025107946032682286,0.003279847079389837
264,0.0024636614541595353,0.003372267724281942
265,0.0024876990072785344,0.0030402320729525285
266,0.0023933175911534897,0.002994193388654511
267,0.002469565711845704,0.0029928416289865625
268,0.0023642693697691485,0.003002887448230975
269,0.0024067413193313283,0.0029956706756249416
270,0.002433983550120617,0.0029849784770013058
271,0.0024116782111161476,0.0032760528215864137
272,0.002441380617271348,0.0029854979456308507
273,0.0024627050085869215,0.0029928030106852683
274,0.002459916817409393,0.003044524157867413
275,0.002394005487334869,0.003032111023126762
276,0.002560704519962579,0.0031545447328221775
