epoch,loss,val_loss
0,0.6696907780567805,0.6680205529928207
1,0.6681401896344291,0.6679525379339853
2,0.6680055785444048,0.6680564946730931
3,0.6679499366018508,0.6681676152944565
4,0.6679041603936089,0.6677992767890294
5,0.6678840611643262,0.6680753217538198
6,0.667869477921062,0.6681107659339904
7,0.6678537845611572,0.6677575553655625
8,0.6678409349785911,0.6677524704535802
9,0.6678337395191193,0.6677913520336151
10,0.6678167682356304,0.6677856867313385
11,0.6678070694473055,0.6677501098712285
12,0.6678039864434137,0.6678394597371419
13,0.6678017833497789,0.6677518593072891
14,0.6678004382054011,0.6681582282781601
15,0.6677975583871205,0.6677712122996649
16,0.6677980750401815,0.6677641528844833
17,0.6677875887817807,0.6678348900079727
18,0.6677896981901593,0.6677331283887228
19,0.6677890858517753,0.6677823649644852
20,0.6677880019744237,0.6677336996396382
21,0.6677800657749176,0.6677673781315485
22,0.6677858829100927,0.6677253996531168
23,0.6677745643721686,0.668006067276001
24,0.6677858492533366,0.6677276068131129
25,0.6677726512617536,0.6678383895556133
26,0.667777402083079,0.6677251040140788
27,0.667772862315178,0.6677274483044943
28,0.6677718315654331,0.6677183024088542
29,0.6677737779882219,0.6677198287248611
30,0.667775577823321,0.6677076637347539
31,0.6677706965075599,0.667754533012708
32,0.6677695880598492,0.66772190006574
33,0.6677680542204115,0.6678269623915355
34,0.667770761317677,0.6677291100819905
35,0.6677668110132218,0.6677257462739944
36,0.6677687761651145,0.6677216409444809
37,0.66776470902231,0.6677239780426025
38,0.6677626202768749,0.668141040802002
39,0.667770480884446,0.6677581339279811
40,0.6677689067655139,0.6676912117004394
41,0.6677658265961541,0.667697149236997
42,0.6677657523685031,0.6677154310941696
43,0.6677656508286794,0.6676936825116475
44,0.6677650766505135,0.6677103084723155
45,0.6677584900988472,0.6676930335760116
46,0.6677631945610046,0.667704750696818
47,0.6677596386141247,0.6677090425888698
48,0.667763036582205,0.6677613586584727
49,0.667758311563068,0.6677019526561101
50,0.6677620147996478,0.6677011518875758
51,0.667759470264117,0.6677173010110855
52,0.6677620999415715,0.6679604516824087
53,0.6677600411309136,0.6678199591239293
54,0.6677547510067622,0.667713528474172
55,0.6677601563533148,0.6677496271530787
56,0.6677571542130576,0.6677430568138758
57,0.6677628440989388,0.667732171813647
58,0.6677605186833275,0.6677041738033295
59,0.667752692606714,0.667746186097463
60,0.6677579899364048,0.6677137780984242
