epoch,loss,val_loss
0,0.4177181393208245,0.4143082278981694
1,0.41093571518817057,0.40979048938076784
2,0.4104759933691012,0.40968552285033477
3,0.41018564023185067,0.4094204161510278
4,0.4098389190934186,0.409843847222127
5,0.40973746331878935,0.4131920848087992
6,0.40962015900349863,0.4093680320395429
7,0.4095436204161472,0.40967977968398156
8,0.40945519918206585,0.4091393149520268
9,0.4092842322444637,0.4093323217432197
10,0.4093275826357162,0.4106100357791626
11,0.4091981442295914,0.40887684011577674
12,0.4091719628603844,0.40910178723169616
13,0.4091234888389265,0.4103206217732678
14,0.4090576180670434,0.40906566903549746
15,0.4090267789081303,0.40871328769191617
16,0.40897785196441766,0.4095946235780976
17,0.4088665034078501,0.4088425101180822
18,0.4088759491060453,0.4092890090445431
19,0.40880871237012956,0.4085591980452573
20,0.4088125756722257,0.4093693161276966
21,0.4088048856487563,0.40892598208955144
22,0.40878832735009535,0.4088356466802119
23,0.4087319875696357,0.408707818204061
24,0.40871804739243445,0.4085116624240544
25,0.4086689598330532,0.4083913645436687
26,0.408635811458972,0.4083909935010574
27,0.4086546367081769,0.4083976852243059
28,0.40864429040565753,0.4092057332507434
29,0.4086327014021831,0.40862411105307395
30,0.40863699105919593,0.4085077598284255
31,0.40854719738361955,0.40879571846046164
32,0.4086373075749184,0.40939973643044975
33,0.4085393425632979,0.4086286798008618
34,0.40852683294135117,0.40828247441547383
35,0.4085434790709006,0.40923223045860274
36,0.40856506536263487,0.40917563092324044
37,0.40853195701172257,0.4083071427516843
38,0.4085117607775939,0.4083029973743571
39,0.4085142076413042,0.4088129408306283
40,0.4085083059579348,0.4090651511702289
41,0.40847598621273534,0.4082998631905681
42,0.4085004314867204,0.4082791367624297
43,0.4084771534709538,0.40836538684279394
44,0.4085161395635119,0.408566742174087
45,0.408470909860946,0.40829726620288403
46,0.4084703147031131,0.40837007240385337
47,0.40846057827914334,0.40869391891855755
48,0.4084306383326671,0.40825960798831495
49,0.40841502280987263,0.40883891240834597
50,0.40845166095067253,0.4083121165300421
51,0.4084578233464825,0.4086266633150891
52,0.4084471724304744,0.40834616283624997
53,0.40841822584978116,0.40850437810048273
54,0.40839190110474505,0.40868899831109246
55,0.40845194080284525,0.40823803265988085
56,0.40841399527915306,0.4094258563985896
57,0.40837738963136844,0.40823749133730053
58,0.4083900491397375,0.4092216862638298
59,0.40839952451877554,0.4092002844692164
60,0.4084027167462165,0.409506849438026
61,0.408371457028696,0.40830111120534
62,0.40843149828394304,0.4080829758354215
63,0.40831176526573837,0.4086020899026033
64,0.4084043466553075,0.40881831211132685
65,0.4083810799706631,0.409387915453899
66,0.4083724794237498,0.408078688797229
67,0.4083941814507744,0.408554300199963
68,0.4084160021285982,0.4093694713364168
69,0.4083505575814751,0.4082914943286858
70,0.4083459376886516,0.4080876291981406
71,0.40836185134905,0.40813975137457364
72,0.40833344482930334,0.4091543411202821
73,0.40837616965852475,0.4093952425951993
74,0.4083715148273187,0.41024346076525176
75,0.4084038619369671,0.4081080831309998
76,0.4083576202857987,0.40848721864797344
77,0.4083501735665156,0.4086733228663357
78,0.40836043991735654,0.40809078496088164
79,0.4083344145330024,0.40950464956813654
80,0.40836308393998894,0.40817752668342877
81,0.40831933829652534,0.40836280502989036
82,0.4083848735675642,0.40807678277971726
83,0.40837414653082166,0.4085920463424758
84,0.4083665287797885,0.4088903830453717
85,0.40839065486352916,0.4090518021997684
86,0.4082935687674024,0.4080043265600654
87,0.4083315359049863,0.40809167391313217
88,0.40835423950239563,0.40846148009039923
89,0.40836028696830884,0.40825141977435603
90,0.4083152362394149,0.40817092068437905
91,0.4082836450511732,0.4089030119828492
92,0.40833097500635496,0.4080919972868179
93,0.40829277428413097,0.40815506621862463
94,0.4083854841828793,0.40802650611394686
95,0.4082668428748479,0.40831488890032613
96,0.4082571005303283,0.40842071446236544
97,0.40833000333886815,0.4083214034809368
98,0.408272571130796,0.4080740101284188
99,0.40832256642748005,0.40804066269036854
100,0.40829840688204316,0.40853907874145223
101,0.40832158573027727,0.4082299025863335
102,0.4083174224111941,0.4094218886815585
103,0.40834988699707664,0.40926561805213946
104,0.40828650735754585,0.40804593524625227
105,0.4082848655915788,0.4081779319358523
106,0.4083496803185763,0.4103175944785031
