epoch,loss,val_loss
0,0.5589347715102412,0.5561063762929835
1,0.5558422085611301,0.5558096082275618
2,0.5557825579781578,0.5556240807396011
3,0.5557315286188627,0.5558852041033894
4,0.555705538205233,0.5556060003583544
5,0.5556890654593248,0.5555987852087092
6,0.555677804566558,0.5556672429032716
7,0.5556661620829006,0.5557150458875424
8,0.5556526241492945,0.5557002932794632
9,0.5556553490859756,0.556950140088131
10,0.5556450702661279,0.5556112813890424
11,0.5556441493226585,0.5557617393084259
12,0.5556380465441145,0.5556671913740948
13,0.5556405382866254,0.5557663352258744
14,0.5556363573466988,0.5556660835263747
15,0.5556335908861032,0.5556998743608631
16,0.5556296224943472,0.5556460562178278
17,0.5556283385889531,0.5557446857244146
18,0.5556298257524886,0.5557097719265864
19,0.5556271404954417,0.5556357995452124
20,0.5556285444454945,0.5556055727430964
21,0.5556236883522766,0.5556068480458508
22,0.5556261109989624,0.5555982586467828
23,0.5556211335539977,0.5556077417309764
24,0.555623010180929,0.5556529232645153
25,0.5556224170602448,0.555613547252958
26,0.5556194313527498,0.5556053912669199
27,0.5556216676411486,0.5555969160484617
28,0.555617097831814,0.5556242485200206
29,0.5556195502717506,0.5556068695212713
30,0.5556181608014276,0.5558608722745928
31,0.5556217604791239,0.5556209037972443
32,0.5556167530058376,0.5556549026711703
33,0.5556139105195613,0.5556521179954113
34,0.5556186622184713,0.5555916656335589
35,0.5556121163362167,0.5555968262125778
36,0.5556168403835443,0.5556403438151623
37,0.5556117923558133,0.5557643939780242
38,0.5556127867060539,0.5555933463366393
39,0.5556106534559673,0.5556335733191251
40,0.5556113155391647,0.5555946322292016
41,0.5556083343201018,0.5556586271775863
42,0.555609087834005,0.5555965824695143
43,0.5556102079250324,0.5556735464716076
44,0.5556104646767668,0.5555890306053919
45,0.5556062656245567,0.5556213936498088
46,0.5556072467106518,0.5555890224411825
47,0.5556046732155677,0.5555868353500556
48,0.5556050151094698,0.5555991190243004
49,0.5556047568345083,0.5556256742690396
50,0.5556036534855698,0.5556491989355821
51,0.5556029131498299,0.5556104799949797
52,0.5556011962424585,0.5556048954686811
53,0.5556024786735329,0.5556391317850307
54,0.5556037515558423,0.5555955043205848
55,0.5555987347136438,0.5557365448539962
56,0.5556007985208209,0.5556363416073045
57,0.5555999766652122,0.55558952699524
58,0.5556000802888349,0.5555934338060857
59,0.5555991076566112,0.55558569182829
60,0.5555997285511461,0.5555960248480956
61,0.555598595261446,0.5556239855496522
62,0.5555985885926927,0.5555858177819264
63,0.5555974037167861,0.5556151202535511
64,0.5555982444742952,0.5555877518121421
65,0.555598464325437,0.5555927966723667
66,0.5555952107539852,0.5555994610041011
67,0.5555984197101049,0.5555923897930174
68,0.5555964558490337,0.555597520643665
69,0.5555934432748403,0.5555842671737482
70,0.5555943905241514,0.5555964255747073
71,0.5555950424212107,0.5556203756971335
72,0.5555953347806484,0.5555842303756449
73,0.5555944911178851,0.5555841483785852
74,0.5555935324960385,0.5556167705774899
75,0.5555933810796839,0.5555824298420852
76,0.5555941358596562,0.5555876616212926
77,0.5555951387560611,0.5555877235036334
78,0.5555944464583787,0.5555918866884028
79,0.5555933664563873,0.5555822216843257
80,0.5555938482939273,0.5555840745457349
81,0.5555940539374851,0.5555822184600546
82,0.5555923252607976,0.5556136527664904
83,0.5555933703169125,0.5556143771034316
84,0.5555932799069503,0.5556277766121233
85,0.5555931776298572,0.5555808182685605
86,0.5555932180983196,0.5555923574911453
87,0.5555930862717235,0.5555881860238446
88,0.5555926205073463,0.5555810101274817
89,0.5555917182086193,0.5555850416495841
90,0.5555922727208978,0.5555949765754397
91,0.5555933721280619,0.5555904825035455
92,0.5555937209825837,0.5555824571448579
93,0.5555924230605019,0.5555868320666235
94,0.555592361703081,0.5555846716570795
95,0.5555925054181062,0.5556081340271545
96,0.5555928251546142,0.5556120250124493
97,0.5555922707267402,0.5555874107789165
98,0.5555922736390938,0.5556135117859757
99,0.5555939824854301,0.5555824333325805
100,0.5555911176548074,0.5555806502219169
101,0.5555925137796848,0.5556269556357902
102,0.5555919857199698,0.5556498276980284
103,0.5555921932188514,0.5555808080337183
104,0.5555923468912546,0.5555863196441613
105,0.555592647583873,0.5556858257087821
106,0.5555911958742191,0.5555853191143821
107,0.5555916786441539,0.55558215066162
108,0.5555921532473508,0.5555960403778417
109,0.5555908262293423,0.5555905511006528
110,0.5555914524563556,0.5555844602750489
111,0.5555917833973786,0.5555847104666547
112,0.5555923265805071,0.5556246779101066
113,0.5555898685485676,0.5555805516597947
114,0.5555901008489955,0.5556001340485093
115,0.5555911246895769,0.555580856900653
116,0.5555916368346837,0.5556186522206953
117,0.5555901498620446,0.555586251934468
118,0.5555914022758408,0.5555795741732008
119,0.5555900010511894,0.5555814657554438
120,0.5555915608515998,0.5555876676557082
121,0.5555893197024419,0.5555994318081783
122,0.5555905318718029,0.5555823681963881
123,0.555590972333728,0.555599752785846
124,0.5555899936575031,0.5555816595666757
125,0.5555904925771168,0.5555807924743917
126,0.5555904587845072,0.5555831781096258
127,0.5555899111429219,0.5556005076202506
128,0.5555906767329954,0.5555810962658071
129,0.5555898339418873,0.5555787328159247
130,0.5555902613494952,0.5555854788489141
131,0.5555897970042198,0.5555834536221128
132,0.5555898330631327,0.5555861072268143
133,0.5555902726873224,0.5556340967455218
134,0.555589827562634,0.5555788661646783
135,0.5555894066036963,0.5555844734087771
136,0.5555907098748218,0.5555906968732034
137,0.5555898675893526,0.5555833866223508
138,0.5555896274187861,0.5556117227592184
139,0.5555906710155689,0.5555816859820345
140,0.5555899365353004,0.5556333312029874
141,0.5555907385045512,0.5557645016509309
142,0.555590127999672,0.5556015289746798
143,0.5555883170087658,0.5555784953439206
144,0.555590343214082,0.5555790426121752
145,0.5555904666932983,0.5556036747714722
146,0.5555894908276681,0.5556518996915509
147,0.5555892700677961,0.5555812067192778
148,0.5555891829993101,0.5556110592693017
149,0.5555888315037916,0.5556057191368368
150,0.555590297005317,0.555588301624317
151,0.5555906536518834,0.5555847598068767
152,0.555588172460738,0.5556135437920431
153,0.5555893314686027,0.5556015950870278
154,0.5555891697888049,0.5555785524933865
155,0.5555892395133262,0.555584402741037
156,0.5555891945501209,0.5555924890650709
157,0.5555882270941876,0.5555961420754937
158,0.555589398741446,0.5555818347126319
159,0.5555888491782753,0.5556071855294201
160,0.5555895566388128,0.5556318372414071
161,0.5555908546405662,0.5556279314954583
162,0.5555892211359964,0.5555825058638901
163,0.5555885096626901,0.5555902514505031
