epoch,loss,val_loss
0,0.671643623734014,0.6691287429693615
1,0.6689887638655958,0.6684298931517021
2,0.6685517888732968,0.6686355770669563
3,0.66827952059311,0.6693142516737245
4,0.6681457411993462,0.6679887114624232
5,0.6067620189319499,0.5579911189398754
6,0.5573827660204776,0.5572906363099148
7,0.5573183301771124,0.5592554043303648
8,0.5572852027491799,0.5575864844819156
9,0.5572492835329571,0.5575285729640175
10,0.557214983356562,0.557339413852313
11,0.5572106093462097,0.5571640009915563
12,0.557172098841306,0.5570842887864219
13,0.5571551166236297,0.5570264429075842
14,0.557139327233248,0.5570225108350181
15,0.5571502394710665,0.5569934508936577
16,0.5571323852732736,0.5571141544997544
17,0.557121421346701,0.5569872822122598
18,0.5571047818646064,0.5570273370955777
19,0.5570917383140632,0.5569733310278236
20,0.5570956078230537,0.5577155860422859
21,0.5570908160824374,0.5573842939608742
22,0.5570876784687254,0.5569466297443096
23,0.5570730699935441,0.5571739234640344
24,0.5570668302578657,0.556976497912821
25,0.5570618076343458,0.5569487934668662
26,0.5570613919692339,0.5576178478543871
27,0.557052248993312,0.556943688380807
28,0.5570372113041062,0.5569898735204938
29,0.5570404171719637,0.557106660169644
30,0.5570432764516027,0.5570060066194747
31,0.5570460862874925,0.5570329709620985
32,0.557032992141511,0.5569315898211363
33,0.5570381511053017,0.556917123877381
34,0.5570103174621477,0.5570377993820324
35,0.5570157353998018,0.5569221805697931
36,0.5570145735718763,0.5570478407679953
37,0.5570150745179897,0.5570136821299569
38,0.5570122663212849,0.5569340820052192
39,0.5570053633862173,0.5569068703698757
40,0.557007383493103,0.5569223143030929
41,0.5570065201506548,0.5569360203541833
42,0.5569945128142516,0.55692003030635
43,0.5569910852706927,0.5570504543799029
44,0.556999534609502,0.5570477176245033
45,0.5569943935229239,0.5569255077809318
46,0.5569868500349349,0.557059671831486
47,0.5569995468978671,0.5569559837097565
48,0.5569926967945658,0.556939015406237
49,0.5569934107242829,0.5569239667864059
50,0.5569885199849434,0.5570199255907802
51,0.5570006469984111,0.5571862438476411
52,0.5569901831739057,0.5570211915461064
53,0.5569753566137688,0.556940022739524
54,0.5569843925575416,0.5571014623192345
55,0.5569754582408675,0.5569290936732706
56,0.5569865836232107,0.5569573405658637
57,0.5569854476017987,0.5578516846555043
58,0.5569766403440432,0.5569785120765269
59,0.5569782394935687,0.5569670502364488
