epoch,loss,val_loss
0,0.22449817644887501,0.22314736716945965
1,0.22321837367945246,0.2229148794611295
2,0.22311647785703342,0.22291393274068833
3,0.22303964811894628,0.22298744542400042
4,0.22301601180434227,0.2230294116238753
5,0.22296840948528715,0.22287287839253744
6,0.22293964537647035,0.22311088062326112
7,0.22293534647756152,0.22289805181821187
8,0.22291821055279837,0.2228536704381307
9,0.2229168771505356,0.2228348065217336
10,0.22290710733665361,0.222865033219258
11,0.22290572713812193,0.22290140694379806
12,0.2228968575000763,0.22315254193544387
13,0.22288807776901456,0.22281276161472002
14,0.22289212608337403,0.22291113443175953
15,0.22289511676629384,0.2228211270769437
16,0.22289436565173998,0.22283132570981978
17,0.22288315133916006,0.22281958307822544
18,0.22288135330875714,0.2228853979508082
19,0.2228836632337835,0.22286856034398078
20,0.22287687484092183,0.22280964576204618
21,0.22288220395644506,0.22282478296756744
22,0.22287502752741178,0.22284151475628217
23,0.2228741500808133,0.2228884411851565
24,0.2228745288848877,0.22323510126272839
25,0.22288017668326696,0.22301748230059942
26,0.22286920677291022,0.22280393135547638
27,0.22286934408545495,0.22287519310911497
28,0.22286438176367018,0.22290702310204505
29,0.22287071681022644,0.2228123952349027
30,0.2228662363357014,0.22281096682945886
31,0.22287374173932606,0.22288228382666905
32,0.22286542072561052,0.22282968883713086
33,0.22286850242151154,0.22282085798184076
34,0.22286532407005627,0.22282320696115493
35,0.2228657749593258,0.2229021079937617
36,0.2228668212691943,0.2228262410859267
37,0.22286611993114153,0.22294425250093142
38,0.22286723412738907,0.22279671252767244
39,0.2228656307624446,0.22283211770653724
40,0.22286449295282365,0.2229351444343726
41,0.22285867636402448,0.22280229113499322
42,0.22286614349484443,0.22281285910805065
43,0.22286432400345801,0.22279633165399235
44,0.2228691943983237,0.2228104006052017
45,0.22286320487327047,0.2228027285337448
46,0.22286441564228798,0.22331977144877116
47,0.2228628395365344,0.22281705198685328
48,0.22286012718743747,0.22298702209194501
49,0.22286167118615574,0.22282133984565736
50,0.22286476216051312,0.2234196652273337
51,0.2228629575404856,0.22283350611726443
52,0.22286425666676626,0.22280912615855536
53,0.22285905356208482,0.22302403902014098
54,0.22286909050742784,0.22280944714943568
55,0.2228631437520186,0.22290064933896064
56,0.22286386621660656,0.22278597192962965
57,0.22286220804519125,0.2228057953218619
58,0.2228671950565444,0.2228709397614002
59,0.22286162563827303,0.2228440250555674
60,0.22286425687207115,0.22278587689002355
61,0.22286069013675053,0.22282139762242634
62,0.2228691012395753,0.22281169394652048
63,0.22286673938234647,0.2228210603793462
64,0.22286179212729137,0.22279915388425192
65,0.22286070872677696,0.22281834867596625
66,0.22286754309799936,0.22280514016747474
67,0.22286048796110683,0.22279902227719625
68,0.22287393344773188,0.22280159465471905
69,0.22286439270443387,0.22285630543033283
70,0.22285971802804205,0.2228057821293672
71,0.22286468467116355,0.2228307196100553
72,0.22285680537422498,0.22294099260369937
73,0.2228651036851936,0.22285644554098447
74,0.22285856409205332,0.22280181537071864
75,0.22286270731687546,0.2227953417599201
76,0.2228578374915653,0.22282598025600114
77,0.22286390031046338,0.22292656713724138
78,0.22286439730392563,0.2229129573404789
79,0.22286604446172714,0.22280248177051545
80,0.2228630488978492,0.2228730657796065
