epoch,loss,val_loss
0,0.4127220330928401,0.33140944105188536
1,0.32909579151529994,0.30334088532594
2,0.29454674502555805,0.2938945669520704
3,0.2961553711536601,0.29576827096242975
4,0.2956267807295649,0.2932606993993897
5,0.2984549577077262,0.28429876018953054
6,0.29933542948517444,0.2888892518367017
7,0.3009427925459951,0.28516275752924947
8,0.2989999390870118,0.2886791812000677
9,0.29959441871763326,0.28996194028941386
10,0.29880046033210234,0.29107642306705267
11,0.3014843697377068,0.29073500679163844
12,0.3022075823133139,0.29071587670990245
13,0.30035147459818134,0.29205689871108154
14,0.3012233263700365,0.2965837164033455
15,0.30029621606974527,0.2891438060046596
16,0.2996585702089618,0.29299052359365585
17,0.3013898179567366,0.2994208380592034
18,0.30058129595292865,0.29034290474213337
19,0.30259043447154343,0.29372417867570416
20,0.3016977454778001,0.2915286201581854
21,0.30232982967403815,0.29647809015670057
22,0.30251534761573146,0.2905447806102516
23,0.30109615043533433,0.2993700214739457
24,0.30214110747564304,0.2914880671616212
25,0.30199408566980385,0.29961960343983923
26,0.3019133968483075,0.2973704832603752
27,0.3019568653966638,0.2851671275455393
28,0.3017440762839096,0.2920520548306146
29,0.30184886743537515,0.28981163931008963
30,0.30237396206972217,0.29875249700244616
31,0.30248534876862176,0.29083167231624335
32,0.3031050429714499,0.2905404425112097
33,0.30324137282428787,0.2886287888326204
34,0.30159490577596204,0.2906122785801822
35,0.302898464177111,0.28845419313544096
36,0.3027110371389706,0.2947769309095706
37,0.30131711233988867,0.2861073449531998
38,0.3015574378440913,0.2922925651073456
39,0.3021458091797401,0.2893454601681532
40,0.3023282024648497,0.29113571309550257
41,0.30304902212155926,0.2887425073524461
42,0.30147540548427093,0.2948576407952707
43,0.3014195586105076,0.2951146049269408
44,0.3020727551751751,0.29287929509049593
45,0.301606697122081,0.29472211918159896
46,0.3028268045167908,0.2916398921563001
47,0.3024281884571187,0.2937133901745734
48,0.30211519188075375,0.29019483624196885
49,0.30168505598178763,0.2882111867993998
50,0.3026476902447289,0.29857454146201884
51,0.30221335538584676,0.3010035442174786
52,0.30194226312365313,0.288120471140474
53,0.3023246523735521,0.2922398570293541
54,0.3024917576101134,0.29374621783149796
55,0.3013413509218286,0.2942648971602865
56,0.302427085711538,0.29203205972015617
57,0.30182979387149894,0.29634212907358387
58,0.30205324706170344,0.2956219301872493
59,0.30152324074692877,0.2934979787466493
60,0.30298052691788174,0.2960604874708743
61,0.30354254737532166,0.29893288765607184
62,0.3029335830047476,0.29477426953559377
63,0.3039946406065606,0.2940340913826145
64,0.30494501398767443,0.2903464645364859
65,0.303579169007136,0.30098996521105925
66,0.30428737993713756,0.2975518206271909
67,0.304643979536189,0.29918317882297296
68,0.3060432463240108,0.29278768971260255
69,0.3047693411262633,0.2917622358863758
70,0.30474224050728393,0.2995264840532103
71,0.30539905602594103,0.2934270661629416
72,0.3055228721603954,0.29279269216414494
73,0.304330752683793,0.30208509498172337
74,0.3067809672499772,0.2967621892424782
75,0.30532327816904403,0.29618580714291126
76,0.3076148072870566,0.29657169208474404
77,0.3066469311499424,0.30131199914850265
78,0.3072142213928976,0.29995367989632915
79,0.3087902741493274,0.3051205717589153
80,0.30778387450188804,0.2996917320815703
81,0.30771190798979364,0.2997284419320989
82,0.30852137052650164,0.2978378979297353
83,0.30875800474821996,0.296917262086033
84,0.30853100666243904,0.30359020502897943
85,0.3093975673588492,0.30594374279326186
86,0.3098983425822995,0.3004596013899074
87,0.31001502966241323,0.29957558568763426
88,0.31034052669047546,0.30173247728711305
89,0.3092825289627759,0.29448660594220094
90,0.30989453699395025,0.30243486475383763
91,0.30955245818874183,0.29607755317981904
92,0.31088977639344906,0.3038802508020053
93,0.309731673213651,0.3041658818915136
94,0.310714503137277,0.29972075798457365
95,0.31039610601740897,0.2954848550338621
96,0.31150226456055746,0.2985542568847211
97,0.31053198283438305,0.30301279735971254
98,0.3108057238585096,0.31029008173014416
99,0.3115744760410608,0.29716931383781864
100,0.31295440265471886,0.3043977505824282
101,0.3132586887447809,0.3077135571888183
102,0.31366142961051197,0.3016182714038425
103,0.31355509649905516,0.3051981713263271
104,0.3141549621776546,0.30400205033152256
105,0.3127423822163963,0.30284643999851535
106,0.31196029622665494,0.30586580222733895
107,0.31258561948330715,0.3035355022257165
108,0.31244975660112595,0.29941475396222056
109,0.3128138526116876,0.31225339844762456
110,0.3123703367763562,0.3081279465655244
111,0.31028424405020844,0.3016113254565682
112,0.3082925334059782,0.2947581221273249
113,0.30937182999330104,0.3023245694766853
114,0.3096572417583916,0.3036028600667225
115,0.30910430175719783,0.31032202981974377
116,0.31030793183798594,0.30025369240709754
117,0.31056196300433675,0.30200754351376136
118,0.3091383993482475,0.30242843654033913
119,0.30964833884548437,0.29682657207209023
120,0.309222407018642,0.29977746819057605
121,0.3092041502507617,0.29364528710631366
122,0.3105417719309191,0.30081930016949227
123,0.30895110766132705,0.30411006409949826
124,0.3090340560846466,0.29612133137742774
125,0.3081968774895271,0.29407146244346855
126,0.30866146614973405,0.2994409540225506
127,0.3083901577610508,0.3002155602268349
128,0.3100533258077428,0.2955474521774445
129,0.30785951802165534,0.2961739290200494
130,0.30817899242747393,0.29935143954465765
131,0.3079474662975658,0.2986502275898122
132,0.3075595879203993,0.2934832160828661
133,0.30740199682472036,0.2933228858727705
134,0.3077438087929622,0.29669136630744347
135,0.3073169279864447,0.30442610005972737
136,0.30695883086244996,0.29419734983403606
137,0.30657206191789443,0.3010578287126374
138,0.30717531243880525,0.3140469307543684
139,0.30709515663506604,0.2923078116177546
140,0.30666380695956913,0.3088277554183304
141,0.3046376319934694,0.2966544982363128
142,0.3047687313478407,0.2981119468167654
143,0.30620270351274576,0.29256987889559405
144,0.30535727186953193,0.29227079474046186
145,0.30691750098267395,0.300343335544976
146,0.305672984561317,0.296652168192616
147,0.30749611409785177,0.3064727884477846
148,0.3058545814873315,0.29736243514683997
149,0.3068943951395247,0.2949273227944378
150,0.3062384345287605,0.2933500746064136
151,0.30564353063261157,0.29029906199699673
152,0.30702743026091633,0.30401980287160507
153,0.3069933086180324,0.2997998840569096
154,0.30595319360804807,0.29577384431093373
155,0.30529255347790196,0.29924315040128946
156,0.30545228670796365,0.2982578933698224
157,0.30705289859429086,0.2991728611646971
158,0.305178896940833,0.29330549766789193
159,0.30538563524560036,0.2982166794288091
160,0.30576613355126736,0.29613936848980765
161,0.3051892527706438,0.2929885965097463
162,0.30557970771844906,0.29690144546420616
163,0.305286041765904,0.2968198452311034
164,0.305318729914695,0.3058980902036031
165,0.30365886904889816,0.2917037981245833
166,0.3051592471589557,0.29289945021017916
167,0.3059174289838899,0.29278317051550673
168,0.30616227412720126,0.29290327606216643
169,0.3064627425612403,0.2993195414398128
170,0.30683793704971685,0.2957480661117827
171,0.30539956790289946,0.2957719902825955
172,0.30479417588588614,0.2946462475083654
173,0.30544822359438223,0.298993999626418
174,0.3045055799669414,0.30490939636976855
175,0.3048435975734094,0.29377996749928204
176,0.3059300737108012,0.2959996383313908
177,0.3050874859404812,0.29493664790002294
178,0.30509660510514813,0.2971730045400203
179,0.3054492332285838,0.2953475463080967
180,0.30677875483914124,0.29467062225500357
181,0.3057895561663793,0.30441635109889054
182,0.30536080862256026,0.299173878238439
183,0.3047093857613633,0.29585435066828375
184,0.30593360569164024,0.304885313821245
185,0.30524140553440066,0.30251174110130674
186,0.3057949963608105,0.2973291050561153
187,0.3053374767208023,0.30070728988107975
188,0.3061402948786489,0.29069406675161236
189,0.30600460796498413,0.2968770148110216
190,0.30524119150170903,0.2932356470789449
191,0.3045911740502708,0.29153736682558873
192,0.3053056278450189,0.2942522766985549
193,0.3049879432130184,0.2956601580225735
194,0.3048989609170189,0.29665496193676194
195,0.3052658340375456,0.3022394269970695
196,0.30534696088637037,0.28838134757020273
197,0.3054826885247059,0.299843534017518
198,0.3029452685931857,0.2952146861892547
199,0.3034599757581066,0.2945308691103673
200,0.30160260658630667,0.2942291588582165
201,0.29796582366749225,0.28005796027976326
202,0.29174262721887867,0.28389658462875567
203,0.29348216921663745,0.2782407977285176
204,0.2909627225074031,0.2942771177923206
205,0.29190971646860564,0.28158269366982114
206,0.29052462042260874,0.27880294262057675
207,0.29206051043957304,0.293002416956067
208,0.2921669912741507,0.27860879774801345
209,0.29078004400046753,0.27785170715172314
210,0.29232983492177617,0.28160527350935427
211,0.2910360715823998,0.2775080003756773
212,0.29192888907927145,0.2822420036077306
213,0.29124981997082766,0.2835297789016779
214,0.29156012022442773,0.2769980798358368
215,0.29081094091992266,0.28265794258434795
216,0.2904757801368773,0.280303375419329
217,0.2926812254554563,0.27690686628717964
218,0.29155471044077313,0.27747710199009956
219,0.2912049289282748,0.2829731339520782
220,0.2909859651632553,0.28168151085925897
221,0.28966894269204313,0.27331448050891105
222,0.2910086704705886,0.2869757912261449
223,0.2910573510967607,0.28288539378795796
224,0.2916659719472508,0.282925276546486
225,0.2900934827993449,0.27475241656866095
226,0.29189301950273944,0.2788776161945263
227,0.29084447382377376,0.2815057705281135
228,0.29128463164246304,0.27908810805181905
229,0.29099739707403893,0.2795051170357436
230,0.291110738700299,0.2890572471533572
231,0.2910210211769498,0.28626456677865325
232,0.29131735305341366,0.28270116263497486
233,0.2923539057433653,0.27460321638996005
234,0.29168492787069467,0.2788227212351701
235,0.2918143042678638,0.2788815175312279
236,0.2921084065058882,0.2775429681559839
237,0.2912151280214922,0.285731622929604
238,0.291285909294748,0.288422308868252
239,0.29081890903848756,0.29004275093016735
240,0.29148714493712585,0.2969255346596386
241,0.29165035434323755,0.2775559143162509
242,0.2911692968516755,0.2848933709533062
243,0.29122238482734125,0.27876162003281635
244,0.290415484240477,0.28303703102558875
245,0.29140628359501985,0.2801459403610384
246,0.2914716034972544,0.27840248924972366
247,0.2901133638474825,0.28160526011885423
248,0.2920708434046317,0.2792737015069063
249,0.2913607344794884,0.2773321409319246
250,0.29074980481397256,0.2787681352241389
251,0.29148093086061144,0.2851995443026418
252,0.2907225566090728,0.2798806552904366
253,0.2910570343605894,0.2892899395050504
254,0.2917142961803582,0.280605546737336
255,0.29037632553982107,0.2783717133243782
256,0.2914267361008997,0.2812302868030754
257,0.2910058730668884,0.2799116890312498
258,0.2906380390720047,0.28626029020581706
259,0.29105480213920243,0.2808585203912136
260,0.2910841623540398,0.29690083416612384
261,0.29181134532555475,0.2826001348890914
262,0.29157679774958767,0.2803003755847516
263,0.28966427089764274,0.2818506612515701
264,0.29200444412861376,0.27893493142634607
265,0.2909430165866836,0.2849264269375936
266,0.2906089290391931,0.27738724321441155
267,0.2900550748535497,0.28908144691709764
268,0.29124126975253833,0.2797787665160613
269,0.291670762855497,0.2887775648418521
270,0.29288040545341776,0.27832751964662295
271,0.2909414393840741,0.27717902310138204
272,0.2913524272431842,0.2751136270849471
273,0.28959535513284973,0.2791644761766347
274,0.29091191425430385,0.2826673495073388
275,0.29084311950626707,0.2849674759385843
276,0.2910376528055788,0.2834883131153295
277,0.29145861242273696,0.28165147475904306
278,0.2914168704286206,0.2799878658942836
279,0.29113050690405456,0.28495421857004327
280,0.2908272286645883,0.2815170367607138
281,0.2914990019903267,0.28197965401754277
282,0.2907216732529662,0.2903281807150187
283,0.292001105403547,0.29348859594589505
284,0.290601640724964,0.27884748781104446
285,0.2923951348046764,0.2810297101035122
286,0.29111137964708317,0.27660276752270435
287,0.29168065339684773,0.2820042768630765
288,0.2911046434990209,0.2818874549740036
289,0.2908824670663159,0.2787997710298738
290,0.29088000794522184,0.2816539523520319
291,0.29189035608422004,0.2784093317952663
292,0.29026732960040325,0.2798797327719949
293,0.2911401527215711,0.27672614565682624
294,0.2923512495308518,0.27655800065178265
295,0.2923760692461478,0.27580336155634244
296,0.29045624178562096,0.2888828253755701
297,0.2908251533766476,0.2766417312070981
298,0.29145361144271636,0.28293713933311626
299,0.292490257971806,0.2807807422515733
300,0.2916056483244304,0.28286963812432825
301,0.2911666565365177,0.2874549855716037
302,0.29095244699950407,0.291757314285416
303,0.29199591345243975,0.29517864347084305
304,0.29288473326841097,0.2845834743440006
305,0.2902147534599392,0.2781258112564381
306,0.29110459309873626,0.27765901837519097
307,0.29145958639675373,0.27766770115975725
308,0.2912369666216944,0.2756757671066348
309,0.2914031055197418,0.2809060592648467
310,0.2921463409789187,0.28063259761408876
311,0.29095157328918514,0.27464145777289306
312,0.29123679596820384,0.27613551677820264
313,0.2907327502083072,0.28057858592015594
314,0.2921741145899336,0.29772585383876976
315,0.29208580622251173,0.28207622179633124
316,0.2916518881964722,0.28047110382029417
317,0.29189209118664405,0.2769634064169116
318,0.2918593353443474,0.28145970195072606
319,0.2912100447271708,0.2837290599132493
320,0.29133462396452575,0.2840845155116512
321,0.291469256707532,0.27672133133697585
322,0.29084690701994925,0.28450087033097377
323,0.2924610460288912,0.28617173538445845
324,0.2914752213118838,0.2816634396421938
325,0.29094556269882393,0.27727007905787215
326,0.2912620387082581,0.2756488762632774
327,0.29123444369046375,0.2831397070719378
328,0.2917154120434943,0.27946504181899
329,0.29111432479776506,0.28038175385943875
330,0.29215953952436735,0.2852027781688384
331,0.29200722697713644,0.28582649062246396
332,0.2918675251907592,0.27813938656475906
333,0.2927073522256889,0.2877893330648674
334,0.2909201827285002,0.2866101400067143
335,0.29066178380393143,0.28112989789764764
336,0.2910520619898438,0.29000344604181255
337,0.29075488342558314,0.28128428704015435
338,0.2917975203169165,0.28490162709091893
339,0.29106150103436174,0.2779650143004005
340,0.2909364501853959,0.27860140440334463
341,0.2900628642953807,0.28842089911930363
342,0.29254587955647604,0.28443780961988036
343,0.2923810178812167,0.29270580644203414
344,0.29168262347590934,0.29180995889147027
345,0.2905641234009336,0.2805107577197066
346,0.2913876436680579,0.2821635719802644
347,0.2919547542500152,0.2747777425967284
348,0.29227433437175804,0.2795903832566322
349,0.2905239632384504,0.2828502403776141
350,0.29198204117526616,0.28291192747477295
351,0.2923122007038901,0.2829624080648291
352,0.2917830373546044,0.28228789551027983
353,0.2922392125972946,0.28111771300181276
354,0.29031708453587285,0.2855117284395979
355,0.2917059839153595,0.2857004341707903
356,0.2908965585778674,0.2835653250718252
357,0.29136760034758724,0.2763587588569737
358,0.29257559253154897,0.28300839893380897
359,0.29232499521192884,0.2830360555735818
360,0.2920677692616721,0.28284709950771547
361,0.29288423162779875,0.2842230104085206
362,0.29166618945767536,0.2862912437969944
363,0.29173120496581323,0.2922563476235714
364,0.2924290685068139,0.27922535853857733
365,0.29134097189498576,0.28152747429297015
366,0.29244871844378734,0.28489727302721046
367,0.29100405924123607,0.2828737369104797
368,0.29305973304234284,0.2830438213022569
369,0.290368167571634,0.28627019568323026
370,0.29102761202377736,0.28692389306795857
371,0.2918395749908433,0.28055835177476873
372,0.29240639915196204,0.28122409066337933
373,0.2924095661915523,0.2818563379051235
374,0.2914517800971639,0.2759758341945678
375,0.29241554909725015,0.27984144241947134
376,0.2926310991482128,0.28266239636377505
377,0.29195881460169204,0.28074138513059993
378,0.291921093224811,0.27704878428169893
379,0.29168440000690204,0.27640217455634236
380,0.29208728611421547,0.28304339519914146
381,0.29181831781629375,0.28080494755037605
382,0.29179934653236544,0.2854861725614212
383,0.29319612127695205,0.2858324593532791
384,0.29182168886697796,0.28482825996086836
385,0.2921145117108683,0.27717458470652767
386,0.2907711873956925,0.28455462395564773
387,0.2925332539004264,0.28350974000621787
388,0.29153845277283075,0.2882766604471864
389,0.29242028149248983,0.28668781922826514
390,0.2926786648716518,0.2849485805894143
391,0.2930535617365753,0.2785723291440215
392,0.2924426581272132,0.28629617743490193
393,0.2935338349904033,0.2837455436067666
394,0.2929378684648902,0.2852457008609323
395,0.29236822694635467,0.2853085734886748
396,0.29288539598234375,0.2858912348988959
397,0.29288594023264153,0.28913552190168834
398,0.29219465319803944,0.27995955066669304
399,0.29430016905093215,0.2875489018742669
400,0.29260737510969204,0.283532359751375
401,0.29276986523353166,0.280065890525476
402,0.292178472958869,0.287206387251543
403,0.2924814896167422,0.27749360446415583
404,0.2942083739370609,0.2894035511063253
405,0.2936219681349633,0.28844276109267714
406,0.29371284908228057,0.27938364830475365
407,0.2937258597466352,0.2805567813881606
408,0.29292130407640893,0.2956593604660189
409,0.293673180437403,0.29300915317523796
410,0.2921644498984083,0.2800516616205616
411,0.29310112344541006,0.28770261815622966
412,0.291831579086206,0.28722043172286377
413,0.292352083071267,0.28688535848383195
414,0.2923931142656778,0.28128229435729674
415,0.2918457761347246,0.2760213698469713
416,0.2930816111801337,0.289519849218978
417,0.293487234645075,0.28168927895665075
418,0.29194857830329357,0.29252650437080463
419,0.2931475704245037,0.28545024320301926
420,0.2937708052637293,0.289921015863581
421,0.2937133296835031,0.27878834266103775
422,0.2924138890136424,0.279174340576151
423,0.2933411164532861,0.2846518003133285
424,0.2940025983976306,0.2912863153369081
425,0.29392554397412163,0.27786612607363464
426,0.29282692196466525,0.28962611289209983
427,0.29277290442616966,0.2856570875871887
428,0.29329917397353056,0.2793477296901735
429,0.29387679140123013,0.28452014004613746
430,0.29383566125547345,0.28569303322447476
431,0.2940777462897442,0.2823350535643748
432,0.29303473008094166,0.2785539364099309
433,0.29351681606878366,0.27810037747593497
434,0.29290538007397954,0.29813768840957633
435,0.293654671172985,0.2882056327148462
436,0.2918187462813478,0.2885029192195128
437,0.2937450925047823,0.2847030356780166
438,0.29328061581803283,0.2997985457803598
439,0.29334156951897616,0.2796174927712067
440,0.2944960464015782,0.28309968436576444
441,0.29473846475537824,0.28674276437782603
442,0.29272861863442473,0.29062323343531443
443,0.2937957305338881,0.2898570266155721
444,0.29214393281287626,0.29074374834696454
445,0.29487766211537764,0.2851557398678709
446,0.2936411849301371,0.29398514145482196
447,0.29456627924290535,0.28739116954204036
448,0.2932620863374278,0.2790099592563686
449,0.2930399035875372,0.2917539021612084
450,0.2942681699466285,0.28323350267882086
451,0.29537211757621545,0.28474111815148606
452,0.2933176600152822,0.28048522006614557
453,0.29370941686405955,0.28661257589337114
454,0.29373185903287297,0.28701740971011835
455,0.2940407118635525,0.28484720084740683
456,0.2927870998461787,0.2876860992945217
457,0.2958007802287515,0.2779461867255306
458,0.2930054851323724,0.27950649907312447
459,0.29333133520103627,0.28176066411140965
460,0.29429896158562174,0.28524914462442624
461,0.29361127101010187,0.28508906310540527
462,0.29293977879017613,0.28422301942414613
463,0.29387864101233724,0.29356396502821985
464,0.29442132952167477,0.2802972659553248
465,0.2935481079942804,0.2837333682824805
466,0.29373666517633357,0.28616039784865366
467,0.2935673130677642,0.2928233627541125
468,0.2934137798660846,0.2808216862314036
469,0.2957649398102963,0.2812183003718546
470,0.294201639739631,0.2807415171986369
471,0.2953228828093832,0.27994399455535346
472,0.2929660993828785,0.2848449973608552
473,0.2944813616651359,0.28045408239184794
474,0.2942570160934217,0.28454656306796217
475,0.29475229074231524,0.2772586613482609
476,0.2938189370046147,0.28153483511612654
477,0.2956948994134692,0.28563667408402915
478,0.2943689303220607,0.2795438653602894
479,0.2942591049522758,0.2875196096960936
480,0.2953658453863654,0.2817971518584992
481,0.29396090540196823,0.2821294089956005
482,0.2931092393109567,0.29224538813977347
483,0.29527128873776204,0.28722502189686117
484,0.29366884999174037,0.2807449218783065
485,0.29428900707903816,0.28084161273367697
486,0.29448905762574307,0.2821633501910428
487,0.2949573456572952,0.28086141534965403
488,0.29311111007479307,0.2834385982250065
489,0.29370521505872565,0.27974460695153414
490,0.29251846123495706,0.28311025569425396
491,0.292903925492775,0.2876255394768541
492,0.2948569501395985,0.2831889438924031
493,0.29464959844744043,0.28530696798221716
494,0.29402929506867864,0.282808107930475
495,0.2943974526716863,0.28799898469245055
496,0.29561576935603584,0.29132379181773704
497,0.2936981160453169,0.28355973059823625
498,0.2929217350289667,0.2789223397880285
499,0.2938624025405265,0.2843079264339933
500,0.2948856023703221,0.29341117183270726
