epoch,loss,val_loss
0,0.42273972264842247,0.4138142254291578
1,0.4096784964364434,0.4099243962652498
2,0.40315425598285626,0.39677232225404196
3,0.39693651757139886,0.3968361884985582
4,0.39682478275047084,0.3972158879650531
5,0.3967623351002433,0.3994358035086061
6,0.39670115219741114,0.3981180560643899
7,0.39639431577233475,0.3843029357915154
8,0.3842849770652764,0.38478843189827566
9,0.3841742457334475,0.384977481524672
10,0.38414824310586304,0.3838766002013345
11,0.3841486155964196,0.3849475505900946
12,0.38414452373197894,0.3842743388775039
13,0.3840827114500117,0.38437965594339296
14,0.3840953660524645,0.3840052259129304
15,0.38405904964000465,0.38393516214602497
16,0.38407525481534377,0.38405643894058666
17,0.38404016330254753,0.38385476180176725
18,0.3840186960050484,0.3837926959267178
19,0.3840174755725212,0.3838303996447582
20,0.38399112463748547,0.38394376761558785
21,0.38397943114492866,0.3840918412405933
22,0.38395403334487743,0.38378465056504085
23,0.3759674588671672,0.37176325280324546
24,0.371669235095111,0.37185976547740834
25,0.3715968002501737,0.37210542065230245
26,0.37166579780733466,0.3714020305119096
27,0.37157631334368557,0.37176736142584943
28,0.3715625403857365,0.37187311157576247
29,0.3715755613237266,0.37209363491650815
30,0.3715955734967333,0.3713707336525571
31,0.37151073672139107,0.37139084546048
32,0.37154031939239635,0.3720380705909505
33,0.3715313792590136,0.3716026798332748
34,0.37153496733170255,0.3717439499465118
35,0.37147421529928004,0.37177667258412234
36,0.37150717252260934,0.3717310724524838
37,0.371473980523309,0.37170419792104814
38,0.37149242512747804,0.37131120859888356
39,0.37145021068526596,0.3713726700728815
40,0.371476641586843,0.37136970194369995
41,0.37146296934630024,0.3714636199468829
42,0.37143661095662484,0.37148870585188815
43,0.37146300210930056,0.37149975006100466
44,0.3714184584790314,0.3714620036434208
45,0.3714743431802357,0.3713829706587277
46,0.37143649273916945,0.3713912790104135
47,0.3714592241233117,0.37169944927649634
48,0.3714226250755292,0.37128546434792303
49,0.37143372661321894,0.37158420649127993
50,0.371441663169967,0.37129651247491463
51,0.3713891520186636,0.3712924471871852
52,0.37139498915121,0.3714781377651823
53,0.3713944117703047,0.37170134293903867
54,0.37141884798395597,0.37129235219989326
55,0.37137227616859164,0.37155843309980024
56,0.37139764027804817,0.3714129478877636
57,0.37141447861137517,0.3716833186702335
58,0.3713808989390432,0.3714379305197007
59,0.37136468960364805,0.3712634174909319
60,0.37139973515534325,0.3714446822837522
61,0.3713917022876151,0.3713642525236652
62,0.37136873149094174,0.3712741199342792
63,0.37136941004034374,0.3713094996270881
64,0.37137223284626364,0.37151916054811884
65,0.37139498780429214,0.37170336777097823
66,0.37136352575437753,0.3717314148059343
67,0.3713480392225424,0.3714563240482278
68,0.37133785276517217,0.3715771976510931
69,0.3713802974788045,0.3712820552036677
70,0.37136308406273943,0.3713507608921368
71,0.3713700728397016,0.3713183272136933
72,0.3713223483676153,0.37125486120128953
73,0.3713314082150288,0.37124784224345514
74,0.3713233429570323,0.3714330670972937
75,0.3713356272643764,0.37148846147178566
76,0.3713508761555693,0.37125466263914725
77,0.37132859159871884,0.37130396565507456
78,0.3713227810240324,0.37135739122323996
79,0.37134743833552036,0.3712681216040689
80,0.3713409152547009,0.37214601763105026
81,0.3713257739849273,0.3714296720203275
82,0.37132842201272487,0.37128839288009463
83,0.37133924621311,0.3716867699104678
84,0.3713217242836746,0.37138205657083245
85,0.37132952257803414,0.3712875501028194
86,0.3713345971785912,0.37130707832737275
87,0.3713243657872506,0.3714430738742789
88,0.37133342621917564,0.37149274143259486
89,0.37130997391489934,0.37159932272792984
90,0.37130838105323166,0.37124517014149894
91,0.3713048834986465,0.3713739036793691
92,0.37129026192315,0.3713271940743485
93,0.371297632254127,0.371207113099958
94,0.37130460751814276,0.3714584678670911
95,0.37131870316527843,0.3712124389004466
96,0.37132661397598815,0.37132983158782146
97,0.37130793359483677,0.37137281391713395
98,0.37129483220885984,0.37125003131377504
99,0.3713008191450736,0.37126306927125774
100,0.37128706276169704,0.3713682492326983
101,0.3712862613173356,0.37172793380573305
102,0.3713061452387724,0.37126742567298554
103,0.37130084947755077,0.37144868581730006
104,0.37128808188577345,0.3712566758604112
105,0.37127975899302856,0.3713730169583604
106,0.37128068824210503,0.3713456841255509
107,0.37127776099287085,0.3717692222311857
108,0.3713065809356378,0.37153499277643126
109,0.3712952127082126,0.3712466314612368
110,0.3712680481966717,0.3716231769959739
111,0.3713035014430359,0.3711724366763066
112,0.3712703466145739,0.3712597101699143
113,0.3712738072722222,0.3712932309951467
114,0.3712902734460746,0.37126260923331234
115,0.37127523005092,0.3712235450596385
116,0.37129030059479945,0.37154100693697445
117,0.37127999809142,0.3713033663049052
118,0.3712930145989822,0.37128037045916434
119,0.3712677901115389,0.3712090885243168
120,0.37125323621231127,0.37125518716319794
121,0.3712699719066856,0.3714636618787346
122,0.3712838014097711,0.3712196791864538
123,0.37129020527353573,0.3712555429539009
124,0.3712614189973618,0.37122315286446433
125,0.37125994871369017,0.37119815513811943
126,0.3712282457744352,0.3714918731838375
127,0.37126748499652423,0.37160079664840096
128,0.37128268753694166,0.37122750360645096
129,0.37126363613215996,0.3711833968046483
130,0.371250490440492,0.3711760263763624
131,0.37125687332608165,0.37123786900136246
