epoch,loss,val_loss
0,0.6088685096955032,0.6023483950241694
1,0.6014832553473399,0.6075849217003839
2,0.6010408332773858,0.6006845015576475
3,0.6009600932268246,0.6010542662195805
4,0.6008682524355707,0.60067612048173
5,0.6007010308909564,0.6003344128982786
6,0.6005453841131725,0.6005513786337774
7,0.6004527087524139,0.6005575226771723
8,0.6004009836646301,0.6004923201831371
9,0.6004015208363666,0.6002198075778024
10,0.6003291537721761,0.6001906210288926
11,0.6003563416366465,0.6001840658839293
12,0.6003333065867675,0.6012429054750391
13,0.6003015957086036,0.6001709766764055
14,0.6002692755745964,0.6001687481149642
15,0.600313221241813,0.6002124948216958
16,0.6002502428360631,0.6001813685328568
17,0.6002949233867445,0.60024422640105
18,0.6002148171965733,0.6001640005504753
19,0.6002958126109003,0.6002856940269301
20,0.6002467245214358,0.6002892623322115
21,0.6002242599209179,0.6002204327012363
22,0.6002561339272117,0.6001632765377578
23,0.6002100405825318,0.6001899887050399
24,0.6002184813087051,0.6002460401548249
25,0.6001980837668281,0.6002749533525346
26,0.6002051951528473,0.6001605147958797
27,0.6001981280922853,0.6001617899265482
28,0.6001923982176033,0.6001952459321265
29,0.6001776279615769,0.6002068162324438
30,0.6001950966588138,0.6001238274963949
31,0.6001815063494205,0.6002536646678956
32,0.6001984802054148,0.6003144259646808
33,0.6001770262832054,0.6003533333439368
34,0.6001795202908049,0.600129600252303
35,0.6001830975592078,0.600180965722359
36,0.600159042810624,0.6001538870749284
37,0.600169066049505,0.6001256013725553
38,0.6001673372437287,0.6001500971979307
39,0.6001707902243688,0.6001635768481736
40,0.6001786697700655,0.6002660626140194
41,0.6001660689031405,0.6001375258064202
42,0.6001698622685593,0.6001473373726347
43,0.6001618714468345,0.6001260413922771
44,0.6001662503374937,0.6001190822190979
45,0.6001668528827495,0.6002471683545908
46,0.6001569282639514,0.6001520332952951
47,0.6001670992543562,0.6001126243962681
48,0.6001528690432086,0.6001513224127535
49,0.6001661968052742,0.6001247799318158
50,0.6001542178699039,0.6005053220961695
51,0.6001620195372055,0.6002892726457528
52,0.6001471922687158,0.6001952962609374
53,0.6001587021745335,0.6001435820047036
54,0.6001565550561682,0.6001670957141075
55,0.6001526032528303,0.6001207396073036
56,0.6001535508349553,0.6001779031194449
57,0.6001425145656011,0.6001039227534619
58,0.6001594300226821,0.600155026848309
59,0.6001411811564561,0.6001325674708433
60,0.6001452331795184,0.6001744870606696
61,0.6001507715913803,0.6002593146460712
62,0.6001405492811462,0.6001444748460685
63,0.6001513268321468,0.600114819984026
64,0.600135637489638,0.6001436218717293
65,0.6001436212026297,0.6001548696991648
66,0.6001464197393206,0.600200913297196
67,0.6001390534088591,0.600174542059164
68,0.6001366016597482,0.6001354434240731
69,0.6001396913834196,0.6001399475085119
70,0.6001476419430306,0.6001167160025878
71,0.6001330727744985,0.6002002287385392
72,0.6001327963570229,0.6001128268551077
73,0.6001402441322469,0.6001314379262933
74,0.6001396496148473,0.6002022898478837
75,0.6001363424881864,0.60012003648639
76,0.6001341476092998,0.600115811460542
77,0.600128806053577,0.6001020137212018
78,0.6001360319572631,0.6001278505610793
79,0.6001355201143592,0.6001102882732737
80,0.6001294696506377,0.6001162143239841
81,0.6001290108528605,0.6001769180703617
82,0.600139797129178,0.6001501663537194
83,0.6001256141010994,0.6001152704549442
84,0.6001311926748327,0.6001044212977656
85,0.6001330914887502,0.6001146051362303
86,0.6001367689571113,0.6001163896330086
87,0.6001315250557568,0.6001721834348603
88,0.6001281077049061,0.6001418917169365
89,0.6001315630235922,0.6001121401575027
90,0.6001254122483752,0.6001254030539567
91,0.6001292656631758,0.6001185105587751
92,0.6001340103902785,0.6001854937270132
93,0.6001237217902257,0.6001293417043173
94,0.6001260074575878,0.6001402110332578
95,0.6001260905189342,0.6001145773934394
96,0.6001267155692954,0.6001274353510365
97,0.6001279367762299,0.6000994345734779
98,0.6001290476926169,0.6003922267353202
99,0.6001232147349512,0.6002111411429273
100,0.6001273883957084,0.6001159351912713
101,0.600134293430806,0.6001049890825688
102,0.600125938932789,0.6001089927167108
103,0.6001235826087139,0.60011067487224
104,0.6001224027298502,0.6001225620227589
105,0.6001267678082479,0.6001741802804655
106,0.6001216111826525,0.6001986474312311
107,0.6001202886321503,0.6001161767759169
108,0.6001299580142503,0.6001173007189645
109,0.6001214838254981,0.6001354565330711
110,0.6001268271446386,0.6002422825950017
111,0.6001194068400443,0.6001085665683844
112,0.6001221004470338,0.6001063832107499
113,0.6001226906766037,0.6001049405962181
114,0.6001189197965243,0.6001927123694082
115,0.6001190260477299,0.6001220789064118
116,0.6001211000329737,0.600321336164422
117,0.6001222092395939,0.6001254591431028
