epoch,loss,val_loss
0,0.10548320614679502,0.07781173937586155
1,0.07733576466649719,0.07694624952385434
2,0.0771444949240766,0.0771276736971997
3,0.076977160204153,0.07736392051405612
4,0.07690775249152747,0.07702277959018909
5,0.07677334115132996,0.07639728964335253
6,0.07676997164781343,0.07640713795027626
7,0.0767051765576767,0.07674049603728123
8,0.07659482955621567,0.07680534121467698
9,0.0765714407974966,0.07632204919119528
10,0.07650166405542153,0.07606220964807148
11,0.07643548331394398,0.07698249168924728
12,0.07640969753099928,0.0761584055344001
13,0.07642602574690649,0.07642687707130813
14,0.07640071961579406,0.07706418827518385
15,0.07631518203356454,0.07659362990228262
16,0.07630575455130954,0.07599599662460778
17,0.0763113559060617,0.07782796503768409
18,0.07627640095494463,0.07628535362602723
19,0.07623907363457173,0.07686077827873727
20,0.07624290669002454,0.07632010549184566
21,0.07624962360752456,0.07632312802795929
22,0.07616206013368207,0.07611204512119103
23,0.07618070788702222,0.07590930975430786
24,0.07614608036238053,0.07607605385528103
25,0.0761307818734421,0.07622909556699257
26,0.0761561169978153,0.07687007318637153
27,0.07606364887557414,0.07577830894054974
28,0.07610952296536005,0.07619376911698886
29,0.07610701640947926,0.07589234607878419
30,0.07606339371573984,0.07577022180983312
31,0.07608556573757963,0.07721500911427315
32,0.07603652410505074,0.07582085029784598
33,0.0760362793592458,0.0757389837713255
34,0.07605229211610527,0.07614549339668955
35,0.0760751122504364,0.07646397207027011
36,0.07601015746801548,0.07582818616062684
37,0.07600832380964129,0.0759142236995054
38,0.07602020045284669,0.07638245787306146
39,0.07599868818736741,0.07595572547129094
40,0.07599629863039997,0.07627379498914799
41,0.07600704250898316,0.07605089085174702
42,0.07598937741938169,0.07589131897358169
43,0.07595216780652116,0.07663899343471718
44,0.07599418132031728,0.07628184840006087
45,0.07597283965724363,0.07657332774361891
46,0.07598641006290356,0.0757765004045323
47,0.07596413414431594,0.07634071624741869
48,0.07595825494430355,0.07612944148869642
49,0.0759626979954191,0.07617492133405349
50,0.07592895777417906,0.07617275544912241
51,0.07592496542769693,0.07601142398588555
52,0.0759329372887785,0.07625819065682587
53,0.07598160714131307,0.0758753982276536
54,0.07588040132144144,0.07600448880296383
55,0.07595385802684104,0.07626858094951043
56,0.07593095706007374,0.07577737566489295
57,0.07591671434578494,0.07595330138758721
58,0.07586849363945573,0.0765942799647448
59,0.07595437162954602,0.07606674934643225
60,0.07591138859454709,0.07578902595070375
61,0.07589739028595954,0.07579163717053271
62,0.07592156347045224,0.07628178512710806
63,0.07592240625137509,0.0762736646073628
64,0.07587430207930307,0.07612922121271588
65,0.07590417464379165,0.07722905022798238
66,0.07590550488284975,0.07570104936159337
67,0.07587381693445532,0.07642510210698025
68,0.07593165901536751,0.07603798097466404
69,0.07589871622246436,0.07574236964227066
70,0.0758675694041947,0.07574287481768416
71,0.07592980254165425,0.07564121863698486
72,0.07586358961606958,0.07671758575449428
73,0.07590729106555444,0.07633252263312171
74,0.07584045640090172,0.07637920374254145
75,0.07586673184964446,0.07589874565577523
76,0.07584787206352432,0.07568864152887728
77,0.07587412607739559,0.07564655595567697
78,0.07587345429907434,0.07577771616154869
79,0.07589343725510699,0.07617412167784693
80,0.07586700584939678,0.0764086804215854
81,0.07585295459422865,0.0760967727913942
82,0.07586628562387025,0.07684130550434688
83,0.0758480811486066,0.07614740077073606
84,0.07587600909699958,0.07638632180955958
85,0.07586505527351174,0.07588953094502626
86,0.07581783791510263,0.07597047670756818
87,0.07584466885628638,0.07564666140980414
88,0.07586657958166705,0.07613848875337449
89,0.07579695788174075,0.07568369317631639
90,0.07586210332328751,0.07591199964898002
91,0.07586249304082314,0.07695141600533563
92,0.07582881394969783,0.07597588716488889
93,0.07583402633906038,0.07593617065037478
94,0.07581760810163009,0.07607488932274352
95,0.07580436823519844,0.07572475726312332
96,0.07579519994802633,0.07597601044989977
97,0.07583114805983612,0.07586261354081444
98,0.07583437729913622,0.07605734996270098
99,0.07580275199216377,0.07625914720050728
100,0.07581270246124577,0.07608577627169452
101,0.07581439405938603,0.07577928512723044
102,0.0758090932881986,0.0764695422105721
103,0.07585353131724067,0.07592478777143306
104,0.07577577913277031,0.07568528355343322
105,0.07581665363969468,0.07584315008133743
106,0.07582632660706155,0.07601267637753736
107,0.07581925342184292,0.07592919679416278
108,0.07579405033056791,0.07598645983736683
109,0.07581295074561158,0.07580696224963011
110,0.07581450015744326,0.07598431921881069
111,0.07581897969693993,0.07673239105959878
112,0.075808739952559,0.0757698167814525
113,0.07580149277925177,0.07611918061485627
114,0.07580610884182425,0.07590403483616405
115,0.07580560107144427,0.07591058815092012
116,0.07579910320726127,0.07620308131268619
117,0.07578167944839746,0.07584244609498549
118,0.07579323384054076,0.07570851810583458
119,0.07580224896377832,0.07596295152030469
120,0.07577857496050862,0.0758548596040886
121,0.07580417612426198,0.07611539313883464
122,0.07578999700347372,0.07618198997858255
123,0.07581256553883438,0.07562188323116033
124,0.07584130068055743,0.0757730620106273
125,0.0757651784638511,0.07563321472440505
126,0.0757901167052816,0.07614882909782417
127,0.0758090569987573,0.07707299174986014
128,0.07580403892700126,0.07651625610286414
129,0.07578782516720452,0.0758792694874653
130,0.07580952129840549,0.07562848938337072
131,0.07578676222476532,0.07721102343644756
132,0.07583101673904306,0.07619302488487426
133,0.07576835985389047,0.07609751517744211
134,0.07581897152631104,0.07559770261068204
135,0.07580006240232295,0.07888161268914959
136,0.07579230130453918,0.0762522384299593
137,0.07578462931312888,0.07589211860159494
138,0.07580932297486852,0.07574742756319765
139,0.07582254602942994,0.07594370974329738
140,0.07578392166674017,0.07561531216136455
141,0.07580510348921822,0.07573545327739586
142,0.07578242129304309,0.07605858660977462
143,0.07580322120898735,0.0758805121698944
144,0.07578847589768026,0.07628594444281307
145,0.07579002259179289,0.07599598953537816
146,0.0758058907568001,0.07595951927373425
147,0.07576242369474898,0.07581075285828673
148,0.07576346858740403,0.07586643759905577
149,0.07581191738094295,0.07617052683525043
150,0.07579084436888052,0.07589296482680913
151,0.07579447021561218,0.07578904145385185
152,0.07576014168539923,0.07745497666840576
153,0.07580451688056522,0.07582491285051039
154,0.07577184506420427,0.07641840848797948
155,0.07578949096094494,0.07593640521639657
156,0.075765702107656,0.07561246609358062
157,0.07582937344919435,0.07613719677433355
158,0.07576676208929368,0.0759935565715735
159,0.07576579885388747,0.07588928965112583
160,0.07579961347941198,0.07600002503357596
161,0.07576684752957567,0.07593832650047017
162,0.07576627989492322,0.07622830311874525
163,0.07578606537790977,0.07597307924067855
164,0.07578216857640943,0.07567619316330318
165,0.07579199885407718,0.07599442032469252
166,0.07577732647035992,0.07609383537011291
167,0.07577228417811177,0.07586384670462352
168,0.07577068468374455,0.07571072783375742
169,0.07577239685031581,0.07583274283890962
170,0.07581182412231303,0.07846103258137509
171,0.07579154822409584,0.07595986850158254
172,0.07573213451329561,0.07692633115288444
173,0.07581913231243328,0.07673961637955716
174,0.07574287766216808,0.07569044696104868
175,0.07578356965438786,0.07552572538119125
176,0.07578043122648,0.07567951660471253
177,0.07575676693181733,0.07657687220435937
178,0.07576477072174626,0.07612265498581734
179,0.07578685971301714,0.07573214196348117
180,0.07578054022154035,0.0757020756873102
181,0.07578610546037753,0.0758861336125047
182,0.07576988224716734,0.07570760072664254
183,0.07574005648012631,0.07573504206951649
184,0.07576028299037663,0.07572638278857151
185,0.07579499956407912,0.07613310060530705
186,0.07575463097592525,0.07589259614477735
187,0.07577489393498049,0.07566158805934566
188,0.07576152146927298,0.07614152167296795
189,0.07578109330228285,0.07562923613183821
190,0.07576427251086774,0.0757845005975796
191,0.07575070668201479,0.0757593742259014
192,0.07576301967084642,0.07677420682115912
193,0.07577859113101966,0.07597729413931109
194,0.0757483447667616,0.07594896905107906
195,0.075764615027517,0.0758363946836297
196,0.07579564499161096,0.07763787846743651
197,0.07574004323904705,0.07609611285769698
198,0.07576919113038728,0.07715138609695363
199,0.07573885809329396,0.07584047818432635
200,0.07582159318866209,0.07561324939766285
201,0.07573367393988403,0.07562923301389551
202,0.0757570778698486,0.07592365415942051
203,0.0757540745451713,0.07581969976944564
204,0.0757590287279952,0.07602655785551891
205,0.07576002977705523,0.07570910716311914
206,0.07574754358490823,0.07559795368686957
207,0.07577238752509478,0.07607554701328506
208,0.07572799108076093,0.07585609860589991
209,0.07578240754442243,0.07563713802233095
210,0.07572971131266726,0.07569078497907497
211,0.07577413316524201,0.07581771739084939
212,0.07577425595743363,0.07576154625975538
213,0.07575647853725397,0.07626078380712065
214,0.07579626806793044,0.07585453173883344
215,0.07572892550510242,0.07572502321347
216,0.07578017082869144,0.07583401689136841
217,0.07573979103445508,0.07599505618407593
218,0.07574122102508593,0.07567251721051674
219,0.07574688001738768,0.07662771669726366
220,0.07575633253978536,0.0759116116017127
221,0.07574810050010643,0.07575622522766794
222,0.07577970967389389,0.07625930271842221
223,0.07577621012164756,0.07599020590892017
224,0.07570087606755374,0.07586259614752279
225,0.07574707546629067,0.0770545000382046
226,0.07574779750835078,0.07556015793822794
227,0.07574861683992146,0.07595410442580065
228,0.07576511107725792,0.07571890697932311
229,0.07572461175076917,0.07634581347737543
230,0.07575580842602983,0.07597631308173838
231,0.07575628957838186,0.07610339848673599
232,0.07574142727696348,0.07569164128955516
233,0.07574590346300729,0.0777659949139797
234,0.07574974489272764,0.07584298168066461
235,0.07575004721929897,0.07586156918725778
236,0.07576186405726525,0.07575987867186244
237,0.07577097730091467,0.07592865009356592
238,0.0757113528499138,0.0757136717899321
239,0.07577119296371754,0.07579236414992517
240,0.07573579560023644,0.07607122680228612
241,0.07575180521409836,0.07580736682254965
242,0.07575754167400031,0.0757572917491142
243,0.07573638854220392,0.07717205605015523
244,0.07574837419952977,0.07576342082591299
245,0.07575433673957299,0.07588642307329882
246,0.0757640629462386,0.07575502996600234
247,0.07571006394513537,0.0759486635590085
248,0.07573762018917882,0.07571041694008541
249,0.07576406389739063,0.07574940358082546
250,0.07576332270058991,0.07580531531671773
251,0.07573742221640067,0.0758210207169221
252,0.0757433035721238,0.0760712895405586
253,0.0757407086231012,0.07674773563894198
254,0.07574173457186803,0.0759106318056917
255,0.07573289154705558,0.07565249522513293
256,0.07575890954703109,0.0756730717909474
257,0.07573853499650604,0.07572034694131698
258,0.07574516907000114,0.07693025094213207
259,0.07575204331070734,0.07585331419412245
260,0.07575092072762095,0.07584911464774417
261,0.07576080308873785,0.07664323684116203
262,0.07572388958111226,0.07584899871245329
263,0.07577098673645928,0.07623014221413522
264,0.07572796922272873,0.0757705743287549
265,0.0757506357636112,0.07691770219722803
266,0.0757524728265299,0.0757070584655005
267,0.0757395246546403,0.07601549510574478
268,0.07575199593986838,0.07601338708422328
269,0.07572217339590383,0.07591143252847928
270,0.07575362944970085,0.07586676000671995
271,0.07574535974924598,0.07574291385709048
272,0.07574366148351148,0.07594593548145095
273,0.07573766277460857,0.07765085959657832
274,0.07575653657830858,0.07595859442331297
275,0.07571608446289807,0.07698271288170919
276,0.07581024235430386,0.07602094128757297
277,0.07573580607753475,0.07629467557184745
278,0.07571028320215724,0.07642116439035629
279,0.07574704716501748,0.07607784477662971
280,0.07576243445391177,0.07591029465411357
281,0.07574002042827448,0.0758790643528848
282,0.07574620891424406,0.07571899739688173
283,0.07572020922765127,0.07568746226394138
284,0.07574733889913572,0.07565916947333891
285,0.07577466912921882,0.07624000261698502
286,0.07573447715653564,0.07572779376922446
287,0.07571712242826498,0.07614907452383256
288,0.0757494352691816,0.07664619918771881
289,0.07573769365819466,0.07585127312259773
290,0.07572966209895471,0.07660914214609567
291,0.07575002971372044,0.07634201436823494
292,0.07571294375135175,0.07561008744956346
293,0.0757452123068496,0.07639153790929479
294,0.07574452957485985,0.07575259173798903
295,0.07574049087910728,0.07564994678666061
296,0.07574266220717328,0.0758183992760227
297,0.075714755875914,0.07589962336379238
298,0.07575984845976183,0.07562145880935085
299,0.07572832067916141,0.07579829804517882
300,0.07572987924665862,0.07576276307779353
301,0.07573830930583943,0.07594740524477449
302,0.0757359634898866,0.07567177308799869
303,0.0757271032747153,0.07570356205907901
304,0.07573749602730709,0.07592414917054731
305,0.07572588694120866,0.07570798920753102
306,0.07574849409902003,0.07683343180717198
307,0.07571789601962813,0.07562854644466055
308,0.0757396011748608,0.07595693772082034
309,0.07572867638559971,0.07594456169413763
310,0.07572443273604196,0.07560085976869702
311,0.07574597797013688,0.07584509456255527
312,0.07570830588203728,0.07608735724455296
313,0.07571427452389416,0.07574261583545495
314,0.07571957853179132,0.07638833257485597
315,0.07573004416551395,0.07571229750427211
316,0.07570917153481768,0.07605902484114767
317,0.0757380825298059,0.07598633288603338
318,0.07575105726744051,0.0763203237061402
319,0.0757154527135704,0.07634493208218852
320,0.07572154676977272,0.07572980073477638
321,0.07574763993319389,0.07589434101055446
322,0.0757210290013104,0.07561168014329742
323,0.0757230393715147,0.07560658379051023
324,0.07572697475708084,0.07570313136663885
325,0.07572360422742931,0.07563512980475746
326,0.07572949655574869,0.07607226613306424
327,0.07571493763139121,0.0757874977807529
328,0.07570732793408547,0.07630244416711313
329,0.07574244302010465,0.07579842605515151
330,0.0757097275836416,0.07610183337480282
331,0.07571070478944068,0.07567457864357326
332,0.07575703147332499,0.0764527648055197
333,0.075712113904892,0.07554805080511547
334,0.07572802625829679,0.07634597520695334
335,0.0757269225886554,0.07564204542747294
336,0.07572916459025564,0.07634529014665652
337,0.07573999104898047,0.0756634570047087
338,0.0757711517659029,0.07634097948763306
339,0.07568702762874598,0.07574004691632415
340,0.07573384982571021,0.07601849280989882
341,0.0757242495795149,0.07593371330888034
342,0.07573482909112537,0.07583035779064133
343,0.0757301086509346,0.07566149118234054
344,0.075714762185271,0.07572721719681463
345,0.0757251143829957,0.07617091041566378
346,0.0757170193976929,0.0758458481151425
347,0.07572389959428386,0.0756290785875782
348,0.0757133885899079,0.07557495711346982
349,0.0757393275359268,0.0758816448936189
350,0.0757031043611684,0.07628007145822985
351,0.07574480857994052,0.07579105039452437
352,0.07571675190570794,0.07582862439954458
353,0.07571956160125873,0.07564293488455893
354,0.07570870738056895,0.07569677770147316
355,0.07574382594657887,0.07575040024717193
356,0.07570134517914967,0.07567687031001366
357,0.0757357373076282,0.07585914946279693
358,0.07570051762744678,0.07665837662265619
359,0.07575419044402558,0.07619629959155265
360,0.07571874343169246,0.07615329436979676
361,0.07573226204827592,0.07567361789392535
362,0.0757691042662892,0.07635438342282927
363,0.0757130324320496,0.07675448064721356
364,0.07573193601848245,0.07587118912771149
365,0.07573058450881388,0.07613658140275624
366,0.07571776519406681,0.07590129452588328
367,0.07573289177312956,0.07597470467757589
368,0.07573271896332588,0.07733239659848247
369,0.07573754219206515,0.0762789790096526
370,0.07570527878749367,0.07566686761707714
371,0.07574186137343152,0.07568358945389429
372,0.07572860201036868,0.07562670813908057
373,0.07572584013522377,0.07563430454981249
374,0.07573163964316322,0.07577450454238253
375,0.07575491203241556,0.0761198391857441
376,0.07568003537053605,0.07716499630597864
377,0.07575173219974536,0.07584894224679693
378,0.07571299245904507,0.07561345119629881
379,0.07572349593070991,0.07583502002351479
380,0.07572885396731169,0.07563952751720167
381,0.07570418413599389,0.07593726435415032
382,0.07576415122760086,0.07567594237778479
383,0.0757088535227752,0.07582953629454069
384,0.07569662245042304,0.07604411720263833
385,0.0757318455572534,0.07649963945134491
386,0.07572464702559095,0.07590476702695233
387,0.07573284289243934,0.07606725770332269
388,0.07571548298313001,0.07801233664689489
389,0.075715793689131,0.07579890875850527
390,0.07572758751169334,0.07716642470295441
391,0.07576167415716825,0.07617929991673592
392,0.07571766657590832,0.07598192435370854
393,0.07570848564116735,0.0757909741220695
394,0.07572217721169652,0.07584035812645765
395,0.07573018985054247,0.07645487775253296
396,0.0757025002922708,0.07613754194909458
397,0.0757298596430791,0.07602146272020656
398,0.07573907851152607,0.0760075924127352
399,0.07571091624062283,0.07570732978885822
400,0.0757098546756069,0.07573540659243826
401,0.0757199498158259,0.0758626019180199
402,0.07573107594594397,0.07563871249762233
403,0.0757330941288046,0.0758421683542727
404,0.07570336515577768,0.07579326169968464
405,0.07571832670804404,0.07582200594670875
406,0.07571339717390276,0.07586743589267289
407,0.07574594573023924,0.07561960499665188
408,0.07571128538185193,0.07592791512514022
409,0.0757280850113918,0.0755897415491657
410,0.07571273396786234,0.07578985538898117
411,0.0757301494269783,0.07637808735068975
412,0.07570584240132497,0.07560551754662917
413,0.07568971806259192,0.0757839527990317
414,0.07576912792179491,0.07590057539296914
415,0.07568368127259813,0.07659361631171362
416,0.07572198791159564,0.07552803391358914
417,0.07573320037755578,0.07573642114764342
418,0.07567948461790558,0.0758473457497447
419,0.0757626854644016,0.07564411234075451
420,0.07570391109295281,0.07563706352724638
421,0.07571011691408508,0.07682663301478594
422,0.07570041113806183,0.07575362400058325
423,0.07572387222185974,0.075751224732757
424,0.07572119813092609,0.07572331638722915
425,0.07574615764852624,0.07561921903767553
426,0.07571551652116619,0.07580478430550369
427,0.07571371788890593,0.07585595071447598
428,0.07573612503761876,0.07575306190683194
429,0.0757257511668375,0.07671457136069026
430,0.07572629102622264,0.07583631086449871
431,0.07570671178326725,0.07566291780790235
432,0.07572325792271717,0.07582376620722867
433,0.0757950677216799,0.07566706389260243
434,0.07567481905942516,0.07647852642943227
435,0.07570723323171903,0.07598004195973582
436,0.07572147576851063,0.07614226758774711
437,0.07572185173352093,0.07573237103736521
438,0.07573160832675399,0.07573888581860633
439,0.07569229274430667,0.07591955562930292
440,0.07572100572985252,0.07568559393049246
441,0.07571062800747469,0.07584708683740315
442,0.07572118116908992,0.07827581918958165
443,0.07571766409266824,0.07579577960042577
444,0.07570318734521211,0.07588185494654355
445,0.0757134941500467,0.0759233233616632
446,0.07570310284496376,0.07696540048939075
447,0.07571217713750805,0.07595989580859776
448,0.07571736527169969,0.07640723421099928
449,0.07573773305132207,0.07586339009041307
450,0.07573729029885436,0.07649775331441143
451,0.07570281485873659,0.07595166160862996
452,0.0757246838310448,0.07571059901570865
453,0.07571123251885785,0.07607946849691138
454,0.0757372066465158,0.07581522957714346
455,0.07570843583546656,0.07654037608150124
456,0.07570534499222817,0.07570019095011538
457,0.07572335780771063,0.07630329231701763
458,0.07570426350530253,0.07579181406295345
459,0.075735335403937,0.07667537264504845
460,0.07570044303838523,0.0761860541160291
461,0.07575288376537122,0.07615823677118505
462,0.07570227961573461,0.07579779051145384
463,0.07570873877599818,0.07770084595358435
464,0.07572789203103673,0.07568994151283504
465,0.07572032382916118,0.0755784921004613
466,0.07571461812240274,0.07609899485329795
467,0.07572421717502534,0.07564726631292458
468,0.07571463290099689,0.0762850972252735
469,0.07575434907635631,0.07606284611817775
470,0.07571429092544275,0.07566767249420966
471,0.07572200618513744,0.0759332373560393
472,0.07568875656330952,0.07590972790806773
473,0.07573907023540481,0.07621836023892521
474,0.07574522210420523,0.07616889804731915
475,0.07571124925256842,0.0757674419161341
476,0.07572034103771978,0.07588909578076851
477,0.07571172462699616,0.07574123662192069
478,0.07571236840304958,0.07635015971318927
479,0.07572285374240269,0.07637573898311922
480,0.07569853440868855,0.07604812126925764
481,0.07571628426941684,0.07575609045090188
482,0.07572600792454368,0.07606294519545294
483,0.07573678448498061,0.07589599400900107
484,0.07572086481666611,0.07635928134270673
485,0.07575451804396112,0.07579025527466235
486,0.07570772813335352,0.0761748894128643
487,0.07573077671855845,0.07585542994061303
488,0.07570904946902772,0.07581226571172131
489,0.07572384957045078,0.07597232368596867
490,0.07570567098740902,0.07664820599403804
491,0.07570763032015344,0.07607835457733571
492,0.07571152848239945,0.07629192836373395
493,0.0757227370687685,0.07559916309959527
494,0.0757003985593211,0.07567460175097539
495,0.07572620695952541,0.07592820610956477
496,0.07570703129291753,0.0755841502364762
497,0.07572540363036627,0.07573255924046857
498,0.07573991018087277,0.07668758063518892
499,0.07568849865544532,0.07667767756790747
500,0.07573885597246054,0.07597457353496821
