epoch,loss,val_loss
0,0.5620331790128889,0.5544188800788218
1,0.5518863257785325,0.5510265376623326
2,0.5512491245931318,0.5512280139518178
3,0.5512170700038386,0.5508216319085861
4,0.5510004707019446,0.5520547728785021
5,0.5509414030990142,0.5509752693767551
6,0.5508571564268799,0.5509472271226655
7,0.550750908952826,0.5511529784703216
8,0.5505854362257422,0.5510593264008483
9,0.5504314314001227,0.550795339292776
10,0.5503428725365888,0.5503005203905951
11,0.5503709686303107,0.5502557580435884
12,0.5503595412239176,0.550214305051501
13,0.5503234520664315,0.5502117410458348
14,0.550323534049114,0.550340843223979
15,0.5503337036587161,0.5502267022881717
16,0.5502900585038389,0.5504735272929011
17,0.5502706173639988,0.5501969802610445
18,0.5502437729000478,0.550284742313669
19,0.5502920589578155,0.5501829585569074
20,0.5502475240210963,0.5502469590998263
21,0.5502422796015879,0.5502116493463812
22,0.550233204947255,0.550286318919527
23,0.5502401772534167,0.5502097693169852
24,0.5502420046976301,0.5504676470177956
25,0.5502259970970687,0.55015473152736
26,0.5502179010900952,0.5501444215756747
27,0.5502146343102597,0.5501464272312043
28,0.5502118615781996,0.5503102987395826
29,0.5501984834436651,0.5501825292319256
30,0.550209497486051,0.5501644961955514
31,0.5502101047624617,0.5501520687382987
32,0.5502072372887077,0.5501617614552445
33,0.550200983047892,0.5501569064880354
34,0.5502011608382252,0.5503080809999473
35,0.5501836814927132,0.5502610491973551
36,0.5501981114020812,0.5502474567970219
37,0.5501840789831381,0.5501812030841707
38,0.550204009270175,0.5501767817833725
39,0.5501782369203643,0.5501639574877342
40,0.5501941226036818,0.5501864187500155
41,0.5501778000925962,0.5501869580825749
42,0.5502008779473552,0.550181503712252
43,0.5501762045850961,0.550205615014076
44,0.5501809969272979,0.5502370663594768
45,0.5501811769173147,0.550124873772335
46,0.5501826084086227,0.550143269550993
47,0.550182543244059,0.5501494926719306
48,0.5501637280228764,0.5501910921078335
49,0.5501854500212713,0.5501477352296678
50,0.5501876507495087,0.5501698166910254
51,0.550180018388652,0.5503914851154605
52,0.550183455773847,0.550446562729756
53,0.5501654092926178,0.5502267960736289
54,0.5501800918662684,0.5501765252578574
55,0.550171948396677,0.5501369784496292
56,0.5501756861417301,0.5501424458654169
57,0.5501806593973074,0.5501834322703544
58,0.5501693847531419,0.5501915693791346
59,0.5501755823669332,0.550428009568999
60,0.5501674210697404,0.5501473996689654
61,0.5501735246209443,0.5501857193987331
62,0.5501715605422209,0.550190969044202
63,0.5501665635659235,0.5501928104666457
64,0.5501693142220848,0.5501531493729439
65,0.5501750773221524,0.5502279509573005
