epoch,loss,val_loss
0,0.5569311778051849,0.5526088509641801
1,0.5517567604173802,0.5509110319718181
2,0.5511525842826471,0.5535571184118511
3,0.5510546748541638,0.550775594282667
4,0.5509086002446131,0.5506459824842804
5,0.5395533444233845,0.500856026162642
6,0.5007890492651569,0.5006973960298399
7,0.5008671912354183,0.5012281407130762
8,0.5007513123485116,0.5004785741004496
9,0.5006101456280782,0.5003956576439008
10,0.5004967962896129,0.5015041692512331
11,0.5004767176015952,0.5002785874611744
12,0.5004070944801546,0.500286885922873
13,0.5004459484364394,0.5004026705978565
14,0.5003482607383076,0.5002876566218364
15,0.5003849722240821,0.5002182060182571
16,0.500341236841239,0.5006829526564605
17,0.5003181322274295,0.5002916109331084
18,0.5002954620878115,0.5003812848981606
19,0.5003106777698552,0.5002680556730513
20,0.5003060048614292,0.5002253461549074
21,0.5002793544778933,0.5002207617646192
22,0.5002887881253668,0.5002235571790449
23,0.5002457854658373,0.5001743446448531
24,0.5002949761384858,0.5003334546220474
25,0.5002866539580261,0.5002203688864642
26,0.5002348757375802,0.5002046311954174
27,0.5002521659639656,0.5002385169389426
28,0.5002748322562554,0.500559792528781
29,0.500263506732762,0.5002202183447632
30,0.500240720814683,0.5004165132021603
31,0.500242918978976,0.5001634402668144
32,0.5002613819896106,0.5002154142146298
33,0.500240174074747,0.5001587929363932
34,0.5002374453532983,0.5002072534927108
35,0.5002488246659704,0.5001968594443673
36,0.500228860470206,0.5002010579027869
37,0.5002388663262226,0.5008083789360038
38,0.5002361474172258,0.5002033187178698
39,0.5002410634542078,0.5003232179875695
40,0.500215455919704,0.50017687988061
41,0.5002183504617064,0.5002732246950055
42,0.5002319685537512,0.5001662570071869
43,0.5002191046919379,0.5002063556216415
44,0.5002254715458165,0.5001493796274704
45,0.5002020478748396,0.5001879908789071
46,0.5002213106836026,0.5001748548474823
47,0.5002156937763613,0.5002472497023831
48,0.5002125170367139,0.5001495202050622
49,0.5002147221290215,0.5002567491727901
50,0.5002188488664927,0.5001590592354181
51,0.5002112839489474,0.5001430197303387
52,0.500206004227202,0.5001728611891213
53,0.5002119677144794,0.5004307041055548
54,0.5002077653971271,0.5001431589631463
55,0.5001990577171999,0.5002848688737391
56,0.5002035242323484,0.5001884673031001
57,0.5002151112343888,0.5002934985017666
58,0.5001909610226489,0.5001656560581008
59,0.5002058435500671,0.5001681774012846
60,0.500198960421445,0.5002042579278151
61,0.5001999196768581,0.5002898648844496
62,0.5001994001873011,0.5002228703543737
63,0.5001973690732949,0.5002087746765204
64,0.5002016865365935,0.5001576243083925
65,0.5001939215085636,0.5001530051231384
66,0.5001904336718355,0.5001383331364564
67,0.5001970039794917,0.50014812922177
68,0.5001981585309346,0.5001869902324456
69,0.5001998563434816,0.5001724685333321
70,0.5001905839802442,0.5001468666177127
71,0.5001914498705305,0.5001566008747228
72,0.5001869079378651,0.5001842535120236
73,0.5001922327037063,0.5001466228199971
74,0.5001867191124062,0.5001549278785501
75,0.5001803134591044,0.5001432339639811
76,0.5001805376785715,0.5004162159413338
77,0.5001847390542108,0.5002265907579172
78,0.5001873640700439,0.5002266533062627
79,0.50017648262565,0.500154210960363
80,0.5001784802982553,0.500184493042432
81,0.5001822403705191,0.5001698330952741
82,0.5001817482753511,0.5001737513620956
83,0.5001778856311984,0.5001531902692059
84,0.5001807448723757,0.5001478875100581
85,0.5001684434574806,0.5001606229864105
86,0.5001703576988314,0.5002238027662764
