epoch,loss,val_loss
0,0.5568776377571953,0.5556478927930196
1,0.5556939268377092,0.5556092271010081
2,0.5556468118959003,0.5555796771049499
3,0.5556328475740221,0.5555874120394388
4,0.5556187739902072,0.555576335867246
5,0.5556083897087309,0.5555828694105148
6,0.5556026651991738,0.5555813081264496
7,0.5555979533195495,0.5555790858666102
8,0.555595367776023,0.5555720599889755
9,0.55559376472897,0.5555749288400014
10,0.5555913152959612,0.5555706399679184
11,0.5555903541776869,0.5555718690554301
12,0.5555902402798335,0.5555802715619406
13,0.5555887513160706,0.555570911804835
14,0.5555877656274372,0.5555745874245962
15,0.555586205734147,0.5555823426246643
16,0.5555850486755372,0.5555762999455134
17,0.5555853028959699,0.5555727737744649
18,0.5555846746762594,0.5555837756792704
19,0.5555843854877683,0.5555797723134359
20,0.5555842553774516,0.5556021208365758
21,0.5555839934216605,0.5555914448102315
22,0.5555839698712031,0.5556237419048945
23,0.5555838541057375,0.5555738765796026
24,0.5555839157104492,0.5556230588754019
25,0.5555832823647393,0.555573590517044
26,0.5555837384859721,0.5555728540023168
27,0.5555831132200029,0.5555768429040909
28,0.5555831112994088,0.5556295344034831
29,0.555583300696479,0.5555702939033508
30,0.5555826880004671,0.5555733501513799
31,0.5555830969545577,0.5555870518287023
32,0.5555822729269664,0.5555811627308528
33,0.5555817818774117,0.555590521812439
34,0.555581956770685,0.5555761067469914
35,0.5555821217033599,0.5555694909095764
36,0.5555824264685313,0.5555859172344207
37,0.5555811340411504,0.5555856964985529
38,0.5555806738270653,0.5555893435080846
39,0.5555806347131729,0.5555746660629908
40,0.5555808546410667,0.5555795396963755
41,0.555580764664544,0.5555805097818375
42,0.5555810813241535,0.5555816462039948
43,0.5555803930891885,0.5555720581213633
44,0.5555803341070811,0.555590674440066
45,0.5555805961026086,0.5555750391880672
46,0.5555801278617647,0.5555716897249222
47,0.5555807350476583,0.5555770463943481
48,0.5555793645117018,0.5555711499849956
49,0.5555797486040327,0.555573932647705
50,0.5555796669324239,0.5555754754940668
51,0.5555790812439388,0.5555754778385162
52,0.5555794499980079,0.5555699756145477
53,0.5555790028836992,0.5555795812606812
54,0.5555787520143721,0.5555706677834192
55,0.5555782406462564,0.5555695693095525
