epoch,loss,val_loss
0,0.2238793874581655,0.2223878676990668
1,0.22240928969780605,0.22263747111956278
2,0.2223651242852211,0.22235319070021312
3,0.22233642442358864,0.2224263286292553
4,0.22232326997319857,0.22240506805976232
5,0.2223107090095679,0.22226082305113473
6,0.22230402941836253,0.22224666624267897
7,0.22229488188359472,0.22230149364471435
8,0.22228879625929726,0.22227633342146874
9,0.22228308182292514,0.22224834701418877
10,0.2222793450024393,0.2222674713631471
11,0.22227770160635313,0.22229807130495707
12,0.22227609017822478,0.22225487910707792
13,0.22227678546971744,0.22228992506861686
14,0.22227386085192363,0.22228427269061407
15,0.22227541069189707,0.2222692719399929
16,0.222271964367893,0.2222974068025748
17,0.2222725876470407,0.22226280645529428
18,0.2222712828020255,0.2222522016465664
19,0.2222708123061392,0.2222505909204483
20,0.22227138314975634,0.22230175158381463
21,0.22227071552144156,0.22228594599167506
22,0.22227047800355487,0.22225643494725228
23,0.222268467237552,0.22226293418804804
24,0.22226969700720575,0.22226086190342903
25,0.22226794140537579,0.2222493611872196
26,0.22226551137367884,0.2222605821788311
