epoch,loss,val_loss
0,0.7782731567223867,0.7778030510743459
1,0.777836921175321,0.7778274118502935
2,0.7778197308911218,0.7777858596245448
3,0.7778076132933299,0.777891807715098
4,0.7778032813734479,0.777790631890297
5,0.7778003312746684,0.7777885935703913
6,0.7777989475329717,0.777800337990125
7,0.7778003724151188,0.7777989203135173
8,0.7777972354359097,0.7777927231788635
9,0.7777962921592925,0.7777942948738734
10,0.7777951488892237,0.7777990233103435
11,0.7777939804527495,0.7777861435810725
12,0.7777932420836554,0.777786499818166
13,0.77779324318303,0.7777850644588471
14,0.7777933519019021,0.7778062705596288
15,0.777793287065294,0.7777889012098312
16,0.7777931034962337,0.7777871356407802
17,0.7777923997773064,0.7777862099806467
18,0.7777928507460489,0.7777879264354706
19,0.7777932006518046,0.7777901819547017
20,0.7777919395102395,0.7777880129416783
21,0.7777926086319817,0.7778191944758097
22,0.7777924719121722,0.7778019136190415
23,0.7777919431395001,0.7777866193056107
24,0.7777923215230306,0.7777881129980088
25,0.7777921264568964,0.7777855304876963
26,0.7777918071746827,0.7777884066899617
27,0.7777919021977319,0.777785474896431
28,0.7777914556662242,0.7777864661216736
29,0.777791209605005,0.7777851289113362
30,0.7777904415792889,0.7778014800945918
31,0.7777906652159161,0.7777872032721838
32,0.777790502693918,0.7777860608895619
33,0.7777902010281881,0.7777856788237889
