epoch,loss,val_loss
0,0.6674280120664172,0.6667041056950888
1,0.6667538588047027,0.6667054108381272
2,0.6667249731487698,0.6668372078736623
3,0.666716436068217,0.6666874785423279
4,0.6667081863217884,0.6666895769437154
5,0.6667028769784503,0.6666795001029968
6,0.5618723883099026,0.555582834760348
7,0.5555972779326969,0.5555878452062607
8,0.5555945030848185,0.5555734634399414
9,0.5555938297377693,0.55557038128376
10,0.5555920921299192,0.5555705649455388
11,0.5555910882684919,0.5555873516798019
12,0.5555902315113279,0.5555721015135447
13,0.5555889686478509,0.5555773777564367
14,0.5555889070034027,0.5555950475931167
15,0.55558750114176,0.5555791083176931
16,0.5555863437520133,0.5555785030523936
17,0.555586023926735,0.5556208262840907
18,0.5555856561660767,0.5555771720806758
19,0.5555844009849761,0.5555806970993677
20,0.5555843481090333,0.5556011394262313
21,0.555584349738227,0.5556208607753118
22,0.5555846165948444,0.5555726803541183
23,0.555583820382754,0.5555770104726155
24,0.5555831088754866,0.5555735198259354
25,0.555583208296034,0.5556233600775401
26,0.555583854397138,0.5555712275107701
27,0.5555829750564363,0.5555695993502935
28,0.5555829944875506,0.5555912237167359
29,0.5555825507773293,0.5555931602319082
30,0.5555816512902577,0.5555754781564076
31,0.5555811663866043,0.5555691984891892
32,0.5555810179180569,0.5555706530014674
33,0.5555802577469084,0.5555826536019643
34,0.5555800594621234,0.5555715896288553
35,0.5555799948506885,0.5555709431568782
36,0.5555791780816184,0.5555715920130412
37,0.5555797517564561,0.5555745415687561
38,0.5555796990924411,0.5555777564048767
39,0.5555791934463713,0.5556375013987224
40,0.5555802828338411,0.5555733784834543
41,0.5555785464048386,0.555595786968867
42,0.5555800956222746,0.5555710414648056
43,0.5555790450440513,0.5555700362126033
44,0.5555794113477072,0.555571526447932
45,0.5555797327094608,0.5555691803693772
46,0.5555791255235673,0.5555885820786158
47,0.5555792679786682,0.5555738350550333
48,0.5555784584813648,0.5556096376578014
49,0.5555789806577894,0.5555822403430939
50,0.5555789553721746,0.5555706793467203
51,0.5555782855881585,0.5555718162457148
52,0.5555783432192273,0.5555780473947525
53,0.555578397181299,0.5555732131004334
54,0.5555776172346539,0.5555934524933497
55,0.5555778445535235,0.5555743246873219
56,0.5555783468749788,0.5555864983002344
57,0.5555780258311166,0.5555897643566131
58,0.5555781154897478,0.5555701532363891
59,0.5555780066914029,0.5555704003969828
60,0.5555782434410519,0.5555708125034968
61,0.5555780849456787,0.5555700722138087
62,0.5555783802933163,0.555576232711474
63,0.5555778189897537,0.5555693539778391
64,0.5555782172150082,0.5555698003371556
65,0.555577524834209,0.5555804929733277
