epoch,loss,val_loss
0,0.47707980557282764,0.4597763119737307
1,0.45964911732408736,0.4593182328740756
2,0.45904368560844,0.4582522124449412
3,0.45872605258226395,0.4607728149294853
4,0.5384529827634493,0.6777779174248377
5,0.6750289436711205,0.6753110649585724
6,0.674889118803872,0.6749230652650198
7,0.6749041934410731,0.6749739997386932
8,0.6748217424684101,0.6746403690179189
9,0.6749117978678809,0.6747045264641444
10,0.6747905671199163,0.6747389278014501
11,0.6747637334664662,0.6748072112401327
12,0.6747759359280269,0.6746333032051722
13,0.6756573385397593,0.6747555451393128
14,0.6747581868569056,0.6746122101942699
15,0.6747283374468486,0.6748151636123657
16,0.674718500190311,0.6746690888007482
17,0.6746886400116815,0.674762421409289
18,0.6747596261103948,0.6751966812213261
19,0.6747431521945529,0.6752363626559575
20,0.6746875154177348,0.6747028160889943
21,0.6746845366160075,0.6746840374867121
22,0.7868659394979477,0.7831416877905528
