epoch,loss,val_loss
0,0.6170238614877065,0.5676824865738551
1,0.5678353138632245,0.5674457049369812
2,0.5672901840342416,0.5670165872573852
3,0.5670640188190672,0.5674040321111679
4,0.5668887592686547,0.5673031992117564
5,0.5740238844023811,0.5668564374844233
6,0.5667560472753312,0.5664605081478755
7,0.5666675744586521,0.5665418515602748
8,0.5665588444073995,0.5663808391094208
9,0.5665454341438082,0.5664634491205216
10,0.5672911836306254,0.5665183155139287
11,0.5665174078676436,0.567858443458875
12,0.5665007190042072,0.5671559543609619
13,0.5664655566215515,0.5703403500715891
14,0.48942140638166004,0.4580764672756195
15,0.45798746051390965,0.45841066680351894
16,0.45799537112315497,0.45909125421444574
17,0.45795676920811335,0.45897184588511786
18,0.45808185586002137,0.4586695173780123
19,0.45796553907791776,0.4577831589182218
20,0.4579754047261344,0.46108452103535336
21,0.4579496132863892,0.4578847221930822
22,0.45793406075901455,0.45826476911703745
23,0.4579209110074573,0.4585998430053393
24,0.45799106483989294,0.4579764968951543
25,0.45793755773040984,0.45798049543301267
26,0.4579064318007893,0.4577557057936986
27,0.4579217077891032,0.457682281712691
28,0.45795585076676476,0.45796869975328447
29,0.45786889472934933,0.4578118219772975
30,0.4579002822505103,0.4578223211566607
31,0.4578542428414027,0.45771488348642986
32,0.45787117198440763,0.45768585499127706
33,0.45783324053552416,0.4580909077922503
34,0.4578826165530417,0.4580399529139201
35,0.4578511293265555,0.45777238686879473
36,0.4578366083966361,0.45766765385866165
37,0.4578363319701619,0.4577447946071625
38,0.45782501020696426,0.457700255215168
39,0.4578266045980983,0.45771590210994084
40,0.45780343016650943,0.45816363179683683
41,0.45784853773646883,0.4582489749789238
42,0.45778294233481087,0.4585394144455592
43,0.4578193094862832,0.45855549081166586
44,0.45780674681398603,0.45759409805138906
45,0.4577964215344853,0.4577914105852445
46,0.45779503454764686,0.45793256719907127
47,0.4577996810939577,0.4576585637529691
48,0.45777348147498237,0.4584483418265978
49,0.4577902777791023,0.45824906637271245
50,0.457804833498266,0.45860563731193543
51,0.45776615731583703,0.45931471729278567
52,0.4577796934511926,0.4578657963871956
53,0.4577561620937453,0.45801120533545814
54,0.4577699590855175,0.45786184072494507
55,0.4577791553537051,0.45920414382219316
56,0.4578492674761348,0.45774424449602763
57,0.45778215288453633,0.4576398445367813
58,0.45775871209303537,0.45786035853624346
59,0.4577463406920433,0.4576959314147631
60,0.4578044440812535,0.4578622798323631
61,0.45775220106045406,0.45783117004235585
62,0.4577622178395589,0.45752402885754906
63,0.45777431563536325,0.4576252642273903
64,0.4577567398150762,0.4576082454323769
65,0.45772103111611473,0.4578000818490982
66,0.4577460777892007,0.4590795034170151
67,0.4577603271603584,0.4578088872432709
68,0.4577528919776281,0.4576607095400492
69,0.4577281031012535,0.4592615245183309
70,0.457742772936821,0.45814146039883297
71,0.4577695535884963,0.45772585356235507
72,0.45776204358869127,0.4576271627942721
73,0.4577313881251547,0.4576511043310165
74,0.45773355354203116,0.4579454239408175
75,0.4577165039446619,0.45761827115217846
76,0.4577218792504735,0.4583209390044212
77,0.4577244624429279,0.45983869496981306
78,0.45775170624256134,0.4581942422191302
79,0.4577297517193688,0.45757932907342913
80,0.4577344681753053,0.4576454296112061
81,0.45816357433133653,0.45825755447149275
82,0.45796918999486497,0.4576788704991341
