epoch,loss,val_loss
0,0.4627483927673764,0.4612180348833402
1,0.4403919074667825,0.35078067948420844
2,0.35070608891381155,0.35087786229451495
3,0.3510465902487437,0.35074401227633156
4,0.3502004834810893,0.3496624750494957
5,0.35011218025949264,0.3499371968507767
6,0.3499391464922163,0.34959303031365074
7,0.34982891548342177,0.3498798604806264
8,0.34974087182680763,0.35026812748114267
9,0.3497192453609573,0.3525634542107582
10,0.35206329776181117,0.3501458832025528
11,0.3496866417858336,0.34950568826993306
12,0.3496059526734882,0.35023018658161165
13,0.349571663055155,0.3492395636240641
14,0.34956042071183524,0.3495469752748807
15,0.34947228705883027,0.3500661138892174
16,0.3494837951461474,0.3492917755444845
17,0.34945447924402023,0.3506315675576528
18,0.34945934742689133,0.35055191230773924
19,0.3494342840446366,0.3500100286404292
20,0.3494591347972552,0.3493836796681086
21,3.4232330126100114,0.8916803915103276
22,0.8915913610458374,0.8918456791241963
23,0.8915821447769801,0.8915792821248373
24,0.8915714607371225,0.8915187880595525
25,0.8915647712151209,0.8915308078130086
26,0.8915652448203829,0.8915615751743317
27,0.8915601545439826,0.8915519730250041
28,0.8915694811741511,0.8915928206443786
29,0.8915666672521168,0.8915447634458542
30,0.8915701369047165,0.8916820058425268
31,0.891563011460834,0.891617416938146
32,0.8915640268193351,0.8915978170235952
33,0.8915651712020238,0.8915575572252273
