epoch,loss,val_loss
0,0.5695045297940572,0.5680542805592219
1,0.5676035072008768,0.5673773847421011
2,0.5685231095287535,0.5671774325768153
3,0.5669779744678074,0.566508238474528
4,0.5669082114961412,0.5670234362681706
5,0.5667337962521447,0.5745934651295344
6,0.5672961977322897,0.5664617756605148
7,0.5666461598873138,0.5678047355413437
8,0.5665538707706663,0.5666495747963587
9,0.566497259762552,0.56635382771492
10,0.5667305667797724,0.5663399171431859
11,0.566427596476343,0.8726230260531107
12,0.5667005715502633,0.5667853229443233
13,0.5664121095339457,0.5663198365767796
14,0.5663531653616164,0.5662495659589768
15,0.5663927056524488,0.566751383860906
16,0.5663663617107604,0.5665260120630264
17,0.5724362857209312,0.5662171894709269
18,0.5662700173192554,0.5662920979261399
19,0.5662968211836285,0.5665245875120163
20,0.5662906017700831,0.5661383830706278
21,0.5662872148619758,0.5666687700748444
22,0.5662971895403333,0.5672348908980688
23,0.566303854001893,0.5661279048522313
24,0.5725794413619572,0.5663251368204753
25,0.5662687997817993,0.5662842129071554
26,0.5662373413642248,0.5667061746915182
27,0.566247189561526,0.5662206389904022
28,0.5662989931106568,0.5662646908362706
29,0.566287829650773,0.566091999967893
30,0.5662569650279151,0.5660954242547354
31,0.5662351956764857,0.5660737378199895
32,0.5662728936009936,0.5673802304665247
33,0.5662125951581531,0.5673357834815979
34,0.5662271229161157,0.5677086572647094
35,0.5662486588557561,0.5660435733000437
36,0.5662365386088689,0.5662547775506973
37,0.5662258276806937,0.5660979844729106
38,0.566212879008717,0.5665168661673864
39,0.5662485936482747,0.5662796446879704
40,0.5662733901474211,0.5660869042078654
41,0.5662262351248,0.567724199215571
42,0.7527450529469384,0.7830737557411194
43,0.7831755240493351,0.7830861397981643
44,0.7831351792812348,0.7833328239123026
45,0.7865001749197642,0.7834362467527389
46,0.7832343058188757,0.7830854490995407
47,0.7831192764706082,0.7831179566383362
48,0.7831103742917379,0.7831011886199315
49,0.7831033313274384,0.7830975190798442
50,0.7831004736026128,0.7831105968554815
51,0.7831329253249698,0.7838218496243159
52,0.7831126366323895,0.7830445070664088
53,0.78309992146492,0.7835311586459478
54,0.7831118826336331,0.7831047825415929
55,0.7831045705874761,0.7831182565689087
