epoch,loss,val_loss
0,0.6178677397701475,0.5694159064690272
1,0.48488168422381084,0.4590386653741201
2,0.45912933229075537,0.45845766297976176
3,0.45868294246991476,0.4583843265771866
4,0.45838876850737464,0.4591862150033315
5,0.46017221261395347,0.45864746505022047
6,0.4581814002527131,0.4590392643213272
7,0.4582340597907702,0.4585412009159724
8,0.45813607486751345,0.4619002136588097
9,0.4580680697626538,0.4578416843612989
10,0.45856194739871553,0.45827476580937704
11,0.4581533501678043,0.45817991902430855
12,0.4579837048649788,0.4578301280140877
13,0.4580039208398925,0.4587659189303716
14,0.4579440238939391,0.4578392318487167
15,0.4579573207298915,0.4580200613339742
16,0.4579240213367674,0.4577342936396599
17,0.4579287686679098,0.45778968660036723
18,0.4578865566518572,0.45884546955426536
19,0.457874516122871,0.4577679647405942
20,0.4579057608511713,0.4577252465883891
21,0.45786478736665515,0.45767062304417294
22,0.45788256296184326,0.45764908264080684
23,0.4578481600814395,0.45761565341552096
24,0.4578384611076779,0.4581464764475822
25,0.4578477337691519,0.4580069797237714
26,0.45787759185499616,0.4578356583515803
27,0.4578336831132571,0.45798707209030787
28,0.45782344325383506,0.4576661283771197
29,0.4578123183912701,0.4576946592926979
30,0.45779673905505075,0.4815875271161397
31,0.46215506682131025,0.45797430819272994
32,0.45784491631719804,0.4575356521010399
33,0.45781105435556835,0.46532052201032637
34,0.4578190493914816,0.45780246116717654
35,0.4577879701720344,0.45756069699923196
36,0.457766178548336,0.45765032998720806
37,0.45786590539746813,0.457862083931764
38,0.45796696831120387,0.4580846358338992
39,0.45774875466028847,0.45759738580385845
40,0.45776913849512735,0.45757044086853665
41,0.4577867062886556,0.45785779945055644
42,0.4577712133924166,0.45762527066469194
43,0.45776649533377756,0.45812084301312767
44,0.4577485848334101,0.45772726500034333
45,0.4577619945870505,0.4576857925256093
46,0.4586398477686776,0.4576347041130066
47,0.45772294781605405,0.4577640500664711
48,0.45774761094649635,0.45828649652004244
49,0.4577792610724767,0.45823414061466855
50,0.45775863576597636,0.45795663144191107
51,0.4577360090944502,0.45759507832924523
52,0.4578019173873795,0.4592985536456108
