epoch,loss,val_loss
0,0.5760774306184668,0.48502890185850667
1,0.48432191363055643,0.4847826862909141
2,0.48429078851148283,0.48477692642170517
3,0.4842870925946964,0.4847745029307202
4,0.4842852930918777,0.4847731649781553
5,0.48428423677702886,0.48477233554682775
6,0.48428356171035464,0.48477179235422246
7,0.48428310942259145,0.4847714251999603
8,0.4842827904948609,0.48477115787289327
9,0.4842825580438931,0.484770953608199
10,0.4842823866864951,0.4847708017974739
11,0.484282262248101,0.48477069696010144
12,0.48428216405052077,0.4847706192200261
13,0.48428209028322156,0.4847705482072311
14,0.4842820452104846,0.48477051174819424
15,0.4842820030560406,0.4847704757831185
16,0.4842819666428913,0.48477044786255286
17,0.48428194105720446,0.48477042812762905
18,0.48428192073635634,0.48477040714604136
19,0.4842819091703871,0.4847703867054588
20,0.4842818917559205,0.4847703860703659
21,0.48428188277472506,0.48477036748801805
22,0.484281873090757,0.48477036518286604
23,0.48428186750431046,0.48477035819684416
24,0.4842818666705125,0.48477035363358406
25,0.48428186692065184,0.48477034307222433
26,0.4842818586779632,0.4847703497054169
27,0.4842818560098096,0.48477034370731725
28,0.4842818518408197,0.4847703471180013
29,0.4842818536275296,0.4847703462006449
30,0.4842818519241995,0.4847703439660588
31,0.4842818561646578,0.4847703500817682
32,0.48428185061394546,0.484770342107824
33,0.4842818493989827,0.48477034629473276
34,0.4842818512809839,0.4847703407670723
35,0.48428185234109844,0.4847703412375115
36,0.4842818488629697,0.48477034450706386
37,0.48428185154303466,0.48477034006141356
38,0.4842818507687937,0.4847703400849355
39,0.48428185429456805,0.4847703455185081
40,0.4842818552832142,0.4847703444835419
41,0.4842818520909591,0.48477034344857567
42,0.48428184745742453,0.48477034398958074
43,0.4842818525316809,0.4847703389794034
44,0.48428185142392066,0.4847703440836686
45,0.48428185369899807,0.4847703387206619
46,0.48428185207904767,0.4847703387206619
47,0.48428185291284565,0.4847703448128493
48,0.4842818491488433,0.4847703445541078
49,0.4842818502327807,0.48477034888214826
50,0.4842818571771268,0.4847703497995047
51,0.48428185446132765,0.48477034504806893
52,0.4842818514953891,0.4847703424606534
53,0.4842818510070217,0.48477034406014663
54,0.48428185298431403,0.4847703439425368
55,0.4842818489701723,0.4847703408376382
56,0.4842818551641002,0.4847703399908477
57,0.48428185318680783,0.4847703390499693
58,0.48428185444941624,0.4847703399202818
59,0.4842818510427559,0.4847703438954929
60,0.4842818498992615,0.4847703436132294
61,0.48428185147156627,0.48477034681221587
62,0.4842818524483011,0.4847703439425368
63,0.48428185550953085,0.48477034278996084
64,0.4842818563433288,0.4847703393322328
65,0.48428185242447824,0.48477034669460606
66,0.4842818478862349,0.4847703448834152
67,0.4842818483388681,0.48477035052868545
68,0.48428185514027744,0.48477034114342366
69,0.48428185643862,0.4847703370741247
70,0.48428185381811206,0.48477034307222433
71,0.4842818493751599,0.48477034603599123
72,0.48428185294857984,0.48477034208430203
73,0.48428185369899807,0.4847703413080774
74,0.4842818494823625,0.4847703407905943
75,0.4842818550330748,0.4847703477766162
76,0.48428185449706185,0.48477034370731725
77,0.4842818509593761,0.48477033907349126
78,0.48428185329401047,0.48477033867361796
79,0.4842818529366685,0.48477034114342366
80,0.4842818525316809,0.484770346153601
81,0.4842818523649213,0.4847703465534743
82,0.48428184827931114,0.48477034669460606
83,0.4842818495776537,0.48477034208430203
84,0.48428185409207425,0.484770336909471
85,0.4842818501613123,0.48477034239008754
86,0.48428185262697204,0.4847703518929591
87,0.4842818503995403,0.48477035104616856
88,0.4842818512095155,0.48477034561259597
89,0.4842818510308445,0.48477034283700476
90,0.4842818539134032,0.48477034878806047
91,0.48428185296049125,0.48477034161386284
92,0.4842818523768327,0.4847703372152565
93,0.4842818478147665,0.4847703447422834
94,0.48428185352032704,0.4847703457302057
95,0.484281856200392,0.48477033935575475
96,0.4842818521743389,0.48477034867045066
97,0.4842818507926165,0.4847703440131027
98,0.48428185170979426,0.48477034431888816
99,0.4842818472906649,0.48477034601246927
100,0.4842818490059065,0.48477034144920916
101,0.4842818565219998,0.48477034422480036
102,0.48428185219816167,0.4847703469768696
103,0.48428184912502054,0.4847703414962531
104,0.4842818523291871,0.4847703469298257
105,0.484281856200392,0.4847703445305858
106,0.48428185331783324,0.4847703429546145
107,0.48428185460426443,0.4847703425782632
108,0.4842818565696454,0.4847703491173679
109,0.48428184912502054,0.484770347306177
110,0.48428185041145166,0.4847703444835419
111,0.48428184997072987,0.4847703417785166
112,0.4842818514834777,0.48477034855284085
113,0.4842818495300081,0.48477034199021424
114,0.4842818539134032,0.48477034267235103
115,0.4842818520075793,0.48477034220191184
116,0.4842818499826413,0.4847703451421568
117,0.48428185478293545,0.48477034624768883
118,0.4842818515311233,0.4847703441542345
119,0.4842818509951103,0.48477034478932735
120,0.4842818501017553,0.48477033702708083
121,0.4842818501613123,0.48477034669460606
122,0.4842818537109094,0.48477034589485946
123,0.48428185170979426,0.484770347306177
124,0.4842818506854139,0.48477034403662467
125,0.48428185317489647,0.4847703489291922
126,0.4842818540325172,0.4847703463182547
127,0.48428185399678303,0.48477034318983414
128,0.4842818502327807,0.4847703447422834
129,0.4842818511618699,0.4847703414256872
130,0.48428185304387106,0.48477033756808585
131,0.48428184767182975,0.48477034674165
132,0.48428185174552846,0.4847703365095977
133,0.4842818536632639,0.4847703482470554
134,0.4842818520552249,0.4847703443659321
135,0.4842818486723873,0.4847703465064304
136,0.48428185311533944,0.4847703467886939
137,0.48428185230536425,0.4847703418726044
138,0.48428185318680783,0.4847703410728578
139,0.48428184826739973,0.4847703419431703
140,0.4842818491369319,0.48477034243713146
141,0.48428185380620065,0.48477034815296755
142,0.4842818536275296,0.4847703393087109
143,0.4842818504471859,0.48477034144920916
144,0.48428184739786756,0.48477034304870237
145,0.48428184705243693,0.4847703439425368
146,0.4842818493156029,0.48477035184591516
147,0.4842818488987039,0.48477034384844897
148,0.4842818518169969,0.48477034502454697
149,0.48428185247212385,0.48477034097877
150,0.48428185201949064,0.48477034721208917
151,0.4842818487795899,0.4847703475884405
152,0.4842818525316809,0.48477034704743543
153,0.4842818513643637,0.4847703430251804
154,0.48428185069732527,0.4847703389794034
155,0.4842818510070217,0.48477034140216524
156,0.48428185292475706,0.4847703427429169
157,0.48428185578349303,0.48477034283700476
158,0.48428185145965486,0.4847703463417767
159,0.48428185335356744,0.48477034351914156
160,0.4842818524125669,0.48477034382492706
161,0.4842818501374895,0.4847703397085842
162,0.4842818495180967,0.48477034267235103
163,0.4842818558073158,0.4847703486469287
164,0.48428185474720126,0.4847703420137362
165,0.4842818516383259,0.48477034366027333
166,0.48428185448515043,0.48477034260178514
167,0.48428185344885866,0.4847703440836686
168,0.4842818485056277,0.4847703394498426
169,0.4842818500064641,0.48477034601246927
170,0.484281855485708,0.4847703428605267
171,0.4842818553189484,0.4847703460595132
172,0.48428185206713625,0.48477034243713146
173,0.48428185268652907,0.4847703456361179
174,0.48428185442559346,0.484770340367199
175,0.4842818476956525,0.4847703362273342
176,0.48428185598598683,0.48477034121398954
177,0.4842818560098096,0.4847703374504761
178,0.4842818536632639,0.48477033549815346
179,0.4842818572485952,0.4847703395909744
180,0.4842818537109094,0.4847703442483223
181,0.4842818502327807,0.4847703521752226
182,0.484281854711467,0.48477034457762974
183,0.48428185291284565,0.4847703401790234
184,0.4842818504710087,0.4847703499641584
185,0.4842818527341747,0.48477034544794223
186,0.4842818539491374,0.4847703526927057
187,0.4842818515668575,0.4847703405788967
188,0.48428185291284565,0.48477034537737634
189,0.48428185167406007,0.48477034469523955
190,0.4842818567125822,0.4847703394027987
191,0.48428185328209905,0.4847703462006449
192,0.4842818485413619,0.4847703414256872
193,0.4842818517574399,0.48477033947336456
194,0.4842818499230843,0.48477034387197093
195,0.4842818518169969,0.48477034504806893
196,0.4842818544375048,0.48477033629790006
197,0.4842818556524676,0.4847703477295723
198,0.4842818517574399,0.48477033926166696
199,0.48428185240065547,0.48477034168442873
200,0.48428185234109844,0.48477033796795915
201,0.48428185449706185,0.4847703417549946
202,0.48428185179317407,0.48477034622416687
203,0.4842818530557825,0.48477034111990175
204,0.48428184802917174,0.4847703451186348
205,0.48428185190037665,0.48477034271939495
206,0.48428184705243693,0.48477033676833925
207,0.48428185398487167,0.4847703378973933
208,0.4842818556762904,0.48477034438945404
209,0.48428185242447824,0.4847703488586263
210,0.48428185448515043,0.4847703411669456
211,0.48428185598598683,0.48477034485989323
212,0.48428185234109844,0.4847703505522074
213,0.48428185409207425,0.4847703442012784
214,0.4842818519241995,0.4847703408846821
215,0.48428185154303466,0.48477034097877
216,0.4842818483746023,0.4847703446717176
217,0.484281857093747,0.484770343283922
218,0.4842818504710087,0.48477034669460606
219,0.4842818505543885,0.4847703444835419
220,0.48428185098319887,0.4847703425076973
221,0.48428184848180494,0.484770338062047
222,0.4842818478505007,0.48477034243713146
223,0.48428185206713625,0.48477034133159935
224,0.4842818515311233,0.4847703476590064
225,0.4842818541516312,0.48477034457762974
226,0.48428185296049125,0.48477034318983414
227,0.48428185276990887,0.4847703487645385
228,0.4842818573677092,0.4847703433544879
229,0.48428185385384626,0.4847703460595132
230,0.48428185321063066,0.4847703469768696
231,0.48428185297240267,0.4847703462712108
232,0.48428185348459285,0.48477034347209763
233,0.48428185335356744,0.4847703399673257
234,0.4842818493156029,0.4847703404377649
235,0.48428185101893306,0.48477034596542534
236,0.4842818524959467,0.48477034377788314
237,0.48428185365135246,0.4847703394027987
238,0.4842818559264298,0.48477034681221587
239,0.48428185595025264,0.4847703440836686
240,0.4842818486128303,0.48477034086116016
241,0.4842818511976041,0.48477034311926825
242,0.48428185478293545,0.48477034662404017
243,0.48428185280564306,0.48477034485989323
244,0.48428185409207425,0.4847703430251804
245,0.48428185299622545,0.48477034674165
246,0.4842818515311233,0.48477034457762974
247,0.48428185179317407,0.48477034438945404
248,0.484281856498177,0.48477034537737634
249,0.4842818523649213,0.48477034239008754
250,0.4842818492798687,0.4847703412375115
251,0.4842818493394257,0.48477034549498615
252,0.48428185388958045,0.48477033749752
253,0.48428185336547885,0.48477034140216524
254,0.4842818554142396,0.48477034549498615
255,0.4842818573438864,0.48477034584781553
256,0.4842818545089732,0.4847703479412699
257,0.4842818567006708,0.4847703442483223
258,0.4842818485413619,0.48477034041424294
259,0.4842818551164546,0.48477034403662467
260,0.4842818500898439,0.48477034304870237
261,0.48428185375855504,0.4847703445305858
262,0.4842818501136667,0.48477034822353343
263,0.4842818500064641,0.4847703437543612
264,0.4842818506735025,0.4847703394498426
265,0.4842818511976041,0.48477034756491855
266,0.48428185465191004,0.4847703394027987
267,0.48428185517601163,0.48477034608303515
268,0.4842818498635273,0.4847703474473088
269,0.4842818503399833,0.48477034224895577
270,0.4842818535084156,0.4847703453538544
271,0.48428184892252674,0.4847703477060503
272,0.4842818502446921,0.4847703422959997
273,0.4842818553189484,0.4847703490938459
274,0.4842818501851351,0.4847703387677058
275,0.48428185453279604,0.48477033914405715
276,0.4842818509951103,0.4847703408376382
277,0.48428185466382145,0.4847703451186348
278,0.48428185388958045,0.48477034822353343
279,0.4842818505424771,0.48477034151977505
280,0.4842818519241995,0.4847703451186348
281,0.4842818509474647,0.4847703481059236
282,0.48428184816019715,0.4847703492584996
283,0.4842818501851351,0.4847703453538544
284,0.4842818504710087,0.4847703389794034
285,0.48428185304387106,0.4847703450715909
286,0.4842818511499585,0.4847703410963798
287,0.48428185348459285,0.4847703426253071
288,0.4842818495061853,0.4847703516812614
289,0.48428185304387106,0.48477034126103347
290,0.48428185138818647,0.4847703417785166
291,0.4842818513524523,0.4847703435426635
292,0.484281854830581,0.4847703434956196
293,0.4842818556882018,0.48477034410719055
294,0.48428185260314927,0.4847703433544879
295,0.48428185101893306,0.48477034337800984
296,0.48428184826739973,0.4847703421783899
297,0.4842818506020341,0.4847703397085842
298,0.48428185348459285,0.4847703427429169
299,0.48428185282946584,0.48477034815296755
300,0.4842818488153241,0.4847703424606534
301,0.48428185159068027,0.4847703428134828
302,0.4842818493036915,0.48477034264882907
303,0.4842818485413619,0.4847703536100621
304,0.48428185179317407,0.48477034213134595
305,0.4842818519599337,0.48477034589485946
306,0.48428185368708665,0.48477034709447936
307,0.48428185266270624,0.4847703413080774
308,0.48428185142392066,0.48477034610655706
309,0.48428185159068027,0.48477034577724964
310,0.4842818486962101,0.48477034351914156
311,0.48428185446132765,0.48477034330744395
312,0.4842818534607701,0.4847703393322328
313,0.4842818535441499,0.4847703452127226
314,0.48428185316298505,0.4847703420372581
315,0.4842818505424771,0.4847703453303324
316,0.4842818548782266,0.48477034104933586
317,0.48428185223389586,0.48477034431888816
318,0.4842818517217057,0.4847703425782632
319,0.4842818552117458,0.48477034490693716
320,0.48428185306769383,0.48477034808240166
321,0.4842818512452497,0.4847703390499693
322,0.4842818518050855,0.4847703463888206
323,0.4842818490892863,0.4847703407200284
324,0.4842818594402928,0.4847703471885672
325,0.48428184751698156,0.48477034641234257
326,0.4842818502208693,0.484770340390721
327,0.48428185166214865,0.4847703425782632
328,0.4842818548067582,0.48477034695334764
329,0.48428185271035185,0.48477034144920916
330,0.48428185329401047,0.48477033516884604
331,0.48428185243638966,0.48477034648290845
332,0.4842818508759963,0.4847703399908477
333,0.48428185468764423,0.4847703433544879
334,0.48428185194802226,0.48477034239008754
335,0.4842818498158817,0.484770346153601
336,0.48428185211478186,0.484770347894226
337,0.4842818509951103,0.4847703465064304
338,0.4842818526507949,0.48477034097877
339,0.4842818497444133,0.484770347306177
340,0.48428185069732527,0.4847703407200284
341,0.4842818517336171,0.484770336321422
342,0.48428185340121305,0.4847703436132294
343,0.4842818505424771,0.4847703446011517
344,0.4842818514477435,0.4847703467886939
345,0.48428185527130285,0.48477034121398954
346,0.48428185397296025,0.4847703474473088
347,0.48428185336547885,0.4847703469298257
348,0.48428185424692244,0.4847703469768696
349,0.4842818512095155,0.484770347329699
350,0.48428185343694724,0.48477034053185275
351,0.4842818531391623,0.4847703429781365
352,0.48428185324636486,0.48477034502454697
353,0.48428185311533944,0.48477034227247773
354,0.48428185571202464,0.4847703463888206
355,0.4842818565219998,0.4847703459183814
356,0.48428185360370685,0.48477034584781553
357,0.48428184848180494,0.48477035085799286
358,0.48428185365135246,0.4847703434250537
359,0.4842818500660211,0.4847703434956196
360,0.48428184726684215,0.4847703430957463
361,0.48428185404442864,0.4847703418726044
362,0.48428185211478186,0.4847703475178746
363,0.4842818493751599,0.4847703404848088
364,0.4842818509951103,0.4847703421548679
365,0.48428184819593134,0.48477034231952165
366,0.48428185318680783,0.4847703424606534
367,0.48428185275799746,0.4847703374504761
368,0.4842818490178179,0.4847703441542345
369,0.4842818545089732,0.4847703458713375
370,0.4842818509951103,0.4847703378973933
371,0.48428185186464245,0.4847703382502227
372,0.4842818497325019,0.48477034417775644
373,0.4842818561646578,0.48477034253121926
374,0.4842818474812473,0.48477034300165844
375,0.4842818536632639,0.4847703515871736
376,0.48428185238874405,0.48477034422480036
377,0.48428185150730046,0.48477034406014663
378,0.4842818482435769,0.48477034516567874
379,0.4842818552355686,0.4847703507168611
380,0.48428185359179543,0.4847703423665656
381,0.48428185368708665,0.48477033987323787
382,0.484281854235011,0.4847703414727311
383,0.48428185525939144,0.48477034450706386
384,0.4842818497563247,0.48477034561259597
385,0.4842818534250358,0.4847703428605267
386,0.48428185194802226,0.48477034199021424
387,0.48428185296049125,0.48477034756491855
388,0.48428185357988407,0.48477034384844897
389,0.4842818508640849,0.4847703430957463
390,0.48428185498542925,0.4847703429781365
391,0.4842818503399833,0.48477034582429357
392,0.4842818517217057,0.4847703450715909
393,0.4842818486723873,0.48477034648290845
394,0.48428185466382145,0.48477034537737634
395,0.4842818498873501,0.48477034304870237
396,0.48428185276990887,0.4847703462712108
397,0.4842818511976041,0.4847703479883138
398,0.48428185347268143,0.4847703448128493
399,0.48428185137627505,0.48477034340153174
400,0.48428185562864484,0.4847703455185081
401,0.4842818522100731,0.4847703442483223
402,0.48428185373473226,0.4847703459889473
403,0.48428185400869445,0.48477034761196247
404,0.4842818501374895,0.48477034403662467
405,0.4842818509712875,0.48477034549498615
406,0.48428184956574233,0.4847703396380183
407,0.48428185179317407,0.4847703457537277
408,0.4842818516025917,0.4847703435661855
409,0.4842818490892863,0.48477034544794223
410,0.4842818554737966,0.4847703405553747
411,0.484281854473239,0.48477034231952165
412,0.48428185297240267,0.4847703431427902
413,0.4842818501970465,0.48477034530681046
414,0.4842818521743389,0.48477033676833925
415,0.4842818516025917,0.48477034485989323
416,0.4842818530200483,0.4847703418255605
417,0.4842818508879077,0.48477034516567874
418,0.4842818510427559,0.4847703418255605
419,0.4842818524959467,0.4847703386971399
420,0.4842818506735025,0.4847703451186348
421,0.4842818520552249,0.48477034902328003
422,0.48428185134054086,0.4847703447187615
423,0.48428185150730046,0.4847703442953662
424,0.48428185419927683,0.4847703474708307
425,0.48428185247212385,0.48477034417775644
426,0.48428185372282084,0.48477034358970744
427,0.4842818552832142,0.48477034975246075
428,0.48428185384193484,0.4847703426253071
429,0.4842818476956525,0.48477034596542534
430,0.48428185210287045,0.484770345589074
431,0.48428185242447824,0.4847703455420301
432,0.4842818521624275,0.4847703466005182
433,0.48428185219816167,0.4847703332165234
434,0.48428185159068027,0.484770346718128
435,0.48428185118569267,0.4847703447658054
436,0.4842818512095155,0.4847703451892007
437,0.4842818551521888,0.4847703381090909
438,0.48428185316298505,0.48477034509511285
439,0.4842818516502373,0.48477034300165844
440,0.4842818491726661,0.48477034878806047
441,0.48428185550953085,0.48477033848544226
442,0.4842818513643637,0.48477034636529864
443,0.4842818519361109,0.4847703419666923
444,0.48428185134054086,0.4847703443424101
445,0.4842818502089579,0.4847703454714642
446,0.4842818527341747,0.48477034525976653
447,0.4842818489939951,0.48477034034367705
448,0.4842818512095155,0.4847703457302057
449,0.4842818510427559,0.48477034206078007
450,0.4842818522458073,0.48477034947019726
451,0.4842818503518947,0.4847703432604
452,0.4842818553308598,0.4847703435426635
453,0.48428185311533944,0.4847703333576552
454,0.48428184731448776,0.4847703381796568
455,0.4842818509117305,0.4847703392851889
456,0.4842818522458073,0.4847703458007716
457,0.4842818515549461,0.4847703469768696
458,0.48428185235300986,0.4847703385324862
459,0.48428185385384626,0.4847703410963798
460,0.48428184916075473,0.4847703413551213
461,0.4842818478147665,0.4847703418961264
462,0.48428185429456805,0.48477034161386284
463,0.4842818503876289,0.48477034304870237
464,0.484281854592353,0.4847703435661855
465,0.4842818512452497,0.48477033982619394
466,0.4842818457898286,0.48477034674165
467,0.48428185250785805,0.4847703418726044
468,0.48428185300813686,0.4847703426253071
469,0.4842818492322231,0.4847703472591331
470,0.48428185509263183,0.48477034523624457
471,0.48428184758844994,0.4847703510932124
472,0.48428185186464245,0.48477034410719055
473,0.4842818517574399,0.4847703410963798
474,0.48428185360370685,0.48477034561259597
475,0.48428184658789236,0.4847703421783899
476,0.4842818494704511,0.4847703400378916
477,0.48428185590260703,0.48477034208430203
478,0.4842818520433135,0.4847703440836686
479,0.4842818522100731,0.48477034264882907
480,0.4842818547591126,0.48477034347209763
481,0.4842818551521888,0.48477034622416687
482,0.48428185118569267,0.4847703469063037
483,0.4842818505424771,0.48477034213134595
484,0.4842818529009343,0.4847703495642851
485,0.48428185332974466,0.4847703477766162
486,0.48428185570011323,0.48477034114342366
487,0.48428185248403527,0.4847703475413966
488,0.48428185380620065,0.4847703418961264
489,0.4842818536275296,0.4847703365801636
490,0.48428185286520004,0.48477034582429357
491,0.4842818553308598,0.4847703491644118
492,0.4842818501613123,0.48477034603599123
493,0.4842818509951103,0.4847703416373848
494,0.4842818518169969,0.4847703441542345
495,0.48428185199566787,0.4847703440131027
496,0.48428185280564306,0.4847703435426635
497,0.4842818546399986,0.4847703445541078
498,0.48428185627186043,0.4847703410963798
499,0.48428185441368204,0.4847703449539811
500,0.48428184667127216,0.48477034161386284
501,0.4842818480529945,0.48477034565963983
502,0.48428185154303466,0.48477034166090677
503,0.4842818518169969,0.48477034417775644
504,0.4842818522577187,0.48477034582429357
505,0.48428185169788285,0.48477034231952165
506,0.48428185150730046,0.4847703503875537
507,0.48428184702861415,0.48477034337800984
508,0.48428185404442864,0.4847703448128493
509,0.4842818487081215,0.48477034022606724
510,0.4842818469214115,0.48477034867045066
511,0.48428185262697204,0.4847703442483223
512,0.48428185486631525,0.4847703414962531
513,0.48428185118569267,0.4847703532807547
514,0.48428185078070507,0.4847703443659321
515,0.4842818490535521,0.484770347329699
516,0.4842818529366685,0.4847703514225199
517,0.4842818505543885,0.48477034641234257
518,0.4842818483388681,0.48477034895271415
519,0.484281855485708,0.484770346718128
520,0.4842818485890075,0.4847703365095977
521,0.4842818503042491,0.48477034443649797
522,0.48428185201949064,0.48477034648290845
523,0.4842818481244629,0.4847703503169878
524,0.48428185262697204,0.48477034403662467
525,0.4842818500779325,0.48477034629473276
526,0.48428185138818647,0.48477034603599123
527,0.4842818479338805,0.48477034340153174
528,0.4842818541873654,0.48477034516567874
529,0.48428185259123785,0.48477034676517194
530,0.48428185331783324,0.48477034965837296
531,0.4842818530557825,0.4847703429546145
532,0.48428185510454325,0.4847703392851889
533,0.4842818527341747,0.4847703433544879
